581.258678873 +- 65.6189604941
[ 45.22965361 -23.6134394 ]
0.709930430336, 0.200000006721,  0.799999993279
{'OMfit_0': 0.16842497306463616, 'b': 0.1077516361200781, 'l': 0.11442236981180787, 'h_fit_0': 0.0015042962728265552, 'z_bulk': 0.00021888162624134067}
224.462815317
no error
