4586.15176721 +- 105446.654793
[ 61.30496258 -74.75576995]
0.698272180351, 0.200000639035,  0.799999360965
{'OMfit_0': 0.19956081226211672, 'b': 1.762020675080024, 'l': 5.230881295402499, 'h_fit_0': 0.17131117120138134, 'z_bulk': 0.3517327173280138}
1491.06037698
Function value is above the specified estimated distance to the minimum (edm).
