3245.36311785 +- 749.544910135
[-61.74397205  14.59352467]
0.753015320525, 0.2,  0.8
{'OMfit_0': 0.005667623640633862, 'b': 0.2131729186979754, 'l': 0.22465535268983894, 'h_fit_0': 0.0019647476529439656, 'z_bulk': 0.0025002165172338664}
804.534257463
no error
1.53279911515e-06
