4174.42276448 +- 807.989633079
[ 178.01106919   71.98424431]
0.756934437632, 0.200026983124,  0.799973016876
{'OMfit_0': 0.025293368535895658, 'b': 0.1607666784784143, 'l': 0.7224471148321308, 'h_fit_0': 0.006489321303258633, 'z_bulk': 0.002695167426344236}
128.216944611
Minuit reached the specified call limit (maxcalls).
