1214.43083668 +- 755.830361615
[ 179.9999866    53.71926535]
0.759971687156, 0.20000000246,  0.79999999754
{'OMfit_0': 0.0020610863398524693, 'b': 0.5665607473295101, 'l': 0.4318462071692033, 'h_fit_0': 0.0027820943440927115, 'z_bulk': 0.002521182558622992}
944.239911719
Function value is above the specified estimated distance to the minimum (edm).
0.000152432462748
