473.526914334 +- 154.300935945
[-108.87777902   22.89336871]
0.702881425025, 0.271300050658,  0.728699949342
{'OMfit_0': 0.0009172453529799618, 'b': 0.31663130474594714, 'l': 0.37914529626478766, 'h_fit_0': 0.00012547280793423488, 'z_bulk': 0.0005146933071778492}
1272.99375462
Function value is above the specified estimated distance to the minimum (edm).
0.00132994432795
