377.655785996 +- 57.1051786945
[-68.49977459  24.20883648]
0.709628137935, 0.200000270849,  0.799999729151
{'OMfit_0': 0.1531251492058029, 'b': 0.1607381371638551, 'l': 0.19610680773362055, 'h_fit_0': 0.0017076534279910072, 'z_bulk': 0.0001904826636284218}
211.139978106
Function value is above the specified estimated distance to the minimum (edm).
