532.936623158 +- 59.7880143528
[-63.56513913  23.1321599 ]
0.701105203582, 0.200000000006,  0.799999999994
{'OMfit_0': 0.1499278190115047, 'b': 0.10998102722987624, 'l': 0.13803297514105983, 'h_fit_0': 0.002453388510615828, 'z_bulk': 0.00019943165378927263}
171.354864512
Function value is above the specified estimated distance to the minimum (edm).
