6311.66861293 +- 753.966481474
[-75.63751539  10.28538484]
0.748749928524, 0.200000000005,  0.799999999995
{'OMfit_0': 0.022196177091937178, 'b': 0.11542732765594843, 'l': 0.10655902370450498, 'h_fit_0': 0.0010378758889833528, 'z_bulk': 0.0025149653141981476}
757.838389427
no error
3.86139378478e-06
