94.9073697834 +- 67.669656546
[-81.68243796 -61.38194297]
0.706900348577, 0.200000001981,  0.799999998019
{'OMfit_0': 0.14695360153092016, 'b': 0.6145487400059374, 'l': 1.5301853567485593, 'h_fit_0': 0.0038058378928476633, 'z_bulk': 0.0002257220224222145}
171.245112582
Function value is above the specified estimated distance to the minimum (edm).
