6326.10071511 +- 6077.48029056
[-61.93087721 -27.84994686]
0.695803173741, 0.200000003172,  0.799999996828
{'OMfit_0': 0.03358667650484863, 'b': 0.04649085177675849, 'l': 0.0860982693623995, 'h_fit_0': 0.0004068512227928811, 'z_bulk': 0.020272323112566215}
115.741383166
Covariance is not positive definite.
