1323.57696646 +- 375.104539215
[ 179.63519212   89.99997652]
0.728624476023, 0.254822829417,  0.745177170583
{'OMfit_0': 0.00730179212665924, 'b': 2.2331560985907952, 'l': 3.1522164926220215, 'h_fit_0': 0.002148981831591623, 'z_bulk': 0.001251215973791242}
785.571995294
Covariance is not positive definite.
