364.59181909 +- 500.057343596
[ 31.12590933 -43.6071801 ]
0.739558867068, 0.200317427436,  0.799682572564
{'OMfit_0': 0.0007873054522428424, 'b': 1.0933977574356082, 'l': 1.7725574716560533, 'h_fit_0': 0.0003649342384024479, 'z_bulk': 0.0016680143019029425}
1127.33078188
no error
1.32833894054e-06
