1438.70116837 +- 720.177720125
[-51.78367406 -29.61254802]
0.757855852239, 0.200000000998,  0.799999999002
{'OMfit_0': 0.012264766613034328, 'b': 0.4989811755063256, 'l': 0.585442611879689, 'h_fit_0': 0.0018300952768328105, 'z_bulk': 0.002402257965941068}
821.289216195
Function value is above the specified estimated distance to the minimum (edm).
0.000111945570654
