500.553688395 +- 696.091972106
[ 114.19543974   23.34124627]
0.755845101622, 0.200000314238,  0.799999685762
{'OMfit_0': 0.009465924274255258, 'b': 2.3430275465770523, 'l': 1.4855314886382285, 'h_fit_0': 0.0024131190950414383, 'z_bulk': 0.0023219164357499156}
888.244471152
Function value is above the specified estimated distance to the minimum (edm).
0.362665335816
