4961.45466019 +- 12369.4789431
[ 124.985396     29.50300623]
0.728359859954, 0.2,  0.8
{'OMfit_0': 0.0012137355113974319, 'b': 0.09221041966838806, 'l': 0.12372503221013886, 'h_fit_0': 0.0032302565665164318, 'z_bulk': 0.041260203551524155}
1392.95529317
Function value is above the specified estimated distance to the minimum (edm).
