2860.918589 +- 159.088923722
[-67.83160995  25.65155098]
0.705271576059, 0.266821387298,  0.733178612702
{'OMfit_0': 0.0021744021496643007, 'b': 0.05033604239995504, 'l': 0.052502601472599, 'h_fit_0': 0.0008419540366961242, 'z_bulk': 0.000530664339680742}
1343.02719053
Function value is above the specified estimated distance to the minimum (edm).
0.0137053499039
