93.3416891574 +- 64.2184768781
[ 178.48642143    9.03881026]
0.71080110375, 0.200000000864,  0.799999999136
{'OMfit_0': 0.1546786773919704, 'b': 0.553915208067028, 'l': 4.793083072382402, 'h_fit_0': 0.00039689352270433353, 'z_bulk': 0.00021421010860223078}
199.047918802
Function value is above the specified estimated distance to the minimum (edm).
