284.22055986 +- 126.388335952
[-78.47735486  36.50033422]
0.704717894017, 0.26891057025,  0.73108942975
{'OMfit_0': 4.8122851645682196e-05, 'b': 0.4344527003590425, 'l': 0.5053426914507834, 'h_fit_0': 2.1594798129798143e-05, 'z_bulk': 0.00042158675332221174}
1140.30094791
Function value is above the specified estimated distance to the minimum (edm).
0.000487118004353
