187.411106717 +- 57.2179114826
[-179.99997734   17.30350508]
0.699448274694, 0.20000000014,  0.79999999986
{'OMfit_0': 0.1407578202136024, 'b': 0.24831408495250362, 'l': 0.1777060516472151, 'h_fit_0': 6.702893703786073e-05, 'z_bulk': 0.00019085870030743912}
248.968226659
Function value is above the specified estimated distance to the minimum (edm).
0.00718600549906
