774.008022186 +- 356.751612738
[-179.99808412   20.99609627]
0.713329351175, 0.305701147634,  0.694298852366
{'OMfit_0': nan, 'b': 0.31867590813303115, 'l': 0.32575763826975845, 'h_fit_0': nan, 'z_bulk': 0.001189997107121643}
1329.3898613
Function value is above the specified estimated distance to the minimum (edm).
0.0003738642169
