2559.82711656 +- 525.231492726
[-115.30465015   54.85459227]
0.717746090142, 0.278715325381,  0.721284674619
{'OMfit_0': 0.0010273986462893403, 'b': 0.34185224198599173, 'l': 2.0074149341408365, 'h_fit_0': 0.001699705088756609, 'z_bulk': 0.0017519863529580348}
920.965702468
Function value is above the specified estimated distance to the minimum (edm).
3.05934866215e-05
