2004.79402478 +- 27902.1963405
[-81.96887726  32.79560072]
0.706272495061, 0.262599125621,  0.737400874379
{'OMfit_0': 0.009359636712551606, 'b': 1.2268501414592898, 'l': 2.3522838847176515, 'h_fit_0': 0.0026761581195798856, 'z_bulk': 0.09307185095170589}
1231.17147646
Function value is above the specified estimated distance to the minimum (edm).
0.131190147677
