482.987295621 +- 263.085809844
[-179.96847897   89.99997312]
0.72343705659, 0.253330594953,  0.746669405047
{'OMfit_0': 8.253766527296924e-05, 'b': 2.0695631349142265, 'l': 4.438165214046192, 'h_fit_0': 0.20166799891514142, 'z_bulk': 0.0008775611418715412}
1192.31680769
Covariance is not positive definite.
5.50275249929e-06
