4321.59311541 +- 1056.20846714
[-75.73825463   1.11857428]
0.744019065471, 0.200000000058,  0.799999999942
{'OMfit_0': 0.009446806211015554, 'b': 0.1234287909738796, 'l': 0.1739503497043916, 'h_fit_0': 0.0026215190613501638, 'z_bulk': 0.0035231375991917613}
926.147561297
no error
6.50698001738e-08
