2370.94463355 +- 432.190006818
[-88.22136708  25.41573659]
0.711949088868, 0.330993429798,  0.669006570202
{'OMfit_0': 0.0002871385054685205, 'b': 0.18804778662635258, 'l': 0.22001889747491776, 'h_fit_0': 0.00011373550122495413, 'z_bulk': 0.0014416328881947105}
1301.56863293
Function value is above the specified estimated distance to the minimum (edm).
0.00791710333146
