2856.47117774 +- 972.038381458
[-47.06704821  10.93458623]
0.7071, 0.3419,  0.6581
{'OMfit_0': 0.1, 'b': 0.22809956706789325, 'l': 0.22390076776111023, 'h_fit_0': 0.1, 'z_bulk': 0.0032423759855429446}
870.90439041
no error
8.54020350584e-07
