568.084384011 +- 490.540996965
[-173.48518638  -89.99995372]
0.722773107701, 0.265269855818,  0.734730144182
{'OMfit_0': 9.673066515447637e-05, 'b': 0.6012523865815014, 'l': 4.005791746286359, 'h_fit_0': 0.20134793045833405, 'z_bulk': 0.0016362711378731243}
864.59896175
Covariance is not positive definite.
9.15407720274e-06
