2558.81249801 +- 459.925012325
[-96.78794719  31.74270259]
0.73857648761, 0.2,  0.8
{'OMfit_0': 0.023971951949225315, 'b': 0.19250564865828557, 'l': 0.3249604432018911, 'h_fit_0': 0.0017673836605403004, 'z_bulk': 0.0015341470497043375}
849.417093336
Covariance is not positive definite.
3.97597133214e-06
