2591.05258945 +- 368.525085482
[-54.62299928  37.38529586]
0.719250892935, 0.26458275905,  0.73541724095
{'OMfit_0': 0.014319559785259672, 'b': 0.16670874406216973, 'l': 0.18091008924897434, 'h_fit_0': 0.004447122480283339, 'z_bulk': 0.0012292692449483722}
1234.00451919
Function value is above the specified estimated distance to the minimum (edm).
1.22912779037e-05
