130.735331415 +- 57.7679717863
[-52.44024367  31.73706204]
0.704103275051, 0.200000000004,  0.799999999996
{'OMfit_0': 0.14891047633828697, 'b': 0.527045925443837, 'l': 0.6181616717652284, 'h_fit_0': 0.004645209286133822, 'z_bulk': 0.00019269350678585706}
177.741697369
no error
1.63735911235e-06
