905.394946311 +- 355.950094873
[-137.46888497   52.70259052]
0.714576285265, 0.313633355631,  0.686366644369
{'OMfit_0': 0.007777138239664416, 'b': 0.4561329572817838, 'l': 0.9998810877165751, 'h_fit_0': 0.0021658046678486587, 'z_bulk': 0.001187323527221118}
1241.54784638
no error
9.47764328928e-06
