2158.60172719 +- 456.578248265
[-70.20080081  31.20938089]
0.718812885148, 0.293751744456,  0.706248255544
{'OMfit_0': 0.004943949123262348, 'b': 0.24598132548841112, 'l': 0.256592428967779, 'h_fit_0': 0.001294092391933288, 'z_bulk': 0.0015229834293947753}
1371.79616628
Function value is above the specified estimated distance to the minimum (edm).
0.0107975117552
