5024.01212147 +- 440.21796521
[-107.37450684   49.70234401]
0.72549066855, 0.277398141128,  0.722601858872
{'OMfit_0': 0.004420828257138576, 'b': 0.14000887102834558, 'l': 0.2601806387400559, 'h_fit_0': 0.0005692020087018079, 'z_bulk': 0.0014684113158788814}
777.810181688
Function value is above the specified estimated distance to the minimum (edm).
181.138585933
