1252.28445149 +- 611507.519314
[-173.92826495   38.30742397]
0.723411244937, 0.226123989161,  0.773876010839
{'OMfit_0': 0.04175812573844295, 'b': 2.3541625623085856, 'l': 1.3953918048892375, 'h_fit_0': 0.10631600436294741, 'z_bulk': 2.039772640078173}
751.026113802
Function value is above the specified estimated distance to the minimum (edm).
0.0855228121988
