2507.27596273 +- 354.680874564
[-75.26457981  48.12033832]
0.716320209592, 0.287070286102,  0.712929713898
{'OMfit_0': 0.010511578825423529, 'b': 0.22329675204617971, 'l': 0.2731489149462901, 'h_fit_0': 0.0039834830454055226, 'z_bulk': 0.0011830898575149185}
1148.82309196
no error
1.14392688328e-06
