4201.20258349 +- 60.0531904705
[-81.86673484  36.68749246]
0.736711430747, 0.20000000055,  0.79999999945
{'OMfit_0': 0.03473599102460767, 'b': 0.01659516543662387, 'l': 0.020671334747336845, 'h_fit_0': 1.4746931980780253e-05, 'z_bulk': 0.00020031618745836033}
532.948257479
Function value is above the specified estimated distance to the minimum (edm).
199.216893216
