2636.45462769 +- 420.858198165
[-99.60773494  52.20127359]
0.7071, 0.3419,  0.6581
{'OMfit_0': 0.1, 'b': 0.30465722482920166, 'l': 0.5419003523893795, 'h_fit_0': 0.1, 'z_bulk': 0.001403833985445524}
773.015333723
no error
2.12929110048e-07
