360.203280341 +- 49.6183583244
[-112.14418762   47.78626725]
0.715439957902, 0.200000000325,  0.799999999675
{'OMfit_0': 0.17573882721379297, 'b': 0.18099837112802764, 'l': 0.2716476371245722, 'h_fit_0': 0.0007433848127559872, 'z_bulk': 0.00016550928084946293}
252.308285999
no error
1.57392931012e-06
