1439.46668131 +- 270.37865464
[  0.21619732  71.13156861]
0.713689193741, 0.309948426872,  0.690051573128
{'OMfit_0': 0.0006293387636311099, 'b': 0.29700407730173617, 'l': 0.9246247857554775, 'h_fit_0': 0.00025755551169787116, 'z_bulk': 0.0009018874907923413}
1207.36423712
Covariance is not positive definite.
7.49724385367e-06
