1993.38560988 +- 377.44681534
[-179.85277418   89.99998371]
0.707162209287, 0.330957147183,  0.669042852817
{'OMfit_0': 0.008427676361004582, 'b': 2.538334209192311, 'l': 4.403607127398757, 'h_fit_0': 0.0006752338073100494, 'z_bulk': 0.0012590289778927066}
860.079669231
Covariance is not positive definite.
2.03835753368e-06
