236.13709202 +- 509.667845862
[ 89.01826534 -73.42951654]
0.701696331948, 0.358588771439,  0.641411228561
{'OMfit_0': 0.0005246970830894981, 'b': 2.9735218759699986, 'l': 4.524282457680424, 'h_fit_0': 0.00017418836159893702, 'z_bulk': 0.0017000715358062024}
877.257825176
Function value is above the specified estimated distance to the minimum (edm).
1.51886474847e-05
