242.421475388 +- 118.471733208
[-26.34183447 -19.65792317]
0.704705348968, 0.266588620968,  0.733411379032
{'OMfit_0': 3.059949627517988e-05, 'b': 0.45163334549182715, 'l': 0.4806458933779454, 'h_fit_0': 1.0612646122454272e-05, 'z_bulk': 0.00039517976866632054}
1241.98935406
Function value is above the specified estimated distance to the minimum (edm).
0.00102982098787
