864.256594911 +- 585.432416353
[-179.99999996  -36.88028498]
0.723232506712, 0.261951681362,  0.738048318638
{'OMfit_0': 0.0061788190912418495, 'b': 0.5706028596590793, 'l': 0.45250818329385223, 'h_fit_0': 0.002200008070003423, 'z_bulk': 0.0019527953259343422}
939.923018915
Function value is above the specified estimated distance to the minimum (edm).
0.0522906870648
