2235.13403551 +- 515.055512946
[-72.86022157   6.53716731]
0.704947294178, 0.36600170138,  0.63399829862
{'OMfit_0': 0.005868872190654739, 'b': 0.2171091904663589, 'l': 0.23008048499696587, 'h_fit_0': 0.0021421690513038216, 'z_bulk': 0.0017180428862215158}
797.303021007
Function value is above the specified estimated distance to the minimum (edm).
7.30229016444e-06
