7729.96472309 +- 625.504490833
[-76.17860334  36.57535837]
0.7071, 0.3419,  0.6581
{'OMfit_0': 0.1, 'b': 0.11735399185740203, 'l': 0.11651563073705706, 'h_fit_0': 0.1, 'z_bulk': 0.0020864615828067312}
867.70031464
no error
8.16793792143e-07
