195.811680329 +- 405251.991079
[-118.62145232   30.90460695]
0.707809170982, 0.200001578343,  0.799998421657
{'OMfit_0': 0.16473437969117752, 'b': 2.352162243519599, 'l': 1.9842697861305416, 'h_fit_0': 0.097935601245845, 'z_bulk': 1.3517772024553905}
183.763722532
Function value is above the specified estimated distance to the minimum (edm).
17.5825143287
