2492.0296332 +- 504.615913694
[-40.46312412  16.29826187]
0.716879381526, 0.301222839079,  0.698777160921
{'OMfit_0': 0.004939878377509449, 'b': 0.16006359550552673, 'l': 0.1836121156045758, 'h_fit_0': 0.001321459938260383, 'z_bulk': 0.0016832200782337936}
1169.92658938
Function value is above the specified estimated distance to the minimum (edm).
0.191373475152
