7147.24373929 +- 654.928400962
[-64.63208206  36.60116934]
0.7071, 0.3419,  0.6581
{'OMfit_0': 0.1, 'b': 0.11668721697869566, 'l': 0.12100952594652792, 'h_fit_0': 0.1, 'z_bulk': 0.002184609332344656}
830.466298909
no error
9.48769504755e-09
