5939.85957791 +- 402.347648475
[-71.57649501  29.57061341]
0.716463025067, 0.27315273722,  0.72684726278
{'OMfit_0': 0.0021923348108271457, 'b': 0.07766094444938054, 'l': 0.08916447265368144, 'h_fit_0': 0.00029672038675299106, 'z_bulk': 0.0013420893435267534}
980.099262761
Function value is above the specified estimated distance to the minimum (edm).
0.00325963509465
