3412.51368269 +- 1338.98470208
[-70.82719248  37.82602048]
0.727619388419, 0.268567837202,  0.731432162798
{'OMfit_0': 0.13338229865631315, 'b': 0.21489009444969964, 'l': 0.3329190939626736, 'h_fit_0': 0.03125138621723561, 'z_bulk': 0.004466379029729739}
837.04315434
no error
6.19873180597e-06
