746.114106078 +- 113.332724511
[ 36.28098453  16.61435323]
0.721418030731, 0.275555304387,  0.724444695613
{'OMfit_0': 0.01996037244230095, 'b': 0.14477730561573465, 'l': 0.1543092624013609, 'h_fit_0': 0.0047921911924970195, 'z_bulk': 0.00037803785461559825}
988.102858317
no error
4.24312657817e-07
