971.704090821 +- 48.2039022274
[-76.86128373  37.17521218]
0.711175439277, 0.212305440399,  0.787694559601
{'OMfit_0': 0.10037611871928974, 'b': 0.06538286428470386, 'l': 0.08040766186709047, 'h_fit_0': 0.007806649981339342, 'z_bulk': 0.00016079115595951654}
188.923253684
Function value is above the specified estimated distance to the minimum (edm).
4.28988378749
