2488.23574387 +- 580.470380349
[-116.72886388   56.78163888]
0.743327353778, 0.200000000015,  0.799999999985
{'OMfit_0': 0.0051217031228612125, 'b': 0.20595892867736265, 'l': 0.3735245744848926, 'h_fit_0': 0.0005035414225454948, 'z_bulk': 0.001936243730149556}
898.241674079
no error
3.88149121427e-07
