117.960440068 +- 75.5217554736
[ 61.01525788  29.18081266]
0.703938682411, 0.200000000046,  0.799999999954
{'OMfit_0': 0.1493038172248048, 'b': 0.43205645467464426, 'l': 0.5940684100671878, 'h_fit_0': 0.00023166493177134706, 'z_bulk': 0.0002519138451781422}
208.529707639
Function value is above the specified estimated distance to the minimum (edm).
0.18758223225
