2017.51428448 +- 561.66079282
[-156.52114713   43.39005697]
0.722555901352, 0.291944271594,  0.708055728406
{'OMfit_0': 0.04004537530365296, 'b': 0.23663848271117693, 'l': 0.6176378361918646, 'h_fit_0': 0.01299572403675664, 'z_bulk': 0.001873501603844585}
892.223290579
Function value is above the specified estimated distance to the minimum (edm).
85.0520933669
