206.957665532 +- 17.3613859906
[-77.29953238  35.26513544]
0.69838968697, 0.284819535014,  0.715180464986
{'OMfit_0': 0.006040880427617523, 'b': 0.07940970049161877, 'l': 0.07980905842028196, 'h_fit_0': 0.0005482019519008063, 'z_bulk': 5.791143856598291e-05}
196.680504275
no error
1.09962762028e-06
