1244.72853788 +- 542.059030232
[-180.          -74.43692743]
0.737549706181, 0.209695765055,  0.790304234945
{'OMfit_0': 0.014713309439512795, 'b': 0.42430931149894274, 'l': 3.9523521341541485, 'h_fit_0': 0.0052658143724325646, 'z_bulk': 0.0018081170619377307}
866.800444473
no error
6.28451125759e-06
