70.6884579847 +- 53.4123733176
[ 54.44533106  -7.92514976]
0.708151306713, 0.200002549201,  0.799997450799
{'OMfit_0': 0.15290428815298607, 'b': 0.7477600655071096, 'l': 0.7756313981229712, 'h_fit_0': nan, 'z_bulk': 0.00017816477196730407}
220.466583969
Function value is above the specified estimated distance to the minimum (edm).
0.888479744188
