897.383109039 +- 646.574512117
[ 11.4289676   40.30749295]
0.719536190712, 0.295288883486,  0.704711116514
{'OMfit_0': 3.204575446669189e-08, 'b': 0.9852497948763079, 'l': 1.4286364086433032, 'h_fit_0': 1.229417096237917e-06, 'z_bulk': 0.0021567437160341374}
868.880228625
Function value is above the specified estimated distance to the minimum (edm).
0.00010026652089
