1076.37477135 +- 1964203.05457
[-127.0349969    59.26125104]
0.73202472464, 0.231474755652,  0.768525244348
{'OMfit_0': 0.05753254686499115, 'b': 2.689348583238945, 'l': 1.8728519763127287, 'h_fit_0': 0.04545261061910505, 'z_bulk': 6.55188615631817}
875.400363281
Function value is above the specified estimated distance to the minimum (edm).
96.4656141751
