123.195588278 +- 66.1776847082
[-41.68179766 -34.59247846]
0.708865678385, 0.200000095164,  0.799999904836
{'OMfit_0': 0.139592786235301, 'b': 0.38830024986455225, 'l': 0.7476551277458134, 'h_fit_0': 0.0022480785033545114, 'z_bulk': 0.00022074533245791672}
186.137183315
no error
9.15573810526e-06
