2825.90092847 +- 581.809534467
[-134.34210321   29.57388018]
0.726297985071, 0.274836153167,  0.725163846833
{'OMfit_0': 0.004736980643771149, 'b': 0.20070569559707885, 'l': 0.4297749584307772, 'h_fit_0': 0.0012325162746472662, 'z_bulk': 0.0019407106742921898}
814.289247186
no error
2.51630676573e-06
