1277.70404997 +- nan
[ 139.13080009  -39.25136064]
0.729577685515, 0.232411897069,  0.767588102931
{'OMfit_0': nan, 'b': 0.3641661778633375, 'l': nan, 'h_fit_0': nan, 'z_bulk': nan}
727.740202112
Function value is above the specified estimated distance to the minimum (edm).
0.000293772867996
