308.763416277 +- 12.6397397452
[-84.60440999  38.08722645]
0.698504275151, 0.287627596948,  0.712372403052
{'OMfit_0': 0.006506947251801787, 'b': 0.0537036201596508, 'l': 0.05648080574832237, 'h_fit_0': 0.0005654818046479937, 'z_bulk': 4.216169792792268e-05}
195.140807962
no error
2.19669906206e-08
