1610.74550499 +- 463.230652259
[ 107.25250563   89.99999999]
0.735499799091, 0.219046932338,  0.780953067662
{'OMfit_0': 0.011252985538951252, 'b': 0.09831554777921236, 'l': 1.2907695438905589, 'h_fit_0': 0.005803931375519267, 'z_bulk': 0.0015451734944868512}
866.158813751
no error
4.02355242498e-07
