198.302919716 +- 15.6834974108
[-90.11547231  35.4626289 ]
0.698484290587, 0.288734794072,  0.711265205928
{'OMfit_0': 0.006678125541508789, 'b': 0.10136502664027103, 'l': 0.07989474384569473, 'h_fit_0': 0.0006135380817607894, 'z_bulk': 5.231459615590017e-05}
204.187703648
no error
4.16806080374e-06
