3006.92105397 +- 13.6646023949
[-84.94781477  36.21272418]
0.699079239104, 0.284216102957,  0.715783897043
{'OMfit_0': 0.0059049710978251735, 'b': 0.004735309069296978, 'l': 0.005094327626276596, 'h_fit_0': 0.0005202782519130866, 'z_bulk': 4.558027697498801e-05}
174.759701695
no error
5.97693280096e-08
