3020.00418433 +- 13.256973504
[-84.39405747  36.15567984]
0.699090719956, 0.27962927439,  0.72037072561
{'OMfit_0': 0.005616106953062666, 'b': 0.0052840423476090415, 'l': 0.005577557790845344, 'h_fit_0': 0.0005323612035567082, 'z_bulk': 4.422057127612122e-05}
188.628378003
no error
2.10802473049e-09
