183.850028889 +- 44.9663183751
[-55.82799679  41.45316096]
0.710622980947, 0.200221410745,  0.799778589255
{'OMfit_0': 0.19988771646688747, 'b': 0.3217461841462891, 'l': 0.476725654474103, 'h_fit_0': 0.006394605585729907, 'z_bulk': 0.00014999172217783352}
226.831191509
Function value is above the specified estimated distance to the minimum (edm).
0.228000820122
