202.927408425 +- 92.4632598507
[ 103.64596231   -5.19062226]
0.70226445196, 0.245011996888,  0.754988003112
{'OMfit_0': 0.02831232289867308, 'b': 0.3969293543499912, 'l': 0.33772676383101086, 'h_fit_0': 0.0027976277645632708, 'z_bulk': 0.00030842470729930405}
169.208120628
no error
1.76698449085e-10
