1.021029116172091591e+02,1.312923165810179000e+02,2.151385924758841668e+02,2.787384945586371714e+02,3.668741403495268401e+02,4.796396339186055116e+02,1.042963900400868852e+03
1.318429043427890406e+02,8.770000624055045080e+01,2.318445699490164600e+02,2.357703618767134515e+02,3.342619666206005036e+02,5.118777493511521470e+02,9.497241894647881963e+02
5.782929007525033427e+01,2.175151052444481081e+02,2.707604374360473116e+02,3.145097811722877736e+02,4.253253041167737933e+02,4.825574548125432557e+02,9.037966642739991130e+02
6.269424247756727198e+01,1.782676786507360589e+02,1.838500288894373398e+02,3.212368227888748038e+02,3.290316218997828628e+02,4.329137878697828228e+02,1.038703624311860494e+03
1.021204315725419463e+02,2.054728080325558039e+02,1.974373433394939070e+02,2.764648158693234450e+02,3.877969974078135351e+02,5.369581677503820174e+02,1.012341458420022491e+03
4.878920186844169393e+01,2.121528139714241377e+02,3.524622084509119873e+02,3.856428673750484677e+02,4.324150713050787544e+02,5.410432221226809588e+02,9.588597375327088912e+02
6.747622245779317041e+01,1.235094415601023172e+02,1.763268769607942374e+02,3.130314729492384345e+02,4.318242796095057656e+02,5.381219240716123977e+02,9.353683457488555177e+02
1.456354269265882238e+02,9.076520297691347139e+01,1.548574236883870014e+02,3.511924176702165141e+02,3.588517772214723323e+02,5.094124037802513385e+02,1.080270985415435007e+03
1.223697739910398639e+02,1.081815821884386963e+02,2.272704521752546611e+02,3.672577408777443679e+02,4.255648826003643990e+02,5.783644032359695757e+02,9.566374878235942560e+02
7.958691836792959862e+01,7.800398672258793908e+01,2.606992720644616384e+02,3.845556036714272068e+02,4.166071220494455929e+02,4.145719956098765806e+02,1.054211569310657524e+03
1.091145272158845358e+02,2.090802498507112546e+02,1.930652770640592450e+02,3.687374405179510859e+02,4.512144339172547802e+02,4.370011829039621603e+02,1.021102368439878546e+03
1.338802890407062591e+02,1.418367586305895998e+02,1.772782220481111324e+02,3.758701143156526996e+02,3.588698303683974586e+02,5.800224418125328611e+02,9.523917816893981581e+02
1.199192310143213973e+02,1.314834755359263738e+02,2.702139662752279605e+02,3.785708305476700275e+02,4.140553792018346257e+02,5.668254304689545506e+02,9.682268988790192452e+02
1.400472517718141319e+02,1.917751694452087747e+02,1.614821355509507157e+02,2.734559672181071619e+02,4.089363180736063441e+02,5.884957353824528354e+02,1.068978868783114422e+03
4.287209709411240510e+01,1.175623623195485550e+02,2.040985724729569597e+02,2.738267952753897134e+02,2.857681315124104344e+02,5.343929673109364558e+02,9.404143222676005962e+02
