5486.80046823 +- 949.422929948
[-64.03227809   0.8439401 ]
0.73914888556, 0.232246732656,  0.767753267344
{'OMfit_0': 0.0016946039165282728, 'b': 0.08651015478419055, 'l': 0.11707788480164472, 'h_fit_0': nan, 'z_bulk': 0.0031669388440924706}
848.979108815
Function value is above the specified estimated distance to the minimum (edm).
0.00320050311436
