1134.31120867 +- 637.237358965
[-179.97923517   89.99994719]
0.717713458156, 0.275705110391,  0.724294889609
{'OMfit_0': 0.043508077224943306, 'b': 2.5908483068716244, 'l': 0.14428528594623513, 'h_fit_0': 0.008711342860874993, 'z_bulk': 0.002125598278023555}
1007.27868324
Function value is above the specified estimated distance to the minimum (edm).
7.28698425649e-05
