2991.00031056 +- 14.96213074
[-84.77682724  36.08996371]
0.698553693103, 0.284211874586,  0.715788125414
{'OMfit_0': 0.006455474225836422, 'b': 0.0049955681988909095, 'l': 0.0057247786249616794, 'h_fit_0': 0.0005837176997940952, 'z_bulk': 4.990837227158984e-05}
191.693514157
no error
1.31130699595e-07
