30.7006707277 +- 48.1935136232
[-179.99999228  -67.35995515]
0.708750310065, 0.200121926001,  0.799878073999
{'OMfit_0': 0.15082638947775584, 'b': 1.6191611098445666, 'l': 3.879540791946753, 'h_fit_0': 0.0015023215804977896, 'z_bulk': 0.00016075650325297897}
211.531358332
no error
5.44016871986e-06
