921.18916423 +- 516.902840419
[-179.99999986   68.36524277]
0.729042066787, 0.221269010689,  0.778730989311
{'OMfit_0': 0.0009398215087905865, 'b': 0.2424246908721941, 'l': 4.242781557019477, 'h_fit_0': 0.00046295995176942606, 'z_bulk': 0.0017242049168056384}
799.196878426
no error
7.45996041439e-06
