1239.38162533 +- 536.880024784
[-54.38395495  62.13978377]
0.716863503793, 0.295873253766,  0.704126746234
{'OMfit_0': 0.0035267230972621244, 'b': 0.4039343342891095, 'l': 0.9199599860638022, 'h_fit_0': 0.0027312670578935605, 'z_bulk': 0.001790841732880466}
750.027798571
no error
3.49469576516e-07
