288.745025734 +- 495.688257014
[-66.04597394  24.83259584]
0.712539085107, 0.314368599423,  0.685631400577
{'OMfit_0': 0.14944566428167055, 'b': 2.113106105272685, 'l': 1.9583061922646283, 'h_fit_0': 0.030114176595747277, 'z_bulk': 0.0016534405755114223}
928.639503147
no error
1.57711160063e-07
