-1.598279621179586663e+00,2.779993629999999993e-01,4.211793392654955559e-02,1.000000000000000048e-04,3.634498693582536788e+01,1.700000000000000122e-01
-8.306753881795865269e-01,5.048130450000000158e-01,3.276109966992423600e-02,1.000000000000000048e-04,3.579903549628138393e+01,1.600000000000000033e-01
-1.512887194179586281e+00,3.571169940000000209e-01,2.593845112621004367e-02,1.000000000000000048e-04,3.537765285112359948e+01,1.600000000000000033e-01
-2.094054222179586588e+00,-9.657747650000000350e-01,1.370427681225593747e-02,1.000000000000000048e-04,3.363669288203912089e+01,1.600000000000000033e-01
-1.256550916179586252e+00,-1.037146153999999987e+00,2.504535002157545764e-02,1.000000000000000048e-04,3.512695370887855972e+01,1.900000000000000022e-01
-2.638489419179586015e+00,-8.917870300000000361e-01,2.819584045474752415e-02,1.000000000000000048e-04,3.554424921406849336e+01,1.600000000000000033e-01
-1.710562538179586589e+00,-1.402302595000000096e+00,1.929552063740836917e-02,1.000000000000000048e-04,3.473032060941108767e+01,2.000000000000000111e-01
-2.771840681795865180e-01,-1.115655276000000029e+00,3.231445857837181301e-02,1.000000000000000048e-04,3.583057985006487201e+01,1.700000000000000122e-01
-1.608432286179586335e+00,-6.514894359999999773e-01,3.059239573466085438e-02,1.000000000000000048e-04,3.553982287180311772e+01,1.600000000000000033e-01
-1.490451089179586575e+00,-3.201959389999999850e-01,2.817569724738304762e-02,1.000000000000000048e-04,3.539731560983288716e+01,1.700000000000000122e-01
-1.995144670179586299e+00,-1.040863893000000040e+00,3.793619419308540130e-02,1.000000000000000048e-04,3.607090986934556298e+01,1.799999999999999933e-01
3.095686500000000008e-02,-1.139960520999999893e+00,8.477502075868871556e-03,1.000000000000000048e-04,3.266181779211367342e+01,1.700000000000000122e-01
-2.211919791795864398e-01,-6.717550429999999961e-01,2.152786788871360879e-02,1.000000000000000048e-04,3.502073828439554148e+01,2.200000000000000011e-01
-8.294029241795861651e-01,6.699244909999999553e-01,4.341271975369157682e-02,1.000000000000000048e-04,3.620061523022512517e+01,1.799999999999999933e-01
-4.765590681795863759e-01,-7.328014390000000544e-01,3.831310137248274822e-02,1.000000000000000048e-04,3.639799687737320966e+01,1.600000000000000033e-01
-1.123871723179585835e+00,1.275958498999999913e+00,1.379061412300035261e-02,1.000000000000000048e-04,3.348811106919015401e+01,1.900000000000000022e-01
-5.094723721795864080e-01,-7.371415260000000469e-01,4.065847880361243144e-02,1.000000000000000048e-04,3.603590643588667319e+01,1.600000000000000033e-01
6.571342580000000266e-01,4.949370419999999937e-01,1.975932487582387348e-02,1.000000000000000048e-04,3.473783112332897360e+01,1.700000000000000122e-01
-1.010588552179585875e+00,4.063959939999999826e-01,2.477402584059628168e-02,1.000000000000000048e-04,3.503099505429813831e+01,1.400000000000000133e-01
-5.300352171795861267e-01,-4.198024320000000031e-01,3.079515792854196909e-02,1.000000000000000048e-04,3.588627021390735905e+01,1.499999999999999944e-01
-3.959305511795863097e-01,-4.514385590000000170e-01,3.731942063664806658e-02,1.000000000000000048e-04,3.568045587845972477e+01,1.600000000000000033e-01
-1.302326638179586382e+00,4.891699640000000127e-01,2.224856459410942330e-02,1.000000000000000048e-04,3.501832654043600002e+01,8.999999999999999667e-02
-8.169037861795862554e-01,4.857709299999999897e-01,4.691371560075077024e-02,1.000000000000000048e-04,3.663620665357258588e+01,1.000000000000000056e-01
-1.156602994179586119e+00,7.039336720000000103e-01,1.985867173318804635e-02,1.000000000000000048e-04,3.462832642913966907e+01,1.100000000000000006e-01
2.500120207999999788e+00,-3.403989430000000094e-01,9.535288781510744410e-03,1.000000000000000048e-04,3.294984040564362715e+01,1.100000000000000006e-01
2.397122115999999803e+00,-8.283729720000000407e-01,4.228151408406498335e-02,1.000000000000000048e-04,3.613008454318845253e+01,1.700000000000000122e-01
-4.391142381795862804e-01,9.199097720000000145e-01,8.734024162155473031e-03,1.000000000000000048e-04,3.252450625066514789e+01,2.200000000000000011e-01
-1.356814123179586495e+00,1.335301293999999972e+00,3.878631785504784574e-02,1.000000000000000048e-04,3.632852450044432402e+01,2.600000000000000089e-01
2.612804049999999823e+00,3.003891830000000041e-01,4.865518089497417736e-02,1.000000000000000048e-04,3.655556353735659769e+01,1.700000000000000122e-01
-2.350352662179586272e+00,1.041324629000000002e+00,1.273718147809510884e-02,1.000000000000000048e-04,3.358527547904868271e+01,5.300000000000000266e-01
-1.192441121179586005e+00,1.100105410000000061e+00,3.135403612305012050e-02,1.000000000000000048e-04,3.603539284847303037e+01,1.799999999999999933e-01
-3.012917491179586182e+00,1.485957493999999990e+00,4.940601038336919076e-02,1.000000000000000048e-04,3.628779699883912713e+01,2.200000000000000011e-01
-7.329138461795858817e-01,1.044356909000000000e+00,3.870990617091547847e-02,1.000000000000000048e-04,3.612302116249011874e+01,1.700000000000000122e-01
1.024371087000000013e+00,-9.607604419999999923e-01,2.268823529178798024e-02,1.000000000000000048e-04,3.500030170243510952e+01,1.600000000000000033e-01
2.960998206000000188e+00,-8.548671270000000044e-01,7.759983155308958214e-03,1.000000000000000048e-04,3.297944518416295523e+01,1.900000000000000022e-01
-2.929124628179586409e+00,8.872048380000000511e-01,4.346771157914109535e-02,1.000000000000000048e-04,3.526225195375231891e+01,4.600000000000000200e-01
-3.017579355179586198e+00,-3.780387199999999948e-01,4.640159518609323491e-02,1.000000000000000048e-04,3.630009803805354096e+01,2.399999999999999911e-01
-2.268575282179586594e+00,6.921453520000000470e-01,3.285309163755999184e-02,1.000000000000000048e-04,3.611575422712954975e+01,3.699999999999999956e-01
2.478186394000000181e+00,5.281495040000000474e-01,4.056562457819643669e-02,1.000000000000000048e-04,3.625443921352653120e+01,2.399999999999999911e-01
7.532392530000000530e-01,9.936355940000000109e-01,4.786553219626009381e-02,1.000000000000000048e-04,3.680744761820530897e+01,1.600000000000000033e-01
1.772935874999999939e+00,1.383062164999999899e+00,1.275553960012972693e-02,1.000000000000000048e-04,3.316372016017874813e+01,7.399999999999999911e-01
1.941716173999999961e+00,9.578325640000000529e-01,2.621883519269099100e-02,1.000000000000000048e-04,3.472304246710818632e+01,3.800000000000000044e-01
2.041827891000000061e+00,-8.953703119999999460e-01,4.511904934284314411e-02,1.000000000000000048e-04,3.654729822371696457e+01,1.700000000000000122e-01
2.521229080999999983e+00,-8.544186950000000058e-01,3.926708015199317781e-02,1.000000000000000048e-04,3.600839381845095488e+01,2.000000000000000111e-01
2.745955969000000163e+00,3.136627880000000257e-01,1.284375773061176632e-02,1.000000000000000048e-04,3.391364058838340867e+01,2.099999999999999922e-01
1.738295793999999894e+00,1.134430556000000090e+00,2.893567259110429654e-02,1.000000000000000048e-04,3.556440802072071250e+01,1.799999999999999933e-01
-8.687814521795864664e-01,6.221710379999999541e-01,4.237138046977262026e-03,1.000000000000000048e-04,3.174500057653864360e+01,3.499999999999999778e-01
-1.857013858179586308e+00,3.937075449999999921e-01,4.668282726413806871e-02,1.000000000000000048e-04,3.687882448706093186e+01,2.999999999999999889e-01
-2.894431473179586156e+00,2.701405689999999971e-01,4.439396343214793705e-02,1.000000000000000048e-04,3.677366116985620437e+01,2.300000000000000100e-01
2.213600608000000136e+00,-5.295933369999999973e-01,2.145099205528614578e-02,1.000000000000000048e-04,3.464375327249861414e+01,2.500000000000000000e-01
9.327636729999999599e-01,4.069681829999999834e-01,4.981250634902848612e-02,1.000000000000000048e-04,3.666192573649461650e+01,2.300000000000000100e-01
1.743234563999999986e+00,7.359057650000000450e-01,4.372024605006290948e-02,1.000000000000000048e-04,3.659436744892648363e+01,2.200000000000000011e-01
-2.812965047179586175e+00,5.929882829999999494e-01,7.672193830113683416e-03,1.000000000000000048e-04,3.269822851387016271e+01,2.399999999999999911e-01
-2.977583888179586413e+00,-1.437144969999999966e-01,2.441474571069136498e-02,1.000000000000000048e-04,3.480566072028495483e+01,2.700000000000000178e-01
2.276564226000000080e+00,-5.051809499999999620e-01,2.721904697577632454e-02,1.000000000000000048e-04,3.526294545417358250e+01,2.800000000000000266e-01
2.667465888000000174e+00,-6.260506340000000502e-01,1.619133227928089627e-02,1.000000000000000048e-04,3.452597410790890819e+01,2.600000000000000089e-01
1.041358068000000081e+00,8.506585119999999778e-01,3.594318544952768146e-02,1.000000000000000048e-04,3.601946411335629961e+01,2.300000000000000100e-01
2.499030525999999863e+00,-9.629979760000000333e-01,4.621801800289086770e-02,1.000000000000000048e-04,3.633675870214885606e+01,3.099999999999999978e-01
1.334501084000000004e+00,-7.340646360000000481e-01,2.992424769221298242e-02,1.000000000000000048e-04,3.542757465398526051e+01,2.300000000000000100e-01
2.196979751999999841e+00,-5.334639439999999677e-01,3.050495852398469460e-02,1.000000000000000048e-04,3.549577330182161461e+01,2.500000000000000000e-01
1.355624495999999901e+00,4.654212710000000253e-01,4.852748991567513298e-02,1.000000000000000048e-04,3.677303801692097096e+01,2.200000000000000011e-01
1.445572062999999963e+00,-8.838676049999999451e-01,1.004714719409301356e-02,1.000000000000000048e-04,3.327427553256332970e+01,3.499999999999999778e-01
7.246286520000000397e-01,-7.843460709999999780e-01,2.219928520018695992e-02,1.000000000000000048e-04,3.494521045858402175e+01,3.099999999999999978e-01
2.179180484000000195e+00,1.312341798999999920e+00,2.150624707820690193e-02,1.000000000000000048e-04,3.499551215207716126e+01,2.200000000000000011e-01
7.669035910000000511e-01,2.329377750000000136e-01,1.392824936518465354e-02,1.000000000000000048e-04,3.385798816666453348e+01,2.500000000000000000e-01
1.528220198000000085e+00,-6.827860190000000218e-01,1.924679157416646011e-02,1.000000000000000048e-04,3.488984115219175663e+01,4.199999999999999845e-01
2.984436029999999906e+00,4.410184999999999800e-01,4.718440524698315486e-02,1.000000000000000048e-04,3.690957290317000883e+01,2.999999999999999889e-01
1.808380389999999949e+00,-5.931087419999999666e-01,6.067591530283430665e-03,1.000000000000000048e-04,3.230013433490023544e+01,2.200000000000000011e-01
2.378694356000000010e+00,6.891218140000000547e-01,1.277465813036302716e-02,1.000000000000000048e-04,3.313956454455654921e+01,3.099999999999999978e-01
-1.027171309179585990e+00,8.938185499999999895e-01,5.513415982649282066e-03,1.000000000000000048e-04,3.164744629019499556e+01,3.099999999999999978e-01
2.177629786999999872e+00,1.088514723000000073e+00,9.740889044391994392e-03,1.000000000000000048e-04,3.319342184391070560e+01,2.500000000000000000e-01
2.446904437000000154e+00,4.505237189999999892e-01,3.937035925367071698e-02,1.000000000000000048e-04,3.599298567289497441e+01,2.700000000000000178e-01
-2.745075452179586151e+00,5.290477460000000409e-01,2.309695670329397002e-02,1.000000000000000048e-04,3.499742389707866863e+01,1.600000000000000033e-01
3.470126559999999749e-01,6.971221490000000243e-01,4.712423549950804647e-02,1.000000000000000048e-04,3.593881885760298189e+01,2.399999999999999911e-01
-2.027672372179586624e+00,-3.494576850000000179e-01,1.731189864964675224e-02,1.000000000000000048e-04,3.437929219544522397e+01,8.999999999999999667e-02
-2.243457714179585949e+00,5.735296930000000071e-01,4.105067021654342646e-02,1.000000000000000048e-04,3.632922378903506910e+01,8.000000000000000167e-02
-1.741234469179586242e+00,8.281857209999999858e-01,3.822387233915617438e-02,1.000000000000000048e-04,3.625503349207119896e+01,1.000000000000000056e-01
-1.661352162179586145e+00,7.473004210000000480e-01,5.468416108463951611e-03,1.000000000000000048e-04,3.185188292282788325e+01,1.100000000000000006e-01
-1.046494641179585905e+00,9.839422859999999993e-01,2.423492679506101741e-02,1.000000000000000048e-04,3.527018881008739726e+01,1.600000000000000033e-01
-1.357076630179586019e+00,8.591991679999999576e-01,2.879032663751606227e-02,1.000000000000000048e-04,3.571477907514593397e+01,1.300000000000000044e-01
-1.489161381179585852e+00,8.733460579999999807e-01,3.644694323264606461e-03,1.000000000000000048e-04,3.101493605628958505e+01,8.999999999999999667e-02
2.602874990000000111e+00,9.865781270000000269e-01,2.160195966792110081e-02,1.000000000000000048e-04,3.477468529389382468e+01,2.099999999999999922e-01
6.278667869999999818e-01,1.201237362999999947e+00,4.903940040657306376e-02,1.000000000000000048e-04,3.645668135446150160e+01,1.799999999999999933e-01
1.901542252999999905e+00,5.984822429999999693e-01,2.973734161874531934e-02,1.000000000000000048e-04,3.561496599424454956e+01,1.700000000000000122e-01
9.102462569999999475e-01,3.833152009999999943e-01,4.620359496422136308e-02,1.000000000000000048e-04,3.646727375728250564e+01,2.200000000000000011e-01
4.621894529999999723e-01,4.355896570000000190e-01,3.529663246374063063e-02,1.000000000000000048e-04,3.616689969649535641e+01,2.399999999999999911e-01
1.731299603999999936e+00,-9.087058740000000245e-01,1.677116268320924183e-02,1.000000000000000048e-04,3.455933460130309953e+01,2.200000000000000011e-01
2.307708166999999921e+00,-3.555306579999999994e-01,2.891836306737046586e-02,1.000000000000000048e-04,3.555647470466924887e+01,1.700000000000000122e-01
2.284880370000000216e+00,-4.942566800000000038e-01,4.072119846635711277e-02,1.000000000000000048e-04,3.636541195993171272e+01,2.200000000000000011e-01
-2.729734007179586364e+00,-4.808223520000000084e-01,2.050970119433047356e-02,1.000000000000000048e-04,3.493402597731093806e+01,2.300000000000000100e-01
-2.728058296179586062e+00,8.181749999999999856e-01,2.545955744135917562e-02,1.000000000000000048e-04,3.530125910042708881e+01,2.200000000000000011e-01
1.539636916000000078e+00,-6.652033799999999830e-02,1.804950346541973547e-02,1.000000000000000048e-04,3.455693382902277477e+01,2.999999999999999889e-01
2.937620158000000092e+00,7.383732379999999873e-01,4.585039387308480208e-02,1.000000000000000048e-04,3.639388104744345753e+01,2.200000000000000011e-01
2.624384770999999894e+00,8.339422930000000012e-01,2.962612325471632863e-02,1.000000000000000048e-04,3.557340444648310296e+01,1.799999999999999933e-01
-2.594453966179586235e+00,1.052220571999999965e+00,2.914205899563086788e-02,1.000000000000000048e-04,3.561345129110430463e+01,1.900000000000000022e-01
-2.462277587179586114e+00,1.356652656000000068e+00,2.127625705340859333e-02,1.000000000000000048e-04,3.471245587249926245e+01,2.099999999999999922e-01
2.730654787000000194e+00,8.741146779999999783e-01,4.366591864211470664e-02,1.000000000000000048e-04,3.676066269566394595e+01,1.900000000000000022e-01
-2.564984794179586025e+00,9.572418230000000472e-01,2.775202541892274680e-02,1.000000000000000048e-04,3.520323995538882400e+01,4.400000000000000022e-01
1.629450376000000089e+00,2.068732899999999875e-01,2.462498639135373216e-02,1.000000000000000048e-04,3.492064221304635652e+01,2.899999999999999800e-01
1.142160569999999958e-01,6.858846720000000285e-01,4.202740904203654954e-02,1.000000000000000048e-04,3.653497614542398253e+01,1.799999999999999933e-01
-4.383495451795864639e-01,9.198101690000000108e-01,4.439280041376335306e-02,1.000000000000000048e-04,3.637007937070402619e+01,2.600000000000000089e-01
1.001193188000000012e+00,8.013430529999999719e-01,4.963031246164491955e-02,1.000000000000000048e-04,3.634694017736527627e+01,1.799999999999999933e-01
-8.746654461795859703e-01,7.515327899999999506e-01,1.765396979068029407e-02,1.000000000000000048e-04,3.436315004439871501e+01,2.600000000000000089e-01
1.319662558000000097e+00,1.070340469999999933e-01,9.598295914846538546e-03,1.000000000000000048e-04,3.274587457697199255e+01,2.399999999999999911e-01
1.726021762000000015e+00,-6.377623550000000030e-01,7.171936659430541705e-03,1.000000000000000048e-04,3.215935409144012880e+01,2.600000000000000089e-01
-2.754219137179586330e+00,-9.277945709999999568e-01,3.399507644109940607e-02,1.000000000000000048e-04,3.561962065800901200e+01,3.699999999999999956e-01
1.691977534999999921e+00,1.434503057999999998e+00,3.761930051289980731e-02,1.000000000000000048e-04,3.607479998498422447e+01,2.099999999999999922e-01
8.272144390000000236e-01,-4.428667319999999852e-01,3.059129455052822175e-02,1.000000000000000048e-04,3.607864629597018791e+01,2.300000000000000100e-01
-2.185785446179585811e+00,4.040310730000000183e-01,2.953147275974835409e-02,1.000000000000000048e-04,3.565849833218703679e+01,1.799999999999999933e-01
2.680919170000000129e+00,5.929394510000000063e-01,3.361755107506482487e-02,1.000000000000000048e-04,3.593295866659425286e+01,1.799999999999999933e-01
2.468528393999999793e+00,-3.885411739999999892e-01,1.201703306749379516e-02,1.000000000000000048e-04,3.394224323996589021e+01,1.700000000000000122e-01
1.824819092000000031e+00,-9.187566499999999525e-01,4.325181098548443182e-02,1.000000000000000048e-04,3.626248832479378592e+01,2.099999999999999922e-01
2.252174823999999909e+00,-3.842870769999999769e-01,1.935636379126391346e-02,1.000000000000000048e-04,3.452537152271106891e+01,2.000000000000000111e-01
2.889947965000000174e+00,3.184077100000000105e-01,4.706445168077772606e-02,1.000000000000000048e-04,3.677183478862334454e+01,2.000000000000000111e-01
-2.125870880179586031e+00,7.967372299999999630e-01,1.407326330870297196e-02,1.000000000000000048e-04,3.413693645277493971e+01,4.400000000000000022e-01
-2.666621499179586241e+00,1.790417820000000104e-01,2.267810218606161263e-02,1.000000000000000048e-04,3.523353900987075349e+01,1.900000000000000022e-01
2.353249148999999818e+00,9.653535600000000549e-01,4.559738673166903108e-03,1.000000000000000048e-04,3.164230119145818421e+01,1.799999999999999933e-01
1.765869402999999949e+00,9.288119630000000182e-01,4.902705360287496622e-02,1.000000000000000048e-04,3.634928267122961643e+01,3.599999999999999867e-01
1.162949336999999916e+00,5.157872650000000503e-01,2.282954031424411570e-02,1.000000000000000048e-04,3.511437223232768901e+01,4.099999999999999756e-01
2.011122450999999867e+00,-1.257182417000000108e+00,7.847008099191293135e-03,1.000000000000000048e-04,3.269606199197158247e+01,1.799999999999999933e-01
1.931340567999999980e+00,-5.991437729999999906e-01,6.270361634349585350e-03,1.000000000000000048e-04,3.189145001268334667e+01,2.000000000000000111e-01
2.835991935000000019e+00,-7.109363199999999550e-01,4.008111873413539722e-02,1.000000000000000048e-04,3.605487465453084184e+01,1.900000000000000022e-01
-2.852520529179586095e+00,8.667541789999999580e-01,3.976284549591042883e-02,1.000000000000000048e-04,3.602715963982152658e+01,1.799999999999999933e-01
-2.458251249179586040e+00,-2.796002539999999925e-01,4.652645902681671469e-02,1.000000000000000048e-04,3.641568655002453170e+01,3.300000000000000155e-01
1.596378985000000084e+00,5.944120290000000084e-01,3.794916646598969073e-02,1.000000000000000048e-04,3.585135970320539656e+01,1.900000000000000022e-01
-2.484014184179586415e+00,8.016642189999999557e-01,1.344821786359011104e-02,1.000000000000000048e-04,3.378034462411163474e+01,1.900000000000000022e-01
-2.431723812179586108e+00,1.223750555999999934e+00,1.280326598112516492e-02,1.000000000000000048e-04,3.361942619684752742e+01,1.700000000000000122e-01
-2.378598255179586118e+00,1.197731727999999940e+00,7.468152520049801436e-03,1.000000000000000048e-04,3.253994796286459490e+01,1.900000000000000022e-01
1.739429998000000088e+00,2.494783479999999887e-01,2.997192282911701269e-02,1.000000000000000048e-04,3.586890427690290295e+01,3.099999999999999978e-01
-2.377494960179586059e+00,9.562939099999999693e-01,9.767324588510099131e-03,1.000000000000000048e-04,3.331970760301139478e+01,1.799999999999999933e-01
-9.021677017958662503e-02,6.959221140000000361e-01,3.191951288122218261e-02,1.000000000000000048e-04,3.571837599378411454e+01,3.499999999999999778e-01
2.021336933000000169e+00,8.510789659999999923e-01,2.222011748641275139e-02,1.000000000000000048e-04,3.458243327049291338e+01,2.800000000000000266e-01
2.573899695999999793e+00,-5.247218830000000001e-01,4.279195699509655282e-02,1.000000000000000048e-04,3.627456225440659665e+01,1.700000000000000122e-01
2.346925623000000183e+00,-7.496726200000000118e-01,2.214897545614176108e-02,1.000000000000000048e-04,3.511282598130588184e+01,1.700000000000000122e-01
2.487812089999999809e+00,-1.095252646999999913e+00,3.444198209209382161e-02,1.000000000000000048e-04,3.608152787529816408e+01,1.600000000000000033e-01
2.543651012999999850e+00,-2.555195920000000176e-01,2.066572592608197090e-02,1.000000000000000048e-04,3.460937267908609272e+01,1.900000000000000022e-01
2.457771880000000131e+00,-4.383329890000000062e-01,1.206481569186966876e-02,1.000000000000000048e-04,3.379716051320777126e+01,1.700000000000000122e-01
-2.749033603179586116e+00,5.277091179999999770e-01,4.460416285637363448e-02,1.000000000000000048e-04,3.649500112030712273e+01,1.799999999999999933e-01
-3.021446786179586397e+00,6.716344440000000526e-01,2.959453257248036845e-02,1.000000000000000048e-04,3.596187579369379961e+01,1.799999999999999933e-01
2.390319493999999878e+00,1.427533710000000067e+00,6.499526452420091235e-03,1.000000000000000048e-04,3.203087854937563606e+01,1.799999999999999933e-01
-2.060955814179585843e+00,9.020563839999999889e-01,8.272630449896255234e-03,1.000000000000000048e-04,3.282150555539418946e+01,1.799999999999999933e-01
-1.552222439179586466e+00,1.270289940999999923e+00,4.060510241552042071e-02,1.000000000000000048e-04,3.617972062138361622e+01,1.600000000000000033e-01
2.491619029000000207e+00,8.136863199999999630e-01,3.734748373757977580e-02,1.000000000000000048e-04,3.608501413504352229e+01,1.900000000000000022e-01
2.336721559999999975e+00,1.049041915000000103e+00,4.941552293143083169e-02,1.000000000000000048e-04,3.655920718687584525e+01,1.700000000000000122e-01
1.201678150000000000e+00,3.331923239999999842e-01,5.273959430851517596e-03,1.000000000000000048e-04,3.201441165382266263e+01,1.900000000000000022e-01
-3.811893421795859993e-01,1.284308205000000092e+00,3.050873540382107937e-02,1.000000000000000048e-04,3.561496558257162803e+01,2.000000000000000111e-01
5.879284790000000038e-01,8.245620540000000442e-01,1.886310416333557630e-02,1.000000000000000048e-04,3.453645960157436434e+01,1.700000000000000122e-01
-3.584264691795864266e-01,1.112498557000000110e+00,3.888316183260505030e-03,1.000000000000000048e-04,3.075763234451905603e+01,2.000000000000000111e-01
-1.085925731795862603e-01,9.806715139999999664e-01,3.028064117690602158e-02,1.000000000000000048e-04,3.578905142251791460e+01,1.799999999999999933e-01
1.189812670000000017e+00,8.219376269999999485e-01,4.282157779953204430e-02,1.000000000000000048e-04,3.646138016872517085e+01,1.700000000000000122e-01
2.896526737999999934e+00,1.048685354999999930e+00,2.881754474609251118e-02,1.000000000000000048e-04,3.577243691470027898e+01,1.700000000000000122e-01
1.187793541000000008e+00,1.533334508000000040e+00,2.816660503298950083e-02,1.000000000000000048e-04,3.551405395872343007e+01,1.700000000000000122e-01
8.784667550000000436e-01,-5.840451829999999678e-01,4.104456606630595833e-02,1.000000000000000048e-04,3.608716254139312696e+01,2.099999999999999922e-01
-2.025603206179586557e+00,1.419180792999999996e+00,4.319922865641295101e-02,1.000000000000000048e-04,3.657615048828382953e+01,1.799999999999999933e-01
1.097118803000000087e+00,1.428367445999999985e+00,4.316046542895953658e-02,1.000000000000000048e-04,3.635840307300725271e+01,1.799999999999999933e-01
-1.923054671795858539e-01,8.268694330000000425e-01,5.481144285601720519e-03,1.000000000000000048e-04,3.157629015560799957e+01,2.000000000000000111e-01
1.974446608000000047e+00,-1.250497374000000050e+00,4.972899688267806706e-03,1.000000000000000048e-04,3.158065652155239533e+01,2.000000000000000111e-01
1.714471547999999901e+00,-4.841846819999999774e-01,1.006567115473879642e-02,1.000000000000000048e-04,3.326377029817145825e+01,1.700000000000000122e-01
1.635209042000000057e+00,-1.499680316999999929e+00,3.780965795832144649e-02,1.000000000000000048e-04,3.618264814936809159e+01,1.900000000000000022e-01
-3.085878636179586021e+00,-8.156760069999999807e-01,1.149320735760682097e-02,1.000000000000000048e-04,3.371284453407439941e+01,1.799999999999999933e-01
1.583648911999999909e+00,-4.051170720000000225e-01,4.467457029972048826e-02,1.000000000000000048e-04,3.645926716339993590e+01,1.700000000000000122e-01
3.116144028999999982e+00,-6.233618589999999626e-01,2.236926529685219142e-02,1.000000000000000048e-04,3.483936375698818466e+01,2.000000000000000111e-01
2.580853791000000008e+00,2.126606490000000071e-01,4.509034319388800782e-02,1.000000000000000048e-04,3.625797556887593487e+01,2.200000000000000011e-01
2.791070910999999821e+00,-3.375241600000000036e-02,4.148914049644996521e-02,1.000000000000000048e-04,3.603072289019918628e+01,2.999999999999999889e-01
2.126664376999999995e+00,-4.630033630000000011e-01,3.222950725259339511e-02,1.000000000000000048e-04,3.564490561577628824e+01,1.799999999999999933e-01
1.264160699999999915e+00,6.289837299999999631e-01,3.305024492758147636e-02,1.000000000000000048e-04,3.585008054841153324e+01,1.900000000000000022e-01
2.608192676999999904e+00,3.485897410000000085e-01,4.713523340406194223e-02,1.000000000000000048e-04,3.678030188906095077e+01,2.200000000000000011e-01
9.029304540000000490e-01,-5.888661819999999603e-01,2.352742987478009459e-02,1.000000000000000048e-04,3.489195649980744918e+01,1.700000000000000122e-01
2.675488564000000125e+00,-1.029758079000000048e+00,2.314868059399269318e-02,1.000000000000000048e-04,3.524260049812928486e+01,1.700000000000000122e-01
9.979371630000000160e-01,-7.076351440000000492e-01,4.257773977480792948e-02,1.000000000000000048e-04,3.639142943909141792e+01,2.000000000000000111e-01
2.816578843999999915e+00,-6.539336449999999523e-01,1.294712540401574130e-02,1.000000000000000048e-04,3.390582480978905977e+01,1.799999999999999933e-01
-2.809922836179586270e+00,-1.219770695000000016e+00,3.829858070938883807e-02,1.000000000000000048e-04,3.602887329724151044e+01,1.900000000000000022e-01
2.816545334000000178e+00,5.529564630000000092e-01,4.520074962910467647e-02,1.000000000000000048e-04,3.618192999071701621e+01,1.700000000000000122e-01
2.293480610000000031e+00,1.430186356999999964e+00,1.023428379548497330e-02,1.000000000000000048e-04,3.314263129334150904e+01,1.700000000000000122e-01
1.900048696999999898e+00,-6.695785770000000081e-01,3.169034316913550003e-02,1.000000000000000048e-04,3.546641860794233736e+01,1.900000000000000022e-01
2.402973735999999860e+00,-4.293495210000000117e-01,4.388583132859674718e-02,1.000000000000000048e-04,3.663629331224386476e+01,2.200000000000000011e-01
3.123677135999999965e+00,5.597831170000000522e-01,2.426418875265942340e-02,1.000000000000000048e-04,3.533118295954830757e+01,1.700000000000000122e-01
1.945616433999999950e+00,5.533621010000000506e-01,4.566857902504221911e-02,1.000000000000000048e-04,3.636574602685147539e+01,1.700000000000000122e-01
-2.603733431795864917e-01,9.574212720000000454e-01,2.199340836523385953e-02,1.000000000000000048e-04,3.530066227451073502e+01,3.800000000000000044e-01
-1.216980031795857897e-01,3.678993019999999836e-01,3.063224709282259817e-02,1.000000000000000048e-04,3.618233120738837272e+01,1.900000000000000022e-01
2.921580513999999962e+00,4.108407450000000072e-01,3.596047960155249190e-02,1.000000000000000048e-04,3.615678560675271314e+01,1.900000000000000022e-01
-2.362072097179586105e+00,1.187667234999999932e+00,2.077061438678121791e-02,1.000000000000000048e-04,3.487057855706655829e+01,1.900000000000000022e-01
-2.337569846179586186e+00,3.756736769999999837e-01,4.306475658598633155e-02,1.000000000000000048e-04,3.615252788729443978e+01,1.700000000000000122e-01
-1.563533060179586265e+00,8.298117619999999528e-01,2.418820601939459386e-02,1.000000000000000048e-04,3.430398272929431158e+01,3.300000000000000155e-01
-7.514201781795861734e-01,8.148208550000000105e-01,1.045604340092599893e-02,1.000000000000000048e-04,3.327496996559380449e+01,2.099999999999999922e-01
-2.172991007179586376e+00,1.278564443000000050e+00,5.472110533775151331e-03,1.000000000000000048e-04,3.192495328044206460e+01,2.000000000000000111e-01
1.004972830999999900e+00,3.284388160000000223e-01,1.801869627895603954e-02,1.000000000000000048e-04,3.412383559282567091e+01,1.799999999999999933e-01
-1.050913719179586536e+00,7.925907810000000220e-01,3.072587730597792222e-02,1.000000000000000048e-04,3.585804347942612935e+01,2.899999999999999800e-01
1.174967896000000067e+00,-7.032179160000000540e-01,1.866876801891303658e-02,1.000000000000000048e-04,3.441357959378576936e+01,1.799999999999999933e-01
2.063754460999999818e+00,1.158898511999999936e+00,3.789452756659280469e-02,1.000000000000000048e-04,3.609233657560815089e+01,1.799999999999999933e-01
1.355273345999999934e+00,1.034050206000000083e+00,4.063520000277113381e-02,1.000000000000000048e-04,3.608542681112461281e+01,1.700000000000000122e-01
1.878516419999999965e+00,-5.891517790000000421e-01,2.788339435079501341e-02,1.000000000000000048e-04,3.546291934293911652e+01,1.799999999999999933e-01
3.042909537999999969e+00,4.914006550000000195e-01,4.114146448897837427e-02,1.000000000000000048e-04,3.593241144511142693e+01,1.700000000000000122e-01
-2.192876876179585821e+00,7.571444160000000423e-01,3.530902553726866788e-02,1.000000000000000048e-04,3.604856591294902302e+01,2.099999999999999922e-01
-1.274335216179586006e+00,7.393028099999999769e-01,4.714654444959533869e-02,1.000000000000000048e-04,3.699457425887996465e+01,3.599999999999999867e-01
3.513372269999999742e-01,1.023017258000000096e+00,3.285900827622028481e-02,1.000000000000000048e-04,3.591705072670971788e+01,1.799999999999999933e-01
-2.045215730179585911e+00,1.346705497999999945e+00,4.221273752349342760e-03,1.000000000000000048e-04,3.103006959652070051e+01,1.799999999999999933e-01
2.622131355000000053e+00,-2.378520580000000051e-01,1.850859789890873033e-02,1.000000000000000048e-04,3.434203503933878210e+01,2.099999999999999922e-01
1.499565373000000035e+00,-5.833961840000000398e-01,1.425268162915847847e-02,1.000000000000000048e-04,3.399587392314371925e+01,1.199999999999999956e-01
9.453780529999999960e-01,-3.014802610000000271e-01,4.931533788705508292e-02,1.000000000000000048e-04,3.641791578463543289e+01,1.799999999999999933e-01
1.003030738000000088e+00,-6.679498139999999751e-01,3.450437470750271352e-02,1.000000000000000048e-04,3.556900348140929680e+01,1.799999999999999933e-01
-2.858957567179586157e+00,-2.878047879999999781e-01,1.533503890694818197e-02,1.000000000000000048e-04,3.427049650432790884e+01,1.300000000000000044e-01
-2.653655062179586022e+00,5.464710109999999510e-01,2.325366728538574498e-02,1.000000000000000048e-04,3.495146521178776311e+01,1.300000000000000044e-01
-1.077960778179586576e+00,1.305029642999999906e+00,2.356349082573103854e-02,1.000000000000000048e-04,3.506524253352893084e+01,1.100000000000000006e-01
2.996279555000000094e+00,-9.792432829999999644e-01,1.745339660343685206e-02,1.000000000000000048e-04,3.467409929870382257e+01,1.600000000000000033e-01
1.369802210000000131e-01,9.686457469999999459e-01,1.051388609241606098e-02,1.000000000000000048e-04,3.318673888910713998e+01,1.000000000000000056e-01
-7.405109531795863731e-01,5.344760480000000369e-01,1.780011288938378872e-02,1.000000000000000048e-04,3.413959691135315211e+01,1.900000000000000022e-01
-1.986221938179586033e+00,3.858849830000000147e-01,1.375905297866733892e-02,1.000000000000000048e-04,3.378618235875239151e+01,2.600000000000000089e-01
-1.660796187179585992e+00,1.337702168000000080e+00,1.201776493928618031e-02,1.000000000000000048e-04,3.355955698984549684e+01,1.300000000000000044e-01
-1.008319883179586540e+00,9.035811799999999838e-01,3.453878733252781913e-02,1.000000000000000048e-04,3.548194017259572774e+01,1.799999999999999933e-01
-2.859227719179586291e+00,-3.383984709999999785e-01,2.167679814482760883e-02,1.000000000000000048e-04,3.490225113995313677e+01,1.799999999999999933e-01
-3.008470453179586279e+00,-9.028608339999999455e-01,4.735318229514398625e-02,1.000000000000000048e-04,3.675217331503552742e+01,1.300000000000000044e-01
2.720373041999999852e+00,-1.026937239000000002e+00,4.688081935958646196e-02,1.000000000000000048e-04,3.677516921834990882e+01,1.100000000000000006e-01
1.131806215999999976e+00,-1.312634394000000038e+00,3.931382000496735224e-02,1.000000000000000048e-04,3.621072859299773938e+01,1.199999999999999956e-01
2.377785852000000144e+00,-1.071983155000000076e+00,2.392045668790352547e-02,1.000000000000000048e-04,3.502903162428657424e+01,1.000000000000000056e-01
1.262497049000000038e+00,-7.576738640000000302e-01,3.669760445118221571e-03,1.000000000000000048e-04,3.089639166096231193e+01,1.900000000000000022e-01
-2.150308364179585929e+00,9.473204419999999848e-01,8.592277518999597366e-03,1.000000000000000048e-04,3.295127898002256472e+01,1.499999999999999944e-01
-2.672281993179586035e+00,8.065802300000000091e-01,4.700332063834776475e-02,1.000000000000000048e-04,3.653790953580716661e+01,1.400000000000000133e-01
-2.768228307179586345e+00,1.501965110000000048e-01,3.048538769081543531e-02,1.000000000000000048e-04,3.558221210847261062e+01,1.300000000000000044e-01
2.456608391000000058e+00,-6.815239560000000418e-01,2.382518199983586771e-02,1.000000000000000048e-04,3.539262712845254555e+01,2.899999999999999800e-01
-1.538735822179586599e+00,7.895792169999999999e-01,3.341653787690863214e-02,1.000000000000000048e-04,3.574178649568359134e+01,1.600000000000000033e-01
-6.811844061795859773e-01,-7.989239399999999991e-01,1.239139999262030278e-02,1.000000000000000048e-04,3.387825092555111439e+01,2.300000000000000100e-01
-9.881069141795864041e-01,9.266642769999999807e-01,2.209181000184034724e-02,1.000000000000000048e-04,3.455995777183046869e+01,2.500000000000000000e-01
9.533575850000000074e-01,-5.868324440000000086e-01,1.424702179708335625e-02,1.000000000000000048e-04,3.414698898960369178e+01,1.199999999999999956e-01
1.194530383000000029e+00,-8.514353350000000153e-01,1.320290517819083451e-02,1.000000000000000048e-04,3.386924843164620569e+01,1.100000000000000006e-01
-1.550854682179585886e+00,1.341867675000000037e+00,4.276871957707614746e-02,1.000000000000000048e-04,3.670999261486560528e+01,3.599999999999999867e-01
2.328991532999999947e+00,-1.085498080000000032e+00,1.329089032989168306e-02,1.000000000000000048e-04,3.386867421090396135e+01,1.199999999999999956e-01
3.099662444999999877e+00,-8.173274409999999879e-01,2.717752060786394336e-02,1.000000000000000048e-04,3.531463637664015209e+01,1.300000000000000044e-01
1.008677688999999988e+00,-7.224949280000000362e-01,2.522385670561433715e-02,1.000000000000000048e-04,3.502564871693643056e+01,1.199999999999999956e-01
1.116317643999999998e+00,-8.188746820000000204e-01,2.602033671289737463e-02,1.000000000000000048e-04,3.518088857601986774e+01,1.499999999999999944e-01
1.368634144999999913e+00,-9.746537960000000167e-01,4.731444391131576360e-02,1.000000000000000048e-04,3.653195827488764280e+01,2.200000000000000011e-01
1.284766933000000000e+00,-9.049604909999999780e-01,3.633971973665665878e-02,1.000000000000000048e-04,3.581394668823888594e+01,1.300000000000000044e-01
2.840707745000000006e+00,-9.874777999999999611e-01,3.407528727428903170e-02,1.000000000000000048e-04,3.594737592051509978e+01,1.199999999999999956e-01
1.164831654000000105e+00,-8.361433499999999519e-01,1.205581838246621088e-02,1.000000000000000048e-04,3.373815478201312601e+01,1.600000000000000033e-01
9.274529849999999520e-01,-5.648102149999999488e-01,1.972519033197451047e-02,1.000000000000000048e-04,3.445319251951424633e+01,2.200000000000000011e-01
1.803806121999999901e+00,-1.051757271000000049e+00,3.811162035113486307e-02,1.000000000000000048e-04,3.580314043429175541e+01,2.200000000000000011e-01
1.910407339000000038e+00,-1.096340147000000043e+00,5.850584877873150728e-03,1.000000000000000048e-04,3.192254325394326742e+01,1.300000000000000044e-01
-2.994395329179586174e+00,-6.874333790000000111e-01,4.718281289628015879e-02,1.000000000000000048e-04,3.646159486088797053e+01,1.600000000000000033e-01
2.004169926999999962e+00,-1.114377941999999955e+00,5.091004053777453513e-03,1.000000000000000048e-04,3.161555778344277101e+01,2.099999999999999922e-01
2.993884073999999895e+00,-9.067153500000000310e-01,4.785231471146992460e-02,1.000000000000000048e-04,3.636336032190379797e+01,2.000000000000000111e-01
2.896584697999999847e+00,-6.981149509999999836e-01,3.569293544476717650e-02,1.000000000000000048e-04,3.597872402817546345e+01,2.000000000000000111e-01
2.644964143999999795e+00,-1.038456438999999953e+00,1.953538122110208899e-02,1.000000000000000048e-04,3.448949405311608274e+01,2.500000000000000000e-01
1.395029569000000080e+00,-9.673563530000000021e-01,4.780669356682254456e-02,1.000000000000000048e-04,3.674445758222380221e+01,2.200000000000000011e-01
1.133893306999999906e+00,-8.234022290000000410e-01,1.660465402324338979e-02,1.000000000000000048e-04,3.440115382358580121e+01,1.199999999999999956e-01
9.542908199999999841e-01,-6.210129070000000029e-01,1.120327502258570973e-02,1.000000000000000048e-04,3.378199068890334900e+01,1.400000000000000133e-01
1.112357503999999997e+00,-7.717409769999999947e-01,2.154602150138067163e-02,1.000000000000000048e-04,3.461979031830491493e+01,1.400000000000000133e-01
1.392129267000000059e+00,-9.489503049999999940e-01,2.361850961494402906e-02,1.000000000000000048e-04,3.500856912754752415e+01,1.100000000000000006e-01
3.104633763999999907e+00,-8.563587980000000321e-01,4.390982484761070392e-02,1.000000000000000048e-04,3.691563913056465651e+01,1.199999999999999956e-01
-1.581672989179586430e+00,-6.726275419999999672e-01,6.327810154276757720e-03,1.000000000000000048e-04,3.236221972671300762e+01,2.000000000000000111e-01
8.758714749999999549e-01,-5.394949780000000139e-01,4.430501970019646435e-02,1.000000000000000048e-04,3.651507985962692260e+01,1.199999999999999956e-01
1.027821937999999991e+00,-6.897361509999999640e-01,9.226973221186332563e-03,1.000000000000000048e-04,3.283477496994277089e+01,1.499999999999999944e-01
8.011105990000000343e-01,-4.568120419999999737e-01,5.489328774294066279e-03,1.000000000000000048e-04,3.190337141524080877e+01,1.499999999999999944e-01
8.044453879999999835e-01,-4.591503659999999765e-01,3.361434483451437860e-02,1.000000000000000048e-04,3.588369844668514475e+01,1.100000000000000006e-01
8.290542589999999601e-01,-4.498624509999999965e-01,1.602084843555327126e-02,1.000000000000000048e-04,3.419140570535031998e+01,1.199999999999999956e-01
2.306908324000000121e+00,-1.093655438999999951e+00,9.109965885808991512e-03,1.000000000000000048e-04,3.297711249263578992e+01,1.300000000000000044e-01
-3.090495873179586184e+00,-7.974218849999999970e-01,3.613964445312149720e-02,1.000000000000000048e-04,3.627946236863753171e+01,1.300000000000000044e-01
2.850739061000000074e+00,-9.724982730000000242e-01,3.900776315100562552e-02,1.000000000000000048e-04,3.621719283713767368e+01,1.100000000000000006e-01
1.925211972000000049e+00,-1.067349442999999898e+00,2.907188110667776812e-02,1.000000000000000048e-04,3.525206555322303359e+01,1.600000000000000033e-01
3.010706126000000094e+00,-9.149326070000000088e-01,4.257077109942736075e-03,1.000000000000000048e-04,3.115971065481404878e+01,1.199999999999999956e-01
1.754869720000000077e+00,-1.052947148999999971e+00,1.496394068031581953e-02,1.000000000000000048e-04,3.403454133488627775e+01,1.300000000000000044e-01
3.028086770999999899e+00,-8.725603690000000023e-01,1.477888709625741967e-02,1.000000000000000048e-04,3.395292683075967943e+01,1.199999999999999956e-01
2.780301081000000174e+00,-1.010780400000000023e+00,2.643291002727217107e-02,1.000000000000000048e-04,3.540343238937708037e+01,1.700000000000000122e-01
3.096540631999999960e+00,-8.261897350000000362e-01,3.398127074102791356e-02,1.000000000000000048e-04,3.587504452837315227e+01,1.100000000000000006e-01
-3.043596368179586342e+00,-7.656326449999999451e-01,2.312398228699693442e-02,1.000000000000000048e-04,3.505147269847356739e+01,1.100000000000000006e-01
2.593403560000000052e+00,-1.068240442000000012e+00,1.279680097230847385e-02,1.000000000000000048e-04,3.374581929577264816e+01,1.199999999999999956e-01
1.277663320999999907e+00,-8.910532270000000032e-01,2.498314908444530108e-02,1.000000000000000048e-04,3.502556065958369658e+01,1.499999999999999944e-01
8.729576639999999665e-01,-5.017517409999999733e-01,1.898485018627182538e-02,1.000000000000000048e-04,3.475300498903159507e+01,1.199999999999999956e-01
2.323316692000000128e+00,-1.072994334000000105e+00,6.456162481624300870e-03,1.000000000000000048e-04,3.217150786884387514e+01,1.400000000000000133e-01
-3.012222731179586166e+00,-7.219820959999999621e-01,1.007659953204814371e-02,1.000000000000000048e-04,3.330153329260042483e+01,1.199999999999999956e-01
2.306010604999999991e+00,-1.110345181000000014e+00,1.809482351107793638e-02,1.000000000000000048e-04,3.433894059744006455e+01,1.100000000000000006e-01
2.437557496999999795e+00,-1.097151527000000071e+00,4.525243429181934757e-02,1.000000000000000048e-04,3.650245491682218102e+01,1.100000000000000006e-01
1.098420291999999909e+00,-7.444727049999999569e-01,2.231965369981744884e-02,1.000000000000000048e-04,3.488317727795239165e+01,1.300000000000000044e-01
8.241628739999999897e-01,-4.611620249999999754e-01,2.295919026639288082e-02,1.000000000000000048e-04,3.499491425821311452e+01,1.400000000000000133e-01
1.017317494999999905e+00,-7.027905669999999771e-01,3.871734886522461977e-02,1.000000000000000048e-04,3.610352639528028362e+01,1.199999999999999956e-01
2.728679550999999925e+00,-1.007430967999999982e+00,4.254831169962579318e-03,1.000000000000000048e-04,3.101067979661026541e+01,1.100000000000000006e-01
2.848837458999999850e+00,-9.622339979999999793e-01,1.947875552780713518e-02,1.000000000000000048e-04,3.472248448783898311e+01,1.199999999999999956e-01
-3.065525731179586266e+00,-7.207210450000000046e-01,4.997088701791469606e-02,1.000000000000000048e-04,3.679441664672528134e+01,1.199999999999999956e-01
1.103969978000000074e+00,-7.587182380000000448e-01,1.124708860424915996e-02,1.000000000000000048e-04,3.367383916018092549e+01,1.300000000000000044e-01
1.112034854000000017e+00,-7.675460100000000008e-01,1.747291679793605210e-02,1.000000000000000048e-04,3.430499758476773309e+01,1.199999999999999956e-01
2.373162053000000160e+00,-1.072487750000000073e+00,2.564823438296173069e-02,1.000000000000000048e-04,3.513571984091218070e+01,1.100000000000000006e-01
2.221583438000000132e+00,-1.096064289000000080e+00,4.052222540781139082e-02,1.000000000000000048e-04,3.630310441121735465e+01,1.199999999999999956e-01
2.775251189000000007e+00,-1.013244017000000108e+00,3.847190473857992760e-02,1.000000000000000048e-04,3.604433522254321076e+01,1.700000000000000122e-01
1.527128894000000070e+00,-9.963611940000000056e-01,2.523532902288239815e-02,1.000000000000000048e-04,3.520638782970919323e+01,1.400000000000000133e-01
-1.936135624179586401e+00,1.327891944000000102e+00,2.288927815259268750e-02,1.000000000000000048e-04,3.489206268047462345e+01,1.199999999999999956e-01
2.120951332999999828e+00,-1.112975437000000012e+00,1.566533887389203947e-02,1.000000000000000048e-04,3.408737220725817707e+01,1.600000000000000033e-01
2.950704906999999988e+00,-9.277153000000000205e-01,5.727863252424460379e-03,1.000000000000000048e-04,3.181854915285566676e+01,1.700000000000000122e-01
2.461302839000000020e+00,-1.064109841000000056e+00,3.161222263199901794e-02,1.000000000000000048e-04,3.543386982602554980e+01,1.499999999999999944e-01
1.687800213000000049e+00,-1.037844004000000098e+00,3.730812569196043788e-02,1.000000000000000048e-04,3.623320839316750153e+01,1.100000000000000006e-01
-3.069023128179586113e+00,-7.343218900000000327e-01,1.952405717219323975e-02,1.000000000000000048e-04,3.464149696433411663e+01,2.000000000000000111e-01
7.655655390000000171e-01,-3.825025819999999799e-01,3.711696798375552220e-02,1.000000000000000048e-04,3.620945984023050812e+01,1.300000000000000044e-01
-3.051736326179586012e+00,-7.690870560000000467e-01,4.388397515732395809e-02,1.000000000000000048e-04,3.646724721390312851e+01,1.499999999999999944e-01
-3.116938176179586240e+00,-7.920766919999999711e-01,2.698865219913602898e-02,1.000000000000000048e-04,3.540209097109935499e+01,1.100000000000000006e-01
1.020863690000000101e+00,-6.877910739999999468e-01,2.947975482152079274e-02,1.000000000000000048e-04,3.573107792122573301e+01,1.199999999999999956e-01
1.792785233999999894e+00,-1.066474936999999956e+00,2.767486988104757642e-02,1.000000000000000048e-04,3.534138773494719032e+01,1.100000000000000006e-01
1.805689748000000039e+00,-1.066896787999999985e+00,3.353381653232812704e-02,1.000000000000000048e-04,3.579213912065950609e+01,1.100000000000000006e-01
1.773248071000000037e+00,-1.046601056999999946e+00,4.388371031059868504e-02,1.000000000000000048e-04,3.615114979619313829e+01,2.099999999999999922e-01
1.076689889999999927e+00,-7.549444410000000216e-01,4.991213204731543424e-02,1.000000000000000048e-04,3.694221437000192054e+01,1.199999999999999956e-01
2.336456505000000128e+00,-1.089906792000000069e+00,4.627635757773095743e-02,1.000000000000000048e-04,3.671717292928668286e+01,1.199999999999999956e-01
2.522083900000000156e+00,-1.078852812999999911e+00,2.226663249833788633e-02,1.000000000000000048e-04,3.499103517076935788e+01,1.199999999999999956e-01
3.676074389999999803e-01,1.100614297999999991e+00,2.044941960454165972e-02,1.000000000000000048e-04,3.464226048590736440e+01,1.700000000000000122e-01
2.099931574000000190e+00,-1.082223048999999993e+00,1.246966383680080115e-02,1.000000000000000048e-04,3.368419162823627744e+01,1.100000000000000006e-01
8.155488279999999479e-01,-4.642700679999999802e-01,3.070209026341708808e-02,1.000000000000000048e-04,3.581791402987934703e+01,2.099999999999999922e-01
9.861636230000000447e-01,-6.881834650000000497e-01,3.722055357435826578e-02,1.000000000000000048e-04,3.613721584719007751e+01,1.300000000000000044e-01
1.864254864999999928e+00,-1.086684659999999969e+00,2.947927734164983160e-02,1.000000000000000048e-04,3.549368470747095472e+01,1.199999999999999956e-01
2.873066016000000111e+00,-9.753574739999999466e-01,4.134934769425429452e-02,1.000000000000000048e-04,3.633483695388095214e+01,1.300000000000000044e-01
2.270287562000000037e+00,-1.085086717999999895e+00,4.722383825638684293e-03,1.000000000000000048e-04,3.176082097135934745e+01,1.799999999999999933e-01
8.268071609999999572e-01,-4.587794940000000099e-01,3.117759960506272937e-02,1.000000000000000048e-04,3.570141855888685001e+01,1.199999999999999956e-01
-3.050869045179586347e+00,-7.648855789999999821e-01,4.486732017728405075e-02,1.000000000000000048e-04,3.652138383846143910e+01,1.199999999999999956e-01
1.101963728999999947e+00,-7.466317359999999903e-01,3.380825051482758831e-02,1.000000000000000048e-04,3.609587012567808273e+01,1.900000000000000022e-01
1.745116724000000064e+00,-1.056563783000000090e+00,4.372800074037796331e-02,1.000000000000000048e-04,3.662739424169811997e+01,1.300000000000000044e-01
7.889769570000000343e-01,-3.846565690000000037e-01,1.528965904059735245e-02,1.000000000000000048e-04,3.420629109495043707e+01,1.499999999999999944e-01
1.385818830999999918e+00,-9.278259679999999454e-01,2.717681599511255139e-02,1.000000000000000048e-04,3.513605293713974476e+01,1.499999999999999944e-01
1.138484923000000038e+00,-8.197145099999999518e-01,4.782199323469928792e-02,1.000000000000000048e-04,3.658081946292521280e+01,1.400000000000000133e-01
1.783410439000000069e+00,-1.080958507999999929e+00,2.127489149619931491e-02,1.000000000000000048e-04,3.502804672389967777e+01,1.400000000000000133e-01
2.617653461000000181e+00,-1.025884226000000066e+00,4.437166423117715891e-02,1.000000000000000048e-04,3.652442701542856440e+01,1.199999999999999956e-01
8.270197009999999960e-01,-4.157453939999999903e-01,1.845286658434784621e-02,1.000000000000000048e-04,3.463002668178614840e+01,1.199999999999999956e-01
3.128792493000000174e+00,-8.522697870000000009e-01,1.756923664975927613e-02,1.000000000000000048e-04,3.436216930173295481e+01,1.100000000000000006e-01
1.366158207000000013e+00,-9.614226009999999878e-01,3.199368056106281083e-02,1.000000000000000048e-04,3.570262519149756741e+01,1.100000000000000006e-01
2.846286316000000038e+00,-9.688357899999999745e-01,1.001615145939787829e-02,1.000000000000000048e-04,3.290505250835050077e+01,1.400000000000000133e-01
9.208216280000000031e-01,-6.185352929999999860e-01,3.319842821198357857e-02,1.000000000000000048e-04,3.603688088793465738e+01,1.499999999999999944e-01
7.622987450000000553e-01,-3.411912120000000215e-01,3.729651640442886718e-03,1.000000000000000048e-04,3.104329413833998785e+01,1.199999999999999956e-01
9.277931750000000255e-01,-5.813990460000000304e-01,4.794698240845238213e-02,1.000000000000000048e-04,3.668645833417122049e+01,2.099999999999999922e-01
1.010173165000000095e+00,-6.808591280000000356e-01,9.553214815502107660e-03,1.000000000000000048e-04,3.314768017511549658e+01,1.300000000000000044e-01
1.661181446000000062e+00,-1.029160687999999935e+00,2.123703534448895258e-02,1.000000000000000048e-04,3.467875553891807527e+01,1.400000000000000133e-01
2.089878704000000198e+00,-1.077863170999999953e+00,4.575758892020882068e-02,1.000000000000000048e-04,3.648911830648056309e+01,1.199999999999999956e-01
9.321550429999999610e-01,-6.212176799999999943e-01,4.432409172413933479e-02,1.000000000000000048e-04,3.673317536107122550e+01,1.199999999999999956e-01
2.944595597000000176e+00,-9.127602249999999806e-01,1.387027808107712049e-02,1.000000000000000048e-04,3.388148828480564845e+01,1.100000000000000006e-01
1.288081913999999939e+00,-9.113959929999999598e-01,1.576771329876175756e-02,1.000000000000000048e-04,3.400312377266658359e+01,1.300000000000000044e-01
1.398731861999999992e+00,-9.625033109999999725e-01,2.428322879509122942e-02,1.000000000000000048e-04,3.508067352562431296e+01,1.199999999999999956e-01
1.714165549000000066e+00,-1.043104095999999981e+00,2.896137469832246736e-02,1.000000000000000048e-04,3.529988846002988367e+01,1.199999999999999956e-01
1.014018395999999989e+00,-6.788913789999999615e-01,4.011371777859845666e-03,1.000000000000000048e-04,3.124118197395979379e+01,1.300000000000000044e-01
8.887761809999999985e-01,-5.541821719999999729e-01,3.403265472091931976e-02,1.000000000000000048e-04,3.601655994270939232e+01,1.300000000000000044e-01
1.026278256999999972e+00,-6.961882160000000264e-01,4.465235903951204205e-02,1.000000000000000048e-04,3.646882381914974758e+01,1.199999999999999956e-01
1.824970581999999952e+00,-1.080428363000000003e+00,1.588490489077086509e-02,1.000000000000000048e-04,3.427278515982632712e+01,1.199999999999999956e-01
1.839979185000000017e+00,-1.082878103999999952e+00,4.483049655169013027e-03,1.000000000000000048e-04,3.126446990158913763e+01,1.300000000000000044e-01
-3.070118813179586237e+00,-7.641942569999999879e-01,8.865342884594619791e-03,1.000000000000000048e-04,3.287702369007793379e+01,1.199999999999999956e-01
2.250776613000000204e+00,-1.110438553999999911e+00,8.261415893984866421e-03,1.000000000000000048e-04,3.264735284374508950e+01,1.199999999999999956e-01
2.613802471000000072e+00,-1.066258922999999914e+00,4.303631972100527975e-02,1.000000000000000048e-04,3.647421429368507262e+01,1.199999999999999956e-01
8.050150120000000298e-01,-4.193234060000000096e-01,4.334064391657761056e-02,1.000000000000000048e-04,3.633716288461840094e+01,1.499999999999999944e-01
2.809576177999999924e+00,-9.952447749999999704e-01,3.147732976793779502e-02,1.000000000000000048e-04,3.542443761764768340e+01,1.199999999999999956e-01
8.523447290000000232e-01,-4.773689010000000121e-01,4.591167127475166698e-02,1.000000000000000048e-04,3.663576498202148457e+01,2.000000000000000111e-01
2.975142320999999868e+00,-8.986192680000000266e-01,2.678964345948970510e-02,1.000000000000000048e-04,3.532806406350248807e+01,2.000000000000000111e-01
2.960578484000000010e+00,-9.174235720000000205e-01,1.414277398841659247e-02,1.000000000000000048e-04,3.372759477832482133e+01,1.400000000000000133e-01
1.589239559999999996e+00,-1.046132274999999945e+00,1.372102392554591654e-02,1.000000000000000048e-04,3.375097483629353690e+01,1.199999999999999956e-01
1.095136271999999966e+00,-7.909478989999999543e-01,2.468471829248502017e-02,1.000000000000000048e-04,3.517781423471473090e+01,1.300000000000000044e-01
3.045277111999999953e+00,-8.831592660000000539e-01,4.754945529492088374e-02,1.000000000000000048e-04,3.674356386833920141e+01,1.799999999999999933e-01
3.011317304999999944e+00,-8.969173430000000335e-01,3.855663281125398106e-02,1.000000000000000048e-04,3.584067277256954753e+01,1.499999999999999944e-01
1.946036051000000100e+00,-1.101857058000000000e+00,4.457115772122371977e-02,1.000000000000000048e-04,3.651087933505929328e+01,1.100000000000000006e-01
9.659444579999999503e-01,-6.400164339999999674e-01,2.557082826739529371e-02,1.000000000000000048e-04,3.520441134852405440e+01,1.199999999999999956e-01
1.142944595999999979e+00,-8.229314749999999679e-01,4.507575928330604526e-02,1.000000000000000048e-04,3.647050318259971391e+01,1.499999999999999944e-01
1.336859599999999926e+00,-9.462661719999999610e-01,2.740287313237874806e-02,1.000000000000000048e-04,3.565348354253989527e+01,1.900000000000000022e-01
2.386695267999999981e+00,-1.099692616000000012e+00,2.422996249793225518e-02,1.000000000000000048e-04,3.528022775316420478e+01,1.799999999999999933e-01
1.122946417999999946e+00,-7.871106610000000448e-01,4.031225947598928577e-02,1.000000000000000048e-04,3.615585482267960771e+01,1.499999999999999944e-01
1.038511049000000019e+00,-6.836743480000000428e-01,3.417912090776980064e-03,1.000000000000000048e-04,3.086856766838562649e+01,1.499999999999999944e-01
-1.865548755179585960e+00,5.988235499999999822e-01,3.494273384609444116e-02,1.000000000000000048e-04,3.585623894431564196e+01,3.599999999999999867e-01
-1.208774007179585830e+00,1.086301519000000049e+00,4.083090016679765538e-02,1.000000000000000048e-04,3.625530382628343773e+01,3.900000000000000133e-01
-1.451351928179586359e+00,1.047303024999999943e+00,1.962835151509418133e-02,1.000000000000000048e-04,3.417300682923956856e+01,3.900000000000000133e-01
-1.863787002179586594e+00,5.986409590000000280e-01,9.713132745885767402e-03,1.000000000000000048e-04,3.301459758712601200e+01,3.099999999999999978e-01
-2.367107747179586053e+00,3.570653329999999848e-01,1.925155752873820847e-02,1.000000000000000048e-04,3.488274678985201405e+01,3.300000000000000155e-01
-1.756700719179586478e+00,1.186865959999999998e+00,3.829191868973370189e-02,1.000000000000000048e-04,3.610171257774445053e+01,4.600000000000000200e-01
3.110012692999999828e+00,-8.816387980000000013e-01,2.405633777759444772e-02,1.000000000000000048e-04,3.507853725804201162e+01,4.000000000000000222e-01
1.208427087000000011e+00,6.391205479999999550e-01,7.987019418222700978e-03,1.000000000000000048e-04,3.246972200375155637e+01,3.200000000000000067e-01
2.195568135999999893e+00,9.530612539999999688e-01,5.371015167600528759e-03,1.000000000000000048e-04,3.201861805608525913e+01,3.200000000000000067e-01
1.005319582999999906e+00,6.711075279999999532e-01,3.604720440528298708e-02,1.000000000000000048e-04,3.479962466965691448e+01,8.100000000000000533e-01
-1.746303855179585973e+00,7.561700099999999480e-01,4.325329973335951400e-02,1.000000000000000048e-04,3.635875063312872157e+01,3.599999999999999867e-01
-4.601474541795864681e-01,1.080353384999999999e+00,3.678342432467866102e-02,1.000000000000000048e-04,3.620444420846484945e+01,4.699999999999999734e-01
-1.809340496179586033e+00,8.561831709999999651e-01,3.523665051682916410e-02,1.000000000000000048e-04,3.568833305482173301e+01,5.600000000000000533e-01
-1.804726732179585902e+00,8.415213710000000180e-01,2.423638976605524062e-02,1.000000000000000048e-04,3.580769234706952631e+01,5.100000000000000089e-01
-1.920735154179586068e+00,8.789503189999999799e-01,6.501062680776504774e-03,1.000000000000000048e-04,3.257882906397213674e+01,4.500000000000000111e-01
-2.443118364179586166e+00,3.912645049999999847e-01,2.353066464699848231e-02,1.000000000000000048e-04,3.472533165581624814e+01,6.400000000000000133e-01
-2.443397905179586438e+00,3.924271049999999983e-01,8.759018018392421626e-03,1.000000000000000048e-04,3.262319927788863083e+01,4.199999999999999845e-01
-1.798694144179585841e+00,8.464773150000000079e-01,3.556501680794766501e-02,1.000000000000000048e-04,3.562079422423938269e+01,6.600000000000000311e-01
-1.799964602179586315e+00,8.443478660000000025e-01,4.955326261182371739e-02,1.000000000000000048e-04,3.694059564696754450e+01,6.099999999999999867e-01
-1.805111234179586077e+00,8.421560940000000217e-01,4.063985288838760368e-02,1.000000000000000048e-04,3.683451121908198189e+01,5.100000000000000089e-01
-2.442430271179586221e+00,3.917367079999999890e-01,1.536496402410968826e-02,1.000000000000000048e-04,3.322086454313713233e+01,9.200000000000000400e-01
-2.432135523179586034e+00,3.856870689999999935e-01,2.563594174658171548e-02,1.000000000000000048e-04,3.450146808914261953e+01,4.500000000000000111e-01
-2.443115938179586166e+00,3.817974199999999985e-01,4.500955707784531912e-02,1.000000000000000048e-04,3.438661136903435533e+01,1.010000000000000009e+00
-2.507217827179586411e+00,2.806706330000000027e-01,4.567981135057512521e-02,1.000000000000000048e-04,3.639310106432372294e+01,7.199999999999999734e-01
-2.751331907179586089e+00,-4.573921380000000037e-01,1.026543895212800143e-02,1.000000000000000048e-04,3.252539285247267031e+01,4.299999999999999933e-01
-2.751204501179586259e+00,-4.575163139999999795e-01,3.992731782208754597e-03,1.000000000000000048e-04,3.084832478969994440e+01,5.100000000000000089e-01
-2.751948792179586434e+00,-4.626465410000000222e-01,4.051031081323388378e-02,1.000000000000000048e-04,3.651957694584794467e+01,9.000000000000000222e-01
-2.714588277179586395e+00,-4.966179359999999821e-01,3.442064845277974239e-02,1.000000000000000048e-04,3.704880967888792043e+01,5.200000000000000178e-01
-4.484873401795859138e-01,1.078759022000000067e+00,6.688926265294152518e-03,1.000000000000000048e-04,3.168923146523534129e+01,4.600000000000000200e-01
1.900693019999999955e-01,8.157953839999999568e-01,4.509738008218958788e-02,1.000000000000000048e-04,3.712603405299001480e+01,5.899999999999999689e-01
-1.022766420179586078e+00,1.083744478000000067e+00,3.953305060661480713e-02,1.000000000000000048e-04,3.575107326826798015e+01,6.300000000000000044e-01
-4.695071691795860147e-01,1.083533926999999952e+00,1.572743176764130474e-02,1.000000000000000048e-04,3.416861903417268564e+01,4.400000000000000022e-01
-2.430196729179586068e+00,3.866488559999999852e-01,1.100975486716197251e-02,1.000000000000000048e-04,3.335404937553981597e+01,4.500000000000000111e-01
-1.912154461179586207e+00,8.727908680000000530e-01,6.743123829169550033e-03,1.000000000000000048e-04,3.216631313776790790e+01,4.699999999999999734e-01
-2.513608092179586251e+00,4.011275939999999762e-01,3.409406307239377411e-03,1.000000000000000048e-04,3.105331353260837801e+01,4.699999999999999734e-01
-2.755728471179586414e+00,-5.498326249999999638e-01,1.131643680574828670e-02,1.000000000000000048e-04,3.304770893291030376e+01,5.100000000000000089e-01
3.086866033999999814e+00,-8.456466849999999535e-01,1.655099441644279287e-02,1.000000000000000048e-04,3.425091621836039479e+01,5.200000000000000178e-01
2.898135272999999845e+00,-9.408617099999999622e-01,1.842879534461042829e-02,1.000000000000000048e-04,3.399288654045273006e+01,5.600000000000000533e-01
2.887933338999999933e+00,-9.438168839999999671e-01,3.994713721312818933e-02,1.000000000000000048e-04,3.613356834018009067e+01,4.799999999999999822e-01
2.256176956000000011e+00,-1.014735844999999914e+00,2.046306341307160825e-02,1.000000000000000048e-04,3.539766126726384243e+01,5.000000000000000000e-01
2.229698910000000200e+00,-1.018180813999999934e+00,1.626683610408821701e-02,1.000000000000000048e-04,3.425850994009582706e+01,6.400000000000000133e-01
2.227960753000000071e+00,-1.020489782000000067e+00,4.363172905187184814e-02,1.000000000000000048e-04,3.669421555692913017e+01,5.999999999999999778e-01
1.978102527999999971e+00,-9.529058719999999871e-01,8.653840261688482832e-03,1.000000000000000048e-04,3.354357997431378635e+01,5.200000000000000178e-01
2.842930618000000020e+00,9.211371910000000218e-01,2.726860610211854358e-02,1.000000000000000048e-04,3.495691721733463453e+01,4.899999999999999911e-01
2.611089279999999846e+00,9.227226889999999848e-01,4.207456319181723109e-02,1.000000000000000048e-04,3.683756210208001391e+01,4.899999999999999911e-01
-2.613733020179586308e+00,3.020363409999999860e-01,3.954042182602498373e-02,1.000000000000000048e-04,3.611971482239895437e+01,2.399999999999999911e-01
3.080075141000000016e+00,6.813462000000000129e-01,4.079658465497947029e-02,1.000000000000000048e-04,3.664064221162319512e+01,2.999999999999999889e-01
-2.614795632179586438e+00,3.100862600000000024e-01,3.566172282167206359e-02,1.000000000000000048e-04,3.564435175992688443e+01,7.099999999999999645e-01
3.084152930000000126e+00,6.750201959999999612e-01,1.818519199033532402e-02,1.000000000000000048e-04,3.441919380457908773e+01,2.399999999999999911e-01
-2.831540824179586302e+00,-5.193198470000000011e-01,4.969094285219800150e-02,1.000000000000000048e-04,3.681063900139065481e+01,2.899999999999999800e-01
2.921667255000000019e+00,-9.403574120000000036e-01,8.006261283393878436e-03,1.000000000000000048e-04,3.226945078463681682e+01,2.899999999999999800e-01
2.914679634000000075e+00,-9.413881210000000221e-01,4.716595739905270895e-02,1.000000000000000048e-04,3.621958398509398336e+01,7.299999999999999822e-01
2.905880500999999949e+00,-9.458600109999999450e-01,1.917741821540496286e-02,1.000000000000000048e-04,3.548108365040470602e+01,4.299999999999999933e-01
2.610543199999999953e+00,9.294079060000000059e-01,2.106064251310572899e-02,1.000000000000000048e-04,3.445167384951882639e+01,2.899999999999999800e-01
2.614058957000000127e+00,9.310355519999999885e-01,5.153410032660562384e-03,1.000000000000000048e-04,3.162330765803894295e+01,3.699999999999999956e-01
-2.614313936179586406e+00,3.105085300000000048e-01,1.400535539517839059e-02,1.000000000000000048e-04,3.379413532741741477e+01,2.300000000000000100e-01
-2.614275993179586255e+00,3.084493819999999942e-01,4.577138532151555500e-02,1.000000000000000048e-04,3.669397615893894482e+01,2.000000000000000111e-01
3.080236718000000096e+00,6.852664600000000217e-01,9.237243331107380245e-03,1.000000000000000048e-04,3.331759583456106100e+01,3.800000000000000044e-01
3.085135451000000195e+00,6.840520260000000352e-01,2.618811652306947402e-02,1.000000000000000048e-04,3.473404874324163671e+01,2.300000000000000100e-01
-2.608333968179586293e+00,3.075313129999999728e-01,3.112347033297552593e-02,1.000000000000000048e-04,3.509121538817441888e+01,5.799999999999999600e-01
-2.828421734179586089e+00,-5.202039349999999507e-01,2.224983291288332860e-02,1.000000000000000048e-04,3.534188165453454644e+01,5.200000000000000178e-01
-2.829361723179586452e+00,-5.190188390000000096e-01,1.891756745122795402e-02,1.000000000000000048e-04,3.451782388596013362e+01,3.900000000000000133e-01
-2.833706243179586082e+00,-5.260186759999999628e-01,2.890267477817007671e-02,1.000000000000000048e-04,3.540363107524673580e+01,2.200000000000000011e-01
1.286414458000000094e+00,-9.076167339999999806e-01,2.235898281304274371e-02,1.000000000000000048e-04,3.499341788698751543e+01,2.399999999999999911e-01
2.295144749999999956e+00,-1.095028292000000070e+00,1.506793573927892385e-02,1.000000000000000048e-04,3.385062997755666458e+01,2.000000000000000111e-01
2.312115046000000174e+00,-1.091482969000000081e+00,3.030882717304411722e-02,1.000000000000000048e-04,3.539524893911836756e+01,1.900000000000000022e-01
2.535381049000000164e+00,-1.063602453999999975e+00,4.446601169415826532e-02,1.000000000000000048e-04,3.643729922765167117e+01,2.600000000000000089e-01
2.549902755000000187e+00,-1.059649137999999935e+00,2.263305651726720338e-02,1.000000000000000048e-04,3.486934047232261946e+01,1.900000000000000022e-01
-2.980466121795863899e-01,1.081935794000000062e+00,2.056047508377435717e-02,1.000000000000000048e-04,3.480888661515913185e+01,1.000000000000000056e-01
-4.562223411795862660e-01,1.078420874000000085e+00,4.494503745475135481e-02,1.000000000000000048e-04,3.655073232138033035e+01,1.400000000000000133e-01
-4.727696341795866175e-01,1.076427226000000070e+00,2.764684185069234482e-02,1.000000000000000048e-04,3.568799051019462354e+01,1.900000000000000022e-01
-4.909850281795860028e-01,1.086050390999999893e+00,9.693268939675201909e-03,1.000000000000000048e-04,3.306741694075847704e+01,1.499999999999999944e-01
-1.809890014179586615e+00,8.554848849999999727e-01,8.871283740602640619e-03,1.000000000000000048e-04,3.286220946066165993e+01,1.900000000000000022e-01
-1.804843805179586091e+00,8.509932909999999850e-01,2.711919457190894306e-02,1.000000000000000048e-04,3.522114692234115552e+01,1.700000000000000122e-01
-1.798315402179586187e+00,8.389159160000000393e-01,3.674277247460866480e-02,1.000000000000000048e-04,3.614378627907542096e+01,1.100000000000000006e-01
-1.820018681179586650e+00,8.404092629999999620e-01,5.339407743938937370e-03,1.000000000000000048e-04,3.174529722666120435e+01,2.000000000000000111e-01
-2.435936564179586039e+00,3.767214549999999829e-01,3.993550428900158322e-02,1.000000000000000048e-04,3.602050903706115292e+01,1.700000000000000122e-01
-2.738532057179586143e+00,-4.670391260000000266e-01,4.386631567484207406e-02,1.000000000000000048e-04,3.638278822743084362e+01,1.100000000000000006e-01
-2.750126147179586145e+00,-4.750163370000000107e-01,3.052490342577741239e-02,1.000000000000000048e-04,3.544201569791176354e+01,1.700000000000000122e-01
6.777063359999999648e-01,-9.284162910000000046e-01,1.997449265325106083e-02,1.000000000000000048e-04,3.495532167439230165e+01,1.600000000000000033e-01
6.755664329999999662e-01,-9.242990760000000527e-01,3.733404922566369022e-02,1.000000000000000048e-04,3.587691971494044196e+01,2.200000000000000011e-01
1.666277256000000095e+00,1.035703752000000089e+00,4.674585489445380604e-02,1.000000000000000048e-04,3.653519164285956577e+01,2.800000000000000266e-01
1.679531192000000006e+00,1.034147155999999956e+00,4.677446420940155336e-02,1.000000000000000048e-04,3.632777464818666147e+01,2.099999999999999922e-01
1.669961188000000041e+00,1.045784459000000055e+00,1.598059901864668647e-02,1.000000000000000048e-04,3.425771896542055117e+01,2.899999999999999800e-01
1.666612017000000057e+00,1.035903760999999923e+00,4.529955987094385489e-02,1.000000000000000048e-04,3.653490388743355055e+01,1.400000000000000133e-01
1.676630470000000095e+00,1.049302589999999924e+00,1.894888164368324981e-02,1.000000000000000048e-04,3.427459966814987524e+01,1.600000000000000033e-01
1.678871634000000057e+00,1.037439988999999896e+00,4.381292461822866580e-02,1.000000000000000048e-04,3.617348767417968247e+01,2.099999999999999922e-01
-2.159653925179585876e+00,7.341517600000000421e-01,4.892759006930015586e-02,1.000000000000000048e-04,3.640539753394377698e+01,2.600000000000000089e-01
-2.155609593179586447e+00,7.327229189999999726e-01,4.899042194650082838e-02,1.000000000000000048e-04,3.677246319652670792e+01,1.400000000000000133e-01
2.989279821999999864e+00,-1.014333855000000062e+00,2.507639471806260775e-02,1.000000000000000048e-04,3.532078185962698313e+01,1.600000000000000033e-01
6.962963009999999509e-01,-9.242906640000000396e-01,4.588227650064564261e-02,1.000000000000000048e-04,3.679179461168196497e+01,2.000000000000000111e-01
6.831622830000000368e-01,-9.295060950000000322e-01,2.518169945565644843e-02,1.000000000000000048e-04,3.529610553705362719e+01,2.099999999999999922e-01
6.813526220000000189e-01,-9.196739680000000083e-01,2.374538762038565232e-02,1.000000000000000048e-04,3.513647290231536147e+01,1.700000000000000122e-01
1.667475545999999920e+00,1.039138789999999979e+00,3.545364055341172077e-02,1.000000000000000048e-04,3.595317936260124014e+01,1.499999999999999944e-01
1.669072946000000002e+00,1.039627206000000026e+00,3.109769067164782838e-02,1.000000000000000048e-04,3.566530898431222596e+01,1.700000000000000122e-01
2.992464221000000091e+00,-1.009427984000000000e+00,4.073847360818392410e-02,1.000000000000000048e-04,3.618774792362128068e+01,1.400000000000000133e-01
3.013377762000000182e+00,-1.015725085999999999e+00,2.670425271311658091e-02,1.000000000000000048e-04,3.541962603154786393e+01,1.499999999999999944e-01
6.857830799999999893e-01,-9.290922369999999875e-01,4.775602745668963006e-02,1.000000000000000048e-04,3.722356720549625209e+01,3.400000000000000244e-01
6.874880420000000214e-01,-9.251381180000000093e-01,2.886014776969210438e-02,1.000000000000000048e-04,3.576470335009291546e+01,1.700000000000000122e-01
1.659686511000000086e+00,1.040101345999999927e+00,2.339146879311423607e-02,1.000000000000000048e-04,3.512724492266314513e+01,1.400000000000000133e-01
1.673757463999999917e+00,1.042554473000000037e+00,1.916942333119972530e-02,1.000000000000000048e-04,3.421624019107974846e+01,4.299999999999999933e-01
1.692629780999999944e+00,1.043637506000000048e+00,2.277786016892198104e-02,1.000000000000000048e-04,3.491942847955985485e+01,1.799999999999999933e-01
1.682450028999999958e+00,1.049226146999999942e+00,4.873400108373799472e-02,1.000000000000000048e-04,3.684800703002505884e+01,1.900000000000000022e-01
1.675255906999999933e+00,1.048468626000000015e+00,2.158035261181294115e-02,1.000000000000000048e-04,3.473300531819242565e+01,1.499999999999999944e-01
1.692145135000000078e+00,1.039981480000000014e+00,4.168275447453606564e-02,1.000000000000000048e-04,3.632971189743351204e+01,1.700000000000000122e-01
-2.139768073179586061e+00,7.360294179999999908e-01,4.685693154264585630e-02,1.000000000000000048e-04,3.650223404845073105e+01,1.600000000000000033e-01
-2.138731675179585956e+00,7.369836659999999817e-01,3.004678255113115565e-02,1.000000000000000048e-04,3.541427962276268460e+01,1.499999999999999944e-01
6.888283630000000546e-01,-9.193630990000000169e-01,2.168424178614805284e-02,1.000000000000000048e-04,3.495146344156978557e+01,1.700000000000000122e-01
6.776433490000000059e-01,-9.225326109999999469e-01,2.102397258529018972e-02,1.000000000000000048e-04,3.482097851185685755e+01,1.600000000000000033e-01
6.820513620000000499e-01,-9.162569579999999547e-01,4.025085241295232180e-02,1.000000000000000048e-04,3.685143412501371074e+01,2.899999999999999800e-01
6.832637360000000104e-01,-9.208365670000000502e-01,3.600314929884858295e-02,1.000000000000000048e-04,3.592175379982002426e+01,1.400000000000000133e-01
1.683256381999999940e+00,1.050427892999999946e+00,2.051964926626978492e-02,1.000000000000000048e-04,3.463908295077574451e+01,1.499999999999999944e-01
2.987248335999999949e+00,-1.011507587000000097e+00,3.822170797139877452e-02,1.000000000000000048e-04,3.624534838958945926e+01,1.900000000000000022e-01
2.994879214000000012e+00,-1.020537374999999969e+00,8.954240762180917801e-03,1.000000000000000048e-04,3.261586459693814533e+01,2.500000000000000000e-01
2.997056848999999801e+00,-1.020797841000000039e+00,2.504716257803282428e-02,1.000000000000000048e-04,3.517605919044167706e+01,1.499999999999999944e-01
6.981827720000000070e-01,-9.201470600000000166e-01,4.612502022201712265e-02,1.000000000000000048e-04,3.642889140832330952e+01,2.099999999999999922e-01
1.675679171999999939e+00,1.042232051000000048e+00,1.932130477812388572e-02,1.000000000000000048e-04,3.460161466708809996e+01,1.900000000000000022e-01
1.682732345000000018e+00,1.051774148000000020e+00,3.005691512452207323e-02,1.000000000000000048e-04,3.548079093181267751e+01,2.099999999999999922e-01
1.655763980999999996e+00,1.041789395999999979e+00,4.874833429350618197e-02,1.000000000000000048e-04,3.659024860494674414e+01,2.099999999999999922e-01
1.658505131999999938e+00,1.042043577999999915e+00,1.328557687818507013e-02,1.000000000000000048e-04,3.350221006193461193e+01,1.499999999999999944e-01
1.679931540999999973e+00,1.044700675999999939e+00,4.851795222756215969e-02,1.000000000000000048e-04,3.672999565523311816e+01,1.400000000000000133e-01
1.681131209999999987e+00,1.046558263000000100e+00,4.599944173099602962e-02,1.000000000000000048e-04,3.690785526929394678e+01,3.800000000000000044e-01
-2.147380102179586636e+00,7.248191320000000326e-01,1.393614765413344475e-02,1.000000000000000048e-04,3.394293266665379605e+01,2.200000000000000011e-01
-2.137481690179586558e+00,7.386978770000000027e-01,6.604079435794414123e-03,1.000000000000000048e-04,3.236039474014653905e+01,1.499999999999999944e-01
3.007533192999999994e+00,-1.006434849999999992e+00,1.410937779813840540e-02,1.000000000000000048e-04,3.399238622204728699e+01,1.700000000000000122e-01
6.766177190000000063e-01,-9.309161569999999664e-01,4.770932317975254064e-03,1.000000000000000048e-04,3.141462533910235067e+01,1.700000000000000122e-01
6.879719020000000240e-01,-9.170357009999999809e-01,4.931979353805083371e-02,1.000000000000000048e-04,3.654364397378265039e+01,2.600000000000000089e-01
6.868192690000000100e-01,-9.190749710000000183e-01,2.882267690776852895e-02,1.000000000000000048e-04,3.532905224994742355e+01,2.800000000000000266e-01
1.680927606000000019e+00,1.043199457999999913e+00,1.232520721663135296e-02,1.000000000000000048e-04,3.344517953624863082e+01,1.799999999999999933e-01
1.680733408999999901e+00,1.046110547000000057e+00,3.726751190931564678e-02,1.000000000000000048e-04,3.613603495355330608e+01,1.499999999999999944e-01
3.003205794999999956e+00,-1.007960921000000010e+00,9.905266561869754960e-03,1.000000000000000048e-04,3.306108434037150801e+01,2.200000000000000011e-01
3.013387552999999830e+00,-1.018013843000000085e+00,8.526270312752482622e-03,1.000000000000000048e-04,3.312147377191697473e+01,2.000000000000000111e-01
2.991633154000000072e+00,-1.018575491000000000e+00,1.270431265503889698e-02,1.000000000000000048e-04,3.360386211282496305e+01,1.600000000000000033e-01
6.810583510000000063e-01,-9.216344210000000370e-01,2.090080764493323570e-02,1.000000000000000048e-04,3.490282606046874747e+01,1.600000000000000033e-01
1.670069762000000013e+00,1.048284639000000018e+00,4.930943421756404238e-02,1.000000000000000048e-04,3.659063378923470822e+01,2.099999999999999922e-01
1.699713636000000028e+00,1.040243690999999915e+00,3.718203830677146993e-02,1.000000000000000048e-04,3.560899713530758959e+01,2.899999999999999800e-01
1.686195045999999920e+00,1.048540513999999924e+00,2.003645421510934221e-02,1.000000000000000048e-04,3.466235219661164990e+01,1.400000000000000133e-01
1.667162669999999958e+00,1.044746053999999980e+00,2.177348214284256095e-02,1.000000000000000048e-04,3.444013635018222175e+01,2.700000000000000178e-01
1.689467040999999892e+00,1.036330184999999959e+00,4.680636550840285015e-03,1.000000000000000048e-04,3.150259097586443957e+01,1.300000000000000044e-01
1.683799076999999977e+00,1.043385784000000038e+00,2.019213769001169251e-02,1.000000000000000048e-04,3.452332672470649300e+01,1.700000000000000122e-01
-2.151455832179586025e+00,7.398983139999999459e-01,3.228170378963463039e-02,1.000000000000000048e-04,3.582553708590834418e+01,2.500000000000000000e-01
-2.141944958179585967e+00,7.302793560000000461e-01,2.655655042010920952e-02,1.000000000000000048e-04,3.544189590450093164e+01,1.400000000000000133e-01
3.012489310999999947e+00,-1.019874449000000016e+00,1.436852868156937579e-02,1.000000000000000048e-04,3.389621125906798937e+01,1.900000000000000022e-01
6.824463880000000149e-01,-9.193269539999999740e-01,4.286917074181514214e-02,1.000000000000000048e-04,3.629324125716377836e+01,1.600000000000000033e-01
6.933168330000000212e-01,-9.307474239999999899e-01,1.058593619567347113e-02,1.000000000000000048e-04,3.309500293519602110e+01,1.600000000000000033e-01
7.005346909999999871e-01,-9.247541049999999929e-01,2.775125620182499614e-02,1.000000000000000048e-04,3.526303254117867425e+01,2.700000000000000178e-01
1.674988617999999985e+00,1.042237757999999959e+00,2.592337415446911361e-02,1.000000000000000048e-04,3.542315930885031605e+01,1.499999999999999944e-01
1.672026148000000045e+00,1.039374368000000048e+00,4.894898824841039178e-03,1.000000000000000048e-04,3.154880309575090180e+01,1.600000000000000033e-01
2.993618983999999816e+00,-1.008517228000000099e+00,1.982913511665479467e-02,1.000000000000000048e-04,3.435261647719357825e+01,1.700000000000000122e-01
2.992837709999999873e+00,-1.014889098000000045e+00,1.682206570570460996e-02,1.000000000000000048e-04,3.480825271294224166e+01,2.800000000000000266e-01
2.980621672999999916e+00,-1.012535224000000067e+00,2.605239363585949708e-02,1.000000000000000048e-04,3.557186692392408389e+01,1.499999999999999944e-01
3.118379398000000080e+00,-1.044341935000000055e+00,2.380222225568585578e-02,1.000000000000000048e-04,3.485625625511978853e+01,3.099999999999999978e-01
3.132904315000000217e+00,-1.046896950999999909e+00,1.397944968910805330e-02,1.000000000000000048e-04,3.374745872611844533e+01,2.200000000000000011e-01
1.248659997999999938e+00,-1.117162079000000086e+00,3.480704168733088355e-02,1.000000000000000048e-04,3.564305878591067511e+01,2.700000000000000178e-01
2.302446713000000145e+00,-1.091359299000000060e+00,4.123013266889948014e-02,1.000000000000000048e-04,3.599749090053521172e+01,2.899999999999999800e-01
3.133486173000000097e+00,-1.061461677999999909e+00,6.901664076377402729e-03,1.000000000000000048e-04,3.331817105693642844e+01,3.099999999999999978e-01
1.251013366000000016e+00,-1.102704651999999896e+00,4.297733318453208357e-02,1.000000000000000048e-04,3.638797167499456719e+01,2.300000000000000100e-01
1.232341668999999973e+00,-1.105349812000000043e+00,4.952713739518603553e-02,1.000000000000000048e-04,3.683113765674711004e+01,2.200000000000000011e-01
2.330538756999999794e+00,-1.086213730999999960e+00,3.558894925031898249e-02,1.000000000000000048e-04,3.594858660681846629e+01,2.300000000000000100e-01
3.104372880000000112e+00,-1.050765708999999992e+00,2.271531174933271585e-02,1.000000000000000048e-04,3.453046424351125410e+01,2.200000000000000011e-01
3.122794933000000217e+00,-1.050942575000000101e+00,3.392844490898792864e-03,1.000000000000000048e-04,3.097504304312446877e+01,2.099999999999999922e-01
3.135928428000000157e+00,-1.044986675000000087e+00,2.008985028758605851e-02,1.000000000000000048e-04,3.514578294284963533e+01,2.300000000000000100e-01
3.135701593999999925e+00,-1.049448040999999998e+00,1.906208966249223896e-02,1.000000000000000048e-04,3.464648200661605415e+01,2.399999999999999911e-01
2.902190216000000156e+00,-1.054666754000000095e+00,4.989445501309346109e-02,1.000000000000000048e-04,3.704131747739583602e+01,2.099999999999999922e-01
1.219278212000000083e+00,-1.102494101000000004e+00,2.951336100754039377e-02,1.000000000000000048e-04,3.532438267549063937e+01,2.399999999999999911e-01
2.314258420999999899e+00,-1.073777474999999981e+00,3.971527162969635399e-02,1.000000000000000048e-04,3.623058941652095655e+01,2.399999999999999911e-01
3.138600745000000192e+00,-1.056209613999999908e+00,1.445200814653298943e-02,1.000000000000000048e-04,3.362863849538587147e+01,2.800000000000000266e-01
2.873014373000000177e+00,-1.047336534999999902e+00,1.969064870405768178e-02,1.000000000000000048e-04,3.453268360954383098e+01,2.000000000000000111e-01
2.890150627000000139e+00,-1.045368942999999939e+00,4.990961938586435664e-02,1.000000000000000048e-04,3.667157889380062130e+01,2.200000000000000011e-01
-3.136513490179586139e+00,-1.038988312000000080e+00,4.832782983897400929e-03,1.000000000000000048e-04,3.193397294249530916e+01,2.800000000000000266e-01
3.120369102000000172e+00,-1.042910143999999928e+00,1.192456997648805306e-02,1.000000000000000048e-04,3.362024548270690616e+01,2.399999999999999911e-01
3.132773262000000170e+00,-1.048570620000000009e+00,1.591959930958456587e-02,1.000000000000000048e-04,3.421312692637896191e+01,2.300000000000000100e-01
3.132934141999999866e+00,-1.046888051000000042e+00,1.271651804007750339e-02,1.000000000000000048e-04,3.384837291911955504e+01,2.200000000000000011e-01
3.134455274000000014e+00,-1.046257098000000108e+00,4.687112320807910321e-02,1.000000000000000048e-04,3.666515362005567624e+01,2.200000000000000011e-01
2.910504301000000016e+00,-1.063930792999999930e+00,3.661215060038827858e-03,1.000000000000000048e-04,3.027758623097972546e+01,2.399999999999999911e-01
2.301930878999999930e+00,-1.084305269999999988e+00,3.600184316763879733e-02,1.000000000000000048e-04,3.652256462479154209e+01,3.099999999999999978e-01
2.314913878000000036e+00,-1.104421796000000011e+00,9.244109604799394947e-03,1.000000000000000048e-04,3.330416768021910201e+01,2.600000000000000089e-01
1.232494258000000009e+00,-1.089556776000000005e+00,6.474654825054599119e-03,1.000000000000000048e-04,3.239302059431832248e+01,3.099999999999999978e-01
-3.138875270179586341e+00,-1.027091259999999950e+00,4.048273283995568184e-02,1.000000000000000048e-04,3.629409115956346454e+01,3.800000000000000044e-01
1.277748142000000087e+00,-1.105660628999999950e+00,3.420030797744702533e-02,1.000000000000000048e-04,3.592922681778082961e+01,2.500000000000000000e-01
2.339694710999999927e+00,-1.083680948999999893e+00,2.512328381198518021e-02,1.000000000000000048e-04,3.529151419155627423e+01,2.300000000000000100e-01
3.085408954000000037e+00,-1.045989441999999991e+00,1.333337188542711368e-02,1.000000000000000048e-04,3.407543767043453897e+01,2.800000000000000266e-01
3.122183823999999941e+00,-1.053540683000000033e+00,4.608201528721432572e-02,1.000000000000000048e-04,3.664615693870147339e+01,3.699999999999999956e-01
1.263417701000000060e+00,-1.099941301000000093e+00,2.390678741547575675e-02,1.000000000000000048e-04,3.502660654462818002e+01,2.200000000000000011e-01
1.238769020999999970e+00,-1.122513239999999968e+00,7.294622470643805784e-03,1.000000000000000048e-04,3.266068846178918506e+01,2.600000000000000089e-01
1.225778744000000087e+00,-1.107856694000000086e+00,3.330602075239572080e-02,1.000000000000000048e-04,3.624202329935162936e+01,2.500000000000000000e-01
2.356185176999999964e+00,-1.090954028000000076e+00,1.845806543385953777e-02,1.000000000000000048e-04,3.447331500885211142e+01,2.700000000000000178e-01
1.231078855000000027e+00,-1.109460918999999990e+00,2.442549441117826750e-02,1.000000000000000048e-04,3.530387131291760028e+01,2.300000000000000100e-01
2.350025410999999842e+00,-1.078254897999999962e+00,3.254743444798283147e-02,1.000000000000000048e-04,3.579047737886044445e+01,2.300000000000000100e-01
2.889344674999999807e+00,-1.054064458000000037e+00,2.099381577201590854e-02,1.000000000000000048e-04,3.509041814033548690e+01,3.200000000000000067e-01
1.260972444000000081e+00,-1.102168519999999985e+00,4.666511036742505836e-02,1.000000000000000048e-04,3.686216996178708172e+01,2.899999999999999800e-01
3.138597202000000141e+00,-1.049455424000000026e+00,1.684975054630140703e-02,1.000000000000000048e-04,3.432374233889028403e+01,2.600000000000000089e-01
1.280173519000000093e+00,-1.106045986000000036e+00,7.536665392036821960e-03,1.000000000000000048e-04,3.275555790532215639e+01,2.899999999999999800e-01
3.140421104000000074e+00,-1.048273016000000002e+00,1.753894717121742483e-02,1.000000000000000048e-04,3.464014306110962593e+01,2.700000000000000178e-01
2.887571490000000018e+00,-1.060290981000000077e+00,8.800262083065880231e-03,1.000000000000000048e-04,3.285873881227227145e+01,2.300000000000000100e-01
3.117377486000000086e+00,-1.048849812999999909e+00,4.625032149043569601e-02,1.000000000000000048e-04,3.610554300169930286e+01,2.800000000000000266e-01
3.139331405000000075e+00,-1.045946368000000071e+00,4.059041066229836237e-02,1.000000000000000048e-04,3.651134069234937840e+01,2.300000000000000100e-01
2.901812189000000153e+00,-1.070407117000000019e+00,3.752060117584442994e-02,1.000000000000000048e-04,3.621708685418783347e+01,2.200000000000000011e-01
2.874698792999999863e+00,-1.069280417999999955e+00,4.641462336941064998e-02,1.000000000000000048e-04,3.631414896459020980e+01,2.200000000000000011e-01
3.126790450000000110e+00,-1.053686536000000062e+00,4.148085197987723405e-02,1.000000000000000048e-04,3.629797176159347316e+01,2.099999999999999922e-01
1.253234667999999941e+00,-1.096167120000000050e+00,5.915704900347672213e-03,1.000000000000000048e-04,3.179911312390972000e+01,2.200000000000000011e-01
1.242189800000000011e+00,-1.095888138000000067e+00,6.281227915202232046e-03,1.000000000000000048e-04,3.207450040357019105e+01,2.899999999999999800e-01
2.358704259000000025e+00,-1.096119858000000002e+00,4.924636775058793825e-02,1.000000000000000048e-04,3.692287785909670816e+01,2.099999999999999922e-01
3.090657074000000115e+00,-1.046905049999999893e+00,3.882394999162679106e-02,1.000000000000000048e-04,3.645487846317799097e+01,2.300000000000000100e-01
2.350320292999999783e+00,-1.077642637000000070e+00,4.695988916733676022e-02,1.000000000000000048e-04,3.683456688857803840e+01,3.300000000000000155e-01
3.120911620999999858e+00,-1.047605429999999949e+00,3.197810018816839295e-02,1.000000000000000048e-04,3.582387405232552879e+01,2.899999999999999800e-01
2.310418793000000193e+00,-1.091478047999999923e+00,3.606055836595045000e-02,1.000000000000000048e-04,3.586365465603876146e+01,3.300000000000000155e-01
2.888242410000000149e+00,-1.055260810999999910e+00,3.471895358122226161e-02,1.000000000000000048e-04,3.604748202926293743e+01,2.999999999999999889e-01
2.313880778000000138e+00,-1.089056457000000089e+00,3.199908744848030395e-02,1.000000000000000048e-04,3.591485117479148670e+01,2.600000000000000089e-01
3.096505394999999883e+00,-1.050897790999999915e+00,1.420049288405341933e-02,1.000000000000000048e-04,3.361049166238497321e+01,3.300000000000000155e-01
1.264206060000000020e+00,-1.108314516000000083e+00,3.181082962471658976e-02,1.000000000000000048e-04,3.554738086787516238e+01,2.500000000000000000e-01
2.317080779999999951e+00,-1.080569537999999996e+00,2.414449659471306145e-02,1.000000000000000048e-04,3.497304587635917983e+01,2.399999999999999911e-01
2.308161032000000112e+00,-1.080284865999999955e+00,2.766793177426509279e-02,1.000000000000000048e-04,3.581855691784465989e+01,3.900000000000000133e-01
1.213089824000000094e+00,-1.095999417000000031e+00,2.444516433149620041e-02,1.000000000000000048e-04,3.504223095191666459e+01,2.700000000000000178e-01
3.095344697999999894e+00,-1.044259242999999948e+00,4.384905759013286303e-02,1.000000000000000048e-04,3.644746764419581808e+01,2.200000000000000011e-01
3.093500166000000107e+00,-1.047656949999999920e+00,1.777976321291540804e-02,1.000000000000000048e-04,3.459902924096267895e+01,2.300000000000000100e-01
2.871266652000000086e+00,-1.064917746999999970e+00,1.569364788941763830e-02,1.000000000000000048e-04,3.387448698377232148e+01,2.500000000000000000e-01
2.872879009000000039e+00,-1.076645507999999918e+00,2.599670759650899929e-02,1.000000000000000048e-04,3.539700989478565418e+01,2.099999999999999922e-01
1.241294699000000001e+00,-1.109043570000000090e+00,2.125731234392562799e-02,1.000000000000000048e-04,3.488483803272004735e+01,2.099999999999999922e-01
1.238788393000000099e+00,-1.083197141000000085e+00,1.397926281750925051e-02,1.000000000000000048e-04,3.395177073468256168e+01,2.999999999999999889e-01
-3.140928712179586135e+00,-1.049943351000000025e+00,1.045663616570852855e-02,1.000000000000000048e-04,3.277081646410656646e+01,2.200000000000000011e-01
2.897074545000000168e+00,-1.050668165000000043e+00,3.516088960561168479e-03,1.000000000000000048e-04,3.100516724495677678e+01,2.099999999999999922e-01
3.133488720999999977e+00,-1.053899826000000095e+00,1.135554040673895232e-02,1.000000000000000048e-04,3.370019535025729596e+01,2.300000000000000100e-01
2.854965548000000020e+00,-1.051119023000000041e+00,1.099334785349977833e-02,1.000000000000000048e-04,3.324204919169243766e+01,3.200000000000000067e-01
2.846666281000000076e+00,-1.061494909000000098e+00,3.553970705533099350e-02,1.000000000000000048e-04,3.622232820684096311e+01,2.600000000000000089e-01
1.477625364000000108e+00,-9.892628350000000070e-01,3.383254689652953617e-02,1.000000000000000048e-04,3.557396896076664206e+01,2.000000000000000111e-01
-2.998301261179586064e+00,-5.567642400000000213e-01,4.910891035718475267e-02,1.000000000000000048e-04,3.642420999803557891e+01,1.799999999999999933e-01
2.915910107000000195e+00,-9.248875840000000403e-01,4.312527489190131486e-02,1.000000000000000048e-04,3.663004963907125955e+01,2.999999999999999889e-01
2.904218159000000021e+00,-9.279150130000000107e-01,1.100897408739923145e-02,1.000000000000000048e-04,3.356814406136658846e+01,2.399999999999999911e-01
2.912492748000000020e+00,-9.378063049999999512e-01,2.956504560981333685e-02,1.000000000000000048e-04,3.590909126836438503e+01,4.600000000000000200e-01
2.945746643000000109e+00,-9.241091030000000428e-01,2.052674155726754227e-02,1.000000000000000048e-04,3.433706018939689386e+01,2.300000000000000100e-01
2.195221751000000054e+00,9.567984520000000215e-01,2.460316522596018088e-02,1.000000000000000048e-04,3.555187061132395598e+01,2.200000000000000011e-01
-2.382074272179586227e+00,-9.504311730000000180e-01,4.948533945689367192e-02,1.000000000000000048e-04,3.682471698193035081e+01,2.300000000000000100e-01
2.197803225999999999e+00,9.560313849999999558e-01,4.412486504690067701e-02,1.000000000000000048e-04,3.625661352379771074e+01,2.300000000000000100e-01
-2.380846050179586282e+00,-9.512843520000000552e-01,1.540245064883919920e-02,1.000000000000000048e-04,3.413838824578157727e+01,2.600000000000000089e-01
-2.382960995179586039e+00,-9.501026420000000527e-01,1.065439181727032524e-02,1.000000000000000048e-04,3.344637030363235652e+01,2.099999999999999922e-01
2.192165822000000208e+00,9.554729659999999791e-01,4.555056383684702968e-03,1.000000000000000048e-04,3.081041308161047709e+01,2.899999999999999800e-01
-2.383512939179586176e+00,-9.505219620000000535e-01,1.809365164850902652e-02,1.000000000000000048e-04,3.439925526765345865e+01,2.000000000000000111e-01
2.197044292000000176e+00,9.582492320000000063e-01,2.737004375015344992e-02,1.000000000000000048e-04,3.558220483186744332e+01,2.500000000000000000e-01
2.198013217999999824e+00,9.570721989999999568e-01,4.265282947827412491e-02,1.000000000000000048e-04,3.655473416511517115e+01,2.099999999999999922e-01
2.198391541999999976e+00,9.561199929999999458e-01,4.400098443166004791e-02,1.000000000000000048e-04,3.604008767412629766e+01,2.300000000000000100e-01
2.199218732999999926e+00,9.570277640000000030e-01,3.431762450723422481e-02,1.000000000000000048e-04,3.573872488586462026e+01,2.200000000000000011e-01
2.196667974999999995e+00,9.569524729999999701e-01,4.852181329050342211e-03,1.000000000000000048e-04,3.165246156444399617e+01,2.399999999999999911e-01
2.196400267000000017e+00,9.571105250000000453e-01,1.324700342602097916e-02,1.000000000000000048e-04,3.370627152132983184e+01,2.500000000000000000e-01
2.195980999000000100e+00,9.563170869999999546e-01,1.207829330843061127e-02,1.000000000000000048e-04,3.351667955406644239e+01,2.200000000000000011e-01
2.198886345000000020e+00,9.574225640000000315e-01,2.324301153341179829e-02,1.000000000000000048e-04,3.542599712930517342e+01,3.300000000000000155e-01
-2.382942164179586264e+00,-9.487821469999999646e-01,9.406826301666981402e-03,1.000000000000000048e-04,3.320368887784911749e+01,2.000000000000000111e-01
2.197058621000000045e+00,9.568337070000000333e-01,2.730099521915128197e-02,1.000000000000000048e-04,3.535073130350229320e+01,2.600000000000000089e-01
2.196754174000000059e+00,9.569828230000000380e-01,4.512982028611031010e-02,1.000000000000000048e-04,3.646898324745791342e+01,2.399999999999999911e-01
-2.381905888179586039e+00,-9.494029419999999719e-01,4.093017023603438831e-02,1.000000000000000048e-04,3.646499416186130560e+01,2.399999999999999911e-01
-2.382353656179586388e+00,-9.501919130000000546e-01,4.993074246848597242e-02,1.000000000000000048e-04,3.670885311390952666e+01,2.600000000000000089e-01
-2.385313647179586383e+00,-9.492824659999999914e-01,4.592239524273341450e-02,1.000000000000000048e-04,3.672818507692474554e+01,2.399999999999999911e-01
-2.383308463179586223e+00,-9.502672559999999491e-01,3.222403332892075090e-02,1.000000000000000048e-04,3.538733113663132457e+01,2.000000000000000111e-01
2.194446376000000143e+00,9.548028840000000184e-01,2.006813853589400551e-02,1.000000000000000048e-04,3.495509625314817015e+01,3.699999999999999956e-01
-2.377678389179586294e+00,-9.493284189999999789e-01,4.970185168138905457e-02,1.000000000000000048e-04,3.635016982463768898e+01,3.099999999999999978e-01
2.195048706000000127e+00,9.553664520000000326e-01,4.493069263019809634e-03,1.000000000000000048e-04,3.164169996187841605e+01,2.399999999999999911e-01
2.194988459000000169e+00,9.569281090000000267e-01,2.300492836939018945e-02,1.000000000000000048e-04,3.508062297142552666e+01,2.099999999999999922e-01
2.198773670000000013e+00,9.585742720000000050e-01,2.218957574317864320e-02,1.000000000000000048e-04,3.501830186005570766e+01,2.800000000000000266e-01
2.196007632000000154e+00,9.574002940000000406e-01,3.737591814076904329e-02,1.000000000000000048e-04,3.623350601812667549e+01,2.800000000000000266e-01
2.193610842000000005e+00,9.569156829999999614e-01,2.204849012085858054e-02,1.000000000000000048e-04,3.457943635682685368e+01,2.099999999999999922e-01
2.194846306000000080e+00,9.574700699999999509e-01,9.535019369279289919e-03,1.000000000000000048e-04,3.304714476360718578e+01,2.300000000000000100e-01
8.096471539999999800e-01,9.894972960000000262e-01,4.211270383485889168e-02,1.000000000000000048e-04,3.655046382001489036e+01,9.499999999999999556e-01
-2.901318991795864832e-01,1.086903570000000041e+00,1.461851501641165535e-02,1.000000000000000048e-04,3.433661490791869397e+01,2.000000000000000111e-01
-2.914486071795865385e-01,1.085909494999999891e+00,2.382368040202249154e-02,1.000000000000000048e-04,3.532340360639949495e+01,1.000000000000000056e-01
-2.954610881795858290e-01,1.084462065999999947e+00,5.465736342086762248e-03,1.000000000000000048e-04,3.196238267109089293e+01,1.199999999999999956e-01
-3.403197011795864313e-01,1.090760651000000081e+00,4.399280701619309036e-02,1.000000000000000048e-04,3.618382808192379940e+01,8.999999999999999667e-02
-3.429455761795860980e-01,1.087892671000000089e+00,2.728609280830318271e-02,1.000000000000000048e-04,3.549755080661670803e+01,1.400000000000000133e-01
6.896152909999999636e-01,-9.249195220000000495e-01,3.486290166782959887e-02,1.000000000000000048e-04,3.596771186205525339e+01,2.000000000000000111e-01
9.689134900000000439e-01,1.175295868000000077e+00,1.427192611320639987e-02,1.000000000000000048e-04,3.362385820741675246e+01,4.500000000000000111e-01
1.024453132999999960e+00,1.182715689999999986e+00,3.382277535442326788e-02,1.000000000000000048e-04,3.598601849188857926e+01,1.900000000000000022e-01
1.006083177000000051e+00,1.165244638999999971e+00,2.879061805046189901e-02,1.000000000000000048e-04,3.565111370797129808e+01,1.700000000000000122e-01
9.905969959999999519e-01,1.153001898999999941e+00,7.068210955358332492e-03,1.000000000000000048e-04,3.275948211756072226e+01,3.499999999999999778e-01
2.950210608999999984e+00,-1.015290931000000008e+00,2.374787151240636066e-02,1.000000000000000048e-04,3.494109525372795133e+01,5.000000000000000000e-01
2.950804928999999799e+00,-1.010655210999999998e+00,5.092350953687076187e-03,1.000000000000000048e-04,3.167399563092763515e+01,1.700000000000000122e-01
2.951637304000000128e+00,-1.010683065999999908e+00,4.399468358124104805e-02,1.000000000000000048e-04,3.623568802804454947e+01,1.900000000000000022e-01
-2.349248843179586377e+00,-9.322901449999999590e-01,2.542025060228239250e-02,1.000000000000000048e-04,3.520725450419293168e+01,1.900000000000000022e-01
