-1.598279621179586663e+00,2.779993629999999993e-01,5.089507005583764343e-01,1.000000000000000048e-04,4.222382997671752491e+01,1.700000000000000122e-01
-8.306753881795865269e-01,5.048130450000000158e-01,2.176979919630879778e-01,1.000000000000000048e-04,4.034116699581134213e+01,1.600000000000000033e-01
-1.512887194179586281e+00,3.571169940000000209e-01,5.135656901861272994e-01,1.000000000000000048e-04,4.212468535633663436e+01,1.600000000000000033e-01
-2.094054222179586588e+00,-9.657747650000000350e-01,2.702392592561856377e-01,1.000000000000000048e-04,4.070564510706032024e+01,1.600000000000000033e-01
-1.256550916179586252e+00,-1.037146153999999987e+00,3.257132632345700607e-01,1.000000000000000048e-04,4.112341079217839024e+01,1.900000000000000022e-01
-2.638489419179586015e+00,-8.917870300000000361e-01,1.443149353727966044e-01,1.000000000000000048e-04,3.912306595668404441e+01,1.600000000000000033e-01
3.095686500000000008e-02,-1.139960520999999893e+00,2.165762180104062740e-01,1.000000000000000048e-04,4.038877548998969047e+01,1.700000000000000122e-01
-4.765590681795863759e-01,-7.328014390000000544e-01,2.050379645633040315e-01,1.000000000000000048e-04,3.985384992077744926e+01,1.600000000000000033e-01
7.532392530000000530e-01,9.936355940000000109e-01,1.700185089038766528e-01,1.000000000000000048e-04,3.972918872960400449e+01,1.600000000000000033e-01
1.355624495999999901e+00,4.654212710000000253e-01,5.370288294237522964e-01,1.000000000000000048e-04,4.227618269395307493e+01,2.200000000000000011e-01
-2.027672372179586624e+00,-3.494576850000000179e-01,5.270973243670704633e-01,1.000000000000000048e-04,4.236957160058594951e+01,8.999999999999999667e-02
-2.243457714179585949e+00,5.735296930000000071e-01,4.540303485730425304e-01,1.000000000000000048e-04,4.195616731940702238e+01,8.000000000000000167e-02
-1.661352162179586145e+00,7.473004210000000480e-01,1.267103188090576538e+00,1.000000000000000048e-04,4.480463547011368775e+01,1.100000000000000006e-01
-1.046494641179585905e+00,9.839422859999999993e-01,2.427910009116049372e-01,1.000000000000000048e-04,4.048845594270886750e+01,1.600000000000000033e-01
-1.357076630179586019e+00,8.591991679999999576e-01,2.254572808130168859e-01,1.000000000000000048e-04,4.023216744709714021e+01,1.300000000000000044e-01
-1.489161381179585852e+00,8.733460579999999807e-01,2.689477607647186574e-01,1.000000000000000048e-04,4.062238997642691629e+01,8.999999999999999667e-02
2.602874990000000111e+00,9.865781270000000269e-01,2.222300516201684562e-01,1.000000000000000048e-04,4.022011689233249143e+01,2.099999999999999922e-01
2.011122450999999867e+00,-1.257182417000000108e+00,5.526343184878383941e-01,1.000000000000000048e-04,4.236827929192038766e+01,1.799999999999999933e-01
2.487812089999999809e+00,-1.095252646999999913e+00,4.898232636021200292e-01,1.000000000000000048e-04,4.222608295993880034e+01,1.600000000000000033e-01
-2.060955814179585843e+00,9.020563839999999889e-01,5.114890418557431762e-01,1.000000000000000048e-04,4.222412854486363187e+01,1.799999999999999933e-01
-1.552222439179586466e+00,1.270289940999999923e+00,5.446409333210509018e-01,1.000000000000000048e-04,4.256983161186744269e+01,1.600000000000000033e-01
-3.584264691795864266e-01,1.112498557000000110e+00,2.241296316232708752e-01,1.000000000000000048e-04,4.029477146241094943e+01,2.000000000000000111e-01
1.187793541000000008e+00,1.533334508000000040e+00,1.335143671681654709e+00,1.000000000000000048e-04,4.466657900932752057e+01,1.700000000000000122e-01
9.029304540000000490e-01,-5.888661819999999603e-01,8.358980085092907464e-01,1.000000000000000048e-04,4.374708705676562914e+01,1.700000000000000122e-01
2.675488564000000125e+00,-1.029758079000000048e+00,9.772009395048730784e-01,1.000000000000000048e-04,4.396016980696914800e+01,1.700000000000000122e-01
9.979371630000000160e-01,-7.076351440000000492e-01,4.249846628777733670e-01,1.000000000000000048e-04,4.186379714308924349e+01,2.000000000000000111e-01
-2.809922836179586270e+00,-1.219770695000000016e+00,4.096339482335578097e-01,1.000000000000000048e-04,4.179337208227943989e+01,1.900000000000000022e-01
1.945616433999999950e+00,5.533621010000000506e-01,1.395842347798528227e-01,1.000000000000000048e-04,3.885550033151943694e+01,1.700000000000000122e-01
1.369802210000000131e-01,9.686457469999999459e-01,9.216294332205208217e-01,1.000000000000000048e-04,4.397404611871619551e+01,1.000000000000000056e-01
2.377785852000000144e+00,-1.071983155000000076e+00,3.335265917428788529e-01,1.000000000000000048e-04,4.125584466438451159e+01,1.000000000000000056e-01
1.194530383000000029e+00,-8.514353350000000153e-01,4.436379174061503838e-01,1.000000000000000048e-04,4.205375316699353760e+01,1.100000000000000006e-01
2.328991532999999947e+00,-1.085498080000000032e+00,6.554008713745486103e-01,1.000000000000000048e-04,4.306972177349964426e+01,1.199999999999999956e-01
3.099662444999999877e+00,-8.173274409999999879e-01,2.442538253163614170e-01,1.000000000000000048e-04,4.039219877096186195e+01,1.300000000000000044e-01
1.008677688999999988e+00,-7.224949280000000362e-01,8.434804173052532494e-01,1.000000000000000048e-04,4.364802496892908579e+01,1.199999999999999956e-01
1.116317643999999998e+00,-8.188746820000000204e-01,2.769965775900158356e-01,1.000000000000000048e-04,4.085615365985504610e+01,1.499999999999999944e-01
1.368634144999999913e+00,-9.746537960000000167e-01,4.324574880328744264e-01,1.000000000000000048e-04,4.214798608771700117e+01,2.200000000000000011e-01
2.840707745000000006e+00,-9.874777999999999611e-01,1.725815681880358832e-01,1.000000000000000048e-04,3.962751812417592134e+01,1.199999999999999956e-01
1.164831654000000105e+00,-8.361433499999999519e-01,3.493848715396125626e-01,1.000000000000000048e-04,4.156785899888192404e+01,1.600000000000000033e-01
9.274529849999999520e-01,-5.648102149999999488e-01,3.089380534758243146e-01,1.000000000000000048e-04,4.123134373416448284e+01,2.200000000000000011e-01
1.803806121999999901e+00,-1.051757271000000049e+00,5.142270354243358987e-01,1.000000000000000048e-04,4.250539798635718114e+01,2.200000000000000011e-01
1.910407339000000038e+00,-1.096340147000000043e+00,2.884001519885128206e-01,1.000000000000000048e-04,4.090310837753033013e+01,1.300000000000000044e-01
-2.994395329179586174e+00,-6.874333790000000111e-01,6.208658901256536300e-01,1.000000000000000048e-04,4.283770668178701868e+01,1.600000000000000033e-01
2.004169926999999962e+00,-1.114377941999999955e+00,8.506374912141736466e-01,1.000000000000000048e-04,4.355763020780182870e+01,2.099999999999999922e-01
2.993884073999999895e+00,-9.067153500000000310e-01,6.567358256732513944e-01,1.000000000000000048e-04,4.347792167286879561e+01,2.000000000000000111e-01
2.896584697999999847e+00,-6.981149509999999836e-01,1.567832954665823175e-01,1.000000000000000048e-04,3.919292489524634249e+01,2.000000000000000111e-01
2.644964143999999795e+00,-1.038456438999999953e+00,8.783435494592011228e-01,1.000000000000000048e-04,4.385671617218101659e+01,2.500000000000000000e-01
1.395029569000000080e+00,-9.673563530000000021e-01,2.479662376953788994e-01,1.000000000000000048e-04,4.058752924930661266e+01,2.200000000000000011e-01
1.133893306999999906e+00,-8.234022290000000410e-01,4.102182787624770732e-01,1.000000000000000048e-04,4.161405269757943870e+01,1.199999999999999956e-01
9.542908199999999841e-01,-6.210129070000000029e-01,3.875873175755990552e-01,1.000000000000000048e-04,4.156013975818208905e+01,1.400000000000000133e-01
1.112357503999999997e+00,-7.717409769999999947e-01,2.267083211618717842e-01,1.000000000000000048e-04,4.020868570276815035e+01,1.400000000000000133e-01
1.392129267000000059e+00,-9.489503049999999940e-01,6.466831870136486859e-01,1.000000000000000048e-04,4.313878100738853760e+01,1.100000000000000006e-01
3.104633763999999907e+00,-8.563587980000000321e-01,2.641902254745664425e-01,1.000000000000000048e-04,4.061698300808346573e+01,1.199999999999999956e-01
-1.581672989179586430e+00,-6.726275419999999672e-01,3.025960584593880287e-01,1.000000000000000048e-04,4.101688201606026496e+01,2.000000000000000111e-01
8.758714749999999549e-01,-5.394949780000000139e-01,7.574333746093572239e-01,1.000000000000000048e-04,4.315073807637671166e+01,1.199999999999999956e-01
1.027821937999999991e+00,-6.897361509999999640e-01,3.424023870772769929e-01,1.000000000000000048e-04,4.113606721208186912e+01,1.499999999999999944e-01
8.011105990000000343e-01,-4.568120419999999737e-01,1.737473666506819114e-01,1.000000000000000048e-04,3.973555742667441848e+01,1.499999999999999944e-01
8.044453879999999835e-01,-4.591503659999999765e-01,1.147528412522546670e+00,1.000000000000000048e-04,4.445072767909704226e+01,1.100000000000000006e-01
8.290542589999999601e-01,-4.498624509999999965e-01,2.025565302608425267e-01,1.000000000000000048e-04,4.002350983561440501e+01,1.199999999999999956e-01
2.306908324000000121e+00,-1.093655438999999951e+00,4.660354017593207332e-01,1.000000000000000048e-04,4.194201693196528424e+01,1.300000000000000044e-01
-3.090495873179586184e+00,-7.974218849999999970e-01,1.854385059613695985e-01,1.000000000000000048e-04,3.987630568565325007e+01,1.300000000000000044e-01
2.850739061000000074e+00,-9.724982730000000242e-01,3.537603701430048764e-01,1.000000000000000048e-04,4.141896083493311664e+01,1.100000000000000006e-01
1.925211972000000049e+00,-1.067349442999999898e+00,2.936292605978786940e-01,1.000000000000000048e-04,4.108004813387977805e+01,1.600000000000000033e-01
3.010706126000000094e+00,-9.149326070000000088e-01,6.123858200890316406e-01,1.000000000000000048e-04,4.281231422848053825e+01,1.199999999999999956e-01
1.754869720000000077e+00,-1.052947148999999971e+00,4.407364056105692596e-01,1.000000000000000048e-04,4.197843420326762498e+01,1.300000000000000044e-01
3.028086770999999899e+00,-8.725603690000000023e-01,2.094527611590634719e-01,1.000000000000000048e-04,4.020841931272450154e+01,1.199999999999999956e-01
2.780301081000000174e+00,-1.010780400000000023e+00,4.952420163231939232e-01,1.000000000000000048e-04,4.251817317580236733e+01,1.700000000000000122e-01
3.096540631999999960e+00,-8.261897350000000362e-01,4.394236478381460254e-01,1.000000000000000048e-04,4.215964400727720118e+01,1.100000000000000006e-01
-3.043596368179586342e+00,-7.656326449999999451e-01,4.560122409476842220e-01,1.000000000000000048e-04,4.208365345356695286e+01,1.100000000000000006e-01
2.593403560000000052e+00,-1.068240442000000012e+00,1.057176392527405140e+00,1.000000000000000048e-04,4.434148801833969600e+01,1.199999999999999956e-01
1.277663320999999907e+00,-8.910532270000000032e-01,2.494378076490208485e-01,1.000000000000000048e-04,4.062177132351525444e+01,1.499999999999999944e-01
8.729576639999999665e-01,-5.017517409999999733e-01,1.917049781798610408e-01,1.000000000000000048e-04,3.980633246474437925e+01,1.199999999999999956e-01
2.323316692000000128e+00,-1.072994334000000105e+00,5.460907612890882890e-01,1.000000000000000048e-04,4.255489008634666703e+01,1.400000000000000133e-01
-3.012222731179586166e+00,-7.219820959999999621e-01,2.147617372882520137e-01,1.000000000000000048e-04,4.013371451879868346e+01,1.199999999999999956e-01
2.306010604999999991e+00,-1.110345181000000014e+00,8.694911060017342930e-01,1.000000000000000048e-04,4.378843999569897250e+01,1.100000000000000006e-01
2.437557496999999795e+00,-1.097151527000000071e+00,5.840487349148110185e-01,1.000000000000000048e-04,4.259668410037394182e+01,1.100000000000000006e-01
1.098420291999999909e+00,-7.444727049999999569e-01,6.277325230107435594e-01,1.000000000000000048e-04,4.271471789168901978e+01,1.300000000000000044e-01
8.241628739999999897e-01,-4.611620249999999754e-01,4.051732908366937336e-01,1.000000000000000048e-04,4.168618589953828746e+01,1.400000000000000133e-01
1.017317494999999905e+00,-7.027905669999999771e-01,8.970188502968444721e-01,1.000000000000000048e-04,4.394947628653667238e+01,1.199999999999999956e-01
2.728679550999999925e+00,-1.007430967999999982e+00,3.735648906532304525e-01,1.000000000000000048e-04,4.162339709342976590e+01,1.100000000000000006e-01
2.848837458999999850e+00,-9.622339979999999793e-01,2.743814937953043542e-01,1.000000000000000048e-04,4.064136650510296533e+01,1.199999999999999956e-01
-3.065525731179586266e+00,-7.207210450000000046e-01,5.637380530552833502e-01,1.000000000000000048e-04,4.251772098018329160e+01,1.199999999999999956e-01
1.103969978000000074e+00,-7.587182380000000448e-01,5.579201840404206525e-01,1.000000000000000048e-04,4.241534565687894087e+01,1.300000000000000044e-01
1.112034854000000017e+00,-7.675460100000000008e-01,1.311291268618737238e+00,1.000000000000000048e-04,4.504331949702880422e+01,1.199999999999999956e-01
2.373162053000000160e+00,-1.072487750000000073e+00,4.072889710996357437e-01,1.000000000000000048e-04,4.181620257173546662e+01,1.100000000000000006e-01
2.221583438000000132e+00,-1.096064289000000080e+00,2.183417552879526879e-01,1.000000000000000048e-04,4.020913795805587654e+01,1.199999999999999956e-01
2.775251189000000007e+00,-1.013244017000000108e+00,6.881504503176157916e-01,1.000000000000000048e-04,4.283897599484103580e+01,1.700000000000000122e-01
1.527128894000000070e+00,-9.963611940000000056e-01,3.462353606225547220e-01,1.000000000000000048e-04,4.132768897312892875e+01,1.400000000000000133e-01
-1.936135624179586401e+00,1.327891944000000102e+00,2.812655040486577440e-01,1.000000000000000048e-04,4.098567760291833650e+01,1.199999999999999956e-01
2.120951332999999828e+00,-1.112975437000000012e+00,7.879769786389638764e-01,1.000000000000000048e-04,4.369879039974867396e+01,1.600000000000000033e-01
2.950704906999999988e+00,-9.277153000000000205e-01,2.199223859922053159e-01,1.000000000000000048e-04,4.018849822922491910e+01,1.700000000000000122e-01
2.461302839000000020e+00,-1.064109841000000056e+00,1.949915981645042873e-01,1.000000000000000048e-04,4.002184189027527594e+01,1.499999999999999944e-01
1.687800213000000049e+00,-1.037844004000000098e+00,1.701952490092613068e-01,1.000000000000000048e-04,3.970324929823252802e+01,1.100000000000000006e-01
-3.069023128179586113e+00,-7.343218900000000327e-01,1.013360301765497740e+00,1.000000000000000048e-04,4.427373067938519569e+01,2.000000000000000111e-01
7.655655390000000171e-01,-3.825025819999999799e-01,3.347195283219592810e-01,1.000000000000000048e-04,4.122817406504421456e+01,1.300000000000000044e-01
-3.051736326179586012e+00,-7.690870560000000467e-01,1.979792653280903481e-01,1.000000000000000048e-04,4.027984318374963379e+01,1.499999999999999944e-01
-3.116938176179586240e+00,-7.920766919999999711e-01,3.851319689465572127e-01,1.000000000000000048e-04,4.175992777541501511e+01,1.100000000000000006e-01
1.020863690000000101e+00,-6.877910739999999468e-01,3.515502347918506021e-01,1.000000000000000048e-04,4.139942644657315896e+01,1.199999999999999956e-01
1.792785233999999894e+00,-1.066474936999999956e+00,1.339986439315865030e-01,1.000000000000000048e-04,3.907757084293014316e+01,1.100000000000000006e-01
1.805689748000000039e+00,-1.066896787999999985e+00,6.338966199457298778e-01,1.000000000000000048e-04,4.300491212222909354e+01,1.100000000000000006e-01
1.773248071000000037e+00,-1.046601056999999946e+00,1.288731538500785812e+00,1.000000000000000048e-04,4.489057476354646070e+01,2.099999999999999922e-01
1.076689889999999927e+00,-7.549444410000000216e-01,3.616645813649598806e-01,1.000000000000000048e-04,4.129136392540475242e+01,1.199999999999999956e-01
2.336456505000000128e+00,-1.089906792000000069e+00,4.113681372220173160e-01,1.000000000000000048e-04,4.172722154721100907e+01,1.199999999999999956e-01
2.522083900000000156e+00,-1.078852812999999911e+00,2.972316555173875607e-01,1.000000000000000048e-04,4.104899697743031339e+01,1.199999999999999956e-01
3.676074389999999803e-01,1.100614297999999991e+00,2.799988797261614426e-01,1.000000000000000048e-04,4.108845189258770603e+01,1.700000000000000122e-01
2.099931574000000190e+00,-1.082223048999999993e+00,6.039746802019552163e-01,1.000000000000000048e-04,4.268393254436417550e+01,1.100000000000000006e-01
8.155488279999999479e-01,-4.642700679999999802e-01,7.726444851550137161e-01,1.000000000000000048e-04,4.330203461975480650e+01,2.099999999999999922e-01
9.861636230000000447e-01,-6.881834650000000497e-01,1.204157783268029608e-01,1.000000000000000048e-04,3.856607651862967145e+01,1.300000000000000044e-01
1.864254864999999928e+00,-1.086684659999999969e+00,4.566778153329799084e-01,1.000000000000000048e-04,4.202507404137759295e+01,1.199999999999999956e-01
2.873066016000000111e+00,-9.753574739999999466e-01,3.903103199260459233e-01,1.000000000000000048e-04,4.174781061659898285e+01,1.300000000000000044e-01
2.270287562000000037e+00,-1.085086717999999895e+00,1.206581099677769053e+00,1.000000000000000048e-04,4.452426085805633704e+01,1.799999999999999933e-01
8.268071609999999572e-01,-4.587794940000000099e-01,1.063268363685756501e+00,1.000000000000000048e-04,4.431846549409973335e+01,1.199999999999999956e-01
-3.050869045179586347e+00,-7.648855789999999821e-01,5.369600219309734745e-01,1.000000000000000048e-04,4.249255456019620425e+01,1.199999999999999956e-01
1.101963728999999947e+00,-7.466317359999999903e-01,6.287515493005249034e-01,1.000000000000000048e-04,4.275783048652468921e+01,1.900000000000000022e-01
1.745116724000000064e+00,-1.056563783000000090e+00,5.258026960994544030e-01,1.000000000000000048e-04,4.246741092539439677e+01,1.300000000000000044e-01
7.889769570000000343e-01,-3.846565690000000037e-01,7.703913482121583778e-01,1.000000000000000048e-04,4.345111046545875411e+01,1.499999999999999944e-01
1.385818830999999918e+00,-9.278259679999999454e-01,1.345027208521920592e+00,1.000000000000000048e-04,4.469550866649870358e+01,1.499999999999999944e-01
1.138484923000000038e+00,-8.197145099999999518e-01,6.464438035491393286e-01,1.000000000000000048e-04,4.313975104299905894e+01,1.400000000000000133e-01
1.783410439000000069e+00,-1.080958507999999929e+00,1.263554190340091310e+00,1.000000000000000048e-04,4.478890563132553382e+01,1.400000000000000133e-01
2.617653461000000181e+00,-1.025884226000000066e+00,2.877117180425200482e-01,1.000000000000000048e-04,4.061893926615899630e+01,1.199999999999999956e-01
8.270197009999999960e-01,-4.157453939999999903e-01,7.817281977002165094e-01,1.000000000000000048e-04,4.332243400050835902e+01,1.199999999999999956e-01
3.128792493000000174e+00,-8.522697870000000009e-01,5.184982842844514384e-01,1.000000000000000048e-04,4.246078620517297253e+01,1.100000000000000006e-01
1.366158207000000013e+00,-9.614226009999999878e-01,6.692127307303806782e-01,1.000000000000000048e-04,4.315132103521663964e+01,1.100000000000000006e-01
2.846286316000000038e+00,-9.688357899999999745e-01,5.870693657966831180e-01,1.000000000000000048e-04,4.265047404439395962e+01,1.400000000000000133e-01
9.208216280000000031e-01,-6.185352929999999860e-01,1.628514007980388367e-01,1.000000000000000048e-04,3.933562310005160612e+01,1.499999999999999944e-01
7.622987450000000553e-01,-3.411912120000000215e-01,7.116009756905949946e-01,1.000000000000000048e-04,4.320729303812863265e+01,1.199999999999999956e-01
9.277931750000000255e-01,-5.813990460000000304e-01,3.614095362984715010e-01,1.000000000000000048e-04,4.196743190546951752e+01,2.099999999999999922e-01
1.010173165000000095e+00,-6.808591280000000356e-01,3.901630893629717267e-01,1.000000000000000048e-04,4.153311779199970033e+01,1.300000000000000044e-01
1.661181446000000062e+00,-1.029160687999999935e+00,6.489542214791427233e-01,1.000000000000000048e-04,4.294435283980081408e+01,1.400000000000000133e-01
2.089878704000000198e+00,-1.077863170999999953e+00,3.338540702556654916e-01,1.000000000000000048e-04,4.123079478371355577e+01,1.199999999999999956e-01
9.321550429999999610e-01,-6.212176799999999943e-01,4.862742855146349741e-01,1.000000000000000048e-04,4.209282808698489475e+01,1.199999999999999956e-01
2.944595597000000176e+00,-9.127602249999999806e-01,2.534335368385740028e-01,1.000000000000000048e-04,4.061365653008704157e+01,1.100000000000000006e-01
1.288081913999999939e+00,-9.113959929999999598e-01,1.692769701682197148e-01,1.000000000000000048e-04,3.948978385667916768e+01,1.300000000000000044e-01
1.398731861999999992e+00,-9.625033109999999725e-01,4.394661049972206079e-01,1.000000000000000048e-04,4.174608298153289354e+01,1.199999999999999956e-01
1.714165549000000066e+00,-1.043104095999999981e+00,3.281560403477250532e-01,1.000000000000000048e-04,4.092972835704026835e+01,1.199999999999999956e-01
1.014018395999999989e+00,-6.788913789999999615e-01,1.434172306302753941e-01,1.000000000000000048e-04,3.903448092460575936e+01,1.300000000000000044e-01
8.887761809999999985e-01,-5.541821719999999729e-01,3.673728986069118574e-01,1.000000000000000048e-04,4.159346196084560887e+01,1.300000000000000044e-01
1.026278256999999972e+00,-6.961882160000000264e-01,3.960487998696222145e-01,1.000000000000000048e-04,4.149545315910114596e+01,1.199999999999999956e-01
1.824970581999999952e+00,-1.080428363000000003e+00,2.471790620466367550e-01,1.000000000000000048e-04,4.062348540540241970e+01,1.199999999999999956e-01
1.839979185000000017e+00,-1.082878103999999952e+00,2.605128634069395210e-01,1.000000000000000048e-04,4.069556097416042917e+01,1.300000000000000044e-01
-3.070118813179586237e+00,-7.641942569999999879e-01,6.161364587464094322e-01,1.000000000000000048e-04,4.271535409310643416e+01,1.199999999999999956e-01
2.250776613000000204e+00,-1.110438553999999911e+00,1.244951428253398135e-01,1.000000000000000048e-04,3.899529818726500707e+01,1.199999999999999956e-01
2.613802471000000072e+00,-1.066258922999999914e+00,3.043320955166423092e-01,1.000000000000000048e-04,4.095705280563198158e+01,1.199999999999999956e-01
8.050150120000000298e-01,-4.193234060000000096e-01,3.070766809361011318e-01,1.000000000000000048e-04,4.095839554412469852e+01,1.499999999999999944e-01
2.809576177999999924e+00,-9.952447749999999704e-01,1.712984348944751878e-01,1.000000000000000048e-04,3.955643470946839813e+01,1.199999999999999956e-01
8.523447290000000232e-01,-4.773689010000000121e-01,3.915346147582709491e-01,1.000000000000000048e-04,4.161403541708611442e+01,2.000000000000000111e-01
2.975142320999999868e+00,-8.986192680000000266e-01,1.893066401869105131e-01,1.000000000000000048e-04,3.971604467008666717e+01,2.000000000000000111e-01
2.960578484000000010e+00,-9.174235720000000205e-01,3.507351119438758547e-01,1.000000000000000048e-04,4.124260219223747725e+01,1.400000000000000133e-01
1.589239559999999996e+00,-1.046132274999999945e+00,2.140634205595431383e-01,1.000000000000000048e-04,4.020488978150551418e+01,1.199999999999999956e-01
1.095136271999999966e+00,-7.909478989999999543e-01,3.321285480941037482e-01,1.000000000000000048e-04,4.126145531313745352e+01,1.300000000000000044e-01
3.045277111999999953e+00,-8.831592660000000539e-01,7.990308952343807558e-01,1.000000000000000048e-04,4.354596966210616671e+01,1.799999999999999933e-01
3.011317304999999944e+00,-8.969173430000000335e-01,4.451696645394384033e-01,1.000000000000000048e-04,4.215139817761890129e+01,1.499999999999999944e-01
1.946036051000000100e+00,-1.101857058000000000e+00,2.965465552139728289e-01,1.000000000000000048e-04,4.091313574660306074e+01,1.100000000000000006e-01
9.659444579999999503e-01,-6.400164339999999674e-01,4.648291572771631741e-01,1.000000000000000048e-04,4.202228148101669802e+01,1.199999999999999956e-01
1.142944595999999979e+00,-8.229314749999999679e-01,2.070597475025954814e-01,1.000000000000000048e-04,4.013681529469258891e+01,1.499999999999999944e-01
1.336859599999999926e+00,-9.462661719999999610e-01,2.993649834997686443e-01,1.000000000000000048e-04,4.098170930658523758e+01,1.900000000000000022e-01
2.386695267999999981e+00,-1.099692616000000012e+00,2.449635729801847850e-01,1.000000000000000048e-04,4.032806971820350839e+01,1.799999999999999933e-01
1.122946417999999946e+00,-7.871106610000000448e-01,2.842056760750023003e-01,1.000000000000000048e-04,4.081945760788025268e+01,1.499999999999999944e-01
1.038511049000000019e+00,-6.836743480000000428e-01,1.999054268198741380e-01,1.000000000000000048e-04,3.971527462465052594e+01,1.499999999999999944e-01
-1.865548755179585960e+00,5.988235499999999822e-01,4.321791069656831241e-01,1.000000000000000048e-04,4.187680308200945944e+01,3.599999999999999867e-01
-1.208774007179585830e+00,1.086301519000000049e+00,3.696471121834281615e-01,1.000000000000000048e-04,4.130934869093110962e+01,3.900000000000000133e-01
-1.451351928179586359e+00,1.047303024999999943e+00,2.552082477100569013e-01,1.000000000000000048e-04,4.038782529304878466e+01,3.900000000000000133e-01
-1.863787002179586594e+00,5.986409590000000280e-01,3.748352481114907708e-01,1.000000000000000048e-04,4.168744852866466033e+01,3.099999999999999978e-01
-2.367107747179586053e+00,3.570653329999999848e-01,1.869081062256410797e-01,1.000000000000000048e-04,3.974265448607651052e+01,3.300000000000000155e-01
3.110012692999999828e+00,-8.816387980000000013e-01,7.879852980825126085e-01,1.000000000000000048e-04,4.362142683805629417e+01,4.000000000000000222e-01
1.208427087000000011e+00,6.391205479999999550e-01,1.872003400583959198e-01,1.000000000000000048e-04,4.009127656828042774e+01,3.200000000000000067e-01
2.195568135999999893e+00,9.530612539999999688e-01,4.568699086217254957e-01,1.000000000000000048e-04,4.138061806806643261e+01,3.200000000000000067e-01
-1.746303855179585973e+00,7.561700099999999480e-01,1.224435714007314768e+00,1.000000000000000048e-04,4.395171670861427771e+01,3.599999999999999867e-01
-2.613733020179586308e+00,3.020363409999999860e-01,2.031396209640771444e-01,1.000000000000000048e-04,4.038812731664523881e+01,2.399999999999999911e-01
3.080075141000000016e+00,6.813462000000000129e-01,3.438971478001207616e-01,1.000000000000000048e-04,4.104861342233386523e+01,2.999999999999999889e-01
3.084152930000000126e+00,6.750201959999999612e-01,9.034773386815598828e-01,1.000000000000000048e-04,4.413467431620595960e+01,2.399999999999999911e-01
-2.831540824179586302e+00,-5.193198470000000011e-01,1.894873131420761192e-01,1.000000000000000048e-04,3.990777163340624867e+01,2.899999999999999800e-01
2.921667255000000019e+00,-9.403574120000000036e-01,2.580334240383967970e-01,1.000000000000000048e-04,4.125512577144809967e+01,2.899999999999999800e-01
2.610543199999999953e+00,9.294079060000000059e-01,3.511362798019403986e-01,1.000000000000000048e-04,4.103065755925003799e+01,2.899999999999999800e-01
2.614058957000000127e+00,9.310355519999999885e-01,2.934903013801303251e-01,1.000000000000000048e-04,4.163566679722787711e+01,3.699999999999999956e-01
-2.614313936179586406e+00,3.105085300000000048e-01,4.787333162674103360e-01,1.000000000000000048e-04,4.249933147031592284e+01,2.300000000000000100e-01
-2.614275993179586255e+00,3.084493819999999942e-01,5.316577492866356724e-01,1.000000000000000048e-04,4.239761449185989051e+01,2.000000000000000111e-01
3.080236718000000096e+00,6.852664600000000217e-01,4.243057309658520571e-01,1.000000000000000048e-04,4.176672237982690916e+01,3.800000000000000044e-01
3.085135451000000195e+00,6.840520260000000352e-01,5.261606494762265385e-01,1.000000000000000048e-04,4.189593123258530483e+01,2.300000000000000100e-01
-2.829361723179586452e+00,-5.190188390000000096e-01,3.427880565126444345e-01,1.000000000000000048e-04,4.161609618308676062e+01,3.900000000000000133e-01
-2.833706243179586082e+00,-5.260186759999999628e-01,2.394892628990339944e-01,1.000000000000000048e-04,4.011819056522994487e+01,2.200000000000000011e-01
1.286414458000000094e+00,-9.076167339999999806e-01,9.164585692733492328e-01,1.000000000000000048e-04,4.328226392767594177e+01,2.399999999999999911e-01
2.295144749999999956e+00,-1.095028292000000070e+00,2.899067924353924131e-01,1.000000000000000048e-04,4.074091479295780971e+01,2.000000000000000111e-01
2.312115046000000174e+00,-1.091482969000000081e+00,4.217254681317845755e-01,1.000000000000000048e-04,4.159657084158806128e+01,1.900000000000000022e-01
2.535381049000000164e+00,-1.063602453999999975e+00,3.725375428670934519e-01,1.000000000000000048e-04,4.187847503096198665e+01,2.600000000000000089e-01
2.549902755000000187e+00,-1.059649137999999935e+00,2.789466854354549774e-01,1.000000000000000048e-04,4.071004868535248278e+01,1.900000000000000022e-01
-2.980466121795863899e-01,1.081935794000000062e+00,3.243351736753034009e-01,1.000000000000000048e-04,4.110353884420776183e+01,1.000000000000000056e-01
-4.562223411795862660e-01,1.078420874000000085e+00,8.069144484831904940e-01,1.000000000000000048e-04,4.369110683750903235e+01,1.400000000000000133e-01
-4.727696341795866175e-01,1.076427226000000070e+00,6.047190635236792122e-01,1.000000000000000048e-04,4.272023804083667642e+01,1.900000000000000022e-01
-4.909850281795860028e-01,1.086050390999999893e+00,2.566682193405729340e-01,1.000000000000000048e-04,4.063454704394899863e+01,1.499999999999999944e-01
-1.809890014179586615e+00,8.554848849999999727e-01,6.582030594539722834e-01,1.000000000000000048e-04,4.301410777060426227e+01,1.900000000000000022e-01
-1.804843805179586091e+00,8.509932909999999850e-01,2.629199086788725492e-01,1.000000000000000048e-04,4.049067610196934197e+01,1.700000000000000122e-01
-1.798315402179586187e+00,8.389159160000000393e-01,4.015851705196719634e-01,1.000000000000000048e-04,4.156690833838644039e+01,1.100000000000000006e-01
-1.820018681179586650e+00,8.404092629999999620e-01,1.520286249892821295e-01,1.000000000000000048e-04,3.964302560618843074e+01,2.000000000000000111e-01
-2.435936564179586039e+00,3.767214549999999829e-01,5.285241369828396207e-01,1.000000000000000048e-04,4.270259478317409929e+01,1.700000000000000122e-01
-2.738532057179586143e+00,-4.670391260000000266e-01,5.135988714066372918e-01,1.000000000000000048e-04,4.243899210935224176e+01,1.100000000000000006e-01
-2.750126147179586145e+00,-4.750163370000000107e-01,3.590719506455705146e-01,1.000000000000000048e-04,4.119749584077198534e+01,1.700000000000000122e-01
6.777063359999999648e-01,-9.284162910000000046e-01,1.514272090220831202e-01,1.000000000000000048e-04,3.909681545101835809e+01,1.600000000000000033e-01
6.755664329999999662e-01,-9.242990760000000527e-01,8.656173768643906641e-01,1.000000000000000048e-04,4.384297879484079630e+01,2.200000000000000011e-01
1.666277256000000095e+00,1.035703752000000089e+00,2.503167064867268254e-01,1.000000000000000048e-04,4.024824784174760595e+01,2.800000000000000266e-01
1.679531192000000006e+00,1.034147155999999956e+00,2.904154384969481195e-01,1.000000000000000048e-04,4.078969272400640733e+01,2.099999999999999922e-01
1.669961188000000041e+00,1.045784459000000055e+00,2.000397811837898443e-01,1.000000000000000048e-04,3.948710935755207885e+01,2.899999999999999800e-01
1.666612017000000057e+00,1.035903760999999923e+00,3.377433191370082244e-01,1.000000000000000048e-04,4.127909055979041142e+01,1.400000000000000133e-01
1.676630470000000095e+00,1.049302589999999924e+00,3.023541283768623189e-01,1.000000000000000048e-04,4.096761945488658796e+01,1.600000000000000033e-01
1.678871634000000057e+00,1.037439988999999896e+00,3.306826173625658782e-01,1.000000000000000048e-04,4.124482128212142129e+01,2.099999999999999922e-01
-2.159653925179585876e+00,7.341517600000000421e-01,3.193574854920155914e-01,1.000000000000000048e-04,4.119109020670476440e+01,2.600000000000000089e-01
-2.155609593179586447e+00,7.327229189999999726e-01,2.863360608885242020e-01,1.000000000000000048e-04,4.066783686567494982e+01,1.400000000000000133e-01
2.989279821999999864e+00,-1.014333855000000062e+00,3.962105987834539378e-01,1.000000000000000048e-04,4.196122763508161313e+01,1.600000000000000033e-01
6.962963009999999509e-01,-9.242906640000000396e-01,2.873535839650769308e-01,1.000000000000000048e-04,4.068719790144022852e+01,2.000000000000000111e-01
6.831622830000000368e-01,-9.295060950000000322e-01,6.630733097319083669e-01,1.000000000000000048e-04,4.346489195434078567e+01,2.099999999999999922e-01
6.813526220000000189e-01,-9.196739680000000083e-01,2.021675542533417635e-01,1.000000000000000048e-04,4.001649881446594037e+01,1.700000000000000122e-01
1.667475545999999920e+00,1.039138789999999979e+00,3.265467358997790059e-01,1.000000000000000048e-04,4.132437927173365466e+01,1.499999999999999944e-01
1.669072946000000002e+00,1.039627206000000026e+00,6.636948193584737421e-01,1.000000000000000048e-04,4.311442541882787083e+01,1.700000000000000122e-01
2.992464221000000091e+00,-1.009427984000000000e+00,4.902180478950842746e-01,1.000000000000000048e-04,4.210106874102724817e+01,1.400000000000000133e-01
3.013377762000000182e+00,-1.015725085999999999e+00,3.704297869394587162e-01,1.000000000000000048e-04,4.165794152775286818e+01,1.499999999999999944e-01
6.857830799999999893e-01,-9.290922369999999875e-01,4.456251043128076073e-01,1.000000000000000048e-04,4.215234720073681274e+01,3.400000000000000244e-01
6.874880420000000214e-01,-9.251381180000000093e-01,2.745907146350984318e-01,1.000000000000000048e-04,4.092997292279573429e+01,1.700000000000000122e-01
1.659686511000000086e+00,1.040101345999999927e+00,6.531173776939098730e-01,1.000000000000000048e-04,4.309186363007344767e+01,1.400000000000000133e-01
1.692629780999999944e+00,1.043637506000000048e+00,7.170685207619408308e-01,1.000000000000000048e-04,4.293071032923293728e+01,1.799999999999999933e-01
1.682450028999999958e+00,1.049226146999999942e+00,3.306922870863470143e-01,1.000000000000000048e-04,4.087757209562822425e+01,1.900000000000000022e-01
1.675255906999999933e+00,1.048468626000000015e+00,9.686104744113677167e-01,1.000000000000000048e-04,4.412550151792840580e+01,1.499999999999999944e-01
1.692145135000000078e+00,1.039981480000000014e+00,6.634276396610877535e-01,1.000000000000000048e-04,4.314154827297607397e+01,1.700000000000000122e-01
-2.139768073179586061e+00,7.360294179999999908e-01,6.171665775142483046e-01,1.000000000000000048e-04,4.287600988954076797e+01,1.600000000000000033e-01
-2.138731675179585956e+00,7.369836659999999817e-01,6.539840972984520828e-01,1.000000000000000048e-04,4.312279186262720998e+01,1.499999999999999944e-01
6.888283630000000546e-01,-9.193630990000000169e-01,1.177996078139609049e+00,1.000000000000000048e-04,4.462926679283685871e+01,1.700000000000000122e-01
6.776433490000000059e-01,-9.225326109999999469e-01,1.757670072069351108e-01,1.000000000000000048e-04,3.997640175215743596e+01,1.600000000000000033e-01
6.820513620000000499e-01,-9.162569579999999547e-01,5.594920296879929422e-01,1.000000000000000048e-04,4.265310164110113789e+01,2.899999999999999800e-01
6.832637360000000104e-01,-9.208365670000000502e-01,1.582883921876433453e-01,1.000000000000000048e-04,3.950281160624841448e+01,1.400000000000000133e-01
1.683256381999999940e+00,1.050427892999999946e+00,2.215116855260570450e-01,1.000000000000000048e-04,4.002094660567320261e+01,1.499999999999999944e-01
2.987248335999999949e+00,-1.011507587000000097e+00,4.707871425312987190e-01,1.000000000000000048e-04,4.206331524134605360e+01,1.900000000000000022e-01
2.994879214000000012e+00,-1.020537374999999969e+00,4.961126128230822774e-01,1.000000000000000048e-04,4.266672725967512747e+01,2.500000000000000000e-01
2.997056848999999801e+00,-1.020797841000000039e+00,7.067413965094573314e-01,1.000000000000000048e-04,4.328208578631652870e+01,1.499999999999999944e-01
6.981827720000000070e-01,-9.201470600000000166e-01,1.346968961950601174e-01,1.000000000000000048e-04,3.899792220920959807e+01,2.099999999999999922e-01
1.675679171999999939e+00,1.042232051000000048e+00,1.630504203533299501e-01,1.000000000000000048e-04,3.950137596421704700e+01,1.900000000000000022e-01
1.682732345000000018e+00,1.051774148000000020e+00,2.349607639099890732e-01,1.000000000000000048e-04,3.989574881798542094e+01,2.099999999999999922e-01
1.655763980999999996e+00,1.041789395999999979e+00,3.665623724565315045e-01,1.000000000000000048e-04,4.098437690971623226e+01,2.099999999999999922e-01
1.658505131999999938e+00,1.042043577999999915e+00,4.845316163923725217e-01,1.000000000000000048e-04,4.220012107907031407e+01,1.499999999999999944e-01
1.679931540999999973e+00,1.044700675999999939e+00,6.842815282026049051e-01,1.000000000000000048e-04,4.320131281947571011e+01,1.400000000000000133e-01
1.681131209999999987e+00,1.046558263000000100e+00,1.701519680378302257e-01,1.000000000000000048e-04,4.007722604361723739e+01,3.800000000000000044e-01
-2.147380102179586636e+00,7.248191320000000326e-01,7.335034677459653096e-01,1.000000000000000048e-04,4.334143953258514159e+01,2.200000000000000011e-01
-2.137481690179586558e+00,7.386978770000000027e-01,4.847986707643723858e-01,1.000000000000000048e-04,4.229442818204672960e+01,1.499999999999999944e-01
3.007533192999999994e+00,-1.006434849999999992e+00,4.322514723609641729e-01,1.000000000000000048e-04,4.187741771909572464e+01,1.700000000000000122e-01
6.766177190000000063e-01,-9.309161569999999664e-01,4.202575582286913747e-01,1.000000000000000048e-04,4.172178459476968726e+01,1.700000000000000122e-01
6.879719020000000240e-01,-9.170357009999999809e-01,5.029788655469855652e-01,1.000000000000000048e-04,4.232233009287404002e+01,2.600000000000000089e-01
6.868192690000000100e-01,-9.190749710000000183e-01,4.886691961648670368e-01,1.000000000000000048e-04,4.261263025528406700e+01,2.800000000000000266e-01
1.680927606000000019e+00,1.043199457999999913e+00,2.822531244887279134e-01,1.000000000000000048e-04,4.067642931051440058e+01,1.799999999999999933e-01
1.680733408999999901e+00,1.046110547000000057e+00,8.354971425591303236e-01,1.000000000000000048e-04,4.351632202908833591e+01,1.499999999999999944e-01
3.003205794999999956e+00,-1.007960921000000010e+00,8.592196572350093708e-01,1.000000000000000048e-04,4.346378299880397833e+01,2.200000000000000011e-01
3.013387552999999830e+00,-1.018013843000000085e+00,1.434150780202935183e-01,1.000000000000000048e-04,3.926550932999271026e+01,2.000000000000000111e-01
2.991633154000000072e+00,-1.018575491000000000e+00,4.626265746089271436e-01,1.000000000000000048e-04,4.218876700426555004e+01,1.600000000000000033e-01
6.810583510000000063e-01,-9.216344210000000370e-01,1.907179135521919200e-01,1.000000000000000048e-04,3.969292992730352410e+01,1.600000000000000033e-01
1.670069762000000013e+00,1.048284639000000018e+00,1.773214976189423919e-01,1.000000000000000048e-04,3.942358938773460153e+01,2.099999999999999922e-01
1.699713636000000028e+00,1.040243690999999915e+00,5.439148927804873246e-01,1.000000000000000048e-04,4.271924978720861077e+01,2.899999999999999800e-01
1.686195045999999920e+00,1.048540513999999924e+00,2.342850100045744677e-01,1.000000000000000048e-04,4.057797164499778830e+01,1.400000000000000133e-01
1.667162669999999958e+00,1.044746053999999980e+00,3.038863578561097345e-01,1.000000000000000048e-04,4.104203219050842932e+01,2.700000000000000178e-01
1.689467040999999892e+00,1.036330184999999959e+00,4.359423069698526998e-01,1.000000000000000048e-04,4.181206611312178723e+01,1.300000000000000044e-01
1.683799076999999977e+00,1.043385784000000038e+00,6.231978127345567664e-01,1.000000000000000048e-04,4.280205989860115778e+01,1.700000000000000122e-01
-2.151455832179586025e+00,7.398983139999999459e-01,2.307222428704494843e-01,1.000000000000000048e-04,4.031170990210647886e+01,2.500000000000000000e-01
-2.141944958179585967e+00,7.302793560000000461e-01,3.682698105813592693e-01,1.000000000000000048e-04,4.141197786228377709e+01,1.400000000000000133e-01
3.012489310999999947e+00,-1.019874449000000016e+00,3.935701936155315828e-01,1.000000000000000048e-04,4.159889608827350571e+01,1.900000000000000022e-01
6.824463880000000149e-01,-9.193269539999999740e-01,4.172975821332045587e-01,1.000000000000000048e-04,4.214099450614925502e+01,1.600000000000000033e-01
6.933168330000000212e-01,-9.307474239999999899e-01,1.526653139913951296e-01,1.000000000000000048e-04,3.930608458106142677e+01,1.600000000000000033e-01
7.005346909999999871e-01,-9.247541049999999929e-01,6.087619045699460552e-01,1.000000000000000048e-04,4.253691094178199705e+01,2.700000000000000178e-01
1.674988617999999985e+00,1.042237757999999959e+00,4.018317075656129278e-01,1.000000000000000048e-04,4.155622919395310788e+01,1.499999999999999944e-01
1.672026148000000045e+00,1.039374368000000048e+00,5.035576017636999024e-01,1.000000000000000048e-04,4.221769393371717172e+01,1.600000000000000033e-01
2.993618983999999816e+00,-1.008517228000000099e+00,1.271965018810163439e+00,1.000000000000000048e-04,4.478141239537512774e+01,1.700000000000000122e-01
2.992837709999999873e+00,-1.014889098000000045e+00,6.530959472294347590e-01,1.000000000000000048e-04,4.296643855982235749e+01,2.800000000000000266e-01
2.980621672999999916e+00,-1.012535224000000067e+00,4.505641058106715224e-01,1.000000000000000048e-04,4.194416990181868954e+01,1.499999999999999944e-01
3.118379398000000080e+00,-1.044341935000000055e+00,2.913593025706310846e-01,1.000000000000000048e-04,4.081178128887150081e+01,3.099999999999999978e-01
3.132904315000000217e+00,-1.046896950999999909e+00,1.863192193902215021e-01,1.000000000000000048e-04,3.969654081799270529e+01,2.200000000000000011e-01
1.248659997999999938e+00,-1.117162079000000086e+00,1.320374039466212457e+00,1.000000000000000048e-04,4.468822308219792205e+01,2.700000000000000178e-01
2.302446713000000145e+00,-1.091359299000000060e+00,3.167533432225557721e-01,1.000000000000000048e-04,4.089294128397000350e+01,2.899999999999999800e-01
3.133486173000000097e+00,-1.061461677999999909e+00,5.878022031453462581e-01,1.000000000000000048e-04,4.250962843699772975e+01,3.099999999999999978e-01
1.251013366000000016e+00,-1.102704651999999896e+00,3.100401340982540943e-01,1.000000000000000048e-04,4.092248743767206776e+01,2.300000000000000100e-01
1.232341668999999973e+00,-1.105349812000000043e+00,1.213518584804050393e+00,1.000000000000000048e-04,4.486398992312295775e+01,2.200000000000000011e-01
2.330538756999999794e+00,-1.086213730999999960e+00,2.553553676414419549e-01,1.000000000000000048e-04,4.049076945180117093e+01,2.300000000000000100e-01
3.104372880000000112e+00,-1.050765708999999992e+00,2.238619196750588625e-01,1.000000000000000048e-04,4.032170225611213965e+01,2.200000000000000011e-01
3.122794933000000217e+00,-1.050942575000000101e+00,6.433457660376384890e-01,1.000000000000000048e-04,4.260422808246278947e+01,2.099999999999999922e-01
3.135928428000000157e+00,-1.044986675000000087e+00,3.790058718549312311e-01,1.000000000000000048e-04,4.183556205552819307e+01,2.300000000000000100e-01
3.135701593999999925e+00,-1.049448040999999998e+00,9.080624966490291605e-01,1.000000000000000048e-04,4.391282896522295687e+01,2.399999999999999911e-01
2.902190216000000156e+00,-1.054666754000000095e+00,6.260547217387444352e-01,1.000000000000000048e-04,4.238772533243340490e+01,2.099999999999999922e-01
1.219278212000000083e+00,-1.102494101000000004e+00,1.294851930224569792e-01,1.000000000000000048e-04,3.879469801784578920e+01,2.399999999999999911e-01
2.314258420999999899e+00,-1.073777474999999981e+00,4.179630141851122249e-01,1.000000000000000048e-04,4.181791507235663374e+01,2.399999999999999911e-01
3.138600745000000192e+00,-1.056209613999999908e+00,3.533490697766368815e-01,1.000000000000000048e-04,4.153390695593778048e+01,2.800000000000000266e-01
2.873014373000000177e+00,-1.047336534999999902e+00,6.637225823510651823e-01,1.000000000000000048e-04,4.266016774535091827e+01,2.000000000000000111e-01
2.890150627000000139e+00,-1.045368942999999939e+00,4.023951949772669456e-01,1.000000000000000048e-04,4.157090369614137870e+01,2.200000000000000011e-01
-3.136513490179586139e+00,-1.038988312000000080e+00,1.599446924714979512e-01,1.000000000000000048e-04,3.993836273810814674e+01,2.800000000000000266e-01
3.120369102000000172e+00,-1.042910143999999928e+00,5.477650826783169169e-01,1.000000000000000048e-04,4.260611707227207035e+01,2.399999999999999911e-01
3.132773262000000170e+00,-1.048570620000000009e+00,1.305725708171641963e-01,1.000000000000000048e-04,3.899760863908579012e+01,2.300000000000000100e-01
3.132934141999999866e+00,-1.046888051000000042e+00,4.804317786638017118e-01,1.000000000000000048e-04,4.232081769611685473e+01,2.200000000000000011e-01
3.134455274000000014e+00,-1.046257098000000108e+00,2.469707721130904865e-01,1.000000000000000048e-04,4.042555032672608917e+01,2.200000000000000011e-01
2.910504301000000016e+00,-1.063930792999999930e+00,7.551539145835570732e-01,1.000000000000000048e-04,4.342628486507499730e+01,2.399999999999999911e-01
2.301930878999999930e+00,-1.084305269999999988e+00,1.769706228900348177e-01,1.000000000000000048e-04,3.981674552236626141e+01,3.099999999999999978e-01
2.314913878000000036e+00,-1.104421796000000011e+00,9.254165927791038193e-01,1.000000000000000048e-04,4.420527125059548013e+01,2.600000000000000089e-01
1.232494258000000009e+00,-1.089556776000000005e+00,7.886220976070477118e-01,1.000000000000000048e-04,4.381332224759609062e+01,3.099999999999999978e-01
-3.138875270179586341e+00,-1.027091259999999950e+00,7.171561207851703257e-01,1.000000000000000048e-04,4.348794614165319672e+01,3.800000000000000044e-01
1.277748142000000087e+00,-1.105660628999999950e+00,5.573725220127712099e-01,1.000000000000000048e-04,4.203981386878030690e+01,2.500000000000000000e-01
2.339694710999999927e+00,-1.083680948999999893e+00,6.788938708355856111e-01,1.000000000000000048e-04,4.325035792944367330e+01,2.300000000000000100e-01
3.085408954000000037e+00,-1.045989441999999991e+00,2.556048680031170472e-01,1.000000000000000048e-04,4.047346763527882985e+01,2.800000000000000266e-01
3.122183823999999941e+00,-1.053540683000000033e+00,4.360789080261477935e-01,1.000000000000000048e-04,4.198418282092163878e+01,3.699999999999999956e-01
1.263417701000000060e+00,-1.099941301000000093e+00,6.380355465082414579e-01,1.000000000000000048e-04,4.309443171254073945e+01,2.200000000000000011e-01
1.238769020999999970e+00,-1.122513239999999968e+00,3.520790185421115437e-01,1.000000000000000048e-04,4.174728682500278154e+01,2.600000000000000089e-01
1.225778744000000087e+00,-1.107856694000000086e+00,1.485592301103226542e-01,1.000000000000000048e-04,3.907503243960955075e+01,2.500000000000000000e-01
2.356185176999999964e+00,-1.090954028000000076e+00,2.579576413347334229e-01,1.000000000000000048e-04,4.047765551603632161e+01,2.700000000000000178e-01
1.231078855000000027e+00,-1.109460918999999990e+00,2.262691498635278631e-01,1.000000000000000048e-04,4.001219153788286320e+01,2.300000000000000100e-01
2.350025410999999842e+00,-1.078254897999999962e+00,1.481389437310244306e-01,1.000000000000000048e-04,3.923473092180276467e+01,2.300000000000000100e-01
2.889344674999999807e+00,-1.054064458000000037e+00,3.362980547926261998e-01,1.000000000000000048e-04,4.131572261014814273e+01,3.200000000000000067e-01
1.260972444000000081e+00,-1.102168519999999985e+00,6.208069299396270502e-01,1.000000000000000048e-04,4.308985227995240308e+01,2.899999999999999800e-01
3.138597202000000141e+00,-1.049455424000000026e+00,1.782453006326627509e-01,1.000000000000000048e-04,4.016164442931396650e+01,2.600000000000000089e-01
1.280173519000000093e+00,-1.106045986000000036e+00,3.586399682538659595e-01,1.000000000000000048e-04,4.160328052886726624e+01,2.899999999999999800e-01
3.140421104000000074e+00,-1.048273016000000002e+00,6.072855564706085563e-01,1.000000000000000048e-04,4.272536304093915760e+01,2.700000000000000178e-01
2.887571490000000018e+00,-1.060290981000000077e+00,4.033430533092801085e-01,1.000000000000000048e-04,4.158332745520809937e+01,2.300000000000000100e-01
3.117377486000000086e+00,-1.048849812999999909e+00,6.015667039261161086e-01,1.000000000000000048e-04,4.274579037146416027e+01,2.800000000000000266e-01
3.139331405000000075e+00,-1.045946368000000071e+00,1.896341310520961998e-01,1.000000000000000048e-04,3.937001789469249502e+01,2.300000000000000100e-01
2.901812189000000153e+00,-1.070407117000000019e+00,5.342738112113952775e-01,1.000000000000000048e-04,4.269919626320728412e+01,2.200000000000000011e-01
2.874698792999999863e+00,-1.069280417999999955e+00,6.056191920695197517e-01,1.000000000000000048e-04,4.287668842338180752e+01,2.200000000000000011e-01
3.126790450000000110e+00,-1.053686536000000062e+00,5.150918383514743182e-01,1.000000000000000048e-04,4.267192293282808180e+01,2.099999999999999922e-01
1.253234667999999941e+00,-1.096167120000000050e+00,1.339688936043911260e-01,1.000000000000000048e-04,3.866568181258362102e+01,2.200000000000000011e-01
1.242189800000000011e+00,-1.095888138000000067e+00,1.488857368338510900e-01,1.000000000000000048e-04,3.949047821582377793e+01,2.899999999999999800e-01
2.358704259000000025e+00,-1.096119858000000002e+00,8.532089023432717356e-01,1.000000000000000048e-04,4.369300611523824784e+01,2.099999999999999922e-01
3.090657074000000115e+00,-1.046905049999999893e+00,2.787750716159837494e-01,1.000000000000000048e-04,4.094553171650629508e+01,2.300000000000000100e-01
2.350320292999999783e+00,-1.077642637000000070e+00,7.871852821309037740e-01,1.000000000000000048e-04,4.370256899515697313e+01,3.300000000000000155e-01
3.120911620999999858e+00,-1.047605429999999949e+00,5.774394657939898590e-01,1.000000000000000048e-04,4.293264357286047073e+01,2.899999999999999800e-01
2.310418793000000193e+00,-1.091478047999999923e+00,7.805793721248562855e-01,1.000000000000000048e-04,4.327909765814981569e+01,3.300000000000000155e-01
2.888242410000000149e+00,-1.055260810999999910e+00,4.003076117124854671e-01,1.000000000000000048e-04,4.136325160573721860e+01,2.999999999999999889e-01
2.313880778000000138e+00,-1.089056457000000089e+00,2.142009530925673144e-01,1.000000000000000048e-04,4.011575312231094870e+01,2.600000000000000089e-01
3.096505394999999883e+00,-1.050897790999999915e+00,5.028485130870764541e-01,1.000000000000000048e-04,4.260137960284873770e+01,3.300000000000000155e-01
1.264206060000000020e+00,-1.108314516000000083e+00,2.786075419372565642e-01,1.000000000000000048e-04,4.083564758403804262e+01,2.500000000000000000e-01
2.317080779999999951e+00,-1.080569537999999996e+00,2.085008749640039349e-01,1.000000000000000048e-04,3.983163597898782626e+01,2.399999999999999911e-01
2.308161032000000112e+00,-1.080284865999999955e+00,4.984161087779452881e-01,1.000000000000000048e-04,4.305203357802520969e+01,3.900000000000000133e-01
1.213089824000000094e+00,-1.095999417000000031e+00,1.363152972182087030e-01,1.000000000000000048e-04,3.860417738992289571e+01,2.700000000000000178e-01
3.095344697999999894e+00,-1.044259242999999948e+00,4.043276381993455848e-01,1.000000000000000048e-04,4.159405476197357387e+01,2.200000000000000011e-01
3.093500166000000107e+00,-1.047656949999999920e+00,3.213708890351197889e-01,1.000000000000000048e-04,4.123241499874829685e+01,2.300000000000000100e-01
2.871266652000000086e+00,-1.064917746999999970e+00,1.645748778159810966e-01,1.000000000000000048e-04,3.967607399164276671e+01,2.500000000000000000e-01
2.872879009000000039e+00,-1.076645507999999918e+00,1.514376244700087470e-01,1.000000000000000048e-04,3.951454243272769418e+01,2.099999999999999922e-01
1.241294699000000001e+00,-1.109043570000000090e+00,1.943289489572226358e-01,1.000000000000000048e-04,3.982513758334187060e+01,2.099999999999999922e-01
1.238788393000000099e+00,-1.083197141000000085e+00,4.602367628885575268e-01,1.000000000000000048e-04,4.178300477401605661e+01,2.999999999999999889e-01
-3.140928712179586135e+00,-1.049943351000000025e+00,1.731422152253689062e-01,1.000000000000000048e-04,3.966224680577549577e+01,2.200000000000000011e-01
2.897074545000000168e+00,-1.050668165000000043e+00,3.942228013609583859e-01,1.000000000000000048e-04,4.151237017850741751e+01,2.099999999999999922e-01
3.133488720999999977e+00,-1.053899826000000095e+00,3.185866507946057968e-01,1.000000000000000048e-04,4.124146585544154675e+01,2.300000000000000100e-01
2.854965548000000020e+00,-1.051119023000000041e+00,5.601401765300966229e-01,1.000000000000000048e-04,4.201614410054096282e+01,3.200000000000000067e-01
2.846666281000000076e+00,-1.061494909000000098e+00,4.126666733290961231e-01,1.000000000000000048e-04,4.195113986433429432e+01,2.600000000000000089e-01
1.477625364000000108e+00,-9.892628350000000070e-01,3.338901633238352540e-01,1.000000000000000048e-04,4.133972776533282456e+01,2.000000000000000111e-01
-2.998301261179586064e+00,-5.567642400000000213e-01,3.661146450296943189e-01,1.000000000000000048e-04,4.163489720877899458e+01,1.799999999999999933e-01
2.915910107000000195e+00,-9.248875840000000403e-01,1.738979030085902877e-01,1.000000000000000048e-04,3.945328131417930706e+01,2.999999999999999889e-01
2.904218159000000021e+00,-9.279150130000000107e-01,2.788864884134534261e-01,1.000000000000000048e-04,4.064202226182368349e+01,2.399999999999999911e-01
2.945746643000000109e+00,-9.241091030000000428e-01,2.110827853986996239e-01,1.000000000000000048e-04,3.976830877382826657e+01,2.300000000000000100e-01
2.195221751000000054e+00,9.567984520000000215e-01,6.869051915791839491e-01,1.000000000000000048e-04,4.341706724793872496e+01,2.200000000000000011e-01
-2.382074272179586227e+00,-9.504311730000000180e-01,3.567295372308839640e-01,1.000000000000000048e-04,4.149277814274309151e+01,2.300000000000000100e-01
2.197803225999999999e+00,9.560313849999999558e-01,6.083207954652151139e-01,1.000000000000000048e-04,4.279206188350778461e+01,2.300000000000000100e-01
-2.380846050179586282e+00,-9.512843520000000552e-01,3.770219382100669092e-01,1.000000000000000048e-04,4.164814505701789926e+01,2.600000000000000089e-01
-2.382960995179586039e+00,-9.501026420000000527e-01,3.697669036588926428e-01,1.000000000000000048e-04,4.150837114371095282e+01,2.099999999999999922e-01
2.192165822000000208e+00,9.554729659999999791e-01,5.798097041743462965e-01,1.000000000000000048e-04,4.291384143451319488e+01,2.899999999999999800e-01
-2.383512939179586176e+00,-9.505219620000000535e-01,4.158759551257125708e-01,1.000000000000000048e-04,4.158170985397916297e+01,2.000000000000000111e-01
2.197044292000000176e+00,9.582492320000000063e-01,1.473988630057984361e-01,1.000000000000000048e-04,3.936647802796350248e+01,2.500000000000000000e-01
2.198013217999999824e+00,9.570721989999999568e-01,2.886450304266885980e-01,1.000000000000000048e-04,4.053522054917024775e+01,2.099999999999999922e-01
2.198391541999999976e+00,9.561199929999999458e-01,6.098381614123993266e-01,1.000000000000000048e-04,4.287962784652268766e+01,2.300000000000000100e-01
2.199218732999999926e+00,9.570277640000000030e-01,7.473362357187610661e-01,1.000000000000000048e-04,4.339739715777793805e+01,2.200000000000000011e-01
2.196667974999999995e+00,9.569524729999999701e-01,9.540851237568216403e-01,1.000000000000000048e-04,4.361083943193098378e+01,2.399999999999999911e-01
2.196400267000000017e+00,9.571105250000000453e-01,1.540242072309462029e-01,1.000000000000000048e-04,3.861403841322998431e+01,2.500000000000000000e-01
2.195980999000000100e+00,9.563170869999999546e-01,1.599918778235299155e-01,1.000000000000000048e-04,3.905209018151489886e+01,2.200000000000000011e-01
2.198886345000000020e+00,9.574225640000000315e-01,2.514749494861823198e-01,1.000000000000000048e-04,4.051648860045512635e+01,3.300000000000000155e-01
-2.382942164179586264e+00,-9.487821469999999646e-01,7.834427381873622087e-01,1.000000000000000048e-04,4.326812138593525958e+01,2.000000000000000111e-01
2.197058621000000045e+00,9.568337070000000333e-01,5.182503374772720051e-01,1.000000000000000048e-04,4.202550310872270956e+01,2.600000000000000089e-01
2.196754174000000059e+00,9.569828230000000380e-01,2.281370649223304348e-01,1.000000000000000048e-04,4.028570100013818234e+01,2.399999999999999911e-01
-2.381905888179586039e+00,-9.494029419999999719e-01,9.260166169802956926e-01,1.000000000000000048e-04,4.427929461855333670e+01,2.399999999999999911e-01
-2.382353656179586388e+00,-9.501919130000000546e-01,5.416300214824817383e-01,1.000000000000000048e-04,4.222361443353443633e+01,2.600000000000000089e-01
-2.385313647179586383e+00,-9.492824659999999914e-01,3.852693972838797665e-01,1.000000000000000048e-04,4.165955734129622101e+01,2.399999999999999911e-01
-2.383308463179586223e+00,-9.502672559999999491e-01,7.101075381852876012e-01,1.000000000000000048e-04,4.354089470268315409e+01,2.000000000000000111e-01
2.194446376000000143e+00,9.548028840000000184e-01,5.703265025785024811e-01,1.000000000000000048e-04,4.287489122135459496e+01,3.699999999999999956e-01
-2.377678389179586294e+00,-9.493284189999999789e-01,6.733107125168464879e-01,1.000000000000000048e-04,4.273994274640070756e+01,3.099999999999999978e-01
2.195048706000000127e+00,9.553664520000000326e-01,5.383782999307684669e-01,1.000000000000000048e-04,4.248007637160192473e+01,2.399999999999999911e-01
2.194988459000000169e+00,9.569281090000000267e-01,4.141747596308250068e-01,1.000000000000000048e-04,4.188258264201630254e+01,2.099999999999999922e-01
2.198773670000000013e+00,9.585742720000000050e-01,5.582076789488941149e-01,1.000000000000000048e-04,4.292851605863958753e+01,2.800000000000000266e-01
2.196007632000000154e+00,9.574002940000000406e-01,5.182394616508831930e-01,1.000000000000000048e-04,4.193045833992282212e+01,2.800000000000000266e-01
2.193610842000000005e+00,9.569156829999999614e-01,5.953151127638410811e-01,1.000000000000000048e-04,4.271603093245580851e+01,2.099999999999999922e-01
2.194846306000000080e+00,9.574700699999999509e-01,3.282144955010973808e-01,1.000000000000000048e-04,4.101694440268554587e+01,2.300000000000000100e-01
-2.901318991795864832e-01,1.086903570000000041e+00,8.331371099208748632e-01,1.000000000000000048e-04,4.331392023460506380e+01,2.000000000000000111e-01
-2.914486071795865385e-01,1.085909494999999891e+00,7.525929656043492955e-01,1.000000000000000048e-04,4.342391371760709262e+01,1.000000000000000056e-01
-2.954610881795858290e-01,1.084462065999999947e+00,1.752930028003179819e-01,1.000000000000000048e-04,3.971856718162443656e+01,1.199999999999999956e-01
-3.403197011795864313e-01,1.090760651000000081e+00,1.068854129841125378e+00,1.000000000000000048e-04,4.439703592766937135e+01,8.999999999999999667e-02
-3.429455761795860980e-01,1.087892671000000089e+00,3.004344126697847117e-01,1.000000000000000048e-04,4.116131640594654328e+01,1.400000000000000133e-01
6.896152909999999636e-01,-9.249195220000000495e-01,8.799640409055600188e-01,1.000000000000000048e-04,4.368259071226153623e+01,2.000000000000000111e-01
1.024453132999999960e+00,1.182715689999999986e+00,8.378080775602636532e-01,1.000000000000000048e-04,4.339473726080784388e+01,1.900000000000000022e-01
1.006083177000000051e+00,1.165244638999999971e+00,2.267364781059387768e-01,1.000000000000000048e-04,4.040905748306347078e+01,1.700000000000000122e-01
9.905969959999999519e-01,1.153001898999999941e+00,1.895889232039399408e-01,1.000000000000000048e-04,4.029203779190703472e+01,3.499999999999999778e-01
2.950804928999999799e+00,-1.010655210999999998e+00,4.590920176196123803e-01,1.000000000000000048e-04,4.226299957097287319e+01,1.700000000000000122e-01
2.951637304000000128e+00,-1.010683065999999908e+00,8.622232741144876256e-01,1.000000000000000048e-04,4.387413183918002346e+01,1.900000000000000022e-01
-2.349248843179586377e+00,-9.322901449999999590e-01,7.219879076169879450e-01,1.000000000000000048e-04,4.323270734506034074e+01,1.900000000000000022e-01
