1.794023199870000029e+00,-1.066504575379999986e+00,1.055277703217451513e-01,1.889999999999999862e-05,3.844257417825581769e+01,1.226000000000000006e-01
7.402625042339999739e-01,-3.478394374039999737e-01,1.233324933075563706e-01,5.000000000000000104e-04,3.863543993180940817e+01,1.265000000000000013e-01
2.353709585569999874e+00,-1.080984469609999943e+00,1.084212286147275550e-01,1.609999999999999832e-05,3.858844022904052196e+01,1.386999999999999900e-01
2.802585039039999781e+00,-1.015603153890000110e+00,1.122024529673630866e-01,1.830000000000000097e-05,3.849186415255526583e+01,1.388000000000000067e-01
1.777274800810000110e+00,-1.074644056479999943e+00,7.936899829291713115e-02,1.329999999999999972e-05,3.777566639684808791e+01,1.411999999999999922e-01
2.913516280570000117e+00,-9.707627933700000433e-01,1.164140688516607236e-01,6.900000000000000005e-06,3.872512192705091394e+01,1.700000000000000122e-01
1.085549145259999904e+00,-7.448246486780000231e-01,1.096338142530669524e-01,1.840000000000000001e-05,3.859013310887267778e+01,1.277999999999999969e-01
1.027510266820000018e+00,-6.962213171690000424e-01,9.045647972964906969e-02,1.349999999999999949e-05,3.813394793304198060e+01,1.368999999999999939e-01
1.399970736520000036e+00,-9.625335564200000471e-01,8.790449059991703451e-02,1.980000000000000016e-05,3.812585915222461352e+01,1.358000000000000040e-01
2.570116769140000201e+00,-1.064664255240000079e+00,1.123963709884359952e-01,1.329999999999999972e-05,3.868978729027448793e+01,1.436999999999999944e-01
9.720875361769999445e-01,-6.095229793949999975e-01,9.446232369921842009e-02,1.290000000000000016e-05,3.807040673579843570e+01,1.373000000000000054e-01
1.621246130609999891e+00,-1.030625734150000028e+00,1.063411036394397713e-01,5.000000000000000104e-03,3.858156093365695227e+01,1.584000000000000130e-01
-3.042339658870000019e+00,-7.656767762299999669e-01,1.057319661469596217e-01,5.000000000000000104e-04,3.852636884273152873e+01,1.280999999999999917e-01
1.947272166539999905e+00,-1.101887229609999963e+00,8.810309486088910291e-02,6.999999999999999895e-06,3.795353327935350052e+01,1.270999999999999908e-01
1.341846001540000000e+00,-9.474381739049999585e-01,1.176138645699048302e-01,7.999999999999999638e-06,3.903575120527285947e+01,1.443000000000000116e-01
7.996623925639999575e-01,-4.051612241720000118e-01,9.545836907954399764e-02,1.599999999999999928e-05,3.831076128779954360e+01,1.696000000000000008e-01
8.159396800399999483e-01,-4.608107027469999784e-01,1.147348740881224127e-01,5.000000000000000104e-03,3.868613953993078525e+01,1.826000000000000123e-01
2.125302249619999806e+00,-1.086803689069999912e+00,1.249688507690763228e-01,1.340000000000000045e-05,3.885930852006174518e+01,1.282999999999999974e-01
-3.106068213669999967e+00,-7.694953304789999837e-01,1.211701487315418879e-01,5.000000000000000104e-03,3.877590491096930947e+01,1.608999999999999875e-01
2.841950137700000045e+00,-9.875161071129999746e-01,8.534920297676143464e-02,2.159999999999999987e-05,3.798870657133549145e+01,1.943000000000000005e-01
-3.134999796409999817e+00,-8.037173782269999567e-01,8.849999039708415782e-02,1.419999999999999957e-05,3.821110893335652037e+01,1.270999999999999908e-01
9.671751689580000422e-01,-6.400502010180000312e-01,1.181988841847033400e-01,1.509999999999999942e-05,3.864817456984427224e+01,1.388999999999999957e-01
2.720836001069999899e+00,-9.986845377940000157e-01,1.229045729912916496e-01,1.779999999999999898e-05,3.877457625884778025e+01,1.534999999999999976e-01
8.302812732050000033e-01,-4.498958842110000189e-01,1.262249753218640802e-01,5.000000000000000104e-04,3.890573506102703760e+01,1.365999999999999992e-01
2.647198647480000222e+00,-1.045089967700000066e+00,7.699791274616896164e-02,7.700000000000000816e-06,3.774733884943090345e+01,1.254000000000000115e-01
1.818959325520000059e+00,-1.082495407979999991e+00,1.312899920559534306e-01,2.970000000000000024e-05,3.934230380240480685e+01,1.156999999999999973e-01
1.155317387099999982e+00,-7.915749840529999748e-01,1.156343250091617786e-01,2.159999999999999987e-05,3.858178403895723108e+01,1.307000000000000106e-01
-3.085894853380000136e+00,-7.425671854069999522e-01,1.031399714878912521e-01,5.000000000000000104e-03,3.836190033931303134e+01,1.781999999999999973e-01
1.135128119430000027e+00,-8.234341324370000326e-01,1.068520690986027172e-01,1.540000000000000163e-05,3.843023309836053869e+01,1.270000000000000018e-01
8.771002889440000505e-01,-5.395284705770000411e-01,1.306020312177741671e-01,6.339999999999999607e-05,3.892029437512056944e+01,1.569000000000000117e-01
1.745186286110000040e+00,-1.042342141470000039e+00,8.325112039941687248e-02,5.000000000000000104e-03,3.789588637950415517e+01,1.706999999999999906e-01
2.946531179209999962e+00,-9.604502811189999933e-01,1.126136250734477151e-01,1.079999999999999993e-05,3.866635462473350060e+01,1.285999999999999921e-01
1.166608233690000107e+00,-7.996043302990000212e-01,7.885118367720575505e-02,2.159999999999999987e-05,3.782089740090305696e+01,1.400000000000000133e-01
1.185990132269999942e+00,-8.641372202310000361e-01,1.262454552524607809e-01,1.590000000000000023e-05,3.893990820093509342e+01,1.340000000000000080e-01
-3.115682483410000092e+00,-7.921200688409999469e-01,1.335027979976225465e-01,5.000000000000000104e-04,3.877727573279673834e+01,1.269000000000000128e-01
2.721615272170000210e+00,-1.026974405240000054e+00,1.014151699730852507e-01,1.669999999999999935e-05,3.858237737766758357e+01,1.351999999999999869e-01
2.727804926320000156e+00,-1.024504387349999934e+00,8.911813969217971532e-02,9.399999999999999786e-06,3.795470590885062734e+01,1.759000000000000008e-01
1.426680047809999907e+00,-9.906820955959999564e-01,1.013922107391762861e-01,6.800000000000000116e-06,3.837753389359834699e+01,1.161999999999999977e-01
-3.031490600410000180e+00,-7.521339244750000486e-01,1.098939427155833926e-01,5.000000000000000104e-03,3.852883004685053692e+01,1.552000000000000046e-01
-3.042901330919999925e+00,-7.306456428419999538e-01,1.239041226683187391e-01,5.000000000000000104e-03,3.880927899590038521e+01,1.589000000000000135e-01
8.404722479970000437e-01,-4.623668884409999902e-01,1.197850324088249874e-01,5.000000000000000104e-03,3.914630722789631534e+01,1.965000000000000080e-01
3.100915619489999830e+00,-8.173695768680000473e-01,1.090870711880824184e-01,3.399999999999999973e-05,3.851248301055569812e+01,1.670999999999999985e-01
1.286002955080000065e+00,-9.049919594959999758e-01,9.594125092258766474e-02,5.599999999999999747e-06,3.781860805242769175e+01,2.861000000000000210e-01
1.737660748389999954e+00,-1.062189249350000031e+00,1.174463272118327073e-01,5.000000000000000104e-03,3.852909952526083970e+01,1.638000000000000012e-01
2.095352158109999863e+00,-1.096962326439999913e+00,9.855606898994215270e-02,1.720000000000000134e-05,3.842705111441537014e+01,1.141999999999999960e-01
8.167659532600000105e-01,-4.688205310329999764e-01,8.821134733120995775e-02,3.000000000000000076e-05,3.801010402884897132e+01,1.711999999999999911e-01
2.667802166029999977e+00,-1.012992242439999968e+00,1.033239329274095453e-01,8.199999999999999417e-06,3.852700127993683310e+01,1.376999999999999891e-01
1.009909081290000010e+00,-7.225277238559999482e-01,8.142074139143229417e-02,2.019999999999999972e-05,3.784375386004917630e+01,1.419999999999999873e-01
2.300619155610000188e+00,-1.097223542480000091e+00,1.294724327386171103e-01,5.959999999999999857e-05,3.897786454326121230e+01,1.456999999999999962e-01
1.255215416199999989e+00,-8.574584809030000310e-01,8.764639585132319444e-02,1.900000000000000105e-05,3.808748874517590366e+01,2.167999999999999927e-01
1.911644274089999929e+00,-1.096370223150000101e+00,8.939198819423761766e-02,3.809999999999999775e-05,3.765446306841194968e+01,1.733999999999999986e-01
8.206518518590000255e-01,-3.994206287100000030e-01,1.191276902462549414e-01,2.869999999999999965e-05,3.866773689317682283e+01,1.630999999999999950e-01
9.041604029409999743e-01,-5.889006783089999475e-01,1.225449592557439349e-01,1.020000000000000060e-05,3.878111168310709189e+01,1.348000000000000032e-01
1.415457213080000054e+00,-9.568995503610000508e-01,1.240864897146198992e-01,1.369999999999999927e-05,3.829106197101860687e+01,2.263999999999999901e-01
-3.010963742429999979e+00,-7.220265089699999805e-01,9.823674160448504777e-02,1.709999999999999891e-05,3.852338992600070355e+01,1.378000000000000058e-01
2.101167545840000095e+00,-1.082254349230000079e+00,8.637492616588571259e-02,1.340000000000000045e-05,3.793444945515123834e+01,1.173000000000000015e-01
9.991690961460000242e-01,-7.076684939909999583e-01,8.485457185965289417e-02,1.540000000000000163e-05,3.780038078430053616e+01,1.645000000000000073e-01
1.873057221090000057e+00,-1.090367434140000036e+00,9.375836213803126484e-02,1.399999999999999979e-05,3.821547413130347337e+01,1.307999999999999996e-01
1.857861219069999903e+00,-1.098153534699999989e+00,9.856653458909250820e-02,1.380000000000000001e-05,3.798205315280537064e+01,1.484999999999999931e-01
2.665524588519999849e+00,-1.048996702910000023e+00,1.314418029940518651e-01,2.989999999999999833e-05,3.877243523855924678e+01,1.246000000000000024e-01
2.355154943700000114e+00,-1.097972677060000013e+00,1.260353778475850062e-01,2.199999999999999943e-05,3.924921421607673011e+01,1.806999999999999995e-01
9.795978195679999612e-01,-6.427905315930000363e-01,1.177424425842757971e-01,1.809999999999999950e-05,3.865137242296982123e+01,1.572000000000000064e-01
-3.057869156220000217e+00,-7.350573474220000181e-01,1.250432124536489109e-01,3.470000000000000319e-05,3.881430645505711396e+01,1.242000000000000048e-01
9.920497477990000146e-01,-6.500334753240000207e-01,7.250082208156675978e-02,9.000000000000000228e-06,3.735560718694246418e+01,2.169999999999999984e-01
3.130046329429999830e+00,-8.523119884030000426e-01,1.012287638329612549e-01,1.259999999999999964e-05,3.839685169598782721e+01,1.213000000000000050e-01
2.379028017850000065e+00,-1.072014097799999899e+00,1.002384409597577714e-01,1.049999999999999942e-05,3.848597027446290042e+01,1.262999999999999956e-01
2.357025798630000057e+00,-1.081619083709999929e+00,8.028867699126490676e-02,1.079999999999999993e-05,3.788622244552624352e+01,1.401000000000000023e-01
-2.970667736299999806e+00,-6.774830050879999677e-01,7.084165710405325445e-02,5.000000000000000104e-04,3.750255777060326068e+01,1.595999999999999919e-01
9.081755733340000081e-01,-5.458360787789999780e-01,1.261296860569029454e-01,2.559999999999999884e-05,3.889696780989961411e+01,1.363999999999999935e-01
1.358823888090000098e+00,-9.312103408390000059e-01,1.330848809876338246e-01,5.000000000000000104e-03,3.927525904280616231e+01,1.728999999999999981e-01
2.298395117170000113e+00,-1.078031132260000025e+00,1.223941368409558056e-01,1.439999999999999935e-05,3.882132060388944694e+01,1.371999999999999886e-01
-3.070442777129999801e+00,-7.549988654300000546e-01,1.002452861307530363e-01,1.349999999999999949e-05,3.819957464237378275e+01,1.471000000000000085e-01
1.477099177229999949e+00,-1.010621637769999914e+00,1.313815596904099881e-01,2.339999999999999958e-05,3.897915788440143103e+01,1.431999999999999940e-01
8.741869070719999746e-01,-5.017862068989999980e-01,1.238994720383961023e-01,5.000000000000000104e-04,3.881574543335052141e+01,1.423000000000000098e-01
2.330225988860000097e+00,-1.085528504420000040e+00,1.086905312058784601e-01,9.500000000000000523e-06,3.835866549300807549e+01,1.476000000000000090e-01
7.436354871750000539e-01,-3.504138256459999878e-01,9.329919144589074453e-02,5.000000000000000104e-04,3.801754288061604115e+01,1.774999999999999911e-01
1.427162433049999901e+00,-9.612825434239999911e-01,1.373205876584300267e-01,2.180000000000000134e-05,3.922402888426385204e+01,1.255999999999999894e-01
9.044026198019999851e-01,-5.322096512109999455e-01,7.110361822418494182e-02,5.000000000000000104e-03,3.751851384197255612e+01,1.680000000000000104e-01
8.455056588670000206e-01,-5.142817755869999452e-01,1.117699540556410659e-01,1.349999999999999949e-05,3.846645252117814806e+01,1.323000000000000009e-01
1.205649471110000093e+00,-8.710924191309999953e-01,1.197405622651014495e-01,5.000000000000000104e-04,3.866433127160426864e+01,1.277000000000000079e-01
1.943996264309999944e+00,-1.074116518739999915e+00,1.267311398459969318e-01,1.430000000000000031e-05,3.882965390746982592e+01,1.484000000000000041e-01
3.097793320910000148e+00,-8.262323889349999506e-01,9.273440705415356144e-02,2.069999999999999832e-05,3.822152872439102822e+01,1.265999999999999903e-01
1.039784177770000095e+00,-7.522941733079999693e-01,8.882871970732308942e-02,3.820000000000000018e-05,3.811930243481874925e+01,1.250999999999999890e-01
2.184902241780000143e+00,-1.103811874810000093e+00,1.164840370598135832e-01,2.209999999999999847e-05,3.850718978619654820e+01,1.250000000000000000e-01
1.466494425010000047e+00,-9.700494030970000514e-01,1.218119949186693973e-01,2.349999999999999862e-05,3.888209085662113296e+01,1.444999999999999896e-01
7.947229055519999807e-01,-4.173956512609999780e-01,8.499028362022366390e-02,1.450000000000000009e-05,3.777983218289438128e+01,1.716000000000000025e-01
1.108604996610000004e+00,-7.642787783910000021e-01,1.064171891702319350e-01,5.200000000000000188e-06,3.843114140134491663e+01,1.686999999999999889e-01
2.082009968799999999e+00,-1.113896128449999967e+00,1.011096659070881698e-01,1.049999999999999942e-05,3.833913412779968866e+01,1.280999999999999917e-01
1.869326667860000013e+00,-1.083687296129999922e+00,1.048876069517258869e-01,2.129999999999999935e-05,3.843638065436049800e+01,1.824000000000000066e-01
1.393367858249999980e+00,-9.489811826320000421e-01,1.015184633561936056e-01,2.619999999999999987e-05,3.839069536843071972e+01,1.252999999999999947e-01
1.078385828560000093e+00,-7.403871388199999570e-01,8.901106946714762436e-02,2.099999999999999884e-05,3.803082191850865001e+01,1.232000000000000040e-01
1.814520130830000078e+00,-1.075429706089999993e+00,9.993817186490704108e-02,1.590000000000000023e-05,3.845443779167648302e+01,4.264000000000000012e-01
1.011862774459999947e+00,-6.888224621940000070e-01,1.207954686299850394e-01,2.680000000000000090e-05,3.876812902638184255e+01,1.262999999999999956e-01
8.544698483829999969e-01,-5.015490967350000329e-01,1.364059021061552746e-01,5.000000000000000104e-03,3.882254086991532205e+01,1.559999999999999998e-01
1.018549290619999992e+00,-7.028238768519999846e-01,1.005168608502920446e-01,8.800000000000000449e-06,3.834472738893101962e+01,1.323000000000000009e-01
1.623787387219999934e+00,-1.054606196469999979e+00,7.939039595595261123e-02,1.809999999999999950e-05,3.768683478812708643e+01,1.325000000000000067e-01
-3.049611868680000004e+00,-7.649298403180000427e-01,7.450155506464618826e-02,8.800000000000000449e-06,3.775521283157873853e+01,1.373999999999999944e-01
9.325682391520000447e-01,-6.045088198550000458e-01,7.764228108112863902e-02,6.700000000000000226e-06,3.746674822564428808e+01,1.852000000000000035e-01
1.143614002939999930e+00,-7.961324350570000430e-01,7.081076751011387838e-02,1.679999999999999839e-05,3.748020210348648362e+01,1.247000000000000053e-01
1.194021646369999967e+00,-8.723073439849999833e-01,9.282186490337801521e-02,7.900000000000000595e-06,3.814348223850107900e+01,1.376999999999999891e-01
2.197122871779999986e+00,-1.118233355919999950e+00,1.322487522732350151e-01,1.079999999999999993e-05,3.903008944578941453e+01,1.489999999999999936e-01
1.184121655390000027e+00,-8.242287254719999900e-01,7.407366073198243250e-02,2.229999999999999994e-05,3.758195099744675360e+01,1.338999999999999913e-01
1.089700901779999898e+00,-7.536230516480000308e-01,1.280198900097500869e-01,1.580000000000000119e-05,3.893824524093471240e+01,1.474000000000000032e-01
