-1.598279621179586663e+00,2.779993629999999993e-01,1.434939700157257178e-02,1.000000000000000048e-04,3.379676655442778355e+01,1.700000000000000122e-01
-8.306753881795865269e-01,5.048130450000000158e-01,3.222887781089815717e-02,1.000000000000000048e-04,3.642049661947395833e+01,1.600000000000000033e-01
-1.512887194179586281e+00,3.571169940000000209e-01,1.194387395311357139e-02,1.000000000000000048e-04,3.419549005548390852e+01,1.600000000000000033e-01
-2.094054222179586588e+00,-9.657747650000000350e-01,4.343203749911277861e-02,1.000000000000000048e-04,3.637189486423599760e+01,1.600000000000000033e-01
-1.256550916179586252e+00,-1.037146153999999987e+00,4.940444718286825243e-02,1.000000000000000048e-04,3.652891431344942674e+01,1.900000000000000022e-01
-2.638489419179586015e+00,-8.917870300000000361e-01,4.521021804246411202e-02,1.000000000000000048e-04,3.659164377562009207e+01,1.600000000000000033e-01
-1.710562538179586589e+00,-1.402302595000000096e+00,9.014406860592290988e-03,1.000000000000000048e-04,3.282894356657018875e+01,2.000000000000000111e-01
-2.771840681795865180e-01,-1.115655276000000029e+00,1.953434047864468365e-02,1.000000000000000048e-04,3.463328984285825385e+01,1.700000000000000122e-01
-1.608432286179586335e+00,-6.514894359999999773e-01,1.723415349041202901e-02,1.000000000000000048e-04,3.426326535460522393e+01,1.600000000000000033e-01
-1.490451089179586575e+00,-3.201959389999999850e-01,7.473729755531510754e-03,1.000000000000000048e-04,3.241473283000998862e+01,1.700000000000000122e-01
-1.995144670179586299e+00,-1.040863893000000040e+00,1.532450160782321616e-02,1.000000000000000048e-04,3.420970392201506627e+01,1.799999999999999933e-01
3.095686500000000008e-02,-1.139960520999999893e+00,1.150489525456899545e-02,1.000000000000000048e-04,3.342824693778360512e+01,1.700000000000000122e-01
-2.211919791795864398e-01,-6.717550429999999961e-01,1.793812708169294570e-02,1.000000000000000048e-04,3.505173973899111672e+01,2.200000000000000011e-01
-8.294029241795861651e-01,6.699244909999999553e-01,4.017336494237131600e-02,1.000000000000000048e-04,3.636961946457017092e+01,1.799999999999999933e-01
-4.765590681795863759e-01,-7.328014390000000544e-01,3.315943407586094405e-02,1.000000000000000048e-04,3.628632661093665490e+01,1.600000000000000033e-01
-1.123871723179585835e+00,1.275958498999999913e+00,1.931187659078125590e-02,1.000000000000000048e-04,3.434841930258256326e+01,1.900000000000000022e-01
-5.094723721795864080e-01,-7.371415260000000469e-01,3.783022178372451999e-02,1.000000000000000048e-04,3.628917793806004966e+01,1.600000000000000033e-01
6.571342580000000266e-01,4.949370419999999937e-01,1.172938879601402237e-02,1.000000000000000048e-04,3.355345318007177724e+01,1.700000000000000122e-01
-1.010588552179585875e+00,4.063959939999999826e-01,3.364358433391001491e-02,1.000000000000000048e-04,3.560542716401938890e+01,1.400000000000000133e-01
-5.300352171795861267e-01,-4.198024320000000031e-01,3.844346004666519129e-02,1.000000000000000048e-04,3.605122381805949061e+01,1.499999999999999944e-01
-3.959305511795863097e-01,-4.514385590000000170e-01,1.498635334868450228e-02,1.000000000000000048e-04,3.414609597682945719e+01,1.600000000000000033e-01
-1.302326638179586382e+00,4.891699640000000127e-01,3.024635042681956751e-02,1.000000000000000048e-04,3.579236252400956886e+01,8.999999999999999667e-02
-8.169037861795862554e-01,4.857709299999999897e-01,1.406090356704932723e-02,1.000000000000000048e-04,3.389500210194123042e+01,1.000000000000000056e-01
-1.156602994179586119e+00,7.039336720000000103e-01,1.669306933175659577e-02,1.000000000000000048e-04,3.450071207386135796e+01,1.100000000000000006e-01
2.500120207999999788e+00,-3.403989430000000094e-01,4.577759227696606703e-02,1.000000000000000048e-04,3.659306587433900404e+01,1.100000000000000006e-01
2.397122115999999803e+00,-8.283729720000000407e-01,4.475573876650482119e-02,1.000000000000000048e-04,3.654240747931562794e+01,1.700000000000000122e-01
-4.391142381795862804e-01,9.199097720000000145e-01,4.412665631166982905e-02,1.000000000000000048e-04,3.658598035281905680e+01,2.200000000000000011e-01
-1.356814123179586495e+00,1.335301293999999972e+00,4.163709601108009362e-02,1.000000000000000048e-04,3.573136059644382101e+01,2.600000000000000089e-01
2.612804049999999823e+00,3.003891830000000041e-01,7.537520997661976280e-03,1.000000000000000048e-04,3.291167160704842587e+01,1.700000000000000122e-01
-2.350352662179586272e+00,1.041324629000000002e+00,4.510854019369135715e-02,1.000000000000000048e-04,3.630641107807575452e+01,5.300000000000000266e-01
-1.192441121179586005e+00,1.100105410000000061e+00,2.459227726387646848e-02,1.000000000000000048e-04,3.550715748123839433e+01,1.799999999999999933e-01
-3.012917491179586182e+00,1.485957493999999990e+00,4.099498731550724889e-02,1.000000000000000048e-04,3.615220446184716963e+01,2.200000000000000011e-01
-7.329138461795858817e-01,1.044356909000000000e+00,4.892669443710617044e-02,1.000000000000000048e-04,3.644467319320873600e+01,1.700000000000000122e-01
1.024371087000000013e+00,-9.607604419999999923e-01,1.656799154037038452e-02,1.000000000000000048e-04,3.410193777540601445e+01,1.600000000000000033e-01
2.960998206000000188e+00,-8.548671270000000044e-01,1.228875442399903969e-02,1.000000000000000048e-04,3.340380377905343323e+01,1.900000000000000022e-01
-2.929124628179586409e+00,8.872048380000000511e-01,4.884255439567907614e-02,1.000000000000000048e-04,3.677470142433639211e+01,4.600000000000000200e-01
-3.017579355179586198e+00,-3.780387199999999948e-01,2.942345628694459370e-02,1.000000000000000048e-04,3.595519529600301922e+01,2.399999999999999911e-01
-2.268575282179586594e+00,6.921453520000000470e-01,3.289184930726310463e-02,1.000000000000000048e-04,3.585013092991366079e+01,3.699999999999999956e-01
2.478186394000000181e+00,5.281495040000000474e-01,1.306094041245355400e-02,1.000000000000000048e-04,3.357390180354576614e+01,2.399999999999999911e-01
7.532392530000000530e-01,9.936355940000000109e-01,2.340842039824497095e-02,1.000000000000000048e-04,3.512856845591203125e+01,1.600000000000000033e-01
1.772935874999999939e+00,1.383062164999999899e+00,9.180891963538464345e-03,1.000000000000000048e-04,3.240540459572488174e+01,7.399999999999999911e-01
1.941716173999999961e+00,9.578325640000000529e-01,1.542589954310123398e-02,1.000000000000000048e-04,3.439084750192375850e+01,3.800000000000000044e-01
2.041827891000000061e+00,-8.953703119999999460e-01,2.617284939906557722e-02,1.000000000000000048e-04,3.572704155794415470e+01,1.700000000000000122e-01
2.521229080999999983e+00,-8.544186950000000058e-01,1.473205901414109675e-02,1.000000000000000048e-04,3.414915036816928762e+01,2.000000000000000111e-01
2.745955969000000163e+00,3.136627880000000257e-01,4.629696967180940009e-02,1.000000000000000048e-04,3.681340064431978476e+01,2.099999999999999922e-01
1.738295793999999894e+00,1.134430556000000090e+00,3.267173535053798789e-02,1.000000000000000048e-04,3.580972184225376509e+01,1.799999999999999933e-01
-8.687814521795864664e-01,6.221710379999999541e-01,2.969605725191718990e-02,1.000000000000000048e-04,3.553270213753086892e+01,3.499999999999999778e-01
-1.857013858179586308e+00,3.937075449999999921e-01,8.189082977465171609e-03,1.000000000000000048e-04,3.232507601212655146e+01,2.999999999999999889e-01
-2.894431473179586156e+00,2.701405689999999971e-01,3.495355806757591277e-02,1.000000000000000048e-04,3.550917702905006479e+01,2.300000000000000100e-01
2.213600608000000136e+00,-5.295933369999999973e-01,3.473135245389697562e-02,1.000000000000000048e-04,3.531956514600176433e+01,2.500000000000000000e-01
9.327636729999999599e-01,4.069681829999999834e-01,2.206807984427915786e-02,1.000000000000000048e-04,3.533135047267023054e+01,2.300000000000000100e-01
1.743234563999999986e+00,7.359057650000000450e-01,3.672109422255584454e-02,1.000000000000000048e-04,3.587948109620231918e+01,2.200000000000000011e-01
-2.812965047179586175e+00,5.929882829999999494e-01,1.380481396433801827e-02,1.000000000000000048e-04,3.415309068443123408e+01,2.399999999999999911e-01
-2.977583888179586413e+00,-1.437144969999999966e-01,1.931458508222082260e-02,1.000000000000000048e-04,3.465315845813476869e+01,2.700000000000000178e-01
2.276564226000000080e+00,-5.051809499999999620e-01,4.386040826112082985e-02,1.000000000000000048e-04,3.648096950653063431e+01,2.800000000000000266e-01
2.667465888000000174e+00,-6.260506340000000502e-01,2.600694036847038884e-02,1.000000000000000048e-04,3.529157848670777753e+01,2.600000000000000089e-01
1.041358068000000081e+00,8.506585119999999778e-01,3.227573724168988217e-02,1.000000000000000048e-04,3.574871597962933123e+01,2.300000000000000100e-01
2.499030525999999863e+00,-9.629979760000000333e-01,3.279739889976025780e-02,1.000000000000000048e-04,3.618804460322579075e+01,3.099999999999999978e-01
1.334501084000000004e+00,-7.340646360000000481e-01,2.702147303707893786e-02,1.000000000000000048e-04,3.527445352413221258e+01,2.300000000000000100e-01
2.196979751999999841e+00,-5.334639439999999677e-01,3.239750447066912925e-02,1.000000000000000048e-04,3.576673686529017715e+01,2.500000000000000000e-01
1.355624495999999901e+00,4.654212710000000253e-01,3.762862359132634893e-02,1.000000000000000048e-04,3.614677540311899406e+01,2.200000000000000011e-01
1.445572062999999963e+00,-8.838676049999999451e-01,1.596539707772852076e-02,1.000000000000000048e-04,3.419992547514426917e+01,3.499999999999999778e-01
7.246286520000000397e-01,-7.843460709999999780e-01,7.437844941447635007e-03,1.000000000000000048e-04,3.227419230490617963e+01,3.099999999999999978e-01
2.179180484000000195e+00,1.312341798999999920e+00,3.234728649983377446e-02,1.000000000000000048e-04,3.577862029170278646e+01,2.200000000000000011e-01
7.669035910000000511e-01,2.329377750000000136e-01,1.834842199905329513e-02,1.000000000000000048e-04,3.433488150884462442e+01,2.500000000000000000e-01
1.528220198000000085e+00,-6.827860190000000218e-01,2.186593323752306778e-02,1.000000000000000048e-04,3.499573070170572464e+01,4.199999999999999845e-01
2.984436029999999906e+00,4.410184999999999800e-01,1.274755188306593914e-02,1.000000000000000048e-04,3.336490119188282932e+01,2.999999999999999889e-01
1.808380389999999949e+00,-5.931087419999999666e-01,3.597330399284835029e-02,1.000000000000000048e-04,3.604796103014291475e+01,2.200000000000000011e-01
2.378694356000000010e+00,6.891218140000000547e-01,4.012911059504303130e-02,1.000000000000000048e-04,3.617312083369959907e+01,3.099999999999999978e-01
-1.027171309179585990e+00,8.938185499999999895e-01,4.189349028512730916e-02,1.000000000000000048e-04,3.644864006123334832e+01,3.099999999999999978e-01
2.177629786999999872e+00,1.088514723000000073e+00,2.795426042161137936e-02,1.000000000000000048e-04,3.548698767754217442e+01,2.500000000000000000e-01
2.446904437000000154e+00,4.505237189999999892e-01,4.418609678313849959e-02,1.000000000000000048e-04,3.622053051330930629e+01,2.700000000000000178e-01
-2.745075452179586151e+00,5.290477460000000409e-01,3.607401240007292176e-02,1.000000000000000048e-04,3.570473423214158970e+01,1.600000000000000033e-01
3.470126559999999749e-01,6.971221490000000243e-01,9.571804391604333759e-03,1.000000000000000048e-04,3.270524348006326676e+01,2.399999999999999911e-01
-2.027672372179586624e+00,-3.494576850000000179e-01,2.246787746546299522e-02,1.000000000000000048e-04,3.453694891448984094e+01,8.999999999999999667e-02
-2.243457714179585949e+00,5.735296930000000071e-01,3.231153846661443535e-02,1.000000000000000048e-04,3.549443402009014648e+01,8.000000000000000167e-02
-1.741234469179586242e+00,8.281857209999999858e-01,4.403004023977333953e-02,1.000000000000000048e-04,3.671852668166411604e+01,1.000000000000000056e-01
-1.661352162179586145e+00,7.473004210000000480e-01,1.687338569299139807e-02,1.000000000000000048e-04,3.451192376889834890e+01,1.100000000000000006e-01
-1.046494641179585905e+00,9.839422859999999993e-01,2.358388283420135081e-02,1.000000000000000048e-04,3.538697887075866788e+01,1.600000000000000033e-01
-1.357076630179586019e+00,8.591991679999999576e-01,2.381025915067470217e-02,1.000000000000000048e-04,3.508396154264033129e+01,1.300000000000000044e-01
-1.489161381179585852e+00,8.733460579999999807e-01,2.667270219605673634e-02,1.000000000000000048e-04,3.523621570237104805e+01,8.999999999999999667e-02
2.602874990000000111e+00,9.865781270000000269e-01,4.494531077670310681e-02,1.000000000000000048e-04,3.658782060340017495e+01,2.099999999999999922e-01
6.278667869999999818e-01,1.201237362999999947e+00,2.400485683733378714e-02,1.000000000000000048e-04,3.553267445852177531e+01,1.799999999999999933e-01
1.901542252999999905e+00,5.984822429999999693e-01,5.569390641610572415e-03,1.000000000000000048e-04,3.177564754079986997e+01,1.700000000000000122e-01
9.102462569999999475e-01,3.833152009999999943e-01,2.846946390536144594e-02,1.000000000000000048e-04,3.549135873467307789e+01,2.200000000000000011e-01
4.621894529999999723e-01,4.355896570000000190e-01,4.393565256970690530e-02,1.000000000000000048e-04,3.633810369027978027e+01,2.399999999999999911e-01
1.731299603999999936e+00,-9.087058740000000245e-01,3.440470293003709129e-02,1.000000000000000048e-04,3.578794682638765323e+01,2.200000000000000011e-01
2.307708166999999921e+00,-3.555306579999999994e-01,1.250883067042532840e-02,1.000000000000000048e-04,3.384939950421347277e+01,1.700000000000000122e-01
2.284880370000000216e+00,-4.942566800000000038e-01,9.731148479422833258e-03,1.000000000000000048e-04,3.305181375526512966e+01,2.200000000000000011e-01
-2.729734007179586364e+00,-4.808223520000000084e-01,4.289837995285455258e-02,1.000000000000000048e-04,3.586005286475987930e+01,2.300000000000000100e-01
-2.728058296179586062e+00,8.181749999999999856e-01,1.914394308307515100e-02,1.000000000000000048e-04,3.491492848499265733e+01,2.200000000000000011e-01
1.539636916000000078e+00,-6.652033799999999830e-02,1.844432741821159030e-02,1.000000000000000048e-04,3.493029530359928003e+01,2.999999999999999889e-01
2.937620158000000092e+00,7.383732379999999873e-01,3.332714847188470580e-02,1.000000000000000048e-04,3.539871250922838186e+01,2.200000000000000011e-01
2.624384770999999894e+00,8.339422930000000012e-01,3.476631674089589175e-02,1.000000000000000048e-04,3.591771958738363679e+01,1.799999999999999933e-01
-2.594453966179586235e+00,1.052220571999999965e+00,1.886190362051678310e-02,1.000000000000000048e-04,3.464754133228592536e+01,1.900000000000000022e-01
-2.462277587179586114e+00,1.356652656000000068e+00,2.105662554526796168e-02,1.000000000000000048e-04,3.448425726070996689e+01,2.099999999999999922e-01
2.730654787000000194e+00,8.741146779999999783e-01,5.999830041478415588e-03,1.000000000000000048e-04,3.187053601809023817e+01,1.900000000000000022e-01
-2.564984794179586025e+00,9.572418230000000472e-01,3.973364928781026456e-02,1.000000000000000048e-04,3.604903034195753264e+01,4.400000000000000022e-01
1.629450376000000089e+00,2.068732899999999875e-01,4.058430481988203886e-02,1.000000000000000048e-04,3.536865145178082770e+01,2.899999999999999800e-01
1.142160569999999958e-01,6.858846720000000285e-01,2.534399438880359512e-02,1.000000000000000048e-04,3.525895501325017989e+01,1.799999999999999933e-01
-4.383495451795864639e-01,9.198101690000000108e-01,2.855472860338808053e-02,1.000000000000000048e-04,3.557004037740119884e+01,2.600000000000000089e-01
1.001193188000000012e+00,8.013430529999999719e-01,4.844367191430307140e-02,1.000000000000000048e-04,3.655100690520558260e+01,1.799999999999999933e-01
-8.746654461795859703e-01,7.515327899999999506e-01,2.169781558609741590e-02,1.000000000000000048e-04,3.514015936896795722e+01,2.600000000000000089e-01
1.319662558000000097e+00,1.070340469999999933e-01,3.134066050736015324e-02,1.000000000000000048e-04,3.596335237170208643e+01,2.399999999999999911e-01
1.726021762000000015e+00,-6.377623550000000030e-01,3.010654505612903389e-02,1.000000000000000048e-04,3.545801968581153574e+01,2.600000000000000089e-01
-2.754219137179586330e+00,-9.277945709999999568e-01,1.599971929230836407e-02,1.000000000000000048e-04,3.396257228513678683e+01,3.699999999999999956e-01
1.691977534999999921e+00,1.434503057999999998e+00,1.741612899747353033e-02,1.000000000000000048e-04,3.497766403326058082e+01,2.099999999999999922e-01
8.272144390000000236e-01,-4.428667319999999852e-01,4.109209301629353217e-02,1.000000000000000048e-04,3.639657488939935348e+01,2.300000000000000100e-01
-2.185785446179585811e+00,4.040310730000000183e-01,1.094702998521553117e-02,1.000000000000000048e-04,3.360060405669527483e+01,1.799999999999999933e-01
2.680919170000000129e+00,5.929394510000000063e-01,3.629512085901896029e-02,1.000000000000000048e-04,3.590933582093784082e+01,1.799999999999999933e-01
2.468528393999999793e+00,-3.885411739999999892e-01,1.235227848899958167e-02,1.000000000000000048e-04,3.359217277004687929e+01,1.700000000000000122e-01
1.824819092000000031e+00,-9.187566499999999525e-01,1.272420314447679848e-02,1.000000000000000048e-04,3.360337180246534672e+01,2.099999999999999922e-01
2.252174823999999909e+00,-3.842870769999999769e-01,4.298156898369277779e-02,1.000000000000000048e-04,3.624983299959063743e+01,2.000000000000000111e-01
2.889947965000000174e+00,3.184077100000000105e-01,4.355316984488117465e-02,1.000000000000000048e-04,3.638086622774142143e+01,2.000000000000000111e-01
-2.125870880179586031e+00,7.967372299999999630e-01,5.232254799655398740e-03,1.000000000000000048e-04,3.163563969643339746e+01,4.400000000000000022e-01
-2.666621499179586241e+00,1.790417820000000104e-01,9.087438559057092052e-03,1.000000000000000048e-04,3.304628614416735388e+01,1.900000000000000022e-01
2.353249148999999818e+00,9.653535600000000549e-01,2.313195723763717543e-02,1.000000000000000048e-04,3.496388968194804647e+01,1.799999999999999933e-01
1.765869402999999949e+00,9.288119630000000182e-01,1.467335077972246188e-02,1.000000000000000048e-04,3.431080175275906186e+01,3.599999999999999867e-01
1.162949336999999916e+00,5.157872650000000503e-01,3.306468043480025737e-02,1.000000000000000048e-04,3.593395124329484958e+01,4.099999999999999756e-01
2.011122450999999867e+00,-1.257182417000000108e+00,8.329223975025903948e-03,1.000000000000000048e-04,3.273978217582818928e+01,1.799999999999999933e-01
1.931340567999999980e+00,-5.991437729999999906e-01,4.877033497150124602e-02,1.000000000000000048e-04,3.687097601869042762e+01,2.000000000000000111e-01
2.835991935000000019e+00,-7.109363199999999550e-01,1.055289993020402418e-02,1.000000000000000048e-04,3.376984705654881225e+01,1.900000000000000022e-01
-2.852520529179586095e+00,8.667541789999999580e-01,2.539691748975042920e-02,1.000000000000000048e-04,3.519306149249997162e+01,1.799999999999999933e-01
-2.458251249179586040e+00,-2.796002539999999925e-01,3.080844444429014367e-02,1.000000000000000048e-04,3.580487439368625502e+01,3.300000000000000155e-01
1.596378985000000084e+00,5.944120290000000084e-01,1.349944388996666619e-02,1.000000000000000048e-04,3.378677056760410125e+01,1.900000000000000022e-01
-2.484014184179586415e+00,8.016642189999999557e-01,4.321488401053431155e-02,1.000000000000000048e-04,3.646076084910823312e+01,1.900000000000000022e-01
-2.431723812179586108e+00,1.223750555999999934e+00,4.940206517099459543e-03,1.000000000000000048e-04,3.150637664599283383e+01,1.700000000000000122e-01
-2.378598255179586118e+00,1.197731727999999940e+00,6.894576619170708978e-03,1.000000000000000048e-04,3.204669644840738130e+01,1.900000000000000022e-01
1.739429998000000088e+00,2.494783479999999887e-01,1.535689413136280893e-02,1.000000000000000048e-04,3.394015813353974664e+01,3.099999999999999978e-01
-2.377494960179586059e+00,9.562939099999999693e-01,2.575558051948856342e-02,1.000000000000000048e-04,3.451638474055950212e+01,1.799999999999999933e-01
-9.021677017958662503e-02,6.959221140000000361e-01,1.924315377463256538e-02,1.000000000000000048e-04,3.460682166288606254e+01,3.499999999999999778e-01
2.021336933000000169e+00,8.510789659999999923e-01,2.517031611973561192e-02,1.000000000000000048e-04,3.531223796324103859e+01,2.800000000000000266e-01
2.573899695999999793e+00,-5.247218830000000001e-01,2.887886612885453425e-02,1.000000000000000048e-04,3.570390586828811763e+01,1.700000000000000122e-01
2.346925623000000183e+00,-7.496726200000000118e-01,5.866146698629719214e-03,1.000000000000000048e-04,3.235005169580525575e+01,1.700000000000000122e-01
2.487812089999999809e+00,-1.095252646999999913e+00,1.569456624267001610e-02,1.000000000000000048e-04,3.471667758821337202e+01,1.600000000000000033e-01
2.543651012999999850e+00,-2.555195920000000176e-01,3.175895271476963239e-02,1.000000000000000048e-04,3.577011501295307028e+01,1.900000000000000022e-01
2.457771880000000131e+00,-4.383329890000000062e-01,1.291549419136754986e-02,1.000000000000000048e-04,3.429149166792836212e+01,1.700000000000000122e-01
-2.749033603179586116e+00,5.277091179999999770e-01,3.719506396116074864e-02,1.000000000000000048e-04,3.598422105289142081e+01,1.799999999999999933e-01
-3.021446786179586397e+00,6.716344440000000526e-01,3.265582561208945495e-02,1.000000000000000048e-04,3.576736272678857631e+01,1.799999999999999933e-01
2.390319493999999878e+00,1.427533710000000067e+00,1.912685152414467932e-02,1.000000000000000048e-04,3.487049024077393966e+01,1.799999999999999933e-01
-2.060955814179585843e+00,9.020563839999999889e-01,3.904533607592974159e-02,1.000000000000000048e-04,3.589885104265413673e+01,1.799999999999999933e-01
-1.552222439179586466e+00,1.270289940999999923e+00,3.753940655085845693e-03,1.000000000000000048e-04,3.112139111625427645e+01,1.600000000000000033e-01
2.491619029000000207e+00,8.136863199999999630e-01,3.310777723841556996e-02,1.000000000000000048e-04,3.580855218443479515e+01,1.900000000000000022e-01
2.336721559999999975e+00,1.049041915000000103e+00,3.245674955736491119e-02,1.000000000000000048e-04,3.515248373915092372e+01,1.700000000000000122e-01
1.201678150000000000e+00,3.331923239999999842e-01,4.423303368239273753e-02,1.000000000000000048e-04,3.630315915657708103e+01,1.900000000000000022e-01
-3.811893421795859993e-01,1.284308205000000092e+00,4.158370610706296072e-02,1.000000000000000048e-04,3.646012266296228432e+01,2.000000000000000111e-01
5.879284790000000038e-01,8.245620540000000442e-01,2.482084367817305806e-02,1.000000000000000048e-04,3.521651864637473039e+01,1.700000000000000122e-01
-3.584264691795864266e-01,1.112498557000000110e+00,2.855187684778669882e-02,1.000000000000000048e-04,3.517578412069265426e+01,2.000000000000000111e-01
-1.085925731795862603e-01,9.806715139999999664e-01,4.736225055797109451e-02,1.000000000000000048e-04,3.654802031432389953e+01,1.799999999999999933e-01
1.189812670000000017e+00,8.219376269999999485e-01,2.028955340126528673e-02,1.000000000000000048e-04,3.457538052129465456e+01,1.700000000000000122e-01
2.896526737999999934e+00,1.048685354999999930e+00,4.693791621549765064e-02,1.000000000000000048e-04,3.683369067350202641e+01,1.700000000000000122e-01
1.187793541000000008e+00,1.533334508000000040e+00,9.437157232167365031e-03,1.000000000000000048e-04,3.315611132983646314e+01,1.700000000000000122e-01
8.784667550000000436e-01,-5.840451829999999678e-01,2.731328516074842810e-02,1.000000000000000048e-04,3.552355374452818637e+01,2.099999999999999922e-01
-2.025603206179586557e+00,1.419180792999999996e+00,2.527741735461043818e-02,1.000000000000000048e-04,3.547856868708591804e+01,1.799999999999999933e-01
1.097118803000000087e+00,1.428367445999999985e+00,1.654996560831730260e-02,1.000000000000000048e-04,3.423596190559771912e+01,1.799999999999999933e-01
-1.923054671795858539e-01,8.268694330000000425e-01,4.987785594100265646e-02,1.000000000000000048e-04,3.669993628351146953e+01,2.000000000000000111e-01
1.974446608000000047e+00,-1.250497374000000050e+00,1.221623101971031772e-02,1.000000000000000048e-04,3.347386661729278501e+01,2.000000000000000111e-01
1.714471547999999901e+00,-4.841846819999999774e-01,2.388288632555798929e-02,1.000000000000000048e-04,3.489306653604376862e+01,1.700000000000000122e-01
1.635209042000000057e+00,-1.499680316999999929e+00,4.055719135638067435e-02,1.000000000000000048e-04,3.574065915001949634e+01,1.900000000000000022e-01
-3.085878636179586021e+00,-8.156760069999999807e-01,8.435880822411768662e-03,1.000000000000000048e-04,3.263841199325563025e+01,1.799999999999999933e-01
1.583648911999999909e+00,-4.051170720000000225e-01,2.787413475052157030e-02,1.000000000000000048e-04,3.531748718605503967e+01,1.700000000000000122e-01
3.116144028999999982e+00,-6.233618589999999626e-01,2.389329251927494596e-02,1.000000000000000048e-04,3.531837593822980637e+01,2.000000000000000111e-01
2.580853791000000008e+00,2.126606490000000071e-01,2.879081080022106998e-02,1.000000000000000048e-04,3.519577508966569468e+01,2.200000000000000011e-01
2.791070910999999821e+00,-3.375241600000000036e-02,2.915814538120384269e-02,1.000000000000000048e-04,3.541021310552175549e+01,2.999999999999999889e-01
2.126664376999999995e+00,-4.630033630000000011e-01,2.581967282361892838e-02,1.000000000000000048e-04,3.578235335175242682e+01,1.799999999999999933e-01
1.264160699999999915e+00,6.289837299999999631e-01,2.969630428641125211e-02,1.000000000000000048e-04,3.583132601002061790e+01,1.900000000000000022e-01
2.608192676999999904e+00,3.485897410000000085e-01,2.816628249167575301e-02,1.000000000000000048e-04,3.536086389643191552e+01,2.200000000000000011e-01
9.029304540000000490e-01,-5.888661819999999603e-01,3.820717001221589186e-03,1.000000000000000048e-04,3.107975934268717211e+01,1.700000000000000122e-01
2.675488564000000125e+00,-1.029758079000000048e+00,3.063607817911867884e-02,1.000000000000000048e-04,3.512954028292057274e+01,1.700000000000000122e-01
9.979371630000000160e-01,-7.076351440000000492e-01,3.728723886174411389e-02,1.000000000000000048e-04,3.609180084305521063e+01,2.000000000000000111e-01
2.816578843999999915e+00,-6.539336449999999523e-01,2.723194496340478402e-02,1.000000000000000048e-04,3.542957349487306118e+01,1.799999999999999933e-01
-2.809922836179586270e+00,-1.219770695000000016e+00,4.538591237357029323e-02,1.000000000000000048e-04,3.654226521214435053e+01,1.900000000000000022e-01
2.816545334000000178e+00,5.529564630000000092e-01,4.842797419651791169e-02,1.000000000000000048e-04,3.669212914536287684e+01,1.700000000000000122e-01
2.293480610000000031e+00,1.430186356999999964e+00,4.655376996925683630e-02,1.000000000000000048e-04,3.616906102688663083e+01,1.700000000000000122e-01
1.900048696999999898e+00,-6.695785770000000081e-01,1.292256592899781661e-02,1.000000000000000048e-04,3.364821634225861402e+01,1.900000000000000022e-01
2.402973735999999860e+00,-4.293495210000000117e-01,3.579789561410201201e-03,1.000000000000000048e-04,3.078030072974391729e+01,2.200000000000000011e-01
3.123677135999999965e+00,5.597831170000000522e-01,3.123883050444355852e-02,1.000000000000000048e-04,3.567591532123169173e+01,1.700000000000000122e-01
1.945616433999999950e+00,5.533621010000000506e-01,3.864910918911212967e-02,1.000000000000000048e-04,3.619212354141459542e+01,1.700000000000000122e-01
-2.603733431795864917e-01,9.574212720000000454e-01,3.984522659125485505e-02,1.000000000000000048e-04,3.609640585961548709e+01,3.800000000000000044e-01
-1.216980031795857897e-01,3.678993019999999836e-01,7.674611972150247909e-03,1.000000000000000048e-04,3.281815210130685756e+01,1.900000000000000022e-01
2.921580513999999962e+00,4.108407450000000072e-01,2.707361542480348632e-02,1.000000000000000048e-04,3.560765164300631369e+01,1.900000000000000022e-01
-2.362072097179586105e+00,1.187667234999999932e+00,3.714439367100809408e-02,1.000000000000000048e-04,3.588255375428741445e+01,1.900000000000000022e-01
-2.337569846179586186e+00,3.756736769999999837e-01,3.919237394604062341e-02,1.000000000000000048e-04,3.650846476430629650e+01,1.700000000000000122e-01
-1.563533060179586265e+00,8.298117619999999528e-01,4.873408126686552821e-02,1.000000000000000048e-04,3.683572893149727179e+01,3.300000000000000155e-01
-7.514201781795861734e-01,8.148208550000000105e-01,1.744381206790388342e-02,1.000000000000000048e-04,3.428735436958490368e+01,2.099999999999999922e-01
-2.172991007179586376e+00,1.278564443000000050e+00,1.736954607765596806e-02,1.000000000000000048e-04,3.451438827756007299e+01,2.000000000000000111e-01
1.004972830999999900e+00,3.284388160000000223e-01,4.977670672897265697e-02,1.000000000000000048e-04,3.656437446274728842e+01,1.799999999999999933e-01
-1.050913719179586536e+00,7.925907810000000220e-01,3.026916986068094173e-02,1.000000000000000048e-04,3.569767008640295813e+01,2.899999999999999800e-01
1.174967896000000067e+00,-7.032179160000000540e-01,4.462261039140537344e-02,1.000000000000000048e-04,3.661003839497499257e+01,1.799999999999999933e-01
2.063754460999999818e+00,1.158898511999999936e+00,2.455546720366755947e-02,1.000000000000000048e-04,3.470582385636051015e+01,1.799999999999999933e-01
1.355273345999999934e+00,1.034050206000000083e+00,8.954204950278233169e-03,1.000000000000000048e-04,3.296944632810029674e+01,1.700000000000000122e-01
1.878516419999999965e+00,-5.891517790000000421e-01,2.267023141013520954e-02,1.000000000000000048e-04,3.481098884337493615e+01,1.799999999999999933e-01
3.042909537999999969e+00,4.914006550000000195e-01,1.429064875297550094e-02,1.000000000000000048e-04,3.408110885178481197e+01,1.700000000000000122e-01
-2.192876876179585821e+00,7.571444160000000423e-01,3.243219474733861907e-02,1.000000000000000048e-04,3.601133686261486844e+01,2.099999999999999922e-01
-1.274335216179586006e+00,7.393028099999999769e-01,3.897429337041789094e-02,1.000000000000000048e-04,3.619221932491177540e+01,3.599999999999999867e-01
3.513372269999999742e-01,1.023017258000000096e+00,4.550627113987741612e-02,1.000000000000000048e-04,3.612247110973596875e+01,1.799999999999999933e-01
-2.045215730179585911e+00,1.346705497999999945e+00,4.918897754171813047e-02,1.000000000000000048e-04,3.679751668061392422e+01,1.799999999999999933e-01
2.622131355000000053e+00,-2.378520580000000051e-01,4.268519302934811743e-02,1.000000000000000048e-04,3.635242998565745864e+01,2.099999999999999922e-01
1.499565373000000035e+00,-5.833961840000000398e-01,2.452055570276146998e-02,1.000000000000000048e-04,3.503876268316335540e+01,1.199999999999999956e-01
9.453780529999999960e-01,-3.014802610000000271e-01,3.732247011088092592e-02,1.000000000000000048e-04,3.613562608705875334e+01,1.799999999999999933e-01
1.003030738000000088e+00,-6.679498139999999751e-01,3.725991382159372402e-03,1.000000000000000048e-04,3.077241287309154671e+01,1.799999999999999933e-01
-2.858957567179586157e+00,-2.878047879999999781e-01,4.692522249432390380e-02,1.000000000000000048e-04,3.651252410257782088e+01,1.300000000000000044e-01
-2.653655062179586022e+00,5.464710109999999510e-01,1.314972661977379872e-02,1.000000000000000048e-04,3.412758702201420391e+01,1.300000000000000044e-01
-1.077960778179586576e+00,1.305029642999999906e+00,4.125439210726106198e-02,1.000000000000000048e-04,3.595826098235622936e+01,1.100000000000000006e-01
2.996279555000000094e+00,-9.792432829999999644e-01,2.625071514825635943e-02,1.000000000000000048e-04,3.555907266530933697e+01,1.600000000000000033e-01
1.369802210000000131e-01,9.686457469999999459e-01,4.839993766350225018e-02,1.000000000000000048e-04,3.684104152732543724e+01,1.000000000000000056e-01
-7.405109531795863731e-01,5.344760480000000369e-01,2.230721968202709418e-02,1.000000000000000048e-04,3.526019854524143682e+01,1.900000000000000022e-01
-1.986221938179586033e+00,3.858849830000000147e-01,2.707987065957880371e-02,1.000000000000000048e-04,3.530260122308734339e+01,2.600000000000000089e-01
-1.660796187179585992e+00,1.337702168000000080e+00,1.045092803623009700e-02,1.000000000000000048e-04,3.319201827512877401e+01,1.300000000000000044e-01
-1.008319883179586540e+00,9.035811799999999838e-01,4.895398440581282679e-02,1.000000000000000048e-04,3.676931153271661401e+01,1.799999999999999933e-01
-2.859227719179586291e+00,-3.383984709999999785e-01,1.098737396167276566e-02,1.000000000000000048e-04,3.368370412545976933e+01,1.799999999999999933e-01
-3.008470453179586279e+00,-9.028608339999999455e-01,2.583599072794474580e-02,1.000000000000000048e-04,3.507003027539249729e+01,1.300000000000000044e-01
2.720373041999999852e+00,-1.026937239000000002e+00,1.470875675080663900e-02,1.000000000000000048e-04,3.378448848119378312e+01,1.100000000000000006e-01
1.131806215999999976e+00,-1.312634394000000038e+00,3.669062933779910357e-02,1.000000000000000048e-04,3.612485766332944337e+01,1.199999999999999956e-01
2.377785852000000144e+00,-1.071983155000000076e+00,2.187353975711075690e-02,1.000000000000000048e-04,3.489344332065910947e+01,1.000000000000000056e-01
1.262497049000000038e+00,-7.576738640000000302e-01,1.725758233445601891e-02,1.000000000000000048e-04,3.465818669317436473e+01,1.900000000000000022e-01
-2.150308364179585929e+00,9.473204419999999848e-01,3.053769674009441243e-02,1.000000000000000048e-04,3.539712767817607642e+01,1.499999999999999944e-01
-2.672281993179586035e+00,8.065802300000000091e-01,3.777749754356157091e-02,1.000000000000000048e-04,3.620608044012249138e+01,1.400000000000000133e-01
-2.768228307179586345e+00,1.501965110000000048e-01,3.728002746272082030e-02,1.000000000000000048e-04,3.598876342991870558e+01,1.300000000000000044e-01
2.456608391000000058e+00,-6.815239560000000418e-01,2.662887183847520781e-02,1.000000000000000048e-04,3.542959198420280842e+01,2.899999999999999800e-01
-1.538735822179586599e+00,7.895792169999999999e-01,3.643572836652688579e-02,1.000000000000000048e-04,3.614384344026014872e+01,1.600000000000000033e-01
-6.811844061795859773e-01,-7.989239399999999991e-01,4.592761148206708083e-02,1.000000000000000048e-04,3.683390309855541034e+01,2.300000000000000100e-01
-9.881069141795864041e-01,9.266642769999999807e-01,4.593428470542771508e-03,1.000000000000000048e-04,3.162021929138232679e+01,2.500000000000000000e-01
9.533575850000000074e-01,-5.868324440000000086e-01,2.261994322687329792e-02,1.000000000000000048e-04,3.528445308057402485e+01,1.199999999999999956e-01
1.194530383000000029e+00,-8.514353350000000153e-01,4.221630464607309396e-02,1.000000000000000048e-04,3.628257340988801616e+01,1.100000000000000006e-01
-1.550854682179585886e+00,1.341867675000000037e+00,4.700395634777581461e-02,1.000000000000000048e-04,3.663059983900448913e+01,3.599999999999999867e-01
2.328991532999999947e+00,-1.085498080000000032e+00,4.873355521795070394e-02,1.000000000000000048e-04,3.677615646192837318e+01,1.199999999999999956e-01
3.099662444999999877e+00,-8.173274409999999879e-01,3.326627320506188312e-02,1.000000000000000048e-04,3.560243842821088833e+01,1.300000000000000044e-01
1.008677688999999988e+00,-7.224949280000000362e-01,3.136937001079875137e-02,1.000000000000000048e-04,3.544165207463370848e+01,1.199999999999999956e-01
1.116317643999999998e+00,-8.188746820000000204e-01,3.433672494315494900e-02,1.000000000000000048e-04,3.603602184255952778e+01,1.499999999999999944e-01
1.368634144999999913e+00,-9.746537960000000167e-01,3.151382287391996107e-02,1.000000000000000048e-04,3.617719379317739481e+01,2.200000000000000011e-01
1.284766933000000000e+00,-9.049604909999999780e-01,4.404335172611290039e-02,1.000000000000000048e-04,3.651197549544081511e+01,1.300000000000000044e-01
2.840707745000000006e+00,-9.874777999999999611e-01,2.531670464927108372e-02,1.000000000000000048e-04,3.526781413069308257e+01,1.199999999999999956e-01
1.164831654000000105e+00,-8.361433499999999519e-01,3.608734231168714973e-02,1.000000000000000048e-04,3.612290210967901061e+01,1.600000000000000033e-01
9.274529849999999520e-01,-5.648102149999999488e-01,2.214195121147785258e-02,1.000000000000000048e-04,3.504115609790029140e+01,2.200000000000000011e-01
1.803806121999999901e+00,-1.051757271000000049e+00,4.934052140601458830e-02,1.000000000000000048e-04,3.647024435253688068e+01,2.200000000000000011e-01
1.910407339000000038e+00,-1.096340147000000043e+00,5.740278289493886896e-03,1.000000000000000048e-04,3.209925894606976016e+01,1.300000000000000044e-01
-2.994395329179586174e+00,-6.874333790000000111e-01,3.889002680299645520e-02,1.000000000000000048e-04,3.591072299021930547e+01,1.600000000000000033e-01
2.004169926999999962e+00,-1.114377941999999955e+00,1.543115851406183167e-02,1.000000000000000048e-04,3.393592991248337398e+01,2.099999999999999922e-01
2.993884073999999895e+00,-9.067153500000000310e-01,3.946262564326896705e-02,1.000000000000000048e-04,3.645708515398825256e+01,2.000000000000000111e-01
2.896584697999999847e+00,-6.981149509999999836e-01,3.988314060216762574e-02,1.000000000000000048e-04,3.629756350904776241e+01,2.000000000000000111e-01
2.644964143999999795e+00,-1.038456438999999953e+00,4.455668731181131569e-03,1.000000000000000048e-04,3.114455665160969033e+01,2.500000000000000000e-01
1.395029569000000080e+00,-9.673563530000000021e-01,3.774330057240276454e-02,1.000000000000000048e-04,3.585186723929947306e+01,2.200000000000000011e-01
1.133893306999999906e+00,-8.234022290000000410e-01,3.547464291706689532e-02,1.000000000000000048e-04,3.602123778347959870e+01,1.199999999999999956e-01
9.542908199999999841e-01,-6.210129070000000029e-01,1.232992264733581700e-02,1.000000000000000048e-04,3.364738535247526130e+01,1.400000000000000133e-01
1.112357503999999997e+00,-7.717409769999999947e-01,1.508445726096736481e-02,1.000000000000000048e-04,3.377165729365011515e+01,1.400000000000000133e-01
1.392129267000000059e+00,-9.489503049999999940e-01,3.205177551229979049e-02,1.000000000000000048e-04,3.554806587360372561e+01,1.100000000000000006e-01
3.104633763999999907e+00,-8.563587980000000321e-01,4.362641493247608471e-02,1.000000000000000048e-04,3.612802085398913476e+01,1.199999999999999956e-01
-1.581672989179586430e+00,-6.726275419999999672e-01,3.451121615266155435e-02,1.000000000000000048e-04,3.592458486867459300e+01,2.000000000000000111e-01
8.758714749999999549e-01,-5.394949780000000139e-01,3.580491971975912485e-02,1.000000000000000048e-04,3.631033314623531538e+01,1.199999999999999956e-01
1.027821937999999991e+00,-6.897361509999999640e-01,2.806014603053833684e-02,1.000000000000000048e-04,3.553027055857803163e+01,1.499999999999999944e-01
8.011105990000000343e-01,-4.568120419999999737e-01,1.779123972092744657e-02,1.000000000000000048e-04,3.489779552264060669e+01,1.499999999999999944e-01
8.044453879999999835e-01,-4.591503659999999765e-01,8.286929646188635756e-03,1.000000000000000048e-04,3.254734103530842049e+01,1.100000000000000006e-01
8.290542589999999601e-01,-4.498624509999999965e-01,4.430221570656957958e-02,1.000000000000000048e-04,3.647685220517894322e+01,1.199999999999999956e-01
2.306908324000000121e+00,-1.093655438999999951e+00,4.406042963523557759e-02,1.000000000000000048e-04,3.627563019849696246e+01,1.300000000000000044e-01
-3.090495873179586184e+00,-7.974218849999999970e-01,2.896786862411923277e-02,1.000000000000000048e-04,3.534715364406991966e+01,1.300000000000000044e-01
2.850739061000000074e+00,-9.724982730000000242e-01,4.994211838993380809e-02,1.000000000000000048e-04,3.681146570792414252e+01,1.100000000000000006e-01
1.925211972000000049e+00,-1.067349442999999898e+00,2.089637231198738024e-02,1.000000000000000048e-04,3.476278822785187828e+01,1.600000000000000033e-01
3.010706126000000094e+00,-9.149326070000000088e-01,3.898283570359085265e-03,1.000000000000000048e-04,3.129250560990638164e+01,1.199999999999999956e-01
1.754869720000000077e+00,-1.052947148999999971e+00,3.002741574864156715e-02,1.000000000000000048e-04,3.585540857723353270e+01,1.300000000000000044e-01
3.028086770999999899e+00,-8.725603690000000023e-01,8.902749730461217287e-03,1.000000000000000048e-04,3.280589829105646515e+01,1.199999999999999956e-01
2.780301081000000174e+00,-1.010780400000000023e+00,3.869903045547596482e-02,1.000000000000000048e-04,3.600479969825597237e+01,1.700000000000000122e-01
3.096540631999999960e+00,-8.261897350000000362e-01,1.992405209793099083e-02,1.000000000000000048e-04,3.492929052770361409e+01,1.100000000000000006e-01
-3.043596368179586342e+00,-7.656326449999999451e-01,6.859791194192747452e-03,1.000000000000000048e-04,3.216180995722900349e+01,1.100000000000000006e-01
2.593403560000000052e+00,-1.068240442000000012e+00,8.695502030360662687e-03,1.000000000000000048e-04,3.224910659852665162e+01,1.199999999999999956e-01
1.277663320999999907e+00,-8.910532270000000032e-01,3.995585689057338380e-02,1.000000000000000048e-04,3.661973017562016253e+01,1.499999999999999944e-01
8.729576639999999665e-01,-5.017517409999999733e-01,2.842727613471996567e-02,1.000000000000000048e-04,3.534905415036639198e+01,1.199999999999999956e-01
2.323316692000000128e+00,-1.072994334000000105e+00,2.766731233878916285e-02,1.000000000000000048e-04,3.542660712284901336e+01,1.400000000000000133e-01
-3.012222731179586166e+00,-7.219820959999999621e-01,2.437778937276124935e-02,1.000000000000000048e-04,3.517865659326650984e+01,1.199999999999999956e-01
2.306010604999999991e+00,-1.110345181000000014e+00,2.777646396592363745e-02,1.000000000000000048e-04,3.561411055874588527e+01,1.100000000000000006e-01
2.437557496999999795e+00,-1.097151527000000071e+00,4.314049773971403989e-02,1.000000000000000048e-04,3.609745319501125493e+01,1.100000000000000006e-01
1.098420291999999909e+00,-7.444727049999999569e-01,2.674075296820196609e-02,1.000000000000000048e-04,3.512715058543365387e+01,1.300000000000000044e-01
8.241628739999999897e-01,-4.611620249999999754e-01,1.762946262624530067e-02,1.000000000000000048e-04,3.460839013557655619e+01,1.400000000000000133e-01
1.017317494999999905e+00,-7.027905669999999771e-01,1.294977334769730273e-02,1.000000000000000048e-04,3.339979709893755455e+01,1.199999999999999956e-01
2.728679550999999925e+00,-1.007430967999999982e+00,9.745524746098233743e-03,1.000000000000000048e-04,3.344879769084943888e+01,1.100000000000000006e-01
2.848837458999999850e+00,-9.622339979999999793e-01,1.470144674377955180e-02,1.000000000000000048e-04,3.390410910321445925e+01,1.199999999999999956e-01
-3.065525731179586266e+00,-7.207210450000000046e-01,2.422135363611040496e-02,1.000000000000000048e-04,3.486989704086235520e+01,1.199999999999999956e-01
1.103969978000000074e+00,-7.587182380000000448e-01,2.450010776014619612e-02,1.000000000000000048e-04,3.512183674039484060e+01,1.300000000000000044e-01
1.112034854000000017e+00,-7.675460100000000008e-01,4.282614904639285569e-02,1.000000000000000048e-04,3.658641610876349404e+01,1.199999999999999956e-01
2.373162053000000160e+00,-1.072487750000000073e+00,1.147796875130140115e-02,1.000000000000000048e-04,3.370287548587495507e+01,1.100000000000000006e-01
2.221583438000000132e+00,-1.096064289000000080e+00,5.191360265709813425e-03,1.000000000000000048e-04,3.179864523858613268e+01,1.199999999999999956e-01
2.775251189000000007e+00,-1.013244017000000108e+00,1.218140687950033246e-02,1.000000000000000048e-04,3.363367987541783322e+01,1.700000000000000122e-01
1.527128894000000070e+00,-9.963611940000000056e-01,2.190984315770176313e-02,1.000000000000000048e-04,3.504168473876148937e+01,1.400000000000000133e-01
-1.936135624179586401e+00,1.327891944000000102e+00,7.345235992589413745e-03,1.000000000000000048e-04,3.279279503585449618e+01,1.199999999999999956e-01
2.120951332999999828e+00,-1.112975437000000012e+00,4.837799476401000859e-02,1.000000000000000048e-04,3.683130946781116677e+01,1.600000000000000033e-01
2.950704906999999988e+00,-9.277153000000000205e-01,2.092392743208017561e-02,1.000000000000000048e-04,3.456115042532346848e+01,1.700000000000000122e-01
2.461302839000000020e+00,-1.064109841000000056e+00,2.923949408431764790e-02,1.000000000000000048e-04,3.530805926400777395e+01,1.499999999999999944e-01
1.687800213000000049e+00,-1.037844004000000098e+00,1.282106153981180802e-02,1.000000000000000048e-04,3.419139168915503291e+01,1.100000000000000006e-01
-3.069023128179586113e+00,-7.343218900000000327e-01,3.560730181518367149e-02,1.000000000000000048e-04,3.591574158413386186e+01,2.000000000000000111e-01
7.655655390000000171e-01,-3.825025819999999799e-01,1.216002405679078580e-02,1.000000000000000048e-04,3.319138220600188305e+01,1.300000000000000044e-01
-3.051736326179586012e+00,-7.690870560000000467e-01,3.093970366732847962e-02,1.000000000000000048e-04,3.563179166375959994e+01,1.499999999999999944e-01
-3.116938176179586240e+00,-7.920766919999999711e-01,7.117395861239205271e-03,1.000000000000000048e-04,3.243048856903955368e+01,1.100000000000000006e-01
1.020863690000000101e+00,-6.877910739999999468e-01,2.086425353698685703e-02,1.000000000000000048e-04,3.513000316173834392e+01,1.199999999999999956e-01
1.792785233999999894e+00,-1.066474936999999956e+00,6.900996726448666366e-03,1.000000000000000048e-04,3.241784923484564729e+01,1.100000000000000006e-01
1.805689748000000039e+00,-1.066896787999999985e+00,4.143706044581559056e-02,1.000000000000000048e-04,3.646051704796062154e+01,1.100000000000000006e-01
1.773248071000000037e+00,-1.046601056999999946e+00,3.738750287326112007e-03,1.000000000000000048e-04,3.127594673454966312e+01,2.099999999999999922e-01
1.076689889999999927e+00,-7.549444410000000216e-01,1.414858160654981420e-02,1.000000000000000048e-04,3.389875480272193897e+01,1.199999999999999956e-01
2.336456505000000128e+00,-1.089906792000000069e+00,3.494506871213179378e-02,1.000000000000000048e-04,3.593571855475088483e+01,1.199999999999999956e-01
2.522083900000000156e+00,-1.078852812999999911e+00,8.338074994940925661e-03,1.000000000000000048e-04,3.264856115887355514e+01,1.199999999999999956e-01
3.676074389999999803e-01,1.100614297999999991e+00,2.355031211029361138e-02,1.000000000000000048e-04,3.493546671530525316e+01,1.700000000000000122e-01
2.099931574000000190e+00,-1.082223048999999993e+00,3.065314573452563793e-02,1.000000000000000048e-04,3.585248868310497272e+01,1.100000000000000006e-01
8.155488279999999479e-01,-4.642700679999999802e-01,4.991663810649261956e-02,1.000000000000000048e-04,3.711990803042531439e+01,2.099999999999999922e-01
9.861636230000000447e-01,-6.881834650000000497e-01,7.532951455829405008e-03,1.000000000000000048e-04,3.251918482103339869e+01,1.300000000000000044e-01
1.864254864999999928e+00,-1.086684659999999969e+00,1.953492115912371097e-02,1.000000000000000048e-04,3.488206888972852227e+01,1.199999999999999956e-01
2.873066016000000111e+00,-9.753574739999999466e-01,2.790507052089791218e-02,1.000000000000000048e-04,3.560779647841707884e+01,1.300000000000000044e-01
2.270287562000000037e+00,-1.085086717999999895e+00,4.720090962826631320e-02,1.000000000000000048e-04,3.684611268603465106e+01,1.799999999999999933e-01
8.268071609999999572e-01,-4.587794940000000099e-01,4.840887755357065753e-02,1.000000000000000048e-04,3.681532813606813903e+01,1.199999999999999956e-01
-3.050869045179586347e+00,-7.648855789999999821e-01,5.923483916531458587e-03,1.000000000000000048e-04,3.200734690989317244e+01,1.199999999999999956e-01
1.101963728999999947e+00,-7.466317359999999903e-01,3.369771513690221487e-02,1.000000000000000048e-04,3.570947843607656580e+01,1.900000000000000022e-01
1.745116724000000064e+00,-1.056563783000000090e+00,2.770137419653112207e-02,1.000000000000000048e-04,3.549157015587783093e+01,1.300000000000000044e-01
7.889769570000000343e-01,-3.846565690000000037e-01,1.685541220381932270e-02,1.000000000000000048e-04,3.447142044558429319e+01,1.499999999999999944e-01
1.385818830999999918e+00,-9.278259679999999454e-01,4.271351084449251378e-02,1.000000000000000048e-04,3.639386513488749131e+01,1.499999999999999944e-01
1.138484923000000038e+00,-8.197145099999999518e-01,3.654679931284710720e-02,1.000000000000000048e-04,3.601685082684409878e+01,1.400000000000000133e-01
1.783410439000000069e+00,-1.080958507999999929e+00,4.598465929391092229e-03,1.000000000000000048e-04,3.142632300475471396e+01,1.400000000000000133e-01
2.617653461000000181e+00,-1.025884226000000066e+00,2.415730816741716927e-02,1.000000000000000048e-04,3.509192957065317842e+01,1.199999999999999956e-01
8.270197009999999960e-01,-4.157453939999999903e-01,1.796569265520312972e-02,1.000000000000000048e-04,3.434299151479005019e+01,1.199999999999999956e-01
3.128792493000000174e+00,-8.522697870000000009e-01,4.291192778987274609e-02,1.000000000000000048e-04,3.654947790893672988e+01,1.100000000000000006e-01
1.366158207000000013e+00,-9.614226009999999878e-01,6.019772545121876081e-03,1.000000000000000048e-04,3.206819587626014822e+01,1.100000000000000006e-01
2.846286316000000038e+00,-9.688357899999999745e-01,1.095958616897076826e-02,1.000000000000000048e-04,3.368011899063660053e+01,1.400000000000000133e-01
9.208216280000000031e-01,-6.185352929999999860e-01,2.561936292728539746e-02,1.000000000000000048e-04,3.511745012066803184e+01,1.499999999999999944e-01
7.622987450000000553e-01,-3.411912120000000215e-01,1.173764045478693438e-02,1.000000000000000048e-04,3.395307937437235069e+01,1.199999999999999956e-01
9.277931750000000255e-01,-5.813990460000000304e-01,4.835575307725452354e-02,1.000000000000000048e-04,3.675805711988767399e+01,2.099999999999999922e-01
1.010173165000000095e+00,-6.808591280000000356e-01,2.271557682500729980e-02,1.000000000000000048e-04,3.507637174328884555e+01,1.300000000000000044e-01
1.661181446000000062e+00,-1.029160687999999935e+00,2.335722793562492947e-02,1.000000000000000048e-04,3.499084282782779098e+01,1.400000000000000133e-01
2.089878704000000198e+00,-1.077863170999999953e+00,9.191174328077570191e-03,1.000000000000000048e-04,3.282245816689751905e+01,1.199999999999999956e-01
9.321550429999999610e-01,-6.212176799999999943e-01,5.548657424615564306e-03,1.000000000000000048e-04,3.189696166392074872e+01,1.199999999999999956e-01
2.944595597000000176e+00,-9.127602249999999806e-01,3.228269996165677308e-02,1.000000000000000048e-04,3.600958557229436963e+01,1.100000000000000006e-01
1.288081913999999939e+00,-9.113959929999999598e-01,3.013647348791449396e-02,1.000000000000000048e-04,3.556177962140156978e+01,1.300000000000000044e-01
1.398731861999999992e+00,-9.625033109999999725e-01,3.700702933949032158e-02,1.000000000000000048e-04,3.576194852649078371e+01,1.199999999999999956e-01
1.714165549000000066e+00,-1.043104095999999981e+00,4.061365566437796087e-02,1.000000000000000048e-04,3.630786240842972745e+01,1.199999999999999956e-01
1.014018395999999989e+00,-6.788913789999999615e-01,3.865661224266578322e-02,1.000000000000000048e-04,3.682857354982062503e+01,1.300000000000000044e-01
8.887761809999999985e-01,-5.541821719999999729e-01,5.422808389149437816e-03,1.000000000000000048e-04,3.201117201823688418e+01,1.300000000000000044e-01
1.026278256999999972e+00,-6.961882160000000264e-01,2.123980732229791349e-02,1.000000000000000048e-04,3.519115769494744939e+01,1.199999999999999956e-01
1.824970581999999952e+00,-1.080428363000000003e+00,1.837911752526311809e-02,1.000000000000000048e-04,3.410489431685352457e+01,1.199999999999999956e-01
1.839979185000000017e+00,-1.082878103999999952e+00,4.018770034729016172e-02,1.000000000000000048e-04,3.615804688420946889e+01,1.300000000000000044e-01
-3.070118813179586237e+00,-7.641942569999999879e-01,3.631154554645574933e-02,1.000000000000000048e-04,3.586181941304840848e+01,1.199999999999999956e-01
2.250776613000000204e+00,-1.110438553999999911e+00,3.973145637982547496e-02,1.000000000000000048e-04,3.640474436581307316e+01,1.199999999999999956e-01
2.613802471000000072e+00,-1.066258922999999914e+00,1.596096217863716277e-02,1.000000000000000048e-04,3.400301950620151104e+01,1.199999999999999956e-01
8.050150120000000298e-01,-4.193234060000000096e-01,1.620997560599960960e-02,1.000000000000000048e-04,3.475628047785662744e+01,1.499999999999999944e-01
2.809576177999999924e+00,-9.952447749999999704e-01,2.743799709276238674e-02,1.000000000000000048e-04,3.531057563589460813e+01,1.199999999999999956e-01
8.523447290000000232e-01,-4.773689010000000121e-01,4.307459394606969610e-02,1.000000000000000048e-04,3.638621086268410920e+01,2.000000000000000111e-01
2.975142320999999868e+00,-8.986192680000000266e-01,3.752931383990129599e-02,1.000000000000000048e-04,3.612753135551468375e+01,2.000000000000000111e-01
2.960578484000000010e+00,-9.174235720000000205e-01,3.044008678899044751e-02,1.000000000000000048e-04,3.559449235932570588e+01,1.400000000000000133e-01
1.589239559999999996e+00,-1.046132274999999945e+00,1.451197071609497749e-02,1.000000000000000048e-04,3.406981717692326583e+01,1.199999999999999956e-01
1.095136271999999966e+00,-7.909478989999999543e-01,3.817353458753994233e-02,1.000000000000000048e-04,3.634206093198059762e+01,1.300000000000000044e-01
3.045277111999999953e+00,-8.831592660000000539e-01,2.723294834697755074e-02,1.000000000000000048e-04,3.568479804320228510e+01,1.799999999999999933e-01
3.011317304999999944e+00,-8.969173430000000335e-01,4.253770817752738909e-02,1.000000000000000048e-04,3.629694391392133923e+01,1.499999999999999944e-01
1.946036051000000100e+00,-1.101857058000000000e+00,4.850130316655987261e-02,1.000000000000000048e-04,3.636459070430264973e+01,1.100000000000000006e-01
9.659444579999999503e-01,-6.400164339999999674e-01,4.769024637323047294e-02,1.000000000000000048e-04,3.654185891683692944e+01,1.199999999999999956e-01
1.142944595999999979e+00,-8.229314749999999679e-01,3.709341487035162921e-02,1.000000000000000048e-04,3.624207452950798825e+01,1.499999999999999944e-01
1.336859599999999926e+00,-9.462661719999999610e-01,2.818215389187957512e-02,1.000000000000000048e-04,3.535974769534287532e+01,1.900000000000000022e-01
2.386695267999999981e+00,-1.099692616000000012e+00,1.884897599991374947e-02,1.000000000000000048e-04,3.416621240330194809e+01,1.799999999999999933e-01
1.122946417999999946e+00,-7.871106610000000448e-01,4.235614076691267271e-02,1.000000000000000048e-04,3.627053485604175620e+01,1.499999999999999944e-01
1.038511049000000019e+00,-6.836743480000000428e-01,4.312775635563340093e-02,1.000000000000000048e-04,3.646500200417726489e+01,1.499999999999999944e-01
-1.865548755179585960e+00,5.988235499999999822e-01,2.157537368620490725e-02,1.000000000000000048e-04,3.482837119995570418e+01,3.599999999999999867e-01
-1.208774007179585830e+00,1.086301519000000049e+00,2.146477078508364153e-02,1.000000000000000048e-04,3.452945915374605335e+01,3.900000000000000133e-01
-1.451351928179586359e+00,1.047303024999999943e+00,1.833488116809568053e-02,1.000000000000000048e-04,3.429919629228859890e+01,3.900000000000000133e-01
-1.863787002179586594e+00,5.986409590000000280e-01,3.895597357739398470e-02,1.000000000000000048e-04,3.593611638807629305e+01,3.099999999999999978e-01
-2.367107747179586053e+00,3.570653329999999848e-01,3.954791893989791779e-02,1.000000000000000048e-04,3.651290188152412952e+01,3.300000000000000155e-01
-1.756700719179586478e+00,1.186865959999999998e+00,4.789771796833891537e-02,1.000000000000000048e-04,3.675914809782915427e+01,4.600000000000000200e-01
3.110012692999999828e+00,-8.816387980000000013e-01,3.122103261343010111e-02,1.000000000000000048e-04,3.549270467344033619e+01,4.000000000000000222e-01
1.208427087000000011e+00,6.391205479999999550e-01,4.317519905622664578e-02,1.000000000000000048e-04,3.678463695097192243e+01,3.200000000000000067e-01
2.195568135999999893e+00,9.530612539999999688e-01,1.296690551284416376e-02,1.000000000000000048e-04,3.370091910521267664e+01,3.200000000000000067e-01
1.005319582999999906e+00,6.711075279999999532e-01,7.905798787267690614e-03,1.000000000000000048e-04,3.242392663713425804e+01,8.100000000000000533e-01
-1.746303855179585973e+00,7.561700099999999480e-01,1.751374176496773780e-02,1.000000000000000048e-04,3.440242411207243833e+01,3.599999999999999867e-01
-4.601474541795864681e-01,1.080353384999999999e+00,3.090608007895114667e-02,1.000000000000000048e-04,3.537498522284203517e+01,4.699999999999999734e-01
-1.809340496179586033e+00,8.561831709999999651e-01,3.267791308566118241e-02,1.000000000000000048e-04,3.586239959677805444e+01,5.600000000000000533e-01
-1.804726732179585902e+00,8.415213710000000180e-01,3.589423480307555453e-02,1.000000000000000048e-04,3.596437395739605591e+01,5.100000000000000089e-01
-1.920735154179586068e+00,8.789503189999999799e-01,4.361515062437193446e-02,1.000000000000000048e-04,3.656338958953821106e+01,4.500000000000000111e-01
-2.443118364179586166e+00,3.912645049999999847e-01,4.819834134727162683e-02,1.000000000000000048e-04,3.623800328935318049e+01,6.400000000000000133e-01
-2.443397905179586438e+00,3.924271049999999983e-01,4.910004344994687436e-02,1.000000000000000048e-04,3.663295368390629392e+01,4.199999999999999845e-01
-1.798694144179585841e+00,8.464773150000000079e-01,1.624417387807529020e-02,1.000000000000000048e-04,3.444450266512989600e+01,6.600000000000000311e-01
-1.799964602179586315e+00,8.443478660000000025e-01,2.260959541687977345e-02,1.000000000000000048e-04,3.524971558369581714e+01,6.099999999999999867e-01
-1.805111234179586077e+00,8.421560940000000217e-01,5.021525072318437470e-03,1.000000000000000048e-04,3.185123559014658667e+01,5.100000000000000089e-01
-2.442430271179586221e+00,3.917367079999999890e-01,9.569292704470596517e-03,1.000000000000000048e-04,3.290249997423669726e+01,9.200000000000000400e-01
-2.432135523179586034e+00,3.856870689999999935e-01,3.854853516366416044e-02,1.000000000000000048e-04,3.599495424851303227e+01,4.500000000000000111e-01
-2.443115938179586166e+00,3.817974199999999985e-01,1.327367480401333427e-02,1.000000000000000048e-04,3.406666552287281746e+01,1.010000000000000009e+00
-2.507217827179586411e+00,2.806706330000000027e-01,1.023702633595953773e-02,1.000000000000000048e-04,3.301837577980410998e+01,7.199999999999999734e-01
-2.751331907179586089e+00,-4.573921380000000037e-01,1.886474355692386098e-02,1.000000000000000048e-04,3.464789144833206080e+01,4.299999999999999933e-01
-2.751204501179586259e+00,-4.575163139999999795e-01,6.365711424381840025e-03,1.000000000000000048e-04,3.178490980172816904e+01,5.100000000000000089e-01
-2.751948792179586434e+00,-4.626465410000000222e-01,3.594734993608585203e-03,1.000000000000000048e-04,3.050708592240055594e+01,9.000000000000000222e-01
-2.714588277179586395e+00,-4.966179359999999821e-01,4.854006854421538675e-02,1.000000000000000048e-04,3.677201872363329471e+01,5.200000000000000178e-01
-4.484873401795859138e-01,1.078759022000000067e+00,3.042868787265420871e-02,1.000000000000000048e-04,3.574104642042266988e+01,4.600000000000000200e-01
1.900693019999999955e-01,8.157953839999999568e-01,1.240280314491322075e-02,1.000000000000000048e-04,3.341372562053815898e+01,5.899999999999999689e-01
-1.022766420179586078e+00,1.083744478000000067e+00,2.974055111971497453e-02,1.000000000000000048e-04,3.559727719897600906e+01,6.300000000000000044e-01
-4.695071691795860147e-01,1.083533926999999952e+00,2.402937291914408399e-02,1.000000000000000048e-04,3.512566922262987390e+01,4.400000000000000022e-01
-2.430196729179586068e+00,3.866488559999999852e-01,7.323947974361961696e-03,1.000000000000000048e-04,3.201943805870874371e+01,4.500000000000000111e-01
-1.912154461179586207e+00,8.727908680000000530e-01,1.531290192625373719e-02,1.000000000000000048e-04,3.422084301619471347e+01,4.699999999999999734e-01
-2.513608092179586251e+00,4.011275939999999762e-01,9.113655943487534647e-03,1.000000000000000048e-04,3.301811712527285891e+01,4.699999999999999734e-01
-2.755728471179586414e+00,-5.498326249999999638e-01,1.947302097092675627e-02,1.000000000000000048e-04,3.474460421847395253e+01,5.100000000000000089e-01
3.086866033999999814e+00,-8.456466849999999535e-01,3.204424246759986217e-02,1.000000000000000048e-04,3.531961608361191196e+01,5.200000000000000178e-01
2.898135272999999845e+00,-9.408617099999999622e-01,1.339963461983759499e-02,1.000000000000000048e-04,3.394490497749505664e+01,5.600000000000000533e-01
2.887933338999999933e+00,-9.438168839999999671e-01,4.351557133414480673e-03,1.000000000000000048e-04,3.136263492067930514e+01,4.799999999999999822e-01
2.256176956000000011e+00,-1.014735844999999914e+00,2.068468018706297665e-02,1.000000000000000048e-04,3.451069705222636941e+01,5.000000000000000000e-01
2.229698910000000200e+00,-1.018180813999999934e+00,1.145523507489373469e-02,1.000000000000000048e-04,3.374098695277837123e+01,6.400000000000000133e-01
2.227960753000000071e+00,-1.020489782000000067e+00,1.237347770619857609e-02,1.000000000000000048e-04,3.365194056583151649e+01,5.999999999999999778e-01
1.978102527999999971e+00,-9.529058719999999871e-01,2.959039090051518439e-02,1.000000000000000048e-04,3.568026430638886382e+01,5.200000000000000178e-01
2.842930618000000020e+00,9.211371910000000218e-01,3.584898090829728712e-02,1.000000000000000048e-04,3.576502625727225393e+01,4.899999999999999911e-01
2.611089279999999846e+00,9.227226889999999848e-01,4.691598001984730731e-02,1.000000000000000048e-04,3.638998600098653924e+01,4.899999999999999911e-01
-2.613733020179586308e+00,3.020363409999999860e-01,2.692623467739912665e-02,1.000000000000000048e-04,3.532405834597367544e+01,2.399999999999999911e-01
3.080075141000000016e+00,6.813462000000000129e-01,4.011775413569169946e-02,1.000000000000000048e-04,3.691018344581281241e+01,2.999999999999999889e-01
-2.614795632179586438e+00,3.100862600000000024e-01,3.701933604152642110e-02,1.000000000000000048e-04,3.618295375301715211e+01,7.099999999999999645e-01
3.084152930000000126e+00,6.750201959999999612e-01,3.077094239634804371e-02,1.000000000000000048e-04,3.575238071993827305e+01,2.399999999999999911e-01
-2.831540824179586302e+00,-5.193198470000000011e-01,3.008710219042300127e-02,1.000000000000000048e-04,3.590180794886729387e+01,2.899999999999999800e-01
2.921667255000000019e+00,-9.403574120000000036e-01,8.448090779860518290e-03,1.000000000000000048e-04,3.297509663172685634e+01,2.899999999999999800e-01
2.914679634000000075e+00,-9.413881210000000221e-01,2.098966143752997379e-02,1.000000000000000048e-04,3.502466847601483124e+01,7.299999999999999822e-01
2.905880500999999949e+00,-9.458600109999999450e-01,1.418506371486532441e-02,1.000000000000000048e-04,3.387005381399896464e+01,4.299999999999999933e-01
2.610543199999999953e+00,9.294079060000000059e-01,2.301650876730075915e-02,1.000000000000000048e-04,3.515291866708250268e+01,2.899999999999999800e-01
2.614058957000000127e+00,9.310355519999999885e-01,4.456864776957793900e-02,1.000000000000000048e-04,3.669607709336173684e+01,3.699999999999999956e-01
-2.614313936179586406e+00,3.105085300000000048e-01,1.088245518243278684e-02,1.000000000000000048e-04,3.317900486557702067e+01,2.300000000000000100e-01
-2.614275993179586255e+00,3.084493819999999942e-01,2.525159299617839304e-02,1.000000000000000048e-04,3.538798465382895131e+01,2.000000000000000111e-01
3.080236718000000096e+00,6.852664600000000217e-01,3.674210269307487398e-02,1.000000000000000048e-04,3.638255107133740296e+01,3.800000000000000044e-01
3.085135451000000195e+00,6.840520260000000352e-01,4.226534156145268090e-02,1.000000000000000048e-04,3.611495234291709266e+01,2.300000000000000100e-01
-2.608333968179586293e+00,3.075313129999999728e-01,4.713905994320945203e-02,1.000000000000000048e-04,3.634312086746338366e+01,5.799999999999999600e-01
-2.828421734179586089e+00,-5.202039349999999507e-01,1.192655858885005582e-02,1.000000000000000048e-04,3.344423735601792913e+01,5.200000000000000178e-01
-2.829361723179586452e+00,-5.190188390000000096e-01,4.950590671339587245e-02,1.000000000000000048e-04,3.676285130565453585e+01,3.900000000000000133e-01
-2.833706243179586082e+00,-5.260186759999999628e-01,4.247518342402890890e-02,1.000000000000000048e-04,3.635327652231075746e+01,2.200000000000000011e-01
1.286414458000000094e+00,-9.076167339999999806e-01,1.863758336518247724e-02,1.000000000000000048e-04,3.443409783302879390e+01,2.399999999999999911e-01
2.295144749999999956e+00,-1.095028292000000070e+00,2.397120994456496471e-02,1.000000000000000048e-04,3.483993733527483982e+01,2.000000000000000111e-01
2.312115046000000174e+00,-1.091482969000000081e+00,4.192744034396838487e-02,1.000000000000000048e-04,3.643717768296471604e+01,1.900000000000000022e-01
2.535381049000000164e+00,-1.063602453999999975e+00,1.878580370794842580e-02,1.000000000000000048e-04,3.482233578088219161e+01,2.600000000000000089e-01
2.549902755000000187e+00,-1.059649137999999935e+00,3.493580977057843262e-02,1.000000000000000048e-04,3.621409033329420168e+01,1.900000000000000022e-01
-2.980466121795863899e-01,1.081935794000000062e+00,2.195096809308370867e-02,1.000000000000000048e-04,3.483726660248477458e+01,1.000000000000000056e-01
-4.562223411795862660e-01,1.078420874000000085e+00,4.972810834552129217e-02,1.000000000000000048e-04,3.700020995080352293e+01,1.400000000000000133e-01
-4.727696341795866175e-01,1.076427226000000070e+00,3.618955435307336099e-02,1.000000000000000048e-04,3.585321741866777501e+01,1.900000000000000022e-01
-4.909850281795860028e-01,1.086050390999999893e+00,3.950759917053358466e-02,1.000000000000000048e-04,3.609222977927559128e+01,1.499999999999999944e-01
-1.809890014179586615e+00,8.554848849999999727e-01,4.662498518668163616e-02,1.000000000000000048e-04,3.679293813257041279e+01,1.900000000000000022e-01
-1.804843805179586091e+00,8.509932909999999850e-01,4.798951001969337105e-02,1.000000000000000048e-04,3.625843375293206350e+01,1.700000000000000122e-01
-1.798315402179586187e+00,8.389159160000000393e-01,1.965223360737682057e-02,1.000000000000000048e-04,3.491687018043299418e+01,1.100000000000000006e-01
-1.820018681179586650e+00,8.404092629999999620e-01,3.633124706451280016e-03,1.000000000000000048e-04,3.105572984426668981e+01,2.000000000000000111e-01
-2.435936564179586039e+00,3.767214549999999829e-01,4.210671325352097899e-02,1.000000000000000048e-04,3.617264075270085044e+01,1.700000000000000122e-01
-2.738532057179586143e+00,-4.670391260000000266e-01,4.509353168122344491e-02,1.000000000000000048e-04,3.654181224089445834e+01,1.100000000000000006e-01
-2.750126147179586145e+00,-4.750163370000000107e-01,2.179105893619484938e-02,1.000000000000000048e-04,3.479702273792103284e+01,1.700000000000000122e-01
6.777063359999999648e-01,-9.284162910000000046e-01,1.515800357075762841e-02,1.000000000000000048e-04,3.402431366301257043e+01,1.600000000000000033e-01
6.755664329999999662e-01,-9.242990760000000527e-01,2.010513142596747141e-02,1.000000000000000048e-04,3.481792043031011730e+01,2.200000000000000011e-01
1.666277256000000095e+00,1.035703752000000089e+00,4.710039532409923679e-02,1.000000000000000048e-04,3.651404140327949222e+01,2.800000000000000266e-01
1.679531192000000006e+00,1.034147155999999956e+00,2.005048862373485022e-02,1.000000000000000048e-04,3.437356658591991021e+01,2.099999999999999922e-01
1.669961188000000041e+00,1.045784459000000055e+00,4.027693610816205499e-02,1.000000000000000048e-04,3.595338528761503483e+01,2.899999999999999800e-01
1.666612017000000057e+00,1.035903760999999923e+00,8.457831690516622036e-03,1.000000000000000048e-04,3.294144110917662971e+01,1.400000000000000133e-01
1.676630470000000095e+00,1.049302589999999924e+00,9.818962071144569925e-03,1.000000000000000048e-04,3.296454938782407140e+01,1.600000000000000033e-01
1.678871634000000057e+00,1.037439988999999896e+00,3.823064431289074222e-02,1.000000000000000048e-04,3.562840856592501382e+01,2.099999999999999922e-01
-2.159653925179585876e+00,7.341517600000000421e-01,2.965117877110254319e-02,1.000000000000000048e-04,3.542016860897386010e+01,2.600000000000000089e-01
-2.155609593179586447e+00,7.327229189999999726e-01,2.234521157646453260e-02,1.000000000000000048e-04,3.492770454246367251e+01,1.400000000000000133e-01
2.989279821999999864e+00,-1.014333855000000062e+00,1.607208348542042697e-02,1.000000000000000048e-04,3.368789742313709468e+01,1.600000000000000033e-01
6.962963009999999509e-01,-9.242906640000000396e-01,9.732043181224888512e-03,1.000000000000000048e-04,3.372820460906520168e+01,2.000000000000000111e-01
6.831622830000000368e-01,-9.295060950000000322e-01,2.316978914147273597e-02,1.000000000000000048e-04,3.510105720276827412e+01,2.099999999999999922e-01
6.813526220000000189e-01,-9.196739680000000083e-01,1.156548164823862149e-02,1.000000000000000048e-04,3.376944314674792480e+01,1.700000000000000122e-01
1.667475545999999920e+00,1.039138789999999979e+00,4.898056119869525354e-02,1.000000000000000048e-04,3.657409412994513787e+01,1.499999999999999944e-01
1.669072946000000002e+00,1.039627206000000026e+00,4.193756186529768587e-02,1.000000000000000048e-04,3.620785788079156475e+01,1.700000000000000122e-01
2.992464221000000091e+00,-1.009427984000000000e+00,4.641983048719808269e-02,1.000000000000000048e-04,3.663784261828988775e+01,1.400000000000000133e-01
3.013377762000000182e+00,-1.015725085999999999e+00,4.306423181674520241e-03,1.000000000000000048e-04,3.166564692044684648e+01,1.499999999999999944e-01
6.857830799999999893e-01,-9.290922369999999875e-01,2.042771434903551536e-02,1.000000000000000048e-04,3.479746230578059141e+01,3.400000000000000244e-01
6.874880420000000214e-01,-9.251381180000000093e-01,3.580144943242755118e-02,1.000000000000000048e-04,3.577686268200405095e+01,1.700000000000000122e-01
1.659686511000000086e+00,1.040101345999999927e+00,3.346021450587403911e-02,1.000000000000000048e-04,3.638837822749191986e+01,1.400000000000000133e-01
1.673757463999999917e+00,1.042554473000000037e+00,3.803289240457057019e-02,1.000000000000000048e-04,3.622950494948366895e+01,4.299999999999999933e-01
1.692629780999999944e+00,1.043637506000000048e+00,1.231385108745816637e-02,1.000000000000000048e-04,3.372585282201004730e+01,1.799999999999999933e-01
1.682450028999999958e+00,1.049226146999999942e+00,1.753232568432769312e-02,1.000000000000000048e-04,3.425968635402129792e+01,1.900000000000000022e-01
1.675255906999999933e+00,1.048468626000000015e+00,1.877220472365321094e-02,1.000000000000000048e-04,3.421236725062499318e+01,1.499999999999999944e-01
1.692145135000000078e+00,1.039981480000000014e+00,1.683985988224582370e-02,1.000000000000000048e-04,3.398790692832388061e+01,1.700000000000000122e-01
-2.139768073179586061e+00,7.360294179999999908e-01,2.357216585879257781e-02,1.000000000000000048e-04,3.482869474189232761e+01,1.600000000000000033e-01
-2.138731675179585956e+00,7.369836659999999817e-01,2.019025253229751043e-02,1.000000000000000048e-04,3.476139796224470047e+01,1.499999999999999944e-01
6.888283630000000546e-01,-9.193630990000000169e-01,3.873803707878700070e-02,1.000000000000000048e-04,3.567550202367515766e+01,1.700000000000000122e-01
6.776433490000000059e-01,-9.225326109999999469e-01,9.013588544320836130e-03,1.000000000000000048e-04,3.290548183506447799e+01,1.600000000000000033e-01
6.820513620000000499e-01,-9.162569579999999547e-01,3.609018525345004946e-02,1.000000000000000048e-04,3.607161857594990551e+01,2.899999999999999800e-01
6.832637360000000104e-01,-9.208365670000000502e-01,3.295487045692327421e-02,1.000000000000000048e-04,3.593273254248057214e+01,1.400000000000000133e-01
1.683256381999999940e+00,1.050427892999999946e+00,4.240005708171235010e-02,1.000000000000000048e-04,3.649740387896567029e+01,1.499999999999999944e-01
2.987248335999999949e+00,-1.011507587000000097e+00,3.235500288126161306e-02,1.000000000000000048e-04,3.556727884368122972e+01,1.900000000000000022e-01
2.994879214000000012e+00,-1.020537374999999969e+00,3.689509723021004023e-02,1.000000000000000048e-04,3.608580523776524984e+01,2.500000000000000000e-01
2.997056848999999801e+00,-1.020797841000000039e+00,4.878672543643625473e-03,1.000000000000000048e-04,3.195634639413350797e+01,1.499999999999999944e-01
6.981827720000000070e-01,-9.201470600000000166e-01,4.691419751943658872e-02,1.000000000000000048e-04,3.666397841736042551e+01,2.099999999999999922e-01
1.675679171999999939e+00,1.042232051000000048e+00,3.890221432183522607e-03,1.000000000000000048e-04,3.120560602307882192e+01,1.900000000000000022e-01
1.682732345000000018e+00,1.051774148000000020e+00,1.170702292595253435e-02,1.000000000000000048e-04,3.340641744147694681e+01,2.099999999999999922e-01
1.655763980999999996e+00,1.041789395999999979e+00,4.616722049398972599e-02,1.000000000000000048e-04,3.629885192627699553e+01,2.099999999999999922e-01
1.658505131999999938e+00,1.042043577999999915e+00,1.959834542924195067e-02,1.000000000000000048e-04,3.408753594493195749e+01,1.499999999999999944e-01
1.679931540999999973e+00,1.044700675999999939e+00,4.895188005319142666e-02,1.000000000000000048e-04,3.669249687171632246e+01,1.400000000000000133e-01
1.681131209999999987e+00,1.046558263000000100e+00,4.922958575454298297e-02,1.000000000000000048e-04,3.596980838264679647e+01,3.800000000000000044e-01
-2.147380102179586636e+00,7.248191320000000326e-01,4.269294882946442216e-02,1.000000000000000048e-04,3.632635861300121149e+01,2.200000000000000011e-01
-2.137481690179586558e+00,7.386978770000000027e-01,3.105662997212689166e-02,1.000000000000000048e-04,3.545893158846283200e+01,1.499999999999999944e-01
3.007533192999999994e+00,-1.006434849999999992e+00,4.666681046707474301e-02,1.000000000000000048e-04,3.639122541072066497e+01,1.700000000000000122e-01
6.766177190000000063e-01,-9.309161569999999664e-01,3.663929126756872157e-02,1.000000000000000048e-04,3.621245937765924339e+01,1.700000000000000122e-01
6.879719020000000240e-01,-9.170357009999999809e-01,1.738437557648414220e-02,1.000000000000000048e-04,3.387352992970192389e+01,2.600000000000000089e-01
6.868192690000000100e-01,-9.190749710000000183e-01,2.884680659953455309e-02,1.000000000000000048e-04,3.543132447902626581e+01,2.800000000000000266e-01
1.680927606000000019e+00,1.043199457999999913e+00,3.682209356824772684e-02,1.000000000000000048e-04,3.602417514896303885e+01,1.799999999999999933e-01
1.680733408999999901e+00,1.046110547000000057e+00,1.768448393438445260e-02,1.000000000000000048e-04,3.425737294207679895e+01,1.499999999999999944e-01
3.003205794999999956e+00,-1.007960921000000010e+00,3.275587369959001571e-02,1.000000000000000048e-04,3.589673367084824918e+01,2.200000000000000011e-01
3.013387552999999830e+00,-1.018013843000000085e+00,4.134618323655727540e-02,1.000000000000000048e-04,3.617811650555514547e+01,2.000000000000000111e-01
2.991633154000000072e+00,-1.018575491000000000e+00,2.239816074124772668e-02,1.000000000000000048e-04,3.460116747484061506e+01,1.600000000000000033e-01
6.810583510000000063e-01,-9.216344210000000370e-01,1.762182516794382273e-02,1.000000000000000048e-04,3.468573456858884185e+01,1.600000000000000033e-01
1.670069762000000013e+00,1.048284639000000018e+00,2.009315083074398461e-02,1.000000000000000048e-04,3.493566892670972379e+01,2.099999999999999922e-01
1.699713636000000028e+00,1.040243690999999915e+00,3.673302578664527224e-02,1.000000000000000048e-04,3.607016788752183345e+01,2.899999999999999800e-01
1.686195045999999920e+00,1.048540513999999924e+00,3.959526505297102095e-02,1.000000000000000048e-04,3.660036190725820404e+01,1.400000000000000133e-01
1.667162669999999958e+00,1.044746053999999980e+00,4.910457582777610908e-02,1.000000000000000048e-04,3.673839720460554759e+01,2.700000000000000178e-01
1.689467040999999892e+00,1.036330184999999959e+00,9.172421112279413244e-03,1.000000000000000048e-04,3.320014460694891767e+01,1.300000000000000044e-01
1.683799076999999977e+00,1.043385784000000038e+00,2.939844936663676966e-02,1.000000000000000048e-04,3.537647014068260631e+01,1.700000000000000122e-01
-2.151455832179586025e+00,7.398983139999999459e-01,2.610767626251640425e-02,1.000000000000000048e-04,3.521067232695726545e+01,2.500000000000000000e-01
-2.141944958179585967e+00,7.302793560000000461e-01,2.611003603762281425e-02,1.000000000000000048e-04,3.512706605116764536e+01,1.400000000000000133e-01
3.012489310999999947e+00,-1.019874449000000016e+00,3.677391188442796083e-02,1.000000000000000048e-04,3.623326050096925144e+01,1.900000000000000022e-01
6.824463880000000149e-01,-9.193269539999999740e-01,3.273985519581108089e-02,1.000000000000000048e-04,3.610140251791739985e+01,1.600000000000000033e-01
6.933168330000000212e-01,-9.307474239999999899e-01,2.718974685886924730e-02,1.000000000000000048e-04,3.533030737435311153e+01,1.600000000000000033e-01
7.005346909999999871e-01,-9.247541049999999929e-01,2.551745780696388494e-02,1.000000000000000048e-04,3.491398397448724467e+01,2.700000000000000178e-01
1.674988617999999985e+00,1.042237757999999959e+00,1.984206188629465684e-02,1.000000000000000048e-04,3.419512879527238880e+01,1.499999999999999944e-01
1.672026148000000045e+00,1.039374368000000048e+00,1.765258623419977552e-02,1.000000000000000048e-04,3.439713157242589858e+01,1.600000000000000033e-01
2.993618983999999816e+00,-1.008517228000000099e+00,4.259700918246225876e-02,1.000000000000000048e-04,3.658883622109899392e+01,1.700000000000000122e-01
2.992837709999999873e+00,-1.014889098000000045e+00,4.267740360931055604e-02,1.000000000000000048e-04,3.592419554288771621e+01,2.800000000000000266e-01
2.980621672999999916e+00,-1.012535224000000067e+00,1.561562555481290152e-02,1.000000000000000048e-04,3.437753947308442548e+01,1.499999999999999944e-01
3.118379398000000080e+00,-1.044341935000000055e+00,6.541269871940992228e-03,1.000000000000000048e-04,3.208884577938562899e+01,3.099999999999999978e-01
3.132904315000000217e+00,-1.046896950999999909e+00,4.930706874825142166e-02,1.000000000000000048e-04,3.666398915450864848e+01,2.200000000000000011e-01
1.248659997999999938e+00,-1.117162079000000086e+00,3.248088371118858231e-02,1.000000000000000048e-04,3.588945383672651701e+01,2.700000000000000178e-01
2.302446713000000145e+00,-1.091359299000000060e+00,1.376953187638315854e-02,1.000000000000000048e-04,3.359802024749820504e+01,2.899999999999999800e-01
3.133486173000000097e+00,-1.061461677999999909e+00,3.201977103031785482e-02,1.000000000000000048e-04,3.567652202367447956e+01,3.099999999999999978e-01
1.251013366000000016e+00,-1.102704651999999896e+00,4.717063234508553360e-02,1.000000000000000048e-04,3.680480009202637603e+01,2.300000000000000100e-01
1.232341668999999973e+00,-1.105349812000000043e+00,1.883767867518216024e-02,1.000000000000000048e-04,3.441476791567781390e+01,2.200000000000000011e-01
2.330538756999999794e+00,-1.086213730999999960e+00,4.667990585406338322e-02,1.000000000000000048e-04,3.618482806362725768e+01,2.300000000000000100e-01
3.104372880000000112e+00,-1.050765708999999992e+00,3.754492748226633675e-02,1.000000000000000048e-04,3.624849450277513796e+01,2.200000000000000011e-01
3.122794933000000217e+00,-1.050942575000000101e+00,1.287062519546031472e-02,1.000000000000000048e-04,3.397807813722519654e+01,2.099999999999999922e-01
3.135928428000000157e+00,-1.044986675000000087e+00,2.666834631616472537e-02,1.000000000000000048e-04,3.557268400084883808e+01,2.300000000000000100e-01
3.135701593999999925e+00,-1.049448040999999998e+00,1.890575581593795587e-02,1.000000000000000048e-04,3.463422877800588395e+01,2.399999999999999911e-01
2.902190216000000156e+00,-1.054666754000000095e+00,4.593282918486347316e-02,1.000000000000000048e-04,3.643202492310850005e+01,2.099999999999999922e-01
1.219278212000000083e+00,-1.102494101000000004e+00,3.236791368406866792e-02,1.000000000000000048e-04,3.562400473824332181e+01,2.399999999999999911e-01
2.314258420999999899e+00,-1.073777474999999981e+00,3.331180940495428316e-02,1.000000000000000048e-04,3.569951443889453913e+01,2.399999999999999911e-01
3.138600745000000192e+00,-1.056209613999999908e+00,4.381237508823876414e-02,1.000000000000000048e-04,3.677319068543361169e+01,2.800000000000000266e-01
2.873014373000000177e+00,-1.047336534999999902e+00,3.504397883345050646e-02,1.000000000000000048e-04,3.579928832320032228e+01,2.000000000000000111e-01
2.890150627000000139e+00,-1.045368942999999939e+00,3.783218766782325826e-02,1.000000000000000048e-04,3.614829746990379533e+01,2.200000000000000011e-01
-3.136513490179586139e+00,-1.038988312000000080e+00,1.524966249059834036e-02,1.000000000000000048e-04,3.441506936909689784e+01,2.800000000000000266e-01
3.120369102000000172e+00,-1.042910143999999928e+00,2.283520435964191478e-02,1.000000000000000048e-04,3.492763084062066525e+01,2.399999999999999911e-01
3.132773262000000170e+00,-1.048570620000000009e+00,3.891315490895495138e-02,1.000000000000000048e-04,3.586751018766288013e+01,2.300000000000000100e-01
3.132934141999999866e+00,-1.046888051000000042e+00,4.745703650307937782e-02,1.000000000000000048e-04,3.647469561413968364e+01,2.200000000000000011e-01
3.134455274000000014e+00,-1.046257098000000108e+00,1.887319218675528876e-02,1.000000000000000048e-04,3.439779645311925549e+01,2.200000000000000011e-01
2.910504301000000016e+00,-1.063930792999999930e+00,6.959041929815409575e-03,1.000000000000000048e-04,3.249955133149573072e+01,2.399999999999999911e-01
2.301930878999999930e+00,-1.084305269999999988e+00,1.198069526193434181e-02,1.000000000000000048e-04,3.356589367984943095e+01,3.099999999999999978e-01
2.314913878000000036e+00,-1.104421796000000011e+00,2.366283349250744572e-02,1.000000000000000048e-04,3.514908420668011502e+01,2.600000000000000089e-01
1.232494258000000009e+00,-1.089556776000000005e+00,3.922871832917893681e-02,1.000000000000000048e-04,3.593768269637034507e+01,3.099999999999999978e-01
-3.138875270179586341e+00,-1.027091259999999950e+00,4.540517251472352134e-02,1.000000000000000048e-04,3.650075982880981940e+01,3.800000000000000044e-01
1.277748142000000087e+00,-1.105660628999999950e+00,1.416021946255392738e-02,1.000000000000000048e-04,3.392554356549866412e+01,2.500000000000000000e-01
2.339694710999999927e+00,-1.083680948999999893e+00,3.027221815656095175e-02,1.000000000000000048e-04,3.604903193515361437e+01,2.300000000000000100e-01
3.085408954000000037e+00,-1.045989441999999991e+00,5.783737847666114984e-03,1.000000000000000048e-04,3.172038461415491994e+01,2.800000000000000266e-01
3.122183823999999941e+00,-1.053540683000000033e+00,1.669405974405480456e-02,1.000000000000000048e-04,3.411417121258345730e+01,3.699999999999999956e-01
1.263417701000000060e+00,-1.099941301000000093e+00,1.190235640793250310e-02,1.000000000000000048e-04,3.346609172767485063e+01,2.200000000000000011e-01
1.238769020999999970e+00,-1.122513239999999968e+00,3.458268229608043448e-02,1.000000000000000048e-04,3.581509646563380755e+01,2.600000000000000089e-01
1.225778744000000087e+00,-1.107856694000000086e+00,3.797358770461643947e-03,1.000000000000000048e-04,3.083121623460244010e+01,2.500000000000000000e-01
2.356185176999999964e+00,-1.090954028000000076e+00,4.192216712290108838e-02,1.000000000000000048e-04,3.615293399949092645e+01,2.700000000000000178e-01
1.231078855000000027e+00,-1.109460918999999990e+00,4.083395545871403021e-02,1.000000000000000048e-04,3.638312759098867133e+01,2.300000000000000100e-01
2.350025410999999842e+00,-1.078254897999999962e+00,4.175322717539362016e-02,1.000000000000000048e-04,3.593059161095144560e+01,2.300000000000000100e-01
2.889344674999999807e+00,-1.054064458000000037e+00,2.054704172023801706e-02,1.000000000000000048e-04,3.475981946545560675e+01,3.200000000000000067e-01
1.260972444000000081e+00,-1.102168519999999985e+00,4.591119026497635092e-02,1.000000000000000048e-04,3.635328603474219022e+01,2.899999999999999800e-01
3.138597202000000141e+00,-1.049455424000000026e+00,3.577194216228491569e-02,1.000000000000000048e-04,3.617517215417603893e+01,2.600000000000000089e-01
1.280173519000000093e+00,-1.106045986000000036e+00,1.482288723647770187e-02,1.000000000000000048e-04,3.411807976430959144e+01,2.899999999999999800e-01
3.140421104000000074e+00,-1.048273016000000002e+00,3.499751585426446460e-02,1.000000000000000048e-04,3.582637521561591143e+01,2.700000000000000178e-01
2.887571490000000018e+00,-1.060290981000000077e+00,1.503694767617374042e-02,1.000000000000000048e-04,3.422756003304393602e+01,2.300000000000000100e-01
3.117377486000000086e+00,-1.048849812999999909e+00,1.044062937647982463e-02,1.000000000000000048e-04,3.297093976085052702e+01,2.800000000000000266e-01
3.139331405000000075e+00,-1.045946368000000071e+00,2.940352751409145565e-02,1.000000000000000048e-04,3.545667244708818799e+01,2.300000000000000100e-01
2.901812189000000153e+00,-1.070407117000000019e+00,9.923604364593371918e-03,1.000000000000000048e-04,3.269697930378880102e+01,2.200000000000000011e-01
2.874698792999999863e+00,-1.069280417999999955e+00,7.804127845922046933e-03,1.000000000000000048e-04,3.227919789872282763e+01,2.200000000000000011e-01
3.126790450000000110e+00,-1.053686536000000062e+00,4.745196699613946772e-02,1.000000000000000048e-04,3.665450522971878655e+01,2.099999999999999922e-01
1.253234667999999941e+00,-1.096167120000000050e+00,4.382279105292723187e-02,1.000000000000000048e-04,3.621821203234974718e+01,2.200000000000000011e-01
1.242189800000000011e+00,-1.095888138000000067e+00,4.287695665904708159e-02,1.000000000000000048e-04,3.631058144198053128e+01,2.899999999999999800e-01
2.358704259000000025e+00,-1.096119858000000002e+00,1.773042493195028241e-02,1.000000000000000048e-04,3.439420771086614081e+01,2.099999999999999922e-01
3.090657074000000115e+00,-1.046905049999999893e+00,1.552975543019301935e-02,1.000000000000000048e-04,3.412137099885624281e+01,2.300000000000000100e-01
2.350320292999999783e+00,-1.077642637000000070e+00,1.395554319758703088e-02,1.000000000000000048e-04,3.391105974369156684e+01,3.300000000000000155e-01
3.120911620999999858e+00,-1.047605429999999949e+00,1.396707205216957820e-02,1.000000000000000048e-04,3.384835321835256394e+01,2.899999999999999800e-01
2.310418793000000193e+00,-1.091478047999999923e+00,2.288174586792049436e-02,1.000000000000000048e-04,3.516685969373965293e+01,3.300000000000000155e-01
2.888242410000000149e+00,-1.055260810999999910e+00,4.100272038311401912e-02,1.000000000000000048e-04,3.647349697664357393e+01,2.999999999999999889e-01
2.313880778000000138e+00,-1.089056457000000089e+00,4.046161699156525932e-02,1.000000000000000048e-04,3.590692254331657551e+01,2.600000000000000089e-01
3.096505394999999883e+00,-1.050897790999999915e+00,4.521420826732650694e-02,1.000000000000000048e-04,3.653659753617919392e+01,3.300000000000000155e-01
1.264206060000000020e+00,-1.108314516000000083e+00,7.076744006576748090e-03,1.000000000000000048e-04,3.269554330562993982e+01,2.500000000000000000e-01
2.317080779999999951e+00,-1.080569537999999996e+00,2.112208661249532701e-02,1.000000000000000048e-04,3.481368470637329438e+01,2.399999999999999911e-01
2.308161032000000112e+00,-1.080284865999999955e+00,8.016140174060777668e-03,1.000000000000000048e-04,3.264582378112687167e+01,3.900000000000000133e-01
1.213089824000000094e+00,-1.095999417000000031e+00,1.957144297493218152e-02,1.000000000000000048e-04,3.420784628369982272e+01,2.700000000000000178e-01
3.095344697999999894e+00,-1.044259242999999948e+00,2.137491462944886636e-02,1.000000000000000048e-04,3.472032219586063206e+01,2.200000000000000011e-01
3.093500166000000107e+00,-1.047656949999999920e+00,1.137488802322945969e-02,1.000000000000000048e-04,3.353564281606509923e+01,2.300000000000000100e-01
2.871266652000000086e+00,-1.064917746999999970e+00,4.319319423618507570e-02,1.000000000000000048e-04,3.649653269813379097e+01,2.500000000000000000e-01
2.872879009000000039e+00,-1.076645507999999918e+00,1.768484037165572731e-02,1.000000000000000048e-04,3.458834498246553579e+01,2.099999999999999922e-01
1.241294699000000001e+00,-1.109043570000000090e+00,4.055436510368201630e-02,1.000000000000000048e-04,3.596880178228119718e+01,2.099999999999999922e-01
1.238788393000000099e+00,-1.083197141000000085e+00,2.039773684151657829e-02,1.000000000000000048e-04,3.436760204864696533e+01,2.999999999999999889e-01
-3.140928712179586135e+00,-1.049943351000000025e+00,3.373983576400880688e-03,1.000000000000000048e-04,3.122113695828066326e+01,2.200000000000000011e-01
2.897074545000000168e+00,-1.050668165000000043e+00,4.995300653255951850e-02,1.000000000000000048e-04,3.631287802866524572e+01,2.099999999999999922e-01
3.133488720999999977e+00,-1.053899826000000095e+00,2.832217029363775715e-02,1.000000000000000048e-04,3.532016808074076408e+01,2.300000000000000100e-01
2.854965548000000020e+00,-1.051119023000000041e+00,2.182712666196013479e-02,1.000000000000000048e-04,3.491611959228225714e+01,3.200000000000000067e-01
2.846666281000000076e+00,-1.061494909000000098e+00,9.688526951819301583e-03,1.000000000000000048e-04,3.302297232387373072e+01,2.600000000000000089e-01
1.477625364000000108e+00,-9.892628350000000070e-01,2.170759510710731921e-02,1.000000000000000048e-04,3.500943743242357442e+01,2.000000000000000111e-01
-2.998301261179586064e+00,-5.567642400000000213e-01,1.946732567176538004e-02,1.000000000000000048e-04,3.468490720413589656e+01,1.799999999999999933e-01
2.915910107000000195e+00,-9.248875840000000403e-01,3.794369413361634719e-02,1.000000000000000048e-04,3.579098520266081351e+01,2.999999999999999889e-01
2.904218159000000021e+00,-9.279150130000000107e-01,1.277086484018425533e-02,1.000000000000000048e-04,3.338152909039247618e+01,2.399999999999999911e-01
2.912492748000000020e+00,-9.378063049999999512e-01,1.555195772571990945e-02,1.000000000000000048e-04,3.416400518169888301e+01,4.600000000000000200e-01
2.945746643000000109e+00,-9.241091030000000428e-01,2.696967961561481247e-02,1.000000000000000048e-04,3.531201961293201208e+01,2.300000000000000100e-01
2.195221751000000054e+00,9.567984520000000215e-01,4.986117794424023419e-02,1.000000000000000048e-04,3.645885827367540344e+01,2.200000000000000011e-01
-2.382074272179586227e+00,-9.504311730000000180e-01,4.942025481457546637e-02,1.000000000000000048e-04,3.635581995270522526e+01,2.300000000000000100e-01
2.197803225999999999e+00,9.560313849999999558e-01,4.250100980715523259e-03,1.000000000000000048e-04,3.129993035130265966e+01,2.300000000000000100e-01
-2.380846050179586282e+00,-9.512843520000000552e-01,1.041663568208203543e-02,1.000000000000000048e-04,3.268320045649414851e+01,2.600000000000000089e-01
-2.382960995179586039e+00,-9.501026420000000527e-01,2.052992153950844098e-02,1.000000000000000048e-04,3.447085915496973030e+01,2.099999999999999922e-01
2.192165822000000208e+00,9.554729659999999791e-01,3.673507790555783498e-02,1.000000000000000048e-04,3.577103955672312452e+01,2.899999999999999800e-01
-2.383512939179586176e+00,-9.505219620000000535e-01,3.678393303672118642e-02,1.000000000000000048e-04,3.627428806984961795e+01,2.000000000000000111e-01
2.197044292000000176e+00,9.582492320000000063e-01,7.245684150957202099e-03,1.000000000000000048e-04,3.227592898504089192e+01,2.500000000000000000e-01
2.198013217999999824e+00,9.570721989999999568e-01,2.862158438381739653e-02,1.000000000000000048e-04,3.564291844871932113e+01,2.099999999999999922e-01
2.198391541999999976e+00,9.561199929999999458e-01,2.604532733008886256e-02,1.000000000000000048e-04,3.482809066425828348e+01,2.300000000000000100e-01
2.199218732999999926e+00,9.570277640000000030e-01,2.506204021816651681e-02,1.000000000000000048e-04,3.512554883702264874e+01,2.200000000000000011e-01
2.196667974999999995e+00,9.569524729999999701e-01,4.176902309762135085e-02,1.000000000000000048e-04,3.650785669843345715e+01,2.399999999999999911e-01
2.196400267000000017e+00,9.571105250000000453e-01,2.023816494766459209e-02,1.000000000000000048e-04,3.475125846445533995e+01,2.500000000000000000e-01
2.195980999000000100e+00,9.563170869999999546e-01,1.099072720654165058e-02,1.000000000000000048e-04,3.309747685470461676e+01,2.200000000000000011e-01
2.198886345000000020e+00,9.574225640000000315e-01,1.696368639982893251e-02,1.000000000000000048e-04,3.444167558547675867e+01,3.300000000000000155e-01
-2.382942164179586264e+00,-9.487821469999999646e-01,3.729437259082225842e-02,1.000000000000000048e-04,3.588801414170151816e+01,2.000000000000000111e-01
2.197058621000000045e+00,9.568337070000000333e-01,1.837186108355186656e-02,1.000000000000000048e-04,3.438861090141514865e+01,2.600000000000000089e-01
2.196754174000000059e+00,9.569828230000000380e-01,1.818165995766127599e-02,1.000000000000000048e-04,3.476320485177113540e+01,2.399999999999999911e-01
-2.381905888179586039e+00,-9.494029419999999719e-01,4.249101461367763011e-02,1.000000000000000048e-04,3.654426255672508006e+01,2.399999999999999911e-01
-2.382353656179586388e+00,-9.501919130000000546e-01,2.501495894457754152e-02,1.000000000000000048e-04,3.495129860525581478e+01,2.600000000000000089e-01
-2.385313647179586383e+00,-9.492824659999999914e-01,3.272704696225497978e-02,1.000000000000000048e-04,3.558529108235795491e+01,2.399999999999999911e-01
-2.383308463179586223e+00,-9.502672559999999491e-01,1.911737237543612369e-02,1.000000000000000048e-04,3.490431569880214369e+01,2.000000000000000111e-01
2.194446376000000143e+00,9.548028840000000184e-01,4.109672616413066054e-02,1.000000000000000048e-04,3.605805683384609495e+01,3.699999999999999956e-01
-2.377678389179586294e+00,-9.493284189999999789e-01,4.376036328260786423e-02,1.000000000000000048e-04,3.597323144757466906e+01,3.099999999999999978e-01
2.195048706000000127e+00,9.553664520000000326e-01,1.095437351105033041e-02,1.000000000000000048e-04,3.354729038710235045e+01,2.399999999999999911e-01
2.194988459000000169e+00,9.569281090000000267e-01,1.823493092049211298e-02,1.000000000000000048e-04,3.497145785815575181e+01,2.099999999999999922e-01
2.198773670000000013e+00,9.585742720000000050e-01,3.275656727372720095e-02,1.000000000000000048e-04,3.586684569631341901e+01,2.800000000000000266e-01
2.196007632000000154e+00,9.574002940000000406e-01,2.781297239240692470e-02,1.000000000000000048e-04,3.556995594252456527e+01,2.800000000000000266e-01
2.193610842000000005e+00,9.569156829999999614e-01,4.470959671952132002e-03,1.000000000000000048e-04,3.134506780014146443e+01,2.099999999999999922e-01
2.194846306000000080e+00,9.574700699999999509e-01,3.081645440112150761e-02,1.000000000000000048e-04,3.559309630268212743e+01,2.300000000000000100e-01
8.096471539999999800e-01,9.894972960000000262e-01,4.110355956274211464e-02,1.000000000000000048e-04,3.567773865858792703e+01,9.499999999999999556e-01
-2.901318991795864832e-01,1.086903570000000041e+00,4.344648134723769900e-02,1.000000000000000048e-04,3.623343782214413977e+01,2.000000000000000111e-01
-2.914486071795865385e-01,1.085909494999999891e+00,3.122674632524695057e-02,1.000000000000000048e-04,3.579817088985870299e+01,1.000000000000000056e-01
-2.954610881795858290e-01,1.084462065999999947e+00,2.271402833758293799e-02,1.000000000000000048e-04,3.494584369987726546e+01,1.199999999999999956e-01
-3.403197011795864313e-01,1.090760651000000081e+00,3.528382488235913550e-02,1.000000000000000048e-04,3.600431947463442128e+01,8.999999999999999667e-02
-3.429455761795860980e-01,1.087892671000000089e+00,3.049083373359851024e-02,1.000000000000000048e-04,3.546601169333332848e+01,1.400000000000000133e-01
6.896152909999999636e-01,-9.249195220000000495e-01,4.808400481072443861e-02,1.000000000000000048e-04,3.684632520940059663e+01,2.000000000000000111e-01
9.689134900000000439e-01,1.175295868000000077e+00,4.462541130718408050e-02,1.000000000000000048e-04,3.689937498270526817e+01,4.500000000000000111e-01
1.024453132999999960e+00,1.182715689999999986e+00,4.002577265511282623e-02,1.000000000000000048e-04,3.614906804918273764e+01,1.900000000000000022e-01
1.006083177000000051e+00,1.165244638999999971e+00,1.127628236520385185e-02,1.000000000000000048e-04,3.348962030152208058e+01,1.700000000000000122e-01
9.905969959999999519e-01,1.153001898999999941e+00,1.262562536656612611e-02,1.000000000000000048e-04,3.371884618892993046e+01,3.499999999999999778e-01
2.950210608999999984e+00,-1.015290931000000008e+00,3.073654283265814247e-02,1.000000000000000048e-04,3.578453819167317818e+01,5.000000000000000000e-01
2.950804928999999799e+00,-1.010655210999999998e+00,1.218728140072054475e-02,1.000000000000000048e-04,3.360636523210800419e+01,1.700000000000000122e-01
2.951637304000000128e+00,-1.010683065999999908e+00,2.191543500281099496e-02,1.000000000000000048e-04,3.464086265189195046e+01,1.900000000000000022e-01
-2.349248843179586377e+00,-9.322901449999999590e-01,4.918212306798089295e-02,1.000000000000000048e-04,3.653530613753758871e+01,1.900000000000000022e-01
