1.794023199870000029e+00,-1.066504575379999986e+00,1.152271616405421556e-01,1.889999999999999862e-05,3.845836817369865912e+01,1.226000000000000006e-01
7.402625042339999739e-01,-3.478394374039999737e-01,9.721336318128349918e-02,5.000000000000000104e-04,3.825418070410101024e+01,1.265000000000000013e-01
2.353709585569999874e+00,-1.080984469609999943e+00,1.209429728326102682e-01,1.609999999999999832e-05,3.875756561309308523e+01,1.386999999999999900e-01
2.802585039039999781e+00,-1.015603153890000110e+00,8.540192057248470470e-02,1.830000000000000097e-05,3.781717163549723892e+01,1.388000000000000067e-01
1.777274800810000110e+00,-1.074644056479999943e+00,8.391664001320560395e-02,1.329999999999999972e-05,3.786806699518551511e+01,1.411999999999999922e-01
2.913516280570000117e+00,-9.707627933700000433e-01,7.273129085040966335e-02,6.900000000000000005e-06,3.751357990149293897e+01,1.700000000000000122e-01
1.085549145259999904e+00,-7.448246486780000231e-01,1.271679249495173691e-01,1.840000000000000001e-05,3.876176437488297211e+01,1.277999999999999969e-01
1.027510266820000018e+00,-6.962213171690000424e-01,7.359983120337122708e-02,1.349999999999999949e-05,3.753158044678144734e+01,1.368999999999999939e-01
1.399970736520000036e+00,-9.625335564200000471e-01,1.269205234531587956e-01,1.980000000000000016e-05,3.862883499547847777e+01,1.358000000000000040e-01
2.570116769140000201e+00,-1.064664255240000079e+00,1.353632718005669533e-01,1.329999999999999972e-05,3.881492629349234136e+01,1.436999999999999944e-01
9.720875361769999445e-01,-6.095229793949999975e-01,1.224660334953694557e-01,1.290000000000000016e-05,3.871644569488161380e+01,1.373000000000000054e-01
1.621246130609999891e+00,-1.030625734150000028e+00,1.110176762937252204e-01,5.000000000000000104e-03,3.855176418387546988e+01,1.584000000000000130e-01
-3.042339658870000019e+00,-7.656767762299999669e-01,8.276003413004871800e-02,5.000000000000000104e-04,3.797822805026932969e+01,1.280999999999999917e-01
1.947272166539999905e+00,-1.101887229609999963e+00,1.298846657122547932e-01,6.999999999999999895e-06,3.902984480783189980e+01,1.270999999999999908e-01
1.341846001540000000e+00,-9.474381739049999585e-01,1.167409585532892813e-01,7.999999999999999638e-06,3.869970580485452416e+01,1.443000000000000116e-01
7.996623925639999575e-01,-4.051612241720000118e-01,8.474486131149369661e-02,1.599999999999999928e-05,3.795394781438756837e+01,1.696000000000000008e-01
8.159396800399999483e-01,-4.608107027469999784e-01,7.269640112014061351e-02,5.000000000000000104e-03,3.778270577732037339e+01,1.826000000000000123e-01
2.125302249619999806e+00,-1.086803689069999912e+00,8.652801479280813890e-02,1.340000000000000045e-05,3.815188123026170786e+01,1.282999999999999974e-01
-3.106068213669999967e+00,-7.694953304789999837e-01,1.246365246302429119e-01,5.000000000000000104e-03,3.882910622208243012e+01,1.608999999999999875e-01
2.841950137700000045e+00,-9.875161071129999746e-01,1.348110541110143501e-01,2.159999999999999987e-05,3.910245201761878775e+01,1.943000000000000005e-01
-3.134999796409999817e+00,-8.037173782269999567e-01,8.193339377035706306e-02,1.419999999999999957e-05,3.793095832196593165e+01,1.270999999999999908e-01
9.671751689580000422e-01,-6.400502010180000312e-01,8.900299258775268285e-02,1.509999999999999942e-05,3.808842482159418097e+01,1.388999999999999957e-01
2.720836001069999899e+00,-9.986845377940000157e-01,9.735081143496282507e-02,1.779999999999999898e-05,3.824997686163646193e+01,1.534999999999999976e-01
8.302812732050000033e-01,-4.498958842110000189e-01,1.289500696181609674e-01,5.000000000000000104e-04,3.886408425525225852e+01,1.365999999999999992e-01
2.647198647480000222e+00,-1.045089967700000066e+00,1.210499478640335996e-01,7.700000000000000816e-06,3.874686013221356973e+01,1.254000000000000115e-01
1.818959325520000059e+00,-1.082495407979999991e+00,7.645789685411966130e-02,2.970000000000000024e-05,3.775079862607934444e+01,1.156999999999999973e-01
1.155317387099999982e+00,-7.915749840529999748e-01,1.309990038922338451e-01,2.159999999999999987e-05,3.879381554217202677e+01,1.307000000000000106e-01
-3.085894853380000136e+00,-7.425671854069999522e-01,1.194865337488627555e-01,5.000000000000000104e-03,3.895095625599836353e+01,1.781999999999999973e-01
1.135128119430000027e+00,-8.234341324370000326e-01,1.203285851281596097e-01,1.540000000000000163e-05,3.896770313445765055e+01,1.270000000000000018e-01
8.771002889440000505e-01,-5.395284705770000411e-01,1.083567838154150254e-01,6.339999999999999607e-05,3.823322531228838983e+01,1.569000000000000117e-01
1.745186286110000040e+00,-1.042342141470000039e+00,1.000900741990723986e-01,5.000000000000000104e-03,3.833659324419696190e+01,1.706999999999999906e-01
2.946531179209999962e+00,-9.604502811189999933e-01,8.574725871974278602e-02,1.079999999999999993e-05,3.796009395014470300e+01,1.285999999999999921e-01
1.166608233690000107e+00,-7.996043302990000212e-01,9.934637727367805204e-02,2.159999999999999987e-05,3.816231334255680707e+01,1.400000000000000133e-01
1.185990132269999942e+00,-8.641372202310000361e-01,9.794161431734130230e-02,1.590000000000000023e-05,3.817757129048329290e+01,1.340000000000000080e-01
-3.115682483410000092e+00,-7.921200688409999469e-01,8.003132468472080874e-02,5.000000000000000104e-04,3.765001867306610706e+01,1.269000000000000128e-01
2.721615272170000210e+00,-1.026974405240000054e+00,1.357742951650299790e-01,1.669999999999999935e-05,3.882911104753895160e+01,1.351999999999999869e-01
2.727804926320000156e+00,-1.024504387349999934e+00,1.270783760306341548e-01,9.399999999999999786e-06,3.872225005638151885e+01,1.759000000000000008e-01
1.426680047809999907e+00,-9.906820955959999564e-01,1.300194646997056558e-01,6.800000000000000116e-06,3.889891418393734313e+01,1.161999999999999977e-01
-3.031490600410000180e+00,-7.521339244750000486e-01,1.293267220667294604e-01,5.000000000000000104e-03,3.889503321135024549e+01,1.552000000000000046e-01
-3.042901330919999925e+00,-7.306456428419999538e-01,1.223935740410585088e-01,5.000000000000000104e-03,3.879622345877140077e+01,1.589000000000000135e-01
8.404722479970000437e-01,-4.623668884409999902e-01,1.127458315800873856e-01,5.000000000000000104e-03,3.873434779938104100e+01,1.965000000000000080e-01
3.100915619489999830e+00,-8.173695768680000473e-01,8.328010550628173192e-02,3.399999999999999973e-05,3.782239881095870260e+01,1.670999999999999985e-01
1.286002955080000065e+00,-9.049919594959999758e-01,7.431361443665664146e-02,5.599999999999999747e-06,3.712137863563490470e+01,2.861000000000000210e-01
1.737660748389999954e+00,-1.062189249350000031e+00,7.261341804128559896e-02,5.000000000000000104e-03,3.759409973789095005e+01,1.638000000000000012e-01
2.095352158109999863e+00,-1.096962326439999913e+00,1.167669858451578641e-01,1.720000000000000134e-05,3.862956305080862052e+01,1.141999999999999960e-01
8.167659532600000105e-01,-4.688205310329999764e-01,1.280568418808927800e-01,3.000000000000000076e-05,3.934107187954658968e+01,1.711999999999999911e-01
2.667802166029999977e+00,-1.012992242439999968e+00,1.086923766590652818e-01,8.199999999999999417e-06,3.864114800838726893e+01,1.376999999999999891e-01
1.009909081290000010e+00,-7.225277238559999482e-01,1.051044846091876150e-01,2.019999999999999972e-05,3.843186816774954195e+01,1.419999999999999873e-01
2.300619155610000188e+00,-1.097223542480000091e+00,9.895895669368451331e-02,5.959999999999999857e-05,3.858891489198926905e+01,1.456999999999999962e-01
1.255215416199999989e+00,-8.574584809030000310e-01,7.940388867401945716e-02,1.900000000000000105e-05,3.795291374215890556e+01,2.167999999999999927e-01
1.911644274089999929e+00,-1.096370223150000101e+00,7.881397958023253492e-02,3.809999999999999775e-05,3.781914170316890988e+01,1.733999999999999986e-01
8.206518518590000255e-01,-3.994206287100000030e-01,9.750153619708246122e-02,2.869999999999999965e-05,3.812086538172702177e+01,1.630999999999999950e-01
9.041604029409999743e-01,-5.889006783089999475e-01,1.311759510748449209e-01,1.020000000000000060e-05,3.891767350817620752e+01,1.348000000000000032e-01
1.415457213080000054e+00,-9.568995503610000508e-01,1.024760349698389666e-01,1.369999999999999927e-05,3.853230878527217129e+01,2.263999999999999901e-01
-3.010963742429999979e+00,-7.220265089699999805e-01,1.255610702323764760e-01,1.709999999999999891e-05,3.884063666910250845e+01,1.378000000000000058e-01
2.101167545840000095e+00,-1.082254349230000079e+00,8.780051162483715199e-02,1.340000000000000045e-05,3.815341674100296387e+01,1.173000000000000015e-01
9.991690961460000242e-01,-7.076684939909999583e-01,1.185432879469092704e-01,1.540000000000000163e-05,3.874493763540485247e+01,1.645000000000000073e-01
1.873057221090000057e+00,-1.090367434140000036e+00,1.134172389162960704e-01,1.399999999999999979e-05,3.874572159296653240e+01,1.307999999999999996e-01
1.857861219069999903e+00,-1.098153534699999989e+00,8.667648425350688024e-02,1.380000000000000001e-05,3.829869205594611259e+01,1.484999999999999931e-01
2.665524588519999849e+00,-1.048996702910000023e+00,7.453330283240967857e-02,2.989999999999999833e-05,3.754512462445475052e+01,1.246000000000000024e-01
2.355154943700000114e+00,-1.097972677060000013e+00,9.305685071114098983e-02,2.199999999999999943e-05,3.803106201169769918e+01,1.806999999999999995e-01
9.795978195679999612e-01,-6.427905315930000363e-01,9.830634280930397595e-02,1.809999999999999950e-05,3.826511600251115652e+01,1.572000000000000064e-01
-3.057869156220000217e+00,-7.350573474220000181e-01,1.118659322203196665e-01,3.470000000000000319e-05,3.841693616362528019e+01,1.242000000000000048e-01
9.920497477990000146e-01,-6.500334753240000207e-01,1.343353031282859822e-01,9.000000000000000228e-06,3.900595946660676816e+01,2.169999999999999984e-01
3.130046329429999830e+00,-8.523119884030000426e-01,9.633424148702064704e-02,1.259999999999999964e-05,3.815356305369913059e+01,1.213000000000000050e-01
2.379028017850000065e+00,-1.072014097799999899e+00,1.090665899202487854e-01,1.049999999999999942e-05,3.866761233932850672e+01,1.262999999999999956e-01
2.357025798630000057e+00,-1.081619083709999929e+00,8.453959093472297737e-02,1.079999999999999993e-05,3.794866997181753021e+01,1.401000000000000023e-01
-2.970667736299999806e+00,-6.774830050879999677e-01,1.373805709485524940e-01,5.000000000000000104e-04,3.885856573039096418e+01,1.595999999999999919e-01
9.081755733340000081e-01,-5.458360787789999780e-01,1.231940196342843630e-01,2.559999999999999884e-05,3.877474241082376238e+01,1.363999999999999935e-01
1.358823888090000098e+00,-9.312103408390000059e-01,1.067136119783940323e-01,5.000000000000000104e-03,3.849994806054341012e+01,1.728999999999999981e-01
2.298395117170000113e+00,-1.078031132260000025e+00,1.169248233770988632e-01,1.439999999999999935e-05,3.888370239293275432e+01,1.371999999999999886e-01
-3.070442777129999801e+00,-7.549988654300000546e-01,9.626602608965184604e-02,1.349999999999999949e-05,3.826579984066748352e+01,1.471000000000000085e-01
1.477099177229999949e+00,-1.010621637769999914e+00,9.910299319585226530e-02,2.339999999999999958e-05,3.803586397951514186e+01,1.431999999999999940e-01
8.741869070719999746e-01,-5.017862068989999980e-01,1.138371920584295427e-01,5.000000000000000104e-04,3.842656662253519784e+01,1.423000000000000098e-01
2.330225988860000097e+00,-1.085528504420000040e+00,9.775998303619277963e-02,9.500000000000000523e-06,3.864126164557495002e+01,1.476000000000000090e-01
7.436354871750000539e-01,-3.504138256459999878e-01,8.358492380467452687e-02,5.000000000000000104e-04,3.805273291274250624e+01,1.774999999999999911e-01
1.427162433049999901e+00,-9.612825434239999911e-01,1.287529260851714430e-01,2.180000000000000134e-05,3.880727672161313535e+01,1.255999999999999894e-01
9.044026198019999851e-01,-5.322096512109999455e-01,1.302614607796555579e-01,5.000000000000000104e-03,3.878325154498891436e+01,1.680000000000000104e-01
8.455056588670000206e-01,-5.142817755869999452e-01,1.176968142182894805e-01,1.349999999999999949e-05,3.864331669432209537e+01,1.323000000000000009e-01
1.205649471110000093e+00,-8.710924191309999953e-01,7.966976770791427132e-02,5.000000000000000104e-04,3.781668692937655862e+01,1.277000000000000079e-01
1.943996264309999944e+00,-1.074116518739999915e+00,1.290140644286565386e-01,1.430000000000000031e-05,3.881614616826642816e+01,1.484000000000000041e-01
3.097793320910000148e+00,-8.262323889349999506e-01,1.302088676067084672e-01,2.069999999999999832e-05,3.905903130189265227e+01,1.265999999999999903e-01
1.039784177770000095e+00,-7.522941733079999693e-01,8.965511278233342929e-02,3.820000000000000018e-05,3.812323625747110611e+01,1.250999999999999890e-01
2.184902241780000143e+00,-1.103811874810000093e+00,8.899357500237310703e-02,2.209999999999999847e-05,3.798755610298898233e+01,1.250000000000000000e-01
1.466494425010000047e+00,-9.700494030970000514e-01,1.047890656830935685e-01,2.349999999999999862e-05,3.824560151211586145e+01,1.444999999999999896e-01
7.947229055519999807e-01,-4.173956512609999780e-01,1.023739275085872175e-01,1.450000000000000009e-05,3.829846307984192322e+01,1.716000000000000025e-01
1.108604996610000004e+00,-7.642787783910000021e-01,7.853257637312729966e-02,5.200000000000000188e-06,3.779918336854731109e+01,1.686999999999999889e-01
2.082009968799999999e+00,-1.113896128449999967e+00,8.576747771863613146e-02,1.049999999999999942e-05,3.797938743103109971e+01,1.280999999999999917e-01
1.869326667860000013e+00,-1.083687296129999922e+00,1.146611838002025152e-01,2.129999999999999935e-05,3.846634690832541992e+01,1.824000000000000066e-01
1.393367858249999980e+00,-9.489811826320000421e-01,7.802748232096595737e-02,2.619999999999999987e-05,3.773762388471054408e+01,1.252999999999999947e-01
1.078385828560000093e+00,-7.403871388199999570e-01,8.550672031776808402e-02,2.099999999999999884e-05,3.791756328824367728e+01,1.232000000000000040e-01
1.814520130830000078e+00,-1.075429706089999993e+00,1.134963651934480511e-01,1.590000000000000023e-05,3.879915851387871584e+01,4.264000000000000012e-01
1.011862774459999947e+00,-6.888224621940000070e-01,1.112720067026951032e-01,2.680000000000000090e-05,3.854973558751628104e+01,1.262999999999999956e-01
8.544698483829999969e-01,-5.015490967350000329e-01,1.101614313894878489e-01,5.000000000000000104e-03,3.838194313812015679e+01,1.559999999999999998e-01
1.018549290619999992e+00,-7.028238768519999846e-01,7.956128993378407122e-02,8.800000000000000449e-06,3.764947253946455419e+01,1.323000000000000009e-01
1.623787387219999934e+00,-1.054606196469999979e+00,7.368909186908588482e-02,1.809999999999999950e-05,3.798156265042305080e+01,1.325000000000000067e-01
-3.049611868680000004e+00,-7.649298403180000427e-01,1.073617220607564482e-01,8.800000000000000449e-06,3.844983547241099586e+01,1.373999999999999944e-01
9.325682391520000447e-01,-6.045088198550000458e-01,1.001133299639810070e-01,6.700000000000000226e-06,3.833226519239401853e+01,1.852000000000000035e-01
1.143614002939999930e+00,-7.961324350570000430e-01,9.466572197588915549e-02,1.679999999999999839e-05,3.805598365446272879e+01,1.247000000000000053e-01
1.194021646369999967e+00,-8.723073439849999833e-01,7.217235783428990747e-02,7.900000000000000595e-06,3.771873018980081582e+01,1.376999999999999891e-01
2.197122871779999986e+00,-1.118233355919999950e+00,7.731771487949573585e-02,1.079999999999999993e-05,3.807998115974744024e+01,1.489999999999999936e-01
1.184121655390000027e+00,-8.242287254719999900e-01,1.319123506376615185e-01,2.229999999999999994e-05,3.917206624867720421e+01,1.338999999999999913e-01
1.089700901779999898e+00,-7.536230516480000308e-01,9.252065776341614201e-02,1.580000000000000119e-05,3.825561771460449734e+01,1.474000000000000032e-01
