1.794023199870000029e+00,-1.066504575379999986e+00,1.109242079050575536e-01,1.889999999999999862e-05,3.863457094501690392e+01,1.226000000000000006e-01
7.402625042339999739e-01,-3.478394374039999737e-01,1.014016873574815208e-01,5.000000000000000104e-04,3.844505067797003761e+01,1.265000000000000013e-01
2.353709585569999874e+00,-1.080984469609999943e+00,1.120332703263381829e-01,1.609999999999999832e-05,3.863089921145869710e+01,1.386999999999999900e-01
2.802585039039999781e+00,-1.015603153890000110e+00,6.379535824824118795e-02,1.830000000000000097e-05,3.731401458604779720e+01,1.388000000000000067e-01
1.777274800810000110e+00,-1.074644056479999943e+00,1.093462234734663002e-01,1.329999999999999972e-05,3.853945280434297871e+01,1.411999999999999922e-01
2.913516280570000117e+00,-9.707627933700000433e-01,1.330516976790867001e-01,6.900000000000000005e-06,3.877653056674327559e+01,1.700000000000000122e-01
1.085549145259999904e+00,-7.448246486780000231e-01,1.277948717459198580e-01,1.840000000000000001e-05,3.919435025121752858e+01,1.277999999999999969e-01
1.027510266820000018e+00,-6.962213171690000424e-01,1.425084662651931733e-01,1.349999999999999949e-05,3.911936957676745408e+01,1.368999999999999939e-01
1.399970736520000036e+00,-9.625335564200000471e-01,1.154985013601296101e-01,1.980000000000000016e-05,3.872108522098091044e+01,1.358000000000000040e-01
2.570116769140000201e+00,-1.064664255240000079e+00,1.319844308051434656e-01,1.329999999999999972e-05,3.897025131187884739e+01,1.436999999999999944e-01
9.720875361769999445e-01,-6.095229793949999975e-01,1.246606430365710255e-01,1.290000000000000016e-05,3.872067027341228140e+01,1.373000000000000054e-01
1.621246130609999891e+00,-1.030625734150000028e+00,1.333861578100246914e-01,5.000000000000000104e-03,3.890791529374119051e+01,1.584000000000000130e-01
-3.042339658870000019e+00,-7.656767762299999669e-01,1.184624213180633379e-01,5.000000000000000104e-04,3.865599198843808182e+01,1.280999999999999917e-01
1.947272166539999905e+00,-1.101887229609999963e+00,1.196133451101157735e-01,6.999999999999999895e-06,3.859753665950650969e+01,1.270999999999999908e-01
1.341846001540000000e+00,-9.474381739049999585e-01,1.283524603528291008e-01,7.999999999999999638e-06,3.878150670068552586e+01,1.443000000000000116e-01
7.996623925639999575e-01,-4.051612241720000118e-01,5.485872999919314680e-02,1.599999999999999928e-05,3.686555788518285226e+01,1.696000000000000008e-01
8.159396800399999483e-01,-4.608107027469999784e-01,1.142082975196637845e-01,5.000000000000000104e-03,3.871738091820088101e+01,1.826000000000000123e-01
2.125302249619999806e+00,-1.086803689069999912e+00,5.453288303868140258e-02,1.340000000000000045e-05,3.713645641482429482e+01,1.282999999999999974e-01
-3.106068213669999967e+00,-7.694953304789999837e-01,6.009837963458589116e-02,5.000000000000000104e-03,3.684621018534019754e+01,1.608999999999999875e-01
2.841950137700000045e+00,-9.875161071129999746e-01,1.432341916278553895e-01,2.159999999999999987e-05,3.935637774951553780e+01,1.943000000000000005e-01
-3.134999796409999817e+00,-8.037173782269999567e-01,1.325454158041160790e-01,1.419999999999999957e-05,3.904975474039773076e+01,1.270999999999999908e-01
9.671751689580000422e-01,-6.400502010180000312e-01,1.369895724374783630e-01,1.509999999999999942e-05,3.910060491366651547e+01,1.388999999999999957e-01
2.720836001069999899e+00,-9.986845377940000157e-01,1.377500460825309692e-01,1.779999999999999898e-05,3.910351046054443458e+01,1.534999999999999976e-01
8.302812732050000033e-01,-4.498958842110000189e-01,8.147845374857511092e-02,5.000000000000000104e-04,3.767768311365814782e+01,1.365999999999999992e-01
2.647198647480000222e+00,-1.045089967700000066e+00,1.356136311269317274e-01,7.700000000000000816e-06,3.904789263920339693e+01,1.254000000000000115e-01
1.818959325520000059e+00,-1.082495407979999991e+00,1.328825546442841954e-01,2.970000000000000024e-05,3.929910284895485972e+01,1.156999999999999973e-01
1.155317387099999982e+00,-7.915749840529999748e-01,5.872309838670666804e-02,2.159999999999999987e-05,3.701172544304859002e+01,1.307000000000000106e-01
-3.085894853380000136e+00,-7.425671854069999522e-01,5.688835845659458157e-02,5.000000000000000104e-03,3.672109675993841194e+01,1.781999999999999973e-01
1.135128119430000027e+00,-8.234341324370000326e-01,7.121198766149339221e-02,1.540000000000000163e-05,3.748431538163453780e+01,1.270000000000000018e-01
8.771002889440000505e-01,-5.395284705770000411e-01,1.371459525102912691e-01,6.339999999999999607e-05,3.922395332135551627e+01,1.569000000000000117e-01
1.745186286110000040e+00,-1.042342141470000039e+00,1.031342226822189734e-01,5.000000000000000104e-03,3.837614621696445738e+01,1.706999999999999906e-01
2.946531179209999962e+00,-9.604502811189999933e-01,1.149617952994619330e-01,1.079999999999999993e-05,3.856177710767366307e+01,1.285999999999999921e-01
1.166608233690000107e+00,-7.996043302990000212e-01,1.267555428254222016e-01,2.159999999999999987e-05,3.865931717157643277e+01,1.400000000000000133e-01
1.185990132269999942e+00,-8.641372202310000361e-01,4.837653139387936008e-02,1.590000000000000023e-05,3.648399210133494819e+01,1.340000000000000080e-01
-3.115682483410000092e+00,-7.921200688409999469e-01,1.373606029939640205e-01,5.000000000000000104e-04,3.905617558071786277e+01,1.269000000000000128e-01
2.721615272170000210e+00,-1.026974405240000054e+00,8.604500863519295994e-02,1.669999999999999935e-05,3.780215575626073132e+01,1.351999999999999869e-01
2.727804926320000156e+00,-1.024504387349999934e+00,1.401786585665869833e-01,9.399999999999999786e-06,3.902812302539152256e+01,1.759000000000000008e-01
1.426680047809999907e+00,-9.906820955959999564e-01,1.246555749985029243e-01,6.800000000000000116e-06,3.885480312878821252e+01,1.161999999999999977e-01
-3.031490600410000180e+00,-7.521339244750000486e-01,1.137961170633386004e-01,5.000000000000000104e-03,3.867642485874924319e+01,1.552000000000000046e-01
-3.042901330919999925e+00,-7.306456428419999538e-01,1.086722918956085360e-01,5.000000000000000104e-03,3.865672415434425346e+01,1.589000000000000135e-01
8.404722479970000437e-01,-4.623668884409999902e-01,1.172763614104573304e-01,5.000000000000000104e-03,3.855427593087683391e+01,1.965000000000000080e-01
3.100915619489999830e+00,-8.173695768680000473e-01,1.262060011352859057e-01,3.399999999999999973e-05,3.866542962727994137e+01,1.670999999999999985e-01
1.286002955080000065e+00,-9.049919594959999758e-01,9.443607032036324678e-02,5.599999999999999747e-06,3.750167559710732235e+01,2.861000000000000210e-01
1.737660748389999954e+00,-1.062189249350000031e+00,1.033683363825380341e-01,5.000000000000000104e-03,3.850226005899302351e+01,1.638000000000000012e-01
2.095352158109999863e+00,-1.096962326439999913e+00,1.369402432618604948e-01,1.720000000000000134e-05,3.920136767491317897e+01,1.141999999999999960e-01
8.167659532600000105e-01,-4.688205310329999764e-01,1.107763226484036606e-01,3.000000000000000076e-05,3.852800562713437671e+01,1.711999999999999911e-01
2.667802166029999977e+00,-1.012992242439999968e+00,1.274757460810394538e-01,8.199999999999999417e-06,3.890637689285436096e+01,1.376999999999999891e-01
1.009909081290000010e+00,-7.225277238559999482e-01,9.961838529987862567e-02,2.019999999999999972e-05,3.808908510730843489e+01,1.419999999999999873e-01
2.300619155610000188e+00,-1.097223542480000091e+00,1.152718509276935421e-01,5.959999999999999857e-05,3.887174539081672719e+01,1.456999999999999962e-01
1.255215416199999989e+00,-8.574584809030000310e-01,9.823617686232993806e-02,1.900000000000000105e-05,3.814907114106006958e+01,2.167999999999999927e-01
1.911644274089999929e+00,-1.096370223150000101e+00,1.205331804122032613e-01,3.809999999999999775e-05,3.850903330520689849e+01,1.733999999999999986e-01
8.206518518590000255e-01,-3.994206287100000030e-01,1.116834695516916720e-01,2.869999999999999965e-05,3.843114674600897729e+01,1.630999999999999950e-01
9.041604029409999743e-01,-5.889006783089999475e-01,1.028661955150434321e-01,1.020000000000000060e-05,3.837217966408466197e+01,1.348000000000000032e-01
1.415457213080000054e+00,-9.568995503610000508e-01,4.515688192772299853e-02,1.369999999999999927e-05,3.655028514069429946e+01,2.263999999999999901e-01
-3.010963742429999979e+00,-7.220265089699999805e-01,9.558916698660178957e-02,1.709999999999999891e-05,3.833089870889760675e+01,1.378000000000000058e-01
2.101167545840000095e+00,-1.082254349230000079e+00,8.379716911428262971e-02,1.340000000000000045e-05,3.785235002353963552e+01,1.173000000000000015e-01
9.991690961460000242e-01,-7.076684939909999583e-01,1.161882424843216355e-01,1.540000000000000163e-05,3.847487848577816294e+01,1.645000000000000073e-01
1.873057221090000057e+00,-1.090367434140000036e+00,1.428682080316928393e-01,1.399999999999999979e-05,3.905596018299176109e+01,1.307999999999999996e-01
1.857861219069999903e+00,-1.098153534699999989e+00,1.336482964308801646e-01,1.380000000000000001e-05,3.921517242929065361e+01,1.484999999999999931e-01
2.665524588519999849e+00,-1.048996702910000023e+00,1.039076356128637441e-01,2.989999999999999833e-05,3.859243828459747050e+01,1.246000000000000024e-01
2.355154943700000114e+00,-1.097972677060000013e+00,1.085598513149317879e-01,2.199999999999999943e-05,3.863692404796906743e+01,1.806999999999999995e-01
9.795978195679999612e-01,-6.427905315930000363e-01,1.232567486426359299e-01,1.809999999999999950e-05,3.890409237976259504e+01,1.572000000000000064e-01
-3.057869156220000217e+00,-7.350573474220000181e-01,9.600039954241761098e-02,3.470000000000000319e-05,3.830234106197746513e+01,1.242000000000000048e-01
9.920497477990000146e-01,-6.500334753240000207e-01,1.282543637952306970e-01,9.000000000000000228e-06,3.872972287172840566e+01,2.169999999999999984e-01
3.130046329429999830e+00,-8.523119884030000426e-01,1.274465760553379345e-01,1.259999999999999964e-05,3.878627318177139216e+01,1.213000000000000050e-01
2.379028017850000065e+00,-1.072014097799999899e+00,1.198978847205099535e-01,1.049999999999999942e-05,3.892475146400362007e+01,1.262999999999999956e-01
2.357025798630000057e+00,-1.081619083709999929e+00,1.170573454893931303e-01,1.079999999999999993e-05,3.892022992396741188e+01,1.401000000000000023e-01
-2.970667736299999806e+00,-6.774830050879999677e-01,1.253138605118457316e-01,5.000000000000000104e-04,3.911909214085234510e+01,1.595999999999999919e-01
9.081755733340000081e-01,-5.458360787789999780e-01,1.211675742756467833e-01,2.559999999999999884e-05,3.887824129539084339e+01,1.363999999999999935e-01
1.358823888090000098e+00,-9.312103408390000059e-01,8.760319846523623166e-02,5.000000000000000104e-03,3.783212347927126729e+01,1.728999999999999981e-01
2.298395117170000113e+00,-1.078031132260000025e+00,1.060425591781245652e-01,1.439999999999999935e-05,3.831420530404778191e+01,1.371999999999999886e-01
-3.070442777129999801e+00,-7.549988654300000546e-01,1.415438025288058843e-01,1.349999999999999949e-05,3.916490622564339930e+01,1.471000000000000085e-01
1.477099177229999949e+00,-1.010621637769999914e+00,8.892240766171280453e-02,2.339999999999999958e-05,3.785655929256892449e+01,1.431999999999999940e-01
8.741869070719999746e-01,-5.017862068989999980e-01,1.202561923862629223e-01,5.000000000000000104e-04,3.864277901845952812e+01,1.423000000000000098e-01
2.330225988860000097e+00,-1.085528504420000040e+00,6.694322209097222642e-02,9.500000000000000523e-06,3.714067598967720585e+01,1.476000000000000090e-01
7.436354871750000539e-01,-3.504138256459999878e-01,1.292061956975693315e-01,5.000000000000000104e-04,3.931216303830009906e+01,1.774999999999999911e-01
1.427162433049999901e+00,-9.612825434239999911e-01,9.873422816194678264e-02,2.180000000000000134e-05,3.824639389002277312e+01,1.255999999999999894e-01
9.044026198019999851e-01,-5.322096512109999455e-01,1.346248020217400976e-01,5.000000000000000104e-03,3.909536300492118244e+01,1.680000000000000104e-01
8.455056588670000206e-01,-5.142817755869999452e-01,1.065330600027492164e-01,1.349999999999999949e-05,3.863090058378266178e+01,1.323000000000000009e-01
1.205649471110000093e+00,-8.710924191309999953e-01,7.409653467705351604e-02,5.000000000000000104e-04,3.768357709569137626e+01,1.277000000000000079e-01
1.943996264309999944e+00,-1.074116518739999915e+00,1.325783796902546552e-01,1.430000000000000031e-05,3.909712976650693861e+01,1.484000000000000041e-01
3.097793320910000148e+00,-8.262323889349999506e-01,1.030085375778466983e-01,2.069999999999999832e-05,3.862413363798266630e+01,1.265999999999999903e-01
1.039784177770000095e+00,-7.522941733079999693e-01,1.269222344956140447e-01,3.820000000000000018e-05,3.893046190800771456e+01,1.250999999999999890e-01
2.184902241780000143e+00,-1.103811874810000093e+00,9.873287185288273649e-02,2.209999999999999847e-05,3.833515501766585487e+01,1.250000000000000000e-01
1.466494425010000047e+00,-9.700494030970000514e-01,1.370237297861094106e-01,2.349999999999999862e-05,3.903537734823230210e+01,1.444999999999999896e-01
7.947229055519999807e-01,-4.173956512609999780e-01,1.345598792476165873e-01,1.450000000000000009e-05,3.876930128038809897e+01,1.716000000000000025e-01
1.108604996610000004e+00,-7.642787783910000021e-01,1.309196065108836349e-01,5.200000000000000188e-06,3.910577025931642936e+01,1.686999999999999889e-01
2.082009968799999999e+00,-1.113896128449999967e+00,5.248915421592277586e-02,1.049999999999999942e-05,3.691462111094127607e+01,1.280999999999999917e-01
1.869326667860000013e+00,-1.083687296129999922e+00,1.338171966252371670e-01,2.129999999999999935e-05,3.875746317318738221e+01,1.824000000000000066e-01
1.393367858249999980e+00,-9.489811826320000421e-01,6.179290641727817196e-02,2.619999999999999987e-05,3.723115935318679703e+01,1.252999999999999947e-01
1.078385828560000093e+00,-7.403871388199999570e-01,1.219601563096746055e-01,2.099999999999999884e-05,3.852166765194395737e+01,1.232000000000000040e-01
1.814520130830000078e+00,-1.075429706089999993e+00,8.337530882612437244e-02,1.590000000000000023e-05,3.769762601066567953e+01,4.264000000000000012e-01
1.011862774459999947e+00,-6.888224621940000070e-01,1.268696265554989933e-01,2.680000000000000090e-05,3.897385376265130930e+01,1.262999999999999956e-01
8.544698483829999969e-01,-5.015490967350000329e-01,1.086540013676466632e-01,5.000000000000000104e-03,3.843673776320833468e+01,1.559999999999999998e-01
1.018549290619999992e+00,-7.028238768519999846e-01,9.674995446847478586e-02,8.800000000000000449e-06,3.819095483889881848e+01,1.323000000000000009e-01
1.623787387219999934e+00,-1.054606196469999979e+00,1.383369108539260484e-01,1.809999999999999950e-05,3.922371184956663370e+01,1.325000000000000067e-01
-3.049611868680000004e+00,-7.649298403180000427e-01,1.340310939616203845e-01,8.800000000000000449e-06,3.902126904565391641e+01,1.373999999999999944e-01
9.325682391520000447e-01,-6.045088198550000458e-01,1.010544538779372253e-01,6.700000000000000226e-06,3.835084136561563639e+01,1.852000000000000035e-01
1.143614002939999930e+00,-7.961324350570000430e-01,1.323948248032479347e-01,1.679999999999999839e-05,3.898156456699699390e+01,1.247000000000000053e-01
1.194021646369999967e+00,-8.723073439849999833e-01,7.903839192981088058e-02,7.900000000000000595e-06,3.794717615521348364e+01,1.376999999999999891e-01
2.197122871779999986e+00,-1.118233355919999950e+00,9.872039385652550680e-02,1.079999999999999993e-05,3.857720379122715570e+01,1.489999999999999936e-01
1.184121655390000027e+00,-8.242287254719999900e-01,9.244001273229800197e-02,2.229999999999999994e-05,3.824224627016597822e+01,1.338999999999999913e-01
1.089700901779999898e+00,-7.536230516480000308e-01,9.260838206291702179e-02,1.580000000000000119e-05,3.810324468937534448e+01,1.474000000000000032e-01
