1.794023199870000029e+00,-1.066504575379999986e+00,8.220310801376673471e-02,1.889999999999999862e-05,3.771529801345802468e+01,1.226000000000000006e-01
7.402625042339999739e-01,-3.478394374039999737e-01,1.115037824013882239e-01,5.000000000000000104e-04,3.851654071120341172e+01,1.265000000000000013e-01
2.353709585569999874e+00,-1.080984469609999943e+00,7.233071747647334959e-02,1.609999999999999832e-05,3.744100469976110901e+01,1.386999999999999900e-01
2.802585039039999781e+00,-1.015603153890000110e+00,1.286331594139414058e-01,1.830000000000000097e-05,3.900560912182105255e+01,1.388000000000000067e-01
1.777274800810000110e+00,-1.074644056479999943e+00,1.332575328176001661e-01,1.329999999999999972e-05,3.904355335633734114e+01,1.411999999999999922e-01
2.913516280570000117e+00,-9.707627933700000433e-01,8.160448008426370026e-02,6.900000000000000005e-06,3.789198887420249662e+01,1.700000000000000122e-01
1.085549145259999904e+00,-7.448246486780000231e-01,9.783864681330431412e-02,1.840000000000000001e-05,3.822777019294250067e+01,1.277999999999999969e-01
1.027510266820000018e+00,-6.962213171690000424e-01,8.807791506185240482e-02,1.349999999999999949e-05,3.791630732251809377e+01,1.368999999999999939e-01
1.399970736520000036e+00,-9.625335564200000471e-01,1.019672798962343307e-01,1.980000000000000016e-05,3.842456017806916435e+01,1.358000000000000040e-01
2.570116769140000201e+00,-1.064664255240000079e+00,1.310488646523012557e-01,1.329999999999999972e-05,3.879042732418037787e+01,1.436999999999999944e-01
9.720875361769999445e-01,-6.095229793949999975e-01,7.910797082340267905e-02,1.290000000000000016e-05,3.751007136146208865e+01,1.373000000000000054e-01
1.621246130609999891e+00,-1.030625734150000028e+00,1.059410316639211036e-01,5.000000000000000104e-03,3.867205548123574488e+01,1.584000000000000130e-01
-3.042339658870000019e+00,-7.656767762299999669e-01,1.374388794682528392e-01,5.000000000000000104e-04,3.896539360294175935e+01,1.280999999999999917e-01
1.947272166539999905e+00,-1.101887229609999963e+00,1.125866904468762197e-01,6.999999999999999895e-06,3.866524462571998555e+01,1.270999999999999908e-01
1.341846001540000000e+00,-9.474381739049999585e-01,8.978840612456658044e-02,7.999999999999999638e-06,3.795422626189825621e+01,1.443000000000000116e-01
7.996623925639999575e-01,-4.051612241720000118e-01,8.980149054790233232e-02,1.599999999999999928e-05,3.797896865358939777e+01,1.696000000000000008e-01
8.159396800399999483e-01,-4.608107027469999784e-01,9.029393039156546896e-02,5.000000000000000104e-03,3.807680229179707254e+01,1.826000000000000123e-01
2.125302249619999806e+00,-1.086803689069999912e+00,1.217506134966074849e-01,1.340000000000000045e-05,3.888658805643338212e+01,1.282999999999999974e-01
-3.106068213669999967e+00,-7.694953304789999837e-01,1.000152913078177358e-01,5.000000000000000104e-03,3.833767414947394769e+01,1.608999999999999875e-01
2.841950137700000045e+00,-9.875161071129999746e-01,1.249943590617789146e-01,2.159999999999999987e-05,3.868468634925375227e+01,1.943000000000000005e-01
-3.134999796409999817e+00,-8.037173782269999567e-01,1.190824318806713578e-01,1.419999999999999957e-05,3.889521876705822478e+01,1.270999999999999908e-01
9.671751689580000422e-01,-6.400502010180000312e-01,9.057741984142883562e-02,1.509999999999999942e-05,3.805744546961742714e+01,1.388999999999999957e-01
2.720836001069999899e+00,-9.986845377940000157e-01,1.001747569357846757e-01,1.779999999999999898e-05,3.825887921718209839e+01,1.534999999999999976e-01
8.302812732050000033e-01,-4.498958842110000189e-01,1.002785855248227442e-01,5.000000000000000104e-04,3.813079212928001027e+01,1.365999999999999992e-01
2.647198647480000222e+00,-1.045089967700000066e+00,9.186992834336507596e-02,7.700000000000000816e-06,3.782450087924656401e+01,1.254000000000000115e-01
1.818959325520000059e+00,-1.082495407979999991e+00,9.742014199605786295e-02,2.970000000000000024e-05,3.824702468729619653e+01,1.156999999999999973e-01
1.155317387099999982e+00,-7.915749840529999748e-01,1.103173467100850846e-01,2.159999999999999987e-05,3.863339861814013432e+01,1.307000000000000106e-01
-3.085894853380000136e+00,-7.425671854069999522e-01,1.135995019514550453e-01,5.000000000000000104e-03,3.842383653304388957e+01,1.781999999999999973e-01
1.135128119430000027e+00,-8.234341324370000326e-01,1.003237816413127259e-01,1.540000000000000163e-05,3.830595566622571368e+01,1.270000000000000018e-01
8.771002889440000505e-01,-5.395284705770000411e-01,1.025110349099629808e-01,6.339999999999999607e-05,3.853116433101556737e+01,1.569000000000000117e-01
1.745186286110000040e+00,-1.042342141470000039e+00,9.510845666053099889e-02,5.000000000000000104e-03,3.824463959884346309e+01,1.706999999999999906e-01
2.946531179209999962e+00,-9.604502811189999933e-01,1.176299721662005388e-01,1.079999999999999993e-05,3.872730261839783594e+01,1.285999999999999921e-01
1.166608233690000107e+00,-7.996043302990000212e-01,1.330287217255718135e-01,2.159999999999999987e-05,3.885256425036160977e+01,1.400000000000000133e-01
1.185990132269999942e+00,-8.641372202310000361e-01,1.223027241971803014e-01,1.590000000000000023e-05,3.883820260330179508e+01,1.340000000000000080e-01
-3.115682483410000092e+00,-7.921200688409999469e-01,1.074308853721154672e-01,5.000000000000000104e-04,3.838456896890976111e+01,1.269000000000000128e-01
2.721615272170000210e+00,-1.026974405240000054e+00,1.075450856894825113e-01,1.669999999999999935e-05,3.854363062541867180e+01,1.351999999999999869e-01
2.727804926320000156e+00,-1.024504387349999934e+00,1.287711770879755857e-01,9.399999999999999786e-06,3.876638114374537025e+01,1.759000000000000008e-01
1.426680047809999907e+00,-9.906820955959999564e-01,7.842974284892623160e-02,6.800000000000000116e-06,3.777474890543405905e+01,1.161999999999999977e-01
-3.031490600410000180e+00,-7.521339244750000486e-01,9.225379247425145868e-02,5.000000000000000104e-03,3.822601352566896793e+01,1.552000000000000046e-01
-3.042901330919999925e+00,-7.306456428419999538e-01,1.107157567391998387e-01,5.000000000000000104e-03,3.856244713878098906e+01,1.589000000000000135e-01
8.404722479970000437e-01,-4.623668884409999902e-01,1.230149374395925060e-01,5.000000000000000104e-03,3.889848290375412887e+01,1.965000000000000080e-01
3.100915619489999830e+00,-8.173695768680000473e-01,1.166509949951650693e-01,3.399999999999999973e-05,3.879359441546982623e+01,1.670999999999999985e-01
1.286002955080000065e+00,-9.049919594959999758e-01,8.192556861239563837e-02,5.599999999999999747e-06,3.793769187852633706e+01,2.861000000000000210e-01
1.737660748389999954e+00,-1.062189249350000031e+00,9.319997958593420617e-02,5.000000000000000104e-03,3.800980029475653055e+01,1.638000000000000012e-01
2.095352158109999863e+00,-1.096962326439999913e+00,9.849126209620533146e-02,1.720000000000000134e-05,3.816274044182421932e+01,1.141999999999999960e-01
8.167659532600000105e-01,-4.688205310329999764e-01,1.321532540288027913e-01,3.000000000000000076e-05,3.888459069294682280e+01,1.711999999999999911e-01
2.667802166029999977e+00,-1.012992242439999968e+00,1.171548013049935055e-01,8.199999999999999417e-06,3.870956241129002251e+01,1.376999999999999891e-01
1.009909081290000010e+00,-7.225277238559999482e-01,1.135002831029822967e-01,2.019999999999999972e-05,3.864666749530141487e+01,1.419999999999999873e-01
2.300619155610000188e+00,-1.097223542480000091e+00,7.466547099735640347e-02,5.959999999999999857e-05,3.748187784609169171e+01,1.456999999999999962e-01
1.255215416199999989e+00,-8.574584809030000310e-01,1.188627552257535969e-01,1.900000000000000105e-05,3.887746660885273542e+01,2.167999999999999927e-01
1.911644274089999929e+00,-1.096370223150000101e+00,1.050293638561448500e-01,3.809999999999999775e-05,3.798385415210393745e+01,1.733999999999999986e-01
8.206518518590000255e-01,-3.994206287100000030e-01,1.346245990857947161e-01,2.869999999999999965e-05,3.906828929667141637e+01,1.630999999999999950e-01
9.041604029409999743e-01,-5.889006783089999475e-01,8.621537953737540283e-02,1.020000000000000060e-05,3.815772140585114158e+01,1.348000000000000032e-01
1.415457213080000054e+00,-9.568995503610000508e-01,1.063879638861536803e-01,1.369999999999999927e-05,3.855093041827763756e+01,2.263999999999999901e-01
-3.010963742429999979e+00,-7.220265089699999805e-01,7.587850396132932163e-02,1.709999999999999891e-05,3.773759848070404388e+01,1.378000000000000058e-01
2.101167545840000095e+00,-1.082254349230000079e+00,9.193909477104408867e-02,1.340000000000000045e-05,3.795633805781393022e+01,1.173000000000000015e-01
9.991690961460000242e-01,-7.076684939909999583e-01,7.382450314725663709e-02,1.540000000000000163e-05,3.746938529854597988e+01,1.645000000000000073e-01
1.873057221090000057e+00,-1.090367434140000036e+00,1.114759138876987576e-01,1.399999999999999979e-05,3.861495134089686587e+01,1.307999999999999996e-01
1.857861219069999903e+00,-1.098153534699999989e+00,9.399879298536636951e-02,1.380000000000000001e-05,3.826604629771521360e+01,1.484999999999999931e-01
2.665524588519999849e+00,-1.048996702910000023e+00,9.914937756617127340e-02,2.989999999999999833e-05,3.843135247986644742e+01,1.246000000000000024e-01
2.355154943700000114e+00,-1.097972677060000013e+00,1.021859548129211703e-01,2.199999999999999943e-05,3.848066116655856206e+01,1.806999999999999995e-01
9.795978195679999612e-01,-6.427905315930000363e-01,1.003804139587803068e-01,1.809999999999999950e-05,3.823690176020024722e+01,1.572000000000000064e-01
-3.057869156220000217e+00,-7.350573474220000181e-01,1.178235404812892767e-01,3.470000000000000319e-05,3.877718749915857188e+01,1.242000000000000048e-01
9.920497477990000146e-01,-6.500334753240000207e-01,1.180066701807839652e-01,9.000000000000000228e-06,3.870200720499148161e+01,2.169999999999999984e-01
3.130046329429999830e+00,-8.523119884030000426e-01,1.239709831336431312e-01,1.259999999999999964e-05,3.874581235198400719e+01,1.213000000000000050e-01
2.379028017850000065e+00,-1.072014097799999899e+00,9.343606373734100745e-02,1.049999999999999942e-05,3.853203678571106394e+01,1.262999999999999956e-01
2.357025798630000057e+00,-1.081619083709999929e+00,8.914997343936549579e-02,1.079999999999999993e-05,3.783893572406964978e+01,1.401000000000000023e-01
-2.970667736299999806e+00,-6.774830050879999677e-01,8.240736811647800253e-02,5.000000000000000104e-04,3.791859248722645503e+01,1.595999999999999919e-01
9.081755733340000081e-01,-5.458360787789999780e-01,1.029824817368238110e-01,2.559999999999999884e-05,3.862388575989115935e+01,1.363999999999999935e-01
1.358823888090000098e+00,-9.312103408390000059e-01,8.650996942575479853e-02,5.000000000000000104e-03,3.826426440860344513e+01,1.728999999999999981e-01
2.298395117170000113e+00,-1.078031132260000025e+00,1.191512832310649556e-01,1.439999999999999935e-05,3.870167661258639669e+01,1.371999999999999886e-01
-3.070442777129999801e+00,-7.549988654300000546e-01,1.107914029793182209e-01,1.349999999999999949e-05,3.849492079505424158e+01,1.471000000000000085e-01
1.477099177229999949e+00,-1.010621637769999914e+00,1.139098256686420091e-01,2.339999999999999958e-05,3.841404941653129868e+01,1.431999999999999940e-01
8.741869070719999746e-01,-5.017862068989999980e-01,1.020129043236540634e-01,5.000000000000000104e-04,3.859169185940948665e+01,1.423000000000000098e-01
2.330225988860000097e+00,-1.085528504420000040e+00,8.589492705119329552e-02,9.500000000000000523e-06,3.779201827940021730e+01,1.476000000000000090e-01
7.436354871750000539e-01,-3.504138256459999878e-01,7.630840025914946423e-02,5.000000000000000104e-04,3.789709470251989387e+01,1.774999999999999911e-01
1.427162433049999901e+00,-9.612825434239999911e-01,7.936224485057707945e-02,2.180000000000000134e-05,3.785959257305101033e+01,1.255999999999999894e-01
9.044026198019999851e-01,-5.322096512109999455e-01,1.311117443168398067e-01,5.000000000000000104e-03,3.896794046772003384e+01,1.680000000000000104e-01
8.455056588670000206e-01,-5.142817755869999452e-01,7.634532957131590081e-02,1.349999999999999949e-05,3.780761572796130565e+01,1.323000000000000009e-01
1.205649471110000093e+00,-8.710924191309999953e-01,1.197673467782039008e-01,5.000000000000000104e-04,3.856265736795624122e+01,1.277000000000000079e-01
1.943996264309999944e+00,-1.074116518739999915e+00,8.316521443679307513e-02,1.430000000000000031e-05,3.778553890092761236e+01,1.484000000000000041e-01
3.097793320910000148e+00,-8.262323889349999506e-01,1.172235153505162553e-01,2.069999999999999832e-05,3.885983264415185801e+01,1.265999999999999903e-01
1.039784177770000095e+00,-7.522941733079999693e-01,9.383017481524237591e-02,3.820000000000000018e-05,3.842791637068204835e+01,1.250999999999999890e-01
2.184902241780000143e+00,-1.103811874810000093e+00,7.873656360221452377e-02,2.209999999999999847e-05,3.772269066889618472e+01,1.250000000000000000e-01
1.466494425010000047e+00,-9.700494030970000514e-01,8.249965199159428608e-02,2.349999999999999862e-05,3.808686632288766560e+01,1.444999999999999896e-01
7.947229055519999807e-01,-4.173956512609999780e-01,1.304244697535198727e-01,1.450000000000000009e-05,3.915648379754943420e+01,1.716000000000000025e-01
1.108604996610000004e+00,-7.642787783910000021e-01,1.030659321849350663e-01,5.200000000000000188e-06,3.851669643240642671e+01,1.686999999999999889e-01
2.082009968799999999e+00,-1.113896128449999967e+00,8.883678341753135921e-02,1.049999999999999942e-05,3.796503156420894243e+01,1.280999999999999917e-01
1.869326667860000013e+00,-1.083687296129999922e+00,1.353265854510938837e-01,2.129999999999999935e-05,3.890985086665053672e+01,1.824000000000000066e-01
1.393367858249999980e+00,-9.489811826320000421e-01,9.633220967530366219e-02,2.619999999999999987e-05,3.845373476222072640e+01,1.252999999999999947e-01
1.078385828560000093e+00,-7.403871388199999570e-01,1.295236256806559516e-01,2.099999999999999884e-05,3.892215156382297891e+01,1.232000000000000040e-01
1.814520130830000078e+00,-1.075429706089999993e+00,1.358238703655325064e-01,1.590000000000000023e-05,3.891209698907295689e+01,4.264000000000000012e-01
1.011862774459999947e+00,-6.888224621940000070e-01,1.031179305032588756e-01,2.680000000000000090e-05,3.832826432665489591e+01,1.262999999999999956e-01
8.544698483829999969e-01,-5.015490967350000329e-01,1.155837517192614960e-01,5.000000000000000104e-03,3.883162369916085055e+01,1.559999999999999998e-01
1.018549290619999992e+00,-7.028238768519999846e-01,1.230750151032644346e-01,8.800000000000000449e-06,3.878914795487668243e+01,1.323000000000000009e-01
1.623787387219999934e+00,-1.054606196469999979e+00,1.207102207720627263e-01,1.809999999999999950e-05,3.908484539045993245e+01,1.325000000000000067e-01
-3.049611868680000004e+00,-7.649298403180000427e-01,9.188870081132036183e-02,8.800000000000000449e-06,3.805218408161987043e+01,1.373999999999999944e-01
9.325682391520000447e-01,-6.045088198550000458e-01,1.250904736785015681e-01,6.700000000000000226e-06,3.884366194105029990e+01,1.852000000000000035e-01
1.143614002939999930e+00,-7.961324350570000430e-01,1.232694196659294139e-01,1.679999999999999839e-05,3.870535223536877822e+01,1.247000000000000053e-01
1.194021646369999967e+00,-8.723073439849999833e-01,9.448702818704120265e-02,7.900000000000000595e-06,3.795226982525101533e+01,1.376999999999999891e-01
2.197122871779999986e+00,-1.118233355919999950e+00,1.362634954070245930e-01,1.079999999999999993e-05,3.893457735354098759e+01,1.489999999999999936e-01
1.184121655390000027e+00,-8.242287254719999900e-01,8.402575763837188960e-02,2.229999999999999994e-05,3.763833649076381960e+01,1.338999999999999913e-01
1.089700901779999898e+00,-7.536230516480000308e-01,8.524222762387699548e-02,1.580000000000000119e-05,3.791015839379905827e+01,1.474000000000000032e-01
