1.794023199870000029e+00,-1.066504575379999986e+00,1.092937068842421977e-01,1.889999999999999862e-05,3.849246050016731147e+01,1.226000000000000006e-01
7.402625042339999739e-01,-3.478394374039999737e-01,1.213083602585548204e-01,5.000000000000000104e-04,3.885942984446077020e+01,1.265000000000000013e-01
2.353709585569999874e+00,-1.080984469609999943e+00,8.528428871420788704e-02,1.609999999999999832e-05,3.795737291429264104e+01,1.386999999999999900e-01
2.802585039039999781e+00,-1.015603153890000110e+00,1.292503123814707777e-01,1.830000000000000097e-05,3.912455643174483555e+01,1.388000000000000067e-01
1.777274800810000110e+00,-1.074644056479999943e+00,1.226489004017261297e-01,1.329999999999999972e-05,3.873010974206258794e+01,1.411999999999999922e-01
2.913516280570000117e+00,-9.707627933700000433e-01,1.364017715487904070e-01,6.900000000000000005e-06,3.893496986744752775e+01,1.700000000000000122e-01
1.085549145259999904e+00,-7.448246486780000231e-01,9.281443913364260945e-02,1.840000000000000001e-05,3.815262959145701416e+01,1.277999999999999969e-01
1.027510266820000018e+00,-6.962213171690000424e-01,1.162676878090206922e-01,1.349999999999999949e-05,3.872769785401322906e+01,1.368999999999999939e-01
1.399970736520000036e+00,-9.625335564200000471e-01,1.026078562650000053e-01,1.980000000000000016e-05,3.853575699296070667e+01,1.358000000000000040e-01
2.570116769140000201e+00,-1.064664255240000079e+00,1.248851820121183315e-01,1.329999999999999972e-05,3.897922765756560892e+01,1.436999999999999944e-01
9.720875361769999445e-01,-6.095229793949999975e-01,8.347902803781905023e-02,1.290000000000000016e-05,3.796446183400741603e+01,1.373000000000000054e-01
1.621246130609999891e+00,-1.030625734150000028e+00,7.181837254475899324e-02,5.000000000000000104e-03,3.757788039065670205e+01,1.584000000000000130e-01
-3.042339658870000019e+00,-7.656767762299999669e-01,8.088307627117473364e-02,5.000000000000000104e-04,3.796075353275175246e+01,1.280999999999999917e-01
1.947272166539999905e+00,-1.101887229609999963e+00,7.625052436922444277e-02,6.999999999999999895e-06,3.770541900867457485e+01,1.270999999999999908e-01
1.341846001540000000e+00,-9.474381739049999585e-01,9.426761164983908647e-02,7.999999999999999638e-06,3.807096516899297711e+01,1.443000000000000116e-01
7.996623925639999575e-01,-4.051612241720000118e-01,9.331950322182142044e-02,1.599999999999999928e-05,3.805162262316352439e+01,1.696000000000000008e-01
8.159396800399999483e-01,-4.608107027469999784e-01,1.282116325969261950e-01,5.000000000000000104e-03,3.898401846177275587e+01,1.826000000000000123e-01
2.125302249619999806e+00,-1.086803689069999912e+00,1.088452502786718956e-01,1.340000000000000045e-05,3.870081383908226513e+01,1.282999999999999974e-01
-3.106068213669999967e+00,-7.694953304789999837e-01,1.067642982626520742e-01,5.000000000000000104e-03,3.851669378046118908e+01,1.608999999999999875e-01
2.841950137700000045e+00,-9.875161071129999746e-01,8.964867216631759728e-02,2.159999999999999987e-05,3.816758455260085725e+01,1.943000000000000005e-01
-3.134999796409999817e+00,-8.037173782269999567e-01,1.100499510411527548e-01,1.419999999999999957e-05,3.836384998997581164e+01,1.270999999999999908e-01
9.671751689580000422e-01,-6.400502010180000312e-01,1.277849815152545532e-01,1.509999999999999942e-05,3.882661356000777175e+01,1.388999999999999957e-01
2.720836001069999899e+00,-9.986845377940000157e-01,9.992981159176056449e-02,1.779999999999999898e-05,3.834906673926536769e+01,1.534999999999999976e-01
8.302812732050000033e-01,-4.498958842110000189e-01,1.255786791824851090e-01,5.000000000000000104e-04,3.908248343381651324e+01,1.365999999999999992e-01
2.647198647480000222e+00,-1.045089967700000066e+00,1.221714598973162313e-01,7.700000000000000816e-06,3.855851943126220505e+01,1.254000000000000115e-01
1.818959325520000059e+00,-1.082495407979999991e+00,1.083477586522535452e-01,2.970000000000000024e-05,3.845226395583165413e+01,1.156999999999999973e-01
1.155317387099999982e+00,-7.915749840529999748e-01,7.507474077454320827e-02,2.159999999999999987e-05,3.750495027375117729e+01,1.307000000000000106e-01
-3.085894853380000136e+00,-7.425671854069999522e-01,1.124162326423599478e-01,5.000000000000000104e-03,3.861318018685622633e+01,1.781999999999999973e-01
1.135128119430000027e+00,-8.234341324370000326e-01,1.320705797286972349e-01,1.540000000000000163e-05,3.876293426147454113e+01,1.270000000000000018e-01
8.771002889440000505e-01,-5.395284705770000411e-01,7.133230594352069076e-02,6.339999999999999607e-05,3.750931750873733961e+01,1.569000000000000117e-01
1.745186286110000040e+00,-1.042342141470000039e+00,1.134391486685763784e-01,5.000000000000000104e-03,3.870787652121651945e+01,1.706999999999999906e-01
2.946531179209999962e+00,-9.604502811189999933e-01,7.111800233571992369e-02,1.079999999999999993e-05,3.755907906908114313e+01,1.285999999999999921e-01
1.166608233690000107e+00,-7.996043302990000212e-01,1.087423050641892069e-01,2.159999999999999987e-05,3.835357488941323112e+01,1.400000000000000133e-01
1.185990132269999942e+00,-8.641372202310000361e-01,1.004952385360779882e-01,1.590000000000000023e-05,3.850711748388563649e+01,1.340000000000000080e-01
-3.115682483410000092e+00,-7.921200688409999469e-01,1.165128594551308877e-01,5.000000000000000104e-04,3.876874953441114258e+01,1.269000000000000128e-01
2.721615272170000210e+00,-1.026974405240000054e+00,8.635608891522016106e-02,1.669999999999999935e-05,3.819431112426600095e+01,1.351999999999999869e-01
2.727804926320000156e+00,-1.024504387349999934e+00,1.162092656267135204e-01,9.399999999999999786e-06,3.832764589861841387e+01,1.759000000000000008e-01
1.426680047809999907e+00,-9.906820955959999564e-01,1.312570052813205879e-01,6.800000000000000116e-06,3.894488153232878602e+01,1.161999999999999977e-01
-3.031490600410000180e+00,-7.521339244750000486e-01,1.052490176037219061e-01,5.000000000000000104e-03,3.842653125730757324e+01,1.552000000000000046e-01
-3.042901330919999925e+00,-7.306456428419999538e-01,9.719289795318433733e-02,5.000000000000000104e-03,3.818343335389580062e+01,1.589000000000000135e-01
8.404722479970000437e-01,-4.623668884409999902e-01,1.286660392035539058e-01,5.000000000000000104e-03,3.904196618046520229e+01,1.965000000000000080e-01
3.100915619489999830e+00,-8.173695768680000473e-01,8.056689905055604284e-02,3.399999999999999973e-05,3.788099768460913452e+01,1.670999999999999985e-01
1.286002955080000065e+00,-9.049919594959999758e-01,1.104591788685569675e-01,5.599999999999999747e-06,3.872210626854374027e+01,2.861000000000000210e-01
1.737660748389999954e+00,-1.062189249350000031e+00,1.050288027650650158e-01,5.000000000000000104e-03,3.820317688766587594e+01,1.638000000000000012e-01
2.095352158109999863e+00,-1.096962326439999913e+00,1.207151797098068025e-01,1.720000000000000134e-05,3.872809276370850284e+01,1.141999999999999960e-01
8.167659532600000105e-01,-4.688205310329999764e-01,1.204468594902404488e-01,3.000000000000000076e-05,3.898307256482532068e+01,1.711999999999999911e-01
2.667802166029999977e+00,-1.012992242439999968e+00,1.370601658203111084e-01,8.199999999999999417e-06,3.911378888681333166e+01,1.376999999999999891e-01
1.009909081290000010e+00,-7.225277238559999482e-01,8.149347215256012855e-02,2.019999999999999972e-05,3.770156286328499817e+01,1.419999999999999873e-01
2.300619155610000188e+00,-1.097223542480000091e+00,1.253408904511177369e-01,5.959999999999999857e-05,3.876601875111614248e+01,1.456999999999999962e-01
1.255215416199999989e+00,-8.574584809030000310e-01,9.792218558781128068e-02,1.900000000000000105e-05,3.896802088755446647e+01,2.167999999999999927e-01
1.911644274089999929e+00,-1.096370223150000101e+00,1.210748211753142900e-01,3.809999999999999775e-05,3.894705688900720730e+01,1.733999999999999986e-01
8.206518518590000255e-01,-3.994206287100000030e-01,7.305200953744077352e-02,2.869999999999999965e-05,3.735118431195519406e+01,1.630999999999999950e-01
9.041604029409999743e-01,-5.889006783089999475e-01,8.334539290445916460e-02,1.020000000000000060e-05,3.795867109397018169e+01,1.348000000000000032e-01
1.415457213080000054e+00,-9.568995503610000508e-01,7.666629657492576855e-02,1.369999999999999927e-05,3.725418923873716182e+01,2.263999999999999901e-01
-3.010963742429999979e+00,-7.220265089699999805e-01,1.346434228426562629e-01,1.709999999999999891e-05,3.925645099450956366e+01,1.378000000000000058e-01
2.101167545840000095e+00,-1.082254349230000079e+00,1.266345952061380120e-01,1.340000000000000045e-05,3.910039147165944229e+01,1.173000000000000015e-01
9.991690961460000242e-01,-7.076684939909999583e-01,1.257754176194891549e-01,1.540000000000000163e-05,3.867535795571116353e+01,1.645000000000000073e-01
1.873057221090000057e+00,-1.090367434140000036e+00,1.228136778608122370e-01,1.399999999999999979e-05,3.894738205765887074e+01,1.307999999999999996e-01
1.857861219069999903e+00,-1.098153534699999989e+00,1.350822887600081623e-01,1.380000000000000001e-05,3.913735795969259357e+01,1.484999999999999931e-01
2.665524588519999849e+00,-1.048996702910000023e+00,1.294425066988175443e-01,2.989999999999999833e-05,3.898375239066080411e+01,1.246000000000000024e-01
2.355154943700000114e+00,-1.097972677060000013e+00,1.185709125870970937e-01,2.199999999999999943e-05,3.864368921919850663e+01,1.806999999999999995e-01
9.795978195679999612e-01,-6.427905315930000363e-01,1.164524785437645038e-01,1.809999999999999950e-05,3.846486333533238167e+01,1.572000000000000064e-01
-3.057869156220000217e+00,-7.350573474220000181e-01,7.080337082229129497e-02,3.470000000000000319e-05,3.746839685592549074e+01,1.242000000000000048e-01
9.920497477990000146e-01,-6.500334753240000207e-01,9.698069861039067263e-02,9.000000000000000228e-06,3.834338494033781330e+01,2.169999999999999984e-01
3.130046329429999830e+00,-8.523119884030000426e-01,7.847210478164640124e-02,1.259999999999999964e-05,3.782629456880366803e+01,1.213000000000000050e-01
2.379028017850000065e+00,-1.072014097799999899e+00,8.471312741487033171e-02,1.049999999999999942e-05,3.782132735107087740e+01,1.262999999999999956e-01
2.357025798630000057e+00,-1.081619083709999929e+00,8.695921732329721376e-02,1.079999999999999993e-05,3.783114203304396028e+01,1.401000000000000023e-01
-2.970667736299999806e+00,-6.774830050879999677e-01,7.755038854234640178e-02,5.000000000000000104e-04,3.783792040235003640e+01,1.595999999999999919e-01
9.081755733340000081e-01,-5.458360787789999780e-01,8.433906397189822046e-02,2.559999999999999884e-05,3.786294828798060763e+01,1.363999999999999935e-01
1.358823888090000098e+00,-9.312103408390000059e-01,1.116498232809242236e-01,5.000000000000000104e-03,3.869322186732790669e+01,1.728999999999999981e-01
2.298395117170000113e+00,-1.078031132260000025e+00,1.125686777366939340e-01,1.439999999999999935e-05,3.842929045561110968e+01,1.371999999999999886e-01
-3.070442777129999801e+00,-7.549988654300000546e-01,9.071081638397283931e-02,1.349999999999999949e-05,3.801314079161072357e+01,1.471000000000000085e-01
1.477099177229999949e+00,-1.010621637769999914e+00,1.151870168917495940e-01,2.339999999999999958e-05,3.857260547772901305e+01,1.431999999999999940e-01
8.741869070719999746e-01,-5.017862068989999980e-01,9.923969977757998717e-02,5.000000000000000104e-04,3.823395087730027342e+01,1.423000000000000098e-01
2.330225988860000097e+00,-1.085528504420000040e+00,1.184143310577143726e-01,9.500000000000000523e-06,3.862589910535676552e+01,1.476000000000000090e-01
7.436354871750000539e-01,-3.504138256459999878e-01,8.185726388947445198e-02,5.000000000000000104e-04,3.788934042813976077e+01,1.774999999999999911e-01
1.427162433049999901e+00,-9.612825434239999911e-01,9.441062269986569278e-02,2.180000000000000134e-05,3.812372017396043589e+01,1.255999999999999894e-01
9.044026198019999851e-01,-5.322096512109999455e-01,8.358738597297668549e-02,5.000000000000000104e-03,3.783510509555318180e+01,1.680000000000000104e-01
8.455056588670000206e-01,-5.142817755869999452e-01,1.365224865759608330e-01,1.349999999999999949e-05,3.895872474151429543e+01,1.323000000000000009e-01
1.205649471110000093e+00,-8.710924191309999953e-01,8.404212924571885512e-02,5.000000000000000104e-04,3.775501229233485390e+01,1.277000000000000079e-01
1.943996264309999944e+00,-1.074116518739999915e+00,1.029221485528971636e-01,1.430000000000000031e-05,3.849888482177365034e+01,1.484000000000000041e-01
3.097793320910000148e+00,-8.262323889349999506e-01,1.165132450978088596e-01,2.069999999999999832e-05,3.883140056952804287e+01,1.265999999999999903e-01
1.039784177770000095e+00,-7.522941733079999693e-01,9.471371325424746135e-02,3.820000000000000018e-05,3.819152997674598282e+01,1.250999999999999890e-01
2.184902241780000143e+00,-1.103811874810000093e+00,8.326991045589321461e-02,2.209999999999999847e-05,3.793692563584929189e+01,1.250000000000000000e-01
1.466494425010000047e+00,-9.700494030970000514e-01,1.337238798216580093e-01,2.349999999999999862e-05,3.904910898561863775e+01,1.444999999999999896e-01
7.947229055519999807e-01,-4.173956512609999780e-01,1.033192784642703033e-01,1.450000000000000009e-05,3.838666771345701534e+01,1.716000000000000025e-01
1.108604996610000004e+00,-7.642787783910000021e-01,8.167717415222830457e-02,5.200000000000000188e-06,3.774270775987175597e+01,1.686999999999999889e-01
2.082009968799999999e+00,-1.113896128449999967e+00,1.091304004299772368e-01,1.049999999999999942e-05,3.858246007019818791e+01,1.280999999999999917e-01
1.869326667860000013e+00,-1.083687296129999922e+00,1.319124946946269583e-01,2.129999999999999935e-05,3.900740913080230854e+01,1.824000000000000066e-01
1.393367858249999980e+00,-9.489811826320000421e-01,1.202299878820750206e-01,2.619999999999999987e-05,3.890598075286408886e+01,1.252999999999999947e-01
1.078385828560000093e+00,-7.403871388199999570e-01,8.215038514430432481e-02,2.099999999999999884e-05,3.784364121953187521e+01,1.232000000000000040e-01
1.814520130830000078e+00,-1.075429706089999993e+00,7.707639547042381689e-02,1.590000000000000023e-05,3.764737219797367374e+01,4.264000000000000012e-01
1.011862774459999947e+00,-6.888224621940000070e-01,1.296125835850983621e-01,2.680000000000000090e-05,3.913756143272498633e+01,1.262999999999999956e-01
8.544698483829999969e-01,-5.015490967350000329e-01,1.056873150032175690e-01,5.000000000000000104e-03,3.864686806120889173e+01,1.559999999999999998e-01
1.018549290619999992e+00,-7.028238768519999846e-01,1.036035767870487345e-01,8.800000000000000449e-06,3.841088135791537894e+01,1.323000000000000009e-01
1.623787387219999934e+00,-1.054606196469999979e+00,1.253213472956911101e-01,1.809999999999999950e-05,3.856491368012669341e+01,1.325000000000000067e-01
-3.049611868680000004e+00,-7.649298403180000427e-01,1.373616674289251938e-01,8.800000000000000449e-06,3.893748137413847843e+01,1.373999999999999944e-01
9.325682391520000447e-01,-6.045088198550000458e-01,1.078255679921450716e-01,6.700000000000000226e-06,3.848291611434846260e+01,1.852000000000000035e-01
1.143614002939999930e+00,-7.961324350570000430e-01,1.205719949125791668e-01,1.679999999999999839e-05,3.863075467025242204e+01,1.247000000000000053e-01
1.194021646369999967e+00,-8.723073439849999833e-01,8.496004530953650546e-02,7.900000000000000595e-06,3.795327165315172380e+01,1.376999999999999891e-01
2.197122871779999986e+00,-1.118233355919999950e+00,1.195993481658884361e-01,1.079999999999999993e-05,3.856913297142589414e+01,1.489999999999999936e-01
1.184121655390000027e+00,-8.242287254719999900e-01,1.029882893327774551e-01,2.229999999999999994e-05,3.825967884161886445e+01,1.338999999999999913e-01
1.089700901779999898e+00,-7.536230516480000308e-01,1.124776483392928295e-01,1.580000000000000119e-05,3.837511376405468155e+01,1.474000000000000032e-01
