-1.598279621179586663e+00,2.779993629999999993e-01,1.209255218534968646e-01,1.000000000000000048e-04,3.873639330047927842e+01,1.700000000000000122e-01
-8.306753881795865269e-01,5.048130450000000158e-01,3.598816018678186457e-01,1.000000000000000048e-04,4.163495056911426673e+01,1.600000000000000033e-01
-1.512887194179586281e+00,3.571169940000000209e-01,4.370035235440236088e-01,1.000000000000000048e-04,4.181527883045571770e+01,1.600000000000000033e-01
-2.094054222179586588e+00,-9.657747650000000350e-01,3.115278115491539879e-01,1.000000000000000048e-04,4.071468603679991105e+01,1.600000000000000033e-01
-1.256550916179586252e+00,-1.037146153999999987e+00,1.953671117473002039e-01,1.000000000000000048e-04,4.008798118517160702e+01,1.900000000000000022e-01
-2.638489419179586015e+00,-8.917870300000000361e-01,2.106495095268816620e-01,1.000000000000000048e-04,4.029676252996607388e+01,1.600000000000000033e-01
3.095686500000000008e-02,-1.139960520999999893e+00,2.193942319329128532e-01,1.000000000000000048e-04,4.013402348906064532e+01,1.700000000000000122e-01
-4.765590681795863759e-01,-7.328014390000000544e-01,4.057050926741557206e-01,1.000000000000000048e-04,4.176345424564723174e+01,1.600000000000000033e-01
7.532392530000000530e-01,9.936355940000000109e-01,2.595173073083915649e-01,1.000000000000000048e-04,4.090064000174904635e+01,1.600000000000000033e-01
1.355624495999999901e+00,4.654212710000000253e-01,3.981364975157689612e-01,1.000000000000000048e-04,4.176097674345320598e+01,2.200000000000000011e-01
-2.027672372179586624e+00,-3.494576850000000179e-01,7.180545575793615409e-01,1.000000000000000048e-04,4.326613634373516248e+01,8.999999999999999667e-02
-2.243457714179585949e+00,5.735296930000000071e-01,6.598312199673463940e-01,1.000000000000000048e-04,4.288612052172945965e+01,8.000000000000000167e-02
-1.661352162179586145e+00,7.473004210000000480e-01,2.412250409517153193e-01,1.000000000000000048e-04,4.047366299935087142e+01,1.100000000000000006e-01
-1.046494641179585905e+00,9.839422859999999993e-01,4.653706276330416003e-01,1.000000000000000048e-04,4.210169258228567912e+01,1.600000000000000033e-01
-1.357076630179586019e+00,8.591991679999999576e-01,7.308849756529627317e-01,1.000000000000000048e-04,4.326201015926800153e+01,1.300000000000000044e-01
-1.489161381179585852e+00,8.733460579999999807e-01,6.784940375264338908e-01,1.000000000000000048e-04,4.298844011411087962e+01,8.999999999999999667e-02
2.602874990000000111e+00,9.865781270000000269e-01,2.850109318726742336e-01,1.000000000000000048e-04,4.045937461909225163e+01,2.099999999999999922e-01
2.011122450999999867e+00,-1.257182417000000108e+00,4.776599562517922504e-01,1.000000000000000048e-04,4.204215966159318185e+01,1.799999999999999933e-01
2.487812089999999809e+00,-1.095252646999999913e+00,3.984806898255875973e-01,1.000000000000000048e-04,4.168248250091075846e+01,1.600000000000000033e-01
-2.060955814179585843e+00,9.020563839999999889e-01,3.012648072961455759e-01,1.000000000000000048e-04,4.115420021915831228e+01,1.799999999999999933e-01
-1.552222439179586466e+00,1.270289940999999923e+00,1.599255407912026083e-01,1.000000000000000048e-04,3.936176592610775771e+01,1.600000000000000033e-01
-3.584264691795864266e-01,1.112498557000000110e+00,7.142657317160892028e-01,1.000000000000000048e-04,4.267072110486688530e+01,2.000000000000000111e-01
1.187793541000000008e+00,1.533334508000000040e+00,1.397111542893018921e-01,1.000000000000000048e-04,3.874905034587330732e+01,1.700000000000000122e-01
9.029304540000000490e-01,-5.888661819999999603e-01,9.429218107121841719e-01,1.000000000000000048e-04,4.379737075587201645e+01,1.700000000000000122e-01
2.675488564000000125e+00,-1.029758079000000048e+00,4.894517523289536598e-01,1.000000000000000048e-04,4.258492108964230738e+01,1.700000000000000122e-01
9.979371630000000160e-01,-7.076351440000000492e-01,5.317754782389024770e-01,1.000000000000000048e-04,4.252378466614315755e+01,2.000000000000000111e-01
-2.809922836179586270e+00,-1.219770695000000016e+00,2.273997187011765897e-01,1.000000000000000048e-04,4.053142954910164519e+01,1.900000000000000022e-01
1.945616433999999950e+00,5.533621010000000506e-01,2.565237744536296161e-01,1.000000000000000048e-04,4.056126732500725041e+01,1.700000000000000122e-01
1.369802210000000131e-01,9.686457469999999459e-01,1.294467053755249952e-01,1.000000000000000048e-04,3.881343141964818244e+01,1.000000000000000056e-01
2.377785852000000144e+00,-1.071983155000000076e+00,7.496499568737220454e-01,1.000000000000000048e-04,4.352997915540831286e+01,1.000000000000000056e-01
1.194530383000000029e+00,-8.514353350000000153e-01,6.714388034389945359e-01,1.000000000000000048e-04,4.313229964575226916e+01,1.100000000000000006e-01
2.328991532999999947e+00,-1.085498080000000032e+00,2.661701718198534183e-01,1.000000000000000048e-04,4.067252208083418452e+01,1.199999999999999956e-01
3.099662444999999877e+00,-8.173274409999999879e-01,1.953260015441854458e-01,1.000000000000000048e-04,3.992033110181144906e+01,1.300000000000000044e-01
1.008677688999999988e+00,-7.224949280000000362e-01,4.650570566514987680e-01,1.000000000000000048e-04,4.225118814846904058e+01,1.199999999999999956e-01
1.116317643999999998e+00,-8.188746820000000204e-01,9.602411009611626636e-01,1.000000000000000048e-04,4.362704463298047131e+01,1.499999999999999944e-01
1.368634144999999913e+00,-9.746537960000000167e-01,2.247017830981727360e-01,1.000000000000000048e-04,4.033005613762302488e+01,2.200000000000000011e-01
2.840707745000000006e+00,-9.874777999999999611e-01,2.918433446957198751e-01,1.000000000000000048e-04,4.088623078363661278e+01,1.199999999999999956e-01
1.164831654000000105e+00,-8.361433499999999519e-01,8.762055994399743364e-01,1.000000000000000048e-04,4.404524850075600284e+01,1.600000000000000033e-01
9.274529849999999520e-01,-5.648102149999999488e-01,1.019240007410446847e+00,1.000000000000000048e-04,4.458566203938704575e+01,2.200000000000000011e-01
1.803806121999999901e+00,-1.051757271000000049e+00,3.318414694770546736e-01,1.000000000000000048e-04,4.086592701185638532e+01,2.200000000000000011e-01
1.910407339000000038e+00,-1.096340147000000043e+00,4.268237274049977437e-01,1.000000000000000048e-04,4.176682663547854446e+01,1.300000000000000044e-01
-2.994395329179586174e+00,-6.874333790000000111e-01,3.026788565729928715e-01,1.000000000000000048e-04,4.115165432770356091e+01,1.600000000000000033e-01
2.004169926999999962e+00,-1.114377941999999955e+00,1.654807187195013740e-01,1.000000000000000048e-04,3.968463071691473942e+01,2.099999999999999922e-01
2.993884073999999895e+00,-9.067153500000000310e-01,3.151980074699176626e-01,1.000000000000000048e-04,4.100590914671428777e+01,2.000000000000000111e-01
2.896584697999999847e+00,-6.981149509999999836e-01,9.083254611181709182e-01,1.000000000000000048e-04,4.399054027105566433e+01,2.000000000000000111e-01
2.644964143999999795e+00,-1.038456438999999953e+00,9.458005451922660844e-01,1.000000000000000048e-04,4.393396548453192452e+01,2.500000000000000000e-01
1.395029569000000080e+00,-9.673563530000000021e-01,4.316956814330016878e-01,1.000000000000000048e-04,4.183508213219690219e+01,2.200000000000000011e-01
1.133893306999999906e+00,-8.234022290000000410e-01,7.891338564543584067e-01,1.000000000000000048e-04,4.347237617024433831e+01,1.199999999999999956e-01
9.542908199999999841e-01,-6.210129070000000029e-01,2.149058731036371794e-01,1.000000000000000048e-04,4.044746608513513308e+01,1.400000000000000133e-01
1.112357503999999997e+00,-7.717409769999999947e-01,9.314785763306238087e-01,1.000000000000000048e-04,4.396608775003166869e+01,1.400000000000000133e-01
1.392129267000000059e+00,-9.489503049999999940e-01,2.611648726034573320e-01,1.000000000000000048e-04,4.079056039348285623e+01,1.100000000000000006e-01
3.104633763999999907e+00,-8.563587980000000321e-01,2.822074193292327116e-01,1.000000000000000048e-04,4.069296901016717527e+01,1.199999999999999956e-01
-1.581672989179586430e+00,-6.726275419999999672e-01,7.194331826919229123e-01,1.000000000000000048e-04,4.317724096428503344e+01,2.000000000000000111e-01
8.758714749999999549e-01,-5.394949780000000139e-01,3.224672130723861274e-01,1.000000000000000048e-04,4.108489992930802259e+01,1.199999999999999956e-01
1.027821937999999991e+00,-6.897361509999999640e-01,1.269630353800745182e+00,1.000000000000000048e-04,4.472351365800663103e+01,1.499999999999999944e-01
8.011105990000000343e-01,-4.568120419999999737e-01,7.587943265229074585e-01,1.000000000000000048e-04,4.328428345646913300e+01,1.499999999999999944e-01
8.044453879999999835e-01,-4.591503659999999765e-01,5.998554162421572133e-01,1.000000000000000048e-04,4.281850300464186176e+01,1.100000000000000006e-01
8.290542589999999601e-01,-4.498624509999999965e-01,1.283410983619654777e+00,1.000000000000000048e-04,4.492169435044589676e+01,1.199999999999999956e-01
2.306908324000000121e+00,-1.093655438999999951e+00,4.160456901179750422e-01,1.000000000000000048e-04,4.160499930915937483e+01,1.300000000000000044e-01
-3.090495873179586184e+00,-7.974218849999999970e-01,4.419112778357704441e-01,1.000000000000000048e-04,4.224350742600385900e+01,1.300000000000000044e-01
2.850739061000000074e+00,-9.724982730000000242e-01,6.972703105090840570e-01,1.000000000000000048e-04,4.294286929604461989e+01,1.100000000000000006e-01
1.925211972000000049e+00,-1.067349442999999898e+00,2.926274167831259265e-01,1.000000000000000048e-04,4.104944929420827293e+01,1.600000000000000033e-01
3.010706126000000094e+00,-9.149326070000000088e-01,8.483044769734959800e-01,1.000000000000000048e-04,4.362790250270322900e+01,1.199999999999999956e-01
1.754869720000000077e+00,-1.052947148999999971e+00,1.241178448857219507e+00,1.000000000000000048e-04,4.457198279108119010e+01,1.300000000000000044e-01
3.028086770999999899e+00,-8.725603690000000023e-01,7.787104229455832360e-01,1.000000000000000048e-04,4.351442377022940633e+01,1.199999999999999956e-01
2.780301081000000174e+00,-1.010780400000000023e+00,2.512999853288997443e-01,1.000000000000000048e-04,4.045731665806434307e+01,1.700000000000000122e-01
3.096540631999999960e+00,-8.261897350000000362e-01,3.824835725211011006e-01,1.000000000000000048e-04,4.159865784722612858e+01,1.100000000000000006e-01
-3.043596368179586342e+00,-7.656326449999999451e-01,4.362241177340101528e-01,1.000000000000000048e-04,4.199255254265381154e+01,1.100000000000000006e-01
2.593403560000000052e+00,-1.068240442000000012e+00,3.886658736597433661e-01,1.000000000000000048e-04,4.162043857397934232e+01,1.199999999999999956e-01
1.277663320999999907e+00,-8.910532270000000032e-01,3.044441991222932020e-01,1.000000000000000048e-04,4.091074168197089023e+01,1.499999999999999944e-01
8.729576639999999665e-01,-5.017517409999999733e-01,3.424229447977029661e-01,1.000000000000000048e-04,4.135629901970551003e+01,1.199999999999999956e-01
2.323316692000000128e+00,-1.072994334000000105e+00,1.033826754973503625e+00,1.000000000000000048e-04,4.414036253927804410e+01,1.400000000000000133e-01
-3.012222731179586166e+00,-7.219820959999999621e-01,2.141185233097478990e-01,1.000000000000000048e-04,4.031069775953150724e+01,1.199999999999999956e-01
2.306010604999999991e+00,-1.110345181000000014e+00,5.231894338571000391e-01,1.000000000000000048e-04,4.239236285962198281e+01,1.100000000000000006e-01
2.437557496999999795e+00,-1.097151527000000071e+00,2.315707897066093535e-01,1.000000000000000048e-04,4.038787138725890458e+01,1.100000000000000006e-01
1.098420291999999909e+00,-7.444727049999999569e-01,3.238068315974444444e-01,1.000000000000000048e-04,4.144687535072100815e+01,1.300000000000000044e-01
8.241628739999999897e-01,-4.611620249999999754e-01,2.214254567967655629e-01,1.000000000000000048e-04,4.035184634646152091e+01,1.400000000000000133e-01
1.017317494999999905e+00,-7.027905669999999771e-01,4.377740319645849754e-01,1.000000000000000048e-04,4.173569236433526441e+01,1.199999999999999956e-01
2.728679550999999925e+00,-1.007430967999999982e+00,8.904780626937327526e-01,1.000000000000000048e-04,4.375715131643824662e+01,1.100000000000000006e-01
2.848837458999999850e+00,-9.622339979999999793e-01,6.269891278034789295e-01,1.000000000000000048e-04,4.265569926723949834e+01,1.199999999999999956e-01
-3.065525731179586266e+00,-7.207210450000000046e-01,4.406733648506006573e-01,1.000000000000000048e-04,4.199049502569314996e+01,1.199999999999999956e-01
1.103969978000000074e+00,-7.587182380000000448e-01,1.270217570974354060e-01,1.000000000000000048e-04,3.908789775911353814e+01,1.300000000000000044e-01
1.112034854000000017e+00,-7.675460100000000008e-01,2.568760735316644173e-01,1.000000000000000048e-04,4.041879945632036453e+01,1.199999999999999956e-01
2.373162053000000160e+00,-1.072487750000000073e+00,3.030932071188208732e-01,1.000000000000000048e-04,4.095155167982278499e+01,1.100000000000000006e-01
2.221583438000000132e+00,-1.096064289000000080e+00,1.739900447875003531e-01,1.000000000000000048e-04,3.951796029592755133e+01,1.199999999999999956e-01
2.775251189000000007e+00,-1.013244017000000108e+00,2.487033176322284711e-01,1.000000000000000048e-04,4.063893314420344183e+01,1.700000000000000122e-01
1.527128894000000070e+00,-9.963611940000000056e-01,3.129299115100346307e-01,1.000000000000000048e-04,4.097492413519186272e+01,1.400000000000000133e-01
-1.936135624179586401e+00,1.327891944000000102e+00,8.126016703898936155e-01,1.000000000000000048e-04,4.341644126120224456e+01,1.199999999999999956e-01
2.120951332999999828e+00,-1.112975437000000012e+00,6.959017890981683552e-01,1.000000000000000048e-04,4.310307250026350090e+01,1.600000000000000033e-01
2.950704906999999988e+00,-9.277153000000000205e-01,3.663548911048631895e-01,1.000000000000000048e-04,4.126850875016420872e+01,1.700000000000000122e-01
2.461302839000000020e+00,-1.064109841000000056e+00,3.754993404295496884e-01,1.000000000000000048e-04,4.138858902081553737e+01,1.499999999999999944e-01
1.687800213000000049e+00,-1.037844004000000098e+00,1.915163867992742963e-01,1.000000000000000048e-04,3.992773418802025276e+01,1.100000000000000006e-01
-3.069023128179586113e+00,-7.343218900000000327e-01,7.968837587094725894e-01,1.000000000000000048e-04,4.359794472427258683e+01,2.000000000000000111e-01
7.655655390000000171e-01,-3.825025819999999799e-01,1.896947492094917531e-01,1.000000000000000048e-04,3.982701146614226673e+01,1.300000000000000044e-01
-3.051736326179586012e+00,-7.690870560000000467e-01,5.818158655330447626e-01,1.000000000000000048e-04,4.258704909035287756e+01,1.499999999999999944e-01
-3.116938176179586240e+00,-7.920766919999999711e-01,5.296081166761409387e-01,1.000000000000000048e-04,4.249646060961436689e+01,1.100000000000000006e-01
1.020863690000000101e+00,-6.877910739999999468e-01,4.083804613204061740e-01,1.000000000000000048e-04,4.192451214813195293e+01,1.199999999999999956e-01
1.792785233999999894e+00,-1.066474936999999956e+00,2.123327616765114390e-01,1.000000000000000048e-04,4.016810410919234187e+01,1.100000000000000006e-01
1.805689748000000039e+00,-1.066896787999999985e+00,7.055796349163379055e-01,1.000000000000000048e-04,4.329682701995309912e+01,1.100000000000000006e-01
1.773248071000000037e+00,-1.046601056999999946e+00,3.722774985783748325e-01,1.000000000000000048e-04,4.140740512210165747e+01,2.099999999999999922e-01
1.076689889999999927e+00,-7.549444410000000216e-01,2.263613694886625893e-01,1.000000000000000048e-04,4.026209804124567171e+01,1.199999999999999956e-01
2.336456505000000128e+00,-1.089906792000000069e+00,4.220405706235020871e-01,1.000000000000000048e-04,4.192636863670757918e+01,1.199999999999999956e-01
2.522083900000000156e+00,-1.078852812999999911e+00,1.799986192556040643e-01,1.000000000000000048e-04,3.968785720069703160e+01,1.199999999999999956e-01
3.676074389999999803e-01,1.100614297999999991e+00,3.206466562893741656e-01,1.000000000000000048e-04,4.122193236490121393e+01,1.700000000000000122e-01
2.099931574000000190e+00,-1.082223048999999993e+00,6.387661515563931580e-01,1.000000000000000048e-04,4.295308342321608563e+01,1.100000000000000006e-01
8.155488279999999479e-01,-4.642700679999999802e-01,6.034159182727329984e-01,1.000000000000000048e-04,4.289759804411653477e+01,2.099999999999999922e-01
9.861636230000000447e-01,-6.881834650000000497e-01,2.810699464362992339e-01,1.000000000000000048e-04,4.085733110121433498e+01,1.300000000000000044e-01
1.864254864999999928e+00,-1.086684659999999969e+00,7.779460792114946122e-01,1.000000000000000048e-04,4.349884833427572772e+01,1.199999999999999956e-01
2.873066016000000111e+00,-9.753574739999999466e-01,5.080066366523163790e-01,1.000000000000000048e-04,4.221972366494564710e+01,1.300000000000000044e-01
2.270287562000000037e+00,-1.085086717999999895e+00,6.987820158769570966e-01,1.000000000000000048e-04,4.294542445716215440e+01,1.799999999999999933e-01
8.268071609999999572e-01,-4.587794940000000099e-01,7.039318886132721609e-01,1.000000000000000048e-04,4.316915550584054984e+01,1.199999999999999956e-01
-3.050869045179586347e+00,-7.648855789999999821e-01,3.116555467510843669e-01,1.000000000000000048e-04,4.091193439625238426e+01,1.199999999999999956e-01
1.101963728999999947e+00,-7.466317359999999903e-01,4.647491507539662781e-01,1.000000000000000048e-04,4.187180341742375589e+01,1.900000000000000022e-01
1.745116724000000064e+00,-1.056563783000000090e+00,2.139059746623371283e-01,1.000000000000000048e-04,3.985545163511793021e+01,1.300000000000000044e-01
7.889769570000000343e-01,-3.846565690000000037e-01,4.079932431103929225e-01,1.000000000000000048e-04,4.151991750807790282e+01,1.499999999999999944e-01
1.385818830999999918e+00,-9.278259679999999454e-01,6.288645882665212516e-01,1.000000000000000048e-04,4.299997220084222249e+01,1.499999999999999944e-01
1.138484923000000038e+00,-8.197145099999999518e-01,2.295065725870768791e-01,1.000000000000000048e-04,4.026782929479788464e+01,1.400000000000000133e-01
1.783410439000000069e+00,-1.080958507999999929e+00,2.290227439897857264e-01,1.000000000000000048e-04,4.012091721490735097e+01,1.400000000000000133e-01
2.617653461000000181e+00,-1.025884226000000066e+00,4.459638596123080556e-01,1.000000000000000048e-04,4.174401934892099320e+01,1.199999999999999956e-01
8.270197009999999960e-01,-4.157453939999999903e-01,2.662093818475553819e-01,1.000000000000000048e-04,4.053815494730698532e+01,1.199999999999999956e-01
3.128792493000000174e+00,-8.522697870000000009e-01,7.615485098141342446e-01,1.000000000000000048e-04,4.320201626434732844e+01,1.100000000000000006e-01
1.366158207000000013e+00,-9.614226009999999878e-01,1.216101705125144372e+00,1.000000000000000048e-04,4.476409700324693119e+01,1.100000000000000006e-01
2.846286316000000038e+00,-9.688357899999999745e-01,5.743393545164034997e-01,1.000000000000000048e-04,4.258613040131652383e+01,1.400000000000000133e-01
9.208216280000000031e-01,-6.185352929999999860e-01,5.072378903535261774e-01,1.000000000000000048e-04,4.233423449242504688e+01,1.499999999999999944e-01
7.622987450000000553e-01,-3.411912120000000215e-01,3.069485863094643108e-01,1.000000000000000048e-04,4.120341905938315108e+01,1.199999999999999956e-01
9.277931750000000255e-01,-5.813990460000000304e-01,2.002075376656957395e-01,1.000000000000000048e-04,4.004823029163108572e+01,2.099999999999999922e-01
1.010173165000000095e+00,-6.808591280000000356e-01,6.996255731763453278e-01,1.000000000000000048e-04,4.325099440400922646e+01,1.300000000000000044e-01
1.661181446000000062e+00,-1.029160687999999935e+00,3.476374911391004741e-01,1.000000000000000048e-04,4.138120900554868342e+01,1.400000000000000133e-01
2.089878704000000198e+00,-1.077863170999999953e+00,8.621937825246928089e-01,1.000000000000000048e-04,4.383657885313943581e+01,1.199999999999999956e-01
9.321550429999999610e-01,-6.212176799999999943e-01,2.824735758732105917e-01,1.000000000000000048e-04,4.077833188849452739e+01,1.199999999999999956e-01
2.944595597000000176e+00,-9.127602249999999806e-01,3.560724248979612594e-01,1.000000000000000048e-04,4.140092949552401080e+01,1.100000000000000006e-01
1.288081913999999939e+00,-9.113959929999999598e-01,3.350001762195111699e-01,1.000000000000000048e-04,4.131650731812609223e+01,1.300000000000000044e-01
1.398731861999999992e+00,-9.625033109999999725e-01,2.346462047884503299e-01,1.000000000000000048e-04,4.043980814981703986e+01,1.199999999999999956e-01
1.714165549000000066e+00,-1.043104095999999981e+00,1.706406361066876154e-01,1.000000000000000048e-04,3.943956761548353995e+01,1.199999999999999956e-01
1.014018395999999989e+00,-6.788913789999999615e-01,9.643100156771979847e-01,1.000000000000000048e-04,4.409794311886534501e+01,1.300000000000000044e-01
8.887761809999999985e-01,-5.541821719999999729e-01,4.077963763303710243e-01,1.000000000000000048e-04,4.171135968352863443e+01,1.300000000000000044e-01
1.026278256999999972e+00,-6.961882160000000264e-01,2.807420923944646818e-01,1.000000000000000048e-04,4.073197637154633810e+01,1.199999999999999956e-01
1.824970581999999952e+00,-1.080428363000000003e+00,5.662508011795531759e-01,1.000000000000000048e-04,4.242580607836007545e+01,1.199999999999999956e-01
1.839979185000000017e+00,-1.082878103999999952e+00,7.124196231601093166e-01,1.000000000000000048e-04,4.312733159193527399e+01,1.300000000000000044e-01
-3.070118813179586237e+00,-7.641942569999999879e-01,4.762709038807024786e-01,1.000000000000000048e-04,4.209534949264106984e+01,1.199999999999999956e-01
2.250776613000000204e+00,-1.110438553999999911e+00,7.577099457095765045e-01,1.000000000000000048e-04,4.342856610427612196e+01,1.199999999999999956e-01
2.613802471000000072e+00,-1.066258922999999914e+00,4.617933494758859059e-01,1.000000000000000048e-04,4.185193057081026780e+01,1.199999999999999956e-01
8.050150120000000298e-01,-4.193234060000000096e-01,4.938739767358972799e-01,1.000000000000000048e-04,4.236247975017318623e+01,1.499999999999999944e-01
2.809576177999999924e+00,-9.952447749999999704e-01,3.573781562378418042e-01,1.000000000000000048e-04,4.132248506382700981e+01,1.199999999999999956e-01
8.523447290000000232e-01,-4.773689010000000121e-01,2.183847009849166354e-01,1.000000000000000048e-04,3.992480188318550205e+01,2.000000000000000111e-01
2.975142320999999868e+00,-8.986192680000000266e-01,7.826443871649613193e-01,1.000000000000000048e-04,4.311476945767565638e+01,2.000000000000000111e-01
2.960578484000000010e+00,-9.174235720000000205e-01,3.819050629355611459e-01,1.000000000000000048e-04,4.148294899327874674e+01,1.400000000000000133e-01
1.589239559999999996e+00,-1.046132274999999945e+00,3.219284904525137048e-01,1.000000000000000048e-04,4.110884195987882350e+01,1.199999999999999956e-01
1.095136271999999966e+00,-7.909478989999999543e-01,5.220959848073590814e-01,1.000000000000000048e-04,4.256869234179612960e+01,1.300000000000000044e-01
3.045277111999999953e+00,-8.831592660000000539e-01,2.689342142883174858e-01,1.000000000000000048e-04,4.082531036253135426e+01,1.799999999999999933e-01
3.011317304999999944e+00,-8.969173430000000335e-01,1.249225429490070205e+00,1.000000000000000048e-04,4.472328125248866826e+01,1.499999999999999944e-01
1.946036051000000100e+00,-1.101857058000000000e+00,5.072182145055086355e-01,1.000000000000000048e-04,4.223644540879971743e+01,1.100000000000000006e-01
9.659444579999999503e-01,-6.400164339999999674e-01,2.139776898373973446e-01,1.000000000000000048e-04,4.006796236835084812e+01,1.199999999999999956e-01
1.142944595999999979e+00,-8.229314749999999679e-01,3.918199023462948238e-01,1.000000000000000048e-04,4.171517129254831957e+01,1.499999999999999944e-01
1.336859599999999926e+00,-9.462661719999999610e-01,3.219518079034596192e-01,1.000000000000000048e-04,4.123746995759253053e+01,1.900000000000000022e-01
2.386695267999999981e+00,-1.099692616000000012e+00,3.206750630221376075e-01,1.000000000000000048e-04,4.137730169656564527e+01,1.799999999999999933e-01
1.122946417999999946e+00,-7.871106610000000448e-01,2.015513874001270134e-01,1.000000000000000048e-04,4.003036083675434753e+01,1.499999999999999944e-01
1.038511049000000019e+00,-6.836743480000000428e-01,9.974729401025459463e-01,1.000000000000000048e-04,4.431474153976807173e+01,1.499999999999999944e-01
-1.865548755179585960e+00,5.988235499999999822e-01,3.158658202271111270e-01,1.000000000000000048e-04,4.126710309842707858e+01,3.599999999999999867e-01
-1.208774007179585830e+00,1.086301519000000049e+00,3.473227859424274921e-01,1.000000000000000048e-04,4.115349326435723043e+01,3.900000000000000133e-01
-1.451351928179586359e+00,1.047303024999999943e+00,3.602127075433567693e-01,1.000000000000000048e-04,4.163418575349460582e+01,3.900000000000000133e-01
-1.863787002179586594e+00,5.986409590000000280e-01,5.988385087081081748e-01,1.000000000000000048e-04,4.220399759673745876e+01,3.099999999999999978e-01
-2.367107747179586053e+00,3.570653329999999848e-01,4.671655850360770246e-01,1.000000000000000048e-04,4.260886589451742879e+01,3.300000000000000155e-01
3.110012692999999828e+00,-8.816387980000000013e-01,3.342757477197378368e-01,1.000000000000000048e-04,4.115910828524616960e+01,4.000000000000000222e-01
1.208427087000000011e+00,6.391205479999999550e-01,1.265082657202313554e-01,1.000000000000000048e-04,3.889751402868508734e+01,3.200000000000000067e-01
2.195568135999999893e+00,9.530612539999999688e-01,2.447159657436423497e-01,1.000000000000000048e-04,4.011181981786244677e+01,3.200000000000000067e-01
-1.746303855179585973e+00,7.561700099999999480e-01,3.462250464794039972e-01,1.000000000000000048e-04,4.164172416869160287e+01,3.599999999999999867e-01
-2.613733020179586308e+00,3.020363409999999860e-01,2.404081605996218896e-01,1.000000000000000048e-04,4.058618847492810744e+01,2.399999999999999911e-01
3.080075141000000016e+00,6.813462000000000129e-01,6.487412359126194517e-01,1.000000000000000048e-04,4.278740435289243749e+01,2.999999999999999889e-01
3.084152930000000126e+00,6.750201959999999612e-01,5.698040708475307081e-01,1.000000000000000048e-04,4.262783074367601444e+01,2.399999999999999911e-01
-2.831540824179586302e+00,-5.193198470000000011e-01,1.341428897587846891e-01,1.000000000000000048e-04,3.913758226456780420e+01,2.899999999999999800e-01
2.921667255000000019e+00,-9.403574120000000036e-01,2.059795076410610992e-01,1.000000000000000048e-04,3.991801290268676894e+01,2.899999999999999800e-01
2.610543199999999953e+00,9.294079060000000059e-01,1.231673403321976723e+00,1.000000000000000048e-04,4.451168998642844343e+01,2.899999999999999800e-01
2.614058957000000127e+00,9.310355519999999885e-01,3.751762797392550475e-01,1.000000000000000048e-04,4.203255622915950340e+01,3.699999999999999956e-01
-2.614313936179586406e+00,3.105085300000000048e-01,1.108929342095581250e+00,1.000000000000000048e-04,4.417872806919345408e+01,2.300000000000000100e-01
-2.614275993179586255e+00,3.084493819999999942e-01,6.780235104525540457e-01,1.000000000000000048e-04,4.258596787937118933e+01,2.000000000000000111e-01
3.080236718000000096e+00,6.852664600000000217e-01,1.089547528587669678e+00,1.000000000000000048e-04,4.466707646187802538e+01,3.800000000000000044e-01
3.085135451000000195e+00,6.840520260000000352e-01,3.545628348651764239e-01,1.000000000000000048e-04,4.140455678884819690e+01,2.300000000000000100e-01
-2.829361723179586452e+00,-5.190188390000000096e-01,2.210695214458906765e-01,1.000000000000000048e-04,4.086325344837818818e+01,3.900000000000000133e-01
-2.833706243179586082e+00,-5.260186759999999628e-01,4.900538079340948650e-01,1.000000000000000048e-04,4.220111893855367668e+01,2.200000000000000011e-01
1.286414458000000094e+00,-9.076167339999999806e-01,4.044424051072681991e-01,1.000000000000000048e-04,4.193117421200054196e+01,2.399999999999999911e-01
2.295144749999999956e+00,-1.095028292000000070e+00,6.281080252564452682e-01,1.000000000000000048e-04,4.317881583362640896e+01,2.000000000000000111e-01
2.312115046000000174e+00,-1.091482969000000081e+00,6.008389729228735820e-01,1.000000000000000048e-04,4.291657423410925531e+01,1.900000000000000022e-01
2.535381049000000164e+00,-1.063602453999999975e+00,2.264135431102950458e-01,1.000000000000000048e-04,4.020081473946838457e+01,2.600000000000000089e-01
2.549902755000000187e+00,-1.059649137999999935e+00,1.205710547930324839e-01,1.000000000000000048e-04,3.888048743091216153e+01,1.900000000000000022e-01
-2.980466121795863899e-01,1.081935794000000062e+00,2.582604734900381671e-01,1.000000000000000048e-04,4.042238887527625479e+01,1.000000000000000056e-01
-4.562223411795862660e-01,1.078420874000000085e+00,1.336541687202833506e-01,1.000000000000000048e-04,3.918282163792202510e+01,1.400000000000000133e-01
-4.727696341795866175e-01,1.076427226000000070e+00,2.901849906053234340e-01,1.000000000000000048e-04,4.092454240556480016e+01,1.900000000000000022e-01
-4.909850281795860028e-01,1.086050390999999893e+00,2.732719213784424728e-01,1.000000000000000048e-04,4.086876919555727738e+01,1.499999999999999944e-01
-1.809890014179586615e+00,8.554848849999999727e-01,3.749161070065472612e-01,1.000000000000000048e-04,4.125403461765488800e+01,1.900000000000000022e-01
-1.804843805179586091e+00,8.509932909999999850e-01,2.961311589337326522e-01,1.000000000000000048e-04,4.069078185810499804e+01,1.700000000000000122e-01
-1.798315402179586187e+00,8.389159160000000393e-01,4.560904390815513354e-01,1.000000000000000048e-04,4.219875764359933612e+01,1.100000000000000006e-01
-1.820018681179586650e+00,8.404092629999999620e-01,4.684234204686018033e-01,1.000000000000000048e-04,4.222569501630270139e+01,2.000000000000000111e-01
-2.435936564179586039e+00,3.767214549999999829e-01,8.660928186382248484e-01,1.000000000000000048e-04,4.370379264318496837e+01,1.700000000000000122e-01
-2.738532057179586143e+00,-4.670391260000000266e-01,2.541818539053785075e-01,1.000000000000000048e-04,4.060619512876967008e+01,1.100000000000000006e-01
-2.750126147179586145e+00,-4.750163370000000107e-01,5.600907272566499895e-01,1.000000000000000048e-04,4.246215432180418503e+01,1.700000000000000122e-01
6.777063359999999648e-01,-9.284162910000000046e-01,6.810969586800518227e-01,1.000000000000000048e-04,4.300850950917657656e+01,1.600000000000000033e-01
6.755664329999999662e-01,-9.242990760000000527e-01,1.049130099049669473e+00,1.000000000000000048e-04,4.450409999385882998e+01,2.200000000000000011e-01
1.666277256000000095e+00,1.035703752000000089e+00,7.854571749061286523e-01,1.000000000000000048e-04,4.334613794933859054e+01,2.800000000000000266e-01
1.679531192000000006e+00,1.034147155999999956e+00,3.383056397213141109e-01,1.000000000000000048e-04,4.138609173062508262e+01,2.099999999999999922e-01
1.669961188000000041e+00,1.045784459000000055e+00,5.615263667207395226e-01,1.000000000000000048e-04,4.260250175362666170e+01,2.899999999999999800e-01
1.666612017000000057e+00,1.035903760999999923e+00,3.341856792224859318e-01,1.000000000000000048e-04,4.148893451394270215e+01,1.400000000000000133e-01
1.676630470000000095e+00,1.049302589999999924e+00,2.882346784651945160e-01,1.000000000000000048e-04,4.090084152875522250e+01,1.600000000000000033e-01
1.678871634000000057e+00,1.037439988999999896e+00,2.995377923490662453e-01,1.000000000000000048e-04,4.071758513205156049e+01,2.099999999999999922e-01
-2.159653925179585876e+00,7.341517600000000421e-01,1.766469896421287156e-01,1.000000000000000048e-04,3.965656781450353208e+01,2.600000000000000089e-01
-2.155609593179586447e+00,7.327229189999999726e-01,1.046647358736941369e+00,1.000000000000000048e-04,4.441939377228838026e+01,1.400000000000000133e-01
2.989279821999999864e+00,-1.014333855000000062e+00,2.398129629243553884e-01,1.000000000000000048e-04,4.054721027568552216e+01,1.600000000000000033e-01
6.962963009999999509e-01,-9.242906640000000396e-01,9.803696881446994915e-01,1.000000000000000048e-04,4.429536036562750922e+01,2.000000000000000111e-01
6.831622830000000368e-01,-9.295060950000000322e-01,4.241737698110224497e-01,1.000000000000000048e-04,4.218644406523053192e+01,2.099999999999999922e-01
6.813526220000000189e-01,-9.196739680000000083e-01,1.748225694568732447e-01,1.000000000000000048e-04,3.984309106652386134e+01,1.700000000000000122e-01
1.667475545999999920e+00,1.039138789999999979e+00,3.360854584852740468e-01,1.000000000000000048e-04,4.111226331615668528e+01,1.499999999999999944e-01
1.669072946000000002e+00,1.039627206000000026e+00,2.355535229433271538e-01,1.000000000000000048e-04,4.035376707222836501e+01,1.700000000000000122e-01
2.992464221000000091e+00,-1.009427984000000000e+00,4.665045707994450730e-01,1.000000000000000048e-04,4.216393799275099497e+01,1.400000000000000133e-01
3.013377762000000182e+00,-1.015725085999999999e+00,1.682712080559498058e-01,1.000000000000000048e-04,3.947925122015394095e+01,1.499999999999999944e-01
6.857830799999999893e-01,-9.290922369999999875e-01,4.180072519376960560e-01,1.000000000000000048e-04,4.170336058782946509e+01,3.400000000000000244e-01
6.874880420000000214e-01,-9.251381180000000093e-01,5.641812133680719210e-01,1.000000000000000048e-04,4.213634493109695711e+01,1.700000000000000122e-01
1.659686511000000086e+00,1.040101345999999927e+00,1.297379706051738080e-01,1.000000000000000048e-04,3.896392102668639268e+01,1.400000000000000133e-01
1.692629780999999944e+00,1.043637506000000048e+00,5.662828823370714693e-01,1.000000000000000048e-04,4.268407053998846834e+01,1.799999999999999933e-01
1.682450028999999958e+00,1.049226146999999942e+00,1.649876031839623280e-01,1.000000000000000048e-04,3.917841149085279540e+01,1.900000000000000022e-01
1.675255906999999933e+00,1.048468626000000015e+00,2.787891602593235985e-01,1.000000000000000048e-04,4.075796036021570501e+01,1.499999999999999944e-01
1.692145135000000078e+00,1.039981480000000014e+00,2.593826400567907919e-01,1.000000000000000048e-04,4.048708674286724118e+01,1.700000000000000122e-01
-2.139768073179586061e+00,7.360294179999999908e-01,5.513435170700413668e-01,1.000000000000000048e-04,4.251245367638979644e+01,1.600000000000000033e-01
-2.138731675179585956e+00,7.369836659999999817e-01,4.676549024579998437e-01,1.000000000000000048e-04,4.197889008632095909e+01,1.499999999999999944e-01
6.888283630000000546e-01,-9.193630990000000169e-01,6.701586454618709832e-01,1.000000000000000048e-04,4.273234775761150672e+01,1.700000000000000122e-01
6.776433490000000059e-01,-9.225326109999999469e-01,1.168652280482738171e+00,1.000000000000000048e-04,4.419747799210141181e+01,1.600000000000000033e-01
6.820513620000000499e-01,-9.162569579999999547e-01,3.256025589042593205e-01,1.000000000000000048e-04,4.105965072047117559e+01,2.899999999999999800e-01
6.832637360000000104e-01,-9.208365670000000502e-01,8.662845328853413518e-01,1.000000000000000048e-04,4.385046977834840476e+01,1.400000000000000133e-01
1.683256381999999940e+00,1.050427892999999946e+00,2.991628487665038971e-01,1.000000000000000048e-04,4.072295085753219013e+01,1.499999999999999944e-01
2.987248335999999949e+00,-1.011507587000000097e+00,4.665754361068499834e-01,1.000000000000000048e-04,4.187983479108977036e+01,1.900000000000000022e-01
2.994879214000000012e+00,-1.020537374999999969e+00,4.418344237172591171e-01,1.000000000000000048e-04,4.219049206184232759e+01,2.500000000000000000e-01
2.997056848999999801e+00,-1.020797841000000039e+00,1.175431424141311076e+00,1.000000000000000048e-04,4.486733436568488287e+01,1.499999999999999944e-01
6.981827720000000070e-01,-9.201470600000000166e-01,6.062876089254740641e-01,1.000000000000000048e-04,4.295223024316421601e+01,2.099999999999999922e-01
1.675679171999999939e+00,1.042232051000000048e+00,6.295612822390765917e-01,1.000000000000000048e-04,4.278597796156119415e+01,1.900000000000000022e-01
1.682732345000000018e+00,1.051774148000000020e+00,4.234392375334437020e-01,1.000000000000000048e-04,4.199768792796589878e+01,2.099999999999999922e-01
1.655763980999999996e+00,1.041789395999999979e+00,1.293857364134558541e-01,1.000000000000000048e-04,3.899987811304938390e+01,2.099999999999999922e-01
1.658505131999999938e+00,1.042043577999999915e+00,1.907585653861874619e-01,1.000000000000000048e-04,3.961077015243448329e+01,1.499999999999999944e-01
1.679931540999999973e+00,1.044700675999999939e+00,1.682445157982930262e-01,1.000000000000000048e-04,3.949357365256575036e+01,1.400000000000000133e-01
1.681131209999999987e+00,1.046558263000000100e+00,1.768942252738325838e-01,1.000000000000000048e-04,4.015767434379057477e+01,3.800000000000000044e-01
-2.147380102179586636e+00,7.248191320000000326e-01,3.320476837063573994e-01,1.000000000000000048e-04,4.129843652590405156e+01,2.200000000000000011e-01
-2.137481690179586558e+00,7.386978770000000027e-01,1.885366098078793407e-01,1.000000000000000048e-04,3.994025630281156936e+01,1.499999999999999944e-01
3.007533192999999994e+00,-1.006434849999999992e+00,5.160798145161143990e-01,1.000000000000000048e-04,4.264868270892250735e+01,1.700000000000000122e-01
6.766177190000000063e-01,-9.309161569999999664e-01,6.847157052078615136e-01,1.000000000000000048e-04,4.336051293890326264e+01,1.700000000000000122e-01
6.879719020000000240e-01,-9.170357009999999809e-01,1.441637183174419301e-01,1.000000000000000048e-04,3.937280203717728000e+01,2.600000000000000089e-01
6.868192690000000100e-01,-9.190749710000000183e-01,5.087458026959872370e-01,1.000000000000000048e-04,4.263619178643988761e+01,2.800000000000000266e-01
1.680927606000000019e+00,1.043199457999999913e+00,4.401120885096762025e-01,1.000000000000000048e-04,4.158946589002064798e+01,1.799999999999999933e-01
1.680733408999999901e+00,1.046110547000000057e+00,1.783270334923927336e-01,1.000000000000000048e-04,3.962853209306405233e+01,1.499999999999999944e-01
3.003205794999999956e+00,-1.007960921000000010e+00,4.759874710621920801e-01,1.000000000000000048e-04,4.276212631442053436e+01,2.200000000000000011e-01
3.013387552999999830e+00,-1.018013843000000085e+00,3.944594604365348478e-01,1.000000000000000048e-04,4.171877870207094219e+01,2.000000000000000111e-01
2.991633154000000072e+00,-1.018575491000000000e+00,2.763066746536558260e-01,1.000000000000000048e-04,4.046377903480871652e+01,1.600000000000000033e-01
6.810583510000000063e-01,-9.216344210000000370e-01,2.109282356956059257e-01,1.000000000000000048e-04,4.018584631640487004e+01,1.600000000000000033e-01
1.670069762000000013e+00,1.048284639000000018e+00,1.527127538663875517e-01,1.000000000000000048e-04,3.900531466087637966e+01,2.099999999999999922e-01
1.699713636000000028e+00,1.040243690999999915e+00,1.804371059477841155e-01,1.000000000000000048e-04,3.993489890340757142e+01,2.899999999999999800e-01
1.686195045999999920e+00,1.048540513999999924e+00,3.462957806699705765e-01,1.000000000000000048e-04,4.122393367758451177e+01,1.400000000000000133e-01
1.667162669999999958e+00,1.044746053999999980e+00,7.054613511156203609e-01,1.000000000000000048e-04,4.344096357465674885e+01,2.700000000000000178e-01
1.689467040999999892e+00,1.036330184999999959e+00,4.728472076428354987e-01,1.000000000000000048e-04,4.213091826897104397e+01,1.300000000000000044e-01
1.683799076999999977e+00,1.043385784000000038e+00,7.533390776974707714e-01,1.000000000000000048e-04,4.363217833955007308e+01,1.700000000000000122e-01
-2.151455832179586025e+00,7.398983139999999459e-01,7.386499357718394609e-01,1.000000000000000048e-04,4.340222403133771678e+01,2.500000000000000000e-01
-2.141944958179585967e+00,7.302793560000000461e-01,3.566998203726294836e-01,1.000000000000000048e-04,4.134876032346961949e+01,1.400000000000000133e-01
3.012489310999999947e+00,-1.019874449000000016e+00,2.563232368881635526e-01,1.000000000000000048e-04,4.070720430709112492e+01,1.900000000000000022e-01
6.824463880000000149e-01,-9.193269539999999740e-01,3.529149000493498889e-01,1.000000000000000048e-04,4.145364605727564111e+01,1.600000000000000033e-01
6.933168330000000212e-01,-9.307474239999999899e-01,1.704049056906407900e-01,1.000000000000000048e-04,3.983597958918363702e+01,1.600000000000000033e-01
7.005346909999999871e-01,-9.247541049999999929e-01,7.601828954156284457e-01,1.000000000000000048e-04,4.291197879826003714e+01,2.700000000000000178e-01
1.674988617999999985e+00,1.042237757999999959e+00,3.837013143960592565e-01,1.000000000000000048e-04,4.167703773653519050e+01,1.499999999999999944e-01
1.672026148000000045e+00,1.039374368000000048e+00,7.374862602671075074e-01,1.000000000000000048e-04,4.332087787798938194e+01,1.600000000000000033e-01
2.993618983999999816e+00,-1.008517228000000099e+00,2.814635354053211524e-01,1.000000000000000048e-04,4.084005125684016946e+01,1.700000000000000122e-01
2.992837709999999873e+00,-1.014889098000000045e+00,2.524473031115133659e-01,1.000000000000000048e-04,4.044247392465764790e+01,2.800000000000000266e-01
2.980621672999999916e+00,-1.012535224000000067e+00,6.673121898025997645e-01,1.000000000000000048e-04,4.311176244596558149e+01,1.499999999999999944e-01
3.118379398000000080e+00,-1.044341935000000055e+00,7.499225974911671866e-01,1.000000000000000048e-04,4.322814130220916695e+01,3.099999999999999978e-01
3.132904315000000217e+00,-1.046896950999999909e+00,4.517088813996173458e-01,1.000000000000000048e-04,4.206930162563382680e+01,2.200000000000000011e-01
1.248659997999999938e+00,-1.117162079000000086e+00,2.212256848086682215e-01,1.000000000000000048e-04,4.018448524184142201e+01,2.700000000000000178e-01
2.302446713000000145e+00,-1.091359299000000060e+00,1.044649613606157379e+00,1.000000000000000048e-04,4.427349474538317509e+01,2.899999999999999800e-01
3.133486173000000097e+00,-1.061461677999999909e+00,1.634481130437620555e-01,1.000000000000000048e-04,3.978364394741515042e+01,3.099999999999999978e-01
1.251013366000000016e+00,-1.102704651999999896e+00,1.045978633230586929e+00,1.000000000000000048e-04,4.442652095392647027e+01,2.300000000000000100e-01
1.232341668999999973e+00,-1.105349812000000043e+00,3.513912999004482618e-01,1.000000000000000048e-04,4.109334225682530928e+01,2.200000000000000011e-01
2.330538756999999794e+00,-1.086213730999999960e+00,1.248276154190601117e+00,1.000000000000000048e-04,4.476958745825723440e+01,2.300000000000000100e-01
3.104372880000000112e+00,-1.050765708999999992e+00,9.542840434516212111e-01,1.000000000000000048e-04,4.434176850458767660e+01,2.200000000000000011e-01
3.122794933000000217e+00,-1.050942575000000101e+00,3.901813801668819193e-01,1.000000000000000048e-04,4.168531498669084101e+01,2.099999999999999922e-01
3.135928428000000157e+00,-1.044986675000000087e+00,2.035740851701917653e-01,1.000000000000000048e-04,3.995610083415565583e+01,2.300000000000000100e-01
3.135701593999999925e+00,-1.049448040999999998e+00,2.331916014492670941e-01,1.000000000000000048e-04,4.040871835288088931e+01,2.399999999999999911e-01
2.902190216000000156e+00,-1.054666754000000095e+00,2.531714763919434286e-01,1.000000000000000048e-04,4.082141050657668302e+01,2.099999999999999922e-01
1.219278212000000083e+00,-1.102494101000000004e+00,3.568064929884970926e-01,1.000000000000000048e-04,4.171416044251019173e+01,2.399999999999999911e-01
2.314258420999999899e+00,-1.073777474999999981e+00,2.186379540508480990e-01,1.000000000000000048e-04,4.015809211266613943e+01,2.399999999999999911e-01
3.138600745000000192e+00,-1.056209613999999908e+00,3.123444176722551258e-01,1.000000000000000048e-04,4.128205743332609501e+01,2.800000000000000266e-01
2.873014373000000177e+00,-1.047336534999999902e+00,8.981090040056028956e-01,1.000000000000000048e-04,4.425642935295079639e+01,2.000000000000000111e-01
2.890150627000000139e+00,-1.045368942999999939e+00,5.718194492831272235e-01,1.000000000000000048e-04,4.267856784663049297e+01,2.200000000000000011e-01
-3.136513490179586139e+00,-1.038988312000000080e+00,1.728207686339122973e-01,1.000000000000000048e-04,3.940800124512396252e+01,2.800000000000000266e-01
3.120369102000000172e+00,-1.042910143999999928e+00,2.965472745463092474e-01,1.000000000000000048e-04,4.119270287950984510e+01,2.399999999999999911e-01
3.132773262000000170e+00,-1.048570620000000009e+00,4.213243640860419581e-01,1.000000000000000048e-04,4.165216632728082402e+01,2.300000000000000100e-01
3.132934141999999866e+00,-1.046888051000000042e+00,3.064710833244335131e-01,1.000000000000000048e-04,4.064493773984511904e+01,2.200000000000000011e-01
3.134455274000000014e+00,-1.046257098000000108e+00,5.339595101905246777e-01,1.000000000000000048e-04,4.217097416202602744e+01,2.200000000000000011e-01
2.910504301000000016e+00,-1.063930792999999930e+00,5.210689025787084150e-01,1.000000000000000048e-04,4.231583674375035997e+01,2.399999999999999911e-01
2.301930878999999930e+00,-1.084305269999999988e+00,2.853473643082871658e-01,1.000000000000000048e-04,4.100315213501024658e+01,3.099999999999999978e-01
2.314913878000000036e+00,-1.104421796000000011e+00,6.190976544537560855e-01,1.000000000000000048e-04,4.274238318365383549e+01,2.600000000000000089e-01
1.232494258000000009e+00,-1.089556776000000005e+00,2.543210837372066879e-01,1.000000000000000048e-04,4.064313722635807125e+01,3.099999999999999978e-01
-3.138875270179586341e+00,-1.027091259999999950e+00,8.425909050537752076e-01,1.000000000000000048e-04,4.370501351835724790e+01,3.800000000000000044e-01
1.277748142000000087e+00,-1.105660628999999950e+00,1.500761633012272778e-01,1.000000000000000048e-04,3.902073627179760251e+01,2.500000000000000000e-01
2.339694710999999927e+00,-1.083680948999999893e+00,5.207265293626078817e-01,1.000000000000000048e-04,4.219363480346924433e+01,2.300000000000000100e-01
3.085408954000000037e+00,-1.045989441999999991e+00,5.961317305622659823e-01,1.000000000000000048e-04,4.269192446796969165e+01,2.800000000000000266e-01
3.122183823999999941e+00,-1.053540683000000033e+00,1.988961154644310891e-01,1.000000000000000048e-04,3.990132534359062078e+01,3.699999999999999956e-01
1.263417701000000060e+00,-1.099941301000000093e+00,1.839045830430598438e-01,1.000000000000000048e-04,3.999626788453482362e+01,2.200000000000000011e-01
1.238769020999999970e+00,-1.122513239999999968e+00,3.640147951072007504e-01,1.000000000000000048e-04,4.128810358092712107e+01,2.600000000000000089e-01
1.225778744000000087e+00,-1.107856694000000086e+00,7.737776767634749753e-01,1.000000000000000048e-04,4.310137525551350279e+01,2.500000000000000000e-01
2.356185176999999964e+00,-1.090954028000000076e+00,3.780614160561591719e-01,1.000000000000000048e-04,4.180286662202879455e+01,2.700000000000000178e-01
1.231078855000000027e+00,-1.109460918999999990e+00,7.066881627797788612e-01,1.000000000000000048e-04,4.326762087927040312e+01,2.300000000000000100e-01
2.350025410999999842e+00,-1.078254897999999962e+00,1.322095786113928195e-01,1.000000000000000048e-04,3.903861335138316946e+01,2.300000000000000100e-01
2.889344674999999807e+00,-1.054064458000000037e+00,6.156683083860486905e-01,1.000000000000000048e-04,4.301114537518011360e+01,3.200000000000000067e-01
1.260972444000000081e+00,-1.102168519999999985e+00,5.806926614505701911e-01,1.000000000000000048e-04,4.260905784321104051e+01,2.899999999999999800e-01
3.138597202000000141e+00,-1.049455424000000026e+00,5.396058614891835470e-01,1.000000000000000048e-04,4.231520197374277359e+01,2.600000000000000089e-01
1.280173519000000093e+00,-1.106045986000000036e+00,3.248947922604981109e-01,1.000000000000000048e-04,4.118969475392329116e+01,2.899999999999999800e-01
3.140421104000000074e+00,-1.048273016000000002e+00,3.217367843608380795e-01,1.000000000000000048e-04,4.138921675507707931e+01,2.700000000000000178e-01
2.887571490000000018e+00,-1.060290981000000077e+00,6.570002385579776227e-01,1.000000000000000048e-04,4.288476592998623715e+01,2.300000000000000100e-01
3.117377486000000086e+00,-1.048849812999999909e+00,4.288862868255358674e-01,1.000000000000000048e-04,4.228039669401742628e+01,2.800000000000000266e-01
3.139331405000000075e+00,-1.045946368000000071e+00,3.775786738006456922e-01,1.000000000000000048e-04,4.189368051393201142e+01,2.300000000000000100e-01
2.901812189000000153e+00,-1.070407117000000019e+00,2.767635465582348187e-01,1.000000000000000048e-04,4.126159412150275330e+01,2.200000000000000011e-01
2.874698792999999863e+00,-1.069280417999999955e+00,4.321876033526149130e-01,1.000000000000000048e-04,4.181551425472758154e+01,2.200000000000000011e-01
3.126790450000000110e+00,-1.053686536000000062e+00,5.562383728382181980e-01,1.000000000000000048e-04,4.263468237684971740e+01,2.099999999999999922e-01
1.253234667999999941e+00,-1.096167120000000050e+00,6.623206322853784078e-01,1.000000000000000048e-04,4.294716164715838147e+01,2.200000000000000011e-01
1.242189800000000011e+00,-1.095888138000000067e+00,4.965174109023636762e-01,1.000000000000000048e-04,4.227353747065905765e+01,2.899999999999999800e-01
2.358704259000000025e+00,-1.096119858000000002e+00,1.526613156684476502e-01,1.000000000000000048e-04,3.910938424693524951e+01,2.099999999999999922e-01
3.090657074000000115e+00,-1.046905049999999893e+00,5.605198642496154182e-01,1.000000000000000048e-04,4.290286336099503472e+01,2.300000000000000100e-01
2.350320292999999783e+00,-1.077642637000000070e+00,2.355968527896497022e-01,1.000000000000000048e-04,4.065078791062916963e+01,3.300000000000000155e-01
3.120911620999999858e+00,-1.047605429999999949e+00,2.022944698604560165e-01,1.000000000000000048e-04,3.959313132472892960e+01,2.899999999999999800e-01
2.310418793000000193e+00,-1.091478047999999923e+00,6.799238698147719306e-01,1.000000000000000048e-04,4.327213632263126897e+01,3.300000000000000155e-01
2.888242410000000149e+00,-1.055260810999999910e+00,6.716222197308904240e-01,1.000000000000000048e-04,4.268739156602651263e+01,2.999999999999999889e-01
2.313880778000000138e+00,-1.089056457000000089e+00,1.426464214513962769e-01,1.000000000000000048e-04,3.977051221605615439e+01,2.600000000000000089e-01
3.096505394999999883e+00,-1.050897790999999915e+00,1.241199182068045692e+00,1.000000000000000048e-04,4.496227168437135191e+01,3.300000000000000155e-01
1.264206060000000020e+00,-1.108314516000000083e+00,6.756766613441100855e-01,1.000000000000000048e-04,4.284267151094514503e+01,2.500000000000000000e-01
2.317080779999999951e+00,-1.080569537999999996e+00,1.318476570907552714e-01,1.000000000000000048e-04,3.901705083983581801e+01,2.399999999999999911e-01
2.308161032000000112e+00,-1.080284865999999955e+00,7.706110466970811368e-01,1.000000000000000048e-04,4.334639268717715055e+01,3.900000000000000133e-01
1.213089824000000094e+00,-1.095999417000000031e+00,3.053018553908942723e-01,1.000000000000000048e-04,4.074786026194013999e+01,2.700000000000000178e-01
3.095344697999999894e+00,-1.044259242999999948e+00,2.991614775931857872e-01,1.000000000000000048e-04,4.095817017222077538e+01,2.200000000000000011e-01
3.093500166000000107e+00,-1.047656949999999920e+00,3.906641472962272266e-01,1.000000000000000048e-04,4.161079403910486008e+01,2.300000000000000100e-01
2.871266652000000086e+00,-1.064917746999999970e+00,8.362457090127977111e-01,1.000000000000000048e-04,4.346943996278930200e+01,2.500000000000000000e-01
2.872879009000000039e+00,-1.076645507999999918e+00,5.320044818105644779e-01,1.000000000000000048e-04,4.195981653297099001e+01,2.099999999999999922e-01
1.241294699000000001e+00,-1.109043570000000090e+00,4.569686910947792224e-01,1.000000000000000048e-04,4.200572596013210358e+01,2.099999999999999922e-01
1.238788393000000099e+00,-1.083197141000000085e+00,5.524377133438543863e-01,1.000000000000000048e-04,4.239681275229626323e+01,2.999999999999999889e-01
-3.140928712179586135e+00,-1.049943351000000025e+00,6.705598918365824890e-01,1.000000000000000048e-04,4.328116330742501106e+01,2.200000000000000011e-01
2.897074545000000168e+00,-1.050668165000000043e+00,1.338601300796677274e+00,1.000000000000000048e-04,4.485260998426412016e+01,2.099999999999999922e-01
3.133488720999999977e+00,-1.053899826000000095e+00,2.870234547162856531e-01,1.000000000000000048e-04,4.067894355506629012e+01,2.300000000000000100e-01
2.854965548000000020e+00,-1.051119023000000041e+00,4.103356105552977695e-01,1.000000000000000048e-04,4.123204669220651652e+01,3.200000000000000067e-01
2.846666281000000076e+00,-1.061494909000000098e+00,5.013573403111445392e-01,1.000000000000000048e-04,4.250373321229723445e+01,2.600000000000000089e-01
1.477625364000000108e+00,-9.892628350000000070e-01,3.866215244766494363e-01,1.000000000000000048e-04,4.178480902921450735e+01,2.000000000000000111e-01
-2.998301261179586064e+00,-5.567642400000000213e-01,4.565132934446978208e-01,1.000000000000000048e-04,4.203221262419655346e+01,1.799999999999999933e-01
2.915910107000000195e+00,-9.248875840000000403e-01,5.161282613817224085e-01,1.000000000000000048e-04,4.259908765841105804e+01,2.999999999999999889e-01
2.904218159000000021e+00,-9.279150130000000107e-01,4.231182010199673882e-01,1.000000000000000048e-04,4.203954079322312509e+01,2.399999999999999911e-01
2.945746643000000109e+00,-9.241091030000000428e-01,7.659085753025788312e-01,1.000000000000000048e-04,4.346389864025310601e+01,2.300000000000000100e-01
2.195221751000000054e+00,9.567984520000000215e-01,1.490338487737577489e-01,1.000000000000000048e-04,3.933115442775257264e+01,2.200000000000000011e-01
-2.382074272179586227e+00,-9.504311730000000180e-01,4.423963856613700174e-01,1.000000000000000048e-04,4.188628680270069538e+01,2.300000000000000100e-01
2.197803225999999999e+00,9.560313849999999558e-01,1.361680108793919264e-01,1.000000000000000048e-04,3.898659146768481065e+01,2.300000000000000100e-01
-2.380846050179586282e+00,-9.512843520000000552e-01,3.035175275589970800e-01,1.000000000000000048e-04,4.113808826404779495e+01,2.600000000000000089e-01
-2.382960995179586039e+00,-9.501026420000000527e-01,1.668575212625924564e-01,1.000000000000000048e-04,3.954638025939750179e+01,2.099999999999999922e-01
2.192165822000000208e+00,9.554729659999999791e-01,4.402646306706199386e-01,1.000000000000000048e-04,4.189301545818590000e+01,2.899999999999999800e-01
-2.383512939179586176e+00,-9.505219620000000535e-01,4.167582842034661672e-01,1.000000000000000048e-04,4.189380630216456325e+01,2.000000000000000111e-01
2.197044292000000176e+00,9.582492320000000063e-01,2.352875528528129423e-01,1.000000000000000048e-04,4.077563468230266608e+01,2.500000000000000000e-01
2.198013217999999824e+00,9.570721989999999568e-01,4.747825114863901130e-01,1.000000000000000048e-04,4.229699808545484530e+01,2.099999999999999922e-01
2.198391541999999976e+00,9.561199929999999458e-01,1.596119797707273580e-01,1.000000000000000048e-04,3.887960730744972437e+01,2.300000000000000100e-01
2.199218732999999926e+00,9.570277640000000030e-01,4.715238058493759765e-01,1.000000000000000048e-04,4.200490134323389668e+01,2.200000000000000011e-01
2.196667974999999995e+00,9.569524729999999701e-01,4.942988087777199224e-01,1.000000000000000048e-04,4.223814908760768816e+01,2.399999999999999911e-01
2.196400267000000017e+00,9.571105250000000453e-01,1.298070568482013964e+00,1.000000000000000048e-04,4.448848954147458556e+01,2.500000000000000000e-01
2.195980999000000100e+00,9.563170869999999546e-01,3.061034495495720265e-01,1.000000000000000048e-04,4.062279624914086895e+01,2.200000000000000011e-01
2.198886345000000020e+00,9.574225640000000315e-01,3.978310994594397298e-01,1.000000000000000048e-04,4.157719195629734088e+01,3.300000000000000155e-01
-2.382942164179586264e+00,-9.487821469999999646e-01,2.381829558815463654e-01,1.000000000000000048e-04,4.037513373484558343e+01,2.000000000000000111e-01
2.197058621000000045e+00,9.568337070000000333e-01,3.111233771728880715e-01,1.000000000000000048e-04,4.095829440289923440e+01,2.600000000000000089e-01
2.196754174000000059e+00,9.569828230000000380e-01,4.260681214954900042e-01,1.000000000000000048e-04,4.136897826193112593e+01,2.399999999999999911e-01
-2.381905888179586039e+00,-9.494029419999999719e-01,2.732900901033478158e-01,1.000000000000000048e-04,4.043957824369039145e+01,2.399999999999999911e-01
-2.382353656179586388e+00,-9.501919130000000546e-01,4.535431432846559474e-01,1.000000000000000048e-04,4.162865705347805800e+01,2.600000000000000089e-01
-2.385313647179586383e+00,-9.492824659999999914e-01,3.571002580974658169e-01,1.000000000000000048e-04,4.155761279281231424e+01,2.399999999999999911e-01
-2.383308463179586223e+00,-9.502672559999999491e-01,1.627927568659152391e-01,1.000000000000000048e-04,3.939164206492667120e+01,2.000000000000000111e-01
2.194446376000000143e+00,9.548028840000000184e-01,7.099891182149028479e-01,1.000000000000000048e-04,4.398175285752595443e+01,3.699999999999999956e-01
-2.377678389179586294e+00,-9.493284189999999789e-01,1.797924328663773053e-01,1.000000000000000048e-04,3.992415567369102547e+01,3.099999999999999978e-01
2.195048706000000127e+00,9.553664520000000326e-01,3.099812691437214274e-01,1.000000000000000048e-04,4.114074673439410645e+01,2.399999999999999911e-01
2.194988459000000169e+00,9.569281090000000267e-01,3.377915334723127772e-01,1.000000000000000048e-04,4.108930117470696075e+01,2.099999999999999922e-01
2.198773670000000013e+00,9.585742720000000050e-01,1.558728604411619978e-01,1.000000000000000048e-04,3.887530369701858746e+01,2.800000000000000266e-01
2.196007632000000154e+00,9.574002940000000406e-01,2.848034603445472879e-01,1.000000000000000048e-04,4.052533772572756021e+01,2.800000000000000266e-01
2.193610842000000005e+00,9.569156829999999614e-01,5.206580732013722512e-01,1.000000000000000048e-04,4.236148431124359348e+01,2.099999999999999922e-01
2.194846306000000080e+00,9.574700699999999509e-01,3.504729007343037606e-01,1.000000000000000048e-04,4.152500723031408114e+01,2.300000000000000100e-01
-2.901318991795864832e-01,1.086903570000000041e+00,1.520599067301547924e-01,1.000000000000000048e-04,3.951728694909627393e+01,2.000000000000000111e-01
-2.914486071795865385e-01,1.085909494999999891e+00,8.285173063334381194e-01,1.000000000000000048e-04,4.372029011884629313e+01,1.000000000000000056e-01
-2.954610881795858290e-01,1.084462065999999947e+00,2.458177763267027638e-01,1.000000000000000048e-04,4.055705205149695303e+01,1.199999999999999956e-01
-3.403197011795864313e-01,1.090760651000000081e+00,1.027354119648411279e+00,1.000000000000000048e-04,4.415825595430940353e+01,8.999999999999999667e-02
-3.429455761795860980e-01,1.087892671000000089e+00,7.558402260673753315e-01,1.000000000000000048e-04,4.333677335186366264e+01,1.400000000000000133e-01
6.896152909999999636e-01,-9.249195220000000495e-01,5.826819382023469274e-01,1.000000000000000048e-04,4.282301511950218043e+01,2.000000000000000111e-01
1.024453132999999960e+00,1.182715689999999986e+00,8.429635458422616301e-01,1.000000000000000048e-04,4.364119475361022182e+01,1.900000000000000022e-01
1.006083177000000051e+00,1.165244638999999971e+00,3.989042659224578125e-01,1.000000000000000048e-04,4.175877444966996421e+01,1.700000000000000122e-01
9.905969959999999519e-01,1.153001898999999941e+00,2.702452763368917155e-01,1.000000000000000048e-04,4.040370288763023865e+01,3.499999999999999778e-01
2.950804928999999799e+00,-1.010655210999999998e+00,2.036430824170927800e-01,1.000000000000000048e-04,4.003383479706422321e+01,1.700000000000000122e-01
2.951637304000000128e+00,-1.010683065999999908e+00,4.660167064084026478e-01,1.000000000000000048e-04,4.209965249091452222e+01,1.900000000000000022e-01
-2.349248843179586377e+00,-9.322901449999999590e-01,3.308409284232256553e-01,1.000000000000000048e-04,4.116990318899368617e+01,1.900000000000000022e-01
