1.794023199870000029e+00,-1.066504575379999986e+00,1.186247365548960125e-01,1.889999999999999862e-05,3.872600614772450456e+01,1.226000000000000006e-01
7.402625042339999739e-01,-3.478394374039999737e-01,1.283823631812929522e-01,5.000000000000000104e-04,3.904838119899670801e+01,1.265000000000000013e-01
2.353709585569999874e+00,-1.080984469609999943e+00,1.014325596506345240e-01,1.609999999999999832e-05,3.824000125078596568e+01,1.386999999999999900e-01
2.802585039039999781e+00,-1.015603153890000110e+00,1.048829434814910200e-01,1.830000000000000097e-05,3.831097782935025009e+01,1.388000000000000067e-01
1.777274800810000110e+00,-1.074644056479999943e+00,6.193479991214222852e-02,1.329999999999999972e-05,3.754105954724586525e+01,1.411999999999999922e-01
2.913516280570000117e+00,-9.707627933700000433e-01,1.330638204917704015e-01,6.900000000000000005e-06,3.901103475748325877e+01,1.700000000000000122e-01
1.085549145259999904e+00,-7.448246486780000231e-01,1.152040920475241731e-01,1.840000000000000001e-05,3.868147758846765782e+01,1.277999999999999969e-01
1.027510266820000018e+00,-6.962213171690000424e-01,1.387589638051872076e-01,1.349999999999999949e-05,3.899345040198844714e+01,1.368999999999999939e-01
1.399970736520000036e+00,-9.625335564200000471e-01,1.018942360466858627e-01,1.980000000000000016e-05,3.837628412432806613e+01,1.358000000000000040e-01
2.570116769140000201e+00,-1.064664255240000079e+00,1.049530503057482661e-01,1.329999999999999972e-05,3.823438659331677059e+01,1.436999999999999944e-01
9.720875361769999445e-01,-6.095229793949999975e-01,1.377833537178512757e-01,1.290000000000000016e-05,3.904110378532901393e+01,1.373000000000000054e-01
1.621246130609999891e+00,-1.030625734150000028e+00,1.244634614894336022e-01,5.000000000000000104e-03,3.895278443493288734e+01,1.584000000000000130e-01
-3.042339658870000019e+00,-7.656767762299999669e-01,1.052369850482467173e-01,5.000000000000000104e-04,3.828786723663034053e+01,1.280999999999999917e-01
1.947272166539999905e+00,-1.101887229609999963e+00,1.423996829892841820e-01,6.999999999999999895e-06,3.902552212621193206e+01,1.270999999999999908e-01
1.341846001540000000e+00,-9.474381739049999585e-01,1.156717334774661071e-01,7.999999999999999638e-06,3.840277087624015451e+01,1.443000000000000116e-01
7.996623925639999575e-01,-4.051612241720000118e-01,4.272783615240986071e-02,1.599999999999999928e-05,3.654701141579161572e+01,1.696000000000000008e-01
8.159396800399999483e-01,-4.608107027469999784e-01,7.924996964833191937e-02,5.000000000000000104e-03,3.769817137942736451e+01,1.826000000000000123e-01
2.125302249619999806e+00,-1.086803689069999912e+00,1.401429063395691621e-01,1.340000000000000045e-05,3.919083141767480072e+01,1.282999999999999974e-01
-3.106068213669999967e+00,-7.694953304789999837e-01,1.333035154325343530e-01,5.000000000000000104e-03,3.896744075418980913e+01,1.608999999999999875e-01
2.841950137700000045e+00,-9.875161071129999746e-01,1.311993449359590280e-01,2.159999999999999987e-05,3.896163061912551484e+01,1.943000000000000005e-01
-3.134999796409999817e+00,-8.037173782269999567e-01,1.225056446431422030e-01,1.419999999999999957e-05,3.877703189935048300e+01,1.270999999999999908e-01
9.671751689580000422e-01,-6.400502010180000312e-01,7.647249766343595934e-02,1.509999999999999942e-05,3.768884723675071768e+01,1.388999999999999957e-01
2.720836001069999899e+00,-9.986845377940000157e-01,1.421345058901496150e-01,1.779999999999999898e-05,3.926642454840867202e+01,1.534999999999999976e-01
8.302812732050000033e-01,-4.498958842110000189e-01,1.420263098964061887e-01,5.000000000000000104e-04,3.929247453104131438e+01,1.365999999999999992e-01
2.647198647480000222e+00,-1.045089967700000066e+00,1.100746293357464656e-01,7.700000000000000816e-06,3.836957588143863518e+01,1.254000000000000115e-01
1.818959325520000059e+00,-1.082495407979999991e+00,7.952413463490672074e-02,2.970000000000000024e-05,3.752946808234108289e+01,1.156999999999999973e-01
1.155317387099999982e+00,-7.915749840529999748e-01,1.235452944255439195e-01,2.159999999999999987e-05,3.886982852648775832e+01,1.307000000000000106e-01
-3.085894853380000136e+00,-7.425671854069999522e-01,1.330258901823813678e-01,5.000000000000000104e-03,3.911709376315349829e+01,1.781999999999999973e-01
1.135128119430000027e+00,-8.234341324370000326e-01,1.405151184049487356e-01,1.540000000000000163e-05,3.920624094868128395e+01,1.270000000000000018e-01
8.771002889440000505e-01,-5.395284705770000411e-01,1.199953901455203947e-01,6.339999999999999607e-05,3.873251014191352937e+01,1.569000000000000117e-01
1.745186286110000040e+00,-1.042342141470000039e+00,1.168129000708960086e-01,5.000000000000000104e-03,3.881548759970785056e+01,1.706999999999999906e-01
2.946531179209999962e+00,-9.604502811189999933e-01,9.864115043603886857e-02,1.079999999999999993e-05,3.835638676727767660e+01,1.285999999999999921e-01
1.166608233690000107e+00,-7.996043302990000212e-01,1.053742993800143163e-01,2.159999999999999987e-05,3.857681754457134105e+01,1.400000000000000133e-01
1.185990132269999942e+00,-8.641372202310000361e-01,1.334135344282453561e-01,1.590000000000000023e-05,3.903905012166752897e+01,1.340000000000000080e-01
-3.115682483410000092e+00,-7.921200688409999469e-01,9.458626878258394322e-02,5.000000000000000104e-04,3.827615251861793411e+01,1.269000000000000128e-01
2.721615272170000210e+00,-1.026974405240000054e+00,1.276824190512197976e-01,1.669999999999999935e-05,3.861073234461581194e+01,1.351999999999999869e-01
2.727804926320000156e+00,-1.024504387349999934e+00,1.025848140934657871e-01,9.399999999999999786e-06,3.826838614660562854e+01,1.759000000000000008e-01
1.426680047809999907e+00,-9.906820955959999564e-01,1.048285264734061112e-01,6.800000000000000116e-06,3.828161822199093933e+01,1.161999999999999977e-01
-3.031490600410000180e+00,-7.521339244750000486e-01,9.165830703474933672e-02,5.000000000000000104e-03,3.798899857764445187e+01,1.552000000000000046e-01
-3.042901330919999925e+00,-7.306456428419999538e-01,9.650464646133231905e-02,5.000000000000000104e-03,3.822616997864046340e+01,1.589000000000000135e-01
8.404722479970000437e-01,-4.623668884409999902e-01,1.008522527552888071e-01,5.000000000000000104e-03,3.847143367971474248e+01,1.965000000000000080e-01
3.100915619489999830e+00,-8.173695768680000473e-01,8.801653638243149558e-02,3.399999999999999973e-05,3.787438808036453963e+01,1.670999999999999985e-01
1.286002955080000065e+00,-9.049919594959999758e-01,5.664309452772985087e-02,5.599999999999999747e-06,3.647920193517501986e+01,2.861000000000000210e-01
1.737660748389999954e+00,-1.062189249350000031e+00,9.815642924731121655e-02,5.000000000000000104e-03,3.839995045686841735e+01,1.638000000000000012e-01
2.095352158109999863e+00,-1.096962326439999913e+00,8.756208731290134051e-02,1.720000000000000134e-05,3.790484547321054265e+01,1.141999999999999960e-01
8.167659532600000105e-01,-4.688205310329999764e-01,1.210892125282964221e-01,3.000000000000000076e-05,3.873012364318985590e+01,1.711999999999999911e-01
2.667802166029999977e+00,-1.012992242439999968e+00,1.101974144707020820e-01,8.199999999999999417e-06,3.846914555768871224e+01,1.376999999999999891e-01
1.009909081290000010e+00,-7.225277238559999482e-01,1.411880232977827665e-01,2.019999999999999972e-05,3.896025540700293988e+01,1.419999999999999873e-01
2.300619155610000188e+00,-1.097223542480000091e+00,7.003200467636680471e-02,5.959999999999999857e-05,3.757212281491909778e+01,1.456999999999999962e-01
1.255215416199999989e+00,-8.574584809030000310e-01,1.255402481530810688e-01,1.900000000000000105e-05,3.893726040547375788e+01,2.167999999999999927e-01
1.911644274089999929e+00,-1.096370223150000101e+00,7.537103466361287640e-02,3.809999999999999775e-05,3.810255774453595023e+01,1.733999999999999986e-01
8.206518518590000255e-01,-3.994206287100000030e-01,9.846648023667446681e-02,2.869999999999999965e-05,3.825076417651889926e+01,1.630999999999999950e-01
9.041604029409999743e-01,-5.889006783089999475e-01,7.375263349222525855e-02,1.020000000000000060e-05,3.775692650523347993e+01,1.348000000000000032e-01
1.415457213080000054e+00,-9.568995503610000508e-01,1.402039478752251933e-01,1.369999999999999927e-05,3.932835796782458004e+01,2.263999999999999901e-01
-3.010963742429999979e+00,-7.220265089699999805e-01,1.409292128166722557e-01,1.709999999999999891e-05,3.894311513104622691e+01,1.378000000000000058e-01
2.101167545840000095e+00,-1.082254349230000079e+00,7.260241979393521061e-02,1.340000000000000045e-05,3.765749786950824785e+01,1.173000000000000015e-01
9.991690961460000242e-01,-7.076684939909999583e-01,5.654265887541733843e-02,1.540000000000000163e-05,3.676061151786345249e+01,1.645000000000000073e-01
1.873057221090000057e+00,-1.090367434140000036e+00,1.403479623793930375e-01,1.399999999999999979e-05,3.912006899883595423e+01,1.307999999999999996e-01
1.857861219069999903e+00,-1.098153534699999989e+00,9.440473999498945334e-02,1.380000000000000001e-05,3.817440712853139217e+01,1.484999999999999931e-01
2.665524588519999849e+00,-1.048996702910000023e+00,9.024734749711409154e-02,2.989999999999999833e-05,3.797711261912116498e+01,1.246000000000000024e-01
2.355154943700000114e+00,-1.097972677060000013e+00,1.264031771929610970e-01,2.199999999999999943e-05,3.869978205495873169e+01,1.806999999999999995e-01
9.795978195679999612e-01,-6.427905315930000363e-01,5.815994020434921835e-02,1.809999999999999950e-05,3.705796153060880727e+01,1.572000000000000064e-01
-3.057869156220000217e+00,-7.350573474220000181e-01,1.166489962876831876e-01,3.470000000000000319e-05,3.859503337413100610e+01,1.242000000000000048e-01
9.920497477990000146e-01,-6.500334753240000207e-01,1.197125733446964130e-01,9.000000000000000228e-06,3.863362150060443412e+01,2.169999999999999984e-01
3.130046329429999830e+00,-8.523119884030000426e-01,1.336491887887909513e-01,1.259999999999999964e-05,3.902558436267160147e+01,1.213000000000000050e-01
2.379028017850000065e+00,-1.072014097799999899e+00,1.239732826194827331e-01,1.049999999999999942e-05,3.897640495554549034e+01,1.262999999999999956e-01
2.357025798630000057e+00,-1.081619083709999929e+00,1.326485910881216590e-01,1.079999999999999993e-05,3.870397054645075485e+01,1.401000000000000023e-01
-2.970667736299999806e+00,-6.774830050879999677e-01,1.381542584958417585e-01,5.000000000000000104e-04,3.879458590378165184e+01,1.595999999999999919e-01
9.081755733340000081e-01,-5.458360787789999780e-01,1.278026034607573080e-01,2.559999999999999884e-05,3.902516615303478176e+01,1.363999999999999935e-01
1.358823888090000098e+00,-9.312103408390000059e-01,1.183104851567100130e-01,5.000000000000000104e-03,3.854518617488719201e+01,1.728999999999999981e-01
2.298395117170000113e+00,-1.078031132260000025e+00,1.192764363366328462e-01,1.439999999999999935e-05,3.884089260921199127e+01,1.371999999999999886e-01
-3.070442777129999801e+00,-7.549988654300000546e-01,1.207478189143672970e-01,1.349999999999999949e-05,3.869987152203864156e+01,1.471000000000000085e-01
1.477099177229999949e+00,-1.010621637769999914e+00,1.047767944852701638e-01,2.339999999999999958e-05,3.890580808144018476e+01,1.431999999999999940e-01
8.741869070719999746e-01,-5.017862068989999980e-01,8.763528916151229475e-02,5.000000000000000104e-04,3.799045884596234401e+01,1.423000000000000098e-01
2.330225988860000097e+00,-1.085528504420000040e+00,1.268901527571245358e-01,9.500000000000000523e-06,3.902668475108352197e+01,1.476000000000000090e-01
7.436354871750000539e-01,-3.504138256459999878e-01,5.958958685833350838e-02,5.000000000000000104e-04,3.718064449808869654e+01,1.774999999999999911e-01
1.427162433049999901e+00,-9.612825434239999911e-01,1.294079999166717621e-01,2.180000000000000134e-05,3.883739716818558207e+01,1.255999999999999894e-01
9.044026198019999851e-01,-5.322096512109999455e-01,1.250649180549693873e-01,5.000000000000000104e-03,3.896806031105042223e+01,1.680000000000000104e-01
8.455056588670000206e-01,-5.142817755869999452e-01,1.029267405838548699e-01,1.349999999999999949e-05,3.857952931914241645e+01,1.323000000000000009e-01
1.205649471110000093e+00,-8.710924191309999953e-01,1.433559317167046876e-01,5.000000000000000104e-04,3.925937986858831863e+01,1.277000000000000079e-01
1.943996264309999944e+00,-1.074116518739999915e+00,1.393779132262063236e-01,1.430000000000000031e-05,3.888284320343679923e+01,1.484000000000000041e-01
3.097793320910000148e+00,-8.262323889349999506e-01,1.268770649025373620e-01,2.069999999999999832e-05,3.890208859976537070e+01,1.265999999999999903e-01
1.039784177770000095e+00,-7.522941733079999693e-01,1.213797303291148932e-01,3.820000000000000018e-05,3.896635414882820214e+01,1.250999999999999890e-01
2.184902241780000143e+00,-1.103811874810000093e+00,9.939818329022750976e-02,2.209999999999999847e-05,3.826198380020348111e+01,1.250000000000000000e-01
1.466494425010000047e+00,-9.700494030970000514e-01,1.146696919194323261e-01,2.349999999999999862e-05,3.851529153881504186e+01,1.444999999999999896e-01
7.947229055519999807e-01,-4.173956512609999780e-01,1.155741336602642971e-01,1.450000000000000009e-05,3.857595539644061944e+01,1.716000000000000025e-01
1.108604996610000004e+00,-7.642787783910000021e-01,1.080899912531206597e-01,5.200000000000000188e-06,3.845556400872431624e+01,1.686999999999999889e-01
2.082009968799999999e+00,-1.113896128449999967e+00,1.304585117801752014e-01,1.049999999999999942e-05,3.896853991104535453e+01,1.280999999999999917e-01
1.869326667860000013e+00,-1.083687296129999922e+00,7.323417554216828107e-02,2.129999999999999935e-05,3.796590544009381318e+01,1.824000000000000066e-01
1.393367858249999980e+00,-9.489811826320000421e-01,1.374459534699453145e-01,2.619999999999999987e-05,3.924653156294097300e+01,1.252999999999999947e-01
1.078385828560000093e+00,-7.403871388199999570e-01,1.072900371219946414e-01,2.099999999999999884e-05,3.853224182250139762e+01,1.232000000000000040e-01
1.814520130830000078e+00,-1.075429706089999993e+00,1.291131942299309776e-01,1.590000000000000023e-05,3.918395824715610587e+01,4.264000000000000012e-01
1.011862774459999947e+00,-6.888224621940000070e-01,1.099957494398615260e-01,2.680000000000000090e-05,3.855622441690622537e+01,1.262999999999999956e-01
8.544698483829999969e-01,-5.015490967350000329e-01,6.730938895862853544e-02,5.000000000000000104e-03,3.747892109553602324e+01,1.559999999999999998e-01
1.018549290619999992e+00,-7.028238768519999846e-01,1.141852070564403909e-01,8.800000000000000449e-06,3.882330471084294743e+01,1.323000000000000009e-01
1.623787387219999934e+00,-1.054606196469999979e+00,1.163181448026563147e-01,1.809999999999999950e-05,3.867760527799037362e+01,1.325000000000000067e-01
-3.049611868680000004e+00,-7.649298403180000427e-01,9.925938120882044080e-02,8.800000000000000449e-06,3.845227660600299657e+01,1.373999999999999944e-01
9.325682391520000447e-01,-6.045088198550000458e-01,1.109665413010935964e-01,6.700000000000000226e-06,3.827030113734148387e+01,1.852000000000000035e-01
1.143614002939999930e+00,-7.961324350570000430e-01,1.167471048169013981e-01,1.679999999999999839e-05,3.848687616666610012e+01,1.247000000000000053e-01
1.194021646369999967e+00,-8.723073439849999833e-01,1.353542513556494353e-01,7.900000000000000595e-06,3.902112508158315052e+01,1.376999999999999891e-01
2.197122871779999986e+00,-1.118233355919999950e+00,1.345059484231323765e-01,1.079999999999999993e-05,3.903931497068713696e+01,1.489999999999999936e-01
1.184121655390000027e+00,-8.242287254719999900e-01,1.227814862850157146e-01,2.229999999999999994e-05,3.878825066640803243e+01,1.338999999999999913e-01
1.089700901779999898e+00,-7.536230516480000308e-01,1.351996731928504225e-01,1.580000000000000119e-05,3.887320722552328078e+01,1.474000000000000032e-01
