1.794023199870000029e+00,-1.066504575379999986e+00,1.076470022585490349e-01,1.889999999999999862e-05,3.845250832501631777e+01,1.226000000000000006e-01
7.402625042339999739e-01,-3.478394374039999737e-01,1.139119017479445634e-01,5.000000000000000104e-04,3.865191293331342592e+01,1.265000000000000013e-01
2.353709585569999874e+00,-1.080984469609999943e+00,1.054319075321414195e-01,1.609999999999999832e-05,3.837402420295541816e+01,1.386999999999999900e-01
2.802585039039999781e+00,-1.015603153890000110e+00,1.173521754341823736e-01,1.830000000000000097e-05,3.883387922352220301e+01,1.388000000000000067e-01
1.777274800810000110e+00,-1.074644056479999943e+00,8.042551126725544508e-02,1.329999999999999972e-05,3.778259936188405987e+01,1.411999999999999922e-01
2.913516280570000117e+00,-9.707627933700000433e-01,6.154488985230375381e-02,6.900000000000000005e-06,3.690632992198780471e+01,1.700000000000000122e-01
1.085549145259999904e+00,-7.448246486780000231e-01,1.101123344846831054e-01,1.840000000000000001e-05,3.855495288619199812e+01,1.277999999999999969e-01
1.027510266820000018e+00,-6.962213171690000424e-01,1.382407134630481704e-01,1.349999999999999949e-05,3.883695430049294117e+01,1.368999999999999939e-01
1.399970736520000036e+00,-9.625335564200000471e-01,1.414663326858610071e-01,1.980000000000000016e-05,3.928129334806413908e+01,1.358000000000000040e-01
2.570116769140000201e+00,-1.064664255240000079e+00,1.373448926804577142e-01,1.329999999999999972e-05,3.904358178399995438e+01,1.436999999999999944e-01
9.720875361769999445e-01,-6.095229793949999975e-01,1.108535298203334601e-01,1.290000000000000016e-05,3.866122116167426981e+01,1.373000000000000054e-01
1.621246130609999891e+00,-1.030625734150000028e+00,1.141050578233425011e-01,5.000000000000000104e-03,3.877907672378465520e+01,1.584000000000000130e-01
-3.042339658870000019e+00,-7.656767762299999669e-01,7.513846346907648854e-02,5.000000000000000104e-04,3.778842137236517829e+01,1.280999999999999917e-01
1.947272166539999905e+00,-1.101887229609999963e+00,1.295153164696955239e-01,6.999999999999999895e-06,3.903646447535916764e+01,1.270999999999999908e-01
1.341846001540000000e+00,-9.474381739049999585e-01,1.394420614996388641e-01,7.999999999999999638e-06,3.908356576845677210e+01,1.443000000000000116e-01
7.996623925639999575e-01,-4.051612241720000118e-01,1.322769310687377520e-01,1.599999999999999928e-05,3.892144055833836092e+01,1.696000000000000008e-01
8.159396800399999483e-01,-4.608107027469999784e-01,5.454241797843983192e-02,5.000000000000000104e-03,3.714733809597640857e+01,1.826000000000000123e-01
2.125302249619999806e+00,-1.086803689069999912e+00,1.297410158609834663e-01,1.340000000000000045e-05,3.859727031029496658e+01,1.282999999999999974e-01
-3.106068213669999967e+00,-7.694953304789999837e-01,1.153496163437951888e-01,5.000000000000000104e-03,3.860001736938149719e+01,1.608999999999999875e-01
2.841950137700000045e+00,-9.875161071129999746e-01,1.125716302557731030e-01,2.159999999999999987e-05,3.831708454094359695e+01,1.943000000000000005e-01
-3.134999796409999817e+00,-8.037173782269999567e-01,1.420114841231914227e-01,1.419999999999999957e-05,3.910131851133016312e+01,1.270999999999999908e-01
9.671751689580000422e-01,-6.400502010180000312e-01,1.420141755264733574e-01,1.509999999999999942e-05,3.905345034669545612e+01,1.388999999999999957e-01
2.720836001069999899e+00,-9.986845377940000157e-01,8.513482622433761471e-02,1.779999999999999898e-05,3.808674679783401018e+01,1.534999999999999976e-01
8.302812732050000033e-01,-4.498958842110000189e-01,1.409128361204741164e-01,5.000000000000000104e-04,3.903839989757314299e+01,1.365999999999999992e-01
2.647198647480000222e+00,-1.045089967700000066e+00,9.595379420580305019e-02,7.700000000000000816e-06,3.829754482598342946e+01,1.254000000000000115e-01
1.818959325520000059e+00,-1.082495407979999991e+00,1.186987052544448557e-01,2.970000000000000024e-05,3.871861363241053766e+01,1.156999999999999973e-01
1.155317387099999982e+00,-7.915749840529999748e-01,6.743558492086473843e-02,2.159999999999999987e-05,3.755051450977636307e+01,1.307000000000000106e-01
-3.085894853380000136e+00,-7.425671854069999522e-01,1.404019724066788988e-01,5.000000000000000104e-03,3.893228258099608041e+01,1.781999999999999973e-01
1.135128119430000027e+00,-8.234341324370000326e-01,1.259864072621625086e-01,1.540000000000000163e-05,3.878368484513647019e+01,1.270000000000000018e-01
8.771002889440000505e-01,-5.395284705770000411e-01,1.408586066964149508e-01,6.339999999999999607e-05,3.904837559664036917e+01,1.569000000000000117e-01
1.745186286110000040e+00,-1.042342141470000039e+00,1.376906947189636687e-01,5.000000000000000104e-03,3.873856735479447622e+01,1.706999999999999906e-01
2.946531179209999962e+00,-9.604502811189999933e-01,1.228587419627832078e-01,1.079999999999999993e-05,3.889228965387713544e+01,1.285999999999999921e-01
1.166608233690000107e+00,-7.996043302990000212e-01,1.174880879001787143e-01,2.159999999999999987e-05,3.858755603780612375e+01,1.400000000000000133e-01
1.185990132269999942e+00,-8.641372202310000361e-01,1.333625835310115193e-01,1.590000000000000023e-05,3.892597830035904849e+01,1.340000000000000080e-01
-3.115682483410000092e+00,-7.921200688409999469e-01,1.371518690355106873e-01,5.000000000000000104e-04,3.898990328677900408e+01,1.269000000000000128e-01
2.721615272170000210e+00,-1.026974405240000054e+00,1.380908385756412227e-01,1.669999999999999935e-05,3.909701701410022423e+01,1.351999999999999869e-01
2.727804926320000156e+00,-1.024504387349999934e+00,1.233653953128553971e-01,9.399999999999999786e-06,3.880257575753213928e+01,1.759000000000000008e-01
1.426680047809999907e+00,-9.906820955959999564e-01,1.208701708218650611e-01,6.800000000000000116e-06,3.872905946104484798e+01,1.161999999999999977e-01
-3.031490600410000180e+00,-7.521339244750000486e-01,1.108591502882594892e-01,5.000000000000000104e-03,3.885765004479930695e+01,1.552000000000000046e-01
-3.042901330919999925e+00,-7.306456428419999538e-01,1.197861857356343623e-01,5.000000000000000104e-03,3.891576169822305076e+01,1.589000000000000135e-01
8.404722479970000437e-01,-4.623668884409999902e-01,1.374270041547794030e-01,5.000000000000000104e-03,3.920617579877826842e+01,1.965000000000000080e-01
3.100915619489999830e+00,-8.173695768680000473e-01,1.426753117071112298e-01,3.399999999999999973e-05,3.949189820068283296e+01,1.670999999999999985e-01
1.286002955080000065e+00,-9.049919594959999758e-01,1.241826977487339861e-01,5.599999999999999747e-06,3.903690676747369537e+01,2.861000000000000210e-01
1.737660748389999954e+00,-1.062189249350000031e+00,5.395965144554650678e-02,5.000000000000000104e-03,3.705755550920886776e+01,1.638000000000000012e-01
2.095352158109999863e+00,-1.096962326439999913e+00,1.236481074376225148e-01,1.720000000000000134e-05,3.883158331808509445e+01,1.141999999999999960e-01
8.167659532600000105e-01,-4.688205310329999764e-01,1.372315538896615450e-01,3.000000000000000076e-05,3.907283460303298739e+01,1.711999999999999911e-01
2.667802166029999977e+00,-1.012992242439999968e+00,9.502431696542600059e-02,8.199999999999999417e-06,3.840939584900982595e+01,1.376999999999999891e-01
1.009909081290000010e+00,-7.225277238559999482e-01,1.359251649570623333e-01,2.019999999999999972e-05,3.900851611060183899e+01,1.419999999999999873e-01
2.300619155610000188e+00,-1.097223542480000091e+00,1.363807758868470776e-01,5.959999999999999857e-05,3.898536753578371616e+01,1.456999999999999962e-01
1.255215416199999989e+00,-8.574584809030000310e-01,1.130820103627048906e-01,1.900000000000000105e-05,3.876086561571359823e+01,2.167999999999999927e-01
1.911644274089999929e+00,-1.096370223150000101e+00,1.102931214615618105e-01,3.809999999999999775e-05,3.851420729898151762e+01,1.733999999999999986e-01
8.206518518590000255e-01,-3.994206287100000030e-01,9.335964407318764202e-02,2.869999999999999965e-05,3.846339164439256564e+01,1.630999999999999950e-01
9.041604029409999743e-01,-5.889006783089999475e-01,8.647771554440532304e-02,1.020000000000000060e-05,3.803482582312086180e+01,1.348000000000000032e-01
1.415457213080000054e+00,-9.568995503610000508e-01,6.740347695918089133e-02,1.369999999999999927e-05,3.766953634615535407e+01,2.263999999999999901e-01
-3.010963742429999979e+00,-7.220265089699999805e-01,1.231490456039249781e-01,1.709999999999999891e-05,3.873390873789710298e+01,1.378000000000000058e-01
2.101167545840000095e+00,-1.082254349230000079e+00,1.235559889244977061e-01,1.340000000000000045e-05,3.883445518882209768e+01,1.173000000000000015e-01
9.991690961460000242e-01,-7.076684939909999583e-01,1.217812774287662658e-01,1.540000000000000163e-05,3.871142498372669394e+01,1.645000000000000073e-01
1.873057221090000057e+00,-1.090367434140000036e+00,1.199444988895855824e-01,1.399999999999999979e-05,3.874665989285463041e+01,1.307999999999999996e-01
1.857861219069999903e+00,-1.098153534699999989e+00,8.544840608776324564e-02,1.380000000000000001e-05,3.795382306279753948e+01,1.484999999999999931e-01
2.665524588519999849e+00,-1.048996702910000023e+00,1.149368967869521391e-01,2.989999999999999833e-05,3.863185010349324955e+01,1.246000000000000024e-01
2.355154943700000114e+00,-1.097972677060000013e+00,8.656762351087209095e-02,2.199999999999999943e-05,3.782208427615265123e+01,1.806999999999999995e-01
9.795978195679999612e-01,-6.427905315930000363e-01,1.212559709238417993e-01,1.809999999999999950e-05,3.853944921617937780e+01,1.572000000000000064e-01
-3.057869156220000217e+00,-7.350573474220000181e-01,4.973274860983578627e-02,3.470000000000000319e-05,3.646358887006130090e+01,1.242000000000000048e-01
9.920497477990000146e-01,-6.500334753240000207e-01,1.255276759124129837e-01,9.000000000000000228e-06,3.862222119094418105e+01,2.169999999999999984e-01
3.130046329429999830e+00,-8.523119884030000426e-01,1.426348771947238137e-01,1.259999999999999964e-05,3.931432034959992450e+01,1.213000000000000050e-01
2.379028017850000065e+00,-1.072014097799999899e+00,1.342458732107581487e-01,1.049999999999999942e-05,3.910207996541885223e+01,1.262999999999999956e-01
2.357025798630000057e+00,-1.081619083709999929e+00,1.242918337363265457e-01,1.079999999999999993e-05,3.905983441457429706e+01,1.401000000000000023e-01
-2.970667736299999806e+00,-6.774830050879999677e-01,1.319896330188180256e-01,5.000000000000000104e-04,3.920148813401334564e+01,1.595999999999999919e-01
9.081755733340000081e-01,-5.458360787789999780e-01,1.350862089284639300e-01,2.559999999999999884e-05,3.900974580867600849e+01,1.363999999999999935e-01
1.358823888090000098e+00,-9.312103408390000059e-01,1.433339745163191847e-01,5.000000000000000104e-03,3.955960377276961992e+01,1.728999999999999981e-01
2.298395117170000113e+00,-1.078031132260000025e+00,1.191600305306183688e-01,1.439999999999999935e-05,3.862645036187475256e+01,1.371999999999999886e-01
-3.070442777129999801e+00,-7.549988654300000546e-01,1.409375644390762905e-01,1.349999999999999949e-05,3.908168205554611063e+01,1.471000000000000085e-01
1.477099177229999949e+00,-1.010621637769999914e+00,6.735190784883705872e-02,2.339999999999999958e-05,3.761655425867768088e+01,1.431999999999999940e-01
8.741869070719999746e-01,-5.017862068989999980e-01,1.210685946770623661e-01,5.000000000000000104e-04,3.882507050783770808e+01,1.423000000000000098e-01
2.330225988860000097e+00,-1.085528504420000040e+00,1.299938465554978662e-01,9.500000000000000523e-06,3.896088751198412581e+01,1.476000000000000090e-01
7.436354871750000539e-01,-3.504138256459999878e-01,1.252998684876844293e-01,5.000000000000000104e-04,3.885671326113973834e+01,1.774999999999999911e-01
1.427162433049999901e+00,-9.612825434239999911e-01,5.527159572021934919e-02,2.180000000000000134e-05,3.694605388903558918e+01,1.255999999999999894e-01
9.044026198019999851e-01,-5.322096512109999455e-01,1.186318575943417636e-01,5.000000000000000104e-03,3.884755196470106853e+01,1.680000000000000104e-01
8.455056588670000206e-01,-5.142817755869999452e-01,9.540009474732888406e-02,1.349999999999999949e-05,3.832596636035253113e+01,1.323000000000000009e-01
1.205649471110000093e+00,-8.710924191309999953e-01,1.065843847772877384e-01,5.000000000000000104e-04,3.844789916010063990e+01,1.277000000000000079e-01
1.943996264309999944e+00,-1.074116518739999915e+00,1.431383006787516898e-01,1.430000000000000031e-05,3.937139785969112893e+01,1.484000000000000041e-01
3.097793320910000148e+00,-8.262323889349999506e-01,1.006379087108907056e-01,2.069999999999999832e-05,3.825551293299453448e+01,1.265999999999999903e-01
1.039784177770000095e+00,-7.522941733079999693e-01,1.254571511303089471e-01,3.820000000000000018e-05,3.893841019717816465e+01,1.250999999999999890e-01
2.184902241780000143e+00,-1.103811874810000093e+00,1.212494227011075565e-01,2.209999999999999847e-05,3.868404558011931016e+01,1.250000000000000000e-01
1.466494425010000047e+00,-9.700494030970000514e-01,1.022966030866652165e-01,2.349999999999999862e-05,3.828062279164316806e+01,1.444999999999999896e-01
7.947229055519999807e-01,-4.173956512609999780e-01,1.364721320239531965e-01,1.450000000000000009e-05,3.922684957905036640e+01,1.716000000000000025e-01
1.108604996610000004e+00,-7.642787783910000021e-01,1.065636323756808390e-01,5.200000000000000188e-06,3.864201638640960113e+01,1.686999999999999889e-01
2.082009968799999999e+00,-1.113896128449999967e+00,1.035409308657476990e-01,1.049999999999999942e-05,3.827594484429734933e+01,1.280999999999999917e-01
1.869326667860000013e+00,-1.083687296129999922e+00,1.175456119065765304e-01,2.129999999999999935e-05,3.883325738261391535e+01,1.824000000000000066e-01
1.393367858249999980e+00,-9.489811826320000421e-01,1.195663228904307734e-01,2.619999999999999987e-05,3.877976762910182629e+01,1.252999999999999947e-01
1.078385828560000093e+00,-7.403871388199999570e-01,1.343741424588478783e-01,2.099999999999999884e-05,3.910936212111527510e+01,1.232000000000000040e-01
1.814520130830000078e+00,-1.075429706089999993e+00,1.382049198059149275e-01,1.590000000000000023e-05,3.791748864976378997e+01,4.264000000000000012e-01
1.011862774459999947e+00,-6.888224621940000070e-01,1.417037316363961852e-01,2.680000000000000090e-05,3.914292416086891535e+01,1.262999999999999956e-01
8.544698483829999969e-01,-5.015490967350000329e-01,1.408600215081519946e-01,5.000000000000000104e-03,3.913588026080321924e+01,1.559999999999999998e-01
1.018549290619999992e+00,-7.028238768519999846e-01,6.285281351525959237e-02,8.800000000000000449e-06,3.722388474510870537e+01,1.323000000000000009e-01
1.623787387219999934e+00,-1.054606196469999979e+00,1.306262642913769423e-01,1.809999999999999950e-05,3.906518614038409964e+01,1.325000000000000067e-01
-3.049611868680000004e+00,-7.649298403180000427e-01,1.392809882919487929e-01,8.800000000000000449e-06,3.904663503870089158e+01,1.373999999999999944e-01
9.325682391520000447e-01,-6.045088198550000458e-01,1.148385732987929342e-01,6.700000000000000226e-06,3.846012082697597378e+01,1.852000000000000035e-01
1.143614002939999930e+00,-7.961324350570000430e-01,1.191878447390342377e-01,1.679999999999999839e-05,3.860412998627176506e+01,1.247000000000000053e-01
1.194021646369999967e+00,-8.723073439849999833e-01,1.341569011869195027e-01,7.900000000000000595e-06,3.916866280706732084e+01,1.376999999999999891e-01
2.197122871779999986e+00,-1.118233355919999950e+00,8.549298609660149761e-02,1.079999999999999993e-05,3.822944009209941640e+01,1.489999999999999936e-01
1.184121655390000027e+00,-8.242287254719999900e-01,1.141076249301161000e-01,2.229999999999999994e-05,3.846715582221393248e+01,1.338999999999999913e-01
1.089700901779999898e+00,-7.536230516480000308e-01,5.655958546736025022e-02,1.580000000000000119e-05,3.691359576481227833e+01,1.474000000000000032e-01
