1.794023199870000029e+00,-1.066504575379999986e+00,1.031203460188220844e-01,1.889999999999999862e-05,3.838929707827600879e+01,1.226000000000000006e-01
7.402625042339999739e-01,-3.478394374039999737e-01,8.791267394791851819e-02,5.000000000000000104e-04,3.808346050988698295e+01,1.265000000000000013e-01
2.353709585569999874e+00,-1.080984469609999943e+00,1.303803338129218836e-01,1.609999999999999832e-05,3.876929371952501668e+01,1.386999999999999900e-01
2.802585039039999781e+00,-1.015603153890000110e+00,8.624273682843235089e-02,1.830000000000000097e-05,3.784437670440703982e+01,1.388000000000000067e-01
1.777274800810000110e+00,-1.074644056479999943e+00,9.223403590504744565e-02,1.329999999999999972e-05,3.804258820058873880e+01,1.411999999999999922e-01
2.913516280570000117e+00,-9.707627933700000433e-01,1.300653176755032780e-01,6.900000000000000005e-06,3.884877972142314206e+01,1.700000000000000122e-01
1.085549145259999904e+00,-7.448246486780000231e-01,7.858686354881985747e-02,1.840000000000000001e-05,3.788227280462994173e+01,1.277999999999999969e-01
1.027510266820000018e+00,-6.962213171690000424e-01,1.159910655446295125e-01,1.349999999999999949e-05,3.867997211208712827e+01,1.368999999999999939e-01
1.399970736520000036e+00,-9.625335564200000471e-01,1.364506411719342283e-01,1.980000000000000016e-05,3.887492243070040132e+01,1.358000000000000040e-01
2.570116769140000201e+00,-1.064664255240000079e+00,1.310275217545699422e-01,1.329999999999999972e-05,3.892995141871608666e+01,1.436999999999999944e-01
9.720875361769999445e-01,-6.095229793949999975e-01,9.251587871686435538e-02,1.290000000000000016e-05,3.812067338348668244e+01,1.373000000000000054e-01
1.621246130609999891e+00,-1.030625734150000028e+00,8.298347011401110973e-02,5.000000000000000104e-03,3.809376755598935915e+01,1.584000000000000130e-01
-3.042339658870000019e+00,-7.656767762299999669e-01,7.830757908959527780e-02,5.000000000000000104e-04,3.792079104109913601e+01,1.280999999999999917e-01
1.947272166539999905e+00,-1.101887229609999963e+00,1.345031301274512425e-01,6.999999999999999895e-06,3.876960995384501274e+01,1.270999999999999908e-01
1.341846001540000000e+00,-9.474381739049999585e-01,7.504924355531188140e-02,7.999999999999999638e-06,3.762975253970699185e+01,1.443000000000000116e-01
7.996623925639999575e-01,-4.051612241720000118e-01,1.277118429803994482e-01,1.599999999999999928e-05,3.875874991205174069e+01,1.696000000000000008e-01
8.159396800399999483e-01,-4.608107027469999784e-01,1.248053797821646049e-01,5.000000000000000104e-03,3.898205310553979075e+01,1.826000000000000123e-01
2.125302249619999806e+00,-1.086803689069999912e+00,8.365860794989701810e-02,1.340000000000000045e-05,3.773327898293023708e+01,1.282999999999999974e-01
-3.106068213669999967e+00,-7.694953304789999837e-01,1.368237745929539173e-01,5.000000000000000104e-03,3.902180214652938162e+01,1.608999999999999875e-01
2.841950137700000045e+00,-9.875161071129999746e-01,1.261862964455308100e-01,2.159999999999999987e-05,3.893614945703961183e+01,1.943000000000000005e-01
-3.134999796409999817e+00,-8.037173782269999567e-01,1.197957151114103364e-01,1.419999999999999957e-05,3.888790517077001851e+01,1.270999999999999908e-01
9.671751689580000422e-01,-6.400502010180000312e-01,1.357485411506593187e-01,1.509999999999999942e-05,3.899400436462790509e+01,1.388999999999999957e-01
2.720836001069999899e+00,-9.986845377940000157e-01,9.651519625655505252e-02,1.779999999999999898e-05,3.839472969848045381e+01,1.534999999999999976e-01
8.302812732050000033e-01,-4.498958842110000189e-01,1.221117409842742141e-01,5.000000000000000104e-04,3.904703653049919865e+01,1.365999999999999992e-01
2.647198647480000222e+00,-1.045089967700000066e+00,9.077083649341932681e-02,7.700000000000000816e-06,3.794455642963177411e+01,1.254000000000000115e-01
1.818959325520000059e+00,-1.082495407979999991e+00,1.197381371394360405e-01,2.970000000000000024e-05,3.876952200021209194e+01,1.156999999999999973e-01
1.155317387099999982e+00,-7.915749840529999748e-01,1.036013733137757797e-01,2.159999999999999987e-05,3.826686130223382065e+01,1.307000000000000106e-01
-3.085894853380000136e+00,-7.425671854069999522e-01,1.073622748971025803e-01,5.000000000000000104e-03,3.878912805612458214e+01,1.781999999999999973e-01
1.135128119430000027e+00,-8.234341324370000326e-01,8.037145459559827398e-02,1.540000000000000163e-05,3.785554594462212208e+01,1.270000000000000018e-01
8.771002889440000505e-01,-5.395284705770000411e-01,1.118574058245075109e-01,6.339999999999999607e-05,3.860894503212082185e+01,1.569000000000000117e-01
1.745186286110000040e+00,-1.042342141470000039e+00,8.117660323290187829e-02,5.000000000000000104e-03,3.793388959878873123e+01,1.706999999999999906e-01
2.946531179209999962e+00,-9.604502811189999933e-01,1.345446025319184669e-01,1.079999999999999993e-05,3.883325782740692489e+01,1.285999999999999921e-01
1.166608233690000107e+00,-7.996043302990000212e-01,1.272008690378885754e-01,2.159999999999999987e-05,3.907157393840249426e+01,1.400000000000000133e-01
1.185990132269999942e+00,-8.641372202310000361e-01,1.053706348216339461e-01,1.590000000000000023e-05,3.842614987589541897e+01,1.340000000000000080e-01
-3.115682483410000092e+00,-7.921200688409999469e-01,1.112061268357961985e-01,5.000000000000000104e-04,3.851320892694094766e+01,1.269000000000000128e-01
2.721615272170000210e+00,-1.026974405240000054e+00,1.013901787273064486e-01,1.669999999999999935e-05,3.836454895924500619e+01,1.351999999999999869e-01
2.727804926320000156e+00,-1.024504387349999934e+00,1.370181273491676843e-01,9.399999999999999786e-06,3.888109377971871083e+01,1.759000000000000008e-01
1.426680047809999907e+00,-9.906820955959999564e-01,1.280285422458580791e-01,6.800000000000000116e-06,3.872775433144964552e+01,1.161999999999999977e-01
-3.031490600410000180e+00,-7.521339244750000486e-01,1.246152142855492806e-01,5.000000000000000104e-03,3.888863614809485370e+01,1.552000000000000046e-01
-3.042901330919999925e+00,-7.306456428419999538e-01,8.913736829768517667e-02,5.000000000000000104e-03,3.793247684620254745e+01,1.589000000000000135e-01
8.404722479970000437e-01,-4.623668884409999902e-01,7.704455503351620438e-02,5.000000000000000104e-03,3.797531677153595098e+01,1.965000000000000080e-01
3.100915619489999830e+00,-8.173695768680000473e-01,1.360537571119962430e-01,3.399999999999999973e-05,3.888980079906207976e+01,1.670999999999999985e-01
1.286002955080000065e+00,-9.049919594959999758e-01,1.197224234404739296e-01,5.599999999999999747e-06,3.869175950383579021e+01,2.861000000000000210e-01
1.737660748389999954e+00,-1.062189249350000031e+00,9.810568167371995496e-02,5.000000000000000104e-03,3.850937417543732266e+01,1.638000000000000012e-01
2.095352158109999863e+00,-1.096962326439999913e+00,8.740816516187166485e-02,1.720000000000000134e-05,3.803418113314993576e+01,1.141999999999999960e-01
8.167659532600000105e-01,-4.688205310329999764e-01,7.831666391710470632e-02,3.000000000000000076e-05,3.772467154726383143e+01,1.711999999999999911e-01
2.667802166029999977e+00,-1.012992242439999968e+00,9.797424638822489762e-02,8.199999999999999417e-06,3.828120852629791671e+01,1.376999999999999891e-01
1.009909081290000010e+00,-7.225277238559999482e-01,8.376494431127542994e-02,2.019999999999999972e-05,3.784130198620012919e+01,1.419999999999999873e-01
2.300619155610000188e+00,-1.097223542480000091e+00,1.251480607536098744e-01,5.959999999999999857e-05,3.902198715990007116e+01,1.456999999999999962e-01
1.255215416199999989e+00,-8.574584809030000310e-01,1.234270276541721001e-01,1.900000000000000105e-05,3.884776842572713207e+01,2.167999999999999927e-01
1.911644274089999929e+00,-1.096370223150000101e+00,7.153264712473196563e-02,3.809999999999999775e-05,3.743372124719775940e+01,1.733999999999999986e-01
8.206518518590000255e-01,-3.994206287100000030e-01,8.587222184125326008e-02,2.869999999999999965e-05,3.798614399521800777e+01,1.630999999999999950e-01
9.041604029409999743e-01,-5.889006783089999475e-01,1.284619009541675128e-01,1.020000000000000060e-05,3.887635108696931496e+01,1.348000000000000032e-01
1.415457213080000054e+00,-9.568995503610000508e-01,9.575366702102726391e-02,1.369999999999999927e-05,3.774127456785107171e+01,2.263999999999999901e-01
-3.010963742429999979e+00,-7.220265089699999805e-01,9.273864987939539617e-02,1.709999999999999891e-05,3.819442371473433440e+01,1.378000000000000058e-01
2.101167545840000095e+00,-1.082254349230000079e+00,9.313806229917349910e-02,1.340000000000000045e-05,3.815645767287688983e+01,1.173000000000000015e-01
9.991690961460000242e-01,-7.076684939909999583e-01,1.250124103875068782e-01,1.540000000000000163e-05,3.867691849953893524e+01,1.645000000000000073e-01
1.873057221090000057e+00,-1.090367434140000036e+00,7.930374155867866981e-02,1.399999999999999979e-05,3.769239966865180946e+01,1.307999999999999996e-01
1.857861219069999903e+00,-1.098153534699999989e+00,8.411029198182388977e-02,1.380000000000000001e-05,3.791258473625095604e+01,1.484999999999999931e-01
2.665524588519999849e+00,-1.048996702910000023e+00,7.111461282661118988e-02,2.989999999999999833e-05,3.732590705218067484e+01,1.246000000000000024e-01
2.355154943700000114e+00,-1.097972677060000013e+00,1.303180459821490778e-01,2.199999999999999943e-05,3.886206609939900147e+01,1.806999999999999995e-01
9.795978195679999612e-01,-6.427905315930000363e-01,1.244643257592464303e-01,1.809999999999999950e-05,3.885710546875926497e+01,1.572000000000000064e-01
-3.057869156220000217e+00,-7.350573474220000181e-01,8.418988601402957461e-02,3.470000000000000319e-05,3.790401458091851339e+01,1.242000000000000048e-01
9.920497477990000146e-01,-6.500334753240000207e-01,1.168892489627971210e-01,9.000000000000000228e-06,3.821358967531838857e+01,2.169999999999999984e-01
3.130046329429999830e+00,-8.523119884030000426e-01,1.069260418668414314e-01,1.259999999999999964e-05,3.856796177496310207e+01,1.213000000000000050e-01
2.379028017850000065e+00,-1.072014097799999899e+00,9.221165601231028075e-02,1.049999999999999942e-05,3.838402414032081822e+01,1.262999999999999956e-01
2.357025798630000057e+00,-1.081619083709999929e+00,1.046998696584820199e-01,1.079999999999999993e-05,3.832684243600471774e+01,1.401000000000000023e-01
-2.970667736299999806e+00,-6.774830050879999677e-01,8.535304470830808177e-02,5.000000000000000104e-04,3.797163281202288942e+01,1.595999999999999919e-01
9.081755733340000081e-01,-5.458360787789999780e-01,8.277133892476519483e-02,2.559999999999999884e-05,3.799677490090009968e+01,1.363999999999999935e-01
1.358823888090000098e+00,-9.312103408390000059e-01,1.234056646221066700e-01,5.000000000000000104e-03,3.900939627915570895e+01,1.728999999999999981e-01
2.298395117170000113e+00,-1.078031132260000025e+00,1.203056036061338624e-01,1.439999999999999935e-05,3.875210319906940981e+01,1.371999999999999886e-01
-3.070442777129999801e+00,-7.549988654300000546e-01,1.212863581706935395e-01,1.349999999999999949e-05,3.868718009944116432e+01,1.471000000000000085e-01
1.477099177229999949e+00,-1.010621637769999914e+00,1.046388341536089450e-01,2.339999999999999958e-05,3.833892419061390200e+01,1.431999999999999940e-01
8.741869070719999746e-01,-5.017862068989999980e-01,1.011954642023156076e-01,5.000000000000000104e-04,3.823317390537800264e+01,1.423000000000000098e-01
2.330225988860000097e+00,-1.085528504420000040e+00,8.384962935391231109e-02,9.500000000000000523e-06,3.791368919653017855e+01,1.476000000000000090e-01
7.436354871750000539e-01,-3.504138256459999878e-01,1.038198454743694543e-01,5.000000000000000104e-04,3.858298786900249411e+01,1.774999999999999911e-01
1.427162433049999901e+00,-9.612825434239999911e-01,7.112580279824841367e-02,2.180000000000000134e-05,3.773944255674680903e+01,1.255999999999999894e-01
9.044026198019999851e-01,-5.322096512109999455e-01,8.224947721498405973e-02,5.000000000000000104e-03,3.801335306125587010e+01,1.680000000000000104e-01
8.455056588670000206e-01,-5.142817755869999452e-01,8.585449381136454894e-02,1.349999999999999949e-05,3.800834267710750680e+01,1.323000000000000009e-01
1.205649471110000093e+00,-8.710924191309999953e-01,7.844985203786347672e-02,5.000000000000000104e-04,3.796627081650908053e+01,1.277000000000000079e-01
1.943996264309999944e+00,-1.074116518739999915e+00,1.190479478200092145e-01,1.430000000000000031e-05,3.896173252144657084e+01,1.484000000000000041e-01
3.097793320910000148e+00,-8.262323889349999506e-01,1.106253005159062025e-01,2.069999999999999832e-05,3.877926159185794575e+01,1.265999999999999903e-01
1.039784177770000095e+00,-7.522941733079999693e-01,1.278342969442993471e-01,3.820000000000000018e-05,3.886262031277082940e+01,1.250999999999999890e-01
2.184902241780000143e+00,-1.103811874810000093e+00,1.188995833233277011e-01,2.209999999999999847e-05,3.846173210398760745e+01,1.250000000000000000e-01
1.466494425010000047e+00,-9.700494030970000514e-01,7.161442354596679605e-02,2.349999999999999862e-05,3.743820089379829597e+01,1.444999999999999896e-01
7.947229055519999807e-01,-4.173956512609999780e-01,7.750493265750628413e-02,1.450000000000000009e-05,3.787976547219876267e+01,1.716000000000000025e-01
1.108604996610000004e+00,-7.642787783910000021e-01,1.322017364065994904e-01,5.200000000000000188e-06,3.897162086897471056e+01,1.686999999999999889e-01
2.082009968799999999e+00,-1.113896128449999967e+00,1.243640978532883079e-01,1.049999999999999942e-05,3.871961525644211122e+01,1.280999999999999917e-01
1.869326667860000013e+00,-1.083687296129999922e+00,1.211333773236565603e-01,2.129999999999999935e-05,3.922556189986859465e+01,1.824000000000000066e-01
1.393367858249999980e+00,-9.489811826320000421e-01,8.051189934441820018e-02,2.619999999999999987e-05,3.780806261541802371e+01,1.252999999999999947e-01
1.078385828560000093e+00,-7.403871388199999570e-01,1.029340184501348482e-01,2.099999999999999884e-05,3.838397929291664212e+01,1.232000000000000040e-01
1.814520130830000078e+00,-1.075429706089999993e+00,1.143142473579845664e-01,1.590000000000000023e-05,3.841032863695183863e+01,4.264000000000000012e-01
1.011862774459999947e+00,-6.888224621940000070e-01,1.222619702066034819e-01,2.680000000000000090e-05,3.866625331175794855e+01,1.262999999999999956e-01
8.544698483829999969e-01,-5.015490967350000329e-01,8.853911277160810001e-02,5.000000000000000104e-03,3.797422044013069353e+01,1.559999999999999998e-01
1.018549290619999992e+00,-7.028238768519999846e-01,7.333414029340733220e-02,8.800000000000000449e-06,3.733180945429007380e+01,1.323000000000000009e-01
1.623787387219999934e+00,-1.054606196469999979e+00,1.309128374432664832e-01,1.809999999999999950e-05,3.882504130453499869e+01,1.325000000000000067e-01
-3.049611868680000004e+00,-7.649298403180000427e-01,1.347744852465697085e-01,8.800000000000000449e-06,3.903147354198670627e+01,1.373999999999999944e-01
9.325682391520000447e-01,-6.045088198550000458e-01,1.100921695523289778e-01,6.700000000000000226e-06,3.844013017994913639e+01,1.852000000000000035e-01
1.143614002939999930e+00,-7.961324350570000430e-01,1.117580252588397938e-01,1.679999999999999839e-05,3.870381967839441728e+01,1.247000000000000053e-01
1.194021646369999967e+00,-8.723073439849999833e-01,9.939035593943482128e-02,7.900000000000000595e-06,3.819688935691101506e+01,1.376999999999999891e-01
2.197122871779999986e+00,-1.118233355919999950e+00,1.061460654384382557e-01,1.079999999999999993e-05,3.862460837821475934e+01,1.489999999999999936e-01
1.184121655390000027e+00,-8.242287254719999900e-01,8.781786202967889476e-02,2.229999999999999994e-05,3.778780370990212845e+01,1.338999999999999913e-01
1.089700901779999898e+00,-7.536230516480000308e-01,1.145675708507651880e-01,1.580000000000000119e-05,3.848146796625297128e+01,1.474000000000000032e-01
