-1.598279621179586663e+00,2.779993629999999993e-01,3.582417099471878197e-02,1.000000000000000048e-04,3.596208489932238450e+01,1.700000000000000122e-01
-8.306753881795865269e-01,5.048130450000000158e-01,1.165048795278720781e-02,1.000000000000000048e-04,3.364029921393687061e+01,1.600000000000000033e-01
-1.512887194179586281e+00,3.571169940000000209e-01,2.861950383720582997e-02,1.000000000000000048e-04,3.564477323824124255e+01,1.600000000000000033e-01
-2.094054222179586588e+00,-9.657747650000000350e-01,2.731145627195724276e-02,1.000000000000000048e-04,3.537658408191422410e+01,1.600000000000000033e-01
-1.256550916179586252e+00,-1.037146153999999987e+00,4.186395344079579112e-02,1.000000000000000048e-04,3.628306854858021779e+01,1.900000000000000022e-01
-2.638489419179586015e+00,-8.917870300000000361e-01,4.054482538323193191e-03,1.000000000000000048e-04,3.136622746222484182e+01,1.600000000000000033e-01
-1.710562538179586589e+00,-1.402302595000000096e+00,1.703141531972403658e-02,1.000000000000000048e-04,3.444329424094419778e+01,2.000000000000000111e-01
-2.771840681795865180e-01,-1.115655276000000029e+00,2.997489792383592130e-02,1.000000000000000048e-04,3.547293485401122126e+01,1.700000000000000122e-01
-1.608432286179586335e+00,-6.514894359999999773e-01,4.000161288065353510e-02,1.000000000000000048e-04,3.629805242049970815e+01,1.600000000000000033e-01
-1.490451089179586575e+00,-3.201959389999999850e-01,2.538279876182421985e-02,1.000000000000000048e-04,3.506319515578439194e+01,1.700000000000000122e-01
-1.995144670179586299e+00,-1.040863893000000040e+00,3.579328407934657952e-02,1.000000000000000048e-04,3.613389593114440146e+01,1.799999999999999933e-01
3.095686500000000008e-02,-1.139960520999999893e+00,2.544881906532888566e-02,1.000000000000000048e-04,3.534483734835160362e+01,1.700000000000000122e-01
-2.211919791795864398e-01,-6.717550429999999961e-01,4.557140577949709420e-02,1.000000000000000048e-04,3.689732877187454108e+01,2.200000000000000011e-01
-8.294029241795861651e-01,6.699244909999999553e-01,2.780242531305636769e-02,1.000000000000000048e-04,3.517586088013963774e+01,1.799999999999999933e-01
-4.765590681795863759e-01,-7.328014390000000544e-01,3.106922608638443273e-02,1.000000000000000048e-04,3.552855162855372129e+01,1.600000000000000033e-01
-1.123871723179585835e+00,1.275958498999999913e+00,3.955784461878735642e-02,1.000000000000000048e-04,3.628534886854765062e+01,1.900000000000000022e-01
-5.094723721795864080e-01,-7.371415260000000469e-01,1.097142383043799713e-02,1.000000000000000048e-04,3.324880787780237767e+01,1.600000000000000033e-01
6.571342580000000266e-01,4.949370419999999937e-01,3.871636727991130400e-02,1.000000000000000048e-04,3.622184124635870006e+01,1.700000000000000122e-01
-1.010588552179585875e+00,4.063959939999999826e-01,2.807354848005866668e-02,1.000000000000000048e-04,3.549250449335215052e+01,1.400000000000000133e-01
-5.300352171795861267e-01,-4.198024320000000031e-01,3.982253805523160856e-02,1.000000000000000048e-04,3.652231755224205045e+01,1.499999999999999944e-01
-3.959305511795863097e-01,-4.514385590000000170e-01,1.717140885473555229e-02,1.000000000000000048e-04,3.415951210426861451e+01,1.600000000000000033e-01
-1.302326638179586382e+00,4.891699640000000127e-01,3.473270174308575736e-02,1.000000000000000048e-04,3.603526145669113845e+01,8.999999999999999667e-02
-8.169037861795862554e-01,4.857709299999999897e-01,4.489357178173910418e-02,1.000000000000000048e-04,3.642255935678952738e+01,1.000000000000000056e-01
-1.156602994179586119e+00,7.039336720000000103e-01,4.652647487724009129e-02,1.000000000000000048e-04,3.646608863768316411e+01,1.100000000000000006e-01
2.500120207999999788e+00,-3.403989430000000094e-01,4.889819231289686124e-02,1.000000000000000048e-04,3.676622896870666324e+01,1.100000000000000006e-01
2.397122115999999803e+00,-8.283729720000000407e-01,1.423363733313959267e-02,1.000000000000000048e-04,3.400305460191994911e+01,1.700000000000000122e-01
-4.391142381795862804e-01,9.199097720000000145e-01,1.415221510044905456e-02,1.000000000000000048e-04,3.393758427896002416e+01,2.200000000000000011e-01
-1.356814123179586495e+00,1.335301293999999972e+00,1.661899751621536900e-02,1.000000000000000048e-04,3.432200367604853852e+01,2.600000000000000089e-01
2.612804049999999823e+00,3.003891830000000041e-01,2.189760570047825580e-02,1.000000000000000048e-04,3.507427661437857580e+01,1.700000000000000122e-01
-2.350352662179586272e+00,1.041324629000000002e+00,7.622209676163368801e-03,1.000000000000000048e-04,3.273873658597132419e+01,5.300000000000000266e-01
-1.192441121179586005e+00,1.100105410000000061e+00,4.334504873464263552e-02,1.000000000000000048e-04,3.644875886732175729e+01,1.799999999999999933e-01
-3.012917491179586182e+00,1.485957493999999990e+00,2.799790854200830126e-02,1.000000000000000048e-04,3.555779802231602105e+01,2.200000000000000011e-01
-7.329138461795858817e-01,1.044356909000000000e+00,4.997471539421170783e-02,1.000000000000000048e-04,3.665338734430812906e+01,1.700000000000000122e-01
1.024371087000000013e+00,-9.607604419999999923e-01,4.145889580751675046e-02,1.000000000000000048e-04,3.614740472907401170e+01,1.600000000000000033e-01
2.960998206000000188e+00,-8.548671270000000044e-01,3.242947328727015244e-02,1.000000000000000048e-04,3.557726731561438527e+01,1.900000000000000022e-01
-2.929124628179586409e+00,8.872048380000000511e-01,3.950049734184389594e-02,1.000000000000000048e-04,3.601342540417058302e+01,4.600000000000000200e-01
-3.017579355179586198e+00,-3.780387199999999948e-01,8.793045942001417176e-03,1.000000000000000048e-04,3.312802419170495938e+01,2.399999999999999911e-01
-2.268575282179586594e+00,6.921453520000000470e-01,4.155619331301640268e-02,1.000000000000000048e-04,3.664243491278365639e+01,3.699999999999999956e-01
2.478186394000000181e+00,5.281495040000000474e-01,2.219554830043573429e-02,1.000000000000000048e-04,3.511028502726695422e+01,2.399999999999999911e-01
7.532392530000000530e-01,9.936355940000000109e-01,1.639773682198920543e-02,1.000000000000000048e-04,3.383157324698246526e+01,1.600000000000000033e-01
1.772935874999999939e+00,1.383062164999999899e+00,6.776099850889099468e-03,1.000000000000000048e-04,3.235154715556286220e+01,7.399999999999999911e-01
1.941716173999999961e+00,9.578325640000000529e-01,8.478233521645759524e-03,1.000000000000000048e-04,3.302300015881623096e+01,3.800000000000000044e-01
2.041827891000000061e+00,-8.953703119999999460e-01,3.708567832282724103e-02,1.000000000000000048e-04,3.611133600016750478e+01,1.700000000000000122e-01
2.521229080999999983e+00,-8.544186950000000058e-01,2.156806426721141409e-02,1.000000000000000048e-04,3.502649320153400936e+01,2.000000000000000111e-01
2.745955969000000163e+00,3.136627880000000257e-01,4.521964042808025025e-02,1.000000000000000048e-04,3.657670980593135113e+01,2.099999999999999922e-01
1.738295793999999894e+00,1.134430556000000090e+00,4.057247195306476484e-02,1.000000000000000048e-04,3.633400255430071013e+01,1.799999999999999933e-01
-8.687814521795864664e-01,6.221710379999999541e-01,3.585519574759324889e-03,1.000000000000000048e-04,3.087237479538354279e+01,3.499999999999999778e-01
-1.857013858179586308e+00,3.937075449999999921e-01,4.106430698085085373e-02,1.000000000000000048e-04,3.674754274836223544e+01,2.999999999999999889e-01
-2.894431473179586156e+00,2.701405689999999971e-01,3.023501457898266145e-02,1.000000000000000048e-04,3.566853432534215784e+01,2.300000000000000100e-01
2.213600608000000136e+00,-5.295933369999999973e-01,1.724990680477639024e-02,1.000000000000000048e-04,3.472120399780208544e+01,2.500000000000000000e-01
9.327636729999999599e-01,4.069681829999999834e-01,1.098390360745792743e-02,1.000000000000000048e-04,3.296093160681783729e+01,2.300000000000000100e-01
1.743234563999999986e+00,7.359057650000000450e-01,3.605986272313136537e-02,1.000000000000000048e-04,3.593436000096500038e+01,2.200000000000000011e-01
-2.812965047179586175e+00,5.929882829999999494e-01,5.409648641427610219e-03,1.000000000000000048e-04,3.180275470060170306e+01,2.399999999999999911e-01
-2.977583888179586413e+00,-1.437144969999999966e-01,4.963205736341620017e-02,1.000000000000000048e-04,3.676407770136609088e+01,2.700000000000000178e-01
2.276564226000000080e+00,-5.051809499999999620e-01,3.532036351723987638e-02,1.000000000000000048e-04,3.609795162966216253e+01,2.800000000000000266e-01
2.667465888000000174e+00,-6.260506340000000502e-01,3.427154836367885676e-02,1.000000000000000048e-04,3.611064306066067076e+01,2.600000000000000089e-01
1.041358068000000081e+00,8.506585119999999778e-01,4.155323496516506732e-02,1.000000000000000048e-04,3.674465779966873669e+01,2.300000000000000100e-01
2.499030525999999863e+00,-9.629979760000000333e-01,4.092768222367663966e-02,1.000000000000000048e-04,3.597461791467482328e+01,3.099999999999999978e-01
1.334501084000000004e+00,-7.340646360000000481e-01,3.177551485622490124e-02,1.000000000000000048e-04,3.583995521030531251e+01,2.300000000000000100e-01
2.196979751999999841e+00,-5.334639439999999677e-01,4.416529198142686574e-02,1.000000000000000048e-04,3.608590060626409723e+01,2.500000000000000000e-01
1.355624495999999901e+00,4.654212710000000253e-01,4.914672566966196698e-02,1.000000000000000048e-04,3.655531062990336011e+01,2.200000000000000011e-01
1.445572062999999963e+00,-8.838676049999999451e-01,4.580994738385201631e-02,1.000000000000000048e-04,3.700949820269605084e+01,3.499999999999999778e-01
7.246286520000000397e-01,-7.843460709999999780e-01,2.228492880923863342e-02,1.000000000000000048e-04,3.462449773207728754e+01,3.099999999999999978e-01
2.179180484000000195e+00,1.312341798999999920e+00,3.477813832581364006e-02,1.000000000000000048e-04,3.606769850795152621e+01,2.200000000000000011e-01
7.669035910000000511e-01,2.329377750000000136e-01,3.173624853822265557e-02,1.000000000000000048e-04,3.556285801159133086e+01,2.500000000000000000e-01
1.528220198000000085e+00,-6.827860190000000218e-01,3.655035979795397127e-02,1.000000000000000048e-04,3.608980303800451850e+01,4.199999999999999845e-01
2.984436029999999906e+00,4.410184999999999800e-01,3.253996223968212698e-02,1.000000000000000048e-04,3.556218238235354079e+01,2.999999999999999889e-01
1.808380389999999949e+00,-5.931087419999999666e-01,2.976439036340900943e-02,1.000000000000000048e-04,3.555787237560800662e+01,2.200000000000000011e-01
2.378694356000000010e+00,6.891218140000000547e-01,3.769680512503132547e-02,1.000000000000000048e-04,3.646158042155152401e+01,3.099999999999999978e-01
-1.027171309179585990e+00,8.938185499999999895e-01,2.630079045952478031e-02,1.000000000000000048e-04,3.539952147250753711e+01,3.099999999999999978e-01
2.177629786999999872e+00,1.088514723000000073e+00,3.544074030765759220e-02,1.000000000000000048e-04,3.592299018382782805e+01,2.500000000000000000e-01
2.446904437000000154e+00,4.505237189999999892e-01,5.971163614869192705e-03,1.000000000000000048e-04,3.220699024760099860e+01,2.700000000000000178e-01
-2.745075452179586151e+00,5.290477460000000409e-01,1.931909251254303878e-02,1.000000000000000048e-04,3.450131710146853692e+01,1.600000000000000033e-01
3.470126559999999749e-01,6.971221490000000243e-01,2.289136596025819273e-02,1.000000000000000048e-04,3.477598491420742022e+01,2.399999999999999911e-01
-2.027672372179586624e+00,-3.494576850000000179e-01,1.798170019004103129e-02,1.000000000000000048e-04,3.452489302592847054e+01,8.999999999999999667e-02
-2.243457714179585949e+00,5.735296930000000071e-01,4.145841181008007997e-02,1.000000000000000048e-04,3.637345576362103117e+01,8.000000000000000167e-02
-1.741234469179586242e+00,8.281857209999999858e-01,7.822637642611398462e-03,1.000000000000000048e-04,3.246399097005233614e+01,1.000000000000000056e-01
-1.661352162179586145e+00,7.473004210000000480e-01,3.302738312233274853e-02,1.000000000000000048e-04,3.574653077799398204e+01,1.100000000000000006e-01
-1.046494641179585905e+00,9.839422859999999993e-01,3.590750693953907724e-02,1.000000000000000048e-04,3.625812781977857213e+01,1.600000000000000033e-01
-1.357076630179586019e+00,8.591991679999999576e-01,3.358011263179704053e-02,1.000000000000000048e-04,3.594316480807402314e+01,1.300000000000000044e-01
-1.489161381179585852e+00,8.733460579999999807e-01,3.175954509819563926e-02,1.000000000000000048e-04,3.554074935292209148e+01,8.999999999999999667e-02
2.602874990000000111e+00,9.865781270000000269e-01,1.778470540431647401e-02,1.000000000000000048e-04,3.472119633422096285e+01,2.099999999999999922e-01
6.278667869999999818e-01,1.201237362999999947e+00,1.176204636279151033e-02,1.000000000000000048e-04,3.374750786086794818e+01,1.799999999999999933e-01
1.901542252999999905e+00,5.984822429999999693e-01,4.066335749947249181e-03,1.000000000000000048e-04,3.119314290402865808e+01,1.700000000000000122e-01
9.102462569999999475e-01,3.833152009999999943e-01,2.837012916995586623e-02,1.000000000000000048e-04,3.541728394371342858e+01,2.200000000000000011e-01
4.621894529999999723e-01,4.355896570000000190e-01,3.674403493183701908e-02,1.000000000000000048e-04,3.567919094064610164e+01,2.399999999999999911e-01
1.731299603999999936e+00,-9.087058740000000245e-01,2.940280816100971847e-02,1.000000000000000048e-04,3.519104054572814277e+01,2.200000000000000011e-01
2.307708166999999921e+00,-3.555306579999999994e-01,3.622884277852649049e-02,1.000000000000000048e-04,3.573752105498165577e+01,1.700000000000000122e-01
2.284880370000000216e+00,-4.942566800000000038e-01,3.130942345443647745e-02,1.000000000000000048e-04,3.565852343055125573e+01,2.200000000000000011e-01
-2.729734007179586364e+00,-4.808223520000000084e-01,3.745387028300524446e-02,1.000000000000000048e-04,3.648995216504400929e+01,2.300000000000000100e-01
-2.728058296179586062e+00,8.181749999999999856e-01,7.309862892978565528e-03,1.000000000000000048e-04,3.266734072570327641e+01,2.200000000000000011e-01
1.539636916000000078e+00,-6.652033799999999830e-02,2.124419989812211668e-02,1.000000000000000048e-04,3.517275327740952662e+01,2.999999999999999889e-01
2.937620158000000092e+00,7.383732379999999873e-01,4.807228275477109375e-02,1.000000000000000048e-04,3.665645529610166875e+01,2.200000000000000011e-01
2.624384770999999894e+00,8.339422930000000012e-01,4.891229235299416472e-02,1.000000000000000048e-04,3.676126920484988148e+01,1.799999999999999933e-01
-2.594453966179586235e+00,1.052220571999999965e+00,2.876604799056376588e-02,1.000000000000000048e-04,3.542619090342585508e+01,1.900000000000000022e-01
-2.462277587179586114e+00,1.356652656000000068e+00,4.712142918024348620e-02,1.000000000000000048e-04,3.641337576885817384e+01,2.099999999999999922e-01
2.730654787000000194e+00,8.741146779999999783e-01,4.481381305945417864e-03,1.000000000000000048e-04,3.120586623361600331e+01,1.900000000000000022e-01
-2.564984794179586025e+00,9.572418230000000472e-01,1.552754519105156369e-02,1.000000000000000048e-04,3.434694027832230745e+01,4.400000000000000022e-01
1.629450376000000089e+00,2.068732899999999875e-01,9.586855410100517810e-03,1.000000000000000048e-04,3.283283266704015801e+01,2.899999999999999800e-01
1.142160569999999958e-01,6.858846720000000285e-01,6.527819302125724421e-03,1.000000000000000048e-04,3.222530276364096835e+01,1.799999999999999933e-01
-4.383495451795864639e-01,9.198101690000000108e-01,3.572034057268402840e-02,1.000000000000000048e-04,3.618849076214236504e+01,2.600000000000000089e-01
1.001193188000000012e+00,8.013430529999999719e-01,3.683886784536141712e-02,1.000000000000000048e-04,3.611107137491644892e+01,1.799999999999999933e-01
-8.746654461795859703e-01,7.515327899999999506e-01,2.871855754443882955e-02,1.000000000000000048e-04,3.578651856290676392e+01,2.600000000000000089e-01
1.319662558000000097e+00,1.070340469999999933e-01,2.115938055383312713e-02,1.000000000000000048e-04,3.466128857746240755e+01,2.399999999999999911e-01
1.726021762000000015e+00,-6.377623550000000030e-01,2.366557478468927014e-02,1.000000000000000048e-04,3.477446457131809154e+01,2.600000000000000089e-01
-2.754219137179586330e+00,-9.277945709999999568e-01,3.488856515335155006e-02,1.000000000000000048e-04,3.623810816194498585e+01,3.699999999999999956e-01
1.691977534999999921e+00,1.434503057999999998e+00,1.249636830440905774e-02,1.000000000000000048e-04,3.341322846418916015e+01,2.099999999999999922e-01
8.272144390000000236e-01,-4.428667319999999852e-01,4.926082129934630793e-02,1.000000000000000048e-04,3.666367748711305552e+01,2.300000000000000100e-01
-2.185785446179585811e+00,4.040310730000000183e-01,9.089652001337867465e-03,1.000000000000000048e-04,3.294899402475649453e+01,1.799999999999999933e-01
2.680919170000000129e+00,5.929394510000000063e-01,3.258622597053301151e-02,1.000000000000000048e-04,3.555051570787179571e+01,1.799999999999999933e-01
2.468528393999999793e+00,-3.885411739999999892e-01,4.993229548835301235e-02,1.000000000000000048e-04,3.660024614856636305e+01,1.700000000000000122e-01
1.824819092000000031e+00,-9.187566499999999525e-01,3.498087367281806775e-02,1.000000000000000048e-04,3.601744967602624570e+01,2.099999999999999922e-01
2.252174823999999909e+00,-3.842870769999999769e-01,4.738452166390517972e-02,1.000000000000000048e-04,3.672052870638050592e+01,2.000000000000000111e-01
2.889947965000000174e+00,3.184077100000000105e-01,3.014602464572157040e-02,1.000000000000000048e-04,3.551039576038280643e+01,2.000000000000000111e-01
-2.125870880179586031e+00,7.967372299999999630e-01,2.393237825905475402e-02,1.000000000000000048e-04,3.458730925115548871e+01,4.400000000000000022e-01
-2.666621499179586241e+00,1.790417820000000104e-01,2.008443814120325355e-02,1.000000000000000048e-04,3.465326341555395828e+01,1.900000000000000022e-01
2.353249148999999818e+00,9.653535600000000549e-01,5.290655300339415675e-03,1.000000000000000048e-04,3.186024125775976046e+01,1.799999999999999933e-01
1.765869402999999949e+00,9.288119630000000182e-01,3.654611425468501373e-02,1.000000000000000048e-04,3.599287028695566448e+01,3.599999999999999867e-01
1.162949336999999916e+00,5.157872650000000503e-01,4.308986248113962775e-02,1.000000000000000048e-04,3.601682973441659641e+01,4.099999999999999756e-01
2.011122450999999867e+00,-1.257182417000000108e+00,3.322953804854252707e-02,1.000000000000000048e-04,3.547318945228430209e+01,1.799999999999999933e-01
1.931340567999999980e+00,-5.991437729999999906e-01,3.752250741922164012e-02,1.000000000000000048e-04,3.623107544299458738e+01,2.000000000000000111e-01
2.835991935000000019e+00,-7.109363199999999550e-01,6.034171101541928144e-03,1.000000000000000048e-04,3.229851860947548658e+01,1.900000000000000022e-01
-2.852520529179586095e+00,8.667541789999999580e-01,1.045630903216342167e-02,1.000000000000000048e-04,3.327385322350837527e+01,1.799999999999999933e-01
-2.458251249179586040e+00,-2.796002539999999925e-01,1.364714524341183177e-02,1.000000000000000048e-04,3.363610218506926230e+01,3.300000000000000155e-01
1.596378985000000084e+00,5.944120290000000084e-01,2.209901457553546320e-02,1.000000000000000048e-04,3.469037301407404783e+01,1.900000000000000022e-01
-2.484014184179586415e+00,8.016642189999999557e-01,2.731549834606903163e-02,1.000000000000000048e-04,3.533748652868887774e+01,1.900000000000000022e-01
-2.431723812179586108e+00,1.223750555999999934e+00,4.951187121390298110e-03,1.000000000000000048e-04,3.142842661933022441e+01,1.700000000000000122e-01
-2.378598255179586118e+00,1.197731727999999940e+00,3.278005247035691017e-02,1.000000000000000048e-04,3.564511838020072787e+01,1.900000000000000022e-01
1.739429998000000088e+00,2.494783479999999887e-01,2.398145136032093713e-02,1.000000000000000048e-04,3.495549204011398814e+01,3.099999999999999978e-01
-2.377494960179586059e+00,9.562939099999999693e-01,2.241500036401315038e-02,1.000000000000000048e-04,3.473694134787691468e+01,1.799999999999999933e-01
-9.021677017958662503e-02,6.959221140000000361e-01,2.838119390498580405e-02,1.000000000000000048e-04,3.517184817788532314e+01,3.499999999999999778e-01
2.021336933000000169e+00,8.510789659999999923e-01,2.568464490373436118e-02,1.000000000000000048e-04,3.469668846529854278e+01,2.800000000000000266e-01
2.573899695999999793e+00,-5.247218830000000001e-01,3.155076489739981616e-02,1.000000000000000048e-04,3.541228180941655523e+01,1.700000000000000122e-01
2.346925623000000183e+00,-7.496726200000000118e-01,1.984362109603563309e-02,1.000000000000000048e-04,3.464225125360557911e+01,1.700000000000000122e-01
2.487812089999999809e+00,-1.095252646999999913e+00,1.486886797707450206e-02,1.000000000000000048e-04,3.376459724166874565e+01,1.600000000000000033e-01
2.543651012999999850e+00,-2.555195920000000176e-01,1.340221526449826214e-02,1.000000000000000048e-04,3.388910030810486518e+01,1.900000000000000022e-01
2.457771880000000131e+00,-4.383329890000000062e-01,3.326897871038791976e-02,1.000000000000000048e-04,3.564423239117711972e+01,1.700000000000000122e-01
-2.749033603179586116e+00,5.277091179999999770e-01,3.289702315985672948e-02,1.000000000000000048e-04,3.587978112138164732e+01,1.799999999999999933e-01
-3.021446786179586397e+00,6.716344440000000526e-01,2.088971712702754682e-02,1.000000000000000048e-04,3.471741230581457671e+01,1.799999999999999933e-01
2.390319493999999878e+00,1.427533710000000067e+00,1.577108365007512045e-02,1.000000000000000048e-04,3.431879649350265993e+01,1.799999999999999933e-01
-2.060955814179585843e+00,9.020563839999999889e-01,4.663874929375244616e-02,1.000000000000000048e-04,3.679207022549650219e+01,1.799999999999999933e-01
-1.552222439179586466e+00,1.270289940999999923e+00,9.007924930665139190e-03,1.000000000000000048e-04,3.292692594416555352e+01,1.600000000000000033e-01
2.491619029000000207e+00,8.136863199999999630e-01,1.315653115961607292e-02,1.000000000000000048e-04,3.375606318941039063e+01,1.900000000000000022e-01
2.336721559999999975e+00,1.049041915000000103e+00,1.195344482902442954e-02,1.000000000000000048e-04,3.330463564478215943e+01,1.700000000000000122e-01
1.201678150000000000e+00,3.331923239999999842e-01,9.028730703117462258e-03,1.000000000000000048e-04,3.279375331993050935e+01,1.900000000000000022e-01
-3.811893421795859993e-01,1.284308205000000092e+00,4.587274944536180038e-02,1.000000000000000048e-04,3.645874149292810529e+01,2.000000000000000111e-01
5.879284790000000038e-01,8.245620540000000442e-01,6.555372080998319445e-03,1.000000000000000048e-04,3.211781763423164193e+01,1.700000000000000122e-01
-3.584264691795864266e-01,1.112498557000000110e+00,1.187234161241864511e-02,1.000000000000000048e-04,3.363283895463834483e+01,2.000000000000000111e-01
-1.085925731795862603e-01,9.806715139999999664e-01,2.609646262226440402e-02,1.000000000000000048e-04,3.529698482984392172e+01,1.799999999999999933e-01
1.189812670000000017e+00,8.219376269999999485e-01,9.147604896736868940e-03,1.000000000000000048e-04,3.339662175545672085e+01,1.700000000000000122e-01
2.896526737999999934e+00,1.048685354999999930e+00,2.991492087369838557e-02,1.000000000000000048e-04,3.568493843565070023e+01,1.700000000000000122e-01
1.187793541000000008e+00,1.533334508000000040e+00,1.013208535675865635e-02,1.000000000000000048e-04,3.293875321098433062e+01,1.700000000000000122e-01
8.784667550000000436e-01,-5.840451829999999678e-01,2.619968199238731019e-02,1.000000000000000048e-04,3.576842106924667064e+01,2.099999999999999922e-01
-2.025603206179586557e+00,1.419180792999999996e+00,1.337461423196218552e-02,1.000000000000000048e-04,3.363649797578877809e+01,1.799999999999999933e-01
1.097118803000000087e+00,1.428367445999999985e+00,7.828505796909968062e-03,1.000000000000000048e-04,3.242253166261353670e+01,1.799999999999999933e-01
-1.923054671795858539e-01,8.268694330000000425e-01,2.095318178538727386e-02,1.000000000000000048e-04,3.525179895639112004e+01,2.000000000000000111e-01
1.974446608000000047e+00,-1.250497374000000050e+00,3.732186957445651071e-02,1.000000000000000048e-04,3.635175162099534418e+01,2.000000000000000111e-01
1.714471547999999901e+00,-4.841846819999999774e-01,3.845280792875670900e-02,1.000000000000000048e-04,3.609595891391828104e+01,1.700000000000000122e-01
1.635209042000000057e+00,-1.499680316999999929e+00,3.138940831893889671e-02,1.000000000000000048e-04,3.577844485112905204e+01,1.900000000000000022e-01
-3.085878636179586021e+00,-8.156760069999999807e-01,4.023908144190468938e-02,1.000000000000000048e-04,3.634361588335248427e+01,1.799999999999999933e-01
1.583648911999999909e+00,-4.051170720000000225e-01,1.557255873042344765e-02,1.000000000000000048e-04,3.408144985376648606e+01,1.700000000000000122e-01
3.116144028999999982e+00,-6.233618589999999626e-01,4.047335960445218317e-02,1.000000000000000048e-04,3.622041900252398960e+01,2.000000000000000111e-01
2.580853791000000008e+00,2.126606490000000071e-01,4.147913488810611726e-02,1.000000000000000048e-04,3.654782728457257690e+01,2.200000000000000011e-01
2.791070910999999821e+00,-3.375241600000000036e-02,3.708357097458688661e-02,1.000000000000000048e-04,3.606017305200472833e+01,2.999999999999999889e-01
2.126664376999999995e+00,-4.630033630000000011e-01,7.960135984215577221e-03,1.000000000000000048e-04,3.258708181053562214e+01,1.799999999999999933e-01
1.264160699999999915e+00,6.289837299999999631e-01,2.759898170673804468e-02,1.000000000000000048e-04,3.526520923283418796e+01,1.900000000000000022e-01
2.608192676999999904e+00,3.485897410000000085e-01,3.842509808509258357e-02,1.000000000000000048e-04,3.632280922372019916e+01,2.200000000000000011e-01
9.029304540000000490e-01,-5.888661819999999603e-01,1.367879211574505455e-02,1.000000000000000048e-04,3.400783155396150192e+01,1.700000000000000122e-01
2.675488564000000125e+00,-1.029758079000000048e+00,1.884566307369929528e-02,1.000000000000000048e-04,3.459398872937838831e+01,1.700000000000000122e-01
9.979371630000000160e-01,-7.076351440000000492e-01,3.319204314543371115e-02,1.000000000000000048e-04,3.590629732721658485e+01,2.000000000000000111e-01
2.816578843999999915e+00,-6.539336449999999523e-01,5.309919702519445145e-03,1.000000000000000048e-04,3.187608429384224706e+01,1.799999999999999933e-01
-2.809922836179586270e+00,-1.219770695000000016e+00,4.770899089616672389e-02,1.000000000000000048e-04,3.662150712259388996e+01,1.900000000000000022e-01
2.816545334000000178e+00,5.529564630000000092e-01,2.354680521026172174e-02,1.000000000000000048e-04,3.506379517070896412e+01,1.700000000000000122e-01
2.293480610000000031e+00,1.430186356999999964e+00,1.060804305412539963e-02,1.000000000000000048e-04,3.358205070915207813e+01,1.700000000000000122e-01
1.900048696999999898e+00,-6.695785770000000081e-01,3.970130844772606915e-02,1.000000000000000048e-04,3.639866796711328334e+01,1.900000000000000022e-01
2.402973735999999860e+00,-4.293495210000000117e-01,9.305662198945911096e-03,1.000000000000000048e-04,3.285276261456646552e+01,2.200000000000000011e-01
3.123677135999999965e+00,5.597831170000000522e-01,3.361044837274579367e-02,1.000000000000000048e-04,3.606063363936387134e+01,1.700000000000000122e-01
1.945616433999999950e+00,5.533621010000000506e-01,4.531804947020403457e-02,1.000000000000000048e-04,3.616065587715144147e+01,1.700000000000000122e-01
-2.603733431795864917e-01,9.574212720000000454e-01,4.506601497979328269e-02,1.000000000000000048e-04,3.641045101530110628e+01,3.800000000000000044e-01
-1.216980031795857897e-01,3.678993019999999836e-01,3.560361374029759329e-02,1.000000000000000048e-04,3.618367973694117978e+01,1.900000000000000022e-01
2.921580513999999962e+00,4.108407450000000072e-01,1.079942997366216059e-02,1.000000000000000048e-04,3.353749078344162626e+01,1.900000000000000022e-01
-2.362072097179586105e+00,1.187667234999999932e+00,3.139908974628216609e-02,1.000000000000000048e-04,3.569490491049594993e+01,1.900000000000000022e-01
-2.337569846179586186e+00,3.756736769999999837e-01,6.971177354220494359e-03,1.000000000000000048e-04,3.243883675813892609e+01,1.700000000000000122e-01
-1.563533060179586265e+00,8.298117619999999528e-01,6.045990271008362671e-03,1.000000000000000048e-04,3.248093157912485651e+01,3.300000000000000155e-01
-7.514201781795861734e-01,8.148208550000000105e-01,4.090927118093286297e-02,1.000000000000000048e-04,3.626399750588782922e+01,2.099999999999999922e-01
-2.172991007179586376e+00,1.278564443000000050e+00,3.767572098024386806e-02,1.000000000000000048e-04,3.598049570782662698e+01,2.000000000000000111e-01
1.004972830999999900e+00,3.284388160000000223e-01,3.000011016263014890e-02,1.000000000000000048e-04,3.550592220831833856e+01,1.799999999999999933e-01
-1.050913719179586536e+00,7.925907810000000220e-01,1.441760976970481167e-02,1.000000000000000048e-04,3.381984117469892936e+01,2.899999999999999800e-01
1.174967896000000067e+00,-7.032179160000000540e-01,2.447025869297698303e-02,1.000000000000000048e-04,3.514986347800825683e+01,1.799999999999999933e-01
2.063754460999999818e+00,1.158898511999999936e+00,2.030158311046919434e-02,1.000000000000000048e-04,3.471806350598119906e+01,1.799999999999999933e-01
1.355273345999999934e+00,1.034050206000000083e+00,1.022597794623558362e-02,1.000000000000000048e-04,3.322140347329317933e+01,1.700000000000000122e-01
1.878516419999999965e+00,-5.891517790000000421e-01,3.318941054389715206e-02,1.000000000000000048e-04,3.586396601011662710e+01,1.799999999999999933e-01
3.042909537999999969e+00,4.914006550000000195e-01,2.975061619314067068e-02,1.000000000000000048e-04,3.510662372850725177e+01,1.700000000000000122e-01
-2.192876876179585821e+00,7.571444160000000423e-01,2.694618855296648449e-02,1.000000000000000048e-04,3.525283586845841199e+01,2.099999999999999922e-01
-1.274335216179586006e+00,7.393028099999999769e-01,1.281984750729468422e-02,1.000000000000000048e-04,3.395080890403183815e+01,3.599999999999999867e-01
3.513372269999999742e-01,1.023017258000000096e+00,3.785564203633554059e-02,1.000000000000000048e-04,3.607880148250797703e+01,1.799999999999999933e-01
-2.045215730179585911e+00,1.346705497999999945e+00,3.141202061264753570e-02,1.000000000000000048e-04,3.572469591896128094e+01,1.799999999999999933e-01
2.622131355000000053e+00,-2.378520580000000051e-01,3.311881365265333804e-02,1.000000000000000048e-04,3.580239667264797987e+01,2.099999999999999922e-01
1.499565373000000035e+00,-5.833961840000000398e-01,1.079090177752859564e-02,1.000000000000000048e-04,3.340117740474674690e+01,1.199999999999999956e-01
9.453780529999999960e-01,-3.014802610000000271e-01,2.838195539725524644e-02,1.000000000000000048e-04,3.550827458893272137e+01,1.799999999999999933e-01
1.003030738000000088e+00,-6.679498139999999751e-01,1.135408435189078427e-02,1.000000000000000048e-04,3.371487289982936630e+01,1.799999999999999933e-01
-2.858957567179586157e+00,-2.878047879999999781e-01,2.273459711371206629e-02,1.000000000000000048e-04,3.490745561803507258e+01,1.300000000000000044e-01
-2.653655062179586022e+00,5.464710109999999510e-01,3.546741979165830838e-02,1.000000000000000048e-04,3.613245608106827689e+01,1.300000000000000044e-01
-1.077960778179586576e+00,1.305029642999999906e+00,4.220608713352088509e-02,1.000000000000000048e-04,3.626577194132200077e+01,1.100000000000000006e-01
2.996279555000000094e+00,-9.792432829999999644e-01,1.053377734462005583e-02,1.000000000000000048e-04,3.330494087438830064e+01,1.600000000000000033e-01
1.369802210000000131e-01,9.686457469999999459e-01,4.279566487002484099e-02,1.000000000000000048e-04,3.620393825345889383e+01,1.000000000000000056e-01
-7.405109531795863731e-01,5.344760480000000369e-01,3.652861934409425831e-02,1.000000000000000048e-04,3.616621887732085128e+01,1.900000000000000022e-01
-1.986221938179586033e+00,3.858849830000000147e-01,3.998517921077865064e-03,1.000000000000000048e-04,3.122582888170402882e+01,2.600000000000000089e-01
-1.660796187179585992e+00,1.337702168000000080e+00,4.352510122510672153e-02,1.000000000000000048e-04,3.645313845242770867e+01,1.300000000000000044e-01
-1.008319883179586540e+00,9.035811799999999838e-01,2.244929778584867433e-02,1.000000000000000048e-04,3.502259544531858637e+01,1.799999999999999933e-01
-2.859227719179586291e+00,-3.383984709999999785e-01,3.723958204720935472e-02,1.000000000000000048e-04,3.586370856683903696e+01,1.799999999999999933e-01
-3.008470453179586279e+00,-9.028608339999999455e-01,2.035928796704116611e-02,1.000000000000000048e-04,3.470262880412600026e+01,1.300000000000000044e-01
2.720373041999999852e+00,-1.026937239000000002e+00,2.277097946128138137e-02,1.000000000000000048e-04,3.479791467876404454e+01,1.100000000000000006e-01
1.131806215999999976e+00,-1.312634394000000038e+00,3.330810963668277835e-02,1.000000000000000048e-04,3.588663730993949486e+01,1.199999999999999956e-01
2.377785852000000144e+00,-1.071983155000000076e+00,1.567902233987512883e-02,1.000000000000000048e-04,3.416820394451195853e+01,1.000000000000000056e-01
1.262497049000000038e+00,-7.576738640000000302e-01,3.606558108096655224e-02,1.000000000000000048e-04,3.586424373054525461e+01,1.900000000000000022e-01
-2.150308364179585929e+00,9.473204419999999848e-01,1.140034025085478325e-02,1.000000000000000048e-04,3.387047707177478628e+01,1.499999999999999944e-01
-2.672281993179586035e+00,8.065802300000000091e-01,1.225088417379156108e-02,1.000000000000000048e-04,3.367780555038189760e+01,1.400000000000000133e-01
-2.768228307179586345e+00,1.501965110000000048e-01,5.820044072680271435e-03,1.000000000000000048e-04,3.228308148778768327e+01,1.300000000000000044e-01
2.456608391000000058e+00,-6.815239560000000418e-01,2.152508007605690582e-02,1.000000000000000048e-04,3.507580920277276704e+01,2.899999999999999800e-01
-1.538735822179586599e+00,7.895792169999999999e-01,4.037482032534216864e-02,1.000000000000000048e-04,3.620430955477542057e+01,1.600000000000000033e-01
-6.811844061795859773e-01,-7.989239399999999991e-01,1.261690679508996674e-02,1.000000000000000048e-04,3.406985412924731804e+01,2.300000000000000100e-01
-9.881069141795864041e-01,9.266642769999999807e-01,2.919762617359335927e-02,1.000000000000000048e-04,3.530762070009335929e+01,2.500000000000000000e-01
9.533575850000000074e-01,-5.868324440000000086e-01,2.586972308141103488e-02,1.000000000000000048e-04,3.545133223668613454e+01,1.199999999999999956e-01
1.194530383000000029e+00,-8.514353350000000153e-01,3.557024528347338746e-03,1.000000000000000048e-04,3.097892942254942028e+01,1.100000000000000006e-01
-1.550854682179585886e+00,1.341867675000000037e+00,4.166951006552477993e-02,1.000000000000000048e-04,3.623829728607436351e+01,3.599999999999999867e-01
2.328991532999999947e+00,-1.085498080000000032e+00,6.683146803038142979e-03,1.000000000000000048e-04,3.241692690739957072e+01,1.199999999999999956e-01
3.099662444999999877e+00,-8.173274409999999879e-01,4.133326434789006548e-03,1.000000000000000048e-04,3.117059199949922643e+01,1.300000000000000044e-01
1.008677688999999988e+00,-7.224949280000000362e-01,2.275699977049259679e-02,1.000000000000000048e-04,3.535951573994139352e+01,1.199999999999999956e-01
1.116317643999999998e+00,-8.188746820000000204e-01,2.432841102949807183e-02,1.000000000000000048e-04,3.521554111231297668e+01,1.499999999999999944e-01
1.368634144999999913e+00,-9.746537960000000167e-01,2.373077052482563953e-02,1.000000000000000048e-04,3.518321269441021570e+01,2.200000000000000011e-01
1.284766933000000000e+00,-9.049604909999999780e-01,4.471519572401399384e-02,1.000000000000000048e-04,3.649181544031897317e+01,1.300000000000000044e-01
2.840707745000000006e+00,-9.874777999999999611e-01,2.441530139934629598e-02,1.000000000000000048e-04,3.508066754413242450e+01,1.199999999999999956e-01
1.164831654000000105e+00,-8.361433499999999519e-01,1.689993748716735536e-02,1.000000000000000048e-04,3.405902049271853116e+01,1.600000000000000033e-01
9.274529849999999520e-01,-5.648102149999999488e-01,4.667011843295416906e-02,1.000000000000000048e-04,3.646000033689831099e+01,2.200000000000000011e-01
1.803806121999999901e+00,-1.051757271000000049e+00,2.288964753109325526e-02,1.000000000000000048e-04,3.489398800392957156e+01,2.200000000000000011e-01
1.910407339000000038e+00,-1.096340147000000043e+00,1.944287687911759599e-02,1.000000000000000048e-04,3.465956209432261659e+01,1.300000000000000044e-01
-2.994395329179586174e+00,-6.874333790000000111e-01,3.993214611435839598e-03,1.000000000000000048e-04,3.130192898285399750e+01,1.600000000000000033e-01
2.004169926999999962e+00,-1.114377941999999955e+00,4.948358328586062449e-02,1.000000000000000048e-04,3.694772501147097188e+01,2.099999999999999922e-01
2.993884073999999895e+00,-9.067153500000000310e-01,4.441210131615221102e-02,1.000000000000000048e-04,3.634651352070540042e+01,2.000000000000000111e-01
2.896584697999999847e+00,-6.981149509999999836e-01,4.525337176747857432e-02,1.000000000000000048e-04,3.654611082274617218e+01,2.000000000000000111e-01
2.644964143999999795e+00,-1.038456438999999953e+00,3.754516110493790609e-02,1.000000000000000048e-04,3.649712079381862395e+01,2.500000000000000000e-01
1.395029569000000080e+00,-9.673563530000000021e-01,3.486696023272686101e-02,1.000000000000000048e-04,3.615623652526328158e+01,2.200000000000000011e-01
1.133893306999999906e+00,-8.234022290000000410e-01,4.073756160059186643e-02,1.000000000000000048e-04,3.628733384263750139e+01,1.199999999999999956e-01
9.542908199999999841e-01,-6.210129070000000029e-01,4.795036538023936257e-02,1.000000000000000048e-04,3.669257389650635304e+01,1.400000000000000133e-01
1.112357503999999997e+00,-7.717409769999999947e-01,8.205318768986492178e-03,1.000000000000000048e-04,3.263801239236335050e+01,1.400000000000000133e-01
1.392129267000000059e+00,-9.489503049999999940e-01,2.220450724431021275e-02,1.000000000000000048e-04,3.496257332206505453e+01,1.100000000000000006e-01
3.104633763999999907e+00,-8.563587980000000321e-01,3.170729680933005029e-02,1.000000000000000048e-04,3.582212981744643798e+01,1.199999999999999956e-01
-1.581672989179586430e+00,-6.726275419999999672e-01,2.394292221476311197e-02,1.000000000000000048e-04,3.508301427899181846e+01,2.000000000000000111e-01
8.758714749999999549e-01,-5.394949780000000139e-01,1.293223320535795418e-02,1.000000000000000048e-04,3.371468828067441592e+01,1.199999999999999956e-01
1.027821937999999991e+00,-6.897361509999999640e-01,2.396546364661009468e-02,1.000000000000000048e-04,3.504625351675382916e+01,1.499999999999999944e-01
8.011105990000000343e-01,-4.568120419999999737e-01,3.434100453160119498e-02,1.000000000000000048e-04,3.574789260372130428e+01,1.499999999999999944e-01
8.044453879999999835e-01,-4.591503659999999765e-01,2.633400853435718600e-02,1.000000000000000048e-04,3.541825514275807052e+01,1.100000000000000006e-01
8.290542589999999601e-01,-4.498624509999999965e-01,2.962391489001761288e-02,1.000000000000000048e-04,3.550908831678630406e+01,1.199999999999999956e-01
2.306908324000000121e+00,-1.093655438999999951e+00,1.758198930221085976e-02,1.000000000000000048e-04,3.430389724719743327e+01,1.300000000000000044e-01
-3.090495873179586184e+00,-7.974218849999999970e-01,1.509011256540134308e-02,1.000000000000000048e-04,3.400406125703673865e+01,1.300000000000000044e-01
2.850739061000000074e+00,-9.724982730000000242e-01,1.883639962376474145e-02,1.000000000000000048e-04,3.469801003924293070e+01,1.100000000000000006e-01
1.925211972000000049e+00,-1.067349442999999898e+00,3.960079857000078918e-02,1.000000000000000048e-04,3.624362370349465579e+01,1.600000000000000033e-01
3.010706126000000094e+00,-9.149326070000000088e-01,3.804316122373168491e-02,1.000000000000000048e-04,3.622050762138719904e+01,1.199999999999999956e-01
1.754869720000000077e+00,-1.052947148999999971e+00,3.866324230211758139e-02,1.000000000000000048e-04,3.608672878150115793e+01,1.300000000000000044e-01
3.028086770999999899e+00,-8.725603690000000023e-01,2.828814674681512376e-02,1.000000000000000048e-04,3.520186068954144076e+01,1.199999999999999956e-01
2.780301081000000174e+00,-1.010780400000000023e+00,4.736065410340683374e-02,1.000000000000000048e-04,3.689131065884913596e+01,1.700000000000000122e-01
3.096540631999999960e+00,-8.261897350000000362e-01,3.277525644620707390e-02,1.000000000000000048e-04,3.588485165314431669e+01,1.100000000000000006e-01
-3.043596368179586342e+00,-7.656326449999999451e-01,8.627987014583365921e-03,1.000000000000000048e-04,3.275024517390858847e+01,1.100000000000000006e-01
2.593403560000000052e+00,-1.068240442000000012e+00,3.633089883826348416e-03,1.000000000000000048e-04,3.085414407261482950e+01,1.199999999999999956e-01
1.277663320999999907e+00,-8.910532270000000032e-01,4.280572330132571129e-02,1.000000000000000048e-04,3.623824820781943146e+01,1.499999999999999944e-01
8.729576639999999665e-01,-5.017517409999999733e-01,4.030691612998588830e-02,1.000000000000000048e-04,3.621655436814124585e+01,1.199999999999999956e-01
2.323316692000000128e+00,-1.072994334000000105e+00,5.975505560273658943e-03,1.000000000000000048e-04,3.199147387129223929e+01,1.400000000000000133e-01
-3.012222731179586166e+00,-7.219820959999999621e-01,2.279626295877207678e-02,1.000000000000000048e-04,3.512954509791297397e+01,1.199999999999999956e-01
2.306010604999999991e+00,-1.110345181000000014e+00,3.371070238730120017e-02,1.000000000000000048e-04,3.590157866731073000e+01,1.100000000000000006e-01
2.437557496999999795e+00,-1.097151527000000071e+00,3.144544858027985279e-02,1.000000000000000048e-04,3.575490543154636924e+01,1.100000000000000006e-01
1.098420291999999909e+00,-7.444727049999999569e-01,1.050255475342937520e-02,1.000000000000000048e-04,3.335348313191068570e+01,1.300000000000000044e-01
8.241628739999999897e-01,-4.611620249999999754e-01,4.872782401023096482e-02,1.000000000000000048e-04,3.664051829456526121e+01,1.400000000000000133e-01
1.017317494999999905e+00,-7.027905669999999771e-01,3.678584184989796418e-02,1.000000000000000048e-04,3.598821441994704884e+01,1.199999999999999956e-01
2.728679550999999925e+00,-1.007430967999999982e+00,3.544039891746351978e-02,1.000000000000000048e-04,3.597692838376714519e+01,1.100000000000000006e-01
2.848837458999999850e+00,-9.622339979999999793e-01,3.058285941057056409e-02,1.000000000000000048e-04,3.546706654322791508e+01,1.199999999999999956e-01
-3.065525731179586266e+00,-7.207210450000000046e-01,7.288540173180198950e-03,1.000000000000000048e-04,3.247816014157429976e+01,1.199999999999999956e-01
1.103969978000000074e+00,-7.587182380000000448e-01,2.565403308035117680e-02,1.000000000000000048e-04,3.508233215646679071e+01,1.300000000000000044e-01
1.112034854000000017e+00,-7.675460100000000008e-01,1.046090208237768562e-02,1.000000000000000048e-04,3.330839366643968447e+01,1.199999999999999956e-01
2.373162053000000160e+00,-1.072487750000000073e+00,1.838958244307952600e-02,1.000000000000000048e-04,3.434200797578727560e+01,1.100000000000000006e-01
2.221583438000000132e+00,-1.096064289000000080e+00,9.817510036555631564e-03,1.000000000000000048e-04,3.325022142674423975e+01,1.199999999999999956e-01
2.775251189000000007e+00,-1.013244017000000108e+00,4.611400970732387750e-02,1.000000000000000048e-04,3.621214127330884480e+01,1.700000000000000122e-01
1.527128894000000070e+00,-9.963611940000000056e-01,3.335820584672481715e-02,1.000000000000000048e-04,3.586497856820907515e+01,1.400000000000000133e-01
-1.936135624179586401e+00,1.327891944000000102e+00,5.401340301390365056e-03,1.000000000000000048e-04,3.172935456140286803e+01,1.199999999999999956e-01
2.120951332999999828e+00,-1.112975437000000012e+00,8.045144735043991552e-03,1.000000000000000048e-04,3.270967420927269131e+01,1.600000000000000033e-01
2.950704906999999988e+00,-9.277153000000000205e-01,2.858870358552271715e-02,1.000000000000000048e-04,3.548846485021162778e+01,1.700000000000000122e-01
2.461302839000000020e+00,-1.064109841000000056e+00,1.221641635844431320e-02,1.000000000000000048e-04,3.345345931045458343e+01,1.499999999999999944e-01
1.687800213000000049e+00,-1.037844004000000098e+00,3.205803989541159554e-02,1.000000000000000048e-04,3.552254895195130047e+01,1.100000000000000006e-01
-3.069023128179586113e+00,-7.343218900000000327e-01,2.977240839246290266e-02,1.000000000000000048e-04,3.614542428435844812e+01,2.000000000000000111e-01
7.655655390000000171e-01,-3.825025819999999799e-01,2.584105452586609591e-02,1.000000000000000048e-04,3.519861668049090042e+01,1.300000000000000044e-01
-3.051736326179586012e+00,-7.690870560000000467e-01,3.434883710130430534e-02,1.000000000000000048e-04,3.580450544431759141e+01,1.499999999999999944e-01
-3.116938176179586240e+00,-7.920766919999999711e-01,4.232940240514884711e-02,1.000000000000000048e-04,3.632268769388829810e+01,1.100000000000000006e-01
1.020863690000000101e+00,-6.877910739999999468e-01,2.401623855152559828e-02,1.000000000000000048e-04,3.505289108344958748e+01,1.199999999999999956e-01
1.792785233999999894e+00,-1.066474936999999956e+00,1.587078611042189863e-02,1.000000000000000048e-04,3.429881984722165811e+01,1.100000000000000006e-01
1.805689748000000039e+00,-1.066896787999999985e+00,3.081253105723651478e-02,1.000000000000000048e-04,3.581815825674218701e+01,1.100000000000000006e-01
1.773248071000000037e+00,-1.046601056999999946e+00,4.261329356490129588e-02,1.000000000000000048e-04,3.627540573592089146e+01,2.099999999999999922e-01
1.076689889999999927e+00,-7.549444410000000216e-01,4.152677485175840059e-03,1.000000000000000048e-04,3.121332731439855124e+01,1.199999999999999956e-01
2.336456505000000128e+00,-1.089906792000000069e+00,3.282496359819229992e-02,1.000000000000000048e-04,3.553590531583076029e+01,1.199999999999999956e-01
2.522083900000000156e+00,-1.078852812999999911e+00,4.398209519879506951e-02,1.000000000000000048e-04,3.656908943730264383e+01,1.199999999999999956e-01
3.676074389999999803e-01,1.100614297999999991e+00,3.277490071567619456e-02,1.000000000000000048e-04,3.578504453299483146e+01,1.700000000000000122e-01
2.099931574000000190e+00,-1.082223048999999993e+00,4.034435353960223042e-02,1.000000000000000048e-04,3.624349166618753770e+01,1.100000000000000006e-01
8.155488279999999479e-01,-4.642700679999999802e-01,9.566217838376403146e-03,1.000000000000000048e-04,3.334100238663381077e+01,2.099999999999999922e-01
9.861636230000000447e-01,-6.881834650000000497e-01,3.347465377201176012e-02,1.000000000000000048e-04,3.584781241579355537e+01,1.300000000000000044e-01
1.864254864999999928e+00,-1.086684659999999969e+00,3.349540616145511591e-03,1.000000000000000048e-04,3.091666236618894459e+01,1.199999999999999956e-01
2.873066016000000111e+00,-9.753574739999999466e-01,7.927151885491527661e-03,1.000000000000000048e-04,3.278682154672337390e+01,1.300000000000000044e-01
2.270287562000000037e+00,-1.085086717999999895e+00,7.458125202479434605e-03,1.000000000000000048e-04,3.258381209634761433e+01,1.799999999999999933e-01
8.268071609999999572e-01,-4.587794940000000099e-01,4.038238643618963231e-02,1.000000000000000048e-04,3.622137124402755859e+01,1.199999999999999956e-01
-3.050869045179586347e+00,-7.648855789999999821e-01,2.913294457116714226e-02,1.000000000000000048e-04,3.539402042436356766e+01,1.199999999999999956e-01
1.101963728999999947e+00,-7.466317359999999903e-01,2.958989732224022798e-02,1.000000000000000048e-04,3.548800451281032053e+01,1.900000000000000022e-01
1.745116724000000064e+00,-1.056563783000000090e+00,2.605629690451161454e-02,1.000000000000000048e-04,3.541106952786747541e+01,1.300000000000000044e-01
7.889769570000000343e-01,-3.846565690000000037e-01,1.431084262648292527e-02,1.000000000000000048e-04,3.417815982087819293e+01,1.499999999999999944e-01
1.385818830999999918e+00,-9.278259679999999454e-01,1.198613771176758672e-02,1.000000000000000048e-04,3.355448387877491712e+01,1.499999999999999944e-01
1.138484923000000038e+00,-8.197145099999999518e-01,4.966004342886634615e-02,1.000000000000000048e-04,3.670098299069080383e+01,1.400000000000000133e-01
1.783410439000000069e+00,-1.080958507999999929e+00,4.362379274592638467e-02,1.000000000000000048e-04,3.657234977460071690e+01,1.400000000000000133e-01
2.617653461000000181e+00,-1.025884226000000066e+00,3.578204586410570903e-02,1.000000000000000048e-04,3.603587641058346236e+01,1.199999999999999956e-01
8.270197009999999960e-01,-4.157453939999999903e-01,3.573013397285038084e-02,1.000000000000000048e-04,3.605556476892764550e+01,1.199999999999999956e-01
3.128792493000000174e+00,-8.522697870000000009e-01,3.140948131607232408e-02,1.000000000000000048e-04,3.558200401121065681e+01,1.100000000000000006e-01
1.366158207000000013e+00,-9.614226009999999878e-01,2.608688713296577685e-02,1.000000000000000048e-04,3.520900694100285477e+01,1.100000000000000006e-01
2.846286316000000038e+00,-9.688357899999999745e-01,4.956319996159921915e-02,1.000000000000000048e-04,3.677580917559902218e+01,1.400000000000000133e-01
9.208216280000000031e-01,-6.185352929999999860e-01,1.081290873041933220e-02,1.000000000000000048e-04,3.351492203331100939e+01,1.499999999999999944e-01
7.622987450000000553e-01,-3.411912120000000215e-01,2.809046908675039839e-02,1.000000000000000048e-04,3.532100677804030653e+01,1.199999999999999956e-01
9.277931750000000255e-01,-5.813990460000000304e-01,3.503223876193525040e-03,1.000000000000000048e-04,3.117057967151678355e+01,2.099999999999999922e-01
1.010173165000000095e+00,-6.808591280000000356e-01,1.199126987670969674e-02,1.000000000000000048e-04,3.356972745441090922e+01,1.300000000000000044e-01
1.661181446000000062e+00,-1.029160687999999935e+00,2.705489578703430473e-02,1.000000000000000048e-04,3.515901814458383257e+01,1.400000000000000133e-01
2.089878704000000198e+00,-1.077863170999999953e+00,3.237924511208476602e-02,1.000000000000000048e-04,3.573640781874888006e+01,1.199999999999999956e-01
9.321550429999999610e-01,-6.212176799999999943e-01,4.462279182407275641e-02,1.000000000000000048e-04,3.635834815310388990e+01,1.199999999999999956e-01
2.944595597000000176e+00,-9.127602249999999806e-01,2.197489404316425865e-02,1.000000000000000048e-04,3.512334116970829712e+01,1.100000000000000006e-01
1.288081913999999939e+00,-9.113959929999999598e-01,2.410137034125602040e-02,1.000000000000000048e-04,3.544239649677644621e+01,1.300000000000000044e-01
1.398731861999999992e+00,-9.625033109999999725e-01,5.513374192229213155e-03,1.000000000000000048e-04,3.172306817132488277e+01,1.199999999999999956e-01
1.714165549000000066e+00,-1.043104095999999981e+00,2.796400483525225689e-02,1.000000000000000048e-04,3.559779186415546093e+01,1.199999999999999956e-01
1.014018395999999989e+00,-6.788913789999999615e-01,2.422961729098168163e-02,1.000000000000000048e-04,3.523305330601220220e+01,1.300000000000000044e-01
8.887761809999999985e-01,-5.541821719999999729e-01,4.484695636419433994e-03,1.000000000000000048e-04,3.138004347519347448e+01,1.300000000000000044e-01
1.026278256999999972e+00,-6.961882160000000264e-01,3.876997644979362102e-03,1.000000000000000048e-04,3.120102919937168551e+01,1.199999999999999956e-01
1.824970581999999952e+00,-1.080428363000000003e+00,3.228197213970168677e-02,1.000000000000000048e-04,3.572954913000851462e+01,1.199999999999999956e-01
1.839979185000000017e+00,-1.082878103999999952e+00,1.976255896548290147e-02,1.000000000000000048e-04,3.455398965340489781e+01,1.300000000000000044e-01
-3.070118813179586237e+00,-7.641942569999999879e-01,3.541671831173144602e-02,1.000000000000000048e-04,3.585274285959150120e+01,1.199999999999999956e-01
2.250776613000000204e+00,-1.110438553999999911e+00,2.042845853022151256e-02,1.000000000000000048e-04,3.478940013087991190e+01,1.199999999999999956e-01
2.613802471000000072e+00,-1.066258922999999914e+00,8.770609997756960777e-03,1.000000000000000048e-04,3.261251734020954274e+01,1.199999999999999956e-01
8.050150120000000298e-01,-4.193234060000000096e-01,2.940055843499842295e-02,1.000000000000000048e-04,3.548737846697635234e+01,1.499999999999999944e-01
2.809576177999999924e+00,-9.952447749999999704e-01,3.520549551979501590e-02,1.000000000000000048e-04,3.601271134817952912e+01,1.199999999999999956e-01
8.523447290000000232e-01,-4.773689010000000121e-01,3.999761604784645569e-02,1.000000000000000048e-04,3.620038834089340440e+01,2.000000000000000111e-01
2.975142320999999868e+00,-8.986192680000000266e-01,4.378223985160828446e-02,1.000000000000000048e-04,3.613275496478986071e+01,2.000000000000000111e-01
2.960578484000000010e+00,-9.174235720000000205e-01,8.417054981169923289e-03,1.000000000000000048e-04,3.276698054275960459e+01,1.400000000000000133e-01
1.589239559999999996e+00,-1.046132274999999945e+00,4.387451502483530330e-02,1.000000000000000048e-04,3.652767294875135917e+01,1.199999999999999956e-01
1.095136271999999966e+00,-7.909478989999999543e-01,2.679675677409979612e-02,1.000000000000000048e-04,3.505914941288150288e+01,1.300000000000000044e-01
3.045277111999999953e+00,-8.831592660000000539e-01,9.006547193427392323e-03,1.000000000000000048e-04,3.283531010428300334e+01,1.799999999999999933e-01
3.011317304999999944e+00,-8.969173430000000335e-01,2.637331449126895794e-02,1.000000000000000048e-04,3.538368818834805296e+01,1.499999999999999944e-01
1.946036051000000100e+00,-1.101857058000000000e+00,2.840676323992029004e-02,1.000000000000000048e-04,3.555155081534063299e+01,1.100000000000000006e-01
9.659444579999999503e-01,-6.400164339999999674e-01,2.950836412363365066e-02,1.000000000000000048e-04,3.544511349926987265e+01,1.199999999999999956e-01
1.142944595999999979e+00,-8.229314749999999679e-01,9.518117463928412597e-03,1.000000000000000048e-04,3.316187881764779632e+01,1.499999999999999944e-01
1.336859599999999926e+00,-9.462661719999999610e-01,3.593633235407926035e-02,1.000000000000000048e-04,3.574561307026219481e+01,1.900000000000000022e-01
2.386695267999999981e+00,-1.099692616000000012e+00,2.736029770199203265e-02,1.000000000000000048e-04,3.530705457656537760e+01,1.799999999999999933e-01
1.122946417999999946e+00,-7.871106610000000448e-01,3.215305651801658726e-02,1.000000000000000048e-04,3.574094069292178943e+01,1.499999999999999944e-01
1.038511049000000019e+00,-6.836743480000000428e-01,3.055968311938962734e-02,1.000000000000000048e-04,3.568899435566864753e+01,1.499999999999999944e-01
-1.865548755179585960e+00,5.988235499999999822e-01,1.225076217128319434e-02,1.000000000000000048e-04,3.371825780056072830e+01,3.599999999999999867e-01
-1.208774007179585830e+00,1.086301519000000049e+00,4.041412384688974208e-02,1.000000000000000048e-04,3.689560133308706469e+01,3.900000000000000133e-01
-1.451351928179586359e+00,1.047303024999999943e+00,1.604800925267116721e-02,1.000000000000000048e-04,3.455592481751516942e+01,3.900000000000000133e-01
-1.863787002179586594e+00,5.986409590000000280e-01,3.578046525053892729e-02,1.000000000000000048e-04,3.556575706511392099e+01,3.099999999999999978e-01
-2.367107747179586053e+00,3.570653329999999848e-01,2.776821143576837375e-02,1.000000000000000048e-04,3.562444000744448402e+01,3.300000000000000155e-01
-1.756700719179586478e+00,1.186865959999999998e+00,1.251289118846548795e-02,1.000000000000000048e-04,3.384365741704108643e+01,4.600000000000000200e-01
3.110012692999999828e+00,-8.816387980000000013e-01,4.328890507939653354e-02,1.000000000000000048e-04,3.590534191456540469e+01,4.000000000000000222e-01
1.208427087000000011e+00,6.391205479999999550e-01,4.136051955729751206e-02,1.000000000000000048e-04,3.605732170550414395e+01,3.200000000000000067e-01
2.195568135999999893e+00,9.530612539999999688e-01,3.018490121867075174e-02,1.000000000000000048e-04,3.517686441377227879e+01,3.200000000000000067e-01
1.005319582999999906e+00,6.711075279999999532e-01,1.693046049664323482e-02,1.000000000000000048e-04,3.334227572278577867e+01,8.100000000000000533e-01
-1.746303855179585973e+00,7.561700099999999480e-01,2.270937214301199658e-02,1.000000000000000048e-04,3.513422267952945788e+01,3.599999999999999867e-01
-4.601474541795864681e-01,1.080353384999999999e+00,4.851680746074204381e-02,1.000000000000000048e-04,3.585094661407311634e+01,4.699999999999999734e-01
-1.809340496179586033e+00,8.561831709999999651e-01,5.048826144142329331e-03,1.000000000000000048e-04,3.104339907393077524e+01,5.600000000000000533e-01
-1.804726732179585902e+00,8.415213710000000180e-01,2.717784631927499389e-02,1.000000000000000048e-04,3.566482679310072967e+01,5.100000000000000089e-01
-1.920735154179586068e+00,8.789503189999999799e-01,8.758423461542430566e-03,1.000000000000000048e-04,3.214477960113644173e+01,4.500000000000000111e-01
-2.443118364179586166e+00,3.912645049999999847e-01,3.029164081807668787e-02,1.000000000000000048e-04,3.649235574929731740e+01,6.400000000000000133e-01
-2.443397905179586438e+00,3.924271049999999983e-01,7.502034746850761229e-03,1.000000000000000048e-04,3.326024404145136515e+01,4.199999999999999845e-01
-1.798694144179585841e+00,8.464773150000000079e-01,8.773340260417218303e-03,1.000000000000000048e-04,3.322342903359827915e+01,6.600000000000000311e-01
-1.799964602179586315e+00,8.443478660000000025e-01,4.131750213477803496e-02,1.000000000000000048e-04,3.603603004865536974e+01,6.099999999999999867e-01
-1.805111234179586077e+00,8.421560940000000217e-01,1.674774575721062891e-02,1.000000000000000048e-04,3.596559100678744869e+01,5.100000000000000089e-01
-2.442430271179586221e+00,3.917367079999999890e-01,1.528410835901035034e-02,1.000000000000000048e-04,3.420194721558954853e+01,9.200000000000000400e-01
-2.432135523179586034e+00,3.856870689999999935e-01,2.726758106070605037e-02,1.000000000000000048e-04,3.525585754684883000e+01,4.500000000000000111e-01
-2.443115938179586166e+00,3.817974199999999985e-01,3.385280161095714779e-02,1.000000000000000048e-04,3.778676409327520247e+01,1.010000000000000009e+00
-2.507217827179586411e+00,2.806706330000000027e-01,4.755887417769531084e-02,1.000000000000000048e-04,3.620048015384654860e+01,7.199999999999999734e-01
-2.751331907179586089e+00,-4.573921380000000037e-01,2.251499560838676403e-02,1.000000000000000048e-04,3.533863764837345656e+01,4.299999999999999933e-01
-2.751204501179586259e+00,-4.575163139999999795e-01,5.354686513972861661e-03,1.000000000000000048e-04,3.204706118684593719e+01,5.100000000000000089e-01
-2.751948792179586434e+00,-4.626465410000000222e-01,4.444591844180537793e-02,1.000000000000000048e-04,3.508344429839019796e+01,9.000000000000000222e-01
-2.714588277179586395e+00,-4.966179359999999821e-01,3.215105816340672190e-02,1.000000000000000048e-04,3.622466595505329678e+01,5.200000000000000178e-01
-4.484873401795859138e-01,1.078759022000000067e+00,4.188406329406359901e-02,1.000000000000000048e-04,3.612126992395039338e+01,4.600000000000000200e-01
1.900693019999999955e-01,8.157953839999999568e-01,2.783501403068187885e-02,1.000000000000000048e-04,3.542663291463460240e+01,5.899999999999999689e-01
-1.022766420179586078e+00,1.083744478000000067e+00,4.467266211080848926e-02,1.000000000000000048e-04,3.656890955155027711e+01,6.300000000000000044e-01
-4.695071691795860147e-01,1.083533926999999952e+00,4.300787496959487810e-02,1.000000000000000048e-04,3.602243880926163655e+01,4.400000000000000022e-01
-2.430196729179586068e+00,3.866488559999999852e-01,2.140891980626093496e-02,1.000000000000000048e-04,3.490880626730833569e+01,4.500000000000000111e-01
-1.912154461179586207e+00,8.727908680000000530e-01,2.603675640274829076e-02,1.000000000000000048e-04,3.579991436839358698e+01,4.699999999999999734e-01
-2.513608092179586251e+00,4.011275939999999762e-01,3.733111195579921077e-02,1.000000000000000048e-04,3.630315113354707535e+01,4.699999999999999734e-01
-2.755728471179586414e+00,-5.498326249999999638e-01,2.264266735053734395e-02,1.000000000000000048e-04,3.487874410969170924e+01,5.100000000000000089e-01
3.086866033999999814e+00,-8.456466849999999535e-01,4.197890649291634302e-02,1.000000000000000048e-04,3.694865273140428030e+01,5.200000000000000178e-01
2.898135272999999845e+00,-9.408617099999999622e-01,3.770311751792581462e-02,1.000000000000000048e-04,3.593502179104894623e+01,5.600000000000000533e-01
2.887933338999999933e+00,-9.438168839999999671e-01,6.341719212115711282e-03,1.000000000000000048e-04,3.256509254565809641e+01,4.799999999999999822e-01
2.256176956000000011e+00,-1.014735844999999914e+00,3.375948434859877417e-02,1.000000000000000048e-04,3.626021843865936489e+01,5.000000000000000000e-01
2.229698910000000200e+00,-1.018180813999999934e+00,4.235779014923289447e-03,1.000000000000000048e-04,3.157535721673851370e+01,6.400000000000000133e-01
2.227960753000000071e+00,-1.020489782000000067e+00,4.006556477643250652e-02,1.000000000000000048e-04,3.586018251961949233e+01,5.999999999999999778e-01
1.978102527999999971e+00,-9.529058719999999871e-01,4.013352092038879881e-02,1.000000000000000048e-04,3.680665708711924822e+01,5.200000000000000178e-01
2.842930618000000020e+00,9.211371910000000218e-01,9.847763710664847112e-03,1.000000000000000048e-04,3.297557610781330339e+01,4.899999999999999911e-01
2.611089279999999846e+00,9.227226889999999848e-01,1.262411496672711381e-02,1.000000000000000048e-04,3.316127667657864464e+01,4.899999999999999911e-01
-2.613733020179586308e+00,3.020363409999999860e-01,1.392548836884877420e-02,1.000000000000000048e-04,3.394387143896030778e+01,2.399999999999999911e-01
3.080075141000000016e+00,6.813462000000000129e-01,3.173257943313213814e-02,1.000000000000000048e-04,3.577585106048775998e+01,2.999999999999999889e-01
-2.614795632179586438e+00,3.100862600000000024e-01,4.328601789335319999e-02,1.000000000000000048e-04,3.537449400524356946e+01,7.099999999999999645e-01
3.084152930000000126e+00,6.750201959999999612e-01,3.758315756149556430e-02,1.000000000000000048e-04,3.619768369962121568e+01,2.399999999999999911e-01
-2.831540824179586302e+00,-5.193198470000000011e-01,3.838987865954616996e-02,1.000000000000000048e-04,3.606171418481639535e+01,2.899999999999999800e-01
2.921667255000000019e+00,-9.403574120000000036e-01,1.658856640321050221e-02,1.000000000000000048e-04,3.465022484922452151e+01,2.899999999999999800e-01
2.914679634000000075e+00,-9.413881210000000221e-01,6.043468223885718749e-03,1.000000000000000048e-04,3.153543942357351781e+01,7.299999999999999822e-01
2.905880500999999949e+00,-9.458600109999999450e-01,1.253477652655619543e-02,1.000000000000000048e-04,3.423686389324448243e+01,4.299999999999999933e-01
2.610543199999999953e+00,9.294079060000000059e-01,9.517804139862851703e-03,1.000000000000000048e-04,3.317965961750691406e+01,2.899999999999999800e-01
2.614058957000000127e+00,9.310355519999999885e-01,3.498243464741736947e-02,1.000000000000000048e-04,3.616935960830809904e+01,3.699999999999999956e-01
-2.614313936179586406e+00,3.105085300000000048e-01,4.850786648658256262e-02,1.000000000000000048e-04,3.695665224182824460e+01,2.300000000000000100e-01
-2.614275993179586255e+00,3.084493819999999942e-01,4.617563231883720087e-02,1.000000000000000048e-04,3.639795163836124203e+01,2.000000000000000111e-01
3.080236718000000096e+00,6.852664600000000217e-01,4.195250978592748176e-02,1.000000000000000048e-04,3.635914239429811090e+01,3.800000000000000044e-01
3.085135451000000195e+00,6.840520260000000352e-01,3.741413865214216622e-02,1.000000000000000048e-04,3.585587873902203171e+01,2.300000000000000100e-01
-2.608333968179586293e+00,3.075313129999999728e-01,2.424158702879726165e-02,1.000000000000000048e-04,3.461088292526071797e+01,5.799999999999999600e-01
-2.828421734179586089e+00,-5.202039349999999507e-01,1.297080249584799810e-02,1.000000000000000048e-04,3.528243769330918411e+01,5.200000000000000178e-01
-2.829361723179586452e+00,-5.190188390000000096e-01,6.330810858253705167e-03,1.000000000000000048e-04,3.152213863771049063e+01,3.900000000000000133e-01
-2.833706243179586082e+00,-5.260186759999999628e-01,2.199931376932222002e-02,1.000000000000000048e-04,3.482592001571931206e+01,2.200000000000000011e-01
1.286414458000000094e+00,-9.076167339999999806e-01,3.195678473543364650e-02,1.000000000000000048e-04,3.551497324168887815e+01,2.399999999999999911e-01
2.295144749999999956e+00,-1.095028292000000070e+00,2.136045202967589915e-02,1.000000000000000048e-04,3.465801168179908842e+01,2.000000000000000111e-01
2.312115046000000174e+00,-1.091482969000000081e+00,4.917102685572465569e-03,1.000000000000000048e-04,3.146269212003353033e+01,1.900000000000000022e-01
2.535381049000000164e+00,-1.063602453999999975e+00,5.357317699709236193e-03,1.000000000000000048e-04,3.179723951167845541e+01,2.600000000000000089e-01
2.549902755000000187e+00,-1.059649137999999935e+00,7.227692131354100311e-03,1.000000000000000048e-04,3.234258960644293524e+01,1.900000000000000022e-01
-2.980466121795863899e-01,1.081935794000000062e+00,4.637491424115581379e-02,1.000000000000000048e-04,3.654886689587713278e+01,1.000000000000000056e-01
-4.562223411795862660e-01,1.078420874000000085e+00,8.066488949231453986e-03,1.000000000000000048e-04,3.285325014910768715e+01,1.400000000000000133e-01
-4.727696341795866175e-01,1.076427226000000070e+00,3.621437129426298418e-02,1.000000000000000048e-04,3.575652738833269950e+01,1.900000000000000022e-01
-4.909850281795860028e-01,1.086050390999999893e+00,1.400518843930486854e-02,1.000000000000000048e-04,3.390342972767461305e+01,1.499999999999999944e-01
-1.809890014179586615e+00,8.554848849999999727e-01,3.442607428553703247e-02,1.000000000000000048e-04,3.605929838072353277e+01,1.900000000000000022e-01
-1.804843805179586091e+00,8.509932909999999850e-01,2.661022216557954595e-02,1.000000000000000048e-04,3.514434771011131176e+01,1.700000000000000122e-01
-1.798315402179586187e+00,8.389159160000000393e-01,2.227014080903712626e-02,1.000000000000000048e-04,3.500582407840797572e+01,1.100000000000000006e-01
-1.820018681179586650e+00,8.404092629999999620e-01,6.947973143306630968e-03,1.000000000000000048e-04,3.261146683695983484e+01,2.000000000000000111e-01
-2.435936564179586039e+00,3.767214549999999829e-01,4.166648908767710963e-02,1.000000000000000048e-04,3.653548533533477638e+01,1.700000000000000122e-01
-2.738532057179586143e+00,-4.670391260000000266e-01,4.761010830137091254e-02,1.000000000000000048e-04,3.645279908996445783e+01,1.100000000000000006e-01
-2.750126147179586145e+00,-4.750163370000000107e-01,1.062456977762584430e-02,1.000000000000000048e-04,3.320282810378501637e+01,1.700000000000000122e-01
6.777063359999999648e-01,-9.284162910000000046e-01,2.294894529424749974e-02,1.000000000000000048e-04,3.499728479707781759e+01,1.600000000000000033e-01
6.755664329999999662e-01,-9.242990760000000527e-01,2.320314472986837254e-02,1.000000000000000048e-04,3.532057543459995941e+01,2.200000000000000011e-01
1.666277256000000095e+00,1.035703752000000089e+00,1.894384911779157382e-02,1.000000000000000048e-04,3.448758251034723088e+01,2.800000000000000266e-01
1.679531192000000006e+00,1.034147155999999956e+00,2.295827385077537849e-02,1.000000000000000048e-04,3.469475379464027043e+01,2.099999999999999922e-01
1.669961188000000041e+00,1.045784459000000055e+00,4.783137791832577090e-02,1.000000000000000048e-04,3.646068649587328281e+01,2.899999999999999800e-01
1.666612017000000057e+00,1.035903760999999923e+00,4.019852560906013450e-02,1.000000000000000048e-04,3.618707052084260312e+01,1.400000000000000133e-01
1.676630470000000095e+00,1.049302589999999924e+00,3.827731527858370397e-02,1.000000000000000048e-04,3.612852199959841215e+01,1.600000000000000033e-01
1.678871634000000057e+00,1.037439988999999896e+00,3.866734186413370300e-02,1.000000000000000048e-04,3.602422513885132105e+01,2.099999999999999922e-01
-2.159653925179585876e+00,7.341517600000000421e-01,1.221383616705177741e-02,1.000000000000000048e-04,3.348016384740413542e+01,2.600000000000000089e-01
-2.155609593179586447e+00,7.327229189999999726e-01,2.225542612929841749e-02,1.000000000000000048e-04,3.502610911301152186e+01,1.400000000000000133e-01
2.989279821999999864e+00,-1.014333855000000062e+00,7.690999283176296226e-03,1.000000000000000048e-04,3.251768230370306867e+01,1.600000000000000033e-01
6.962963009999999509e-01,-9.242906640000000396e-01,2.867764261720316676e-02,1.000000000000000048e-04,3.564030081771817748e+01,2.000000000000000111e-01
6.831622830000000368e-01,-9.295060950000000322e-01,2.655968240996110091e-02,1.000000000000000048e-04,3.558418289812381374e+01,2.099999999999999922e-01
6.813526220000000189e-01,-9.196739680000000083e-01,4.699906633629772137e-03,1.000000000000000048e-04,3.172175340247772013e+01,1.700000000000000122e-01
1.667475545999999920e+00,1.039138789999999979e+00,3.407691036718085709e-02,1.000000000000000048e-04,3.564483864517459466e+01,1.499999999999999944e-01
1.669072946000000002e+00,1.039627206000000026e+00,4.346919345306777399e-02,1.000000000000000048e-04,3.657995915794951713e+01,1.700000000000000122e-01
2.992464221000000091e+00,-1.009427984000000000e+00,3.520859940892925866e-02,1.000000000000000048e-04,3.612647071697404755e+01,1.400000000000000133e-01
3.013377762000000182e+00,-1.015725085999999999e+00,4.849061771869899590e-02,1.000000000000000048e-04,3.685960897528583757e+01,1.499999999999999944e-01
6.857830799999999893e-01,-9.290922369999999875e-01,3.814566780716090871e-02,1.000000000000000048e-04,3.618386222072753355e+01,3.400000000000000244e-01
6.874880420000000214e-01,-9.251381180000000093e-01,1.598263900173856750e-02,1.000000000000000048e-04,3.428479992617705818e+01,1.700000000000000122e-01
1.659686511000000086e+00,1.040101345999999927e+00,7.131131564826484817e-03,1.000000000000000048e-04,3.230656468430000672e+01,1.400000000000000133e-01
1.673757463999999917e+00,1.042554473000000037e+00,1.497179229277330673e-02,1.000000000000000048e-04,3.409026540428867946e+01,4.299999999999999933e-01
1.692629780999999944e+00,1.043637506000000048e+00,8.519171448403851238e-03,1.000000000000000048e-04,3.275712761681518970e+01,1.799999999999999933e-01
1.682450028999999958e+00,1.049226146999999942e+00,2.263127879297388220e-02,1.000000000000000048e-04,3.506427005218189663e+01,1.900000000000000022e-01
1.675255906999999933e+00,1.048468626000000015e+00,1.616110898497524068e-02,1.000000000000000048e-04,3.424358944381285852e+01,1.499999999999999944e-01
1.692145135000000078e+00,1.039981480000000014e+00,3.433498053778889086e-02,1.000000000000000048e-04,3.568558624046487893e+01,1.700000000000000122e-01
-2.139768073179586061e+00,7.360294179999999908e-01,3.149576041408923277e-02,1.000000000000000048e-04,3.540510946714434226e+01,1.600000000000000033e-01
-2.138731675179585956e+00,7.369836659999999817e-01,4.993886026174708392e-02,1.000000000000000048e-04,3.688736609176885395e+01,1.499999999999999944e-01
6.888283630000000546e-01,-9.193630990000000169e-01,1.627443216722377836e-02,1.000000000000000048e-04,3.410208571369815189e+01,1.700000000000000122e-01
6.776433490000000059e-01,-9.225326109999999469e-01,3.366247105846691817e-02,1.000000000000000048e-04,3.580911232511086695e+01,1.600000000000000033e-01
6.820513620000000499e-01,-9.162569579999999547e-01,2.405033074727093781e-02,1.000000000000000048e-04,3.514610968818050907e+01,2.899999999999999800e-01
6.832637360000000104e-01,-9.208365670000000502e-01,1.263220811594074552e-02,1.000000000000000048e-04,3.375249749915290920e+01,1.400000000000000133e-01
1.683256381999999940e+00,1.050427892999999946e+00,5.278285330830117389e-03,1.000000000000000048e-04,3.172245722336889884e+01,1.499999999999999944e-01
2.987248335999999949e+00,-1.011507587000000097e+00,8.604972462482696899e-03,1.000000000000000048e-04,3.259029802677001442e+01,1.900000000000000022e-01
2.994879214000000012e+00,-1.020537374999999969e+00,2.969186268364726669e-02,1.000000000000000048e-04,3.567170456738801221e+01,2.500000000000000000e-01
2.997056848999999801e+00,-1.020797841000000039e+00,3.700895130721415516e-02,1.000000000000000048e-04,3.594149411611539335e+01,1.499999999999999944e-01
6.981827720000000070e-01,-9.201470600000000166e-01,2.123612260808444008e-02,1.000000000000000048e-04,3.470834794424985859e+01,2.099999999999999922e-01
1.675679171999999939e+00,1.042232051000000048e+00,3.240206193016474667e-02,1.000000000000000048e-04,3.584762386073808216e+01,1.900000000000000022e-01
1.682732345000000018e+00,1.051774148000000020e+00,4.043086402909429333e-02,1.000000000000000048e-04,3.629592237186913195e+01,2.099999999999999922e-01
1.655763980999999996e+00,1.041789395999999979e+00,4.109738922636943514e-02,1.000000000000000048e-04,3.625072918919930487e+01,2.099999999999999922e-01
1.658505131999999938e+00,1.042043577999999915e+00,4.104861112229309106e-02,1.000000000000000048e-04,3.613940021276613379e+01,1.499999999999999944e-01
1.679931540999999973e+00,1.044700675999999939e+00,4.738926403526859399e-02,1.000000000000000048e-04,3.659344588780929541e+01,1.400000000000000133e-01
1.681131209999999987e+00,1.046558263000000100e+00,2.747759603718541097e-02,1.000000000000000048e-04,3.431871435461005149e+01,3.800000000000000044e-01
-2.147380102179586636e+00,7.248191320000000326e-01,7.538829955972204538e-03,1.000000000000000048e-04,3.227715159755205576e+01,2.200000000000000011e-01
-2.137481690179586558e+00,7.386978770000000027e-01,1.303091766385391578e-02,1.000000000000000048e-04,3.376801215174536708e+01,1.499999999999999944e-01
3.007533192999999994e+00,-1.006434849999999992e+00,3.255915488588071588e-02,1.000000000000000048e-04,3.573376789315781821e+01,1.700000000000000122e-01
6.766177190000000063e-01,-9.309161569999999664e-01,1.741083267708785909e-02,1.000000000000000048e-04,3.452765550730188693e+01,1.700000000000000122e-01
6.879719020000000240e-01,-9.170357009999999809e-01,3.856724876835294913e-02,1.000000000000000048e-04,3.618741473514173634e+01,2.600000000000000089e-01
6.868192690000000100e-01,-9.190749710000000183e-01,2.582119041167883766e-02,1.000000000000000048e-04,3.451830895086867201e+01,2.800000000000000266e-01
1.680927606000000019e+00,1.043199457999999913e+00,4.987044797333877594e-02,1.000000000000000048e-04,3.677217112106121277e+01,1.799999999999999933e-01
1.680733408999999901e+00,1.046110547000000057e+00,8.388798139418845654e-03,1.000000000000000048e-04,3.289680447265813257e+01,1.499999999999999944e-01
3.003205794999999956e+00,-1.007960921000000010e+00,3.556208323062953064e-02,1.000000000000000048e-04,3.577878936060054826e+01,2.200000000000000011e-01
3.013387552999999830e+00,-1.018013843000000085e+00,4.814351137538870617e-03,1.000000000000000048e-04,3.177118768070210564e+01,2.000000000000000111e-01
2.991633154000000072e+00,-1.018575491000000000e+00,5.710148273427972931e-03,1.000000000000000048e-04,3.217341584577474123e+01,1.600000000000000033e-01
6.810583510000000063e-01,-9.216344210000000370e-01,3.420961428824135370e-02,1.000000000000000048e-04,3.600588404483326599e+01,1.600000000000000033e-01
1.670069762000000013e+00,1.048284639000000018e+00,3.476313403907291960e-02,1.000000000000000048e-04,3.623938151983170997e+01,2.099999999999999922e-01
1.699713636000000028e+00,1.040243690999999915e+00,1.384065344485085544e-02,1.000000000000000048e-04,3.376630323550179469e+01,2.899999999999999800e-01
1.686195045999999920e+00,1.048540513999999924e+00,1.956616917635451910e-02,1.000000000000000048e-04,3.478894268447852056e+01,1.400000000000000133e-01
1.667162669999999958e+00,1.044746053999999980e+00,9.957856913735851911e-03,1.000000000000000048e-04,3.292092607123754533e+01,2.700000000000000178e-01
1.689467040999999892e+00,1.036330184999999959e+00,1.271809259143499155e-02,1.000000000000000048e-04,3.390175919770187818e+01,1.300000000000000044e-01
1.683799076999999977e+00,1.043385784000000038e+00,3.331232773072841796e-02,1.000000000000000048e-04,3.562444170159141521e+01,1.700000000000000122e-01
-2.151455832179586025e+00,7.398983139999999459e-01,3.265736945500213179e-02,1.000000000000000048e-04,3.578710606895962343e+01,2.500000000000000000e-01
-2.141944958179585967e+00,7.302793560000000461e-01,8.446173061288420048e-03,1.000000000000000048e-04,3.297891951101330221e+01,1.400000000000000133e-01
3.012489310999999947e+00,-1.019874449000000016e+00,1.247276429859446936e-02,1.000000000000000048e-04,3.370804092040268785e+01,1.900000000000000022e-01
6.824463880000000149e-01,-9.193269539999999740e-01,1.853794039685619996e-02,1.000000000000000048e-04,3.419935046488510011e+01,1.600000000000000033e-01
6.933168330000000212e-01,-9.307474239999999899e-01,7.066608780183303642e-03,1.000000000000000048e-04,3.220842680083298148e+01,1.600000000000000033e-01
7.005346909999999871e-01,-9.247541049999999929e-01,4.433322827534373622e-02,1.000000000000000048e-04,3.603394738430851874e+01,2.700000000000000178e-01
1.674988617999999985e+00,1.042237757999999959e+00,1.502719119412575244e-02,1.000000000000000048e-04,3.401946193099984583e+01,1.499999999999999944e-01
1.672026148000000045e+00,1.039374368000000048e+00,4.275166039199760487e-02,1.000000000000000048e-04,3.609444674163331968e+01,1.600000000000000033e-01
2.993618983999999816e+00,-1.008517228000000099e+00,4.376322577864368013e-02,1.000000000000000048e-04,3.622246761694412953e+01,1.700000000000000122e-01
2.992837709999999873e+00,-1.014889098000000045e+00,1.602084118034119431e-02,1.000000000000000048e-04,3.440119324600910033e+01,2.800000000000000266e-01
2.980621672999999916e+00,-1.012535224000000067e+00,3.713755497065814037e-02,1.000000000000000048e-04,3.576417923243062091e+01,1.499999999999999944e-01
3.118379398000000080e+00,-1.044341935000000055e+00,3.440780213002042620e-02,1.000000000000000048e-04,3.614612557729542175e+01,3.099999999999999978e-01
3.132904315000000217e+00,-1.046896950999999909e+00,1.174945913223670105e-02,1.000000000000000048e-04,3.336196226423488298e+01,2.200000000000000011e-01
1.248659997999999938e+00,-1.117162079000000086e+00,1.014677803663815818e-02,1.000000000000000048e-04,3.336752600380479805e+01,2.700000000000000178e-01
2.302446713000000145e+00,-1.091359299000000060e+00,1.348514630822785290e-02,1.000000000000000048e-04,3.349361130906348905e+01,2.899999999999999800e-01
3.133486173000000097e+00,-1.061461677999999909e+00,4.867578716435173869e-02,1.000000000000000048e-04,3.639470130466825992e+01,3.099999999999999978e-01
1.251013366000000016e+00,-1.102704651999999896e+00,3.888577950164805175e-02,1.000000000000000048e-04,3.597115210056517753e+01,2.300000000000000100e-01
1.232341668999999973e+00,-1.105349812000000043e+00,2.558534225493656541e-02,1.000000000000000048e-04,3.560585536211363689e+01,2.200000000000000011e-01
2.330538756999999794e+00,-1.086213730999999960e+00,1.218143575386490193e-02,1.000000000000000048e-04,3.365744071380338909e+01,2.300000000000000100e-01
3.104372880000000112e+00,-1.050765708999999992e+00,3.986842773117399083e-03,1.000000000000000048e-04,3.154762718908380492e+01,2.200000000000000011e-01
3.122794933000000217e+00,-1.050942575000000101e+00,3.103490993252123673e-02,1.000000000000000048e-04,3.565553591341188877e+01,2.099999999999999922e-01
3.135928428000000157e+00,-1.044986675000000087e+00,5.170486507228943054e-03,1.000000000000000048e-04,3.182874055440258942e+01,2.300000000000000100e-01
3.135701593999999925e+00,-1.049448040999999998e+00,4.474827989088578373e-02,1.000000000000000048e-04,3.627767849453697124e+01,2.399999999999999911e-01
2.902190216000000156e+00,-1.054666754000000095e+00,1.348165428064309126e-02,1.000000000000000048e-04,3.384494758470695075e+01,2.099999999999999922e-01
1.219278212000000083e+00,-1.102494101000000004e+00,4.206525574537139933e-02,1.000000000000000048e-04,3.654899734897732344e+01,2.399999999999999911e-01
2.314258420999999899e+00,-1.073777474999999981e+00,1.709748523371740561e-02,1.000000000000000048e-04,3.414514455605571897e+01,2.399999999999999911e-01
3.138600745000000192e+00,-1.056209613999999908e+00,3.541382091127136950e-02,1.000000000000000048e-04,3.600109026931482958e+01,2.800000000000000266e-01
2.873014373000000177e+00,-1.047336534999999902e+00,3.891357693230641790e-02,1.000000000000000048e-04,3.624923979454452194e+01,2.000000000000000111e-01
2.890150627000000139e+00,-1.045368942999999939e+00,2.417570088370730660e-02,1.000000000000000048e-04,3.528900094935605836e+01,2.200000000000000011e-01
-3.136513490179586139e+00,-1.038988312000000080e+00,4.476923167699484174e-02,1.000000000000000048e-04,3.624896959190429868e+01,2.800000000000000266e-01
3.120369102000000172e+00,-1.042910143999999928e+00,1.748978316623290077e-02,1.000000000000000048e-04,3.406181817923795307e+01,2.399999999999999911e-01
3.132773262000000170e+00,-1.048570620000000009e+00,1.128068808421843136e-02,1.000000000000000048e-04,3.319622851152408316e+01,2.300000000000000100e-01
3.132934141999999866e+00,-1.046888051000000042e+00,1.108471774360940409e-02,1.000000000000000048e-04,3.360540709175163698e+01,2.200000000000000011e-01
3.134455274000000014e+00,-1.046257098000000108e+00,9.561550099230318664e-03,1.000000000000000048e-04,3.319697733824270358e+01,2.200000000000000011e-01
2.910504301000000016e+00,-1.063930792999999930e+00,4.008382863023620540e-02,1.000000000000000048e-04,3.627653984365504414e+01,2.399999999999999911e-01
2.301930878999999930e+00,-1.084305269999999988e+00,2.247379899908579642e-02,1.000000000000000048e-04,3.506576972670347914e+01,3.099999999999999978e-01
2.314913878000000036e+00,-1.104421796000000011e+00,2.740024331144018041e-02,1.000000000000000048e-04,3.519327242177075021e+01,2.600000000000000089e-01
1.232494258000000009e+00,-1.089556776000000005e+00,3.222811048984482868e-02,1.000000000000000048e-04,3.544965093654943189e+01,3.099999999999999978e-01
-3.138875270179586341e+00,-1.027091259999999950e+00,3.780540075142744399e-02,1.000000000000000048e-04,3.583668887767645828e+01,3.800000000000000044e-01
1.277748142000000087e+00,-1.105660628999999950e+00,4.929171083070820608e-02,1.000000000000000048e-04,3.688473641106484990e+01,2.500000000000000000e-01
2.339694710999999927e+00,-1.083680948999999893e+00,4.821288465359811759e-02,1.000000000000000048e-04,3.659754379904183708e+01,2.300000000000000100e-01
3.085408954000000037e+00,-1.045989441999999991e+00,2.545303998093875752e-02,1.000000000000000048e-04,3.525134746966917731e+01,2.800000000000000266e-01
3.122183823999999941e+00,-1.053540683000000033e+00,2.092120775365082994e-02,1.000000000000000048e-04,3.483399887442683962e+01,3.699999999999999956e-01
1.263417701000000060e+00,-1.099941301000000093e+00,4.703087273826337539e-02,1.000000000000000048e-04,3.652290584752297775e+01,2.200000000000000011e-01
1.238769020999999970e+00,-1.122513239999999968e+00,1.924332865992848737e-02,1.000000000000000048e-04,3.464132974098563267e+01,2.600000000000000089e-01
1.225778744000000087e+00,-1.107856694000000086e+00,4.377376746450734740e-02,1.000000000000000048e-04,3.614500937876119480e+01,2.500000000000000000e-01
2.356185176999999964e+00,-1.090954028000000076e+00,7.749068242012054943e-03,1.000000000000000048e-04,3.243444505829140212e+01,2.700000000000000178e-01
1.231078855000000027e+00,-1.109460918999999990e+00,3.440549814092686703e-02,1.000000000000000048e-04,3.571462161073434061e+01,2.300000000000000100e-01
2.350025410999999842e+00,-1.078254897999999962e+00,4.868413590853837292e-02,1.000000000000000048e-04,3.694406479275750144e+01,2.300000000000000100e-01
2.889344674999999807e+00,-1.054064458000000037e+00,1.462569037286557891e-02,1.000000000000000048e-04,3.427220827724474361e+01,3.200000000000000067e-01
1.260972444000000081e+00,-1.102168519999999985e+00,3.209191706679390133e-02,1.000000000000000048e-04,3.580473034246062269e+01,2.899999999999999800e-01
3.138597202000000141e+00,-1.049455424000000026e+00,2.002877134239680265e-02,1.000000000000000048e-04,3.461581560674581937e+01,2.600000000000000089e-01
1.280173519000000093e+00,-1.106045986000000036e+00,2.985255204000593354e-02,1.000000000000000048e-04,3.525790501224240359e+01,2.899999999999999800e-01
3.140421104000000074e+00,-1.048273016000000002e+00,1.816401221598159046e-02,1.000000000000000048e-04,3.431019507874200514e+01,2.700000000000000178e-01
2.887571490000000018e+00,-1.060290981000000077e+00,2.738937102885528191e-02,1.000000000000000048e-04,3.510799775693133284e+01,2.300000000000000100e-01
3.117377486000000086e+00,-1.048849812999999909e+00,1.260692566726251060e-02,1.000000000000000048e-04,3.423932960484069099e+01,2.800000000000000266e-01
3.139331405000000075e+00,-1.045946368000000071e+00,2.175590446411455881e-02,1.000000000000000048e-04,3.469238008995342426e+01,2.300000000000000100e-01
2.901812189000000153e+00,-1.070407117000000019e+00,1.948347630016317514e-02,1.000000000000000048e-04,3.437357022638176574e+01,2.200000000000000011e-01
2.874698792999999863e+00,-1.069280417999999955e+00,2.782929696379354140e-02,1.000000000000000048e-04,3.523223410079051376e+01,2.200000000000000011e-01
3.126790450000000110e+00,-1.053686536000000062e+00,1.424825256225404485e-02,1.000000000000000048e-04,3.389845700383068561e+01,2.099999999999999922e-01
1.253234667999999941e+00,-1.096167120000000050e+00,4.391267262698284046e-03,1.000000000000000048e-04,3.146118673321488757e+01,2.200000000000000011e-01
1.242189800000000011e+00,-1.095888138000000067e+00,1.762048860110675477e-02,1.000000000000000048e-04,3.433637016614379434e+01,2.899999999999999800e-01
2.358704259000000025e+00,-1.096119858000000002e+00,4.895555404878176864e-02,1.000000000000000048e-04,3.666091965241854211e+01,2.099999999999999922e-01
3.090657074000000115e+00,-1.046905049999999893e+00,1.793802976612860617e-02,1.000000000000000048e-04,3.389669866764176476e+01,2.300000000000000100e-01
2.350320292999999783e+00,-1.077642637000000070e+00,2.171833038921086242e-02,1.000000000000000048e-04,3.450183170781798481e+01,3.300000000000000155e-01
3.120911620999999858e+00,-1.047605429999999949e+00,2.369659667597713570e-02,1.000000000000000048e-04,3.504590752946987209e+01,2.899999999999999800e-01
2.310418793000000193e+00,-1.091478047999999923e+00,1.825991872288010992e-02,1.000000000000000048e-04,3.416445808444302656e+01,3.300000000000000155e-01
2.888242410000000149e+00,-1.055260810999999910e+00,4.788453432855345471e-02,1.000000000000000048e-04,3.694164931143343722e+01,2.999999999999999889e-01
2.313880778000000138e+00,-1.089056457000000089e+00,4.078984989790233190e-02,1.000000000000000048e-04,3.585460564710732712e+01,2.600000000000000089e-01
3.096505394999999883e+00,-1.050897790999999915e+00,2.912066253329669702e-02,1.000000000000000048e-04,3.517053322124739623e+01,3.300000000000000155e-01
1.264206060000000020e+00,-1.108314516000000083e+00,3.253865793088269592e-02,1.000000000000000048e-04,3.608459210510379478e+01,2.500000000000000000e-01
2.317080779999999951e+00,-1.080569537999999996e+00,3.144730414736308238e-02,1.000000000000000048e-04,3.589093670836496841e+01,2.399999999999999911e-01
2.308161032000000112e+00,-1.080284865999999955e+00,3.772471512515888220e-02,1.000000000000000048e-04,3.683250428119585251e+01,3.900000000000000133e-01
1.213089824000000094e+00,-1.095999417000000031e+00,2.267011089438965288e-02,1.000000000000000048e-04,3.515659786459708158e+01,2.700000000000000178e-01
3.095344697999999894e+00,-1.044259242999999948e+00,4.282046021938348129e-03,1.000000000000000048e-04,3.137997516297049927e+01,2.200000000000000011e-01
3.093500166000000107e+00,-1.047656949999999920e+00,1.416045111893220187e-02,1.000000000000000048e-04,3.424617329187951498e+01,2.300000000000000100e-01
2.871266652000000086e+00,-1.064917746999999970e+00,6.731126714744149753e-03,1.000000000000000048e-04,3.197572082925061210e+01,2.500000000000000000e-01
2.872879009000000039e+00,-1.076645507999999918e+00,4.540269271887309444e-02,1.000000000000000048e-04,3.649259052685774662e+01,2.099999999999999922e-01
1.241294699000000001e+00,-1.109043570000000090e+00,3.554176736830515909e-02,1.000000000000000048e-04,3.660624167562437492e+01,2.099999999999999922e-01
1.238788393000000099e+00,-1.083197141000000085e+00,4.676160433846545533e-02,1.000000000000000048e-04,3.644910172731151476e+01,2.999999999999999889e-01
-3.140928712179586135e+00,-1.049943351000000025e+00,2.141217538925024866e-02,1.000000000000000048e-04,3.482852925630562169e+01,2.200000000000000011e-01
2.897074545000000168e+00,-1.050668165000000043e+00,2.804129251525821001e-02,1.000000000000000048e-04,3.534063952519576901e+01,2.099999999999999922e-01
3.133488720999999977e+00,-1.053899826000000095e+00,2.804903425789966043e-02,1.000000000000000048e-04,3.534460074826501597e+01,2.300000000000000100e-01
2.854965548000000020e+00,-1.051119023000000041e+00,2.889677576891411248e-02,1.000000000000000048e-04,3.534813244500568175e+01,3.200000000000000067e-01
2.846666281000000076e+00,-1.061494909000000098e+00,2.405076588694812084e-02,1.000000000000000048e-04,3.500591790242823720e+01,2.600000000000000089e-01
1.477625364000000108e+00,-9.892628350000000070e-01,4.347953904936135289e-02,1.000000000000000048e-04,3.641562625034512024e+01,2.000000000000000111e-01
-2.998301261179586064e+00,-5.567642400000000213e-01,4.695344342828246947e-02,1.000000000000000048e-04,3.649838794053622593e+01,1.799999999999999933e-01
2.915910107000000195e+00,-9.248875840000000403e-01,3.702155991941104979e-02,1.000000000000000048e-04,3.594459299534671004e+01,2.999999999999999889e-01
2.904218159000000021e+00,-9.279150130000000107e-01,3.179733605076873193e-02,1.000000000000000048e-04,3.598479260550013947e+01,2.399999999999999911e-01
2.912492748000000020e+00,-9.378063049999999512e-01,8.523357018323858558e-03,1.000000000000000048e-04,3.258242674461305910e+01,4.600000000000000200e-01
2.945746643000000109e+00,-9.241091030000000428e-01,1.121566857059521499e-02,1.000000000000000048e-04,3.328634396979655463e+01,2.300000000000000100e-01
2.195221751000000054e+00,9.567984520000000215e-01,2.509763488429233441e-02,1.000000000000000048e-04,3.526420811994114501e+01,2.200000000000000011e-01
-2.382074272179586227e+00,-9.504311730000000180e-01,4.259000780096292710e-02,1.000000000000000048e-04,3.653916674936334630e+01,2.300000000000000100e-01
2.197803225999999999e+00,9.560313849999999558e-01,2.912655851677141070e-02,1.000000000000000048e-04,3.523491813864211508e+01,2.300000000000000100e-01
-2.380846050179586282e+00,-9.512843520000000552e-01,5.450718038004401939e-03,1.000000000000000048e-04,3.167785211493685082e+01,2.600000000000000089e-01
-2.382960995179586039e+00,-9.501026420000000527e-01,1.770051503070025137e-02,1.000000000000000048e-04,3.472122947555426720e+01,2.099999999999999922e-01
2.192165822000000208e+00,9.554729659999999791e-01,3.232645973127965672e-02,1.000000000000000048e-04,3.555828277853754571e+01,2.899999999999999800e-01
-2.383512939179586176e+00,-9.505219620000000535e-01,4.375226288664543078e-03,1.000000000000000048e-04,3.156523415591800230e+01,2.000000000000000111e-01
2.197044292000000176e+00,9.582492320000000063e-01,1.892662683542545993e-02,1.000000000000000048e-04,3.491105766434419877e+01,2.500000000000000000e-01
2.198013217999999824e+00,9.570721989999999568e-01,3.568158869215714429e-02,1.000000000000000048e-04,3.613908736342519035e+01,2.099999999999999922e-01
2.198391541999999976e+00,9.561199929999999458e-01,3.787606738226833442e-02,1.000000000000000048e-04,3.637604990206783384e+01,2.300000000000000100e-01
2.199218732999999926e+00,9.570277640000000030e-01,2.109097964240329304e-02,1.000000000000000048e-04,3.506439191467249827e+01,2.200000000000000011e-01
2.196667974999999995e+00,9.569524729999999701e-01,1.876766759244494903e-02,1.000000000000000048e-04,3.409594936992720449e+01,2.399999999999999911e-01
2.196400267000000017e+00,9.571105250000000453e-01,1.113736536186720610e-02,1.000000000000000048e-04,3.344286795271371204e+01,2.500000000000000000e-01
2.195980999000000100e+00,9.563170869999999546e-01,4.012796943276555894e-02,1.000000000000000048e-04,3.603214523602473918e+01,2.200000000000000011e-01
2.198886345000000020e+00,9.574225640000000315e-01,1.500158080215547446e-02,1.000000000000000048e-04,3.465491479180789014e+01,3.300000000000000155e-01
-2.382942164179586264e+00,-9.487821469999999646e-01,4.377766735604775306e-02,1.000000000000000048e-04,3.668499548982372005e+01,2.000000000000000111e-01
2.197058621000000045e+00,9.568337070000000333e-01,2.456768695970312777e-02,1.000000000000000048e-04,3.570882562818535177e+01,2.600000000000000089e-01
2.196754174000000059e+00,9.569828230000000380e-01,4.741931569928480028e-02,1.000000000000000048e-04,3.664985117236715695e+01,2.399999999999999911e-01
-2.381905888179586039e+00,-9.494029419999999719e-01,3.504282482568150947e-02,1.000000000000000048e-04,3.585738030298869461e+01,2.399999999999999911e-01
-2.382353656179586388e+00,-9.501919130000000546e-01,4.770988163267662202e-02,1.000000000000000048e-04,3.638811322019846983e+01,2.600000000000000089e-01
-2.385313647179586383e+00,-9.492824659999999914e-01,3.081285334227243031e-02,1.000000000000000048e-04,3.523849998409238538e+01,2.399999999999999911e-01
-2.383308463179586223e+00,-9.502672559999999491e-01,8.898461559242476851e-03,1.000000000000000048e-04,3.295385808635214175e+01,2.000000000000000111e-01
2.194446376000000143e+00,9.548028840000000184e-01,1.060509752397219285e-02,1.000000000000000048e-04,3.282302956909606451e+01,3.699999999999999956e-01
-2.377678389179586294e+00,-9.493284189999999789e-01,1.167155675913366178e-02,1.000000000000000048e-04,3.355465655531425284e+01,3.099999999999999978e-01
2.195048706000000127e+00,9.553664520000000326e-01,2.245985010846332161e-02,1.000000000000000048e-04,3.482259614000382442e+01,2.399999999999999911e-01
2.194988459000000169e+00,9.569281090000000267e-01,4.553771087440312663e-03,1.000000000000000048e-04,3.157956696353409853e+01,2.099999999999999922e-01
2.198773670000000013e+00,9.585742720000000050e-01,2.565865875294599460e-02,1.000000000000000048e-04,3.545552696427962047e+01,2.800000000000000266e-01
2.196007632000000154e+00,9.574002940000000406e-01,7.520106598388094643e-03,1.000000000000000048e-04,3.272539186005753464e+01,2.800000000000000266e-01
2.193610842000000005e+00,9.569156829999999614e-01,1.903296350467977710e-02,1.000000000000000048e-04,3.484457185204599483e+01,2.099999999999999922e-01
2.194846306000000080e+00,9.574700699999999509e-01,8.910549155650678357e-03,1.000000000000000048e-04,3.269573231417780335e+01,2.300000000000000100e-01
8.096471539999999800e-01,9.894972960000000262e-01,1.033464695840546205e-02,1.000000000000000048e-04,3.312838671702952809e+01,9.499999999999999556e-01
-2.901318991795864832e-01,1.086903570000000041e+00,4.075618978127918540e-02,1.000000000000000048e-04,3.622895805398684388e+01,2.000000000000000111e-01
-2.914486071795865385e-01,1.085909494999999891e+00,3.331622432999181010e-02,1.000000000000000048e-04,3.599829845475184698e+01,1.000000000000000056e-01
-2.954610881795858290e-01,1.084462065999999947e+00,3.219875166728569660e-02,1.000000000000000048e-04,3.567063494948635594e+01,1.199999999999999956e-01
-3.403197011795864313e-01,1.090760651000000081e+00,4.959756025081109299e-02,1.000000000000000048e-04,3.641987884145249410e+01,8.999999999999999667e-02
-3.429455761795860980e-01,1.087892671000000089e+00,9.221567756284214032e-03,1.000000000000000048e-04,3.277230817833166299e+01,1.400000000000000133e-01
6.896152909999999636e-01,-9.249195220000000495e-01,7.080503413941459379e-03,1.000000000000000048e-04,3.240203113882591879e+01,2.000000000000000111e-01
9.689134900000000439e-01,1.175295868000000077e+00,1.405807257195005808e-02,1.000000000000000048e-04,3.388810791050430993e+01,4.500000000000000111e-01
1.024453132999999960e+00,1.182715689999999986e+00,3.619195633579011528e-02,1.000000000000000048e-04,3.609121106085414254e+01,1.900000000000000022e-01
1.006083177000000051e+00,1.165244638999999971e+00,1.585466753283509833e-02,1.000000000000000048e-04,3.432023947456609392e+01,1.700000000000000122e-01
9.905969959999999519e-01,1.153001898999999941e+00,3.992829091043538503e-02,1.000000000000000048e-04,3.559070776694822058e+01,3.499999999999999778e-01
2.950210608999999984e+00,-1.015290931000000008e+00,2.492699707835010353e-02,1.000000000000000048e-04,3.458149531610840910e+01,5.000000000000000000e-01
2.950804928999999799e+00,-1.010655210999999998e+00,3.743163750935003115e-02,1.000000000000000048e-04,3.606463728324723661e+01,1.700000000000000122e-01
2.951637304000000128e+00,-1.010683065999999908e+00,4.537147078409455025e-02,1.000000000000000048e-04,3.668500054452907477e+01,1.900000000000000022e-01
-2.349248843179586377e+00,-9.322901449999999590e-01,1.457851995320289668e-02,1.000000000000000048e-04,3.395806325107920287e+01,1.900000000000000022e-01
