-1.598279621179586663e+00,2.779993629999999993e-01,4.346561821514609292e-02,1.000000000000000048e-04,3.647029566536559742e+01,1.700000000000000122e-01
-8.306753881795865269e-01,5.048130450000000158e-01,3.494698678691875865e-02,1.000000000000000048e-04,3.555065376536066424e+01,1.600000000000000033e-01
-1.512887194179586281e+00,3.571169940000000209e-01,9.539522719076352214e-03,1.000000000000000048e-04,3.316378393473835473e+01,1.600000000000000033e-01
-2.094054222179586588e+00,-9.657747650000000350e-01,1.335576288541629256e-02,1.000000000000000048e-04,3.349380296485929165e+01,1.600000000000000033e-01
-1.256550916179586252e+00,-1.037146153999999987e+00,2.472407864806229830e-02,1.000000000000000048e-04,3.540156487700222954e+01,1.900000000000000022e-01
-2.638489419179586015e+00,-8.917870300000000361e-01,4.758021631500146398e-02,1.000000000000000048e-04,3.706137461514843778e+01,1.600000000000000033e-01
-1.710562538179586589e+00,-1.402302595000000096e+00,4.321663275577905527e-02,1.000000000000000048e-04,3.661471406114401361e+01,2.000000000000000111e-01
-2.771840681795865180e-01,-1.115655276000000029e+00,1.621282174209297613e-02,1.000000000000000048e-04,3.459076247571618978e+01,1.700000000000000122e-01
-1.608432286179586335e+00,-6.514894359999999773e-01,2.881335454335330962e-02,1.000000000000000048e-04,3.609464387674655939e+01,1.600000000000000033e-01
-1.490451089179586575e+00,-3.201959389999999850e-01,4.580309829856533954e-02,1.000000000000000048e-04,3.649947252619458737e+01,1.700000000000000122e-01
-1.995144670179586299e+00,-1.040863893000000040e+00,7.236004605625267691e-03,1.000000000000000048e-04,3.264868133652974080e+01,1.799999999999999933e-01
3.095686500000000008e-02,-1.139960520999999893e+00,4.439602037675866725e-02,1.000000000000000048e-04,3.609373540358100740e+01,1.700000000000000122e-01
-2.211919791795864398e-01,-6.717550429999999961e-01,4.974505273701303187e-02,1.000000000000000048e-04,3.677245127925664292e+01,2.200000000000000011e-01
-8.294029241795861651e-01,6.699244909999999553e-01,9.397754592901898935e-03,1.000000000000000048e-04,3.288453654403975435e+01,1.799999999999999933e-01
-4.765590681795863759e-01,-7.328014390000000544e-01,3.900539066970995505e-02,1.000000000000000048e-04,3.598853074154811793e+01,1.600000000000000033e-01
-1.123871723179585835e+00,1.275958498999999913e+00,4.487017539185899490e-02,1.000000000000000048e-04,3.663302427396455130e+01,1.900000000000000022e-01
-5.094723721795864080e-01,-7.371415260000000469e-01,3.914715895020409037e-02,1.000000000000000048e-04,3.629996887282338491e+01,1.600000000000000033e-01
6.571342580000000266e-01,4.949370419999999937e-01,1.929363175996894747e-02,1.000000000000000048e-04,3.448687237290312169e+01,1.700000000000000122e-01
-1.010588552179585875e+00,4.063959939999999826e-01,2.089528110853619905e-02,1.000000000000000048e-04,3.472555798741385047e+01,1.400000000000000133e-01
-5.300352171795861267e-01,-4.198024320000000031e-01,3.545600141268500510e-02,1.000000000000000048e-04,3.609729488807937514e+01,1.499999999999999944e-01
-3.959305511795863097e-01,-4.514385590000000170e-01,4.450628873697635296e-02,1.000000000000000048e-04,3.590918118619222099e+01,1.600000000000000033e-01
-1.302326638179586382e+00,4.891699640000000127e-01,2.176497530802746355e-02,1.000000000000000048e-04,3.518560693827136276e+01,8.999999999999999667e-02
-8.169037861795862554e-01,4.857709299999999897e-01,1.319784446334081041e-02,1.000000000000000048e-04,3.380669279420421702e+01,1.000000000000000056e-01
-1.156602994179586119e+00,7.039336720000000103e-01,2.320335347303145376e-02,1.000000000000000048e-04,3.510831915184465402e+01,1.100000000000000006e-01
2.500120207999999788e+00,-3.403989430000000094e-01,3.614167863664830699e-02,1.000000000000000048e-04,3.616549658563928915e+01,1.100000000000000006e-01
2.397122115999999803e+00,-8.283729720000000407e-01,3.940402948560865065e-02,1.000000000000000048e-04,3.622610639571180258e+01,1.700000000000000122e-01
-4.391142381795862804e-01,9.199097720000000145e-01,2.335967827552990275e-02,1.000000000000000048e-04,3.499447690261177257e+01,2.200000000000000011e-01
-1.356814123179586495e+00,1.335301293999999972e+00,4.729468854301140113e-02,1.000000000000000048e-04,3.672486372640853602e+01,2.600000000000000089e-01
2.612804049999999823e+00,3.003891830000000041e-01,1.355364938618306217e-02,1.000000000000000048e-04,3.402894750351902786e+01,1.700000000000000122e-01
-2.350352662179586272e+00,1.041324629000000002e+00,3.103315626858034471e-02,1.000000000000000048e-04,3.547698337780641253e+01,5.300000000000000266e-01
-1.192441121179586005e+00,1.100105410000000061e+00,2.233153033953720959e-02,1.000000000000000048e-04,3.506812071029481359e+01,1.799999999999999933e-01
-3.012917491179586182e+00,1.485957493999999990e+00,1.214208222185177155e-02,1.000000000000000048e-04,3.339871173460809928e+01,2.200000000000000011e-01
-7.329138461795858817e-01,1.044356909000000000e+00,9.420434686600781538e-03,1.000000000000000048e-04,3.301073432787452333e+01,1.700000000000000122e-01
1.024371087000000013e+00,-9.607604419999999923e-01,1.903151731712750955e-02,1.000000000000000048e-04,3.459111833319205687e+01,1.600000000000000033e-01
2.960998206000000188e+00,-8.548671270000000044e-01,2.325426877552272745e-02,1.000000000000000048e-04,3.455745883584554434e+01,1.900000000000000022e-01
-2.929124628179586409e+00,8.872048380000000511e-01,3.941775201662485462e-02,1.000000000000000048e-04,3.593921548574978431e+01,4.600000000000000200e-01
-3.017579355179586198e+00,-3.780387199999999948e-01,1.071673324844403183e-02,1.000000000000000048e-04,3.313991336327642756e+01,2.399999999999999911e-01
-2.268575282179586594e+00,6.921453520000000470e-01,3.675303161704034788e-02,1.000000000000000048e-04,3.597616605590951622e+01,3.699999999999999956e-01
2.478186394000000181e+00,5.281495040000000474e-01,2.966702234679735595e-02,1.000000000000000048e-04,3.540206588093689533e+01,2.399999999999999911e-01
7.532392530000000530e-01,9.936355940000000109e-01,1.191853741235118433e-02,1.000000000000000048e-04,3.366439507376060192e+01,1.600000000000000033e-01
1.772935874999999939e+00,1.383062164999999899e+00,2.323917977610222979e-02,1.000000000000000048e-04,3.507518820016094452e+01,7.399999999999999911e-01
1.941716173999999961e+00,9.578325640000000529e-01,1.168690952028157010e-02,1.000000000000000048e-04,3.368225861879145100e+01,3.800000000000000044e-01
2.041827891000000061e+00,-8.953703119999999460e-01,2.628292515932157541e-02,1.000000000000000048e-04,3.571788932576310316e+01,1.700000000000000122e-01
2.521229080999999983e+00,-8.544186950000000058e-01,5.975767352194150464e-03,1.000000000000000048e-04,3.206747919630044663e+01,2.000000000000000111e-01
2.745955969000000163e+00,3.136627880000000257e-01,5.323607855518689910e-03,1.000000000000000048e-04,3.193651807540475218e+01,2.099999999999999922e-01
1.738295793999999894e+00,1.134430556000000090e+00,9.745368539737750066e-03,1.000000000000000048e-04,3.361040517270458139e+01,1.799999999999999933e-01
-8.687814521795864664e-01,6.221710379999999541e-01,8.543499490471982011e-03,1.000000000000000048e-04,3.282906797875854465e+01,3.499999999999999778e-01
-1.857013858179586308e+00,3.937075449999999921e-01,2.443070099234174314e-02,1.000000000000000048e-04,3.488347173746650753e+01,2.999999999999999889e-01
-2.894431473179586156e+00,2.701405689999999971e-01,3.510329889270957793e-02,1.000000000000000048e-04,3.601707695022661682e+01,2.300000000000000100e-01
2.213600608000000136e+00,-5.295933369999999973e-01,4.488891896882106491e-02,1.000000000000000048e-04,3.665931408516504320e+01,2.500000000000000000e-01
9.327636729999999599e-01,4.069681829999999834e-01,2.314375491972896909e-02,1.000000000000000048e-04,3.476391796936784573e+01,2.300000000000000100e-01
1.743234563999999986e+00,7.359057650000000450e-01,4.628775844145585627e-02,1.000000000000000048e-04,3.658490117376866380e+01,2.200000000000000011e-01
-2.812965047179586175e+00,5.929882829999999494e-01,1.981967983496450356e-02,1.000000000000000048e-04,3.454388328459639013e+01,2.399999999999999911e-01
-2.977583888179586413e+00,-1.437144969999999966e-01,1.156198687964554370e-02,1.000000000000000048e-04,3.373906617667847030e+01,2.700000000000000178e-01
2.276564226000000080e+00,-5.051809499999999620e-01,2.455569729676089843e-02,1.000000000000000048e-04,3.521410014469814342e+01,2.800000000000000266e-01
2.667465888000000174e+00,-6.260506340000000502e-01,4.115359825845665842e-02,1.000000000000000048e-04,3.673942046959537322e+01,2.600000000000000089e-01
1.041358068000000081e+00,8.506585119999999778e-01,4.237582603503176060e-02,1.000000000000000048e-04,3.642991255540944451e+01,2.300000000000000100e-01
2.499030525999999863e+00,-9.629979760000000333e-01,6.353000458554889512e-03,1.000000000000000048e-04,3.178966542721726896e+01,3.099999999999999978e-01
1.334501084000000004e+00,-7.340646360000000481e-01,4.363930920257110685e-02,1.000000000000000048e-04,3.638164126609036941e+01,2.300000000000000100e-01
2.196979751999999841e+00,-5.334639439999999677e-01,2.956189472571564211e-02,1.000000000000000048e-04,3.533910076397209821e+01,2.500000000000000000e-01
1.355624495999999901e+00,4.654212710000000253e-01,3.799962500695650697e-02,1.000000000000000048e-04,3.639503364743812597e+01,2.200000000000000011e-01
1.445572062999999963e+00,-8.838676049999999451e-01,3.875969473106394975e-02,1.000000000000000048e-04,3.666686078856244535e+01,3.499999999999999778e-01
7.246286520000000397e-01,-7.843460709999999780e-01,2.795374524776987613e-02,1.000000000000000048e-04,3.522893214084336222e+01,3.099999999999999978e-01
2.179180484000000195e+00,1.312341798999999920e+00,3.482908350285678772e-02,1.000000000000000048e-04,3.590587767771313565e+01,2.200000000000000011e-01
7.669035910000000511e-01,2.329377750000000136e-01,3.676043927231408773e-03,1.000000000000000048e-04,3.120211154860849945e+01,2.500000000000000000e-01
1.528220198000000085e+00,-6.827860190000000218e-01,1.948336600186293538e-02,1.000000000000000048e-04,3.454404017727343046e+01,4.199999999999999845e-01
2.984436029999999906e+00,4.410184999999999800e-01,3.536118096859519611e-02,1.000000000000000048e-04,3.609097154122391515e+01,2.999999999999999889e-01
1.808380389999999949e+00,-5.931087419999999666e-01,4.046310842190583429e-02,1.000000000000000048e-04,3.641018049734217499e+01,2.200000000000000011e-01
2.378694356000000010e+00,6.891218140000000547e-01,3.597625466568395158e-02,1.000000000000000048e-04,3.645099017915829620e+01,3.099999999999999978e-01
-1.027171309179585990e+00,8.938185499999999895e-01,3.924595293232632093e-02,1.000000000000000048e-04,3.632235168201323461e+01,3.099999999999999978e-01
2.177629786999999872e+00,1.088514723000000073e+00,4.365993613889576630e-02,1.000000000000000048e-04,3.634959353016283501e+01,2.500000000000000000e-01
2.446904437000000154e+00,4.505237189999999892e-01,1.818435833567758758e-02,1.000000000000000048e-04,3.460981133956667577e+01,2.700000000000000178e-01
-2.745075452179586151e+00,5.290477460000000409e-01,3.880563590746455294e-02,1.000000000000000048e-04,3.655482477730119228e+01,1.600000000000000033e-01
3.470126559999999749e-01,6.971221490000000243e-01,1.923252981209845960e-02,1.000000000000000048e-04,3.482367198883176940e+01,2.399999999999999911e-01
-2.027672372179586624e+00,-3.494576850000000179e-01,1.630526058672044157e-02,1.000000000000000048e-04,3.404861911079275671e+01,8.999999999999999667e-02
-2.243457714179585949e+00,5.735296930000000071e-01,2.534079676299811484e-02,1.000000000000000048e-04,3.508931100738526965e+01,8.000000000000000167e-02
-1.741234469179586242e+00,8.281857209999999858e-01,3.088106208100932504e-02,1.000000000000000048e-04,3.543643985866506796e+01,1.000000000000000056e-01
-1.661352162179586145e+00,7.473004210000000480e-01,1.344889073242178448e-02,1.000000000000000048e-04,3.391590887021402523e+01,1.100000000000000006e-01
-1.046494641179585905e+00,9.839422859999999993e-01,3.523334067736871161e-02,1.000000000000000048e-04,3.585058509177756036e+01,1.600000000000000033e-01
-1.357076630179586019e+00,8.591991679999999576e-01,1.751405786858179284e-02,1.000000000000000048e-04,3.432266905844227267e+01,1.300000000000000044e-01
-1.489161381179585852e+00,8.733460579999999807e-01,4.955256377275237684e-02,1.000000000000000048e-04,3.666013949755699031e+01,8.999999999999999667e-02
2.602874990000000111e+00,9.865781270000000269e-01,1.910701921592330640e-02,1.000000000000000048e-04,3.456706819517003026e+01,2.099999999999999922e-01
6.278667869999999818e-01,1.201237362999999947e+00,2.234678888526750451e-02,1.000000000000000048e-04,3.514823529823826220e+01,1.799999999999999933e-01
1.901542252999999905e+00,5.984822429999999693e-01,3.927735359866941361e-02,1.000000000000000048e-04,3.653564391108455567e+01,1.700000000000000122e-01
9.102462569999999475e-01,3.833152009999999943e-01,3.399371544992781796e-02,1.000000000000000048e-04,3.577935587283785424e+01,2.200000000000000011e-01
4.621894529999999723e-01,4.355896570000000190e-01,7.259525151365093382e-03,1.000000000000000048e-04,3.228885591652736053e+01,2.399999999999999911e-01
1.731299603999999936e+00,-9.087058740000000245e-01,7.892069799287880494e-03,1.000000000000000048e-04,3.268733591454897436e+01,2.200000000000000011e-01
2.307708166999999921e+00,-3.555306579999999994e-01,4.573261308636776545e-02,1.000000000000000048e-04,3.667868540643127773e+01,1.700000000000000122e-01
2.284880370000000216e+00,-4.942566800000000038e-01,5.200856769236129884e-03,1.000000000000000048e-04,3.194618450560774292e+01,2.200000000000000011e-01
-2.729734007179586364e+00,-4.808223520000000084e-01,1.780560758810974253e-02,1.000000000000000048e-04,3.475157553574490521e+01,2.300000000000000100e-01
-2.728058296179586062e+00,8.181749999999999856e-01,2.295307489800571532e-02,1.000000000000000048e-04,3.523108112569280337e+01,2.200000000000000011e-01
1.539636916000000078e+00,-6.652033799999999830e-02,1.514625598397234194e-02,1.000000000000000048e-04,3.377912324092566365e+01,2.999999999999999889e-01
2.937620158000000092e+00,7.383732379999999873e-01,1.390390081082295767e-02,1.000000000000000048e-04,3.387522412600836219e+01,2.200000000000000011e-01
2.624384770999999894e+00,8.339422930000000012e-01,2.545829915034877183e-02,1.000000000000000048e-04,3.540902739477177619e+01,1.799999999999999933e-01
-2.594453966179586235e+00,1.052220571999999965e+00,3.941948651907854762e-02,1.000000000000000048e-04,3.623145040586464916e+01,1.900000000000000022e-01
-2.462277587179586114e+00,1.356652656000000068e+00,4.976410052865439665e-02,1.000000000000000048e-04,3.684429647696401844e+01,2.099999999999999922e-01
2.730654787000000194e+00,8.741146779999999783e-01,3.006951928023672907e-02,1.000000000000000048e-04,3.541969732189755860e+01,1.900000000000000022e-01
-2.564984794179586025e+00,9.572418230000000472e-01,4.590298067282234940e-02,1.000000000000000048e-04,3.655699491895209263e+01,4.400000000000000022e-01
1.629450376000000089e+00,2.068732899999999875e-01,3.323974766810001980e-02,1.000000000000000048e-04,3.598915614375066241e+01,2.899999999999999800e-01
1.142160569999999958e-01,6.858846720000000285e-01,4.350056719181309012e-02,1.000000000000000048e-04,3.635659979067796854e+01,1.799999999999999933e-01
-4.383495451795864639e-01,9.198101690000000108e-01,4.401370014079052095e-02,1.000000000000000048e-04,3.642832384773679166e+01,2.600000000000000089e-01
1.001193188000000012e+00,8.013430529999999719e-01,1.686025757962143073e-02,1.000000000000000048e-04,3.448916128277788573e+01,1.799999999999999933e-01
-8.746654461795859703e-01,7.515327899999999506e-01,4.733633920785168536e-02,1.000000000000000048e-04,3.674565388559894785e+01,2.600000000000000089e-01
1.319662558000000097e+00,1.070340469999999933e-01,1.973523130842601975e-02,1.000000000000000048e-04,3.442625173079585466e+01,2.399999999999999911e-01
1.726021762000000015e+00,-6.377623550000000030e-01,1.968771817112138431e-02,1.000000000000000048e-04,3.471846928501860674e+01,2.600000000000000089e-01
-2.754219137179586330e+00,-9.277945709999999568e-01,4.403912827655476203e-02,1.000000000000000048e-04,3.657420245761257860e+01,3.699999999999999956e-01
1.691977534999999921e+00,1.434503057999999998e+00,3.713543245874859067e-02,1.000000000000000048e-04,3.545841879429343635e+01,2.099999999999999922e-01
8.272144390000000236e-01,-4.428667319999999852e-01,2.098243607785708204e-02,1.000000000000000048e-04,3.478580838871886982e+01,2.300000000000000100e-01
-2.185785446179585811e+00,4.040310730000000183e-01,3.724140871800624836e-02,1.000000000000000048e-04,3.616672859483888658e+01,1.799999999999999933e-01
2.680919170000000129e+00,5.929394510000000063e-01,5.181663790545958971e-03,1.000000000000000048e-04,3.200161886410307943e+01,1.799999999999999933e-01
2.468528393999999793e+00,-3.885411739999999892e-01,2.773431916307020004e-02,1.000000000000000048e-04,3.550860056156928124e+01,1.700000000000000122e-01
1.824819092000000031e+00,-9.187566499999999525e-01,2.862510551921559551e-02,1.000000000000000048e-04,3.543563405988766846e+01,2.099999999999999922e-01
2.252174823999999909e+00,-3.842870769999999769e-01,1.072752788929119336e-02,1.000000000000000048e-04,3.341266208806513305e+01,2.000000000000000111e-01
2.889947965000000174e+00,3.184077100000000105e-01,1.097241537981099441e-02,1.000000000000000048e-04,3.307612775021382845e+01,2.000000000000000111e-01
-2.125870880179586031e+00,7.967372299999999630e-01,1.452442120863044195e-02,1.000000000000000048e-04,3.424302711839398228e+01,4.400000000000000022e-01
-2.666621499179586241e+00,1.790417820000000104e-01,3.812469587702315560e-02,1.000000000000000048e-04,3.573679932527637959e+01,1.900000000000000022e-01
2.353249148999999818e+00,9.653535600000000549e-01,4.199594712856749394e-03,1.000000000000000048e-04,3.129796649952238496e+01,1.799999999999999933e-01
1.765869402999999949e+00,9.288119630000000182e-01,4.427148431694961223e-02,1.000000000000000048e-04,3.620172956468960734e+01,3.599999999999999867e-01
1.162949336999999916e+00,5.157872650000000503e-01,1.148959476547750311e-02,1.000000000000000048e-04,3.333222519571464204e+01,4.099999999999999756e-01
2.011122450999999867e+00,-1.257182417000000108e+00,4.808842167887910843e-03,1.000000000000000048e-04,3.131183703607394619e+01,1.799999999999999933e-01
1.931340567999999980e+00,-5.991437729999999906e-01,5.890178369195987404e-03,1.000000000000000048e-04,3.205490518274609002e+01,2.000000000000000111e-01
2.835991935000000019e+00,-7.109363199999999550e-01,2.290688230805914757e-02,1.000000000000000048e-04,3.540348864508614213e+01,1.900000000000000022e-01
-2.852520529179586095e+00,8.667541789999999580e-01,3.800956629837999763e-03,1.000000000000000048e-04,3.116510692025800466e+01,1.799999999999999933e-01
-2.458251249179586040e+00,-2.796002539999999925e-01,3.330389491893565729e-02,1.000000000000000048e-04,3.594989982531438244e+01,3.300000000000000155e-01
1.596378985000000084e+00,5.944120290000000084e-01,4.614248008026522463e-02,1.000000000000000048e-04,3.621659517121346994e+01,1.900000000000000022e-01
-2.484014184179586415e+00,8.016642189999999557e-01,3.801651178220243760e-02,1.000000000000000048e-04,3.567926405177041005e+01,1.900000000000000022e-01
-2.431723812179586108e+00,1.223750555999999934e+00,4.931505589373100240e-02,1.000000000000000048e-04,3.671007007623646246e+01,1.700000000000000122e-01
-2.378598255179586118e+00,1.197731727999999940e+00,6.512694826221306077e-03,1.000000000000000048e-04,3.186851022308592718e+01,1.900000000000000022e-01
1.739429998000000088e+00,2.494783479999999887e-01,2.221783352419868032e-02,1.000000000000000048e-04,3.482634688790254529e+01,3.099999999999999978e-01
-2.377494960179586059e+00,9.562939099999999693e-01,3.072159190325320435e-02,1.000000000000000048e-04,3.575270445200937530e+01,1.799999999999999933e-01
-9.021677017958662503e-02,6.959221140000000361e-01,4.383867052682467735e-02,1.000000000000000048e-04,3.647153827255492331e+01,3.499999999999999778e-01
2.021336933000000169e+00,8.510789659999999923e-01,2.957331410773927916e-02,1.000000000000000048e-04,3.561101292565170695e+01,2.800000000000000266e-01
2.573899695999999793e+00,-5.247218830000000001e-01,3.271171560356656710e-02,1.000000000000000048e-04,3.559942779475292696e+01,1.700000000000000122e-01
2.346925623000000183e+00,-7.496726200000000118e-01,4.704577801594111292e-02,1.000000000000000048e-04,3.665969941647962571e+01,1.700000000000000122e-01
2.487812089999999809e+00,-1.095252646999999913e+00,2.819387722362477408e-02,1.000000000000000048e-04,3.513559064801626164e+01,1.600000000000000033e-01
2.543651012999999850e+00,-2.555195920000000176e-01,7.882553295624612072e-03,1.000000000000000048e-04,3.250615985726753365e+01,1.900000000000000022e-01
2.457771880000000131e+00,-4.383329890000000062e-01,3.873962495564922670e-02,1.000000000000000048e-04,3.615259792155901408e+01,1.700000000000000122e-01
-2.749033603179586116e+00,5.277091179999999770e-01,2.882712895736093753e-02,1.000000000000000048e-04,3.559472522129082250e+01,1.799999999999999933e-01
-3.021446786179586397e+00,6.716344440000000526e-01,6.861706856607626380e-03,1.000000000000000048e-04,3.210824467361766210e+01,1.799999999999999933e-01
2.390319493999999878e+00,1.427533710000000067e+00,3.539930406070172092e-02,1.000000000000000048e-04,3.604926957989206215e+01,1.799999999999999933e-01
-2.060955814179585843e+00,9.020563839999999889e-01,3.841681663702861682e-02,1.000000000000000048e-04,3.568567165308109423e+01,1.799999999999999933e-01
-1.552222439179586466e+00,1.270289940999999923e+00,3.963077300780298157e-02,1.000000000000000048e-04,3.657661511830229983e+01,1.600000000000000033e-01
2.491619029000000207e+00,8.136863199999999630e-01,3.881373803670801204e-02,1.000000000000000048e-04,3.618737354099010162e+01,1.900000000000000022e-01
2.336721559999999975e+00,1.049041915000000103e+00,4.911735151091939366e-02,1.000000000000000048e-04,3.663197218930935151e+01,1.700000000000000122e-01
1.201678150000000000e+00,3.331923239999999842e-01,4.272987616442721313e-03,1.000000000000000048e-04,3.126645586347475714e+01,1.900000000000000022e-01
-3.811893421795859993e-01,1.284308205000000092e+00,4.654277233155381353e-03,1.000000000000000048e-04,3.130615551510123851e+01,2.000000000000000111e-01
5.879284790000000038e-01,8.245620540000000442e-01,2.666206158209736068e-02,1.000000000000000048e-04,3.543638692297039228e+01,1.700000000000000122e-01
-3.584264691795864266e-01,1.112498557000000110e+00,4.714977573620551116e-02,1.000000000000000048e-04,3.677149018523660118e+01,2.000000000000000111e-01
-1.085925731795862603e-01,9.806715139999999664e-01,3.198283067939079738e-02,1.000000000000000048e-04,3.553157883622931479e+01,1.799999999999999933e-01
1.189812670000000017e+00,8.219376269999999485e-01,3.373015878131312151e-02,1.000000000000000048e-04,3.596685041768997593e+01,1.700000000000000122e-01
2.896526737999999934e+00,1.048685354999999930e+00,4.919785826264248124e-02,1.000000000000000048e-04,3.638850729537107043e+01,1.700000000000000122e-01
1.187793541000000008e+00,1.533334508000000040e+00,4.704019381088025975e-02,1.000000000000000048e-04,3.662854272243141196e+01,1.700000000000000122e-01
8.784667550000000436e-01,-5.840451829999999678e-01,4.039387190599821702e-03,1.000000000000000048e-04,3.134214208285252568e+01,2.099999999999999922e-01
-2.025603206179586557e+00,1.419180792999999996e+00,2.887394100158174534e-02,1.000000000000000048e-04,3.553773456335758851e+01,1.799999999999999933e-01
1.097118803000000087e+00,1.428367445999999985e+00,5.772627573367787937e-03,1.000000000000000048e-04,3.185626193805448025e+01,1.799999999999999933e-01
-1.923054671795858539e-01,8.268694330000000425e-01,1.509735383430473726e-02,1.000000000000000048e-04,3.415583889840825549e+01,2.000000000000000111e-01
1.974446608000000047e+00,-1.250497374000000050e+00,9.656159758821992317e-03,1.000000000000000048e-04,3.270516688865397725e+01,2.000000000000000111e-01
1.714471547999999901e+00,-4.841846819999999774e-01,3.110512050460451788e-02,1.000000000000000048e-04,3.580814562353054953e+01,1.700000000000000122e-01
1.635209042000000057e+00,-1.499680316999999929e+00,3.568833665198184457e-02,1.000000000000000048e-04,3.610004856112968241e+01,1.900000000000000022e-01
-3.085878636179586021e+00,-8.156760069999999807e-01,3.859127871481059235e-02,1.000000000000000048e-04,3.615315886227239162e+01,1.799999999999999933e-01
1.583648911999999909e+00,-4.051170720000000225e-01,1.493154139212738568e-02,1.000000000000000048e-04,3.395930951710622736e+01,1.700000000000000122e-01
3.116144028999999982e+00,-6.233618589999999626e-01,3.196795414292324250e-02,1.000000000000000048e-04,3.572515079882390410e+01,2.000000000000000111e-01
2.580853791000000008e+00,2.126606490000000071e-01,3.284391340524238367e-02,1.000000000000000048e-04,3.601782530468777566e+01,2.200000000000000011e-01
2.791070910999999821e+00,-3.375241600000000036e-02,4.884329514480965223e-02,1.000000000000000048e-04,3.649957222119370925e+01,2.999999999999999889e-01
2.126664376999999995e+00,-4.630033630000000011e-01,3.156913155463281911e-02,1.000000000000000048e-04,3.578977439763241364e+01,1.799999999999999933e-01
1.264160699999999915e+00,6.289837299999999631e-01,3.737723092053608746e-03,1.000000000000000048e-04,3.135026456576823506e+01,1.900000000000000022e-01
2.608192676999999904e+00,3.485897410000000085e-01,2.252965368198597829e-02,1.000000000000000048e-04,3.495680714022127944e+01,2.200000000000000011e-01
9.029304540000000490e-01,-5.888661819999999603e-01,1.120525628238300958e-02,1.000000000000000048e-04,3.359935600762383956e+01,1.700000000000000122e-01
2.675488564000000125e+00,-1.029758079000000048e+00,1.871500822731027650e-02,1.000000000000000048e-04,3.434361394876124507e+01,1.700000000000000122e-01
9.979371630000000160e-01,-7.076351440000000492e-01,3.471846447115256584e-02,1.000000000000000048e-04,3.584513911325892366e+01,2.000000000000000111e-01
2.816578843999999915e+00,-6.539336449999999523e-01,3.394472698297888030e-02,1.000000000000000048e-04,3.579054408455107250e+01,1.799999999999999933e-01
-2.809922836179586270e+00,-1.219770695000000016e+00,4.600811812466765183e-02,1.000000000000000048e-04,3.644709526053696891e+01,1.900000000000000022e-01
2.816545334000000178e+00,5.529564630000000092e-01,4.532425327724923236e-02,1.000000000000000048e-04,3.621469764538758085e+01,1.700000000000000122e-01
2.293480610000000031e+00,1.430186356999999964e+00,3.050162882236948439e-02,1.000000000000000048e-04,3.532083582815173628e+01,1.700000000000000122e-01
1.900048696999999898e+00,-6.695785770000000081e-01,8.952016797038921114e-03,1.000000000000000048e-04,3.272276754931422715e+01,1.900000000000000022e-01
2.402973735999999860e+00,-4.293495210000000117e-01,3.756499340895442379e-02,1.000000000000000048e-04,3.643267140875220633e+01,2.200000000000000011e-01
3.123677135999999965e+00,5.597831170000000522e-01,2.851119736571852692e-02,1.000000000000000048e-04,3.493719090482103695e+01,1.700000000000000122e-01
1.945616433999999950e+00,5.533621010000000506e-01,2.738806920520095792e-02,1.000000000000000048e-04,3.548475845930488504e+01,1.700000000000000122e-01
-2.603733431795864917e-01,9.574212720000000454e-01,2.686157415686649119e-02,1.000000000000000048e-04,3.521601433980172402e+01,3.800000000000000044e-01
-1.216980031795857897e-01,3.678993019999999836e-01,1.087540356859345581e-02,1.000000000000000048e-04,3.341651251271763812e+01,1.900000000000000022e-01
2.921580513999999962e+00,4.108407450000000072e-01,1.987907923763891638e-02,1.000000000000000048e-04,3.483975438212576137e+01,1.900000000000000022e-01
-2.362072097179586105e+00,1.187667234999999932e+00,3.623967715914449411e-02,1.000000000000000048e-04,3.570812364380878989e+01,1.900000000000000022e-01
-2.337569846179586186e+00,3.756736769999999837e-01,2.669467287584351492e-02,1.000000000000000048e-04,3.542105896037342916e+01,1.700000000000000122e-01
-1.563533060179586265e+00,8.298117619999999528e-01,4.368545108747741434e-02,1.000000000000000048e-04,3.644684438811144389e+01,3.300000000000000155e-01
-7.514201781795861734e-01,8.148208550000000105e-01,4.206854042103758129e-02,1.000000000000000048e-04,3.662294116220152773e+01,2.099999999999999922e-01
-2.172991007179586376e+00,1.278564443000000050e+00,3.043864584647314533e-02,1.000000000000000048e-04,3.558726343924612934e+01,2.000000000000000111e-01
1.004972830999999900e+00,3.284388160000000223e-01,3.250072125067366563e-02,1.000000000000000048e-04,3.601612435521342803e+01,1.799999999999999933e-01
-1.050913719179586536e+00,7.925907810000000220e-01,3.168304524950671386e-02,1.000000000000000048e-04,3.550754128474092397e+01,2.899999999999999800e-01
1.174967896000000067e+00,-7.032179160000000540e-01,3.959868144151118541e-02,1.000000000000000048e-04,3.629254048918931375e+01,1.799999999999999933e-01
2.063754460999999818e+00,1.158898511999999936e+00,1.190892787150350449e-02,1.000000000000000048e-04,3.338548184519118678e+01,1.799999999999999933e-01
1.355273345999999934e+00,1.034050206000000083e+00,4.372821646297547771e-02,1.000000000000000048e-04,3.664849883461580049e+01,1.700000000000000122e-01
1.878516419999999965e+00,-5.891517790000000421e-01,8.637556825110538281e-03,1.000000000000000048e-04,3.292606352866359742e+01,1.799999999999999933e-01
3.042909537999999969e+00,4.914006550000000195e-01,3.508630765200684148e-02,1.000000000000000048e-04,3.578077489208424566e+01,1.700000000000000122e-01
-2.192876876179585821e+00,7.571444160000000423e-01,4.313534104778528333e-02,1.000000000000000048e-04,3.607545135091813648e+01,2.099999999999999922e-01
-1.274335216179586006e+00,7.393028099999999769e-01,1.634386089820795765e-02,1.000000000000000048e-04,3.402622908732070783e+01,3.599999999999999867e-01
3.513372269999999742e-01,1.023017258000000096e+00,2.192789167511435475e-02,1.000000000000000048e-04,3.477783470192704129e+01,1.799999999999999933e-01
-2.045215730179585911e+00,1.346705497999999945e+00,3.924251929495124053e-02,1.000000000000000048e-04,3.634427048219830425e+01,1.799999999999999933e-01
2.622131355000000053e+00,-2.378520580000000051e-01,4.887491286635585810e-03,1.000000000000000048e-04,3.135762682615353114e+01,2.099999999999999922e-01
1.499565373000000035e+00,-5.833961840000000398e-01,1.756131518306166400e-02,1.000000000000000048e-04,3.479714815062408917e+01,1.199999999999999956e-01
9.453780529999999960e-01,-3.014802610000000271e-01,3.042577010269590168e-02,1.000000000000000048e-04,3.562253971862824642e+01,1.799999999999999933e-01
1.003030738000000088e+00,-6.679498139999999751e-01,3.622516111619634993e-02,1.000000000000000048e-04,3.604918473479491325e+01,1.799999999999999933e-01
-2.858957567179586157e+00,-2.878047879999999781e-01,1.617606825095343343e-02,1.000000000000000048e-04,3.429966067860929968e+01,1.300000000000000044e-01
-2.653655062179586022e+00,5.464710109999999510e-01,3.423080335289664655e-02,1.000000000000000048e-04,3.572761783677452740e+01,1.300000000000000044e-01
-1.077960778179586576e+00,1.305029642999999906e+00,4.563627639444004652e-02,1.000000000000000048e-04,3.677597908380837310e+01,1.100000000000000006e-01
2.996279555000000094e+00,-9.792432829999999644e-01,1.116884058408086633e-02,1.000000000000000048e-04,3.331784330582217990e+01,1.600000000000000033e-01
1.369802210000000131e-01,9.686457469999999459e-01,3.498793082856706954e-02,1.000000000000000048e-04,3.586538418015276619e+01,1.000000000000000056e-01
-7.405109531795863731e-01,5.344760480000000369e-01,4.644434344155480565e-02,1.000000000000000048e-04,3.635771217724009574e+01,1.900000000000000022e-01
-1.986221938179586033e+00,3.858849830000000147e-01,3.331913736720188562e-02,1.000000000000000048e-04,3.600777404471731558e+01,2.600000000000000089e-01
-1.660796187179585992e+00,1.337702168000000080e+00,8.774320055228032600e-03,1.000000000000000048e-04,3.298428491047694422e+01,1.300000000000000044e-01
-1.008319883179586540e+00,9.035811799999999838e-01,3.962149406878791996e-02,1.000000000000000048e-04,3.624528642736947148e+01,1.799999999999999933e-01
-2.859227719179586291e+00,-3.383984709999999785e-01,2.907687777020319733e-02,1.000000000000000048e-04,3.520896730708098232e+01,1.799999999999999933e-01
-3.008470453179586279e+00,-9.028608339999999455e-01,2.236266741080277301e-02,1.000000000000000048e-04,3.514773721985930877e+01,1.300000000000000044e-01
2.720373041999999852e+00,-1.026937239000000002e+00,3.244171569935396654e-02,1.000000000000000048e-04,3.603917933896588721e+01,1.100000000000000006e-01
1.131806215999999976e+00,-1.312634394000000038e+00,2.586283403946952261e-02,1.000000000000000048e-04,3.525737245877035519e+01,1.199999999999999956e-01
2.377785852000000144e+00,-1.071983155000000076e+00,1.258952272110682238e-02,1.000000000000000048e-04,3.372801114341682194e+01,1.000000000000000056e-01
1.262497049000000038e+00,-7.576738640000000302e-01,2.093763560586216557e-02,1.000000000000000048e-04,3.454254388648924134e+01,1.900000000000000022e-01
-2.150308364179585929e+00,9.473204419999999848e-01,1.337421513898742753e-02,1.000000000000000048e-04,3.374600222369450364e+01,1.499999999999999944e-01
-2.672281993179586035e+00,8.065802300000000091e-01,2.275684361544220644e-02,1.000000000000000048e-04,3.499347143155851825e+01,1.400000000000000133e-01
-2.768228307179586345e+00,1.501965110000000048e-01,1.731902761588054174e-02,1.000000000000000048e-04,3.432542674344816191e+01,1.300000000000000044e-01
2.456608391000000058e+00,-6.815239560000000418e-01,1.905163158416372030e-02,1.000000000000000048e-04,3.468808476651706485e+01,2.899999999999999800e-01
-1.538735822179586599e+00,7.895792169999999999e-01,4.583539198668937220e-02,1.000000000000000048e-04,3.666425268914595392e+01,1.600000000000000033e-01
-6.811844061795859773e-01,-7.989239399999999991e-01,1.020541552926230999e-02,1.000000000000000048e-04,3.290610702919481412e+01,2.300000000000000100e-01
-9.881069141795864041e-01,9.266642769999999807e-01,4.928907673831483399e-02,1.000000000000000048e-04,3.672136994331604143e+01,2.500000000000000000e-01
9.533575850000000074e-01,-5.868324440000000086e-01,1.252994250849000929e-02,1.000000000000000048e-04,3.320364532340914110e+01,1.199999999999999956e-01
1.194530383000000029e+00,-8.514353350000000153e-01,2.531077720178833909e-02,1.000000000000000048e-04,3.525258225162566816e+01,1.100000000000000006e-01
-1.550854682179585886e+00,1.341867675000000037e+00,2.431604749946925451e-02,1.000000000000000048e-04,3.529122610891388945e+01,3.599999999999999867e-01
2.328991532999999947e+00,-1.085498080000000032e+00,4.962691474225798538e-02,1.000000000000000048e-04,3.683752197203034484e+01,1.199999999999999956e-01
3.099662444999999877e+00,-8.173274409999999879e-01,3.216640964662999258e-02,1.000000000000000048e-04,3.546424955417040792e+01,1.300000000000000044e-01
1.008677688999999988e+00,-7.224949280000000362e-01,5.606985516889845256e-03,1.000000000000000048e-04,3.154457240249585936e+01,1.199999999999999956e-01
1.116317643999999998e+00,-8.188746820000000204e-01,3.090441471249034955e-02,1.000000000000000048e-04,3.547229097706148337e+01,1.499999999999999944e-01
1.368634144999999913e+00,-9.746537960000000167e-01,3.905833042511265389e-03,1.000000000000000048e-04,3.105290724571582928e+01,2.200000000000000011e-01
1.284766933000000000e+00,-9.049604909999999780e-01,3.704365671186812814e-02,1.000000000000000048e-04,3.579859910801108924e+01,1.300000000000000044e-01
2.840707745000000006e+00,-9.874777999999999611e-01,3.880133928771772184e-02,1.000000000000000048e-04,3.623551743263358560e+01,1.199999999999999956e-01
1.164831654000000105e+00,-8.361433499999999519e-01,4.306962505288561109e-03,1.000000000000000048e-04,3.134142345579676103e+01,1.600000000000000033e-01
9.274529849999999520e-01,-5.648102149999999488e-01,2.594007400320011425e-02,1.000000000000000048e-04,3.529130277544074801e+01,2.200000000000000011e-01
1.803806121999999901e+00,-1.051757271000000049e+00,3.864511838473241520e-03,1.000000000000000048e-04,3.052283653117406814e+01,2.200000000000000011e-01
1.910407339000000038e+00,-1.096340147000000043e+00,3.330662299704315737e-02,1.000000000000000048e-04,3.571560345539992909e+01,1.300000000000000044e-01
-2.994395329179586174e+00,-6.874333790000000111e-01,2.853746678222378666e-02,1.000000000000000048e-04,3.572138270058352560e+01,1.600000000000000033e-01
2.004169926999999962e+00,-1.114377941999999955e+00,1.460237782867431292e-02,1.000000000000000048e-04,3.376275310519162076e+01,2.099999999999999922e-01
2.993884073999999895e+00,-9.067153500000000310e-01,4.640250972877394547e-02,1.000000000000000048e-04,3.637314903464793048e+01,2.000000000000000111e-01
2.896584697999999847e+00,-6.981149509999999836e-01,4.991814030968858701e-02,1.000000000000000048e-04,3.665428680430910902e+01,2.000000000000000111e-01
2.644964143999999795e+00,-1.038456438999999953e+00,1.451548873996306999e-02,1.000000000000000048e-04,3.402482274746539304e+01,2.500000000000000000e-01
1.395029569000000080e+00,-9.673563530000000021e-01,4.331712467549197337e-02,1.000000000000000048e-04,3.631095478412353827e+01,2.200000000000000011e-01
1.133893306999999906e+00,-8.234022290000000410e-01,4.171864971800853805e-02,1.000000000000000048e-04,3.578106176726438292e+01,1.199999999999999956e-01
9.542908199999999841e-01,-6.210129070000000029e-01,1.669406944638847368e-02,1.000000000000000048e-04,3.415852936286521668e+01,1.400000000000000133e-01
1.112357503999999997e+00,-7.717409769999999947e-01,2.557017559798527989e-02,1.000000000000000048e-04,3.517642604498610126e+01,1.400000000000000133e-01
1.392129267000000059e+00,-9.489503049999999940e-01,4.162463484956197696e-02,1.000000000000000048e-04,3.607998391454437126e+01,1.100000000000000006e-01
3.104633763999999907e+00,-8.563587980000000321e-01,1.298118950797850016e-02,1.000000000000000048e-04,3.381006122952639714e+01,1.199999999999999956e-01
-1.581672989179586430e+00,-6.726275419999999672e-01,1.797489050492213220e-02,1.000000000000000048e-04,3.437432651024949593e+01,2.000000000000000111e-01
8.758714749999999549e-01,-5.394949780000000139e-01,2.523305048929782440e-02,1.000000000000000048e-04,3.543593055481625242e+01,1.199999999999999956e-01
1.027821937999999991e+00,-6.897361509999999640e-01,4.437992253335595189e-02,1.000000000000000048e-04,3.631010425394931218e+01,1.499999999999999944e-01
8.011105990000000343e-01,-4.568120419999999737e-01,7.375266686950547775e-03,1.000000000000000048e-04,3.226778380793665946e+01,1.499999999999999944e-01
8.044453879999999835e-01,-4.591503659999999765e-01,4.800909020506513580e-02,1.000000000000000048e-04,3.661551407507075595e+01,1.100000000000000006e-01
8.290542589999999601e-01,-4.498624509999999965e-01,3.388342332122321054e-02,1.000000000000000048e-04,3.566220922673335991e+01,1.199999999999999956e-01
2.306908324000000121e+00,-1.093655438999999951e+00,1.817573365291591178e-02,1.000000000000000048e-04,3.436680816191665855e+01,1.300000000000000044e-01
-3.090495873179586184e+00,-7.974218849999999970e-01,2.601989199520166399e-02,1.000000000000000048e-04,3.541658989417696546e+01,1.300000000000000044e-01
2.850739061000000074e+00,-9.724982730000000242e-01,4.830067672342948197e-03,1.000000000000000048e-04,3.192530146609505337e+01,1.100000000000000006e-01
1.925211972000000049e+00,-1.067349442999999898e+00,1.784327682829995806e-02,1.000000000000000048e-04,3.418921492573089438e+01,1.600000000000000033e-01
3.010706126000000094e+00,-9.149326070000000088e-01,2.176765257255853028e-02,1.000000000000000048e-04,3.483445777110470942e+01,1.199999999999999956e-01
1.754869720000000077e+00,-1.052947148999999971e+00,4.507772846622146168e-02,1.000000000000000048e-04,3.669624101465849009e+01,1.300000000000000044e-01
3.028086770999999899e+00,-8.725603690000000023e-01,4.528686277942588906e-02,1.000000000000000048e-04,3.630233439761014580e+01,1.199999999999999956e-01
2.780301081000000174e+00,-1.010780400000000023e+00,2.052729180939277115e-02,1.000000000000000048e-04,3.450800696125158140e+01,1.700000000000000122e-01
3.096540631999999960e+00,-8.261897350000000362e-01,4.104876351252812611e-02,1.000000000000000048e-04,3.659913748166168546e+01,1.100000000000000006e-01
-3.043596368179586342e+00,-7.656326449999999451e-01,4.894734651671733827e-02,1.000000000000000048e-04,3.678400729651859535e+01,1.100000000000000006e-01
2.593403560000000052e+00,-1.068240442000000012e+00,2.805022111538908042e-02,1.000000000000000048e-04,3.519469636142619606e+01,1.199999999999999956e-01
1.277663320999999907e+00,-8.910532270000000032e-01,3.635667203711135526e-02,1.000000000000000048e-04,3.628084291475104806e+01,1.499999999999999944e-01
8.729576639999999665e-01,-5.017517409999999733e-01,1.944629485112034026e-02,1.000000000000000048e-04,3.460960630212243672e+01,1.199999999999999956e-01
2.323316692000000128e+00,-1.072994334000000105e+00,1.658568477425102078e-02,1.000000000000000048e-04,3.402540824127798658e+01,1.400000000000000133e-01
-3.012222731179586166e+00,-7.219820959999999621e-01,2.975734572691036972e-02,1.000000000000000048e-04,3.544507206714456515e+01,1.199999999999999956e-01
2.306010604999999991e+00,-1.110345181000000014e+00,3.442514788895082584e-02,1.000000000000000048e-04,3.602054090050624069e+01,1.100000000000000006e-01
2.437557496999999795e+00,-1.097151527000000071e+00,1.294724244992257259e-02,1.000000000000000048e-04,3.367145200449702003e+01,1.100000000000000006e-01
1.098420291999999909e+00,-7.444727049999999569e-01,4.804765291600388705e-03,1.000000000000000048e-04,3.154903014267494044e+01,1.300000000000000044e-01
8.241628739999999897e-01,-4.611620249999999754e-01,1.828308504624108488e-02,1.000000000000000048e-04,3.463259381655358737e+01,1.400000000000000133e-01
1.017317494999999905e+00,-7.027905669999999771e-01,5.690211702058989643e-03,1.000000000000000048e-04,3.215934963475618247e+01,1.199999999999999956e-01
2.728679550999999925e+00,-1.007430967999999982e+00,2.695433595610386215e-02,1.000000000000000048e-04,3.525718227405582894e+01,1.100000000000000006e-01
2.848837458999999850e+00,-9.622339979999999793e-01,6.574097610628014399e-03,1.000000000000000048e-04,3.226121228020937792e+01,1.199999999999999956e-01
-3.065525731179586266e+00,-7.207210450000000046e-01,6.132556094057473560e-03,1.000000000000000048e-04,3.184552845261745802e+01,1.199999999999999956e-01
1.103969978000000074e+00,-7.587182380000000448e-01,2.690709727817513011e-02,1.000000000000000048e-04,3.515427521506475017e+01,1.300000000000000044e-01
1.112034854000000017e+00,-7.675460100000000008e-01,2.855592231599861364e-02,1.000000000000000048e-04,3.547448591635019000e+01,1.199999999999999956e-01
2.373162053000000160e+00,-1.072487750000000073e+00,2.832266538786764806e-02,1.000000000000000048e-04,3.565358312251027684e+01,1.100000000000000006e-01
2.221583438000000132e+00,-1.096064289000000080e+00,3.808771488665869953e-02,1.000000000000000048e-04,3.606763447522356358e+01,1.199999999999999956e-01
2.775251189000000007e+00,-1.013244017000000108e+00,8.722411992753698051e-03,1.000000000000000048e-04,3.307450207230989747e+01,1.700000000000000122e-01
1.527128894000000070e+00,-9.963611940000000056e-01,2.559339188487935041e-02,1.000000000000000048e-04,3.553429735358839991e+01,1.400000000000000133e-01
-1.936135624179586401e+00,1.327891944000000102e+00,1.266381818002695545e-02,1.000000000000000048e-04,3.369921501488976645e+01,1.199999999999999956e-01
2.120951332999999828e+00,-1.112975437000000012e+00,1.861167394347813808e-02,1.000000000000000048e-04,3.456838380578042091e+01,1.600000000000000033e-01
2.950704906999999988e+00,-9.277153000000000205e-01,3.484151443980233048e-02,1.000000000000000048e-04,3.604527042416900429e+01,1.700000000000000122e-01
2.461302839000000020e+00,-1.064109841000000056e+00,3.348472525241082132e-02,1.000000000000000048e-04,3.578681030207416569e+01,1.499999999999999944e-01
1.687800213000000049e+00,-1.037844004000000098e+00,2.785052885336005563e-02,1.000000000000000048e-04,3.544368155613586424e+01,1.100000000000000006e-01
-3.069023128179586113e+00,-7.343218900000000327e-01,3.519566388298562415e-02,1.000000000000000048e-04,3.570826792180671561e+01,2.000000000000000111e-01
7.655655390000000171e-01,-3.825025819999999799e-01,9.541601638866952645e-03,1.000000000000000048e-04,3.315748841810770386e+01,1.300000000000000044e-01
-3.051736326179586012e+00,-7.690870560000000467e-01,4.506406602226419901e-03,1.000000000000000048e-04,3.126433357429711180e+01,1.499999999999999944e-01
-3.116938176179586240e+00,-7.920766919999999711e-01,4.641983933132877438e-02,1.000000000000000048e-04,3.643178106065778366e+01,1.100000000000000006e-01
1.020863690000000101e+00,-6.877910739999999468e-01,1.193233596180412470e-02,1.000000000000000048e-04,3.375845255502226649e+01,1.199999999999999956e-01
1.792785233999999894e+00,-1.066474936999999956e+00,3.903289454949603748e-02,1.000000000000000048e-04,3.640049494022132848e+01,1.100000000000000006e-01
1.805689748000000039e+00,-1.066896787999999985e+00,1.469496282916762583e-02,1.000000000000000048e-04,3.405951218830468008e+01,1.100000000000000006e-01
1.773248071000000037e+00,-1.046601056999999946e+00,3.751751855386576545e-02,1.000000000000000048e-04,3.646299152149629919e+01,2.099999999999999922e-01
1.076689889999999927e+00,-7.549444410000000216e-01,4.993523747392770648e-03,1.000000000000000048e-04,3.187321468772082156e+01,1.199999999999999956e-01
2.336456505000000128e+00,-1.089906792000000069e+00,2.525995488297099259e-02,1.000000000000000048e-04,3.484298011441681808e+01,1.199999999999999956e-01
2.522083900000000156e+00,-1.078852812999999911e+00,3.267731260322419284e-02,1.000000000000000048e-04,3.576542060637029152e+01,1.199999999999999956e-01
3.676074389999999803e-01,1.100614297999999991e+00,1.743327395557399406e-02,1.000000000000000048e-04,3.405461535753722302e+01,1.700000000000000122e-01
2.099931574000000190e+00,-1.082223048999999993e+00,1.629010366431489151e-02,1.000000000000000048e-04,3.421200994200487600e+01,1.100000000000000006e-01
8.155488279999999479e-01,-4.642700679999999802e-01,3.111140944063425090e-02,1.000000000000000048e-04,3.574259379966710526e+01,2.099999999999999922e-01
9.861636230000000447e-01,-6.881834650000000497e-01,3.839267284087617693e-02,1.000000000000000048e-04,3.618352238118040276e+01,1.300000000000000044e-01
1.864254864999999928e+00,-1.086684659999999969e+00,2.266726998885585861e-02,1.000000000000000048e-04,3.507591239478000489e+01,1.199999999999999956e-01
2.873066016000000111e+00,-9.753574739999999466e-01,2.485940474120277785e-02,1.000000000000000048e-04,3.510986272518697859e+01,1.300000000000000044e-01
2.270287562000000037e+00,-1.085086717999999895e+00,3.493635026483666445e-02,1.000000000000000048e-04,3.581372921495218264e+01,1.799999999999999933e-01
8.268071609999999572e-01,-4.587794940000000099e-01,3.240864831018345354e-02,1.000000000000000048e-04,3.586971150666685304e+01,1.199999999999999956e-01
-3.050869045179586347e+00,-7.648855789999999821e-01,2.017953267590932506e-02,1.000000000000000048e-04,3.492801987956319465e+01,1.199999999999999956e-01
1.101963728999999947e+00,-7.466317359999999903e-01,2.789982499342782626e-02,1.000000000000000048e-04,3.551541359371555728e+01,1.900000000000000022e-01
1.745116724000000064e+00,-1.056563783000000090e+00,2.769579565936095347e-02,1.000000000000000048e-04,3.540588045863743361e+01,1.300000000000000044e-01
7.889769570000000343e-01,-3.846565690000000037e-01,4.114941590273062111e-02,1.000000000000000048e-04,3.654252567547286645e+01,1.499999999999999944e-01
1.385818830999999918e+00,-9.278259679999999454e-01,6.604595514905999346e-03,1.000000000000000048e-04,3.239916203081594404e+01,1.499999999999999944e-01
1.138484923000000038e+00,-8.197145099999999518e-01,3.317009546139680631e-02,1.000000000000000048e-04,3.584487788026524413e+01,1.400000000000000133e-01
1.783410439000000069e+00,-1.080958507999999929e+00,1.227679427503687928e-02,1.000000000000000048e-04,3.396491051407578965e+01,1.400000000000000133e-01
2.617653461000000181e+00,-1.025884226000000066e+00,2.096048766780771871e-02,1.000000000000000048e-04,3.470061123698630468e+01,1.199999999999999956e-01
8.270197009999999960e-01,-4.157453939999999903e-01,4.289040380637735433e-02,1.000000000000000048e-04,3.671125897560885676e+01,1.199999999999999956e-01
3.128792493000000174e+00,-8.522697870000000009e-01,3.835181319096228614e-02,1.000000000000000048e-04,3.634559784915986569e+01,1.100000000000000006e-01
1.366158207000000013e+00,-9.614226009999999878e-01,9.949032246376676020e-03,1.000000000000000048e-04,3.295514002187585589e+01,1.100000000000000006e-01
2.846286316000000038e+00,-9.688357899999999745e-01,5.528244373726612024e-03,1.000000000000000048e-04,3.195881594190563746e+01,1.400000000000000133e-01
9.208216280000000031e-01,-6.185352929999999860e-01,3.594346577497333634e-02,1.000000000000000048e-04,3.623506683702534303e+01,1.499999999999999944e-01
7.622987450000000553e-01,-3.411912120000000215e-01,1.680757842336040933e-02,1.000000000000000048e-04,3.431115614731800179e+01,1.199999999999999956e-01
9.277931750000000255e-01,-5.813990460000000304e-01,1.263908472737334740e-02,1.000000000000000048e-04,3.361338526826520479e+01,2.099999999999999922e-01
1.010173165000000095e+00,-6.808591280000000356e-01,8.986006861182182365e-03,1.000000000000000048e-04,3.263444234136993316e+01,1.300000000000000044e-01
1.661181446000000062e+00,-1.029160687999999935e+00,2.894565063355236667e-02,1.000000000000000048e-04,3.537576875375825836e+01,1.400000000000000133e-01
2.089878704000000198e+00,-1.077863170999999953e+00,1.692269286089529909e-02,1.000000000000000048e-04,3.489844860093758427e+01,1.199999999999999956e-01
9.321550429999999610e-01,-6.212176799999999943e-01,2.037618961672270357e-02,1.000000000000000048e-04,3.481345983083094353e+01,1.199999999999999956e-01
2.944595597000000176e+00,-9.127602249999999806e-01,3.574576712167187170e-02,1.000000000000000048e-04,3.598141025388957104e+01,1.100000000000000006e-01
1.288081913999999939e+00,-9.113959929999999598e-01,1.243833814557548587e-02,1.000000000000000048e-04,3.370115600909939246e+01,1.300000000000000044e-01
1.398731861999999992e+00,-9.625033109999999725e-01,1.852765148393718808e-02,1.000000000000000048e-04,3.466431660934900805e+01,1.199999999999999956e-01
1.714165549000000066e+00,-1.043104095999999981e+00,1.753517988661683347e-02,1.000000000000000048e-04,3.470322507509622056e+01,1.199999999999999956e-01
1.014018395999999989e+00,-6.788913789999999615e-01,2.304341705469198712e-02,1.000000000000000048e-04,3.510315159454955136e+01,1.300000000000000044e-01
8.887761809999999985e-01,-5.541821719999999729e-01,3.783129230373721841e-02,1.000000000000000048e-04,3.608421790661387263e+01,1.300000000000000044e-01
1.026278256999999972e+00,-6.961882160000000264e-01,6.147237322924133454e-03,1.000000000000000048e-04,3.239652350867203268e+01,1.199999999999999956e-01
1.824970581999999952e+00,-1.080428363000000003e+00,2.374702309584624665e-02,1.000000000000000048e-04,3.509884115004678762e+01,1.199999999999999956e-01
1.839979185000000017e+00,-1.082878103999999952e+00,3.718012405865932235e-02,1.000000000000000048e-04,3.597035684326490212e+01,1.300000000000000044e-01
-3.070118813179586237e+00,-7.641942569999999879e-01,3.538233108461250054e-02,1.000000000000000048e-04,3.595738797663417330e+01,1.199999999999999956e-01
2.250776613000000204e+00,-1.110438553999999911e+00,3.046200803614015212e-02,1.000000000000000048e-04,3.564629519780491762e+01,1.199999999999999956e-01
2.613802471000000072e+00,-1.066258922999999914e+00,1.730820042738103262e-02,1.000000000000000048e-04,3.505597505053779628e+01,1.199999999999999956e-01
8.050150120000000298e-01,-4.193234060000000096e-01,1.594864978934957059e-02,1.000000000000000048e-04,3.447033339373211192e+01,1.499999999999999944e-01
2.809576177999999924e+00,-9.952447749999999704e-01,2.163776395728606375e-02,1.000000000000000048e-04,3.492450712146683856e+01,1.199999999999999956e-01
8.523447290000000232e-01,-4.773689010000000121e-01,4.011096937827727388e-02,1.000000000000000048e-04,3.621660556707952594e+01,2.000000000000000111e-01
2.975142320999999868e+00,-8.986192680000000266e-01,2.002420006707793937e-02,1.000000000000000048e-04,3.487457549989203898e+01,2.000000000000000111e-01
2.960578484000000010e+00,-9.174235720000000205e-01,4.430013597627747296e-02,1.000000000000000048e-04,3.629166220180916014e+01,1.400000000000000133e-01
1.589239559999999996e+00,-1.046132274999999945e+00,5.883893273935535996e-03,1.000000000000000048e-04,3.230581939245037404e+01,1.199999999999999956e-01
1.095136271999999966e+00,-7.909478989999999543e-01,3.480900195842503118e-03,1.000000000000000048e-04,3.066387474084832476e+01,1.300000000000000044e-01
3.045277111999999953e+00,-8.831592660000000539e-01,4.679006133225498826e-02,1.000000000000000048e-04,3.683033176940671893e+01,1.799999999999999933e-01
3.011317304999999944e+00,-8.969173430000000335e-01,3.645374189621692490e-02,1.000000000000000048e-04,3.584081813509098424e+01,1.499999999999999944e-01
1.946036051000000100e+00,-1.101857058000000000e+00,3.958679890745142593e-02,1.000000000000000048e-04,3.582254661055156220e+01,1.100000000000000006e-01
9.659444579999999503e-01,-6.400164339999999674e-01,2.837918268069994018e-02,1.000000000000000048e-04,3.542668608900677185e+01,1.199999999999999956e-01
1.142944595999999979e+00,-8.229314749999999679e-01,9.802676637603792431e-03,1.000000000000000048e-04,3.344654323130087192e+01,1.499999999999999944e-01
1.336859599999999926e+00,-9.462661719999999610e-01,2.761328913317715947e-02,1.000000000000000048e-04,3.547764599044877087e+01,1.900000000000000022e-01
2.386695267999999981e+00,-1.099692616000000012e+00,2.886253757178752072e-02,1.000000000000000048e-04,3.550726957742436696e+01,1.799999999999999933e-01
1.122946417999999946e+00,-7.871106610000000448e-01,1.882802567294490637e-02,1.000000000000000048e-04,3.483227083574651317e+01,1.499999999999999944e-01
1.038511049000000019e+00,-6.836743480000000428e-01,1.510299970697146291e-02,1.000000000000000048e-04,3.401015324100729487e+01,1.499999999999999944e-01
-1.865548755179585960e+00,5.988235499999999822e-01,1.620469751661744034e-02,1.000000000000000048e-04,3.426578979354925281e+01,3.599999999999999867e-01
-1.208774007179585830e+00,1.086301519000000049e+00,3.684220842337688345e-02,1.000000000000000048e-04,3.617334769604586597e+01,3.900000000000000133e-01
-1.451351928179586359e+00,1.047303024999999943e+00,2.658247283902405445e-02,1.000000000000000048e-04,3.563036095351705512e+01,3.900000000000000133e-01
-1.863787002179586594e+00,5.986409590000000280e-01,4.113676982634707768e-02,1.000000000000000048e-04,3.633427141075618039e+01,3.099999999999999978e-01
-2.367107747179586053e+00,3.570653329999999848e-01,2.946840339952912918e-02,1.000000000000000048e-04,3.546234870963208863e+01,3.300000000000000155e-01
-1.756700719179586478e+00,1.186865959999999998e+00,1.492744994241782669e-02,1.000000000000000048e-04,3.371789238759254204e+01,4.600000000000000200e-01
3.110012692999999828e+00,-8.816387980000000013e-01,1.495943112666111435e-02,1.000000000000000048e-04,3.401208193680124481e+01,4.000000000000000222e-01
1.208427087000000011e+00,6.391205479999999550e-01,1.629130860384805229e-02,1.000000000000000048e-04,3.451931217363913618e+01,3.200000000000000067e-01
2.195568135999999893e+00,9.530612539999999688e-01,4.530918618025348010e-02,1.000000000000000048e-04,3.680028925031928111e+01,3.200000000000000067e-01
1.005319582999999906e+00,6.711075279999999532e-01,3.443156784192195896e-02,1.000000000000000048e-04,3.593901016976535345e+01,8.100000000000000533e-01
-1.746303855179585973e+00,7.561700099999999480e-01,2.713674688512734620e-02,1.000000000000000048e-04,3.531334262978356264e+01,3.599999999999999867e-01
-4.601474541795864681e-01,1.080353384999999999e+00,2.011741140498783317e-02,1.000000000000000048e-04,3.487275385812167627e+01,4.699999999999999734e-01
-1.809340496179586033e+00,8.561831709999999651e-01,3.867474650291463645e-02,1.000000000000000048e-04,3.608728387692928408e+01,5.600000000000000533e-01
-1.804726732179585902e+00,8.415213710000000180e-01,1.594282869311740292e-02,1.000000000000000048e-04,3.400046804444810533e+01,5.100000000000000089e-01
-1.920735154179586068e+00,8.789503189999999799e-01,2.958347095722958092e-02,1.000000000000000048e-04,3.577129878423287579e+01,4.500000000000000111e-01
-2.443118364179586166e+00,3.912645049999999847e-01,3.166098479159612511e-02,1.000000000000000048e-04,3.557154787492279979e+01,6.400000000000000133e-01
-2.443397905179586438e+00,3.924271049999999983e-01,1.638704810893778369e-02,1.000000000000000048e-04,3.406231468743833091e+01,4.199999999999999845e-01
-1.798694144179585841e+00,8.464773150000000079e-01,1.128065324591836019e-02,1.000000000000000048e-04,3.350447240960529882e+01,6.600000000000000311e-01
-1.799964602179586315e+00,8.443478660000000025e-01,4.445113982484510257e-02,1.000000000000000048e-04,3.652986589725923494e+01,6.099999999999999867e-01
-1.805111234179586077e+00,8.421560940000000217e-01,2.177459142123399152e-02,1.000000000000000048e-04,3.454396485104477676e+01,5.100000000000000089e-01
-2.442430271179586221e+00,3.917367079999999890e-01,2.240465612168397042e-02,1.000000000000000048e-04,3.485479886905824287e+01,9.200000000000000400e-01
-2.432135523179586034e+00,3.856870689999999935e-01,1.385013551761428430e-02,1.000000000000000048e-04,3.418829244469183948e+01,4.500000000000000111e-01
-2.443115938179586166e+00,3.817974199999999985e-01,8.526846695462454370e-03,1.000000000000000048e-04,3.339646647836902105e+01,1.010000000000000009e+00
-2.507217827179586411e+00,2.806706330000000027e-01,4.935504169549309594e-02,1.000000000000000048e-04,3.683009580951335238e+01,7.199999999999999734e-01
-2.751331907179586089e+00,-4.573921380000000037e-01,3.786875446220492464e-02,1.000000000000000048e-04,3.591935553910447965e+01,4.299999999999999933e-01
-2.751204501179586259e+00,-4.575163139999999795e-01,2.286875171456011213e-02,1.000000000000000048e-04,3.467558161590743282e+01,5.100000000000000089e-01
-2.751948792179586434e+00,-4.626465410000000222e-01,1.932721485341809195e-02,1.000000000000000048e-04,3.482526595089121457e+01,9.000000000000000222e-01
-2.714588277179586395e+00,-4.966179359999999821e-01,4.559501083714165987e-02,1.000000000000000048e-04,3.659271879862247090e+01,5.200000000000000178e-01
-4.484873401795859138e-01,1.078759022000000067e+00,1.303254517541135166e-02,1.000000000000000048e-04,3.349809591791613883e+01,4.600000000000000200e-01
1.900693019999999955e-01,8.157953839999999568e-01,5.386841983078324327e-03,1.000000000000000048e-04,3.197720222142045898e+01,5.899999999999999689e-01
-1.022766420179586078e+00,1.083744478000000067e+00,4.820406361659144989e-02,1.000000000000000048e-04,3.655163965082385147e+01,6.300000000000000044e-01
-4.695071691795860147e-01,1.083533926999999952e+00,7.369456047217338469e-03,1.000000000000000048e-04,3.262334313047145429e+01,4.400000000000000022e-01
-2.430196729179586068e+00,3.866488559999999852e-01,1.032942268546044665e-02,1.000000000000000048e-04,3.314748652022445441e+01,4.500000000000000111e-01
-1.912154461179586207e+00,8.727908680000000530e-01,1.877148682890513939e-02,1.000000000000000048e-04,3.453445140437558081e+01,4.699999999999999734e-01
-2.513608092179586251e+00,4.011275939999999762e-01,4.287994902350318605e-02,1.000000000000000048e-04,3.660004672038987650e+01,4.699999999999999734e-01
-2.755728471179586414e+00,-5.498326249999999638e-01,2.399870957569908911e-02,1.000000000000000048e-04,3.477772915037449764e+01,5.100000000000000089e-01
3.086866033999999814e+00,-8.456466849999999535e-01,4.944144106396656385e-03,1.000000000000000048e-04,3.155540520089355283e+01,5.200000000000000178e-01
2.898135272999999845e+00,-9.408617099999999622e-01,4.363850514943081599e-02,1.000000000000000048e-04,3.646338984158457919e+01,5.600000000000000533e-01
2.887933338999999933e+00,-9.438168839999999671e-01,1.771409842288674749e-02,1.000000000000000048e-04,3.453324536613803986e+01,4.799999999999999822e-01
2.256176956000000011e+00,-1.014735844999999914e+00,1.090097498217075869e-02,1.000000000000000048e-04,3.397812178106667602e+01,5.000000000000000000e-01
2.229698910000000200e+00,-1.018180813999999934e+00,4.515357479112405703e-02,1.000000000000000048e-04,3.664969332709605965e+01,6.400000000000000133e-01
2.227960753000000071e+00,-1.020489782000000067e+00,3.694743939122405608e-03,1.000000000000000048e-04,3.081452076660404771e+01,5.999999999999999778e-01
1.978102527999999971e+00,-9.529058719999999871e-01,2.087145918220822613e-02,1.000000000000000048e-04,3.454679765364748079e+01,5.200000000000000178e-01
2.842930618000000020e+00,9.211371910000000218e-01,1.654993547306238960e-02,1.000000000000000048e-04,3.439780402741621401e+01,4.899999999999999911e-01
2.611089279999999846e+00,9.227226889999999848e-01,5.791124582523937865e-03,1.000000000000000048e-04,3.178986343344206134e+01,4.899999999999999911e-01
-2.613733020179586308e+00,3.020363409999999860e-01,2.588713160725731807e-02,1.000000000000000048e-04,3.512544483796256145e+01,2.399999999999999911e-01
3.080075141000000016e+00,6.813462000000000129e-01,4.267639290439747060e-03,1.000000000000000048e-04,3.132311571750313917e+01,2.999999999999999889e-01
-2.614795632179586438e+00,3.100862600000000024e-01,1.837377056323933125e-02,1.000000000000000048e-04,3.405779695021027464e+01,7.099999999999999645e-01
3.084152930000000126e+00,6.750201959999999612e-01,3.040227002097448117e-02,1.000000000000000048e-04,3.553203238113157170e+01,2.399999999999999911e-01
-2.831540824179586302e+00,-5.193198470000000011e-01,3.285483764848078081e-02,1.000000000000000048e-04,3.576139513983770257e+01,2.899999999999999800e-01
2.921667255000000019e+00,-9.403574120000000036e-01,1.535539494114217252e-02,1.000000000000000048e-04,3.436513073749866720e+01,2.899999999999999800e-01
2.914679634000000075e+00,-9.413881210000000221e-01,3.155614948109983914e-02,1.000000000000000048e-04,3.608449414787009601e+01,7.299999999999999822e-01
2.905880500999999949e+00,-9.458600109999999450e-01,3.652549205216845674e-02,1.000000000000000048e-04,3.609335118311544477e+01,4.299999999999999933e-01
2.610543199999999953e+00,9.294079060000000059e-01,3.231069833046872758e-02,1.000000000000000048e-04,3.592432980404215215e+01,2.899999999999999800e-01
2.614058957000000127e+00,9.310355519999999885e-01,4.192278012751777388e-02,1.000000000000000048e-04,3.634676011304226506e+01,3.699999999999999956e-01
-2.614313936179586406e+00,3.105085300000000048e-01,4.584160655822305114e-02,1.000000000000000048e-04,3.666459953963044427e+01,2.300000000000000100e-01
-2.614275993179586255e+00,3.084493819999999942e-01,1.546667307437375044e-02,1.000000000000000048e-04,3.399031273919664642e+01,2.000000000000000111e-01
3.080236718000000096e+00,6.852664600000000217e-01,4.339202344971655051e-02,1.000000000000000048e-04,3.612198757891663803e+01,3.800000000000000044e-01
3.085135451000000195e+00,6.840520260000000352e-01,3.871697832077715395e-02,1.000000000000000048e-04,3.626166647113072372e+01,2.300000000000000100e-01
-2.608333968179586293e+00,3.075313129999999728e-01,2.208577841953021301e-02,1.000000000000000048e-04,3.434186980007590506e+01,5.799999999999999600e-01
-2.828421734179586089e+00,-5.202039349999999507e-01,3.777297132244995803e-02,1.000000000000000048e-04,3.645449016574210788e+01,5.200000000000000178e-01
-2.829361723179586452e+00,-5.190188390000000096e-01,2.193309338920545679e-02,1.000000000000000048e-04,3.480402602238297050e+01,3.900000000000000133e-01
-2.833706243179586082e+00,-5.260186759999999628e-01,7.714060866184227656e-03,1.000000000000000048e-04,3.265488952850643756e+01,2.200000000000000011e-01
1.286414458000000094e+00,-9.076167339999999806e-01,2.669760815960838321e-02,1.000000000000000048e-04,3.548873984279558869e+01,2.399999999999999911e-01
2.295144749999999956e+00,-1.095028292000000070e+00,2.043805790155925339e-02,1.000000000000000048e-04,3.462064050901732770e+01,2.000000000000000111e-01
2.312115046000000174e+00,-1.091482969000000081e+00,4.143862242282621983e-02,1.000000000000000048e-04,3.617196251658612738e+01,1.900000000000000022e-01
2.535381049000000164e+00,-1.063602453999999975e+00,4.327705700982206749e-02,1.000000000000000048e-04,3.627373465885991521e+01,2.600000000000000089e-01
2.549902755000000187e+00,-1.059649137999999935e+00,1.460710444537898639e-02,1.000000000000000048e-04,3.416057576615045122e+01,1.900000000000000022e-01
-2.980466121795863899e-01,1.081935794000000062e+00,4.709668914904823096e-03,1.000000000000000048e-04,3.184563567949177454e+01,1.000000000000000056e-01
-4.562223411795862660e-01,1.078420874000000085e+00,4.849140931731614479e-02,1.000000000000000048e-04,3.667128832621089884e+01,1.400000000000000133e-01
-4.727696341795866175e-01,1.076427226000000070e+00,4.899110043382268187e-03,1.000000000000000048e-04,3.151558940076406401e+01,1.900000000000000022e-01
-4.909850281795860028e-01,1.086050390999999893e+00,1.715606326230129097e-02,1.000000000000000048e-04,3.444367337231494020e+01,1.499999999999999944e-01
-1.809890014179586615e+00,8.554848849999999727e-01,3.704336958812466662e-02,1.000000000000000048e-04,3.619836985336380764e+01,1.900000000000000022e-01
-1.804843805179586091e+00,8.509932909999999850e-01,3.375866760375369896e-02,1.000000000000000048e-04,3.561035121796809477e+01,1.700000000000000122e-01
-1.798315402179586187e+00,8.389159160000000393e-01,4.633417329054905637e-02,1.000000000000000048e-04,3.659213871516838168e+01,1.100000000000000006e-01
-1.820018681179586650e+00,8.404092629999999620e-01,3.692450733886929598e-02,1.000000000000000048e-04,3.648848687778071564e+01,2.000000000000000111e-01
-2.435936564179586039e+00,3.767214549999999829e-01,2.514893723553495927e-02,1.000000000000000048e-04,3.559498120124868592e+01,1.700000000000000122e-01
-2.738532057179586143e+00,-4.670391260000000266e-01,1.858895910413822100e-02,1.000000000000000048e-04,3.406922203836401053e+01,1.100000000000000006e-01
-2.750126147179586145e+00,-4.750163370000000107e-01,3.008393267830286946e-02,1.000000000000000048e-04,3.566968433061244070e+01,1.700000000000000122e-01
6.777063359999999648e-01,-9.284162910000000046e-01,4.772914503410010528e-02,1.000000000000000048e-04,3.677192908268130367e+01,1.600000000000000033e-01
6.755664329999999662e-01,-9.242990760000000527e-01,3.918697740520631079e-02,1.000000000000000048e-04,3.604248036562007229e+01,2.200000000000000011e-01
1.666277256000000095e+00,1.035703752000000089e+00,1.147302912341408715e-02,1.000000000000000048e-04,3.415085475311676078e+01,2.800000000000000266e-01
1.679531192000000006e+00,1.034147155999999956e+00,1.626840646328179749e-02,1.000000000000000048e-04,3.398557487295121149e+01,2.099999999999999922e-01
1.669961188000000041e+00,1.045784459000000055e+00,4.930589017040337002e-03,1.000000000000000048e-04,3.161281345911397267e+01,2.899999999999999800e-01
1.666612017000000057e+00,1.035903760999999923e+00,4.626489283091788848e-03,1.000000000000000048e-04,3.166942915257726909e+01,1.400000000000000133e-01
1.676630470000000095e+00,1.049302589999999924e+00,2.087530531072713871e-02,1.000000000000000048e-04,3.471014880498159272e+01,1.600000000000000033e-01
1.678871634000000057e+00,1.037439988999999896e+00,4.152329752474018948e-02,1.000000000000000048e-04,3.612872815170319996e+01,2.099999999999999922e-01
-2.159653925179585876e+00,7.341517600000000421e-01,1.446329761880200612e-02,1.000000000000000048e-04,3.397467712276996110e+01,2.600000000000000089e-01
-2.155609593179586447e+00,7.327229189999999726e-01,1.101821641199945273e-02,1.000000000000000048e-04,3.331867485796481532e+01,1.400000000000000133e-01
2.989279821999999864e+00,-1.014333855000000062e+00,4.791927838319542769e-03,1.000000000000000048e-04,3.125958268391020312e+01,1.600000000000000033e-01
6.962963009999999509e-01,-9.242906640000000396e-01,3.258346776876203110e-02,1.000000000000000048e-04,3.570512085533782454e+01,2.000000000000000111e-01
6.831622830000000368e-01,-9.295060950000000322e-01,9.569080201042591202e-03,1.000000000000000048e-04,3.295950591021065179e+01,2.099999999999999922e-01
6.813526220000000189e-01,-9.196739680000000083e-01,4.516511918244691531e-02,1.000000000000000048e-04,3.645991701498944337e+01,1.700000000000000122e-01
1.667475545999999920e+00,1.039138789999999979e+00,9.969403302770952352e-03,1.000000000000000048e-04,3.327594951556005753e+01,1.499999999999999944e-01
1.669072946000000002e+00,1.039627206000000026e+00,4.488733089053040942e-02,1.000000000000000048e-04,3.686710522199413731e+01,1.700000000000000122e-01
2.992464221000000091e+00,-1.009427984000000000e+00,3.898379236644792384e-02,1.000000000000000048e-04,3.605577456973599482e+01,1.400000000000000133e-01
3.013377762000000182e+00,-1.015725085999999999e+00,4.744857403277259744e-02,1.000000000000000048e-04,3.663768566731806686e+01,1.499999999999999944e-01
6.857830799999999893e-01,-9.290922369999999875e-01,1.604428491665225304e-02,1.000000000000000048e-04,3.426688528420979196e+01,3.400000000000000244e-01
6.874880420000000214e-01,-9.251381180000000093e-01,4.950952951976884953e-02,1.000000000000000048e-04,3.683554579615366009e+01,1.700000000000000122e-01
1.659686511000000086e+00,1.040101345999999927e+00,1.282407808663117016e-02,1.000000000000000048e-04,3.373907270248716372e+01,1.400000000000000133e-01
1.673757463999999917e+00,1.042554473000000037e+00,8.527659009369505105e-03,1.000000000000000048e-04,3.285579139412708827e+01,4.299999999999999933e-01
1.692629780999999944e+00,1.043637506000000048e+00,3.696809987756628085e-02,1.000000000000000048e-04,3.618608446359039732e+01,1.799999999999999933e-01
1.682450028999999958e+00,1.049226146999999942e+00,9.541112199330226834e-03,1.000000000000000048e-04,3.314612286243126249e+01,1.900000000000000022e-01
1.675255906999999933e+00,1.048468626000000015e+00,6.352701178853293815e-03,1.000000000000000048e-04,3.208014343632123655e+01,1.499999999999999944e-01
1.692145135000000078e+00,1.039981480000000014e+00,2.790505863279794940e-02,1.000000000000000048e-04,3.589723115322523483e+01,1.700000000000000122e-01
-2.139768073179586061e+00,7.360294179999999908e-01,3.651821472694013332e-02,1.000000000000000048e-04,3.620946312012982560e+01,1.600000000000000033e-01
-2.138731675179585956e+00,7.369836659999999817e-01,3.196182318718703702e-02,1.000000000000000048e-04,3.578063505408116640e+01,1.499999999999999944e-01
6.888283630000000546e-01,-9.193630990000000169e-01,7.386126268996111646e-03,1.000000000000000048e-04,3.239518378050193093e+01,1.700000000000000122e-01
6.776433490000000059e-01,-9.225326109999999469e-01,3.231757038328173653e-02,1.000000000000000048e-04,3.631411120885277910e+01,1.600000000000000033e-01
6.820513620000000499e-01,-9.162569579999999547e-01,2.057369927001901494e-02,1.000000000000000048e-04,3.455399241969513469e+01,2.899999999999999800e-01
6.832637360000000104e-01,-9.208365670000000502e-01,4.023361600752994177e-02,1.000000000000000048e-04,3.593564873935520154e+01,1.400000000000000133e-01
1.683256381999999940e+00,1.050427892999999946e+00,1.668538074328324711e-02,1.000000000000000048e-04,3.420836514128361472e+01,1.499999999999999944e-01
2.987248335999999949e+00,-1.011507587000000097e+00,3.557981566798015804e-02,1.000000000000000048e-04,3.641283959773603129e+01,1.900000000000000022e-01
2.994879214000000012e+00,-1.020537374999999969e+00,4.868212980658858519e-02,1.000000000000000048e-04,3.680756556523096634e+01,2.500000000000000000e-01
2.997056848999999801e+00,-1.020797841000000039e+00,4.736592886977564199e-02,1.000000000000000048e-04,3.645921824597988348e+01,1.499999999999999944e-01
6.981827720000000070e-01,-9.201470600000000166e-01,4.718471100099023291e-02,1.000000000000000048e-04,3.682800073768765969e+01,2.099999999999999922e-01
1.675679171999999939e+00,1.042232051000000048e+00,2.253683061594741882e-02,1.000000000000000048e-04,3.512409272519556680e+01,1.900000000000000022e-01
1.682732345000000018e+00,1.051774148000000020e+00,4.946684463457201586e-02,1.000000000000000048e-04,3.626185276647747457e+01,2.099999999999999922e-01
1.655763980999999996e+00,1.041789395999999979e+00,2.172196443900433274e-02,1.000000000000000048e-04,3.476176321809101921e+01,2.099999999999999922e-01
1.658505131999999938e+00,1.042043577999999915e+00,2.645669017066229825e-02,1.000000000000000048e-04,3.546975159024086821e+01,1.499999999999999944e-01
1.679931540999999973e+00,1.044700675999999939e+00,4.195176382628097028e-02,1.000000000000000048e-04,3.576690771524334167e+01,1.400000000000000133e-01
1.681131209999999987e+00,1.046558263000000100e+00,1.477406620443101268e-02,1.000000000000000048e-04,3.389789706164979322e+01,3.800000000000000044e-01
-2.147380102179586636e+00,7.248191320000000326e-01,2.311356972061161599e-02,1.000000000000000048e-04,3.469844618941992564e+01,2.200000000000000011e-01
-2.137481690179586558e+00,7.386978770000000027e-01,6.001746585153630922e-03,1.000000000000000048e-04,3.267627757351377227e+01,1.499999999999999944e-01
3.007533192999999994e+00,-1.006434849999999992e+00,4.457143729120986025e-02,1.000000000000000048e-04,3.670686470169668070e+01,1.700000000000000122e-01
6.766177190000000063e-01,-9.309161569999999664e-01,1.801856689743724579e-02,1.000000000000000048e-04,3.435577038453679677e+01,1.700000000000000122e-01
6.879719020000000240e-01,-9.170357009999999809e-01,1.612313837431693375e-02,1.000000000000000048e-04,3.406182546603174188e+01,2.600000000000000089e-01
6.868192690000000100e-01,-9.190749710000000183e-01,4.634431135378392144e-03,1.000000000000000048e-04,3.144877033043189840e+01,2.800000000000000266e-01
1.680927606000000019e+00,1.043199457999999913e+00,1.109246462674727887e-02,1.000000000000000048e-04,3.386566734949518320e+01,1.799999999999999933e-01
1.680733408999999901e+00,1.046110547000000057e+00,4.729333877459934721e-02,1.000000000000000048e-04,3.635148957219605848e+01,1.499999999999999944e-01
3.003205794999999956e+00,-1.007960921000000010e+00,1.710890310047326682e-02,1.000000000000000048e-04,3.482926340202352122e+01,2.200000000000000011e-01
3.013387552999999830e+00,-1.018013843000000085e+00,3.489399512756626021e-02,1.000000000000000048e-04,3.586092119794734856e+01,2.000000000000000111e-01
2.991633154000000072e+00,-1.018575491000000000e+00,4.306897592402449820e-02,1.000000000000000048e-04,3.645782040520884237e+01,1.600000000000000033e-01
6.810583510000000063e-01,-9.216344210000000370e-01,2.720299735845383912e-02,1.000000000000000048e-04,3.562204635827473709e+01,1.600000000000000033e-01
1.670069762000000013e+00,1.048284639000000018e+00,3.110596715220033739e-02,1.000000000000000048e-04,3.600677205604897324e+01,2.099999999999999922e-01
1.699713636000000028e+00,1.040243690999999915e+00,1.738399899547013808e-02,1.000000000000000048e-04,3.409845549217214256e+01,2.899999999999999800e-01
1.686195045999999920e+00,1.048540513999999924e+00,4.470505520428772611e-02,1.000000000000000048e-04,3.677285025093061677e+01,1.400000000000000133e-01
1.667162669999999958e+00,1.044746053999999980e+00,4.088482245729383596e-02,1.000000000000000048e-04,3.600700292784593870e+01,2.700000000000000178e-01
1.689467040999999892e+00,1.036330184999999959e+00,5.433248667688841613e-03,1.000000000000000048e-04,3.180585327135393214e+01,1.300000000000000044e-01
1.683799076999999977e+00,1.043385784000000038e+00,2.883428608841301366e-02,1.000000000000000048e-04,3.587172026254248891e+01,1.700000000000000122e-01
-2.151455832179586025e+00,7.398983139999999459e-01,3.689884214029405356e-03,1.000000000000000048e-04,3.091011279379054599e+01,2.500000000000000000e-01
-2.141944958179585967e+00,7.302793560000000461e-01,1.522826988567804393e-02,1.000000000000000048e-04,3.419910676071594224e+01,1.400000000000000133e-01
3.012489310999999947e+00,-1.019874449000000016e+00,3.701280564862111881e-03,1.000000000000000048e-04,3.117894705572552283e+01,1.900000000000000022e-01
6.824463880000000149e-01,-9.193269539999999740e-01,3.446719284266584228e-03,1.000000000000000048e-04,3.110801301467279956e+01,1.600000000000000033e-01
6.933168330000000212e-01,-9.307474239999999899e-01,9.674337277669014384e-03,1.000000000000000048e-04,3.279040625880069371e+01,1.600000000000000033e-01
7.005346909999999871e-01,-9.247541049999999929e-01,3.420789489925715743e-02,1.000000000000000048e-04,3.618015359640329365e+01,2.700000000000000178e-01
1.674988617999999985e+00,1.042237757999999959e+00,1.253250245322837242e-02,1.000000000000000048e-04,3.343741133942823041e+01,1.499999999999999944e-01
1.672026148000000045e+00,1.039374368000000048e+00,3.970787226822933280e-02,1.000000000000000048e-04,3.643224783372851761e+01,1.600000000000000033e-01
2.993618983999999816e+00,-1.008517228000000099e+00,1.410951379887001242e-02,1.000000000000000048e-04,3.424073752259572956e+01,1.700000000000000122e-01
2.992837709999999873e+00,-1.014889098000000045e+00,3.639781539394635473e-02,1.000000000000000048e-04,3.655828710030557716e+01,2.800000000000000266e-01
2.980621672999999916e+00,-1.012535224000000067e+00,3.700721706127121230e-02,1.000000000000000048e-04,3.593890174606119103e+01,1.499999999999999944e-01
3.118379398000000080e+00,-1.044341935000000055e+00,3.341176573696152952e-02,1.000000000000000048e-04,3.575057773410304662e+01,3.099999999999999978e-01
3.132904315000000217e+00,-1.046896950999999909e+00,2.365108894863375902e-02,1.000000000000000048e-04,3.527157159506393214e+01,2.200000000000000011e-01
1.248659997999999938e+00,-1.117162079000000086e+00,3.451789787047766095e-02,1.000000000000000048e-04,3.615151333879570217e+01,2.700000000000000178e-01
2.302446713000000145e+00,-1.091359299000000060e+00,4.066256419784637643e-02,1.000000000000000048e-04,3.705602028041708706e+01,2.899999999999999800e-01
3.133486173000000097e+00,-1.061461677999999909e+00,3.904474434523309140e-02,1.000000000000000048e-04,3.635666068358899849e+01,3.099999999999999978e-01
1.251013366000000016e+00,-1.102704651999999896e+00,2.023217518393010533e-02,1.000000000000000048e-04,3.455697622932460433e+01,2.300000000000000100e-01
1.232341668999999973e+00,-1.105349812000000043e+00,3.080463769826605885e-02,1.000000000000000048e-04,3.554886437524687892e+01,2.200000000000000011e-01
2.330538756999999794e+00,-1.086213730999999960e+00,3.757711329689332469e-02,1.000000000000000048e-04,3.641365559083627801e+01,2.300000000000000100e-01
3.104372880000000112e+00,-1.050765708999999992e+00,2.946042774550241758e-02,1.000000000000000048e-04,3.556012539584595800e+01,2.200000000000000011e-01
3.122794933000000217e+00,-1.050942575000000101e+00,1.519343507483734285e-02,1.000000000000000048e-04,3.413782526633556103e+01,2.099999999999999922e-01
3.135928428000000157e+00,-1.044986675000000087e+00,6.019007360771874877e-03,1.000000000000000048e-04,3.215287664080762653e+01,2.300000000000000100e-01
3.135701593999999925e+00,-1.049448040999999998e+00,2.792243628689445797e-02,1.000000000000000048e-04,3.523746642494149484e+01,2.399999999999999911e-01
2.902190216000000156e+00,-1.054666754000000095e+00,4.280612329298508212e-02,1.000000000000000048e-04,3.648711369228821155e+01,2.099999999999999922e-01
1.219278212000000083e+00,-1.102494101000000004e+00,2.844826769704450822e-02,1.000000000000000048e-04,3.535252931924867426e+01,2.399999999999999911e-01
2.314258420999999899e+00,-1.073777474999999981e+00,4.706101280414547172e-02,1.000000000000000048e-04,3.641761944954795638e+01,2.399999999999999911e-01
3.138600745000000192e+00,-1.056209613999999908e+00,2.852073900323470745e-02,1.000000000000000048e-04,3.515586505923785410e+01,2.800000000000000266e-01
2.873014373000000177e+00,-1.047336534999999902e+00,2.364939755003529070e-02,1.000000000000000048e-04,3.497784737776878217e+01,2.000000000000000111e-01
2.890150627000000139e+00,-1.045368942999999939e+00,4.708645327733631397e-02,1.000000000000000048e-04,3.678679499974509781e+01,2.200000000000000011e-01
-3.136513490179586139e+00,-1.038988312000000080e+00,8.433675463585497967e-03,1.000000000000000048e-04,3.257256049481768656e+01,2.800000000000000266e-01
3.120369102000000172e+00,-1.042910143999999928e+00,1.386764105930497759e-02,1.000000000000000048e-04,3.399850083715993065e+01,2.399999999999999911e-01
3.132773262000000170e+00,-1.048570620000000009e+00,4.007748012269578275e-02,1.000000000000000048e-04,3.622479382225684930e+01,2.300000000000000100e-01
3.132934141999999866e+00,-1.046888051000000042e+00,4.996260662675008901e-02,1.000000000000000048e-04,3.646807020498614804e+01,2.200000000000000011e-01
3.134455274000000014e+00,-1.046257098000000108e+00,1.776132901621462964e-02,1.000000000000000048e-04,3.440763926888148916e+01,2.200000000000000011e-01
2.910504301000000016e+00,-1.063930792999999930e+00,2.651274518214111892e-02,1.000000000000000048e-04,3.540278920043029842e+01,2.399999999999999911e-01
2.301930878999999930e+00,-1.084305269999999988e+00,4.456069224074208496e-02,1.000000000000000048e-04,3.656291730596753808e+01,3.099999999999999978e-01
2.314913878000000036e+00,-1.104421796000000011e+00,9.319340920008002682e-03,1.000000000000000048e-04,3.298645291174497629e+01,2.600000000000000089e-01
1.232494258000000009e+00,-1.089556776000000005e+00,3.878675494950954011e-02,1.000000000000000048e-04,3.595067684937459518e+01,3.099999999999999978e-01
-3.138875270179586341e+00,-1.027091259999999950e+00,4.430184873150291858e-02,1.000000000000000048e-04,3.612594399578979676e+01,3.800000000000000044e-01
1.277748142000000087e+00,-1.105660628999999950e+00,2.381363445065690088e-02,1.000000000000000048e-04,3.538463596996058413e+01,2.500000000000000000e-01
2.339694710999999927e+00,-1.083680948999999893e+00,1.240068574011044672e-02,1.000000000000000048e-04,3.369743735876193114e+01,2.300000000000000100e-01
3.085408954000000037e+00,-1.045989441999999991e+00,4.256629935152071720e-02,1.000000000000000048e-04,3.641165790065338825e+01,2.800000000000000266e-01
3.122183823999999941e+00,-1.053540683000000033e+00,2.038206341078087000e-02,1.000000000000000048e-04,3.459048938954335028e+01,3.699999999999999956e-01
1.263417701000000060e+00,-1.099941301000000093e+00,4.170620541658939112e-02,1.000000000000000048e-04,3.595016416973896156e+01,2.200000000000000011e-01
1.238769020999999970e+00,-1.122513239999999968e+00,2.458998019388372591e-02,1.000000000000000048e-04,3.515303851986702455e+01,2.600000000000000089e-01
1.225778744000000087e+00,-1.107856694000000086e+00,2.922023439025439248e-02,1.000000000000000048e-04,3.546786220602177764e+01,2.500000000000000000e-01
2.356185176999999964e+00,-1.090954028000000076e+00,3.163262232402164892e-02,1.000000000000000048e-04,3.594584474829531473e+01,2.700000000000000178e-01
1.231078855000000027e+00,-1.109460918999999990e+00,1.361993816397081419e-02,1.000000000000000048e-04,3.408273031313692769e+01,2.300000000000000100e-01
2.350025410999999842e+00,-1.078254897999999962e+00,3.596638399321652746e-02,1.000000000000000048e-04,3.605330385554707107e+01,2.300000000000000100e-01
2.889344674999999807e+00,-1.054064458000000037e+00,3.123207737819985730e-02,1.000000000000000048e-04,3.557152118691143983e+01,3.200000000000000067e-01
1.260972444000000081e+00,-1.102168519999999985e+00,1.117626930221026979e-02,1.000000000000000048e-04,3.322626283138810521e+01,2.899999999999999800e-01
3.138597202000000141e+00,-1.049455424000000026e+00,4.368626289723238215e-02,1.000000000000000048e-04,3.622984747190417210e+01,2.600000000000000089e-01
1.280173519000000093e+00,-1.106045986000000036e+00,7.725181559517253077e-03,1.000000000000000048e-04,3.234540974813796055e+01,2.899999999999999800e-01
3.140421104000000074e+00,-1.048273016000000002e+00,2.912492435379813310e-02,1.000000000000000048e-04,3.603131144565060850e+01,2.700000000000000178e-01
2.887571490000000018e+00,-1.060290981000000077e+00,1.941360852444260279e-02,1.000000000000000048e-04,3.475604306071694793e+01,2.300000000000000100e-01
3.117377486000000086e+00,-1.048849812999999909e+00,4.897354065914600457e-02,1.000000000000000048e-04,3.701581450006388962e+01,2.800000000000000266e-01
3.139331405000000075e+00,-1.045946368000000071e+00,3.254641533045403434e-02,1.000000000000000048e-04,3.565941692080997427e+01,2.300000000000000100e-01
2.901812189000000153e+00,-1.070407117000000019e+00,1.835703872218583457e-02,1.000000000000000048e-04,3.440474264641262181e+01,2.200000000000000011e-01
2.874698792999999863e+00,-1.069280417999999955e+00,1.103916672539599977e-02,1.000000000000000048e-04,3.313189540423305601e+01,2.200000000000000011e-01
3.126790450000000110e+00,-1.053686536000000062e+00,4.682146468160253844e-02,1.000000000000000048e-04,3.652892225713439700e+01,2.099999999999999922e-01
1.253234667999999941e+00,-1.096167120000000050e+00,1.565352288503444808e-02,1.000000000000000048e-04,3.396954758082159032e+01,2.200000000000000011e-01
1.242189800000000011e+00,-1.095888138000000067e+00,5.250862279958823722e-03,1.000000000000000048e-04,3.199964640637981361e+01,2.899999999999999800e-01
2.358704259000000025e+00,-1.096119858000000002e+00,9.253575592140104306e-03,1.000000000000000048e-04,3.299183175023535597e+01,2.099999999999999922e-01
3.090657074000000115e+00,-1.046905049999999893e+00,2.560095092779877957e-02,1.000000000000000048e-04,3.535931169944749541e+01,2.300000000000000100e-01
2.350320292999999783e+00,-1.077642637000000070e+00,4.902004923237647527e-02,1.000000000000000048e-04,3.668773310566327694e+01,3.300000000000000155e-01
3.120911620999999858e+00,-1.047605429999999949e+00,2.931520244776913281e-02,1.000000000000000048e-04,3.519174224705798082e+01,2.899999999999999800e-01
2.310418793000000193e+00,-1.091478047999999923e+00,6.197535377275267127e-03,1.000000000000000048e-04,3.195561572863756084e+01,3.300000000000000155e-01
2.888242410000000149e+00,-1.055260810999999910e+00,9.565763316670673755e-03,1.000000000000000048e-04,3.299167608123499207e+01,2.999999999999999889e-01
2.313880778000000138e+00,-1.089056457000000089e+00,4.647796107790084369e-02,1.000000000000000048e-04,3.636909948210495003e+01,2.600000000000000089e-01
3.096505394999999883e+00,-1.050897790999999915e+00,1.034327555745356841e-02,1.000000000000000048e-04,3.306436898030136717e+01,3.300000000000000155e-01
1.264206060000000020e+00,-1.108314516000000083e+00,4.900407799345826709e-02,1.000000000000000048e-04,3.645056564902046148e+01,2.500000000000000000e-01
2.317080779999999951e+00,-1.080569537999999996e+00,4.295663975131922170e-03,1.000000000000000048e-04,3.153320943795122488e+01,2.399999999999999911e-01
2.308161032000000112e+00,-1.080284865999999955e+00,4.074011114270961048e-02,1.000000000000000048e-04,3.659706568767758483e+01,3.900000000000000133e-01
1.213089824000000094e+00,-1.095999417000000031e+00,2.592465484314442070e-02,1.000000000000000048e-04,3.538284118423912616e+01,2.700000000000000178e-01
3.095344697999999894e+00,-1.044259242999999948e+00,1.968595857419812648e-02,1.000000000000000048e-04,3.489829744340208606e+01,2.200000000000000011e-01
3.093500166000000107e+00,-1.047656949999999920e+00,1.589409783131940507e-02,1.000000000000000048e-04,3.389137107585671771e+01,2.300000000000000100e-01
2.871266652000000086e+00,-1.064917746999999970e+00,4.577964666879034972e-03,1.000000000000000048e-04,3.143479911571735386e+01,2.500000000000000000e-01
2.872879009000000039e+00,-1.076645507999999918e+00,2.632063586823753937e-02,1.000000000000000048e-04,3.544147129051617640e+01,2.099999999999999922e-01
1.241294699000000001e+00,-1.109043570000000090e+00,3.998411675777531482e-02,1.000000000000000048e-04,3.603513984021161320e+01,2.099999999999999922e-01
1.238788393000000099e+00,-1.083197141000000085e+00,5.390567630963131324e-03,1.000000000000000048e-04,3.191698651525067021e+01,2.999999999999999889e-01
-3.140928712179586135e+00,-1.049943351000000025e+00,4.413098420524399351e-02,1.000000000000000048e-04,3.616775575456293268e+01,2.200000000000000011e-01
2.897074545000000168e+00,-1.050668165000000043e+00,8.573823929602850807e-03,1.000000000000000048e-04,3.297012860080121754e+01,2.099999999999999922e-01
3.133488720999999977e+00,-1.053899826000000095e+00,1.655472442459616708e-02,1.000000000000000048e-04,3.385260270184924991e+01,2.300000000000000100e-01
2.854965548000000020e+00,-1.051119023000000041e+00,1.511460241592509426e-02,1.000000000000000048e-04,3.423227640360472179e+01,3.200000000000000067e-01
2.846666281000000076e+00,-1.061494909000000098e+00,3.505933047548997344e-02,1.000000000000000048e-04,3.540912131982796041e+01,2.600000000000000089e-01
1.477625364000000108e+00,-9.892628350000000070e-01,5.549551617025473907e-03,1.000000000000000048e-04,3.228274217128904411e+01,2.000000000000000111e-01
-2.998301261179586064e+00,-5.567642400000000213e-01,2.946019780849795308e-02,1.000000000000000048e-04,3.524018870111373047e+01,1.799999999999999933e-01
2.915910107000000195e+00,-9.248875840000000403e-01,4.621675914368294363e-02,1.000000000000000048e-04,3.648923524370248828e+01,2.999999999999999889e-01
2.904218159000000021e+00,-9.279150130000000107e-01,3.701866075080770951e-02,1.000000000000000048e-04,3.674135885684306402e+01,2.399999999999999911e-01
2.912492748000000020e+00,-9.378063049999999512e-01,4.909700098514997030e-02,1.000000000000000048e-04,3.659961918057357622e+01,4.600000000000000200e-01
2.945746643000000109e+00,-9.241091030000000428e-01,6.619839299310008827e-03,1.000000000000000048e-04,3.217766116357218920e+01,2.300000000000000100e-01
2.195221751000000054e+00,9.567984520000000215e-01,3.953180002686619565e-02,1.000000000000000048e-04,3.563591624667033386e+01,2.200000000000000011e-01
-2.382074272179586227e+00,-9.504311730000000180e-01,4.070138166304917288e-02,1.000000000000000048e-04,3.615991451609423990e+01,2.300000000000000100e-01
2.197803225999999999e+00,9.560313849999999558e-01,3.244781504078721873e-02,1.000000000000000048e-04,3.570996710599597179e+01,2.300000000000000100e-01
-2.380846050179586282e+00,-9.512843520000000552e-01,4.540993095614172248e-02,1.000000000000000048e-04,3.661844501830178444e+01,2.600000000000000089e-01
-2.382960995179586039e+00,-9.501026420000000527e-01,3.800882091265755242e-02,1.000000000000000048e-04,3.636177250172280395e+01,2.099999999999999922e-01
2.192165822000000208e+00,9.554729659999999791e-01,2.698640350111466968e-02,1.000000000000000048e-04,3.585830894376945110e+01,2.899999999999999800e-01
-2.383512939179586176e+00,-9.505219620000000535e-01,1.088115849141236408e-02,1.000000000000000048e-04,3.338724831591697750e+01,2.000000000000000111e-01
2.197044292000000176e+00,9.582492320000000063e-01,1.392766330626734814e-02,1.000000000000000048e-04,3.414830706685549444e+01,2.500000000000000000e-01
2.198013217999999824e+00,9.570721989999999568e-01,4.285976346320178459e-02,1.000000000000000048e-04,3.624496233953435365e+01,2.099999999999999922e-01
2.198391541999999976e+00,9.561199929999999458e-01,1.880157857121058859e-02,1.000000000000000048e-04,3.449797053499103328e+01,2.300000000000000100e-01
2.199218732999999926e+00,9.570277640000000030e-01,2.781638407489148146e-02,1.000000000000000048e-04,3.510489328547630095e+01,2.200000000000000011e-01
2.196667974999999995e+00,9.569524729999999701e-01,3.337504503962999969e-02,1.000000000000000048e-04,3.550537745951781687e+01,2.399999999999999911e-01
2.196400267000000017e+00,9.571105250000000453e-01,3.995991591400383652e-02,1.000000000000000048e-04,3.629247521944130028e+01,2.500000000000000000e-01
2.195980999000000100e+00,9.563170869999999546e-01,1.218371274759849285e-02,1.000000000000000048e-04,3.386321143284101964e+01,2.200000000000000011e-01
2.198886345000000020e+00,9.574225640000000315e-01,1.761805050585351501e-02,1.000000000000000048e-04,3.443998801101631813e+01,3.300000000000000155e-01
-2.382942164179586264e+00,-9.487821469999999646e-01,2.032438203689210590e-02,1.000000000000000048e-04,3.513482658637672529e+01,2.000000000000000111e-01
2.197058621000000045e+00,9.568337070000000333e-01,1.171926587573245138e-02,1.000000000000000048e-04,3.316703332918324776e+01,2.600000000000000089e-01
2.196754174000000059e+00,9.569828230000000380e-01,5.317918095063305789e-03,1.000000000000000048e-04,3.195010204760147943e+01,2.399999999999999911e-01
-2.381905888179586039e+00,-9.494029419999999719e-01,4.109426767498795124e-02,1.000000000000000048e-04,3.612824843963920074e+01,2.399999999999999911e-01
-2.382353656179586388e+00,-9.501919130000000546e-01,3.444221332260883478e-02,1.000000000000000048e-04,3.601733165238804446e+01,2.600000000000000089e-01
-2.385313647179586383e+00,-9.492824659999999914e-01,1.959810960542945901e-02,1.000000000000000048e-04,3.437059111267694789e+01,2.399999999999999911e-01
-2.383308463179586223e+00,-9.502672559999999491e-01,2.840260415286636336e-02,1.000000000000000048e-04,3.547932910624076897e+01,2.000000000000000111e-01
2.194446376000000143e+00,9.548028840000000184e-01,2.463084801700247267e-02,1.000000000000000048e-04,3.511428848504385769e+01,3.699999999999999956e-01
-2.377678389179586294e+00,-9.493284189999999789e-01,1.993273142586301366e-02,1.000000000000000048e-04,3.502206750660718626e+01,3.099999999999999978e-01
2.195048706000000127e+00,9.553664520000000326e-01,9.109293419936558694e-03,1.000000000000000048e-04,3.313439536530130880e+01,2.399999999999999911e-01
2.194988459000000169e+00,9.569281090000000267e-01,8.917478254533805007e-03,1.000000000000000048e-04,3.283225620913811582e+01,2.099999999999999922e-01
2.198773670000000013e+00,9.585742720000000050e-01,2.520019637129258458e-02,1.000000000000000048e-04,3.488871073050474081e+01,2.800000000000000266e-01
2.196007632000000154e+00,9.574002940000000406e-01,4.353883274397397918e-02,1.000000000000000048e-04,3.647852998927843515e+01,2.800000000000000266e-01
2.193610842000000005e+00,9.569156829999999614e-01,2.516722909360094226e-02,1.000000000000000048e-04,3.535640783742972104e+01,2.099999999999999922e-01
2.194846306000000080e+00,9.574700699999999509e-01,3.608790151156480303e-02,1.000000000000000048e-04,3.623448957828003358e+01,2.300000000000000100e-01
8.096471539999999800e-01,9.894972960000000262e-01,2.828636823838334008e-02,1.000000000000000048e-04,3.531979916164909383e+01,9.499999999999999556e-01
-2.901318991795864832e-01,1.086903570000000041e+00,5.261499780993349196e-03,1.000000000000000048e-04,3.172502312022265869e+01,2.000000000000000111e-01
-2.914486071795865385e-01,1.085909494999999891e+00,4.579477821020250944e-02,1.000000000000000048e-04,3.657296897017763371e+01,1.000000000000000056e-01
-2.954610881795858290e-01,1.084462065999999947e+00,3.476231945850451199e-02,1.000000000000000048e-04,3.603606108888305926e+01,1.199999999999999956e-01
-3.403197011795864313e-01,1.090760651000000081e+00,2.926004484189011212e-02,1.000000000000000048e-04,3.557840724174738511e+01,8.999999999999999667e-02
-3.429455761795860980e-01,1.087892671000000089e+00,2.171948864213090954e-02,1.000000000000000048e-04,3.496195865265300284e+01,1.400000000000000133e-01
6.896152909999999636e-01,-9.249195220000000495e-01,2.399166594733802976e-02,1.000000000000000048e-04,3.502341226069882651e+01,2.000000000000000111e-01
9.689134900000000439e-01,1.175295868000000077e+00,3.924901532669036741e-02,1.000000000000000048e-04,3.583237815551921557e+01,4.500000000000000111e-01
1.024453132999999960e+00,1.182715689999999986e+00,1.325168146076496217e-02,1.000000000000000048e-04,3.389305874264609741e+01,1.900000000000000022e-01
1.006083177000000051e+00,1.165244638999999971e+00,4.027283394894197455e-02,1.000000000000000048e-04,3.614396787502477792e+01,1.700000000000000122e-01
9.905969959999999519e-01,1.153001898999999941e+00,1.795773758375083379e-02,1.000000000000000048e-04,3.427167804148221109e+01,3.499999999999999778e-01
2.950210608999999984e+00,-1.015290931000000008e+00,2.381609745226804381e-02,1.000000000000000048e-04,3.486572937794199589e+01,5.000000000000000000e-01
2.950804928999999799e+00,-1.010655210999999998e+00,3.479487885787419660e-02,1.000000000000000048e-04,3.566581792076280522e+01,1.700000000000000122e-01
2.951637304000000128e+00,-1.010683065999999908e+00,4.476710508605381833e-02,1.000000000000000048e-04,3.602814547463736972e+01,1.900000000000000022e-01
-2.349248843179586377e+00,-9.322901449999999590e-01,9.897371736877873249e-03,1.000000000000000048e-04,3.306558698992326129e+01,1.900000000000000022e-01
