-1.598279621179586663e+00,2.779993629999999993e-01,6.298889698458856948e-03,1.000000000000000048e-04,3.199768557496173571e+01,1.700000000000000122e-01
-8.306753881795865269e-01,5.048130450000000158e-01,2.697733310041706273e-02,1.000000000000000048e-04,3.555566868424272542e+01,1.600000000000000033e-01
-1.512887194179586281e+00,3.571169940000000209e-01,7.505514371890989814e-03,1.000000000000000048e-04,3.261344578710445319e+01,1.600000000000000033e-01
-2.094054222179586588e+00,-9.657747650000000350e-01,3.433306262659777119e-02,1.000000000000000048e-04,3.609992361300614760e+01,1.600000000000000033e-01
-1.256550916179586252e+00,-1.037146153999999987e+00,2.612703498601461408e-02,1.000000000000000048e-04,3.534694492252832987e+01,1.900000000000000022e-01
-2.638489419179586015e+00,-8.917870300000000361e-01,4.634409035416230116e-02,1.000000000000000048e-04,3.644933181357281882e+01,1.600000000000000033e-01
-1.710562538179586589e+00,-1.402302595000000096e+00,1.922680660620855464e-02,1.000000000000000048e-04,3.469417174019439187e+01,2.000000000000000111e-01
-2.771840681795865180e-01,-1.115655276000000029e+00,3.364828559659235885e-02,1.000000000000000048e-04,3.567110996454852767e+01,1.700000000000000122e-01
-1.608432286179586335e+00,-6.514894359999999773e-01,3.044860770606077488e-02,1.000000000000000048e-04,3.583172869039498920e+01,1.600000000000000033e-01
-1.490451089179586575e+00,-3.201959389999999850e-01,3.283855607905653701e-02,1.000000000000000048e-04,3.558613174967291570e+01,1.700000000000000122e-01
-1.995144670179586299e+00,-1.040863893000000040e+00,3.052757948443459921e-02,1.000000000000000048e-04,3.529761953327965784e+01,1.799999999999999933e-01
3.095686500000000008e-02,-1.139960520999999893e+00,2.860834086978569432e-02,1.000000000000000048e-04,3.544190728280552349e+01,1.700000000000000122e-01
-2.211919791795864398e-01,-6.717550429999999961e-01,1.675260284034787994e-02,1.000000000000000048e-04,3.432810391191561195e+01,2.200000000000000011e-01
-8.294029241795861651e-01,6.699244909999999553e-01,9.704217691754708427e-03,1.000000000000000048e-04,3.300054455003553500e+01,1.799999999999999933e-01
-4.765590681795863759e-01,-7.328014390000000544e-01,1.329720016873057672e-02,1.000000000000000048e-04,3.398198584900817565e+01,1.600000000000000033e-01
-1.123871723179585835e+00,1.275958498999999913e+00,2.080540349830569888e-02,1.000000000000000048e-04,3.486936390248740736e+01,1.900000000000000022e-01
-5.094723721795864080e-01,-7.371415260000000469e-01,7.791797653072173209e-03,1.000000000000000048e-04,3.256776423054007097e+01,1.600000000000000033e-01
6.571342580000000266e-01,4.949370419999999937e-01,3.564110816252406139e-02,1.000000000000000048e-04,3.594385175707154190e+01,1.700000000000000122e-01
-1.010588552179585875e+00,4.063959939999999826e-01,9.308498495479041596e-03,1.000000000000000048e-04,3.273441256963941015e+01,1.400000000000000133e-01
-5.300352171795861267e-01,-4.198024320000000031e-01,1.124741456844764731e-02,1.000000000000000048e-04,3.343070216263413386e+01,1.499999999999999944e-01
-3.959305511795863097e-01,-4.514385590000000170e-01,3.168741733515625936e-02,1.000000000000000048e-04,3.571783394779812681e+01,1.600000000000000033e-01
-1.302326638179586382e+00,4.891699640000000127e-01,2.001628509667627287e-02,1.000000000000000048e-04,3.478667798576248060e+01,8.999999999999999667e-02
-8.169037861795862554e-01,4.857709299999999897e-01,2.157644013919583076e-02,1.000000000000000048e-04,3.487917186803518632e+01,1.000000000000000056e-01
-1.156602994179586119e+00,7.039336720000000103e-01,2.829487045749376484e-02,1.000000000000000048e-04,3.558934448145588902e+01,1.100000000000000006e-01
2.500120207999999788e+00,-3.403989430000000094e-01,3.976387687264917870e-02,1.000000000000000048e-04,3.618390883283963433e+01,1.100000000000000006e-01
2.397122115999999803e+00,-8.283729720000000407e-01,1.240692975259391484e-02,1.000000000000000048e-04,3.337531831119380143e+01,1.700000000000000122e-01
-4.391142381795862804e-01,9.199097720000000145e-01,4.522262947139022576e-02,1.000000000000000048e-04,3.691862550481616978e+01,2.200000000000000011e-01
-1.356814123179586495e+00,1.335301293999999972e+00,4.472070138273320783e-02,1.000000000000000048e-04,3.645860452179258004e+01,2.600000000000000089e-01
2.612804049999999823e+00,3.003891830000000041e-01,3.573593059616574086e-02,1.000000000000000048e-04,3.623988544688865687e+01,1.700000000000000122e-01
-2.350352662179586272e+00,1.041324629000000002e+00,1.614941912833711690e-02,1.000000000000000048e-04,3.409700449839634473e+01,5.300000000000000266e-01
-1.192441121179586005e+00,1.100105410000000061e+00,3.339641577199929656e-02,1.000000000000000048e-04,3.597831513131446002e+01,1.799999999999999933e-01
-3.012917491179586182e+00,1.485957493999999990e+00,1.210258582606208583e-02,1.000000000000000048e-04,3.357154451707476284e+01,2.200000000000000011e-01
-7.329138461795858817e-01,1.044356909000000000e+00,1.583958358401165584e-02,1.000000000000000048e-04,3.430752093958211901e+01,1.700000000000000122e-01
1.024371087000000013e+00,-9.607604419999999923e-01,2.607823255396788178e-02,1.000000000000000048e-04,3.517682932130991702e+01,1.600000000000000033e-01
2.960998206000000188e+00,-8.548671270000000044e-01,2.184851726462640198e-02,1.000000000000000048e-04,3.493509759311247365e+01,1.900000000000000022e-01
-2.929124628179586409e+00,8.872048380000000511e-01,2.787106701316417051e-02,1.000000000000000048e-04,3.534083619077746619e+01,4.600000000000000200e-01
-3.017579355179586198e+00,-3.780387199999999948e-01,4.834458613122689236e-02,1.000000000000000048e-04,3.631496547314991119e+01,2.399999999999999911e-01
-2.268575282179586594e+00,6.921453520000000470e-01,3.802302549004879517e-02,1.000000000000000048e-04,3.597619957256068091e+01,3.699999999999999956e-01
2.478186394000000181e+00,5.281495040000000474e-01,3.370295263868329505e-02,1.000000000000000048e-04,3.586037491631962126e+01,2.399999999999999911e-01
7.532392530000000530e-01,9.936355940000000109e-01,2.431312031912829727e-02,1.000000000000000048e-04,3.525130371082145331e+01,1.600000000000000033e-01
1.772935874999999939e+00,1.383062164999999899e+00,2.652403309101302245e-02,1.000000000000000048e-04,3.528431416399111242e+01,7.399999999999999911e-01
1.941716173999999961e+00,9.578325640000000529e-01,3.255316284672452737e-02,1.000000000000000048e-04,3.599162073958199670e+01,3.800000000000000044e-01
2.041827891000000061e+00,-8.953703119999999460e-01,3.867194850936085931e-03,1.000000000000000048e-04,3.108293464967842112e+01,1.700000000000000122e-01
2.521229080999999983e+00,-8.544186950000000058e-01,2.254640568054750230e-02,1.000000000000000048e-04,3.483857865568373313e+01,2.000000000000000111e-01
2.745955969000000163e+00,3.136627880000000257e-01,4.701037614543764065e-02,1.000000000000000048e-04,3.682825868162979788e+01,2.099999999999999922e-01
1.738295793999999894e+00,1.134430556000000090e+00,3.940328764006179735e-02,1.000000000000000048e-04,3.650120448342962476e+01,1.799999999999999933e-01
-8.687814521795864664e-01,6.221710379999999541e-01,4.748078376688503327e-02,1.000000000000000048e-04,3.668277231705771158e+01,3.499999999999999778e-01
-1.857013858179586308e+00,3.937075449999999921e-01,3.180666595331083091e-02,1.000000000000000048e-04,3.567490986220608562e+01,2.999999999999999889e-01
-2.894431473179586156e+00,2.701405689999999971e-01,2.474800618224127710e-02,1.000000000000000048e-04,3.496179226056894151e+01,2.300000000000000100e-01
2.213600608000000136e+00,-5.295933369999999973e-01,1.286697452886570447e-02,1.000000000000000048e-04,3.366313811413345292e+01,2.500000000000000000e-01
9.327636729999999599e-01,4.069681829999999834e-01,8.199838083867042743e-03,1.000000000000000048e-04,3.267884976301528610e+01,2.300000000000000100e-01
1.743234563999999986e+00,7.359057650000000450e-01,1.773552182186177370e-02,1.000000000000000048e-04,3.442517321865777546e+01,2.200000000000000011e-01
-2.812965047179586175e+00,5.929882829999999494e-01,4.819901883877693999e-02,1.000000000000000048e-04,3.647529378971773184e+01,2.399999999999999911e-01
-2.977583888179586413e+00,-1.437144969999999966e-01,4.913503249918653448e-02,1.000000000000000048e-04,3.695007125137857429e+01,2.700000000000000178e-01
2.276564226000000080e+00,-5.051809499999999620e-01,4.172427177657829500e-02,1.000000000000000048e-04,3.624304831677363836e+01,2.800000000000000266e-01
2.667465888000000174e+00,-6.260506340000000502e-01,3.824734811339388502e-02,1.000000000000000048e-04,3.615310910419971435e+01,2.600000000000000089e-01
1.041358068000000081e+00,8.506585119999999778e-01,4.676136908977108347e-02,1.000000000000000048e-04,3.650237525214937051e+01,2.300000000000000100e-01
2.499030525999999863e+00,-9.629979760000000333e-01,4.194066164219063114e-02,1.000000000000000048e-04,3.637106258315309049e+01,3.099999999999999978e-01
1.334501084000000004e+00,-7.340646360000000481e-01,4.251641738179755964e-02,1.000000000000000048e-04,3.612941553170476539e+01,2.300000000000000100e-01
2.196979751999999841e+00,-5.334639439999999677e-01,3.374806993088927398e-02,1.000000000000000048e-04,3.539902071715555110e+01,2.500000000000000000e-01
1.355624495999999901e+00,4.654212710000000253e-01,3.625620483580323933e-02,1.000000000000000048e-04,3.613697805105806538e+01,2.200000000000000011e-01
1.445572062999999963e+00,-8.838676049999999451e-01,3.103646611987206233e-02,1.000000000000000048e-04,3.560397523438334844e+01,3.499999999999999778e-01
7.246286520000000397e-01,-7.843460709999999780e-01,4.582010899906327483e-03,1.000000000000000048e-04,3.177641266031644562e+01,3.099999999999999978e-01
2.179180484000000195e+00,1.312341798999999920e+00,2.138449531474845289e-02,1.000000000000000048e-04,3.479479019381052751e+01,2.200000000000000011e-01
7.669035910000000511e-01,2.329377750000000136e-01,2.392597994989777502e-02,1.000000000000000048e-04,3.506900597330042046e+01,2.500000000000000000e-01
1.528220198000000085e+00,-6.827860190000000218e-01,4.780268202534834060e-02,1.000000000000000048e-04,3.641735493555045622e+01,4.199999999999999845e-01
2.984436029999999906e+00,4.410184999999999800e-01,1.626196700414843724e-02,1.000000000000000048e-04,3.448378875650556097e+01,2.999999999999999889e-01
1.808380389999999949e+00,-5.931087419999999666e-01,3.429902301009769144e-02,1.000000000000000048e-04,3.612534228452614116e+01,2.200000000000000011e-01
2.378694356000000010e+00,6.891218140000000547e-01,2.554207512950587219e-02,1.000000000000000048e-04,3.536215695408178306e+01,3.099999999999999978e-01
-1.027171309179585990e+00,8.938185499999999895e-01,4.768760469024183740e-02,1.000000000000000048e-04,3.662801233152630687e+01,3.099999999999999978e-01
2.177629786999999872e+00,1.088514723000000073e+00,4.779301936232948494e-02,1.000000000000000048e-04,3.659337859823440908e+01,2.500000000000000000e-01
2.446904437000000154e+00,4.505237189999999892e-01,3.961221125072625360e-02,1.000000000000000048e-04,3.621960961730609796e+01,2.700000000000000178e-01
-2.745075452179586151e+00,5.290477460000000409e-01,1.324365684620095254e-02,1.000000000000000048e-04,3.377602269890328301e+01,1.600000000000000033e-01
3.470126559999999749e-01,6.971221490000000243e-01,1.391135024970628631e-02,1.000000000000000048e-04,3.402401565414927376e+01,2.399999999999999911e-01
-2.027672372179586624e+00,-3.494576850000000179e-01,4.776724886386190388e-02,1.000000000000000048e-04,3.663141053107373324e+01,8.999999999999999667e-02
-2.243457714179585949e+00,5.735296930000000071e-01,4.161325022967605342e-02,1.000000000000000048e-04,3.631266853496931901e+01,8.000000000000000167e-02
-1.741234469179586242e+00,8.281857209999999858e-01,4.997883342703628856e-02,1.000000000000000048e-04,3.665362721825828629e+01,1.000000000000000056e-01
-1.661352162179586145e+00,7.473004210000000480e-01,3.890521923346376698e-02,1.000000000000000048e-04,3.619780001212231468e+01,1.100000000000000006e-01
-1.046494641179585905e+00,9.839422859999999993e-01,2.966367979894728862e-02,1.000000000000000048e-04,3.540759956321865332e+01,1.600000000000000033e-01
-1.357076630179586019e+00,8.591991679999999576e-01,4.999175665192096690e-02,1.000000000000000048e-04,3.695215234983528063e+01,1.300000000000000044e-01
-1.489161381179585852e+00,8.733460579999999807e-01,1.088749129361733098e-02,1.000000000000000048e-04,3.334207130940131947e+01,8.999999999999999667e-02
2.602874990000000111e+00,9.865781270000000269e-01,3.472893244758010201e-03,1.000000000000000048e-04,3.101997274596343956e+01,2.099999999999999922e-01
6.278667869999999818e-01,1.201237362999999947e+00,2.040409618570641556e-02,1.000000000000000048e-04,3.472825418450501900e+01,1.799999999999999933e-01
1.901542252999999905e+00,5.984822429999999693e-01,3.099943059105905382e-02,1.000000000000000048e-04,3.568975243756857196e+01,1.700000000000000122e-01
9.102462569999999475e-01,3.833152009999999943e-01,2.312242334947118422e-02,1.000000000000000048e-04,3.475682083793358146e+01,2.200000000000000011e-01
4.621894529999999723e-01,4.355896570000000190e-01,1.247271070549559047e-02,1.000000000000000048e-04,3.360708171299613412e+01,2.399999999999999911e-01
1.731299603999999936e+00,-9.087058740000000245e-01,3.759130473246240223e-02,1.000000000000000048e-04,3.576027989208962055e+01,2.200000000000000011e-01
2.307708166999999921e+00,-3.555306579999999994e-01,4.620800949409745173e-02,1.000000000000000048e-04,3.646520831855816880e+01,1.700000000000000122e-01
2.284880370000000216e+00,-4.942566800000000038e-01,1.652767624235451302e-02,1.000000000000000048e-04,3.447414479446748459e+01,2.200000000000000011e-01
-2.729734007179586364e+00,-4.808223520000000084e-01,4.701112783671260176e-02,1.000000000000000048e-04,3.713744837101179286e+01,2.300000000000000100e-01
-2.728058296179586062e+00,8.181749999999999856e-01,4.078460617348974443e-02,1.000000000000000048e-04,3.662283787656527068e+01,2.200000000000000011e-01
1.539636916000000078e+00,-6.652033799999999830e-02,2.480196651833288524e-02,1.000000000000000048e-04,3.518402156591402274e+01,2.999999999999999889e-01
2.937620158000000092e+00,7.383732379999999873e-01,1.336927965037401980e-02,1.000000000000000048e-04,3.376138201677127171e+01,2.200000000000000011e-01
2.624384770999999894e+00,8.339422930000000012e-01,2.638775278405804461e-02,1.000000000000000048e-04,3.542404173090862685e+01,1.799999999999999933e-01
-2.594453966179586235e+00,1.052220571999999965e+00,1.650397415235528575e-02,1.000000000000000048e-04,3.427387229858963025e+01,1.900000000000000022e-01
-2.462277587179586114e+00,1.356652656000000068e+00,1.133687814676714173e-02,1.000000000000000048e-04,3.322432819265136317e+01,2.099999999999999922e-01
2.730654787000000194e+00,8.741146779999999783e-01,3.273324764941183684e-02,1.000000000000000048e-04,3.570785893705172498e+01,1.900000000000000022e-01
-2.564984794179586025e+00,9.572418230000000472e-01,3.943523238573807405e-02,1.000000000000000048e-04,3.642143341681583024e+01,4.400000000000000022e-01
1.629450376000000089e+00,2.068732899999999875e-01,5.317476277933991594e-03,1.000000000000000048e-04,3.167747500451791254e+01,2.899999999999999800e-01
1.142160569999999958e-01,6.858846720000000285e-01,2.703276950065389150e-02,1.000000000000000048e-04,3.559971614776473103e+01,1.799999999999999933e-01
-4.383495451795864639e-01,9.198101690000000108e-01,3.492728763069618408e-02,1.000000000000000048e-04,3.580079068752556992e+01,2.600000000000000089e-01
1.001193188000000012e+00,8.013430529999999719e-01,4.909236825632991297e-02,1.000000000000000048e-04,3.669134615454645854e+01,1.799999999999999933e-01
-8.746654461795859703e-01,7.515327899999999506e-01,3.687654263175946245e-02,1.000000000000000048e-04,3.585387941682262891e+01,2.600000000000000089e-01
1.319662558000000097e+00,1.070340469999999933e-01,4.247504469749929790e-02,1.000000000000000048e-04,3.660346186826187420e+01,2.399999999999999911e-01
1.726021762000000015e+00,-6.377623550000000030e-01,4.837092941502244697e-02,1.000000000000000048e-04,3.675497494061439596e+01,2.600000000000000089e-01
-2.754219137179586330e+00,-9.277945709999999568e-01,1.832975502244636734e-02,1.000000000000000048e-04,3.450323245776282022e+01,3.699999999999999956e-01
1.691977534999999921e+00,1.434503057999999998e+00,1.513882383443844806e-02,1.000000000000000048e-04,3.429818484821234392e+01,2.099999999999999922e-01
8.272144390000000236e-01,-4.428667319999999852e-01,2.647930212865754265e-02,1.000000000000000048e-04,3.501000776276416104e+01,2.300000000000000100e-01
-2.185785446179585811e+00,4.040310730000000183e-01,4.371811577127549496e-03,1.000000000000000048e-04,3.113089883373980982e+01,1.799999999999999933e-01
2.680919170000000129e+00,5.929394510000000063e-01,1.442580493473124767e-02,1.000000000000000048e-04,3.454515528194421847e+01,1.799999999999999933e-01
2.468528393999999793e+00,-3.885411739999999892e-01,3.849157665525658467e-02,1.000000000000000048e-04,3.610713825263639620e+01,1.700000000000000122e-01
1.824819092000000031e+00,-9.187566499999999525e-01,4.608615481663240476e-02,1.000000000000000048e-04,3.615566956832080336e+01,2.099999999999999922e-01
2.252174823999999909e+00,-3.842870769999999769e-01,4.982930833023445361e-03,1.000000000000000048e-04,3.146604077127184951e+01,2.000000000000000111e-01
2.889947965000000174e+00,3.184077100000000105e-01,5.849202581126422551e-03,1.000000000000000048e-04,3.164204164195811231e+01,2.000000000000000111e-01
-2.125870880179586031e+00,7.967372299999999630e-01,1.949257122259525146e-02,1.000000000000000048e-04,3.378552157580507043e+01,4.400000000000000022e-01
-2.666621499179586241e+00,1.790417820000000104e-01,2.652877492184718689e-02,1.000000000000000048e-04,3.551493013341707439e+01,1.900000000000000022e-01
2.353249148999999818e+00,9.653535600000000549e-01,4.137671724111527394e-02,1.000000000000000048e-04,3.640046593706836831e+01,1.799999999999999933e-01
1.765869402999999949e+00,9.288119630000000182e-01,2.113027977304334989e-02,1.000000000000000048e-04,3.563462947054929941e+01,3.599999999999999867e-01
1.162949336999999916e+00,5.157872650000000503e-01,2.378292944284649685e-02,1.000000000000000048e-04,3.473867183513150536e+01,4.099999999999999756e-01
2.011122450999999867e+00,-1.257182417000000108e+00,2.993085479535214158e-02,1.000000000000000048e-04,3.541837457483529050e+01,1.799999999999999933e-01
1.931340567999999980e+00,-5.991437729999999906e-01,4.387878240134577418e-02,1.000000000000000048e-04,3.644118674214677611e+01,2.000000000000000111e-01
2.835991935000000019e+00,-7.109363199999999550e-01,1.917200900331747157e-02,1.000000000000000048e-04,3.476992275809627841e+01,1.900000000000000022e-01
-2.852520529179586095e+00,8.667541789999999580e-01,2.305159759275226053e-02,1.000000000000000048e-04,3.479661960452050806e+01,1.799999999999999933e-01
-2.458251249179586040e+00,-2.796002539999999925e-01,7.904909166086625250e-03,1.000000000000000048e-04,3.216199227862099974e+01,3.300000000000000155e-01
1.596378985000000084e+00,5.944120290000000084e-01,1.948428580971131932e-02,1.000000000000000048e-04,3.481505968055057565e+01,1.900000000000000022e-01
-2.484014184179586415e+00,8.016642189999999557e-01,3.405569846075302137e-02,1.000000000000000048e-04,3.598377796295514486e+01,1.900000000000000022e-01
-2.431723812179586108e+00,1.223750555999999934e+00,3.600970327229909007e-02,1.000000000000000048e-04,3.596743441977541522e+01,1.700000000000000122e-01
-2.378598255179586118e+00,1.197731727999999940e+00,1.369850693421228310e-02,1.000000000000000048e-04,3.368096731835186830e+01,1.900000000000000022e-01
1.739429998000000088e+00,2.494783479999999887e-01,1.894061977609004868e-02,1.000000000000000048e-04,3.501872626816378187e+01,3.099999999999999978e-01
-2.377494960179586059e+00,9.562939099999999693e-01,2.649113645878966097e-02,1.000000000000000048e-04,3.535794606743488799e+01,1.799999999999999933e-01
-9.021677017958662503e-02,6.959221140000000361e-01,1.752952441696295147e-02,1.000000000000000048e-04,3.503716253298323835e+01,3.499999999999999778e-01
2.021336933000000169e+00,8.510789659999999923e-01,6.604744037986083963e-03,1.000000000000000048e-04,3.278107473872066890e+01,2.800000000000000266e-01
2.573899695999999793e+00,-5.247218830000000001e-01,3.284308040287033104e-02,1.000000000000000048e-04,3.581116875687602885e+01,1.700000000000000122e-01
2.346925623000000183e+00,-7.496726200000000118e-01,2.138073698955837015e-02,1.000000000000000048e-04,3.495500570518636607e+01,1.700000000000000122e-01
2.487812089999999809e+00,-1.095252646999999913e+00,3.003749003692723560e-02,1.000000000000000048e-04,3.550914323431091191e+01,1.600000000000000033e-01
2.543651012999999850e+00,-2.555195920000000176e-01,2.771700940297631283e-02,1.000000000000000048e-04,3.551014641647812198e+01,1.900000000000000022e-01
2.457771880000000131e+00,-4.383329890000000062e-01,3.212341941111857696e-02,1.000000000000000048e-04,3.574236433433313920e+01,1.700000000000000122e-01
-2.749033603179586116e+00,5.277091179999999770e-01,1.068725939367300842e-02,1.000000000000000048e-04,3.334253905155966891e+01,1.799999999999999933e-01
-3.021446786179586397e+00,6.716344440000000526e-01,4.472692756855781854e-02,1.000000000000000048e-04,3.609701042410979710e+01,1.799999999999999933e-01
2.390319493999999878e+00,1.427533710000000067e+00,1.167026197860878203e-02,1.000000000000000048e-04,3.367157658589125901e+01,1.799999999999999933e-01
-2.060955814179585843e+00,9.020563839999999889e-01,4.227361659526340104e-02,1.000000000000000048e-04,3.631077916395062744e+01,1.799999999999999933e-01
-1.552222439179586466e+00,1.270289940999999923e+00,4.412497826851306121e-02,1.000000000000000048e-04,3.642110768107087182e+01,1.600000000000000033e-01
2.491619029000000207e+00,8.136863199999999630e-01,1.446170002055175569e-02,1.000000000000000048e-04,3.385360125447329693e+01,1.900000000000000022e-01
2.336721559999999975e+00,1.049041915000000103e+00,1.670443257262102868e-02,1.000000000000000048e-04,3.454836167646651290e+01,1.700000000000000122e-01
1.201678150000000000e+00,3.331923239999999842e-01,3.665370482174814398e-02,1.000000000000000048e-04,3.617247055978945269e+01,1.900000000000000022e-01
-3.811893421795859993e-01,1.284308205000000092e+00,4.058606142489503549e-02,1.000000000000000048e-04,3.630590460213314685e+01,2.000000000000000111e-01
5.879284790000000038e-01,8.245620540000000442e-01,4.738686834436960094e-02,1.000000000000000048e-04,3.641085240584803273e+01,1.700000000000000122e-01
-3.584264691795864266e-01,1.112498557000000110e+00,4.004616901502686815e-02,1.000000000000000048e-04,3.593054006447161441e+01,2.000000000000000111e-01
-1.085925731795862603e-01,9.806715139999999664e-01,3.778668181761225819e-02,1.000000000000000048e-04,3.628462107115866075e+01,1.799999999999999933e-01
1.189812670000000017e+00,8.219376269999999485e-01,1.397582177210630189e-02,1.000000000000000048e-04,3.376769265016389454e+01,1.700000000000000122e-01
2.896526737999999934e+00,1.048685354999999930e+00,3.123874094443884752e-02,1.000000000000000048e-04,3.583391750880222304e+01,1.700000000000000122e-01
1.187793541000000008e+00,1.533334508000000040e+00,1.569683796087232436e-02,1.000000000000000048e-04,3.419996422498470423e+01,1.700000000000000122e-01
8.784667550000000436e-01,-5.840451829999999678e-01,2.016094684006392718e-02,1.000000000000000048e-04,3.478668989964467073e+01,2.099999999999999922e-01
-2.025603206179586557e+00,1.419180792999999996e+00,4.209149800931574759e-02,1.000000000000000048e-04,3.651638497865531008e+01,1.799999999999999933e-01
1.097118803000000087e+00,1.428367445999999985e+00,4.306181804115913336e-02,1.000000000000000048e-04,3.681162329688373092e+01,1.799999999999999933e-01
-1.923054671795858539e-01,8.268694330000000425e-01,3.085740861006392236e-02,1.000000000000000048e-04,3.586330007077101101e+01,2.000000000000000111e-01
1.974446608000000047e+00,-1.250497374000000050e+00,2.987446118855172431e-02,1.000000000000000048e-04,3.557255791264201150e+01,2.000000000000000111e-01
1.714471547999999901e+00,-4.841846819999999774e-01,3.164457215452186334e-02,1.000000000000000048e-04,3.580389531819534454e+01,1.700000000000000122e-01
1.635209042000000057e+00,-1.499680316999999929e+00,2.267944765977053176e-02,1.000000000000000048e-04,3.501665067710204937e+01,1.900000000000000022e-01
-3.085878636179586021e+00,-8.156760069999999807e-01,4.772550688418662063e-02,1.000000000000000048e-04,3.686891378820379828e+01,1.799999999999999933e-01
1.583648911999999909e+00,-4.051170720000000225e-01,3.027214389320632970e-02,1.000000000000000048e-04,3.576147097062877833e+01,1.700000000000000122e-01
3.116144028999999982e+00,-6.233618589999999626e-01,1.300508564297496103e-02,1.000000000000000048e-04,3.415002598510305631e+01,2.000000000000000111e-01
2.580853791000000008e+00,2.126606490000000071e-01,2.222129760611970054e-02,1.000000000000000048e-04,3.490806809406235089e+01,2.200000000000000011e-01
2.791070910999999821e+00,-3.375241600000000036e-02,3.472114724984867729e-02,1.000000000000000048e-04,3.594740628024027984e+01,2.999999999999999889e-01
2.126664376999999995e+00,-4.630033630000000011e-01,2.156507136953197609e-02,1.000000000000000048e-04,3.487564074881969844e+01,1.799999999999999933e-01
1.264160699999999915e+00,6.289837299999999631e-01,4.351105345824737153e-02,1.000000000000000048e-04,3.637557624362742104e+01,1.900000000000000022e-01
2.608192676999999904e+00,3.485897410000000085e-01,2.746882184669784122e-02,1.000000000000000048e-04,3.571342880755631199e+01,2.200000000000000011e-01
9.029304540000000490e-01,-5.888661819999999603e-01,8.293358448034759273e-03,1.000000000000000048e-04,3.275790708634767867e+01,1.700000000000000122e-01
2.675488564000000125e+00,-1.029758079000000048e+00,5.780195632913491706e-03,1.000000000000000048e-04,3.213609470104775312e+01,1.700000000000000122e-01
9.979371630000000160e-01,-7.076351440000000492e-01,9.563031414427616839e-03,1.000000000000000048e-04,3.275106617726348190e+01,2.000000000000000111e-01
2.816578843999999915e+00,-6.539336449999999523e-01,3.302362639660014892e-02,1.000000000000000048e-04,3.538061723428806005e+01,1.799999999999999933e-01
-2.809922836179586270e+00,-1.219770695000000016e+00,3.315945490863448503e-02,1.000000000000000048e-04,3.571897863759177483e+01,1.900000000000000022e-01
2.816545334000000178e+00,5.529564630000000092e-01,4.547687740005587620e-02,1.000000000000000048e-04,3.654424221831781949e+01,1.700000000000000122e-01
2.293480610000000031e+00,1.430186356999999964e+00,3.547746418203621965e-02,1.000000000000000048e-04,3.595869838298384025e+01,1.700000000000000122e-01
1.900048696999999898e+00,-6.695785770000000081e-01,3.253033591795662094e-02,1.000000000000000048e-04,3.594126723445623384e+01,1.900000000000000022e-01
2.402973735999999860e+00,-4.293495210000000117e-01,3.350268160257234562e-02,1.000000000000000048e-04,3.558980231126879801e+01,2.200000000000000011e-01
3.123677135999999965e+00,5.597831170000000522e-01,2.757203468094199597e-02,1.000000000000000048e-04,3.537576849964569448e+01,1.700000000000000122e-01
1.945616433999999950e+00,5.533621010000000506e-01,1.010456337563487780e-02,1.000000000000000048e-04,3.326938393815341755e+01,1.700000000000000122e-01
-2.603733431795864917e-01,9.574212720000000454e-01,2.887883330356055822e-02,1.000000000000000048e-04,3.575642596597705847e+01,3.800000000000000044e-01
-1.216980031795857897e-01,3.678993019999999836e-01,4.778727337045231283e-02,1.000000000000000048e-04,3.670196927046050916e+01,1.900000000000000022e-01
2.921580513999999962e+00,4.108407450000000072e-01,9.322381934468604303e-03,1.000000000000000048e-04,3.326238336400361817e+01,1.900000000000000022e-01
-2.362072097179586105e+00,1.187667234999999932e+00,3.249802019534225178e-02,1.000000000000000048e-04,3.571197155967454506e+01,1.900000000000000022e-01
-2.337569846179586186e+00,3.756736769999999837e-01,2.792164248331702181e-02,1.000000000000000048e-04,3.543151729275032835e+01,1.700000000000000122e-01
-1.563533060179586265e+00,8.298117619999999528e-01,4.749932390250333897e-02,1.000000000000000048e-04,3.667449766018660995e+01,3.300000000000000155e-01
-7.514201781795861734e-01,8.148208550000000105e-01,2.771724249166273440e-02,1.000000000000000048e-04,3.527009600151146174e+01,2.099999999999999922e-01
-2.172991007179586376e+00,1.278564443000000050e+00,3.104657032278372239e-02,1.000000000000000048e-04,3.587403435764159099e+01,2.000000000000000111e-01
1.004972830999999900e+00,3.284388160000000223e-01,5.589709795471802141e-03,1.000000000000000048e-04,3.176088946337722518e+01,1.799999999999999933e-01
-1.050913719179586536e+00,7.925907810000000220e-01,3.033567862642990581e-02,1.000000000000000048e-04,3.619656678632811975e+01,2.899999999999999800e-01
1.174967896000000067e+00,-7.032179160000000540e-01,3.212429970648088273e-02,1.000000000000000048e-04,3.561981321159991154e+01,1.799999999999999933e-01
2.063754460999999818e+00,1.158898511999999936e+00,4.352313417245889243e-02,1.000000000000000048e-04,3.607685907816141935e+01,1.799999999999999933e-01
1.355273345999999934e+00,1.034050206000000083e+00,8.468399717322428605e-03,1.000000000000000048e-04,3.280862455198589345e+01,1.700000000000000122e-01
1.878516419999999965e+00,-5.891517790000000421e-01,3.441400984932978246e-02,1.000000000000000048e-04,3.578386890669234077e+01,1.799999999999999933e-01
3.042909537999999969e+00,4.914006550000000195e-01,1.726952201257103345e-02,1.000000000000000048e-04,3.429447730038217657e+01,1.700000000000000122e-01
-2.192876876179585821e+00,7.571444160000000423e-01,6.818456573222997363e-03,1.000000000000000048e-04,3.229435697602228572e+01,2.099999999999999922e-01
-1.274335216179586006e+00,7.393028099999999769e-01,3.330515920326011098e-02,1.000000000000000048e-04,3.542917562810689702e+01,3.599999999999999867e-01
3.513372269999999742e-01,1.023017258000000096e+00,4.644605602348503108e-03,1.000000000000000048e-04,3.163016483353156261e+01,1.799999999999999933e-01
-2.045215730179585911e+00,1.346705497999999945e+00,3.872016209932138686e-02,1.000000000000000048e-04,3.619807793589374256e+01,1.799999999999999933e-01
2.622131355000000053e+00,-2.378520580000000051e-01,2.145899424623027782e-02,1.000000000000000048e-04,3.504077080350736395e+01,2.099999999999999922e-01
1.499565373000000035e+00,-5.833961840000000398e-01,4.638790188482096871e-02,1.000000000000000048e-04,3.656612160847259219e+01,1.199999999999999956e-01
9.453780529999999960e-01,-3.014802610000000271e-01,2.862643863303451774e-02,1.000000000000000048e-04,3.559150716182212193e+01,1.799999999999999933e-01
1.003030738000000088e+00,-6.679498139999999751e-01,4.556618613694552594e-02,1.000000000000000048e-04,3.646407850854247812e+01,1.799999999999999933e-01
-2.858957567179586157e+00,-2.878047879999999781e-01,1.493697917765928959e-02,1.000000000000000048e-04,3.410122999543112599e+01,1.300000000000000044e-01
-2.653655062179586022e+00,5.464710109999999510e-01,4.753180878377946672e-02,1.000000000000000048e-04,3.668130547927092522e+01,1.300000000000000044e-01
-1.077960778179586576e+00,1.305029642999999906e+00,2.488827424897151544e-02,1.000000000000000048e-04,3.520554239535888996e+01,1.100000000000000006e-01
2.996279555000000094e+00,-9.792432829999999644e-01,3.083122300303949362e-02,1.000000000000000048e-04,3.573986256591116728e+01,1.600000000000000033e-01
1.369802210000000131e-01,9.686457469999999459e-01,1.077910779773606081e-02,1.000000000000000048e-04,3.337977422300088648e+01,1.000000000000000056e-01
-7.405109531795863731e-01,5.344760480000000369e-01,2.150340193557156304e-02,1.000000000000000048e-04,3.477322497497402765e+01,1.900000000000000022e-01
-1.986221938179586033e+00,3.858849830000000147e-01,1.559886626237678292e-02,1.000000000000000048e-04,3.431650593380087599e+01,2.600000000000000089e-01
-1.660796187179585992e+00,1.337702168000000080e+00,2.677057486300861780e-02,1.000000000000000048e-04,3.537217746469904966e+01,1.300000000000000044e-01
-1.008319883179586540e+00,9.035811799999999838e-01,4.525855423195940253e-02,1.000000000000000048e-04,3.640681643287690150e+01,1.799999999999999933e-01
-2.859227719179586291e+00,-3.383984709999999785e-01,7.545927678370680826e-03,1.000000000000000048e-04,3.283024364018132246e+01,1.799999999999999933e-01
-3.008470453179586279e+00,-9.028608339999999455e-01,2.161389612866474949e-02,1.000000000000000048e-04,3.505936998895638368e+01,1.300000000000000044e-01
2.720373041999999852e+00,-1.026937239000000002e+00,2.883495487762711626e-02,1.000000000000000048e-04,3.545324489194909034e+01,1.100000000000000006e-01
1.131806215999999976e+00,-1.312634394000000038e+00,4.438779738182029727e-03,1.000000000000000048e-04,3.138567753412166539e+01,1.199999999999999956e-01
2.377785852000000144e+00,-1.071983155000000076e+00,4.984247667508943935e-02,1.000000000000000048e-04,3.680346469300537393e+01,1.000000000000000056e-01
1.262497049000000038e+00,-7.576738640000000302e-01,9.179462883298163123e-03,1.000000000000000048e-04,3.308386205065353636e+01,1.900000000000000022e-01
-2.150308364179585929e+00,9.473204419999999848e-01,4.225583115678521046e-02,1.000000000000000048e-04,3.609399067815673590e+01,1.499999999999999944e-01
-2.672281993179586035e+00,8.065802300000000091e-01,2.834687036434189664e-02,1.000000000000000048e-04,3.550016637212738146e+01,1.400000000000000133e-01
-2.768228307179586345e+00,1.501965110000000048e-01,3.572363631429534281e-02,1.000000000000000048e-04,3.591979887362653301e+01,1.300000000000000044e-01
2.456608391000000058e+00,-6.815239560000000418e-01,4.155497033530542589e-02,1.000000000000000048e-04,3.658554566582289169e+01,2.899999999999999800e-01
-1.538735822179586599e+00,7.895792169999999999e-01,2.813295361978665823e-02,1.000000000000000048e-04,3.539520307153302525e+01,1.600000000000000033e-01
-6.811844061795859773e-01,-7.989239399999999991e-01,4.908686131282615633e-02,1.000000000000000048e-04,3.676966040348803944e+01,2.300000000000000100e-01
-9.881069141795864041e-01,9.266642769999999807e-01,4.759648675334860607e-02,1.000000000000000048e-04,3.665753664464094186e+01,2.500000000000000000e-01
9.533575850000000074e-01,-5.868324440000000086e-01,6.297648754731337631e-03,1.000000000000000048e-04,3.224732552906868932e+01,1.199999999999999956e-01
1.194530383000000029e+00,-8.514353350000000153e-01,4.803331761202143946e-02,1.000000000000000048e-04,3.658970363342407239e+01,1.100000000000000006e-01
-1.550854682179585886e+00,1.341867675000000037e+00,1.444096468220268381e-02,1.000000000000000048e-04,3.395001065789926997e+01,3.599999999999999867e-01
2.328991532999999947e+00,-1.085498080000000032e+00,7.426816376786759058e-03,1.000000000000000048e-04,3.240785032633741736e+01,1.199999999999999956e-01
3.099662444999999877e+00,-8.173274409999999879e-01,1.232370896921623771e-02,1.000000000000000048e-04,3.361731495885340593e+01,1.300000000000000044e-01
1.008677688999999988e+00,-7.224949280000000362e-01,3.405145759393605337e-02,1.000000000000000048e-04,3.608613449306476184e+01,1.199999999999999956e-01
1.116317643999999998e+00,-8.188746820000000204e-01,2.514842717950660847e-02,1.000000000000000048e-04,3.508970098527195347e+01,1.499999999999999944e-01
1.368634144999999913e+00,-9.746537960000000167e-01,1.397645113160716698e-02,1.000000000000000048e-04,3.332828855431969117e+01,2.200000000000000011e-01
1.284766933000000000e+00,-9.049604909999999780e-01,8.426532316684685886e-03,1.000000000000000048e-04,3.275399945486073960e+01,1.300000000000000044e-01
2.840707745000000006e+00,-9.874777999999999611e-01,4.581044650233218746e-02,1.000000000000000048e-04,3.635555873148952344e+01,1.199999999999999956e-01
1.164831654000000105e+00,-8.361433499999999519e-01,1.277384029518790001e-02,1.000000000000000048e-04,3.408880695326087817e+01,1.600000000000000033e-01
9.274529849999999520e-01,-5.648102149999999488e-01,2.087625559372549566e-02,1.000000000000000048e-04,3.476661242564684073e+01,2.200000000000000011e-01
1.803806121999999901e+00,-1.051757271000000049e+00,3.318745475047755328e-02,1.000000000000000048e-04,3.588905993878798029e+01,2.200000000000000011e-01
1.910407339000000038e+00,-1.096340147000000043e+00,1.872388012727173659e-02,1.000000000000000048e-04,3.452430578441277476e+01,1.300000000000000044e-01
-2.994395329179586174e+00,-6.874333790000000111e-01,2.413661994161107535e-02,1.000000000000000048e-04,3.479180650201707437e+01,1.600000000000000033e-01
2.004169926999999962e+00,-1.114377941999999955e+00,4.828605090103176706e-02,1.000000000000000048e-04,3.644498040316369014e+01,2.099999999999999922e-01
2.993884073999999895e+00,-9.067153500000000310e-01,1.744325590975440501e-02,1.000000000000000048e-04,3.426944619418553373e+01,2.000000000000000111e-01
2.896584697999999847e+00,-6.981149509999999836e-01,2.167907976284732738e-02,1.000000000000000048e-04,3.482568372119416722e+01,2.000000000000000111e-01
2.644964143999999795e+00,-1.038456438999999953e+00,3.263421017972646665e-02,1.000000000000000048e-04,3.586919913654252667e+01,2.500000000000000000e-01
1.395029569000000080e+00,-9.673563530000000021e-01,2.229823311097882399e-02,1.000000000000000048e-04,3.493041941423803820e+01,2.200000000000000011e-01
1.133893306999999906e+00,-8.234022290000000410e-01,3.514269102450737897e-02,1.000000000000000048e-04,3.573348996328439142e+01,1.199999999999999956e-01
9.542908199999999841e-01,-6.210129070000000029e-01,2.813760334179356282e-02,1.000000000000000048e-04,3.535807208894792808e+01,1.400000000000000133e-01
1.112357503999999997e+00,-7.717409769999999947e-01,9.895092751919395968e-03,1.000000000000000048e-04,3.323417866542458654e+01,1.400000000000000133e-01
1.392129267000000059e+00,-9.489503049999999940e-01,3.455214882198109211e-02,1.000000000000000048e-04,3.582466412156225744e+01,1.100000000000000006e-01
3.104633763999999907e+00,-8.563587980000000321e-01,2.888327698952054129e-02,1.000000000000000048e-04,3.562889155727842194e+01,1.199999999999999956e-01
-1.581672989179586430e+00,-6.726275419999999672e-01,4.270068516536144887e-02,1.000000000000000048e-04,3.619560541579982527e+01,2.000000000000000111e-01
8.758714749999999549e-01,-5.394949780000000139e-01,1.601972389753072296e-02,1.000000000000000048e-04,3.423047267992757270e+01,1.199999999999999956e-01
1.027821937999999991e+00,-6.897361509999999640e-01,4.201625664721402031e-02,1.000000000000000048e-04,3.641043402570130638e+01,1.499999999999999944e-01
8.011105990000000343e-01,-4.568120419999999737e-01,2.439851702975614350e-02,1.000000000000000048e-04,3.507672452850268741e+01,1.499999999999999944e-01
8.044453879999999835e-01,-4.591503659999999765e-01,1.995862218449422423e-02,1.000000000000000048e-04,3.493602067919519527e+01,1.100000000000000006e-01
8.290542589999999601e-01,-4.498624509999999965e-01,1.869366842477911822e-02,1.000000000000000048e-04,3.435151682065195189e+01,1.199999999999999956e-01
2.306908324000000121e+00,-1.093655438999999951e+00,2.093966660235752064e-02,1.000000000000000048e-04,3.481848028029761366e+01,1.300000000000000044e-01
-3.090495873179586184e+00,-7.974218849999999970e-01,5.640173313343787610e-03,1.000000000000000048e-04,3.204037722080635575e+01,1.300000000000000044e-01
2.850739061000000074e+00,-9.724982730000000242e-01,4.793802081299206042e-02,1.000000000000000048e-04,3.651409670224786197e+01,1.100000000000000006e-01
1.925211972000000049e+00,-1.067349442999999898e+00,1.521136696937282207e-02,1.000000000000000048e-04,3.370970030147854857e+01,1.600000000000000033e-01
3.010706126000000094e+00,-9.149326070000000088e-01,4.718056792353293033e-02,1.000000000000000048e-04,3.671478303891403527e+01,1.199999999999999956e-01
1.754869720000000077e+00,-1.052947148999999971e+00,4.352010853879327568e-02,1.000000000000000048e-04,3.670378871492737716e+01,1.300000000000000044e-01
3.028086770999999899e+00,-8.725603690000000023e-01,1.790655568877547871e-02,1.000000000000000048e-04,3.434831431941537261e+01,1.199999999999999956e-01
2.780301081000000174e+00,-1.010780400000000023e+00,1.241223756025754479e-02,1.000000000000000048e-04,3.351131048904647969e+01,1.700000000000000122e-01
3.096540631999999960e+00,-8.261897350000000362e-01,1.921359785051378333e-02,1.000000000000000048e-04,3.476254311080266035e+01,1.100000000000000006e-01
-3.043596368179586342e+00,-7.656326449999999451e-01,3.469500271288975674e-02,1.000000000000000048e-04,3.578536698673763539e+01,1.100000000000000006e-01
2.593403560000000052e+00,-1.068240442000000012e+00,4.458956697368674643e-02,1.000000000000000048e-04,3.652588168143893910e+01,1.199999999999999956e-01
1.277663320999999907e+00,-8.910532270000000032e-01,7.917229584349939550e-03,1.000000000000000048e-04,3.276386877632999983e+01,1.499999999999999944e-01
8.729576639999999665e-01,-5.017517409999999733e-01,1.620617812015957837e-02,1.000000000000000048e-04,3.431414929999474595e+01,1.199999999999999956e-01
2.323316692000000128e+00,-1.072994334000000105e+00,8.495456826493358315e-03,1.000000000000000048e-04,3.279062057320150103e+01,1.400000000000000133e-01
-3.012222731179586166e+00,-7.219820959999999621e-01,1.051319300287172423e-02,1.000000000000000048e-04,3.328207570543531091e+01,1.199999999999999956e-01
2.306010604999999991e+00,-1.110345181000000014e+00,1.533619295622859133e-02,1.000000000000000048e-04,3.403472350891627229e+01,1.100000000000000006e-01
2.437557496999999795e+00,-1.097151527000000071e+00,4.522383936580487429e-02,1.000000000000000048e-04,3.646132513516472784e+01,1.100000000000000006e-01
1.098420291999999909e+00,-7.444727049999999569e-01,8.661147700488024473e-03,1.000000000000000048e-04,3.288888320015092859e+01,1.300000000000000044e-01
8.241628739999999897e-01,-4.611620249999999754e-01,1.208335783224055715e-02,1.000000000000000048e-04,3.360456373218850246e+01,1.400000000000000133e-01
1.017317494999999905e+00,-7.027905669999999771e-01,3.180639312182718254e-02,1.000000000000000048e-04,3.550129284261360851e+01,1.199999999999999956e-01
2.728679550999999925e+00,-1.007430967999999982e+00,2.580637623543010142e-02,1.000000000000000048e-04,3.536674397254517999e+01,1.100000000000000006e-01
2.848837458999999850e+00,-9.622339979999999793e-01,4.833709134903586141e-02,1.000000000000000048e-04,3.680231038268610178e+01,1.199999999999999956e-01
-3.065525731179586266e+00,-7.207210450000000046e-01,1.979451006987472533e-02,1.000000000000000048e-04,3.450887809555666763e+01,1.199999999999999956e-01
1.103969978000000074e+00,-7.587182380000000448e-01,1.758368542209703608e-02,1.000000000000000048e-04,3.421705111323422699e+01,1.300000000000000044e-01
1.112034854000000017e+00,-7.675460100000000008e-01,4.975972533148086824e-02,1.000000000000000048e-04,3.697330040899205272e+01,1.199999999999999956e-01
2.373162053000000160e+00,-1.072487750000000073e+00,2.905275778928509064e-02,1.000000000000000048e-04,3.553005796428999474e+01,1.100000000000000006e-01
2.221583438000000132e+00,-1.096064289000000080e+00,2.811882825822816651e-02,1.000000000000000048e-04,3.556674251619658378e+01,1.199999999999999956e-01
2.775251189000000007e+00,-1.013244017000000108e+00,4.915547799999017697e-02,1.000000000000000048e-04,3.675936457774037791e+01,1.700000000000000122e-01
1.527128894000000070e+00,-9.963611940000000056e-01,2.756050292260211684e-02,1.000000000000000048e-04,3.535626308762640946e+01,1.400000000000000133e-01
-1.936135624179586401e+00,1.327891944000000102e+00,4.664213555822230295e-02,1.000000000000000048e-04,3.640998195196053899e+01,1.199999999999999956e-01
2.120951332999999828e+00,-1.112975437000000012e+00,1.643821654087381304e-02,1.000000000000000048e-04,3.422773819257844963e+01,1.600000000000000033e-01
2.950704906999999988e+00,-9.277153000000000205e-01,4.142001446818103366e-02,1.000000000000000048e-04,3.623770160992982881e+01,1.700000000000000122e-01
2.461302839000000020e+00,-1.064109841000000056e+00,4.810211763564564875e-03,1.000000000000000048e-04,3.171008665760629697e+01,1.499999999999999944e-01
1.687800213000000049e+00,-1.037844004000000098e+00,4.088825988347703083e-02,1.000000000000000048e-04,3.612834261427832416e+01,1.100000000000000006e-01
-3.069023128179586113e+00,-7.343218900000000327e-01,9.390712627255104472e-03,1.000000000000000048e-04,3.309305168268478070e+01,2.000000000000000111e-01
7.655655390000000171e-01,-3.825025819999999799e-01,1.455229784688354816e-02,1.000000000000000048e-04,3.386954041228381840e+01,1.300000000000000044e-01
-3.051736326179586012e+00,-7.690870560000000467e-01,2.058727861182898383e-02,1.000000000000000048e-04,3.489855609145330106e+01,1.499999999999999944e-01
-3.116938176179586240e+00,-7.920766919999999711e-01,3.706585750360293086e-03,1.000000000000000048e-04,3.089327444057814986e+01,1.100000000000000006e-01
1.020863690000000101e+00,-6.877910739999999468e-01,1.044164877840392594e-02,1.000000000000000048e-04,3.316030895563238090e+01,1.199999999999999956e-01
1.792785233999999894e+00,-1.066474936999999956e+00,4.198338090886036961e-02,1.000000000000000048e-04,3.654449276490507970e+01,1.100000000000000006e-01
1.805689748000000039e+00,-1.066896787999999985e+00,3.331162158588009403e-02,1.000000000000000048e-04,3.583461046701513908e+01,1.100000000000000006e-01
1.773248071000000037e+00,-1.046601056999999946e+00,2.201682711651101534e-02,1.000000000000000048e-04,3.480803312743870492e+01,2.099999999999999922e-01
1.076689889999999927e+00,-7.549444410000000216e-01,1.468046108703601957e-02,1.000000000000000048e-04,3.423558694096439581e+01,1.199999999999999956e-01
2.336456505000000128e+00,-1.089906792000000069e+00,3.557086946251587778e-02,1.000000000000000048e-04,3.609519936290721631e+01,1.199999999999999956e-01
2.522083900000000156e+00,-1.078852812999999911e+00,4.686391193382154902e-02,1.000000000000000048e-04,3.675945516920578626e+01,1.199999999999999956e-01
3.676074389999999803e-01,1.100614297999999991e+00,2.141234220990908751e-02,1.000000000000000048e-04,3.490312494966848789e+01,1.700000000000000122e-01
2.099931574000000190e+00,-1.082223048999999993e+00,2.428492031790632083e-02,1.000000000000000048e-04,3.534121070536567544e+01,1.100000000000000006e-01
8.155488279999999479e-01,-4.642700679999999802e-01,2.225870309408760350e-02,1.000000000000000048e-04,3.524761785455498142e+01,2.099999999999999922e-01
9.861636230000000447e-01,-6.881834650000000497e-01,1.018681156769528882e-02,1.000000000000000048e-04,3.340638124726388725e+01,1.300000000000000044e-01
1.864254864999999928e+00,-1.086684659999999969e+00,3.765802114650801391e-02,1.000000000000000048e-04,3.613871366335800417e+01,1.199999999999999956e-01
2.873066016000000111e+00,-9.753574739999999466e-01,3.669087267736751562e-02,1.000000000000000048e-04,3.612973211328320389e+01,1.300000000000000044e-01
2.270287562000000037e+00,-1.085086717999999895e+00,3.057592507924387568e-02,1.000000000000000048e-04,3.557125263076578392e+01,1.799999999999999933e-01
8.268071609999999572e-01,-4.587794940000000099e-01,2.526474687035408853e-02,1.000000000000000048e-04,3.528710655304454491e+01,1.199999999999999956e-01
-3.050869045179586347e+00,-7.648855789999999821e-01,1.521036018233209303e-02,1.000000000000000048e-04,3.415257898496275146e+01,1.199999999999999956e-01
1.101963728999999947e+00,-7.466317359999999903e-01,4.233168619124102333e-02,1.000000000000000048e-04,3.634778007199579974e+01,1.900000000000000022e-01
1.745116724000000064e+00,-1.056563783000000090e+00,3.123113129368992533e-02,1.000000000000000048e-04,3.575761851695533977e+01,1.300000000000000044e-01
7.889769570000000343e-01,-3.846565690000000037e-01,9.897431747772304084e-03,1.000000000000000048e-04,3.307692844090819051e+01,1.499999999999999944e-01
1.385818830999999918e+00,-9.278259679999999454e-01,4.656984318939669243e-02,1.000000000000000048e-04,3.668519292014672573e+01,1.499999999999999944e-01
1.138484923000000038e+00,-8.197145099999999518e-01,2.426983085295363399e-02,1.000000000000000048e-04,3.508188167830521564e+01,1.400000000000000133e-01
1.783410439000000069e+00,-1.080958507999999929e+00,2.147659035754638165e-02,1.000000000000000048e-04,3.482819948927188847e+01,1.400000000000000133e-01
2.617653461000000181e+00,-1.025884226000000066e+00,2.506985679462733763e-02,1.000000000000000048e-04,3.528687720996623511e+01,1.199999999999999956e-01
8.270197009999999960e-01,-4.157453939999999903e-01,7.528796420314945101e-03,1.000000000000000048e-04,3.256281649623031171e+01,1.199999999999999956e-01
3.128792493000000174e+00,-8.522697870000000009e-01,4.141955882506954956e-02,1.000000000000000048e-04,3.644583527381863064e+01,1.100000000000000006e-01
1.366158207000000013e+00,-9.614226009999999878e-01,2.897382077047292240e-02,1.000000000000000048e-04,3.553404326580358230e+01,1.100000000000000006e-01
2.846286316000000038e+00,-9.688357899999999745e-01,2.103440120060025981e-02,1.000000000000000048e-04,3.483873968290603074e+01,1.400000000000000133e-01
9.208216280000000031e-01,-6.185352929999999860e-01,1.216887291313387479e-02,1.000000000000000048e-04,3.373035952961208750e+01,1.499999999999999944e-01
7.622987450000000553e-01,-3.411912120000000215e-01,4.948002236178478813e-02,1.000000000000000048e-04,3.657791801373837615e+01,1.199999999999999956e-01
9.277931750000000255e-01,-5.813990460000000304e-01,1.055466206017222769e-02,1.000000000000000048e-04,3.328841667632698886e+01,2.099999999999999922e-01
1.010173165000000095e+00,-6.808591280000000356e-01,3.102456446710830096e-02,1.000000000000000048e-04,3.563450397557017624e+01,1.300000000000000044e-01
1.661181446000000062e+00,-1.029160687999999935e+00,1.173988056760373946e-02,1.000000000000000048e-04,3.356233848451464041e+01,1.400000000000000133e-01
2.089878704000000198e+00,-1.077863170999999953e+00,1.126051736815450802e-02,1.000000000000000048e-04,3.337574848178203268e+01,1.199999999999999956e-01
9.321550429999999610e-01,-6.212176799999999943e-01,4.479056409664890909e-02,1.000000000000000048e-04,3.640222446968581949e+01,1.199999999999999956e-01
2.944595597000000176e+00,-9.127602249999999806e-01,1.125736308443199551e-02,1.000000000000000048e-04,3.348017597097459941e+01,1.100000000000000006e-01
1.288081913999999939e+00,-9.113959929999999598e-01,8.687846544159605333e-03,1.000000000000000048e-04,3.273367137931214899e+01,1.300000000000000044e-01
1.398731861999999992e+00,-9.625033109999999725e-01,3.406717889815711470e-02,1.000000000000000048e-04,3.599801931396616794e+01,1.199999999999999956e-01
1.714165549000000066e+00,-1.043104095999999981e+00,4.439659966998751352e-03,1.000000000000000048e-04,3.165977863543634641e+01,1.199999999999999956e-01
1.014018395999999989e+00,-6.788913789999999615e-01,9.460860552044234734e-03,1.000000000000000048e-04,3.302650739607847186e+01,1.300000000000000044e-01
8.887761809999999985e-01,-5.541821719999999729e-01,2.739212093845062174e-02,1.000000000000000048e-04,3.545949051053029422e+01,1.300000000000000044e-01
1.026278256999999972e+00,-6.961882160000000264e-01,3.307627202253132087e-02,1.000000000000000048e-04,3.579782202622638465e+01,1.199999999999999956e-01
1.824970581999999952e+00,-1.080428363000000003e+00,2.375684072446263700e-02,1.000000000000000048e-04,3.493279501696206779e+01,1.199999999999999956e-01
1.839979185000000017e+00,-1.082878103999999952e+00,2.561386807566619003e-02,1.000000000000000048e-04,3.524322178839929620e+01,1.300000000000000044e-01
-3.070118813179586237e+00,-7.641942569999999879e-01,2.619017884278417030e-02,1.000000000000000048e-04,3.513549347277534451e+01,1.199999999999999956e-01
2.250776613000000204e+00,-1.110438553999999911e+00,3.893442831077811167e-02,1.000000000000000048e-04,3.634622625133000895e+01,1.199999999999999956e-01
2.613802471000000072e+00,-1.066258922999999914e+00,3.146930936909662219e-02,1.000000000000000048e-04,3.589363427750914326e+01,1.199999999999999956e-01
8.050150120000000298e-01,-4.193234060000000096e-01,7.191470975260808030e-03,1.000000000000000048e-04,3.229253830151697002e+01,1.499999999999999944e-01
2.809576177999999924e+00,-9.952447749999999704e-01,9.446707189911762031e-03,1.000000000000000048e-04,3.325414437468681683e+01,1.199999999999999956e-01
8.523447290000000232e-01,-4.773689010000000121e-01,2.236206753769016259e-02,1.000000000000000048e-04,3.503442026349299709e+01,2.000000000000000111e-01
2.975142320999999868e+00,-8.986192680000000266e-01,3.390574856001149495e-02,1.000000000000000048e-04,3.571496668065307745e+01,2.000000000000000111e-01
2.960578484000000010e+00,-9.174235720000000205e-01,4.602069324387007832e-02,1.000000000000000048e-04,3.640588303301831985e+01,1.400000000000000133e-01
1.589239559999999996e+00,-1.046132274999999945e+00,3.695160853477050256e-02,1.000000000000000048e-04,3.613663945198012328e+01,1.199999999999999956e-01
1.095136271999999966e+00,-7.909478989999999543e-01,4.446875975829971128e-02,1.000000000000000048e-04,3.644207494126794700e+01,1.300000000000000044e-01
3.045277111999999953e+00,-8.831592660000000539e-01,3.589841831828881336e-02,1.000000000000000048e-04,3.599001537019240970e+01,1.799999999999999933e-01
3.011317304999999944e+00,-8.969173430000000335e-01,4.974482185082279573e-02,1.000000000000000048e-04,3.664284468147272378e+01,1.499999999999999944e-01
1.946036051000000100e+00,-1.101857058000000000e+00,2.222873822171934910e-02,1.000000000000000048e-04,3.490313907100298962e+01,1.100000000000000006e-01
9.659444579999999503e-01,-6.400164339999999674e-01,2.122459216493404258e-02,1.000000000000000048e-04,3.477544737140928532e+01,1.199999999999999956e-01
1.142944595999999979e+00,-8.229314749999999679e-01,1.820037807852771874e-02,1.000000000000000048e-04,3.423585900432220797e+01,1.499999999999999944e-01
1.336859599999999926e+00,-9.462661719999999610e-01,8.420313595474742882e-03,1.000000000000000048e-04,3.265858495976527109e+01,1.900000000000000022e-01
2.386695267999999981e+00,-1.099692616000000012e+00,4.829244111245852011e-02,1.000000000000000048e-04,3.708187066800375220e+01,1.799999999999999933e-01
1.122946417999999946e+00,-7.871106610000000448e-01,1.309884024894420948e-02,1.000000000000000048e-04,3.370351943458999244e+01,1.499999999999999944e-01
1.038511049000000019e+00,-6.836743480000000428e-01,3.350801890953609280e-02,1.000000000000000048e-04,3.589862138131420011e+01,1.499999999999999944e-01
-1.865548755179585960e+00,5.988235499999999822e-01,4.878518096144988242e-02,1.000000000000000048e-04,3.634013107859968983e+01,3.599999999999999867e-01
-1.208774007179585830e+00,1.086301519000000049e+00,1.377331388769055531e-02,1.000000000000000048e-04,3.437797743333485556e+01,3.900000000000000133e-01
-1.451351928179586359e+00,1.047303024999999943e+00,3.265134660459601684e-02,1.000000000000000048e-04,3.634694831740824128e+01,3.900000000000000133e-01
-1.863787002179586594e+00,5.986409590000000280e-01,2.334509374836501658e-02,1.000000000000000048e-04,3.500670995724253487e+01,3.099999999999999978e-01
-2.367107747179586053e+00,3.570653329999999848e-01,1.592132038477355252e-02,1.000000000000000048e-04,3.412013741464252092e+01,3.300000000000000155e-01
-1.756700719179586478e+00,1.186865959999999998e+00,3.958772251757307348e-02,1.000000000000000048e-04,3.625929007980802510e+01,4.600000000000000200e-01
3.110012692999999828e+00,-8.816387980000000013e-01,2.280124594541013683e-02,1.000000000000000048e-04,3.439984964994023642e+01,4.000000000000000222e-01
1.208427087000000011e+00,6.391205479999999550e-01,4.536011635941848003e-02,1.000000000000000048e-04,3.664142452765673852e+01,3.200000000000000067e-01
2.195568135999999893e+00,9.530612539999999688e-01,2.744251650258465805e-02,1.000000000000000048e-04,3.582221439378222527e+01,3.200000000000000067e-01
1.005319582999999906e+00,6.711075279999999532e-01,2.353397262461924197e-02,1.000000000000000048e-04,3.595427858598182524e+01,8.100000000000000533e-01
-1.746303855179585973e+00,7.561700099999999480e-01,4.373321605721548766e-02,1.000000000000000048e-04,3.631416272203310314e+01,3.599999999999999867e-01
-4.601474541795864681e-01,1.080353384999999999e+00,9.576905655885275051e-03,1.000000000000000048e-04,3.362652495678580067e+01,4.699999999999999734e-01
-1.809340496179586033e+00,8.561831709999999651e-01,2.761570806357534213e-02,1.000000000000000048e-04,3.515672420981820778e+01,5.600000000000000533e-01
-1.804726732179585902e+00,8.415213710000000180e-01,2.411329528316701401e-02,1.000000000000000048e-04,3.468023803111431391e+01,5.100000000000000089e-01
-1.920735154179586068e+00,8.789503189999999799e-01,1.414142837420334642e-02,1.000000000000000048e-04,3.451017806387298492e+01,4.500000000000000111e-01
-2.443118364179586166e+00,3.912645049999999847e-01,3.710289072284701783e-02,1.000000000000000048e-04,3.605348236290815578e+01,6.400000000000000133e-01
-2.443397905179586438e+00,3.924271049999999983e-01,3.133708176371109710e-02,1.000000000000000048e-04,3.557532794806954968e+01,4.199999999999999845e-01
-1.798694144179585841e+00,8.464773150000000079e-01,1.161044641752063608e-02,1.000000000000000048e-04,3.349910548740975713e+01,6.600000000000000311e-01
-1.799964602179586315e+00,8.443478660000000025e-01,3.891330495143726503e-02,1.000000000000000048e-04,3.569510696357722423e+01,6.099999999999999867e-01
-1.805111234179586077e+00,8.421560940000000217e-01,4.752141544444873217e-02,1.000000000000000048e-04,3.620175283008946110e+01,5.100000000000000089e-01
-2.442430271179586221e+00,3.917367079999999890e-01,1.593155210733910102e-02,1.000000000000000048e-04,3.407634278755723045e+01,9.200000000000000400e-01
-2.432135523179586034e+00,3.856870689999999935e-01,4.754568388847334182e-02,1.000000000000000048e-04,3.624950134966230308e+01,4.500000000000000111e-01
-2.443115938179586166e+00,3.817974199999999985e-01,2.761542143622922052e-02,1.000000000000000048e-04,3.646017825614290331e+01,1.010000000000000009e+00
-2.507217827179586411e+00,2.806706330000000027e-01,9.813148397621578728e-03,1.000000000000000048e-04,3.350387020364480151e+01,7.199999999999999734e-01
-2.751331907179586089e+00,-4.573921380000000037e-01,2.908091989918480669e-02,1.000000000000000048e-04,3.644390494803345604e+01,4.299999999999999933e-01
-2.751204501179586259e+00,-4.575163139999999795e-01,2.994365482677022183e-02,1.000000000000000048e-04,3.575678699417313311e+01,5.100000000000000089e-01
-2.751948792179586434e+00,-4.626465410000000222e-01,3.978883136007831112e-02,1.000000000000000048e-04,3.669846872009139815e+01,9.000000000000000222e-01
-2.714588277179586395e+00,-4.966179359999999821e-01,3.342439660895376446e-02,1.000000000000000048e-04,3.571091052511366826e+01,5.200000000000000178e-01
-4.484873401795859138e-01,1.078759022000000067e+00,3.743030004196722105e-02,1.000000000000000048e-04,3.618889962286495177e+01,4.600000000000000200e-01
1.900693019999999955e-01,8.157953839999999568e-01,4.910937958993393665e-02,1.000000000000000048e-04,3.677688949068306812e+01,5.899999999999999689e-01
-1.022766420179586078e+00,1.083744478000000067e+00,4.396880792997769072e-02,1.000000000000000048e-04,3.604411563303641231e+01,6.300000000000000044e-01
-4.695071691795860147e-01,1.083533926999999952e+00,1.916796456214727926e-02,1.000000000000000048e-04,3.414977297492900732e+01,4.400000000000000022e-01
-2.430196729179586068e+00,3.866488559999999852e-01,4.383397659639386851e-02,1.000000000000000048e-04,3.679648866729780110e+01,4.500000000000000111e-01
-1.912154461179586207e+00,8.727908680000000530e-01,3.263125958456238040e-02,1.000000000000000048e-04,3.534320246703900636e+01,4.699999999999999734e-01
-2.513608092179586251e+00,4.011275939999999762e-01,4.272034191397645897e-02,1.000000000000000048e-04,3.627884782240937511e+01,4.699999999999999734e-01
-2.755728471179586414e+00,-5.498326249999999638e-01,3.397340901286152043e-02,1.000000000000000048e-04,3.613547460011769630e+01,5.100000000000000089e-01
3.086866033999999814e+00,-8.456466849999999535e-01,2.079967726248647952e-02,1.000000000000000048e-04,3.537523284058719497e+01,5.200000000000000178e-01
2.898135272999999845e+00,-9.408617099999999622e-01,1.928877084486196880e-02,1.000000000000000048e-04,3.438132745372548271e+01,5.600000000000000533e-01
2.887933338999999933e+00,-9.438168839999999671e-01,3.326301984489737906e-02,1.000000000000000048e-04,3.550793822439637637e+01,4.799999999999999822e-01
2.256176956000000011e+00,-1.014735844999999914e+00,1.867063632494324332e-02,1.000000000000000048e-04,3.374593847338919517e+01,5.000000000000000000e-01
2.229698910000000200e+00,-1.018180813999999934e+00,4.048011563152948550e-02,1.000000000000000048e-04,3.692516563345351699e+01,6.400000000000000133e-01
2.227960753000000071e+00,-1.020489782000000067e+00,1.274373042245811188e-02,1.000000000000000048e-04,3.376973217354749579e+01,5.999999999999999778e-01
1.978102527999999971e+00,-9.529058719999999871e-01,1.561587704711413574e-02,1.000000000000000048e-04,3.411751568332775264e+01,5.200000000000000178e-01
2.842930618000000020e+00,9.211371910000000218e-01,9.155328530876116408e-03,1.000000000000000048e-04,3.345982677893455559e+01,4.899999999999999911e-01
2.611089279999999846e+00,9.227226889999999848e-01,1.450571708986276784e-02,1.000000000000000048e-04,3.347247771030031771e+01,4.899999999999999911e-01
-2.613733020179586308e+00,3.020363409999999860e-01,3.990399132327351883e-02,1.000000000000000048e-04,3.617004465419692849e+01,2.399999999999999911e-01
3.080075141000000016e+00,6.813462000000000129e-01,1.755451847218096953e-02,1.000000000000000048e-04,3.428999407067490779e+01,2.999999999999999889e-01
-2.614795632179586438e+00,3.100862600000000024e-01,4.602188356486048432e-02,1.000000000000000048e-04,3.700829907332300905e+01,7.099999999999999645e-01
3.084152930000000126e+00,6.750201959999999612e-01,2.417231884164366268e-02,1.000000000000000048e-04,3.506206355405122821e+01,2.399999999999999911e-01
-2.831540824179586302e+00,-5.193198470000000011e-01,4.241097518931338795e-02,1.000000000000000048e-04,3.595707257349963015e+01,2.899999999999999800e-01
2.921667255000000019e+00,-9.403574120000000036e-01,2.852903809894211801e-02,1.000000000000000048e-04,3.579062518998863140e+01,2.899999999999999800e-01
2.914679634000000075e+00,-9.413881210000000221e-01,2.492858620395096633e-02,1.000000000000000048e-04,3.633739545640167989e+01,7.299999999999999822e-01
2.905880500999999949e+00,-9.458600109999999450e-01,3.394586620179757680e-02,1.000000000000000048e-04,3.606785027172324476e+01,4.299999999999999933e-01
2.610543199999999953e+00,9.294079060000000059e-01,3.186942171297432735e-02,1.000000000000000048e-04,3.542782970957203759e+01,2.899999999999999800e-01
2.614058957000000127e+00,9.310355519999999885e-01,6.570373135586839511e-03,1.000000000000000048e-04,3.231810004233659583e+01,3.699999999999999956e-01
-2.614313936179586406e+00,3.105085300000000048e-01,1.583083929098321255e-02,1.000000000000000048e-04,3.376881431992546112e+01,2.300000000000000100e-01
-2.614275993179586255e+00,3.084493819999999942e-01,3.154793805799756268e-02,1.000000000000000048e-04,3.555513920800962069e+01,2.000000000000000111e-01
3.080236718000000096e+00,6.852664600000000217e-01,3.934190626667089657e-02,1.000000000000000048e-04,3.649928274148009422e+01,3.800000000000000044e-01
3.085135451000000195e+00,6.840520260000000352e-01,4.525598941688632054e-02,1.000000000000000048e-04,3.653455022549184150e+01,2.300000000000000100e-01
-2.608333968179586293e+00,3.075313129999999728e-01,3.351852182768189081e-02,1.000000000000000048e-04,3.611852623223847303e+01,5.799999999999999600e-01
-2.828421734179586089e+00,-5.202039349999999507e-01,3.503503750814278284e-02,1.000000000000000048e-04,3.636735585883643296e+01,5.200000000000000178e-01
-2.829361723179586452e+00,-5.190188390000000096e-01,2.360186012347411516e-02,1.000000000000000048e-04,3.523210120421197900e+01,3.900000000000000133e-01
-2.833706243179586082e+00,-5.260186759999999628e-01,2.995823370112572423e-02,1.000000000000000048e-04,3.581288354486508041e+01,2.200000000000000011e-01
1.286414458000000094e+00,-9.076167339999999806e-01,4.282103394873253144e-02,1.000000000000000048e-04,3.647298647194847376e+01,2.399999999999999911e-01
2.295144749999999956e+00,-1.095028292000000070e+00,3.683711217120859416e-02,1.000000000000000048e-04,3.619439197021169008e+01,2.000000000000000111e-01
2.312115046000000174e+00,-1.091482969000000081e+00,4.511916643009965949e-03,1.000000000000000048e-04,3.119524377914074265e+01,1.900000000000000022e-01
2.535381049000000164e+00,-1.063602453999999975e+00,2.162618195639631410e-02,1.000000000000000048e-04,3.533466039585417917e+01,2.600000000000000089e-01
2.549902755000000187e+00,-1.059649137999999935e+00,4.821027595428704036e-03,1.000000000000000048e-04,3.135839050666385575e+01,1.900000000000000022e-01
-2.980466121795863899e-01,1.081935794000000062e+00,4.913676090041487615e-02,1.000000000000000048e-04,3.680099343345579399e+01,1.000000000000000056e-01
-4.562223411795862660e-01,1.078420874000000085e+00,1.496083625700161610e-02,1.000000000000000048e-04,3.422245889685417097e+01,1.400000000000000133e-01
-4.727696341795866175e-01,1.076427226000000070e+00,1.576381358146895784e-02,1.000000000000000048e-04,3.394897610032823820e+01,1.900000000000000022e-01
-4.909850281795860028e-01,1.086050390999999893e+00,5.234155477417036344e-03,1.000000000000000048e-04,3.178513435350936334e+01,1.499999999999999944e-01
-1.809890014179586615e+00,8.554848849999999727e-01,6.344690315303388485e-03,1.000000000000000048e-04,3.197253177423294090e+01,1.900000000000000022e-01
-1.804843805179586091e+00,8.509932909999999850e-01,1.032694257077808667e-02,1.000000000000000048e-04,3.331674892963923185e+01,1.700000000000000122e-01
-1.798315402179586187e+00,8.389159160000000393e-01,3.512458078862441130e-02,1.000000000000000048e-04,3.598854732371347609e+01,1.100000000000000006e-01
-1.820018681179586650e+00,8.404092629999999620e-01,4.342205709735073166e-02,1.000000000000000048e-04,3.659523868043854122e+01,2.000000000000000111e-01
-2.435936564179586039e+00,3.767214549999999829e-01,1.127800306154513182e-02,1.000000000000000048e-04,3.329928071066053263e+01,1.700000000000000122e-01
-2.738532057179586143e+00,-4.670391260000000266e-01,4.088971586634875671e-02,1.000000000000000048e-04,3.643502597489729311e+01,1.100000000000000006e-01
-2.750126147179586145e+00,-4.750163370000000107e-01,4.339382060194103309e-03,1.000000000000000048e-04,3.137353635120548390e+01,1.700000000000000122e-01
6.777063359999999648e-01,-9.284162910000000046e-01,4.854333736032951513e-02,1.000000000000000048e-04,3.704356422977805607e+01,1.600000000000000033e-01
6.755664329999999662e-01,-9.242990760000000527e-01,3.877660160636271086e-02,1.000000000000000048e-04,3.614951649393069744e+01,2.200000000000000011e-01
1.666277256000000095e+00,1.035703752000000089e+00,1.091686578185329173e-02,1.000000000000000048e-04,3.338474469087706353e+01,2.800000000000000266e-01
1.679531192000000006e+00,1.034147155999999956e+00,3.292924253973681520e-02,1.000000000000000048e-04,3.583059194311601914e+01,2.099999999999999922e-01
1.669961188000000041e+00,1.045784459000000055e+00,3.899301629536057467e-02,1.000000000000000048e-04,3.609675146922464251e+01,2.899999999999999800e-01
1.666612017000000057e+00,1.035903760999999923e+00,9.211635720389741919e-03,1.000000000000000048e-04,3.298289302133124323e+01,1.400000000000000133e-01
1.676630470000000095e+00,1.049302589999999924e+00,2.168543884228647800e-02,1.000000000000000048e-04,3.506640253727251633e+01,1.600000000000000033e-01
1.678871634000000057e+00,1.037439988999999896e+00,9.099478787809055225e-03,1.000000000000000048e-04,3.322239461994215048e+01,2.099999999999999922e-01
-2.159653925179585876e+00,7.341517600000000421e-01,6.591157330042268087e-03,1.000000000000000048e-04,3.215226985015412708e+01,2.600000000000000089e-01
-2.155609593179586447e+00,7.327229189999999726e-01,3.741564511347394983e-02,1.000000000000000048e-04,3.587401679470836768e+01,1.400000000000000133e-01
2.989279821999999864e+00,-1.014333855000000062e+00,4.765536125759546604e-02,1.000000000000000048e-04,3.680888518395220643e+01,1.600000000000000033e-01
6.962963009999999509e-01,-9.242906640000000396e-01,3.899266816037543631e-02,1.000000000000000048e-04,3.613970878584371604e+01,2.000000000000000111e-01
6.831622830000000368e-01,-9.295060950000000322e-01,4.242987335680693806e-02,1.000000000000000048e-04,3.659801181864386876e+01,2.099999999999999922e-01
6.813526220000000189e-01,-9.196739680000000083e-01,2.345204409151198377e-02,1.000000000000000048e-04,3.505554798844828213e+01,1.700000000000000122e-01
1.667475545999999920e+00,1.039138789999999979e+00,1.015355825802825331e-02,1.000000000000000048e-04,3.322880640147948128e+01,1.499999999999999944e-01
1.669072946000000002e+00,1.039627206000000026e+00,3.306735830397234538e-02,1.000000000000000048e-04,3.576667664903970234e+01,1.700000000000000122e-01
2.992464221000000091e+00,-1.009427984000000000e+00,3.757065801705915947e-02,1.000000000000000048e-04,3.627404472472319696e+01,1.400000000000000133e-01
3.013377762000000182e+00,-1.015725085999999999e+00,3.193233681589462136e-02,1.000000000000000048e-04,3.565006125570043594e+01,1.499999999999999944e-01
6.857830799999999893e-01,-9.290922369999999875e-01,1.959615288221035895e-02,1.000000000000000048e-04,3.470835522629909065e+01,3.400000000000000244e-01
6.874880420000000214e-01,-9.251381180000000093e-01,4.725202507237505345e-02,1.000000000000000048e-04,3.676958506860395914e+01,1.700000000000000122e-01
1.659686511000000086e+00,1.040101345999999927e+00,4.951452656196807939e-02,1.000000000000000048e-04,3.671688397956666705e+01,1.400000000000000133e-01
1.673757463999999917e+00,1.042554473000000037e+00,2.185323152499685576e-02,1.000000000000000048e-04,3.483750256379562416e+01,4.299999999999999933e-01
1.692629780999999944e+00,1.043637506000000048e+00,1.768723455075324469e-02,1.000000000000000048e-04,3.433987905074948088e+01,1.799999999999999933e-01
1.682450028999999958e+00,1.049226146999999942e+00,4.820185603850699746e-02,1.000000000000000048e-04,3.679937499368138276e+01,1.900000000000000022e-01
1.675255906999999933e+00,1.048468626000000015e+00,4.864876536595132139e-02,1.000000000000000048e-04,3.678758772760296125e+01,1.499999999999999944e-01
1.692145135000000078e+00,1.039981480000000014e+00,3.708168194916363399e-03,1.000000000000000048e-04,3.111306085663316168e+01,1.700000000000000122e-01
-2.139768073179586061e+00,7.360294179999999908e-01,6.338819926988113751e-03,1.000000000000000048e-04,3.227564363236599121e+01,1.600000000000000033e-01
-2.138731675179585956e+00,7.369836659999999817e-01,2.334803059397948244e-02,1.000000000000000048e-04,3.484439301067951789e+01,1.499999999999999944e-01
6.888283630000000546e-01,-9.193630990000000169e-01,4.659970224464409123e-03,1.000000000000000048e-04,3.163999885598745010e+01,1.700000000000000122e-01
6.776433490000000059e-01,-9.225326109999999469e-01,3.946288757350185916e-02,1.000000000000000048e-04,3.562445636312637731e+01,1.600000000000000033e-01
6.820513620000000499e-01,-9.162569579999999547e-01,2.057490517068847474e-02,1.000000000000000048e-04,3.473175464716714345e+01,2.899999999999999800e-01
6.832637360000000104e-01,-9.208365670000000502e-01,9.735525863232003321e-03,1.000000000000000048e-04,3.321879367155197116e+01,1.400000000000000133e-01
1.683256381999999940e+00,1.050427892999999946e+00,9.417600734101007343e-03,1.000000000000000048e-04,3.317698009748585974e+01,1.499999999999999944e-01
2.987248335999999949e+00,-1.011507587000000097e+00,1.367124723864763039e-02,1.000000000000000048e-04,3.405465498018137538e+01,1.900000000000000022e-01
2.994879214000000012e+00,-1.020537374999999969e+00,4.303360556905912876e-02,1.000000000000000048e-04,3.584672633702323452e+01,2.500000000000000000e-01
2.997056848999999801e+00,-1.020797841000000039e+00,4.356125766911012748e-02,1.000000000000000048e-04,3.648965161417362424e+01,1.499999999999999944e-01
6.981827720000000070e-01,-9.201470600000000166e-01,6.573739115558186602e-03,1.000000000000000048e-04,3.249582689337599817e+01,2.099999999999999922e-01
1.675679171999999939e+00,1.042232051000000048e+00,2.830385357294521592e-02,1.000000000000000048e-04,3.530355053222126571e+01,1.900000000000000022e-01
1.682732345000000018e+00,1.051774148000000020e+00,3.933476187878297281e-02,1.000000000000000048e-04,3.617046683688050734e+01,2.099999999999999922e-01
1.655763980999999996e+00,1.041789395999999979e+00,4.128908919568975017e-02,1.000000000000000048e-04,3.659223029460191867e+01,2.099999999999999922e-01
1.658505131999999938e+00,1.042043577999999915e+00,4.223283603461606625e-03,1.000000000000000048e-04,3.156851387229622929e+01,1.499999999999999944e-01
1.679931540999999973e+00,1.044700675999999939e+00,3.643551898233823860e-02,1.000000000000000048e-04,3.631885826467568990e+01,1.400000000000000133e-01
1.681131209999999987e+00,1.046558263000000100e+00,3.908120452280560569e-02,1.000000000000000048e-04,3.638862778204521931e+01,3.800000000000000044e-01
-2.147380102179586636e+00,7.248191320000000326e-01,1.340048863902154261e-02,1.000000000000000048e-04,3.374827261615234164e+01,2.200000000000000011e-01
-2.137481690179586558e+00,7.386978770000000027e-01,5.470680957863763468e-03,1.000000000000000048e-04,3.167333432702926999e+01,1.499999999999999944e-01
3.007533192999999994e+00,-1.006434849999999992e+00,1.339624415821500866e-02,1.000000000000000048e-04,3.385333248837532949e+01,1.700000000000000122e-01
6.766177190000000063e-01,-9.309161569999999664e-01,3.022422830414528763e-02,1.000000000000000048e-04,3.574351434970028407e+01,1.700000000000000122e-01
6.879719020000000240e-01,-9.170357009999999809e-01,3.960346302304403737e-02,1.000000000000000048e-04,3.619591261722498388e+01,2.600000000000000089e-01
6.868192690000000100e-01,-9.190749710000000183e-01,9.116901636186480404e-03,1.000000000000000048e-04,3.275321807968945365e+01,2.800000000000000266e-01
1.680927606000000019e+00,1.043199457999999913e+00,1.610018941102071485e-02,1.000000000000000048e-04,3.413407091286580197e+01,1.799999999999999933e-01
1.680733408999999901e+00,1.046110547000000057e+00,2.358854835831692212e-02,1.000000000000000048e-04,3.499278876896944013e+01,1.499999999999999944e-01
3.003205794999999956e+00,-1.007960921000000010e+00,4.534252507592451825e-02,1.000000000000000048e-04,3.664720462068211759e+01,2.200000000000000011e-01
3.013387552999999830e+00,-1.018013843000000085e+00,2.641991813937692377e-02,1.000000000000000048e-04,3.541124882843295296e+01,2.000000000000000111e-01
2.991633154000000072e+00,-1.018575491000000000e+00,2.708234351243530777e-02,1.000000000000000048e-04,3.525512549813527130e+01,1.600000000000000033e-01
6.810583510000000063e-01,-9.216344210000000370e-01,3.829770506176201350e-02,1.000000000000000048e-04,3.615702308549638389e+01,1.600000000000000033e-01
1.670069762000000013e+00,1.048284639000000018e+00,1.075663339119016168e-02,1.000000000000000048e-04,3.340779698582306168e+01,2.099999999999999922e-01
1.699713636000000028e+00,1.040243690999999915e+00,1.985999846055908069e-02,1.000000000000000048e-04,3.401727789887787878e+01,2.899999999999999800e-01
1.686195045999999920e+00,1.048540513999999924e+00,4.899102039977060175e-02,1.000000000000000048e-04,3.677790190099035073e+01,1.400000000000000133e-01
1.667162669999999958e+00,1.044746053999999980e+00,3.238315101468630663e-02,1.000000000000000048e-04,3.543523436672149529e+01,2.700000000000000178e-01
1.689467040999999892e+00,1.036330184999999959e+00,2.093365238078760335e-02,1.000000000000000048e-04,3.490417803041192712e+01,1.300000000000000044e-01
1.683799076999999977e+00,1.043385784000000038e+00,3.716785554558843518e-02,1.000000000000000048e-04,3.598329667174889579e+01,1.700000000000000122e-01
-2.151455832179586025e+00,7.398983139999999459e-01,7.380903760230247967e-03,1.000000000000000048e-04,3.250579874818814829e+01,2.500000000000000000e-01
-2.141944958179585967e+00,7.302793560000000461e-01,1.726235651359738291e-02,1.000000000000000048e-04,3.440857544227502274e+01,1.400000000000000133e-01
3.012489310999999947e+00,-1.019874449000000016e+00,2.803174530910333695e-02,1.000000000000000048e-04,3.530629912838964657e+01,1.900000000000000022e-01
6.824463880000000149e-01,-9.193269539999999740e-01,2.292819903067698159e-02,1.000000000000000048e-04,3.520491936347163886e+01,1.600000000000000033e-01
6.933168330000000212e-01,-9.307474239999999899e-01,5.749703855571368198e-03,1.000000000000000048e-04,3.197475245801515698e+01,1.600000000000000033e-01
7.005346909999999871e-01,-9.247541049999999929e-01,1.720120805259230459e-02,1.000000000000000048e-04,3.425191809665581388e+01,2.700000000000000178e-01
1.674988617999999985e+00,1.042237757999999959e+00,4.196783861755316175e-02,1.000000000000000048e-04,3.610922150015750276e+01,1.499999999999999944e-01
1.672026148000000045e+00,1.039374368000000048e+00,1.239219050123411756e-02,1.000000000000000048e-04,3.368492055114469963e+01,1.600000000000000033e-01
2.993618983999999816e+00,-1.008517228000000099e+00,3.011832151073774375e-02,1.000000000000000048e-04,3.581225148666960223e+01,1.700000000000000122e-01
2.992837709999999873e+00,-1.014889098000000045e+00,3.575994881230647182e-02,1.000000000000000048e-04,3.575572169120724908e+01,2.800000000000000266e-01
2.980621672999999916e+00,-1.012535224000000067e+00,9.040401567870132854e-03,1.000000000000000048e-04,3.276870683517257277e+01,1.499999999999999944e-01
3.118379398000000080e+00,-1.044341935000000055e+00,3.756254958537263294e-02,1.000000000000000048e-04,3.601959943801876562e+01,3.099999999999999978e-01
3.132904315000000217e+00,-1.046896950999999909e+00,4.831487990928331339e-02,1.000000000000000048e-04,3.630033698541727460e+01,2.200000000000000011e-01
1.248659997999999938e+00,-1.117162079000000086e+00,6.446271975816545569e-03,1.000000000000000048e-04,3.266997888684304741e+01,2.700000000000000178e-01
2.302446713000000145e+00,-1.091359299000000060e+00,3.097056463138248700e-02,1.000000000000000048e-04,3.564673692097167645e+01,2.899999999999999800e-01
3.133486173000000097e+00,-1.061461677999999909e+00,4.764275551767507139e-02,1.000000000000000048e-04,3.696308403659200081e+01,3.099999999999999978e-01
1.251013366000000016e+00,-1.102704651999999896e+00,3.670623590064533981e-02,1.000000000000000048e-04,3.544248574249692751e+01,2.300000000000000100e-01
1.232341668999999973e+00,-1.105349812000000043e+00,1.899109228194518703e-02,1.000000000000000048e-04,3.435975228685436633e+01,2.200000000000000011e-01
2.330538756999999794e+00,-1.086213730999999960e+00,4.210591542103415963e-02,1.000000000000000048e-04,3.623124828914234996e+01,2.300000000000000100e-01
3.104372880000000112e+00,-1.050765708999999992e+00,3.747680292189960877e-02,1.000000000000000048e-04,3.632343010926365423e+01,2.200000000000000011e-01
3.122794933000000217e+00,-1.050942575000000101e+00,1.551448080282036637e-02,1.000000000000000048e-04,3.414875601304267860e+01,2.099999999999999922e-01
3.135928428000000157e+00,-1.044986675000000087e+00,2.492899801062166409e-02,1.000000000000000048e-04,3.521235954753239383e+01,2.300000000000000100e-01
3.135701593999999925e+00,-1.049448040999999998e+00,4.304301266459573116e-02,1.000000000000000048e-04,3.645803827052858992e+01,2.399999999999999911e-01
2.902190216000000156e+00,-1.054666754000000095e+00,4.922839176066096112e-02,1.000000000000000048e-04,3.647267780816599014e+01,2.099999999999999922e-01
1.219278212000000083e+00,-1.102494101000000004e+00,5.657637406391444884e-03,1.000000000000000048e-04,3.182194002045426018e+01,2.399999999999999911e-01
2.314258420999999899e+00,-1.073777474999999981e+00,1.435360784055231612e-02,1.000000000000000048e-04,3.388592203601835706e+01,2.399999999999999911e-01
3.138600745000000192e+00,-1.056209613999999908e+00,2.144869973373264224e-02,1.000000000000000048e-04,3.479861236373907474e+01,2.800000000000000266e-01
2.873014373000000177e+00,-1.047336534999999902e+00,1.663268446399858783e-02,1.000000000000000048e-04,3.437533163199464781e+01,2.000000000000000111e-01
2.890150627000000139e+00,-1.045368942999999939e+00,4.446083375744804000e-02,1.000000000000000048e-04,3.651768742513755228e+01,2.200000000000000011e-01
-3.136513490179586139e+00,-1.038988312000000080e+00,9.845280671637968856e-03,1.000000000000000048e-04,3.316547602628350688e+01,2.800000000000000266e-01
3.120369102000000172e+00,-1.042910143999999928e+00,4.557677220995653283e-02,1.000000000000000048e-04,3.614291839476014445e+01,2.399999999999999911e-01
3.132773262000000170e+00,-1.048570620000000009e+00,1.895006008617711526e-02,1.000000000000000048e-04,3.457966647271611293e+01,2.300000000000000100e-01
3.132934141999999866e+00,-1.046888051000000042e+00,3.194778906751222919e-02,1.000000000000000048e-04,3.586506752769037121e+01,2.200000000000000011e-01
3.134455274000000014e+00,-1.046257098000000108e+00,4.460873134585970762e-02,1.000000000000000048e-04,3.646163955828508563e+01,2.200000000000000011e-01
2.910504301000000016e+00,-1.063930792999999930e+00,1.596717350445455222e-02,1.000000000000000048e-04,3.420425802409263838e+01,2.399999999999999911e-01
2.301930878999999930e+00,-1.084305269999999988e+00,2.580661495069001485e-02,1.000000000000000048e-04,3.581758254035902667e+01,3.099999999999999978e-01
2.314913878000000036e+00,-1.104421796000000011e+00,2.801807735260569004e-02,1.000000000000000048e-04,3.520855554166569590e+01,2.600000000000000089e-01
1.232494258000000009e+00,-1.089556776000000005e+00,2.994460054468566987e-02,1.000000000000000048e-04,3.552369656267217835e+01,3.099999999999999978e-01
-3.138875270179586341e+00,-1.027091259999999950e+00,1.185068973676806775e-02,1.000000000000000048e-04,3.273109630775319800e+01,3.800000000000000044e-01
1.277748142000000087e+00,-1.105660628999999950e+00,2.784381966241524994e-02,1.000000000000000048e-04,3.503047307101508778e+01,2.500000000000000000e-01
2.339694710999999927e+00,-1.083680948999999893e+00,9.413086526966780304e-03,1.000000000000000048e-04,3.288853277913289475e+01,2.300000000000000100e-01
3.085408954000000037e+00,-1.045989441999999991e+00,5.776881427031792075e-03,1.000000000000000048e-04,3.185893964104030118e+01,2.800000000000000266e-01
3.122183823999999941e+00,-1.053540683000000033e+00,1.203783897928946758e-02,1.000000000000000048e-04,3.323756362335289083e+01,3.699999999999999956e-01
1.263417701000000060e+00,-1.099941301000000093e+00,2.842066784497194326e-02,1.000000000000000048e-04,3.522640182511202056e+01,2.200000000000000011e-01
1.238769020999999970e+00,-1.122513239999999968e+00,3.943460081227251335e-02,1.000000000000000048e-04,3.561668943254153419e+01,2.600000000000000089e-01
1.225778744000000087e+00,-1.107856694000000086e+00,6.473388896078680066e-03,1.000000000000000048e-04,3.239409107820054601e+01,2.500000000000000000e-01
2.356185176999999964e+00,-1.090954028000000076e+00,4.398278641486911417e-02,1.000000000000000048e-04,3.661958406990918036e+01,2.700000000000000178e-01
1.231078855000000027e+00,-1.109460918999999990e+00,4.950105673877490051e-03,1.000000000000000048e-04,3.167010319040146626e+01,2.300000000000000100e-01
2.350025410999999842e+00,-1.078254897999999962e+00,4.441501180893995399e-02,1.000000000000000048e-04,3.646802818682020586e+01,2.300000000000000100e-01
2.889344674999999807e+00,-1.054064458000000037e+00,3.729737676978860800e-02,1.000000000000000048e-04,3.628689256657459339e+01,3.200000000000000067e-01
1.260972444000000081e+00,-1.102168519999999985e+00,2.592565855426059648e-02,1.000000000000000048e-04,3.531049196670710444e+01,2.899999999999999800e-01
3.138597202000000141e+00,-1.049455424000000026e+00,4.318896982176748806e-02,1.000000000000000048e-04,3.637444899888863148e+01,2.600000000000000089e-01
1.280173519000000093e+00,-1.106045986000000036e+00,4.670141880164213610e-02,1.000000000000000048e-04,3.708502868372735861e+01,2.899999999999999800e-01
3.140421104000000074e+00,-1.048273016000000002e+00,2.294268389073282274e-02,1.000000000000000048e-04,3.508148337376468362e+01,2.700000000000000178e-01
2.887571490000000018e+00,-1.060290981000000077e+00,2.129754335988457911e-02,1.000000000000000048e-04,3.473156897834813606e+01,2.300000000000000100e-01
3.117377486000000086e+00,-1.048849812999999909e+00,2.499943706680209793e-02,1.000000000000000048e-04,3.510181038052619584e+01,2.800000000000000266e-01
3.139331405000000075e+00,-1.045946368000000071e+00,4.798419111654887020e-02,1.000000000000000048e-04,3.651586108837203426e+01,2.300000000000000100e-01
2.901812189000000153e+00,-1.070407117000000019e+00,3.734948850920149360e-02,1.000000000000000048e-04,3.580586647754872587e+01,2.200000000000000011e-01
2.874698792999999863e+00,-1.069280417999999955e+00,4.607143720959624988e-02,1.000000000000000048e-04,3.615373590626487754e+01,2.200000000000000011e-01
3.126790450000000110e+00,-1.053686536000000062e+00,2.140314349336066777e-02,1.000000000000000048e-04,3.496835498479798332e+01,2.099999999999999922e-01
1.253234667999999941e+00,-1.096167120000000050e+00,5.412649490122322347e-03,1.000000000000000048e-04,3.190323485254980795e+01,2.200000000000000011e-01
1.242189800000000011e+00,-1.095888138000000067e+00,2.104875736272338732e-02,1.000000000000000048e-04,3.451564323028384962e+01,2.899999999999999800e-01
2.358704259000000025e+00,-1.096119858000000002e+00,4.277961058154217816e-02,1.000000000000000048e-04,3.620083399970231142e+01,2.099999999999999922e-01
3.090657074000000115e+00,-1.046905049999999893e+00,9.413125301215751611e-03,1.000000000000000048e-04,3.298811506772355528e+01,2.300000000000000100e-01
2.350320292999999783e+00,-1.077642637000000070e+00,9.338154433497803178e-03,1.000000000000000048e-04,3.250249659485380960e+01,3.300000000000000155e-01
3.120911620999999858e+00,-1.047605429999999949e+00,3.654755430622684542e-02,1.000000000000000048e-04,3.605480637133941002e+01,2.899999999999999800e-01
2.310418793000000193e+00,-1.091478047999999923e+00,2.697892958741740163e-02,1.000000000000000048e-04,3.551749307101079012e+01,3.300000000000000155e-01
2.888242410000000149e+00,-1.055260810999999910e+00,3.213289637017920780e-02,1.000000000000000048e-04,3.608046052949773497e+01,2.999999999999999889e-01
2.313880778000000138e+00,-1.089056457000000089e+00,9.114601585748520821e-03,1.000000000000000048e-04,3.254569868714771275e+01,2.600000000000000089e-01
3.096505394999999883e+00,-1.050897790999999915e+00,2.839175661155248290e-02,1.000000000000000048e-04,3.528339263974134354e+01,3.300000000000000155e-01
1.264206060000000020e+00,-1.108314516000000083e+00,4.082136177208389727e-02,1.000000000000000048e-04,3.623863806769380602e+01,2.500000000000000000e-01
2.317080779999999951e+00,-1.080569537999999996e+00,9.829522457798394938e-03,1.000000000000000048e-04,3.288001885138881875e+01,2.399999999999999911e-01
2.308161032000000112e+00,-1.080284865999999955e+00,1.461191844084299904e-02,1.000000000000000048e-04,3.468564501198334682e+01,3.900000000000000133e-01
1.213089824000000094e+00,-1.095999417000000031e+00,2.864259963508070800e-02,1.000000000000000048e-04,3.506526778962556534e+01,2.700000000000000178e-01
3.095344697999999894e+00,-1.044259242999999948e+00,4.165934324387342291e-02,1.000000000000000048e-04,3.619533901002732534e+01,2.200000000000000011e-01
3.093500166000000107e+00,-1.047656949999999920e+00,2.735497631049632963e-02,1.000000000000000048e-04,3.561470288996660827e+01,2.300000000000000100e-01
2.871266652000000086e+00,-1.064917746999999970e+00,1.258956246909516408e-02,1.000000000000000048e-04,3.365848973899764474e+01,2.500000000000000000e-01
2.872879009000000039e+00,-1.076645507999999918e+00,2.917077139788238141e-02,1.000000000000000048e-04,3.605011214395918273e+01,2.099999999999999922e-01
1.241294699000000001e+00,-1.109043570000000090e+00,4.633556446474495355e-02,1.000000000000000048e-04,3.641189556678624228e+01,2.099999999999999922e-01
1.238788393000000099e+00,-1.083197141000000085e+00,5.210841581892784735e-03,1.000000000000000048e-04,3.167483681922552563e+01,2.999999999999999889e-01
-3.140928712179586135e+00,-1.049943351000000025e+00,1.923368353018772500e-02,1.000000000000000048e-04,3.440494196596756638e+01,2.200000000000000011e-01
2.897074545000000168e+00,-1.050668165000000043e+00,9.143818446545100981e-03,1.000000000000000048e-04,3.297590980731103372e+01,2.099999999999999922e-01
3.133488720999999977e+00,-1.053899826000000095e+00,4.117255480110589699e-02,1.000000000000000048e-04,3.632932990637767290e+01,2.300000000000000100e-01
2.854965548000000020e+00,-1.051119023000000041e+00,3.479203577887809290e-02,1.000000000000000048e-04,3.592005580157864131e+01,3.200000000000000067e-01
2.846666281000000076e+00,-1.061494909000000098e+00,4.154664896599083446e-02,1.000000000000000048e-04,3.612448943580203320e+01,2.600000000000000089e-01
1.477625364000000108e+00,-9.892628350000000070e-01,2.215957118673651804e-02,1.000000000000000048e-04,3.498961671584773825e+01,2.000000000000000111e-01
-2.998301261179586064e+00,-5.567642400000000213e-01,2.998619208463184499e-02,1.000000000000000048e-04,3.574026964345848256e+01,1.799999999999999933e-01
2.915910107000000195e+00,-9.248875840000000403e-01,2.280803525915274868e-02,1.000000000000000048e-04,3.503850168307738500e+01,2.999999999999999889e-01
2.904218159000000021e+00,-9.279150130000000107e-01,3.245001658912140957e-02,1.000000000000000048e-04,3.562159511834689596e+01,2.399999999999999911e-01
2.912492748000000020e+00,-9.378063049999999512e-01,4.524434781009980394e-02,1.000000000000000048e-04,3.655644028265288625e+01,4.600000000000000200e-01
2.945746643000000109e+00,-9.241091030000000428e-01,2.604103476011771640e-02,1.000000000000000048e-04,3.481224733236827262e+01,2.300000000000000100e-01
2.195221751000000054e+00,9.567984520000000215e-01,4.157419095051395619e-02,1.000000000000000048e-04,3.662588649470320945e+01,2.200000000000000011e-01
-2.382074272179586227e+00,-9.504311730000000180e-01,4.874361362465175207e-02,1.000000000000000048e-04,3.675381957936119903e+01,2.300000000000000100e-01
2.197803225999999999e+00,9.560313849999999558e-01,2.495173555568405699e-02,1.000000000000000048e-04,3.551831965261737878e+01,2.300000000000000100e-01
-2.380846050179586282e+00,-9.512843520000000552e-01,3.991696371853203917e-02,1.000000000000000048e-04,3.660167345339327483e+01,2.600000000000000089e-01
-2.382960995179586039e+00,-9.501026420000000527e-01,6.293122281734265210e-03,1.000000000000000048e-04,3.201306743023794610e+01,2.099999999999999922e-01
2.192165822000000208e+00,9.554729659999999791e-01,4.368005019240677606e-02,1.000000000000000048e-04,3.649890298972358238e+01,2.899999999999999800e-01
-2.383512939179586176e+00,-9.505219620000000535e-01,3.123069792468755740e-02,1.000000000000000048e-04,3.573632234219886783e+01,2.000000000000000111e-01
2.197044292000000176e+00,9.582492320000000063e-01,4.533709434343510120e-02,1.000000000000000048e-04,3.652261520151763818e+01,2.500000000000000000e-01
2.198013217999999824e+00,9.570721989999999568e-01,4.831081190333188363e-02,1.000000000000000048e-04,3.689233147150049774e+01,2.099999999999999922e-01
2.198391541999999976e+00,9.561199929999999458e-01,3.038195767656419813e-02,1.000000000000000048e-04,3.530982946321520899e+01,2.300000000000000100e-01
2.199218732999999926e+00,9.570277640000000030e-01,4.373302987200825692e-02,1.000000000000000048e-04,3.672047511050205060e+01,2.200000000000000011e-01
2.196667974999999995e+00,9.569524729999999701e-01,1.603392063870792347e-02,1.000000000000000048e-04,3.443745037314389634e+01,2.399999999999999911e-01
2.196400267000000017e+00,9.571105250000000453e-01,2.636001002298203610e-02,1.000000000000000048e-04,3.509305434437787596e+01,2.500000000000000000e-01
2.195980999000000100e+00,9.563170869999999546e-01,1.232565585721170226e-02,1.000000000000000048e-04,3.362751238000539189e+01,2.200000000000000011e-01
2.198886345000000020e+00,9.574225640000000315e-01,3.339158268217604086e-02,1.000000000000000048e-04,3.565795055285545345e+01,3.300000000000000155e-01
-2.382942164179586264e+00,-9.487821469999999646e-01,4.217826596608271333e-02,1.000000000000000048e-04,3.651114027472340240e+01,2.000000000000000111e-01
2.197058621000000045e+00,9.568337070000000333e-01,3.593068746450741452e-02,1.000000000000000048e-04,3.555486865629737991e+01,2.600000000000000089e-01
2.196754174000000059e+00,9.569828230000000380e-01,4.308223936553376432e-02,1.000000000000000048e-04,3.671433327444476191e+01,2.399999999999999911e-01
-2.381905888179586039e+00,-9.494029419999999719e-01,3.330903026356402119e-02,1.000000000000000048e-04,3.523779055281278261e+01,2.399999999999999911e-01
-2.382353656179586388e+00,-9.501919130000000546e-01,9.557609394662174365e-03,1.000000000000000048e-04,3.290940346813589912e+01,2.600000000000000089e-01
-2.385313647179586383e+00,-9.492824659999999914e-01,1.446528868386625505e-02,1.000000000000000048e-04,3.344648326826069251e+01,2.399999999999999911e-01
-2.383308463179586223e+00,-9.502672559999999491e-01,4.458074118201296038e-02,1.000000000000000048e-04,3.636264268378464948e+01,2.000000000000000111e-01
2.194446376000000143e+00,9.548028840000000184e-01,1.481250380007433781e-02,1.000000000000000048e-04,3.452911841820244376e+01,3.699999999999999956e-01
-2.377678389179586294e+00,-9.493284189999999789e-01,2.595146743971023934e-02,1.000000000000000048e-04,3.473505088528069962e+01,3.099999999999999978e-01
2.195048706000000127e+00,9.553664520000000326e-01,6.719737661933993661e-03,1.000000000000000048e-04,3.236706118759749984e+01,2.399999999999999911e-01
2.194988459000000169e+00,9.569281090000000267e-01,3.712311282666516665e-02,1.000000000000000048e-04,3.633725961521862757e+01,2.099999999999999922e-01
2.198773670000000013e+00,9.585742720000000050e-01,1.082045505343362350e-02,1.000000000000000048e-04,3.366366528065933039e+01,2.800000000000000266e-01
2.196007632000000154e+00,9.574002940000000406e-01,1.838655332607482332e-02,1.000000000000000048e-04,3.414055715916735068e+01,2.800000000000000266e-01
2.193610842000000005e+00,9.569156829999999614e-01,9.042346142842756437e-03,1.000000000000000048e-04,3.313099171405075083e+01,2.099999999999999922e-01
2.194846306000000080e+00,9.574700699999999509e-01,2.260305299723667366e-02,1.000000000000000048e-04,3.476764419023295005e+01,2.300000000000000100e-01
8.096471539999999800e-01,9.894972960000000262e-01,4.361848766530170701e-02,1.000000000000000048e-04,3.661375302385901875e+01,9.499999999999999556e-01
-2.901318991795864832e-01,1.086903570000000041e+00,4.442200687473703280e-03,1.000000000000000048e-04,3.118614822406089715e+01,2.000000000000000111e-01
-2.914486071795865385e-01,1.085909494999999891e+00,2.214304000063386374e-02,1.000000000000000048e-04,3.489764257238395828e+01,1.000000000000000056e-01
-2.954610881795858290e-01,1.084462065999999947e+00,1.911439561317903810e-02,1.000000000000000048e-04,3.454313620643694094e+01,1.199999999999999956e-01
-3.403197011795864313e-01,1.090760651000000081e+00,4.591352200733498506e-02,1.000000000000000048e-04,3.656635813546245117e+01,8.999999999999999667e-02
-3.429455761795860980e-01,1.087892671000000089e+00,1.811736728538448221e-02,1.000000000000000048e-04,3.448379052308045800e+01,1.400000000000000133e-01
6.896152909999999636e-01,-9.249195220000000495e-01,4.242339181540592113e-02,1.000000000000000048e-04,3.625289848810926685e+01,2.000000000000000111e-01
9.689134900000000439e-01,1.175295868000000077e+00,2.230657607243922286e-02,1.000000000000000048e-04,3.452633587009999871e+01,4.500000000000000111e-01
1.024453132999999960e+00,1.182715689999999986e+00,2.438952313485564724e-02,1.000000000000000048e-04,3.523261387281156232e+01,1.900000000000000022e-01
1.006083177000000051e+00,1.165244638999999971e+00,3.711538461297708702e-02,1.000000000000000048e-04,3.574707652894939258e+01,1.700000000000000122e-01
9.905969959999999519e-01,1.153001898999999941e+00,3.272313485068348293e-02,1.000000000000000048e-04,3.569130420887655220e+01,3.499999999999999778e-01
2.950210608999999984e+00,-1.015290931000000008e+00,2.725500855943431208e-02,1.000000000000000048e-04,3.518844203045677688e+01,5.000000000000000000e-01
2.950804928999999799e+00,-1.010655210999999998e+00,1.593279833290743921e-02,1.000000000000000048e-04,3.423064882314265134e+01,1.700000000000000122e-01
2.951637304000000128e+00,-1.010683065999999908e+00,3.568843035700485899e-03,1.000000000000000048e-04,3.060825467349813778e+01,1.900000000000000022e-01
-2.349248843179586377e+00,-9.322901449999999590e-01,3.635459784286521751e-02,1.000000000000000048e-04,3.605031452320302066e+01,1.900000000000000022e-01
