-1.598279621179586663e+00,2.779993629999999993e-01,4.832222878171606173e-02,1.000000000000000048e-04,3.679297126369657889e+01,1.700000000000000122e-01
-8.306753881795865269e-01,5.048130450000000158e-01,2.195498377454898134e-02,1.000000000000000048e-04,3.509594021512418038e+01,1.600000000000000033e-01
-1.512887194179586281e+00,3.571169940000000209e-01,1.933146903967247060e-02,1.000000000000000048e-04,3.469587818965482739e+01,1.600000000000000033e-01
-2.094054222179586588e+00,-9.657747650000000350e-01,7.915675534085470783e-03,1.000000000000000048e-04,3.244894454008627349e+01,1.600000000000000033e-01
-1.256550916179586252e+00,-1.037146153999999987e+00,2.492217962883789759e-02,1.000000000000000048e-04,3.519119641908151408e+01,1.900000000000000022e-01
-2.638489419179586015e+00,-8.917870300000000361e-01,2.992930975163218474e-02,1.000000000000000048e-04,3.573217229017338070e+01,1.600000000000000033e-01
-1.710562538179586589e+00,-1.402302595000000096e+00,2.458089444040970073e-02,1.000000000000000048e-04,3.485616229739498806e+01,2.000000000000000111e-01
-2.771840681795865180e-01,-1.115655276000000029e+00,3.877405291161799099e-03,1.000000000000000048e-04,3.092760636131061247e+01,1.700000000000000122e-01
-1.608432286179586335e+00,-6.514894359999999773e-01,6.574669962627647732e-03,1.000000000000000048e-04,3.238521122995633306e+01,1.600000000000000033e-01
-1.490451089179586575e+00,-3.201959389999999850e-01,7.524123456355479196e-03,1.000000000000000048e-04,3.245083924547198961e+01,1.700000000000000122e-01
-1.995144670179586299e+00,-1.040863893000000040e+00,1.055485733490877688e-02,1.000000000000000048e-04,3.353638364888578849e+01,1.799999999999999933e-01
3.095686500000000008e-02,-1.139960520999999893e+00,1.060204855493824053e-02,1.000000000000000048e-04,3.362889287338247613e+01,1.700000000000000122e-01
-2.211919791795864398e-01,-6.717550429999999961e-01,3.215346358141890626e-02,1.000000000000000048e-04,3.564452947106188674e+01,2.200000000000000011e-01
-8.294029241795861651e-01,6.699244909999999553e-01,4.284049799387631974e-02,1.000000000000000048e-04,3.649069897041295008e+01,1.799999999999999933e-01
-4.765590681795863759e-01,-7.328014390000000544e-01,7.756259986027012367e-03,1.000000000000000048e-04,3.263420277566172700e+01,1.600000000000000033e-01
-1.123871723179585835e+00,1.275958498999999913e+00,1.419139247399653705e-02,1.000000000000000048e-04,3.392518732563593886e+01,1.900000000000000022e-01
-5.094723721795864080e-01,-7.371415260000000469e-01,3.340046168835236751e-02,1.000000000000000048e-04,3.569672149568385322e+01,1.600000000000000033e-01
6.571342580000000266e-01,4.949370419999999937e-01,2.366473709199677297e-02,1.000000000000000048e-04,3.511445626234889517e+01,1.700000000000000122e-01
-1.010588552179585875e+00,4.063959939999999826e-01,2.732431920334443473e-02,1.000000000000000048e-04,3.565166319439899212e+01,1.400000000000000133e-01
-5.300352171795861267e-01,-4.198024320000000031e-01,2.110921585260629521e-02,1.000000000000000048e-04,3.482357815852054728e+01,1.499999999999999944e-01
-3.959305511795863097e-01,-4.514385590000000170e-01,3.898233706094140355e-02,1.000000000000000048e-04,3.632961494915540612e+01,1.600000000000000033e-01
-1.302326638179586382e+00,4.891699640000000127e-01,1.519296738057415719e-02,1.000000000000000048e-04,3.422877890981773419e+01,8.999999999999999667e-02
-8.169037861795862554e-01,4.857709299999999897e-01,3.489392075172987467e-02,1.000000000000000048e-04,3.592136460997888747e+01,1.000000000000000056e-01
-1.156602994179586119e+00,7.039336720000000103e-01,2.002169316224615414e-02,1.000000000000000048e-04,3.461975251576746615e+01,1.100000000000000006e-01
2.500120207999999788e+00,-3.403989430000000094e-01,6.129918197532512741e-03,1.000000000000000048e-04,3.234767955513887472e+01,1.100000000000000006e-01
2.397122115999999803e+00,-8.283729720000000407e-01,2.215472683374936774e-02,1.000000000000000048e-04,3.443039478160684297e+01,1.700000000000000122e-01
-4.391142381795862804e-01,9.199097720000000145e-01,1.835663259419361218e-02,1.000000000000000048e-04,3.452978739988127899e+01,2.200000000000000011e-01
-1.356814123179586495e+00,1.335301293999999972e+00,3.847220700450237202e-02,1.000000000000000048e-04,3.630463144462668623e+01,2.600000000000000089e-01
2.612804049999999823e+00,3.003891830000000041e-01,1.080932301848698540e-02,1.000000000000000048e-04,3.333716809528393554e+01,1.700000000000000122e-01
-2.350352662179586272e+00,1.041324629000000002e+00,1.449438745338652371e-02,1.000000000000000048e-04,3.444288878304238466e+01,5.300000000000000266e-01
-1.192441121179586005e+00,1.100105410000000061e+00,3.505803880658746319e-02,1.000000000000000048e-04,3.596130500877217173e+01,1.799999999999999933e-01
-3.012917491179586182e+00,1.485957493999999990e+00,1.459574328093776394e-02,1.000000000000000048e-04,3.414558036588628909e+01,2.200000000000000011e-01
-7.329138461795858817e-01,1.044356909000000000e+00,2.865384294166960222e-02,1.000000000000000048e-04,3.533139402735979928e+01,1.700000000000000122e-01
1.024371087000000013e+00,-9.607604419999999923e-01,1.707243244911817864e-02,1.000000000000000048e-04,3.405797287837665266e+01,1.600000000000000033e-01
2.960998206000000188e+00,-8.548671270000000044e-01,3.240117780029091316e-02,1.000000000000000048e-04,3.573180500235548607e+01,1.900000000000000022e-01
-2.929124628179586409e+00,8.872048380000000511e-01,2.101596196740837530e-02,1.000000000000000048e-04,3.492283556757731589e+01,4.600000000000000200e-01
-3.017579355179586198e+00,-3.780387199999999948e-01,3.478491274516529869e-02,1.000000000000000048e-04,3.602258528174135677e+01,2.399999999999999911e-01
-2.268575282179586594e+00,6.921453520000000470e-01,4.116690575720088896e-02,1.000000000000000048e-04,3.618100845727583703e+01,3.699999999999999956e-01
2.478186394000000181e+00,5.281495040000000474e-01,3.402550421525509655e-02,1.000000000000000048e-04,3.616982386616158607e+01,2.399999999999999911e-01
7.532392530000000530e-01,9.936355940000000109e-01,2.728668827199667510e-02,1.000000000000000048e-04,3.509137408369213063e+01,1.600000000000000033e-01
1.772935874999999939e+00,1.383062164999999899e+00,4.365726030773790095e-02,1.000000000000000048e-04,3.655043645438636446e+01,7.399999999999999911e-01
1.941716173999999961e+00,9.578325640000000529e-01,3.837954674508366887e-02,1.000000000000000048e-04,3.655979868739385097e+01,3.800000000000000044e-01
2.041827891000000061e+00,-8.953703119999999460e-01,4.682713251981063252e-02,1.000000000000000048e-04,3.665824238900039234e+01,1.700000000000000122e-01
2.521229080999999983e+00,-8.544186950000000058e-01,4.709784348118162961e-02,1.000000000000000048e-04,3.629321498423322367e+01,2.000000000000000111e-01
2.745955969000000163e+00,3.136627880000000257e-01,1.277423423267530847e-02,1.000000000000000048e-04,3.374258088621306229e+01,2.099999999999999922e-01
1.738295793999999894e+00,1.134430556000000090e+00,4.722248693415274229e-02,1.000000000000000048e-04,3.639932840722026697e+01,1.799999999999999933e-01
-8.687814521795864664e-01,6.221710379999999541e-01,1.399038377721297660e-02,1.000000000000000048e-04,3.397396404115025348e+01,3.499999999999999778e-01
-1.857013858179586308e+00,3.937075449999999921e-01,3.747644422103535346e-03,1.000000000000000048e-04,3.082165126139694067e+01,2.999999999999999889e-01
-2.894431473179586156e+00,2.701405689999999971e-01,7.619862567727763922e-03,1.000000000000000048e-04,3.272757766027057613e+01,2.300000000000000100e-01
2.213600608000000136e+00,-5.295933369999999973e-01,2.019213781979075500e-02,1.000000000000000048e-04,3.460136509180192377e+01,2.500000000000000000e-01
9.327636729999999599e-01,4.069681829999999834e-01,3.445231048513045652e-02,1.000000000000000048e-04,3.553566185129983523e+01,2.300000000000000100e-01
1.743234563999999986e+00,7.359057650000000450e-01,2.488518404623950644e-02,1.000000000000000048e-04,3.524708167190202346e+01,2.200000000000000011e-01
-2.812965047179586175e+00,5.929882829999999494e-01,3.468378956589167339e-02,1.000000000000000048e-04,3.569225181601333929e+01,2.399999999999999911e-01
-2.977583888179586413e+00,-1.437144969999999966e-01,2.509904805823534590e-02,1.000000000000000048e-04,3.548359180323229367e+01,2.700000000000000178e-01
2.276564226000000080e+00,-5.051809499999999620e-01,2.207353237104689447e-02,1.000000000000000048e-04,3.525495100047491803e+01,2.800000000000000266e-01
2.667465888000000174e+00,-6.260506340000000502e-01,4.159276521197174947e-02,1.000000000000000048e-04,3.637441355588750724e+01,2.600000000000000089e-01
1.041358068000000081e+00,8.506585119999999778e-01,4.750330932241789844e-02,1.000000000000000048e-04,3.629382883174109509e+01,2.300000000000000100e-01
2.499030525999999863e+00,-9.629979760000000333e-01,1.873859233685862269e-02,1.000000000000000048e-04,3.470970294457858074e+01,3.099999999999999978e-01
1.334501084000000004e+00,-7.340646360000000481e-01,1.835600077372091798e-02,1.000000000000000048e-04,3.449950879668077874e+01,2.300000000000000100e-01
2.196979751999999841e+00,-5.334639439999999677e-01,1.170547042121095407e-02,1.000000000000000048e-04,3.323451547613686330e+01,2.500000000000000000e-01
1.355624495999999901e+00,4.654212710000000253e-01,4.618268139070234521e-03,1.000000000000000048e-04,3.166834715855921800e+01,2.200000000000000011e-01
1.445572062999999963e+00,-8.838676049999999451e-01,7.738192718829582303e-03,1.000000000000000048e-04,3.209800353402419404e+01,3.499999999999999778e-01
7.246286520000000397e-01,-7.843460709999999780e-01,3.375652576646164665e-02,1.000000000000000048e-04,3.586479892838789851e+01,3.099999999999999978e-01
2.179180484000000195e+00,1.312341798999999920e+00,4.478534160395102048e-02,1.000000000000000048e-04,3.641412703905941584e+01,2.200000000000000011e-01
7.669035910000000511e-01,2.329377750000000136e-01,3.164798656560126322e-02,1.000000000000000048e-04,3.576518515639472895e+01,2.500000000000000000e-01
1.528220198000000085e+00,-6.827860190000000218e-01,4.234007891116248895e-02,1.000000000000000048e-04,3.620729479200062428e+01,4.199999999999999845e-01
2.984436029999999906e+00,4.410184999999999800e-01,2.015502182018600111e-02,1.000000000000000048e-04,3.447579625077631960e+01,2.999999999999999889e-01
1.808380389999999949e+00,-5.931087419999999666e-01,3.153916882290050405e-02,1.000000000000000048e-04,3.593800498661087062e+01,2.200000000000000011e-01
2.378694356000000010e+00,6.891218140000000547e-01,4.233325987295068205e-03,1.000000000000000048e-04,3.117270379499486310e+01,3.099999999999999978e-01
-1.027171309179585990e+00,8.938185499999999895e-01,4.147414438115183677e-02,1.000000000000000048e-04,3.651802581063051889e+01,3.099999999999999978e-01
2.177629786999999872e+00,1.088514723000000073e+00,2.247302420000989870e-02,1.000000000000000048e-04,3.468849668573313494e+01,2.500000000000000000e-01
2.446904437000000154e+00,4.505237189999999892e-01,4.650895294752546011e-02,1.000000000000000048e-04,3.673963244413516804e+01,2.700000000000000178e-01
-2.745075452179586151e+00,5.290477460000000409e-01,1.730942017067106653e-02,1.000000000000000048e-04,3.479386964342058519e+01,1.600000000000000033e-01
3.470126559999999749e-01,6.971221490000000243e-01,3.737320971509775977e-03,1.000000000000000048e-04,3.081444749019089357e+01,2.399999999999999911e-01
-2.027672372179586624e+00,-3.494576850000000179e-01,4.055657428077176496e-02,1.000000000000000048e-04,3.627298544450713536e+01,8.999999999999999667e-02
-2.243457714179585949e+00,5.735296930000000071e-01,2.758904943083145128e-02,1.000000000000000048e-04,3.555919467613027507e+01,8.000000000000000167e-02
-1.741234469179586242e+00,8.281857209999999858e-01,4.603529439706409432e-02,1.000000000000000048e-04,3.672455922408936146e+01,1.000000000000000056e-01
-1.661352162179586145e+00,7.473004210000000480e-01,4.317469535254037788e-02,1.000000000000000048e-04,3.672886256040699493e+01,1.100000000000000006e-01
-1.046494641179585905e+00,9.839422859999999993e-01,1.904122829082148180e-02,1.000000000000000048e-04,3.435496628782961892e+01,1.600000000000000033e-01
-1.357076630179586019e+00,8.591991679999999576e-01,3.199658396161837726e-02,1.000000000000000048e-04,3.549276672893166307e+01,1.300000000000000044e-01
-1.489161381179585852e+00,8.733460579999999807e-01,2.309829171770678286e-02,1.000000000000000048e-04,3.497250781219999283e+01,8.999999999999999667e-02
2.602874990000000111e+00,9.865781270000000269e-01,2.482897234129375144e-02,1.000000000000000048e-04,3.546762244670978248e+01,2.099999999999999922e-01
6.278667869999999818e-01,1.201237362999999947e+00,4.229562475967797719e-02,1.000000000000000048e-04,3.704631282318857188e+01,1.799999999999999933e-01
1.901542252999999905e+00,5.984822429999999693e-01,8.401711625363073033e-03,1.000000000000000048e-04,3.282275857845213096e+01,1.700000000000000122e-01
9.102462569999999475e-01,3.833152009999999943e-01,1.099902927587729368e-02,1.000000000000000048e-04,3.315488724497963346e+01,2.200000000000000011e-01
4.621894529999999723e-01,4.355896570000000190e-01,1.009349435842189779e-02,1.000000000000000048e-04,3.278720849343754651e+01,2.399999999999999911e-01
1.731299603999999936e+00,-9.087058740000000245e-01,4.553357938549228157e-02,1.000000000000000048e-04,3.637876200139588434e+01,2.200000000000000011e-01
2.307708166999999921e+00,-3.555306579999999994e-01,4.685841993752647150e-02,1.000000000000000048e-04,3.665385309494556765e+01,1.700000000000000122e-01
2.284880370000000216e+00,-4.942566800000000038e-01,1.326735845601766453e-02,1.000000000000000048e-04,3.381689711513183738e+01,2.200000000000000011e-01
-2.729734007179586364e+00,-4.808223520000000084e-01,2.010026846831113392e-02,1.000000000000000048e-04,3.466315805748673284e+01,2.300000000000000100e-01
-2.728058296179586062e+00,8.181749999999999856e-01,2.469795418132111203e-02,1.000000000000000048e-04,3.501544171096811198e+01,2.200000000000000011e-01
1.539636916000000078e+00,-6.652033799999999830e-02,2.334023093028669837e-02,1.000000000000000048e-04,3.479595702209291375e+01,2.999999999999999889e-01
2.937620158000000092e+00,7.383732379999999873e-01,2.301414057076482320e-02,1.000000000000000048e-04,3.459507295830277229e+01,2.200000000000000011e-01
2.624384770999999894e+00,8.339422930000000012e-01,2.269455331129389269e-02,1.000000000000000048e-04,3.525719591424724797e+01,1.799999999999999933e-01
-2.594453966179586235e+00,1.052220571999999965e+00,4.625331281454482871e-03,1.000000000000000048e-04,3.114965398699844457e+01,1.900000000000000022e-01
-2.462277587179586114e+00,1.356652656000000068e+00,3.278881438718544983e-02,1.000000000000000048e-04,3.579516157688778577e+01,2.099999999999999922e-01
2.730654787000000194e+00,8.741146779999999783e-01,3.964685336815467614e-02,1.000000000000000048e-04,3.598605391859244662e+01,1.900000000000000022e-01
-2.564984794179586025e+00,9.572418230000000472e-01,1.799742772890128989e-02,1.000000000000000048e-04,3.420250610834203542e+01,4.400000000000000022e-01
1.629450376000000089e+00,2.068732899999999875e-01,1.786087705624109928e-02,1.000000000000000048e-04,3.417886732088549451e+01,2.899999999999999800e-01
1.142160569999999958e-01,6.858846720000000285e-01,2.143942591528655295e-02,1.000000000000000048e-04,3.518423067153200634e+01,1.799999999999999933e-01
-4.383495451795864639e-01,9.198101690000000108e-01,1.198223222320050560e-02,1.000000000000000048e-04,3.352281404257389852e+01,2.600000000000000089e-01
1.001193188000000012e+00,8.013430529999999719e-01,3.746328986194202154e-02,1.000000000000000048e-04,3.596728611761029271e+01,1.799999999999999933e-01
-8.746654461795859703e-01,7.515327899999999506e-01,1.483504790338593948e-02,1.000000000000000048e-04,3.409866307825178922e+01,2.600000000000000089e-01
1.319662558000000097e+00,1.070340469999999933e-01,3.476475675353452033e-02,1.000000000000000048e-04,3.571439526595063541e+01,2.399999999999999911e-01
1.726021762000000015e+00,-6.377623550000000030e-01,3.947481320747491668e-02,1.000000000000000048e-04,3.647352168378163384e+01,2.600000000000000089e-01
-2.754219137179586330e+00,-9.277945709999999568e-01,3.782930004269725865e-02,1.000000000000000048e-04,3.595415781198997252e+01,3.699999999999999956e-01
1.691977534999999921e+00,1.434503057999999998e+00,4.393802472175321883e-03,1.000000000000000048e-04,3.129491857666372212e+01,2.099999999999999922e-01
8.272144390000000236e-01,-4.428667319999999852e-01,3.355413078154959039e-02,1.000000000000000048e-04,3.591088417605593008e+01,2.300000000000000100e-01
-2.185785446179585811e+00,4.040310730000000183e-01,4.570733838452596676e-02,1.000000000000000048e-04,3.608909875484223306e+01,1.799999999999999933e-01
2.680919170000000129e+00,5.929394510000000063e-01,1.108192507758995644e-02,1.000000000000000048e-04,3.357878190014194075e+01,1.799999999999999933e-01
2.468528393999999793e+00,-3.885411739999999892e-01,4.291509963454540749e-02,1.000000000000000048e-04,3.626809302583139072e+01,1.700000000000000122e-01
1.824819092000000031e+00,-9.187566499999999525e-01,1.810466719989437673e-02,1.000000000000000048e-04,3.449752309522089178e+01,2.099999999999999922e-01
2.252174823999999909e+00,-3.842870769999999769e-01,3.356637400039097496e-02,1.000000000000000048e-04,3.620576698628467938e+01,2.000000000000000111e-01
2.889947965000000174e+00,3.184077100000000105e-01,2.728667958687849490e-02,1.000000000000000048e-04,3.549451350645627912e+01,2.000000000000000111e-01
-2.125870880179586031e+00,7.967372299999999630e-01,1.788923432763002072e-02,1.000000000000000048e-04,3.397470146746814379e+01,4.400000000000000022e-01
-2.666621499179586241e+00,1.790417820000000104e-01,3.618795500701217638e-03,1.000000000000000048e-04,3.129225193826955120e+01,1.900000000000000022e-01
2.353249148999999818e+00,9.653535600000000549e-01,3.197172537376603840e-02,1.000000000000000048e-04,3.548709702010323497e+01,1.799999999999999933e-01
1.765869402999999949e+00,9.288119630000000182e-01,3.514180299664045742e-02,1.000000000000000048e-04,3.600783588585047568e+01,3.599999999999999867e-01
1.162949336999999916e+00,5.157872650000000503e-01,2.558216063768035259e-02,1.000000000000000048e-04,3.523530416480791416e+01,4.099999999999999756e-01
2.011122450999999867e+00,-1.257182417000000108e+00,4.195298522769929511e-02,1.000000000000000048e-04,3.639001644095154830e+01,1.799999999999999933e-01
1.931340567999999980e+00,-5.991437729999999906e-01,5.732860060527270041e-03,1.000000000000000048e-04,3.175740785090891904e+01,2.000000000000000111e-01
2.835991935000000019e+00,-7.109363199999999550e-01,1.809950620185734813e-02,1.000000000000000048e-04,3.466026255425079228e+01,1.900000000000000022e-01
-2.852520529179586095e+00,8.667541789999999580e-01,1.530741139627508907e-02,1.000000000000000048e-04,3.373021802215631482e+01,1.799999999999999933e-01
-2.458251249179586040e+00,-2.796002539999999925e-01,1.387284093871008275e-02,1.000000000000000048e-04,3.377484778550018518e+01,3.300000000000000155e-01
1.596378985000000084e+00,5.944120290000000084e-01,1.791372065631290783e-02,1.000000000000000048e-04,3.385375220022274334e+01,1.900000000000000022e-01
-2.484014184179586415e+00,8.016642189999999557e-01,6.816693576825828826e-03,1.000000000000000048e-04,3.231895799974439143e+01,1.900000000000000022e-01
-2.431723812179586108e+00,1.223750555999999934e+00,1.295169802592199132e-02,1.000000000000000048e-04,3.320477355716190004e+01,1.700000000000000122e-01
-2.378598255179586118e+00,1.197731727999999940e+00,1.603774680634884736e-02,1.000000000000000048e-04,3.457698328333803772e+01,1.900000000000000022e-01
1.739429998000000088e+00,2.494783479999999887e-01,4.845571246209524202e-02,1.000000000000000048e-04,3.678015873151544213e+01,3.099999999999999978e-01
-2.377494960179586059e+00,9.562939099999999693e-01,3.186495938824440016e-02,1.000000000000000048e-04,3.562536560696015897e+01,1.799999999999999933e-01
-9.021677017958662503e-02,6.959221140000000361e-01,5.006608163527860589e-03,1.000000000000000048e-04,3.181037968495804691e+01,3.499999999999999778e-01
2.021336933000000169e+00,8.510789659999999923e-01,4.547877521877054935e-02,1.000000000000000048e-04,3.663648036596919866e+01,2.800000000000000266e-01
2.573899695999999793e+00,-5.247218830000000001e-01,4.647940220848472553e-02,1.000000000000000048e-04,3.678235189611597633e+01,1.700000000000000122e-01
2.346925623000000183e+00,-7.496726200000000118e-01,1.440411572560074821e-02,1.000000000000000048e-04,3.421544785912396236e+01,1.700000000000000122e-01
2.487812089999999809e+00,-1.095252646999999913e+00,1.188296033884801706e-02,1.000000000000000048e-04,3.359048043449269727e+01,1.600000000000000033e-01
2.543651012999999850e+00,-2.555195920000000176e-01,2.458831425555795328e-02,1.000000000000000048e-04,3.531705962749114747e+01,1.900000000000000022e-01
2.457771880000000131e+00,-4.383329890000000062e-01,4.503135762079964188e-02,1.000000000000000048e-04,3.613143995945083731e+01,1.700000000000000122e-01
-2.749033603179586116e+00,5.277091179999999770e-01,3.730918824927598881e-02,1.000000000000000048e-04,3.583777425549065043e+01,1.799999999999999933e-01
-3.021446786179586397e+00,6.716344440000000526e-01,3.239720186158580317e-02,1.000000000000000048e-04,3.556977779304519771e+01,1.799999999999999933e-01
2.390319493999999878e+00,1.427533710000000067e+00,3.912512369782809862e-02,1.000000000000000048e-04,3.638801490722144649e+01,1.799999999999999933e-01
-2.060955814179585843e+00,9.020563839999999889e-01,2.767985397182087456e-02,1.000000000000000048e-04,3.541901994674325493e+01,1.799999999999999933e-01
-1.552222439179586466e+00,1.270289940999999923e+00,3.619460174591128399e-02,1.000000000000000048e-04,3.594228084400057099e+01,1.600000000000000033e-01
2.491619029000000207e+00,8.136863199999999630e-01,1.243948338765336892e-02,1.000000000000000048e-04,3.360127339399066670e+01,1.900000000000000022e-01
2.336721559999999975e+00,1.049041915000000103e+00,5.188130080996048409e-03,1.000000000000000048e-04,3.200761895388308176e+01,1.700000000000000122e-01
1.201678150000000000e+00,3.331923239999999842e-01,5.546009144912007922e-03,1.000000000000000048e-04,3.166350639761645169e+01,1.900000000000000022e-01
-3.811893421795859993e-01,1.284308205000000092e+00,1.734379990487841181e-02,1.000000000000000048e-04,3.462876528042567514e+01,2.000000000000000111e-01
5.879284790000000038e-01,8.245620540000000442e-01,3.378123558410448674e-02,1.000000000000000048e-04,3.607438824224585971e+01,1.700000000000000122e-01
-3.584264691795864266e-01,1.112498557000000110e+00,4.182106325296925525e-02,1.000000000000000048e-04,3.616174566687852376e+01,2.000000000000000111e-01
-1.085925731795862603e-01,9.806715139999999664e-01,2.183344988013545540e-02,1.000000000000000048e-04,3.472509875303155980e+01,1.799999999999999933e-01
1.189812670000000017e+00,8.219376269999999485e-01,3.217731644430977395e-02,1.000000000000000048e-04,3.603962538120322989e+01,1.700000000000000122e-01
2.896526737999999934e+00,1.048685354999999930e+00,1.033750211507566963e-02,1.000000000000000048e-04,3.319599121460248625e+01,1.700000000000000122e-01
1.187793541000000008e+00,1.533334508000000040e+00,5.961324795919806241e-03,1.000000000000000048e-04,3.190548452515185573e+01,1.700000000000000122e-01
8.784667550000000436e-01,-5.840451829999999678e-01,3.047609920697963784e-02,1.000000000000000048e-04,3.540665468508795755e+01,2.099999999999999922e-01
-2.025603206179586557e+00,1.419180792999999996e+00,3.242345541451725072e-02,1.000000000000000048e-04,3.540707898906546802e+01,1.799999999999999933e-01
1.097118803000000087e+00,1.428367445999999985e+00,3.100825748220562006e-02,1.000000000000000048e-04,3.592803715095784867e+01,1.799999999999999933e-01
-1.923054671795858539e-01,8.268694330000000425e-01,1.564053051434446256e-02,1.000000000000000048e-04,3.377790780164821172e+01,2.000000000000000111e-01
1.974446608000000047e+00,-1.250497374000000050e+00,4.942429176591755374e-02,1.000000000000000048e-04,3.701185282941717247e+01,2.000000000000000111e-01
1.714471547999999901e+00,-4.841846819999999774e-01,4.437134801242315074e-02,1.000000000000000048e-04,3.676112597869760634e+01,1.700000000000000122e-01
1.635209042000000057e+00,-1.499680316999999929e+00,1.298194973299671845e-02,1.000000000000000048e-04,3.357167748526165951e+01,1.900000000000000022e-01
-3.085878636179586021e+00,-8.156760069999999807e-01,3.674690091470890485e-02,1.000000000000000048e-04,3.590910835082997465e+01,1.799999999999999933e-01
1.583648911999999909e+00,-4.051170720000000225e-01,4.062404370322019072e-03,1.000000000000000048e-04,3.125890627378104369e+01,1.700000000000000122e-01
3.116144028999999982e+00,-6.233618589999999626e-01,2.677684351931937032e-02,1.000000000000000048e-04,3.514599475798983264e+01,2.000000000000000111e-01
2.580853791000000008e+00,2.126606490000000071e-01,3.787444220583244953e-02,1.000000000000000048e-04,3.632389472557625965e+01,2.200000000000000011e-01
2.791070910999999821e+00,-3.375241600000000036e-02,2.349922912026811139e-02,1.000000000000000048e-04,3.490643038387225516e+01,2.999999999999999889e-01
2.126664376999999995e+00,-4.630033630000000011e-01,1.470090450012708980e-02,1.000000000000000048e-04,3.401324111714961163e+01,1.799999999999999933e-01
1.264160699999999915e+00,6.289837299999999631e-01,4.110983042596328546e-02,1.000000000000000048e-04,3.637374311881168154e+01,1.900000000000000022e-01
2.608192676999999904e+00,3.485897410000000085e-01,4.492076937793459263e-02,1.000000000000000048e-04,3.671829994124192353e+01,2.200000000000000011e-01
9.029304540000000490e-01,-5.888661819999999603e-01,4.211874709820114665e-02,1.000000000000000048e-04,3.632221796834834748e+01,1.700000000000000122e-01
2.675488564000000125e+00,-1.029758079000000048e+00,2.618251445067555985e-02,1.000000000000000048e-04,3.559525599157401388e+01,1.700000000000000122e-01
9.979371630000000160e-01,-7.076351440000000492e-01,1.387095036464435285e-02,1.000000000000000048e-04,3.376040104149814169e+01,2.000000000000000111e-01
2.816578843999999915e+00,-6.539336449999999523e-01,4.736862131089918104e-02,1.000000000000000048e-04,3.657303402694700623e+01,1.799999999999999933e-01
-2.809922836179586270e+00,-1.219770695000000016e+00,3.401388141251576822e-03,1.000000000000000048e-04,3.084223589313769409e+01,1.900000000000000022e-01
2.816545334000000178e+00,5.529564630000000092e-01,4.536859187803497784e-02,1.000000000000000048e-04,3.650868633560267540e+01,1.700000000000000122e-01
2.293480610000000031e+00,1.430186356999999964e+00,1.270761114802260519e-02,1.000000000000000048e-04,3.375731770575833224e+01,1.700000000000000122e-01
1.900048696999999898e+00,-6.695785770000000081e-01,1.992242770342860653e-02,1.000000000000000048e-04,3.461386545910903578e+01,1.900000000000000022e-01
2.402973735999999860e+00,-4.293495210000000117e-01,1.898477643646576465e-02,1.000000000000000048e-04,3.499290500372735124e+01,2.200000000000000011e-01
3.123677135999999965e+00,5.597831170000000522e-01,1.675190128909710696e-02,1.000000000000000048e-04,3.437026627516859634e+01,1.700000000000000122e-01
1.945616433999999950e+00,5.533621010000000506e-01,3.687103708842336125e-02,1.000000000000000048e-04,3.594742712525722794e+01,1.700000000000000122e-01
-2.603733431795864917e-01,9.574212720000000454e-01,6.445260459492415869e-03,1.000000000000000048e-04,3.210188800958554367e+01,3.800000000000000044e-01
-1.216980031795857897e-01,3.678993019999999836e-01,3.066981556984856375e-02,1.000000000000000048e-04,3.557649515021163467e+01,1.900000000000000022e-01
2.921580513999999962e+00,4.108407450000000072e-01,4.897763743485822330e-02,1.000000000000000048e-04,3.645087349839713653e+01,1.900000000000000022e-01
-2.362072097179586105e+00,1.187667234999999932e+00,3.698585138251628962e-02,1.000000000000000048e-04,3.618981457964081017e+01,1.900000000000000022e-01
-2.337569846179586186e+00,3.756736769999999837e-01,3.182244001872746447e-02,1.000000000000000048e-04,3.549655137492391077e+01,1.700000000000000122e-01
-1.563533060179586265e+00,8.298117619999999528e-01,2.301484916175343051e-02,1.000000000000000048e-04,3.485467773161236238e+01,3.300000000000000155e-01
-7.514201781795861734e-01,8.148208550000000105e-01,6.500998324301308917e-03,1.000000000000000048e-04,3.226942720000931075e+01,2.099999999999999922e-01
-2.172991007179586376e+00,1.278564443000000050e+00,2.051384533705774907e-02,1.000000000000000048e-04,3.445005772143892386e+01,2.000000000000000111e-01
1.004972830999999900e+00,3.284388160000000223e-01,4.613025513383172543e-02,1.000000000000000048e-04,3.665994953199372475e+01,1.799999999999999933e-01
-1.050913719179586536e+00,7.925907810000000220e-01,3.080727848199213761e-02,1.000000000000000048e-04,3.584249924752577954e+01,2.899999999999999800e-01
1.174967896000000067e+00,-7.032179160000000540e-01,1.403618144992151151e-02,1.000000000000000048e-04,3.368163712365290507e+01,1.799999999999999933e-01
2.063754460999999818e+00,1.158898511999999936e+00,1.562106838936267936e-02,1.000000000000000048e-04,3.409078966943289402e+01,1.799999999999999933e-01
1.355273345999999934e+00,1.034050206000000083e+00,3.303417071551471157e-02,1.000000000000000048e-04,3.603558733827520655e+01,1.700000000000000122e-01
1.878516419999999965e+00,-5.891517790000000421e-01,9.473693441255034292e-03,1.000000000000000048e-04,3.326659641382028099e+01,1.799999999999999933e-01
3.042909537999999969e+00,4.914006550000000195e-01,4.845242625402286507e-02,1.000000000000000048e-04,3.662363380650283062e+01,1.700000000000000122e-01
-2.192876876179585821e+00,7.571444160000000423e-01,2.261645259583187559e-02,1.000000000000000048e-04,3.517133623432901146e+01,2.099999999999999922e-01
-1.274335216179586006e+00,7.393028099999999769e-01,1.250329553990495168e-02,1.000000000000000048e-04,3.422709874646036354e+01,3.599999999999999867e-01
3.513372269999999742e-01,1.023017258000000096e+00,6.666010604768780184e-03,1.000000000000000048e-04,3.247703888303576747e+01,1.799999999999999933e-01
-2.045215730179585911e+00,1.346705497999999945e+00,3.781964735236019448e-02,1.000000000000000048e-04,3.623136819661979047e+01,1.799999999999999933e-01
2.622131355000000053e+00,-2.378520580000000051e-01,4.498692870152670720e-02,1.000000000000000048e-04,3.629618722606082315e+01,2.099999999999999922e-01
1.499565373000000035e+00,-5.833961840000000398e-01,1.743992460285417531e-02,1.000000000000000048e-04,3.434622236381871119e+01,1.199999999999999956e-01
9.453780529999999960e-01,-3.014802610000000271e-01,4.312775543482096768e-02,1.000000000000000048e-04,3.626468110332415762e+01,1.799999999999999933e-01
1.003030738000000088e+00,-6.679498139999999751e-01,1.831579344869535900e-02,1.000000000000000048e-04,3.412956550667346534e+01,1.799999999999999933e-01
-2.858957567179586157e+00,-2.878047879999999781e-01,1.217175156690701587e-02,1.000000000000000048e-04,3.339105643485901709e+01,1.300000000000000044e-01
-2.653655062179586022e+00,5.464710109999999510e-01,4.657811471206364101e-02,1.000000000000000048e-04,3.688594661536679808e+01,1.300000000000000044e-01
-1.077960778179586576e+00,1.305029642999999906e+00,2.339726319776876812e-02,1.000000000000000048e-04,3.497534906266815824e+01,1.100000000000000006e-01
2.996279555000000094e+00,-9.792432829999999644e-01,3.217814151236204206e-02,1.000000000000000048e-04,3.584870312135497272e+01,1.600000000000000033e-01
1.369802210000000131e-01,9.686457469999999459e-01,1.898107288878845417e-02,1.000000000000000048e-04,3.472756378504801233e+01,1.000000000000000056e-01
-7.405109531795863731e-01,5.344760480000000369e-01,1.225257125142041950e-02,1.000000000000000048e-04,3.341868427767832372e+01,1.900000000000000022e-01
-1.986221938179586033e+00,3.858849830000000147e-01,3.224819026266699529e-02,1.000000000000000048e-04,3.543240048919467000e+01,2.600000000000000089e-01
-1.660796187179585992e+00,1.337702168000000080e+00,3.768953106992550123e-02,1.000000000000000048e-04,3.647369751359939016e+01,1.300000000000000044e-01
-1.008319883179586540e+00,9.035811799999999838e-01,4.767605106032078710e-02,1.000000000000000048e-04,3.683830771880805344e+01,1.799999999999999933e-01
-2.859227719179586291e+00,-3.383984709999999785e-01,2.555922528887166062e-02,1.000000000000000048e-04,3.509878153561294312e+01,1.799999999999999933e-01
-3.008470453179586279e+00,-9.028608339999999455e-01,1.009638321272281029e-02,1.000000000000000048e-04,3.326030190740974746e+01,1.300000000000000044e-01
2.720373041999999852e+00,-1.026937239000000002e+00,4.913424013154963493e-02,1.000000000000000048e-04,3.674478483519946792e+01,1.100000000000000006e-01
1.131806215999999976e+00,-1.312634394000000038e+00,4.531050136444381843e-03,1.000000000000000048e-04,3.174855116389518983e+01,1.199999999999999956e-01
2.377785852000000144e+00,-1.071983155000000076e+00,2.115953229032804805e-02,1.000000000000000048e-04,3.497914847925679283e+01,1.000000000000000056e-01
1.262497049000000038e+00,-7.576738640000000302e-01,1.248643850197824270e-02,1.000000000000000048e-04,3.328870987550325822e+01,1.900000000000000022e-01
-2.150308364179585929e+00,9.473204419999999848e-01,2.409517634478923476e-02,1.000000000000000048e-04,3.512537118464558006e+01,1.499999999999999944e-01
-2.672281993179586035e+00,8.065802300000000091e-01,4.225309352168697685e-02,1.000000000000000048e-04,3.629984209031874798e+01,1.400000000000000133e-01
-2.768228307179586345e+00,1.501965110000000048e-01,3.426223187395899955e-02,1.000000000000000048e-04,3.586051382584462033e+01,1.300000000000000044e-01
2.456608391000000058e+00,-6.815239560000000418e-01,1.872809677741930565e-02,1.000000000000000048e-04,3.453654307316455885e+01,2.899999999999999800e-01
-1.538735822179586599e+00,7.895792169999999999e-01,2.250673228614267010e-02,1.000000000000000048e-04,3.489944866870213502e+01,1.600000000000000033e-01
-6.811844061795859773e-01,-7.989239399999999991e-01,4.168106764205519593e-02,1.000000000000000048e-04,3.697568707346317751e+01,2.300000000000000100e-01
-9.881069141795864041e-01,9.266642769999999807e-01,1.592282444984041007e-02,1.000000000000000048e-04,3.411594973683854448e+01,2.500000000000000000e-01
9.533575850000000074e-01,-5.868324440000000086e-01,1.023126229644891888e-02,1.000000000000000048e-04,3.328497852641299204e+01,1.199999999999999956e-01
1.194530383000000029e+00,-8.514353350000000153e-01,3.392994407987311861e-02,1.000000000000000048e-04,3.601375905473199168e+01,1.100000000000000006e-01
-1.550854682179585886e+00,1.341867675000000037e+00,3.711198401576144834e-02,1.000000000000000048e-04,3.604646005220133986e+01,3.599999999999999867e-01
2.328991532999999947e+00,-1.085498080000000032e+00,4.056794164166088734e-02,1.000000000000000048e-04,3.639429874165742262e+01,1.199999999999999956e-01
3.099662444999999877e+00,-8.173274409999999879e-01,3.485954626574429976e-02,1.000000000000000048e-04,3.601454330481804078e+01,1.300000000000000044e-01
1.008677688999999988e+00,-7.224949280000000362e-01,1.430718962213347462e-02,1.000000000000000048e-04,3.434347374445565748e+01,1.199999999999999956e-01
1.116317643999999998e+00,-8.188746820000000204e-01,1.010207957588821030e-02,1.000000000000000048e-04,3.318980659370978969e+01,1.499999999999999944e-01
1.368634144999999913e+00,-9.746537960000000167e-01,1.083761042403282374e-02,1.000000000000000048e-04,3.375962004469150202e+01,2.200000000000000011e-01
1.284766933000000000e+00,-9.049604909999999780e-01,2.720328281093985223e-02,1.000000000000000048e-04,3.517096447089639355e+01,1.300000000000000044e-01
2.840707745000000006e+00,-9.874777999999999611e-01,3.961185354803834630e-02,1.000000000000000048e-04,3.613604943807501257e+01,1.199999999999999956e-01
1.164831654000000105e+00,-8.361433499999999519e-01,2.000359329426449825e-02,1.000000000000000048e-04,3.460132554117284798e+01,1.600000000000000033e-01
9.274529849999999520e-01,-5.648102149999999488e-01,1.221803210637514847e-02,1.000000000000000048e-04,3.358116318360679031e+01,2.200000000000000011e-01
1.803806121999999901e+00,-1.051757271000000049e+00,5.568959026536899476e-03,1.000000000000000048e-04,3.208218568399312431e+01,2.200000000000000011e-01
1.910407339000000038e+00,-1.096340147000000043e+00,3.427955444582527628e-02,1.000000000000000048e-04,3.585529378970772285e+01,1.300000000000000044e-01
-2.994395329179586174e+00,-6.874333790000000111e-01,4.265784125374775387e-02,1.000000000000000048e-04,3.621561563859079769e+01,1.600000000000000033e-01
2.004169926999999962e+00,-1.114377941999999955e+00,4.886142989790667399e-03,1.000000000000000048e-04,3.127717623006943626e+01,2.099999999999999922e-01
2.993884073999999895e+00,-9.067153500000000310e-01,3.253073090383833826e-02,1.000000000000000048e-04,3.601959292052941208e+01,2.000000000000000111e-01
2.896584697999999847e+00,-6.981149509999999836e-01,1.692008310478930813e-02,1.000000000000000048e-04,3.445261007848612422e+01,2.000000000000000111e-01
2.644964143999999795e+00,-1.038456438999999953e+00,9.508579905229694665e-03,1.000000000000000048e-04,3.329676212678216984e+01,2.500000000000000000e-01
1.395029569000000080e+00,-9.673563530000000021e-01,4.026252911791030828e-03,1.000000000000000048e-04,3.128401290074007690e+01,2.200000000000000011e-01
1.133893306999999906e+00,-8.234022290000000410e-01,2.674065717962331376e-02,1.000000000000000048e-04,3.545200089260309539e+01,1.199999999999999956e-01
9.542908199999999841e-01,-6.210129070000000029e-01,1.124979060765818328e-02,1.000000000000000048e-04,3.304816463249512992e+01,1.400000000000000133e-01
1.112357503999999997e+00,-7.717409769999999947e-01,2.796242589570809012e-02,1.000000000000000048e-04,3.532431697151693584e+01,1.400000000000000133e-01
1.392129267000000059e+00,-9.489503049999999940e-01,3.037880024639225476e-02,1.000000000000000048e-04,3.557896861215321849e+01,1.100000000000000006e-01
3.104633763999999907e+00,-8.563587980000000321e-01,2.598696780131293585e-02,1.000000000000000048e-04,3.573277675555696220e+01,1.199999999999999956e-01
-1.581672989179586430e+00,-6.726275419999999672e-01,1.513260922181254228e-02,1.000000000000000048e-04,3.406969707512072176e+01,2.000000000000000111e-01
8.758714749999999549e-01,-5.394949780000000139e-01,1.152600402338278471e-02,1.000000000000000048e-04,3.359552049000900809e+01,1.199999999999999956e-01
1.027821937999999991e+00,-6.897361509999999640e-01,6.330522051349724705e-03,1.000000000000000048e-04,3.225046542730330401e+01,1.499999999999999944e-01
8.011105990000000343e-01,-4.568120419999999737e-01,5.611606028891383095e-03,1.000000000000000048e-04,3.203632267780123755e+01,1.499999999999999944e-01
8.044453879999999835e-01,-4.591503659999999765e-01,3.945308406555052966e-02,1.000000000000000048e-04,3.601386402495118233e+01,1.100000000000000006e-01
8.290542589999999601e-01,-4.498624509999999965e-01,4.808512017132952204e-02,1.000000000000000048e-04,3.721405781007239000e+01,1.199999999999999956e-01
2.306908324000000121e+00,-1.093655438999999951e+00,2.107830271097239916e-02,1.000000000000000048e-04,3.525988662070227520e+01,1.300000000000000044e-01
-3.090495873179586184e+00,-7.974218849999999970e-01,2.768131261945006374e-02,1.000000000000000048e-04,3.570700887045911287e+01,1.300000000000000044e-01
2.850739061000000074e+00,-9.724982730000000242e-01,3.898920005431012054e-02,1.000000000000000048e-04,3.637926055091049449e+01,1.100000000000000006e-01
1.925211972000000049e+00,-1.067349442999999898e+00,2.590644742740238343e-02,1.000000000000000048e-04,3.545786928256556081e+01,1.600000000000000033e-01
3.010706126000000094e+00,-9.149326070000000088e-01,5.483642680773224629e-03,1.000000000000000048e-04,3.157178549854983274e+01,1.199999999999999956e-01
1.754869720000000077e+00,-1.052947148999999971e+00,3.983728464711681905e-02,1.000000000000000048e-04,3.586878698524292730e+01,1.300000000000000044e-01
3.028086770999999899e+00,-8.725603690000000023e-01,1.552173633247198523e-02,1.000000000000000048e-04,3.379386521462400594e+01,1.199999999999999956e-01
2.780301081000000174e+00,-1.010780400000000023e+00,1.522104482880580825e-02,1.000000000000000048e-04,3.455868519522171312e+01,1.700000000000000122e-01
3.096540631999999960e+00,-8.261897350000000362e-01,4.722838886348125487e-02,1.000000000000000048e-04,3.699127687234029338e+01,1.100000000000000006e-01
-3.043596368179586342e+00,-7.656326449999999451e-01,1.868022722727706239e-02,1.000000000000000048e-04,3.487749409247386723e+01,1.100000000000000006e-01
2.593403560000000052e+00,-1.068240442000000012e+00,5.156439007983300293e-03,1.000000000000000048e-04,3.193897212682526998e+01,1.199999999999999956e-01
1.277663320999999907e+00,-8.910532270000000032e-01,4.569546044573583737e-02,1.000000000000000048e-04,3.616179088736264191e+01,1.499999999999999944e-01
8.729576639999999665e-01,-5.017517409999999733e-01,8.560630629391160346e-03,1.000000000000000048e-04,3.259142279269375564e+01,1.199999999999999956e-01
2.323316692000000128e+00,-1.072994334000000105e+00,4.988454377030337311e-02,1.000000000000000048e-04,3.661524840396950253e+01,1.400000000000000133e-01
-3.012222731179586166e+00,-7.219820959999999621e-01,3.759844689563079240e-02,1.000000000000000048e-04,3.617806968544780233e+01,1.199999999999999956e-01
2.306010604999999991e+00,-1.110345181000000014e+00,5.739314573819196720e-03,1.000000000000000048e-04,3.208877884257423574e+01,1.100000000000000006e-01
2.437557496999999795e+00,-1.097151527000000071e+00,2.682032934197432772e-02,1.000000000000000048e-04,3.512964098394272838e+01,1.100000000000000006e-01
1.098420291999999909e+00,-7.444727049999999569e-01,1.194114406643873028e-02,1.000000000000000048e-04,3.374681335349111322e+01,1.300000000000000044e-01
8.241628739999999897e-01,-4.611620249999999754e-01,1.142832098870838128e-02,1.000000000000000048e-04,3.363679173106501707e+01,1.400000000000000133e-01
1.017317494999999905e+00,-7.027905669999999771e-01,2.496358520771982045e-02,1.000000000000000048e-04,3.511875961160837534e+01,1.199999999999999956e-01
2.728679550999999925e+00,-1.007430967999999982e+00,4.452594499548367252e-02,1.000000000000000048e-04,3.621951991886025723e+01,1.100000000000000006e-01
2.848837458999999850e+00,-9.622339979999999793e-01,7.333179955537582652e-03,1.000000000000000048e-04,3.242971195825207076e+01,1.199999999999999956e-01
-3.065525731179586266e+00,-7.207210450000000046e-01,1.632207701369290526e-02,1.000000000000000048e-04,3.442821320004173913e+01,1.199999999999999956e-01
1.103969978000000074e+00,-7.587182380000000448e-01,2.962561678770042617e-02,1.000000000000000048e-04,3.537449614271834974e+01,1.300000000000000044e-01
1.112034854000000017e+00,-7.675460100000000008e-01,3.455580115489081949e-02,1.000000000000000048e-04,3.586408102796590214e+01,1.199999999999999956e-01
2.373162053000000160e+00,-1.072487750000000073e+00,3.281322442229605424e-02,1.000000000000000048e-04,3.579823986632693078e+01,1.100000000000000006e-01
2.221583438000000132e+00,-1.096064289000000080e+00,2.635522339826308971e-02,1.000000000000000048e-04,3.554476629275242772e+01,1.199999999999999956e-01
2.775251189000000007e+00,-1.013244017000000108e+00,3.084017251446420638e-02,1.000000000000000048e-04,3.557629739304477567e+01,1.700000000000000122e-01
1.527128894000000070e+00,-9.963611940000000056e-01,3.837518165087599326e-02,1.000000000000000048e-04,3.612212627174438495e+01,1.400000000000000133e-01
-1.936135624179586401e+00,1.327891944000000102e+00,3.339773008540391358e-02,1.000000000000000048e-04,3.614882468007964178e+01,1.199999999999999956e-01
2.120951332999999828e+00,-1.112975437000000012e+00,4.092865348445019757e-02,1.000000000000000048e-04,3.669831744256449468e+01,1.600000000000000033e-01
2.950704906999999988e+00,-9.277153000000000205e-01,2.751754049542802505e-02,1.000000000000000048e-04,3.566430774214583721e+01,1.700000000000000122e-01
2.461302839000000020e+00,-1.064109841000000056e+00,3.746623216666409434e-02,1.000000000000000048e-04,3.601321429948645658e+01,1.499999999999999944e-01
1.687800213000000049e+00,-1.037844004000000098e+00,1.514193499969145734e-02,1.000000000000000048e-04,3.401788838491106048e+01,1.100000000000000006e-01
-3.069023128179586113e+00,-7.343218900000000327e-01,2.858588473679059272e-02,1.000000000000000048e-04,3.550555977201239699e+01,2.000000000000000111e-01
7.655655390000000171e-01,-3.825025819999999799e-01,4.639948262510247556e-02,1.000000000000000048e-04,3.601550092040827877e+01,1.300000000000000044e-01
-3.051736326179586012e+00,-7.690870560000000467e-01,3.261669854067067442e-02,1.000000000000000048e-04,3.622787306758608139e+01,1.499999999999999944e-01
-3.116938176179586240e+00,-7.920766919999999711e-01,1.890641344973144691e-02,1.000000000000000048e-04,3.460746667588524161e+01,1.100000000000000006e-01
1.020863690000000101e+00,-6.877910739999999468e-01,1.665767203254705717e-02,1.000000000000000048e-04,3.417202218126921309e+01,1.199999999999999956e-01
1.792785233999999894e+00,-1.066474936999999956e+00,8.358895194124187078e-03,1.000000000000000048e-04,3.303510963420409041e+01,1.100000000000000006e-01
1.805689748000000039e+00,-1.066896787999999985e+00,1.996546833165779855e-02,1.000000000000000048e-04,3.482261841566585758e+01,1.100000000000000006e-01
1.773248071000000037e+00,-1.046601056999999946e+00,2.502970437231054335e-02,1.000000000000000048e-04,3.503739663530637216e+01,2.099999999999999922e-01
1.076689889999999927e+00,-7.549444410000000216e-01,4.029896259167028288e-02,1.000000000000000048e-04,3.602609150918512881e+01,1.199999999999999956e-01
2.336456505000000128e+00,-1.089906792000000069e+00,2.323273640941450266e-02,1.000000000000000048e-04,3.503501103112092352e+01,1.199999999999999956e-01
2.522083900000000156e+00,-1.078852812999999911e+00,3.701772353618054678e-02,1.000000000000000048e-04,3.613003649476626578e+01,1.199999999999999956e-01
3.676074389999999803e-01,1.100614297999999991e+00,1.885231530867761615e-02,1.000000000000000048e-04,3.467455221936670995e+01,1.700000000000000122e-01
2.099931574000000190e+00,-1.082223048999999993e+00,3.251711085286555780e-02,1.000000000000000048e-04,3.538630154539361428e+01,1.100000000000000006e-01
8.155488279999999479e-01,-4.642700679999999802e-01,1.921529580358390804e-02,1.000000000000000048e-04,3.469137252377312564e+01,2.099999999999999922e-01
9.861636230000000447e-01,-6.881834650000000497e-01,3.052286122270266716e-02,1.000000000000000048e-04,3.534547081250769907e+01,1.300000000000000044e-01
1.864254864999999928e+00,-1.086684659999999969e+00,3.847824865759677526e-02,1.000000000000000048e-04,3.619669161324977580e+01,1.199999999999999956e-01
2.873066016000000111e+00,-9.753574739999999466e-01,3.620766255870067063e-02,1.000000000000000048e-04,3.639714253778979014e+01,1.300000000000000044e-01
2.270287562000000037e+00,-1.085086717999999895e+00,1.162204997287881458e-02,1.000000000000000048e-04,3.402052163294607823e+01,1.799999999999999933e-01
8.268071609999999572e-01,-4.587794940000000099e-01,1.257039324755994392e-02,1.000000000000000048e-04,3.353833783908868327e+01,1.199999999999999956e-01
-3.050869045179586347e+00,-7.648855789999999821e-01,7.350729540939624114e-03,1.000000000000000048e-04,3.268821404384406293e+01,1.199999999999999956e-01
1.101963728999999947e+00,-7.466317359999999903e-01,9.790760002030950843e-03,1.000000000000000048e-04,3.289251254874001518e+01,1.900000000000000022e-01
1.745116724000000064e+00,-1.056563783000000090e+00,5.514396118033983163e-03,1.000000000000000048e-04,3.195117444263992468e+01,1.300000000000000044e-01
7.889769570000000343e-01,-3.846565690000000037e-01,3.587829590579313249e-02,1.000000000000000048e-04,3.574054936395721427e+01,1.499999999999999944e-01
1.385818830999999918e+00,-9.278259679999999454e-01,1.135676848136759828e-02,1.000000000000000048e-04,3.325779034992918781e+01,1.499999999999999944e-01
1.138484923000000038e+00,-8.197145099999999518e-01,1.503260142012772388e-02,1.000000000000000048e-04,3.400442805592967943e+01,1.400000000000000133e-01
1.783410439000000069e+00,-1.080958507999999929e+00,3.630593942649568834e-02,1.000000000000000048e-04,3.615214826038831575e+01,1.400000000000000133e-01
2.617653461000000181e+00,-1.025884226000000066e+00,1.267668743723323124e-02,1.000000000000000048e-04,3.398197554654237251e+01,1.199999999999999956e-01
8.270197009999999960e-01,-4.157453939999999903e-01,6.727777685282898892e-03,1.000000000000000048e-04,3.264900733687623813e+01,1.199999999999999956e-01
3.128792493000000174e+00,-8.522697870000000009e-01,3.342559660256801818e-02,1.000000000000000048e-04,3.543770157079445227e+01,1.100000000000000006e-01
1.366158207000000013e+00,-9.614226009999999878e-01,6.216291785446302273e-03,1.000000000000000048e-04,3.217581198794808728e+01,1.100000000000000006e-01
2.846286316000000038e+00,-9.688357899999999745e-01,1.116638100861757493e-02,1.000000000000000048e-04,3.333701544303603725e+01,1.400000000000000133e-01
9.208216280000000031e-01,-6.185352929999999860e-01,2.235407308735906651e-02,1.000000000000000048e-04,3.505087454033237293e+01,1.499999999999999944e-01
7.622987450000000553e-01,-3.411912120000000215e-01,4.855676423466414454e-02,1.000000000000000048e-04,3.683619527648240677e+01,1.199999999999999956e-01
9.277931750000000255e-01,-5.813990460000000304e-01,4.760334503645332477e-02,1.000000000000000048e-04,3.677845988962967994e+01,2.099999999999999922e-01
1.010173165000000095e+00,-6.808591280000000356e-01,3.741932928319934015e-02,1.000000000000000048e-04,3.578959449418459826e+01,1.300000000000000044e-01
1.661181446000000062e+00,-1.029160687999999935e+00,3.115001979198252224e-02,1.000000000000000048e-04,3.581408279335356326e+01,1.400000000000000133e-01
2.089878704000000198e+00,-1.077863170999999953e+00,2.803075747656684491e-02,1.000000000000000048e-04,3.544802533822500834e+01,1.199999999999999956e-01
9.321550429999999610e-01,-6.212176799999999943e-01,3.206293266339522996e-02,1.000000000000000048e-04,3.608462685789272939e+01,1.199999999999999956e-01
2.944595597000000176e+00,-9.127602249999999806e-01,2.166703468450487807e-02,1.000000000000000048e-04,3.545382101038747891e+01,1.100000000000000006e-01
1.288081913999999939e+00,-9.113959929999999598e-01,4.406963088186474642e-02,1.000000000000000048e-04,3.688887485155239432e+01,1.300000000000000044e-01
1.398731861999999992e+00,-9.625033109999999725e-01,4.605722778625671865e-02,1.000000000000000048e-04,3.611197130966005631e+01,1.199999999999999956e-01
1.714165549000000066e+00,-1.043104095999999981e+00,3.116134073255797526e-02,1.000000000000000048e-04,3.545440475399836089e+01,1.199999999999999956e-01
1.014018395999999989e+00,-6.788913789999999615e-01,1.235427827112412294e-02,1.000000000000000048e-04,3.379025512270789733e+01,1.300000000000000044e-01
8.887761809999999985e-01,-5.541821719999999729e-01,2.861995847947051974e-02,1.000000000000000048e-04,3.533441966712407378e+01,1.300000000000000044e-01
1.026278256999999972e+00,-6.961882160000000264e-01,7.733269983811534923e-03,1.000000000000000048e-04,3.282704336242928633e+01,1.199999999999999956e-01
1.824970581999999952e+00,-1.080428363000000003e+00,1.586139101973249588e-02,1.000000000000000048e-04,3.429071078837340991e+01,1.199999999999999956e-01
1.839979185000000017e+00,-1.082878103999999952e+00,4.201859816449266677e-02,1.000000000000000048e-04,3.583301064379153189e+01,1.300000000000000044e-01
-3.070118813179586237e+00,-7.641942569999999879e-01,2.472389477597640092e-02,1.000000000000000048e-04,3.469728367314979778e+01,1.199999999999999956e-01
2.250776613000000204e+00,-1.110438553999999911e+00,4.452466548439151101e-02,1.000000000000000048e-04,3.651394608986343115e+01,1.199999999999999956e-01
2.613802471000000072e+00,-1.066258922999999914e+00,9.641321694771561035e-03,1.000000000000000048e-04,3.312892436848882483e+01,1.199999999999999956e-01
8.050150120000000298e-01,-4.193234060000000096e-01,2.807632580533476682e-02,1.000000000000000048e-04,3.523156828369832283e+01,1.499999999999999944e-01
2.809576177999999924e+00,-9.952447749999999704e-01,3.398913357142763214e-02,1.000000000000000048e-04,3.567703126537428915e+01,1.199999999999999956e-01
8.523447290000000232e-01,-4.773689010000000121e-01,5.148452434800640347e-03,1.000000000000000048e-04,3.180081527574605005e+01,2.000000000000000111e-01
2.975142320999999868e+00,-8.986192680000000266e-01,4.058290486134088354e-02,1.000000000000000048e-04,3.674174766218577304e+01,2.000000000000000111e-01
2.960578484000000010e+00,-9.174235720000000205e-01,1.980325934144024774e-02,1.000000000000000048e-04,3.468985350423135827e+01,1.400000000000000133e-01
1.589239559999999996e+00,-1.046132274999999945e+00,2.202289841745321691e-02,1.000000000000000048e-04,3.496063809915190745e+01,1.199999999999999956e-01
1.095136271999999966e+00,-7.909478989999999543e-01,1.548337705525869648e-02,1.000000000000000048e-04,3.393077098335722752e+01,1.300000000000000044e-01
3.045277111999999953e+00,-8.831592660000000539e-01,2.114285654791920807e-02,1.000000000000000048e-04,3.438557354657674381e+01,1.799999999999999933e-01
3.011317304999999944e+00,-8.969173430000000335e-01,1.254291276479994888e-02,1.000000000000000048e-04,3.353488356548471216e+01,1.499999999999999944e-01
1.946036051000000100e+00,-1.101857058000000000e+00,1.160211731214734476e-02,1.000000000000000048e-04,3.346528481698824464e+01,1.100000000000000006e-01
9.659444579999999503e-01,-6.400164339999999674e-01,1.822654174709028088e-02,1.000000000000000048e-04,3.464491525730224453e+01,1.199999999999999956e-01
1.142944595999999979e+00,-8.229314749999999679e-01,9.431837157895039264e-03,1.000000000000000048e-04,3.310878178099795832e+01,1.499999999999999944e-01
1.336859599999999926e+00,-9.462661719999999610e-01,3.154341099078673827e-02,1.000000000000000048e-04,3.543533997063507002e+01,1.900000000000000022e-01
2.386695267999999981e+00,-1.099692616000000012e+00,1.683086091003133805e-02,1.000000000000000048e-04,3.427153691631776411e+01,1.799999999999999933e-01
1.122946417999999946e+00,-7.871106610000000448e-01,2.461484750170241098e-02,1.000000000000000048e-04,3.508878599333404935e+01,1.499999999999999944e-01
1.038511049000000019e+00,-6.836743480000000428e-01,2.954925650612225119e-02,1.000000000000000048e-04,3.562269549089288034e+01,1.499999999999999944e-01
-1.865548755179585960e+00,5.988235499999999822e-01,4.315417246623107564e-03,1.000000000000000048e-04,3.124666035566110622e+01,3.599999999999999867e-01
-1.208774007179585830e+00,1.086301519000000049e+00,3.290872060479998334e-02,1.000000000000000048e-04,3.619384735821315502e+01,3.900000000000000133e-01
-1.451351928179586359e+00,1.047303024999999943e+00,1.163577717400719747e-02,1.000000000000000048e-04,3.350640532906322733e+01,3.900000000000000133e-01
-1.863787002179586594e+00,5.986409590000000280e-01,4.197932987356105955e-02,1.000000000000000048e-04,3.634742715180792771e+01,3.099999999999999978e-01
-2.367107747179586053e+00,3.570653329999999848e-01,1.301151555439688731e-02,1.000000000000000048e-04,3.393461785935014774e+01,3.300000000000000155e-01
-1.756700719179586478e+00,1.186865959999999998e+00,1.702763599497231564e-02,1.000000000000000048e-04,3.421108708785686758e+01,4.600000000000000200e-01
3.110012692999999828e+00,-8.816387980000000013e-01,2.236520242915264120e-02,1.000000000000000048e-04,3.504348827727468318e+01,4.000000000000000222e-01
1.208427087000000011e+00,6.391205479999999550e-01,5.764605922802201743e-03,1.000000000000000048e-04,3.201760050318925011e+01,3.200000000000000067e-01
2.195568135999999893e+00,9.530612539999999688e-01,6.998386809871240920e-03,1.000000000000000048e-04,3.219687466392043973e+01,3.200000000000000067e-01
1.005319582999999906e+00,6.711075279999999532e-01,1.208248150903940693e-02,1.000000000000000048e-04,3.345293780999987376e+01,8.100000000000000533e-01
-1.746303855179585973e+00,7.561700099999999480e-01,1.879390509391909783e-02,1.000000000000000048e-04,3.424447952494781333e+01,3.599999999999999867e-01
-4.601474541795864681e-01,1.080353384999999999e+00,3.881932754465493296e-02,1.000000000000000048e-04,3.607104723229308263e+01,4.699999999999999734e-01
-1.809340496179586033e+00,8.561831709999999651e-01,7.811095338775207210e-03,1.000000000000000048e-04,3.261612650648314826e+01,5.600000000000000533e-01
-1.804726732179585902e+00,8.415213710000000180e-01,4.158246599987570902e-02,1.000000000000000048e-04,3.649486803586979988e+01,5.100000000000000089e-01
-1.920735154179586068e+00,8.789503189999999799e-01,1.066053646122392361e-02,1.000000000000000048e-04,3.331156686176739612e+01,4.500000000000000111e-01
-2.443118364179586166e+00,3.912645049999999847e-01,3.058378589319041968e-02,1.000000000000000048e-04,3.550709502904160786e+01,6.400000000000000133e-01
-2.443397905179586438e+00,3.924271049999999983e-01,1.281015624040025835e-02,1.000000000000000048e-04,3.333874509601602654e+01,4.199999999999999845e-01
-1.798694144179585841e+00,8.464773150000000079e-01,8.819853594961454130e-03,1.000000000000000048e-04,3.328367885083130773e+01,6.600000000000000311e-01
-1.799964602179586315e+00,8.443478660000000025e-01,4.367239123385444760e-02,1.000000000000000048e-04,3.656203433830419414e+01,6.099999999999999867e-01
-1.805111234179586077e+00,8.421560940000000217e-01,4.827050123774104251e-02,1.000000000000000048e-04,3.681045340575526836e+01,5.100000000000000089e-01
-2.442430271179586221e+00,3.917367079999999890e-01,3.261554899272129521e-02,1.000000000000000048e-04,3.587017903913268668e+01,9.200000000000000400e-01
-2.432135523179586034e+00,3.856870689999999935e-01,1.752543724616788604e-02,1.000000000000000048e-04,3.428175557515302074e+01,4.500000000000000111e-01
-2.443115938179586166e+00,3.817974199999999985e-01,1.420933126012035447e-02,1.000000000000000048e-04,3.420546546434076163e+01,1.010000000000000009e+00
-2.507217827179586411e+00,2.806706330000000027e-01,2.477568102662415853e-02,1.000000000000000048e-04,3.504819735065548514e+01,7.199999999999999734e-01
-2.751331907179586089e+00,-4.573921380000000037e-01,3.685079331886877835e-02,1.000000000000000048e-04,3.586106658437719830e+01,4.299999999999999933e-01
-2.751204501179586259e+00,-4.575163139999999795e-01,2.940911447659683500e-02,1.000000000000000048e-04,3.496928709742196162e+01,5.100000000000000089e-01
-2.751948792179586434e+00,-4.626465410000000222e-01,6.263872698522460550e-03,1.000000000000000048e-04,3.236773091741578412e+01,9.000000000000000222e-01
-2.714588277179586395e+00,-4.966179359999999821e-01,4.395913806203988194e-02,1.000000000000000048e-04,3.630496975841873564e+01,5.200000000000000178e-01
-4.484873401795859138e-01,1.078759022000000067e+00,2.388824647856031477e-02,1.000000000000000048e-04,3.517661122859394141e+01,4.600000000000000200e-01
1.900693019999999955e-01,8.157953839999999568e-01,2.280564351024171044e-02,1.000000000000000048e-04,3.534249104096412708e+01,5.899999999999999689e-01
-1.022766420179586078e+00,1.083744478000000067e+00,4.812213048634592094e-02,1.000000000000000048e-04,3.650388232773630648e+01,6.300000000000000044e-01
-4.695071691795860147e-01,1.083533926999999952e+00,2.457911085448099414e-02,1.000000000000000048e-04,3.486620892582939035e+01,4.400000000000000022e-01
-2.430196729179586068e+00,3.866488559999999852e-01,4.427083052839842631e-02,1.000000000000000048e-04,3.656106975005674542e+01,4.500000000000000111e-01
-1.912154461179586207e+00,8.727908680000000530e-01,4.947054459410690774e-02,1.000000000000000048e-04,3.662855664208869655e+01,4.699999999999999734e-01
-2.513608092179586251e+00,4.011275939999999762e-01,3.155341403565913028e-02,1.000000000000000048e-04,3.583706626679626339e+01,4.699999999999999734e-01
-2.755728471179586414e+00,-5.498326249999999638e-01,8.858808301890275932e-03,1.000000000000000048e-04,3.294523381720710375e+01,5.100000000000000089e-01
3.086866033999999814e+00,-8.456466849999999535e-01,3.137759646638452887e-02,1.000000000000000048e-04,3.572818685722306498e+01,5.200000000000000178e-01
2.898135272999999845e+00,-9.408617099999999622e-01,2.200355073143259524e-02,1.000000000000000048e-04,3.461533179444059982e+01,5.600000000000000533e-01
2.887933338999999933e+00,-9.438168839999999671e-01,1.785199620405019186e-02,1.000000000000000048e-04,3.456610347870115163e+01,4.799999999999999822e-01
2.256176956000000011e+00,-1.014735844999999914e+00,2.427051266505358615e-02,1.000000000000000048e-04,3.541293730628174785e+01,5.000000000000000000e-01
2.229698910000000200e+00,-1.018180813999999934e+00,8.303395799126801063e-03,1.000000000000000048e-04,3.286352803318622762e+01,6.400000000000000133e-01
2.227960753000000071e+00,-1.020489782000000067e+00,4.592072205857007650e-02,1.000000000000000048e-04,3.647920528080467051e+01,5.999999999999999778e-01
1.978102527999999971e+00,-9.529058719999999871e-01,3.091612263838098423e-02,1.000000000000000048e-04,3.547166149455978967e+01,5.200000000000000178e-01
2.842930618000000020e+00,9.211371910000000218e-01,8.165865562826474244e-03,1.000000000000000048e-04,3.278245405661874656e+01,4.899999999999999911e-01
2.611089279999999846e+00,9.227226889999999848e-01,2.348949524018505500e-02,1.000000000000000048e-04,3.488149886296141489e+01,4.899999999999999911e-01
-2.613733020179586308e+00,3.020363409999999860e-01,3.537471605833440030e-02,1.000000000000000048e-04,3.638476357172778819e+01,2.399999999999999911e-01
3.080075141000000016e+00,6.813462000000000129e-01,1.703813151995750216e-02,1.000000000000000048e-04,3.461984539078793688e+01,2.999999999999999889e-01
-2.614795632179586438e+00,3.100862600000000024e-01,7.470525516553310104e-03,1.000000000000000048e-04,3.264623367948854593e+01,7.099999999999999645e-01
3.084152930000000126e+00,6.750201959999999612e-01,5.146284211703979969e-03,1.000000000000000048e-04,3.196540612651163471e+01,2.399999999999999911e-01
-2.831540824179586302e+00,-5.193198470000000011e-01,9.262770605601357288e-03,1.000000000000000048e-04,3.267569445238996906e+01,2.899999999999999800e-01
2.921667255000000019e+00,-9.403574120000000036e-01,1.233821579625221654e-02,1.000000000000000048e-04,3.353146928856743614e+01,2.899999999999999800e-01
2.914679634000000075e+00,-9.413881210000000221e-01,4.338501158442058941e-02,1.000000000000000048e-04,3.648531917175445471e+01,7.299999999999999822e-01
2.905880500999999949e+00,-9.458600109999999450e-01,1.028272896323867425e-02,1.000000000000000048e-04,3.347015981219632863e+01,4.299999999999999933e-01
2.610543199999999953e+00,9.294079060000000059e-01,1.534409003342506600e-02,1.000000000000000048e-04,3.437272771361630674e+01,2.899999999999999800e-01
2.614058957000000127e+00,9.310355519999999885e-01,3.844958469970073678e-02,1.000000000000000048e-04,3.580127279543517460e+01,3.699999999999999956e-01
-2.614313936179586406e+00,3.105085300000000048e-01,1.531454590708398317e-02,1.000000000000000048e-04,3.438871712177427042e+01,2.300000000000000100e-01
-2.614275993179586255e+00,3.084493819999999942e-01,2.807819174013007762e-02,1.000000000000000048e-04,3.551323410996111818e+01,2.000000000000000111e-01
3.080236718000000096e+00,6.852664600000000217e-01,3.553683621670263026e-02,1.000000000000000048e-04,3.585818488390022196e+01,3.800000000000000044e-01
3.085135451000000195e+00,6.840520260000000352e-01,2.573610141288833197e-02,1.000000000000000048e-04,3.517755949209426802e+01,2.300000000000000100e-01
-2.608333968179586293e+00,3.075313129999999728e-01,2.622024796431333613e-02,1.000000000000000048e-04,3.522965800662553448e+01,5.799999999999999600e-01
-2.828421734179586089e+00,-5.202039349999999507e-01,7.567367392081955635e-03,1.000000000000000048e-04,3.259479013716823914e+01,5.200000000000000178e-01
-2.829361723179586452e+00,-5.190188390000000096e-01,1.047494167137390936e-02,1.000000000000000048e-04,3.304565110357209079e+01,3.900000000000000133e-01
-2.833706243179586082e+00,-5.260186759999999628e-01,2.879082748707689418e-02,1.000000000000000048e-04,3.563188943566150613e+01,2.200000000000000011e-01
1.286414458000000094e+00,-9.076167339999999806e-01,2.605128429868997994e-02,1.000000000000000048e-04,3.542093344346369577e+01,2.399999999999999911e-01
2.295144749999999956e+00,-1.095028292000000070e+00,1.619489271753537726e-02,1.000000000000000048e-04,3.455576326767274509e+01,2.000000000000000111e-01
2.312115046000000174e+00,-1.091482969000000081e+00,3.916428719361959854e-02,1.000000000000000048e-04,3.610264680716173302e+01,1.900000000000000022e-01
2.535381049000000164e+00,-1.063602453999999975e+00,2.443052910927187224e-02,1.000000000000000048e-04,3.501013326890845434e+01,2.600000000000000089e-01
2.549902755000000187e+00,-1.059649137999999935e+00,1.674196309002301888e-02,1.000000000000000048e-04,3.458430410956239598e+01,1.900000000000000022e-01
-2.980466121795863899e-01,1.081935794000000062e+00,2.086771438871358117e-02,1.000000000000000048e-04,3.459402643673747946e+01,1.000000000000000056e-01
-4.562223411795862660e-01,1.078420874000000085e+00,4.362837962366165889e-02,1.000000000000000048e-04,3.669948872311708499e+01,1.400000000000000133e-01
-4.727696341795866175e-01,1.076427226000000070e+00,8.816898520791510707e-03,1.000000000000000048e-04,3.296077625993497406e+01,1.900000000000000022e-01
-4.909850281795860028e-01,1.086050390999999893e+00,3.992999509551844323e-02,1.000000000000000048e-04,3.623319096939923156e+01,1.499999999999999944e-01
-1.809890014179586615e+00,8.554848849999999727e-01,3.202172358356161069e-02,1.000000000000000048e-04,3.600864009208130057e+01,1.900000000000000022e-01
-1.804843805179586091e+00,8.509932909999999850e-01,7.590508552027798624e-03,1.000000000000000048e-04,3.213249527272494532e+01,1.700000000000000122e-01
-1.798315402179586187e+00,8.389159160000000393e-01,2.257521833610508580e-02,1.000000000000000048e-04,3.492097753040053476e+01,1.100000000000000006e-01
-1.820018681179586650e+00,8.404092629999999620e-01,1.505177388943667108e-02,1.000000000000000048e-04,3.429722632651525771e+01,2.000000000000000111e-01
-2.435936564179586039e+00,3.767214549999999829e-01,4.607852498729658047e-02,1.000000000000000048e-04,3.657389471804852121e+01,1.700000000000000122e-01
-2.738532057179586143e+00,-4.670391260000000266e-01,4.067032892604510036e-02,1.000000000000000048e-04,3.629012989502431452e+01,1.100000000000000006e-01
-2.750126147179586145e+00,-4.750163370000000107e-01,1.072581271583768203e-02,1.000000000000000048e-04,3.356189605934289943e+01,1.700000000000000122e-01
6.777063359999999648e-01,-9.284162910000000046e-01,1.965765970909868002e-02,1.000000000000000048e-04,3.504959673179197210e+01,1.600000000000000033e-01
6.755664329999999662e-01,-9.242990760000000527e-01,2.024409919129673691e-02,1.000000000000000048e-04,3.493742375064296368e+01,2.200000000000000011e-01
1.666277256000000095e+00,1.035703752000000089e+00,3.900711969903328247e-02,1.000000000000000048e-04,3.600481522515458721e+01,2.800000000000000266e-01
1.679531192000000006e+00,1.034147155999999956e+00,4.435859191674014490e-02,1.000000000000000048e-04,3.631160859553708065e+01,2.099999999999999922e-01
1.669961188000000041e+00,1.045784459000000055e+00,2.449382828661702052e-02,1.000000000000000048e-04,3.505723905420369135e+01,2.899999999999999800e-01
1.666612017000000057e+00,1.035903760999999923e+00,6.760640502365741072e-03,1.000000000000000048e-04,3.216132969432948130e+01,1.400000000000000133e-01
1.676630470000000095e+00,1.049302589999999924e+00,1.982278646004069847e-02,1.000000000000000048e-04,3.456807554393805759e+01,1.600000000000000033e-01
1.678871634000000057e+00,1.037439988999999896e+00,1.137394246383045815e-02,1.000000000000000048e-04,3.330854930241780920e+01,2.099999999999999922e-01
-2.159653925179585876e+00,7.341517600000000421e-01,2.604691274114658700e-02,1.000000000000000048e-04,3.479336322177288565e+01,2.600000000000000089e-01
-2.155609593179586447e+00,7.327229189999999726e-01,1.966932175448121017e-02,1.000000000000000048e-04,3.469124684575108120e+01,1.400000000000000133e-01
2.989279821999999864e+00,-1.014333855000000062e+00,3.827556847255218428e-03,1.000000000000000048e-04,3.067195493562067199e+01,1.600000000000000033e-01
6.962963009999999509e-01,-9.242906640000000396e-01,4.651853336263585270e-02,1.000000000000000048e-04,3.691905928285190441e+01,2.000000000000000111e-01
6.831622830000000368e-01,-9.295060950000000322e-01,1.478413831053358024e-02,1.000000000000000048e-04,3.377034015762293961e+01,2.099999999999999922e-01
6.813526220000000189e-01,-9.196739680000000083e-01,3.258136498061495884e-02,1.000000000000000048e-04,3.569055149325483711e+01,1.700000000000000122e-01
1.667475545999999920e+00,1.039138789999999979e+00,5.851333878649519690e-03,1.000000000000000048e-04,3.186507454081109003e+01,1.499999999999999944e-01
1.669072946000000002e+00,1.039627206000000026e+00,3.682918959228627387e-02,1.000000000000000048e-04,3.618666894475581586e+01,1.700000000000000122e-01
2.992464221000000091e+00,-1.009427984000000000e+00,1.661259192499678350e-02,1.000000000000000048e-04,3.444308326436134138e+01,1.400000000000000133e-01
3.013377762000000182e+00,-1.015725085999999999e+00,2.565269222404724381e-02,1.000000000000000048e-04,3.570452504555022699e+01,1.499999999999999944e-01
6.857830799999999893e-01,-9.290922369999999875e-01,2.967739287741235146e-02,1.000000000000000048e-04,3.532178929713845861e+01,3.400000000000000244e-01
6.874880420000000214e-01,-9.251381180000000093e-01,4.118404450702389807e-02,1.000000000000000048e-04,3.655997219405180942e+01,1.700000000000000122e-01
1.659686511000000086e+00,1.040101345999999927e+00,1.801349829341769571e-02,1.000000000000000048e-04,3.444604942265975467e+01,1.400000000000000133e-01
1.673757463999999917e+00,1.042554473000000037e+00,4.316343115879700543e-02,1.000000000000000048e-04,3.647073456841448547e+01,4.299999999999999933e-01
1.692629780999999944e+00,1.043637506000000048e+00,6.444391881499025518e-03,1.000000000000000048e-04,3.247382593859932598e+01,1.799999999999999933e-01
1.682450028999999958e+00,1.049226146999999942e+00,2.861361460638017773e-02,1.000000000000000048e-04,3.535171213817434221e+01,1.900000000000000022e-01
1.675255906999999933e+00,1.048468626000000015e+00,4.903606945244587401e-02,1.000000000000000048e-04,3.708800642102315948e+01,1.499999999999999944e-01
1.692145135000000078e+00,1.039981480000000014e+00,3.211454012956135862e-02,1.000000000000000048e-04,3.588869138659447344e+01,1.700000000000000122e-01
-2.139768073179586061e+00,7.360294179999999908e-01,2.893917528727183580e-02,1.000000000000000048e-04,3.551246253912724882e+01,1.600000000000000033e-01
-2.138731675179585956e+00,7.369836659999999817e-01,2.478909005313590860e-02,1.000000000000000048e-04,3.489066624478234502e+01,1.499999999999999944e-01
6.888283630000000546e-01,-9.193630990000000169e-01,4.828108612170879665e-02,1.000000000000000048e-04,3.657047304575529978e+01,1.700000000000000122e-01
6.776433490000000059e-01,-9.225326109999999469e-01,3.643623432250705368e-02,1.000000000000000048e-04,3.597232282277772697e+01,1.600000000000000033e-01
6.820513620000000499e-01,-9.162569579999999547e-01,3.655716334853449916e-03,1.000000000000000048e-04,3.123943605372868149e+01,2.899999999999999800e-01
6.832637360000000104e-01,-9.208365670000000502e-01,2.312609479549481220e-02,1.000000000000000048e-04,3.512501949330953721e+01,1.400000000000000133e-01
1.683256381999999940e+00,1.050427892999999946e+00,1.651616222879237136e-02,1.000000000000000048e-04,3.424684204120699604e+01,1.499999999999999944e-01
2.987248335999999949e+00,-1.011507587000000097e+00,1.646034644905149807e-02,1.000000000000000048e-04,3.463098839420230490e+01,1.900000000000000022e-01
2.994879214000000012e+00,-1.020537374999999969e+00,4.899594850034721602e-03,1.000000000000000048e-04,3.162259384040391552e+01,2.500000000000000000e-01
2.997056848999999801e+00,-1.020797841000000039e+00,2.672090735541403014e-02,1.000000000000000048e-04,3.535270678719365378e+01,1.499999999999999944e-01
6.981827720000000070e-01,-9.201470600000000166e-01,3.493580250323449071e-02,1.000000000000000048e-04,3.603826965320985920e+01,2.099999999999999922e-01
1.675679171999999939e+00,1.042232051000000048e+00,3.421053297410753258e-02,1.000000000000000048e-04,3.573007947975157350e+01,1.900000000000000022e-01
1.682732345000000018e+00,1.051774148000000020e+00,4.069362385415099120e-02,1.000000000000000048e-04,3.635836917277890734e+01,2.099999999999999922e-01
1.655763980999999996e+00,1.041789395999999979e+00,4.508988038854935820e-02,1.000000000000000048e-04,3.672012427911634802e+01,2.099999999999999922e-01
1.658505131999999938e+00,1.042043577999999915e+00,1.386593483865670301e-02,1.000000000000000048e-04,3.412214087978559718e+01,1.499999999999999944e-01
1.679931540999999973e+00,1.044700675999999939e+00,4.164330805876262365e-02,1.000000000000000048e-04,3.635884591724641268e+01,1.400000000000000133e-01
1.681131209999999987e+00,1.046558263000000100e+00,3.285727966986210641e-02,1.000000000000000048e-04,3.539507193714491962e+01,3.800000000000000044e-01
-2.147380102179586636e+00,7.248191320000000326e-01,2.234292631514032609e-02,1.000000000000000048e-04,3.461547377715260865e+01,2.200000000000000011e-01
-2.137481690179586558e+00,7.386978770000000027e-01,2.104314040772036626e-02,1.000000000000000048e-04,3.470552692092402225e+01,1.499999999999999944e-01
3.007533192999999994e+00,-1.006434849999999992e+00,4.557657779264805142e-02,1.000000000000000048e-04,3.685274133200347535e+01,1.700000000000000122e-01
6.766177190000000063e-01,-9.309161569999999664e-01,9.714863388770048069e-03,1.000000000000000048e-04,3.293552518696423448e+01,1.700000000000000122e-01
6.879719020000000240e-01,-9.170357009999999809e-01,7.994696656214864486e-03,1.000000000000000048e-04,3.249097567563006095e+01,2.600000000000000089e-01
6.868192690000000100e-01,-9.190749710000000183e-01,3.849418737168772836e-02,1.000000000000000048e-04,3.629430928325034955e+01,2.800000000000000266e-01
1.680927606000000019e+00,1.043199457999999913e+00,1.461555654658262815e-02,1.000000000000000048e-04,3.413562882146315758e+01,1.799999999999999933e-01
1.680733408999999901e+00,1.046110547000000057e+00,1.569304055316617097e-02,1.000000000000000048e-04,3.425830901356766134e+01,1.499999999999999944e-01
3.003205794999999956e+00,-1.007960921000000010e+00,2.930240799778571423e-02,1.000000000000000048e-04,3.540192900147267352e+01,2.200000000000000011e-01
3.013387552999999830e+00,-1.018013843000000085e+00,4.267592878653909960e-02,1.000000000000000048e-04,3.615633851075079974e+01,2.000000000000000111e-01
2.991633154000000072e+00,-1.018575491000000000e+00,6.170150179261994251e-03,1.000000000000000048e-04,3.267273748365803954e+01,1.600000000000000033e-01
6.810583510000000063e-01,-9.216344210000000370e-01,2.880449139574393219e-02,1.000000000000000048e-04,3.544291826710313131e+01,1.600000000000000033e-01
1.670069762000000013e+00,1.048284639000000018e+00,2.938738272793912920e-02,1.000000000000000048e-04,3.591171246502926806e+01,2.099999999999999922e-01
1.699713636000000028e+00,1.040243690999999915e+00,3.484891780002447731e-02,1.000000000000000048e-04,3.605300049686304220e+01,2.899999999999999800e-01
1.686195045999999920e+00,1.048540513999999924e+00,3.994381564620710229e-02,1.000000000000000048e-04,3.630314298295429154e+01,1.400000000000000133e-01
1.667162669999999958e+00,1.044746053999999980e+00,3.623264583433525449e-02,1.000000000000000048e-04,3.632659281488644609e+01,2.700000000000000178e-01
1.689467040999999892e+00,1.036330184999999959e+00,4.453862836994420399e-02,1.000000000000000048e-04,3.628787404701862584e+01,1.300000000000000044e-01
1.683799076999999977e+00,1.043385784000000038e+00,4.294715246871337599e-02,1.000000000000000048e-04,3.622016839999214000e+01,1.700000000000000122e-01
-2.151455832179586025e+00,7.398983139999999459e-01,3.897465857122665162e-02,1.000000000000000048e-04,3.630172129319409891e+01,2.500000000000000000e-01
-2.141944958179585967e+00,7.302793560000000461e-01,6.668659653403852250e-03,1.000000000000000048e-04,3.219860787148676451e+01,1.400000000000000133e-01
3.012489310999999947e+00,-1.019874449000000016e+00,3.392157139327601351e-02,1.000000000000000048e-04,3.622030238650290812e+01,1.900000000000000022e-01
6.824463880000000149e-01,-9.193269539999999740e-01,2.045534273329754557e-02,1.000000000000000048e-04,3.440094649202578125e+01,1.600000000000000033e-01
6.933168330000000212e-01,-9.307474239999999899e-01,1.843658542526568911e-02,1.000000000000000048e-04,3.431431787807939315e+01,1.600000000000000033e-01
7.005346909999999871e-01,-9.247541049999999929e-01,7.289476108764617567e-03,1.000000000000000048e-04,3.213966015333976856e+01,2.700000000000000178e-01
1.674988617999999985e+00,1.042237757999999959e+00,3.865743535140772624e-02,1.000000000000000048e-04,3.594022487509724328e+01,1.499999999999999944e-01
1.672026148000000045e+00,1.039374368000000048e+00,6.752638754720952444e-03,1.000000000000000048e-04,3.225080889408280882e+01,1.600000000000000033e-01
2.993618983999999816e+00,-1.008517228000000099e+00,1.365179138886581447e-02,1.000000000000000048e-04,3.333044883210628484e+01,1.700000000000000122e-01
2.992837709999999873e+00,-1.014889098000000045e+00,3.070018664709823694e-02,1.000000000000000048e-04,3.537069651035553619e+01,2.800000000000000266e-01
2.980621672999999916e+00,-1.012535224000000067e+00,2.290769954856060678e-02,1.000000000000000048e-04,3.502039157270839809e+01,1.499999999999999944e-01
3.118379398000000080e+00,-1.044341935000000055e+00,2.800046051782736564e-02,1.000000000000000048e-04,3.527781081221335313e+01,3.099999999999999978e-01
3.132904315000000217e+00,-1.046896950999999909e+00,8.744293368080427453e-03,1.000000000000000048e-04,3.289814542264315378e+01,2.200000000000000011e-01
1.248659997999999938e+00,-1.117162079000000086e+00,3.229360260572208124e-02,1.000000000000000048e-04,3.582703227885215114e+01,2.700000000000000178e-01
2.302446713000000145e+00,-1.091359299000000060e+00,4.891741708220056356e-02,1.000000000000000048e-04,3.626730274383351116e+01,2.899999999999999800e-01
3.133486173000000097e+00,-1.061461677999999909e+00,4.506288949120364901e-02,1.000000000000000048e-04,3.658691788756399177e+01,3.099999999999999978e-01
1.251013366000000016e+00,-1.102704651999999896e+00,3.870902116540027998e-02,1.000000000000000048e-04,3.625726360700153350e+01,2.300000000000000100e-01
1.232341668999999973e+00,-1.105349812000000043e+00,1.806339759738389075e-02,1.000000000000000048e-04,3.433157962306777478e+01,2.200000000000000011e-01
2.330538756999999794e+00,-1.086213730999999960e+00,4.029361849087060438e-02,1.000000000000000048e-04,3.626063378288932881e+01,2.300000000000000100e-01
3.104372880000000112e+00,-1.050765708999999992e+00,2.992580286844416515e-02,1.000000000000000048e-04,3.534894085584041079e+01,2.200000000000000011e-01
3.122794933000000217e+00,-1.050942575000000101e+00,1.548229420566932940e-02,1.000000000000000048e-04,3.434163910642488560e+01,2.099999999999999922e-01
3.135928428000000157e+00,-1.044986675000000087e+00,3.747585385786677235e-03,1.000000000000000048e-04,3.130927334878575863e+01,2.300000000000000100e-01
3.135701593999999925e+00,-1.049448040999999998e+00,1.896419519779334040e-02,1.000000000000000048e-04,3.472435130904093370e+01,2.399999999999999911e-01
2.902190216000000156e+00,-1.054666754000000095e+00,4.467353691779180763e-02,1.000000000000000048e-04,3.688773447248509285e+01,2.099999999999999922e-01
1.219278212000000083e+00,-1.102494101000000004e+00,1.797989397382632193e-02,1.000000000000000048e-04,3.419675678461092616e+01,2.399999999999999911e-01
2.314258420999999899e+00,-1.073777474999999981e+00,3.437888812864091370e-02,1.000000000000000048e-04,3.599997842427309536e+01,2.399999999999999911e-01
3.138600745000000192e+00,-1.056209613999999908e+00,2.149036134812234294e-02,1.000000000000000048e-04,3.454694585148389052e+01,2.800000000000000266e-01
2.873014373000000177e+00,-1.047336534999999902e+00,4.563617817056100229e-02,1.000000000000000048e-04,3.673560460918848491e+01,2.000000000000000111e-01
2.890150627000000139e+00,-1.045368942999999939e+00,3.380365335816222505e-02,1.000000000000000048e-04,3.586061467398643288e+01,2.200000000000000011e-01
-3.136513490179586139e+00,-1.038988312000000080e+00,2.510386921750803330e-02,1.000000000000000048e-04,3.545109240040932974e+01,2.800000000000000266e-01
3.120369102000000172e+00,-1.042910143999999928e+00,3.308164017901216170e-02,1.000000000000000048e-04,3.599214171880839785e+01,2.399999999999999911e-01
3.132773262000000170e+00,-1.048570620000000009e+00,3.577420742880373095e-02,1.000000000000000048e-04,3.625316971233895202e+01,2.300000000000000100e-01
3.132934141999999866e+00,-1.046888051000000042e+00,3.592714673689913207e-02,1.000000000000000048e-04,3.633423658751338792e+01,2.200000000000000011e-01
3.134455274000000014e+00,-1.046257098000000108e+00,4.211549885335573451e-02,1.000000000000000048e-04,3.632644319882036399e+01,2.200000000000000011e-01
2.910504301000000016e+00,-1.063930792999999930e+00,4.527432333407022114e-02,1.000000000000000048e-04,3.689457003632013254e+01,2.399999999999999911e-01
2.301930878999999930e+00,-1.084305269999999988e+00,1.974401383289636075e-02,1.000000000000000048e-04,3.467409773211093693e+01,3.099999999999999978e-01
2.314913878000000036e+00,-1.104421796000000011e+00,1.903387883705542211e-02,1.000000000000000048e-04,3.488659814793214764e+01,2.600000000000000089e-01
1.232494258000000009e+00,-1.089556776000000005e+00,3.831829814838291076e-02,1.000000000000000048e-04,3.612710748392534299e+01,3.099999999999999978e-01
-3.138875270179586341e+00,-1.027091259999999950e+00,9.059638830076963828e-03,1.000000000000000048e-04,3.291493371690690850e+01,3.800000000000000044e-01
1.277748142000000087e+00,-1.105660628999999950e+00,2.788025614956418652e-02,1.000000000000000048e-04,3.553366002666029999e+01,2.500000000000000000e-01
2.339694710999999927e+00,-1.083680948999999893e+00,3.000127154832852791e-02,1.000000000000000048e-04,3.546887503447623402e+01,2.300000000000000100e-01
3.085408954000000037e+00,-1.045989441999999991e+00,2.746209584399363773e-02,1.000000000000000048e-04,3.553251145544289358e+01,2.800000000000000266e-01
3.122183823999999941e+00,-1.053540683000000033e+00,3.745816618002610621e-02,1.000000000000000048e-04,3.616551096059168202e+01,3.699999999999999956e-01
1.263417701000000060e+00,-1.099941301000000093e+00,7.725184002076370716e-03,1.000000000000000048e-04,3.231723966287295013e+01,2.200000000000000011e-01
1.238769020999999970e+00,-1.122513239999999968e+00,2.761709139320294229e-02,1.000000000000000048e-04,3.561762220854321015e+01,2.600000000000000089e-01
1.225778744000000087e+00,-1.107856694000000086e+00,4.314200959520152895e-02,1.000000000000000048e-04,3.613747872184956833e+01,2.500000000000000000e-01
2.356185176999999964e+00,-1.090954028000000076e+00,3.783502532530616524e-02,1.000000000000000048e-04,3.609062447627713510e+01,2.700000000000000178e-01
1.231078855000000027e+00,-1.109460918999999990e+00,1.984765412201883877e-02,1.000000000000000048e-04,3.436189516101139674e+01,2.300000000000000100e-01
2.350025410999999842e+00,-1.078254897999999962e+00,2.259005448443040381e-02,1.000000000000000048e-04,3.508803856963492507e+01,2.300000000000000100e-01
2.889344674999999807e+00,-1.054064458000000037e+00,4.079942408718435082e-02,1.000000000000000048e-04,3.650137012913187107e+01,3.200000000000000067e-01
1.260972444000000081e+00,-1.102168519999999985e+00,4.586838847776520539e-02,1.000000000000000048e-04,3.675709661243951842e+01,2.899999999999999800e-01
3.138597202000000141e+00,-1.049455424000000026e+00,4.939152208050334725e-02,1.000000000000000048e-04,3.644355085527348592e+01,2.600000000000000089e-01
1.280173519000000093e+00,-1.106045986000000036e+00,1.027677423813974991e-02,1.000000000000000048e-04,3.339333629944582071e+01,2.899999999999999800e-01
3.140421104000000074e+00,-1.048273016000000002e+00,6.375774384287718685e-03,1.000000000000000048e-04,3.213113899763224879e+01,2.700000000000000178e-01
2.887571490000000018e+00,-1.060290981000000077e+00,3.464321831699438553e-02,1.000000000000000048e-04,3.624517042757492646e+01,2.300000000000000100e-01
3.117377486000000086e+00,-1.048849812999999909e+00,2.024760943107970987e-02,1.000000000000000048e-04,3.468620338238142864e+01,2.800000000000000266e-01
3.139331405000000075e+00,-1.045946368000000071e+00,2.913817362052260537e-02,1.000000000000000048e-04,3.548507095344031370e+01,2.300000000000000100e-01
2.901812189000000153e+00,-1.070407117000000019e+00,3.985374350735220242e-03,1.000000000000000048e-04,3.100912850690577116e+01,2.200000000000000011e-01
2.874698792999999863e+00,-1.069280417999999955e+00,3.350546165666548615e-02,1.000000000000000048e-04,3.571089796495090951e+01,2.200000000000000011e-01
3.126790450000000110e+00,-1.053686536000000062e+00,2.394032262313057491e-02,1.000000000000000048e-04,3.472216366528407860e+01,2.099999999999999922e-01
1.253234667999999941e+00,-1.096167120000000050e+00,4.054882303988585276e-03,1.000000000000000048e-04,3.147111694978122998e+01,2.200000000000000011e-01
1.242189800000000011e+00,-1.095888138000000067e+00,1.284632676015902766e-02,1.000000000000000048e-04,3.405729842375335892e+01,2.899999999999999800e-01
2.358704259000000025e+00,-1.096119858000000002e+00,9.148658583523525123e-03,1.000000000000000048e-04,3.270974672275033868e+01,2.099999999999999922e-01
3.090657074000000115e+00,-1.046905049999999893e+00,3.507651035434451725e-02,1.000000000000000048e-04,3.608945872119382159e+01,2.300000000000000100e-01
2.350320292999999783e+00,-1.077642637000000070e+00,2.586117183300348787e-02,1.000000000000000048e-04,3.516101990020444390e+01,3.300000000000000155e-01
3.120911620999999858e+00,-1.047605429999999949e+00,2.827960186938534293e-02,1.000000000000000048e-04,3.567230972003305567e+01,2.899999999999999800e-01
2.310418793000000193e+00,-1.091478047999999923e+00,4.846164543338077335e-02,1.000000000000000048e-04,3.651285734163877805e+01,3.300000000000000155e-01
2.888242410000000149e+00,-1.055260810999999910e+00,2.054785056747270022e-02,1.000000000000000048e-04,3.478861913883290669e+01,2.999999999999999889e-01
2.313880778000000138e+00,-1.089056457000000089e+00,2.152744402448752287e-02,1.000000000000000048e-04,3.470213377660677168e+01,2.600000000000000089e-01
3.096505394999999883e+00,-1.050897790999999915e+00,9.235492758085273035e-03,1.000000000000000048e-04,3.325641475815817927e+01,3.300000000000000155e-01
1.264206060000000020e+00,-1.108314516000000083e+00,7.860338673414131450e-03,1.000000000000000048e-04,3.263143164830973575e+01,2.500000000000000000e-01
2.317080779999999951e+00,-1.080569537999999996e+00,4.927935407975422843e-02,1.000000000000000048e-04,3.687496218619146759e+01,2.399999999999999911e-01
2.308161032000000112e+00,-1.080284865999999955e+00,3.972445928760735823e-02,1.000000000000000048e-04,3.635718249732702390e+01,3.900000000000000133e-01
1.213089824000000094e+00,-1.095999417000000031e+00,2.777528701864469610e-02,1.000000000000000048e-04,3.512056864158104474e+01,2.700000000000000178e-01
3.095344697999999894e+00,-1.044259242999999948e+00,1.310965144176739691e-02,1.000000000000000048e-04,3.392273616639843681e+01,2.200000000000000011e-01
3.093500166000000107e+00,-1.047656949999999920e+00,2.289038031721826391e-02,1.000000000000000048e-04,3.518333713442834210e+01,2.300000000000000100e-01
2.871266652000000086e+00,-1.064917746999999970e+00,3.898514254142541879e-02,1.000000000000000048e-04,3.646696470657226996e+01,2.500000000000000000e-01
2.872879009000000039e+00,-1.076645507999999918e+00,2.363877445988861459e-02,1.000000000000000048e-04,3.539602303443957965e+01,2.099999999999999922e-01
1.241294699000000001e+00,-1.109043570000000090e+00,4.223604496656428731e-02,1.000000000000000048e-04,3.603082445420074720e+01,2.099999999999999922e-01
1.238788393000000099e+00,-1.083197141000000085e+00,1.956726794855599694e-02,1.000000000000000048e-04,3.430581210161652450e+01,2.999999999999999889e-01
-3.140928712179586135e+00,-1.049943351000000025e+00,1.945826725355408876e-02,1.000000000000000048e-04,3.503792286922294608e+01,2.200000000000000011e-01
2.897074545000000168e+00,-1.050668165000000043e+00,8.686217385539646632e-03,1.000000000000000048e-04,3.257198134264194067e+01,2.099999999999999922e-01
3.133488720999999977e+00,-1.053899826000000095e+00,3.655443245517844136e-02,1.000000000000000048e-04,3.613930036968977078e+01,2.300000000000000100e-01
2.854965548000000020e+00,-1.051119023000000041e+00,1.563835763286184483e-02,1.000000000000000048e-04,3.406666172595679143e+01,3.200000000000000067e-01
2.846666281000000076e+00,-1.061494909000000098e+00,5.352230749453030373e-03,1.000000000000000048e-04,3.196179063672994403e+01,2.600000000000000089e-01
1.477625364000000108e+00,-9.892628350000000070e-01,3.949283058042388217e-02,1.000000000000000048e-04,3.615662013924438867e+01,2.000000000000000111e-01
-2.998301261179586064e+00,-5.567642400000000213e-01,4.193748434932520475e-02,1.000000000000000048e-04,3.603378965735197426e+01,1.799999999999999933e-01
2.915910107000000195e+00,-9.248875840000000403e-01,4.798330079787969937e-02,1.000000000000000048e-04,3.660497707000386924e+01,2.999999999999999889e-01
2.904218159000000021e+00,-9.279150130000000107e-01,1.850649901047195581e-02,1.000000000000000048e-04,3.468444269653367229e+01,2.399999999999999911e-01
2.912492748000000020e+00,-9.378063049999999512e-01,4.103143822856157585e-02,1.000000000000000048e-04,3.630932765438854659e+01,4.600000000000000200e-01
2.945746643000000109e+00,-9.241091030000000428e-01,3.347056210780677971e-02,1.000000000000000048e-04,3.577845344028239793e+01,2.300000000000000100e-01
2.195221751000000054e+00,9.567984520000000215e-01,3.874762856777305003e-02,1.000000000000000048e-04,3.610317115819871958e+01,2.200000000000000011e-01
-2.382074272179586227e+00,-9.504311730000000180e-01,3.881956009237607849e-03,1.000000000000000048e-04,3.107781472576166237e+01,2.300000000000000100e-01
2.197803225999999999e+00,9.560313849999999558e-01,2.042065304100304166e-02,1.000000000000000048e-04,3.470545251921785024e+01,2.300000000000000100e-01
-2.380846050179586282e+00,-9.512843520000000552e-01,1.142839721094468172e-02,1.000000000000000048e-04,3.333724829193504036e+01,2.600000000000000089e-01
-2.382960995179586039e+00,-9.501026420000000527e-01,2.416444240085926023e-02,1.000000000000000048e-04,3.533724583791289575e+01,2.099999999999999922e-01
2.192165822000000208e+00,9.554729659999999791e-01,4.631712419126133434e-02,1.000000000000000048e-04,3.639500315426179355e+01,2.899999999999999800e-01
-2.383512939179586176e+00,-9.505219620000000535e-01,3.834808797115381307e-02,1.000000000000000048e-04,3.631001604662366589e+01,2.000000000000000111e-01
2.197044292000000176e+00,9.582492320000000063e-01,2.961388492025043145e-02,1.000000000000000048e-04,3.524871550288619204e+01,2.500000000000000000e-01
2.198013217999999824e+00,9.570721989999999568e-01,4.727875072121139055e-02,1.000000000000000048e-04,3.663652320404618479e+01,2.099999999999999922e-01
2.198391541999999976e+00,9.561199929999999458e-01,7.561071002011250479e-03,1.000000000000000048e-04,3.246048372385933334e+01,2.300000000000000100e-01
2.199218732999999926e+00,9.570277640000000030e-01,4.276608635920504942e-02,1.000000000000000048e-04,3.652202738134952398e+01,2.200000000000000011e-01
2.196667974999999995e+00,9.569524729999999701e-01,3.544056848987731795e-02,1.000000000000000048e-04,3.595110711592547403e+01,2.399999999999999911e-01
2.196400267000000017e+00,9.571105250000000453e-01,2.155271555362063204e-02,1.000000000000000048e-04,3.467582683303055546e+01,2.500000000000000000e-01
2.195980999000000100e+00,9.563170869999999546e-01,1.882602683711002631e-02,1.000000000000000048e-04,3.467328231956000906e+01,2.200000000000000011e-01
2.198886345000000020e+00,9.574225640000000315e-01,4.154727442500342344e-02,1.000000000000000048e-04,3.644138565095886406e+01,3.300000000000000155e-01
-2.382942164179586264e+00,-9.487821469999999646e-01,7.652735567273978579e-03,1.000000000000000048e-04,3.297115683276476972e+01,2.000000000000000111e-01
2.197058621000000045e+00,9.568337070000000333e-01,3.180511221250668930e-02,1.000000000000000048e-04,3.589907069897196124e+01,2.600000000000000089e-01
2.196754174000000059e+00,9.569828230000000380e-01,1.300036257739438719e-02,1.000000000000000048e-04,3.432593647000241077e+01,2.399999999999999911e-01
-2.381905888179586039e+00,-9.494029419999999719e-01,4.713170017819854479e-02,1.000000000000000048e-04,3.689701219111441333e+01,2.399999999999999911e-01
-2.382353656179586388e+00,-9.501919130000000546e-01,2.474343874910755678e-02,1.000000000000000048e-04,3.502980377876831852e+01,2.600000000000000089e-01
-2.385313647179586383e+00,-9.492824659999999914e-01,1.409311413753525782e-02,1.000000000000000048e-04,3.348216230609813238e+01,2.399999999999999911e-01
-2.383308463179586223e+00,-9.502672559999999491e-01,1.801563804209406830e-02,1.000000000000000048e-04,3.453428539029938094e+01,2.000000000000000111e-01
2.194446376000000143e+00,9.548028840000000184e-01,1.740631796977381782e-02,1.000000000000000048e-04,3.386048003893674974e+01,3.699999999999999956e-01
-2.377678389179586294e+00,-9.493284189999999789e-01,3.753646919864644244e-02,1.000000000000000048e-04,3.578165337226607789e+01,3.099999999999999978e-01
2.195048706000000127e+00,9.553664520000000326e-01,4.292462546260370632e-02,1.000000000000000048e-04,3.623556195637690536e+01,2.399999999999999911e-01
2.194988459000000169e+00,9.569281090000000267e-01,4.469389344973491440e-02,1.000000000000000048e-04,3.634958026308932943e+01,2.099999999999999922e-01
2.198773670000000013e+00,9.585742720000000050e-01,5.312023088138791323e-03,1.000000000000000048e-04,3.199119916770912297e+01,2.800000000000000266e-01
2.196007632000000154e+00,9.574002940000000406e-01,2.660090422448970968e-02,1.000000000000000048e-04,3.536692568997990804e+01,2.800000000000000266e-01
2.193610842000000005e+00,9.569156829999999614e-01,5.819574275865520632e-03,1.000000000000000048e-04,3.184323836006664266e+01,2.099999999999999922e-01
2.194846306000000080e+00,9.574700699999999509e-01,4.677139934564154833e-02,1.000000000000000048e-04,3.619024102807950527e+01,2.300000000000000100e-01
8.096471539999999800e-01,9.894972960000000262e-01,9.599488942866982177e-03,1.000000000000000048e-04,3.301818227528138294e+01,9.499999999999999556e-01
-2.901318991795864832e-01,1.086903570000000041e+00,2.650011567892775199e-02,1.000000000000000048e-04,3.498926405579416610e+01,2.000000000000000111e-01
-2.914486071795865385e-01,1.085909494999999891e+00,4.656041566060534903e-02,1.000000000000000048e-04,3.668238140188628194e+01,1.000000000000000056e-01
-2.954610881795858290e-01,1.084462065999999947e+00,1.810727305699064496e-02,1.000000000000000048e-04,3.472205524127095799e+01,1.199999999999999956e-01
-3.403197011795864313e-01,1.090760651000000081e+00,1.488096063878951297e-02,1.000000000000000048e-04,3.396753382940607224e+01,8.999999999999999667e-02
-3.429455761795860980e-01,1.087892671000000089e+00,2.096871851242413515e-02,1.000000000000000048e-04,3.497168439647049354e+01,1.400000000000000133e-01
6.896152909999999636e-01,-9.249195220000000495e-01,2.227745993905509356e-02,1.000000000000000048e-04,3.514619182343945170e+01,2.000000000000000111e-01
9.689134900000000439e-01,1.175295868000000077e+00,4.356851386837261308e-02,1.000000000000000048e-04,3.677735129489040844e+01,4.500000000000000111e-01
1.024453132999999960e+00,1.182715689999999986e+00,4.909460573203638933e-02,1.000000000000000048e-04,3.670830709188383167e+01,1.900000000000000022e-01
1.006083177000000051e+00,1.165244638999999971e+00,2.845614245289233499e-02,1.000000000000000048e-04,3.551226975768523886e+01,1.700000000000000122e-01
9.905969959999999519e-01,1.153001898999999941e+00,3.614070562322377334e-02,1.000000000000000048e-04,3.570814103400132922e+01,3.499999999999999778e-01
2.950210608999999984e+00,-1.015290931000000008e+00,3.864657737157709688e-02,1.000000000000000048e-04,3.637430042451678247e+01,5.000000000000000000e-01
2.950804928999999799e+00,-1.010655210999999998e+00,4.286438020364579521e-02,1.000000000000000048e-04,3.600882077321109875e+01,1.700000000000000122e-01
2.951637304000000128e+00,-1.010683065999999908e+00,4.869091027844265479e-02,1.000000000000000048e-04,3.649155599154407525e+01,1.900000000000000022e-01
-2.349248843179586377e+00,-9.322901449999999590e-01,2.306862827037964303e-02,1.000000000000000048e-04,3.503524417295410132e+01,1.900000000000000022e-01
