1.794023199870000029e+00,-1.066504575379999986e+00,9.913147190382759488e-02,1.889999999999999862e-05,3.843389316469358619e+01,1.226000000000000006e-01
7.402625042339999739e-01,-3.478394374039999737e-01,1.053983656991702988e-01,5.000000000000000104e-04,3.839561023253878602e+01,1.265000000000000013e-01
2.353709585569999874e+00,-1.080984469609999943e+00,1.296736113605487239e-01,1.609999999999999832e-05,3.889362614042247657e+01,1.386999999999999900e-01
2.802585039039999781e+00,-1.015603153890000110e+00,7.868645702377320694e-02,1.830000000000000097e-05,3.764231931105275919e+01,1.388000000000000067e-01
1.777274800810000110e+00,-1.074644056479999943e+00,8.270825144258185657e-02,1.329999999999999972e-05,3.775981433051509839e+01,1.411999999999999922e-01
2.913516280570000117e+00,-9.707627933700000433e-01,1.272028002606823693e-01,6.900000000000000005e-06,3.899875093076050092e+01,1.700000000000000122e-01
1.085549145259999904e+00,-7.448246486780000231e-01,9.490287439799961755e-02,1.840000000000000001e-05,3.799159813406667041e+01,1.277999999999999969e-01
1.027510266820000018e+00,-6.962213171690000424e-01,1.272268253977373031e-01,1.349999999999999949e-05,3.901193386241023120e+01,1.368999999999999939e-01
1.399970736520000036e+00,-9.625335564200000471e-01,8.104829255549979294e-02,1.980000000000000016e-05,3.789431566407851193e+01,1.358000000000000040e-01
2.570116769140000201e+00,-1.064664255240000079e+00,1.002010378046078592e-01,1.329999999999999972e-05,3.838243676011104100e+01,1.436999999999999944e-01
9.720875361769999445e-01,-6.095229793949999975e-01,7.902668412055097180e-02,1.290000000000000016e-05,3.768000353822122150e+01,1.373000000000000054e-01
1.621246130609999891e+00,-1.030625734150000028e+00,1.338693013099997442e-01,5.000000000000000104e-03,3.910360152361938191e+01,1.584000000000000130e-01
-3.042339658870000019e+00,-7.656767762299999669e-01,1.129592197681618393e-01,5.000000000000000104e-04,3.854535197577522609e+01,1.280999999999999917e-01
1.947272166539999905e+00,-1.101887229609999963e+00,1.373706106288420381e-01,6.999999999999999895e-06,3.867132982399587604e+01,1.270999999999999908e-01
1.341846001540000000e+00,-9.474381739049999585e-01,1.022185421785894444e-01,7.999999999999999638e-06,3.856610105241773567e+01,1.443000000000000116e-01
7.996623925639999575e-01,-4.051612241720000118e-01,9.442468520470542748e-02,1.599999999999999928e-05,3.827842779005389673e+01,1.696000000000000008e-01
8.159396800399999483e-01,-4.608107027469999784e-01,1.035273520917924794e-01,5.000000000000000104e-03,3.824237878174994876e+01,1.826000000000000123e-01
2.125302249619999806e+00,-1.086803689069999912e+00,1.141839206933415174e-01,1.340000000000000045e-05,3.876804851648250150e+01,1.282999999999999974e-01
-3.106068213669999967e+00,-7.694953304789999837e-01,1.279526190798573049e-01,5.000000000000000104e-03,3.900969946236111241e+01,1.608999999999999875e-01
2.841950137700000045e+00,-9.875161071129999746e-01,1.169815922569437394e-01,2.159999999999999987e-05,3.863635300195632993e+01,1.943000000000000005e-01
-3.134999796409999817e+00,-8.037173782269999567e-01,8.907183336292730236e-02,1.419999999999999957e-05,3.799584119895737189e+01,1.270999999999999908e-01
9.671751689580000422e-01,-6.400502010180000312e-01,1.211352190355832192e-01,1.509999999999999942e-05,3.885538560079510972e+01,1.388999999999999957e-01
2.720836001069999899e+00,-9.986845377940000157e-01,1.277224455236767309e-01,1.779999999999999898e-05,3.911493723293630609e+01,1.534999999999999976e-01
8.302812732050000033e-01,-4.498958842110000189e-01,9.475031764364170994e-02,5.000000000000000104e-04,3.816035256504087414e+01,1.365999999999999992e-01
2.647198647480000222e+00,-1.045089967700000066e+00,9.376888148528839118e-02,7.700000000000000816e-06,3.846389026284977319e+01,1.254000000000000115e-01
1.818959325520000059e+00,-1.082495407979999991e+00,9.937708453646176832e-02,2.970000000000000024e-05,3.821513743876057845e+01,1.156999999999999973e-01
1.155317387099999982e+00,-7.915749840529999748e-01,7.201856054551841746e-02,2.159999999999999987e-05,3.753184581487948890e+01,1.307000000000000106e-01
-3.085894853380000136e+00,-7.425671854069999522e-01,7.961074985914000368e-02,5.000000000000000104e-03,3.788690521999141225e+01,1.781999999999999973e-01
1.135128119430000027e+00,-8.234341324370000326e-01,1.222200927036014018e-01,1.540000000000000163e-05,3.880507615664782861e+01,1.270000000000000018e-01
8.771002889440000505e-01,-5.395284705770000411e-01,1.170905256207739331e-01,6.339999999999999607e-05,3.867873612228969904e+01,1.569000000000000117e-01
1.745186286110000040e+00,-1.042342141470000039e+00,1.330798532058309613e-01,5.000000000000000104e-03,3.913604170450172859e+01,1.706999999999999906e-01
2.946531179209999962e+00,-9.604502811189999933e-01,9.152435032606101584e-02,1.079999999999999993e-05,3.831345364803630105e+01,1.285999999999999921e-01
1.166608233690000107e+00,-7.996043302990000212e-01,1.221383144468847493e-01,2.159999999999999987e-05,3.879198608320623975e+01,1.400000000000000133e-01
1.185990132269999942e+00,-8.641372202310000361e-01,9.520189867742104295e-02,1.590000000000000023e-05,3.816036718916208770e+01,1.340000000000000080e-01
-3.115682483410000092e+00,-7.921200688409999469e-01,1.048789495548217154e-01,5.000000000000000104e-04,3.828852162256579561e+01,1.269000000000000128e-01
2.721615272170000210e+00,-1.026974405240000054e+00,7.995190810766178435e-02,1.669999999999999935e-05,3.788795261333904563e+01,1.351999999999999869e-01
2.727804926320000156e+00,-1.024504387349999934e+00,1.103637918841405829e-01,9.399999999999999786e-06,3.859556359563897132e+01,1.759000000000000008e-01
1.426680047809999907e+00,-9.906820955959999564e-01,7.462401774333030091e-02,6.800000000000000116e-06,3.763578363209274613e+01,1.161999999999999977e-01
-3.031490600410000180e+00,-7.521339244750000486e-01,1.371175603195894377e-01,5.000000000000000104e-03,3.879018578555160701e+01,1.552000000000000046e-01
-3.042901330919999925e+00,-7.306456428419999538e-01,7.507182627450564860e-02,5.000000000000000104e-03,3.779502690070233228e+01,1.589000000000000135e-01
8.404722479970000437e-01,-4.623668884409999902e-01,7.533823448751561513e-02,5.000000000000000104e-03,3.768242295635063499e+01,1.965000000000000080e-01
3.100915619489999830e+00,-8.173695768680000473e-01,7.888946362241952559e-02,3.399999999999999973e-05,3.771240480482175172e+01,1.670999999999999985e-01
1.286002955080000065e+00,-9.049919594959999758e-01,1.078594690722236571e-01,5.599999999999999747e-06,3.912388494273851336e+01,2.861000000000000210e-01
1.737660748389999954e+00,-1.062189249350000031e+00,9.002504502514548090e-02,5.000000000000000104e-03,3.818369026485353857e+01,1.638000000000000012e-01
2.095352158109999863e+00,-1.096962326439999913e+00,1.044935299812083940e-01,1.720000000000000134e-05,3.830051650701404498e+01,1.141999999999999960e-01
8.167659532600000105e-01,-4.688205310329999764e-01,1.284316062957177595e-01,3.000000000000000076e-05,3.898356610172485404e+01,1.711999999999999911e-01
2.667802166029999977e+00,-1.012992242439999968e+00,1.229934255423392742e-01,8.199999999999999417e-06,3.874710949168802188e+01,1.376999999999999891e-01
1.009909081290000010e+00,-7.225277238559999482e-01,8.591435355880733260e-02,2.019999999999999972e-05,3.815626049007068588e+01,1.419999999999999873e-01
2.300619155610000188e+00,-1.097223542480000091e+00,1.351397213083249116e-01,5.959999999999999857e-05,3.900162918970334403e+01,1.456999999999999962e-01
1.255215416199999989e+00,-8.574584809030000310e-01,1.294350411899937159e-01,1.900000000000000105e-05,3.857669406514058608e+01,2.167999999999999927e-01
1.911644274089999929e+00,-1.096370223150000101e+00,1.001340690920895643e-01,3.809999999999999775e-05,3.834265369084680941e+01,1.733999999999999986e-01
8.206518518590000255e-01,-3.994206287100000030e-01,9.357934449862941040e-02,2.869999999999999965e-05,3.831616413041223268e+01,1.630999999999999950e-01
9.041604029409999743e-01,-5.889006783089999475e-01,9.547470302780666773e-02,1.020000000000000060e-05,3.819313317477273273e+01,1.348000000000000032e-01
1.415457213080000054e+00,-9.568995503610000508e-01,1.298768280001395825e-01,1.369999999999999927e-05,3.912151535009478920e+01,2.263999999999999901e-01
-3.010963742429999979e+00,-7.220265089699999805e-01,1.001688066130406451e-01,1.709999999999999891e-05,3.824904550723069718e+01,1.378000000000000058e-01
2.101167545840000095e+00,-1.082254349230000079e+00,1.315456174102614673e-01,1.340000000000000045e-05,3.889286547663083837e+01,1.173000000000000015e-01
9.991690961460000242e-01,-7.076684939909999583e-01,1.067742926880276416e-01,1.540000000000000163e-05,3.847973902595123263e+01,1.645000000000000073e-01
1.873057221090000057e+00,-1.090367434140000036e+00,1.121254667558850560e-01,1.399999999999999979e-05,3.847792491871921072e+01,1.307999999999999996e-01
1.857861219069999903e+00,-1.098153534699999989e+00,1.078340508470794906e-01,1.380000000000000001e-05,3.838524859397488598e+01,1.484999999999999931e-01
2.665524588519999849e+00,-1.048996702910000023e+00,1.094585220538177583e-01,2.989999999999999833e-05,3.865431538570614123e+01,1.246000000000000024e-01
2.355154943700000114e+00,-1.097972677060000013e+00,8.217766653809926991e-02,2.199999999999999943e-05,3.808836632388204180e+01,1.806999999999999995e-01
9.795978195679999612e-01,-6.427905315930000363e-01,1.067021031070388704e-01,1.809999999999999950e-05,3.847780351881665695e+01,1.572000000000000064e-01
-3.057869156220000217e+00,-7.350573474220000181e-01,7.903710231410240872e-02,3.470000000000000319e-05,3.783265462844393312e+01,1.242000000000000048e-01
9.920497477990000146e-01,-6.500334753240000207e-01,7.530951428296961403e-02,9.000000000000000228e-06,3.792340166405531221e+01,2.169999999999999984e-01
3.130046329429999830e+00,-8.523119884030000426e-01,1.219400689998509368e-01,1.259999999999999964e-05,3.869745531396115723e+01,1.213000000000000050e-01
2.379028017850000065e+00,-1.072014097799999899e+00,1.292039911351992310e-01,1.049999999999999942e-05,3.899548157633925882e+01,1.262999999999999956e-01
2.357025798630000057e+00,-1.081619083709999929e+00,1.028078460036555980e-01,1.079999999999999993e-05,3.845499216448099844e+01,1.401000000000000023e-01
-2.970667736299999806e+00,-6.774830050879999677e-01,1.350056597621831500e-01,5.000000000000000104e-04,3.925077521298742056e+01,1.595999999999999919e-01
9.081755733340000081e-01,-5.458360787789999780e-01,1.130997065329995555e-01,2.559999999999999884e-05,3.860845625026185957e+01,1.363999999999999935e-01
1.358823888090000098e+00,-9.312103408390000059e-01,8.307273704647957779e-02,5.000000000000000104e-03,3.789503172549748200e+01,1.728999999999999981e-01
2.298395117170000113e+00,-1.078031132260000025e+00,1.322315374973691837e-01,1.439999999999999935e-05,3.926118244743486230e+01,1.371999999999999886e-01
-3.070442777129999801e+00,-7.549988654300000546e-01,1.063385000426391724e-01,1.349999999999999949e-05,3.864077660461676089e+01,1.471000000000000085e-01
1.477099177229999949e+00,-1.010621637769999914e+00,1.119783138337521328e-01,2.339999999999999958e-05,3.852730890494810012e+01,1.431999999999999940e-01
8.741869070719999746e-01,-5.017862068989999980e-01,1.204469100729181619e-01,5.000000000000000104e-04,3.871043529912945047e+01,1.423000000000000098e-01
2.330225988860000097e+00,-1.085528504420000040e+00,1.028725834802333705e-01,9.500000000000000523e-06,3.824447730981394500e+01,1.476000000000000090e-01
7.436354871750000539e-01,-3.504138256459999878e-01,7.995270454184426334e-02,5.000000000000000104e-04,3.789147635448283324e+01,1.774999999999999911e-01
1.427162433049999901e+00,-9.612825434239999911e-01,9.205361238575623939e-02,2.180000000000000134e-05,3.837371587512777182e+01,1.255999999999999894e-01
9.044026198019999851e-01,-5.322096512109999455e-01,1.125565507626920259e-01,5.000000000000000104e-03,3.849784033402150385e+01,1.680000000000000104e-01
8.455056588670000206e-01,-5.142817755869999452e-01,7.592304869543921308e-02,1.349999999999999949e-05,3.785158719627403912e+01,1.323000000000000009e-01
1.205649471110000093e+00,-8.710924191309999953e-01,1.096003558464094807e-01,5.000000000000000104e-04,3.819670152366926175e+01,1.277000000000000079e-01
1.943996264309999944e+00,-1.074116518739999915e+00,9.498655064002170523e-02,1.430000000000000031e-05,3.867144421125680509e+01,1.484000000000000041e-01
3.097793320910000148e+00,-8.262323889349999506e-01,7.745460512600432779e-02,2.069999999999999832e-05,3.766155294012292387e+01,1.265999999999999903e-01
1.039784177770000095e+00,-7.522941733079999693e-01,1.252198090895533245e-01,3.820000000000000018e-05,3.885722321831255499e+01,1.250999999999999890e-01
2.184902241780000143e+00,-1.103811874810000093e+00,1.196380380305438473e-01,2.209999999999999847e-05,3.896144441911293654e+01,1.250000000000000000e-01
1.466494425010000047e+00,-9.700494030970000514e-01,8.963398678380263274e-02,2.349999999999999862e-05,3.802162149648803080e+01,1.444999999999999896e-01
7.947229055519999807e-01,-4.173956512609999780e-01,7.846125480856723511e-02,1.450000000000000009e-05,3.813549742298754808e+01,1.716000000000000025e-01
1.108604996610000004e+00,-7.642787783910000021e-01,1.149608055846760846e-01,5.200000000000000188e-06,3.842010286694020493e+01,1.686999999999999889e-01
2.082009968799999999e+00,-1.113896128449999967e+00,9.672734084437902002e-02,1.049999999999999942e-05,3.851549265317491688e+01,1.280999999999999917e-01
1.869326667860000013e+00,-1.083687296129999922e+00,8.117160213456142692e-02,2.129999999999999935e-05,3.763249021994946730e+01,1.824000000000000066e-01
1.393367858249999980e+00,-9.489811826320000421e-01,1.013609614327272562e-01,2.619999999999999987e-05,3.834129925664633731e+01,1.252999999999999947e-01
1.078385828560000093e+00,-7.403871388199999570e-01,7.491221452242065315e-02,2.099999999999999884e-05,3.755068236253974590e+01,1.232000000000000040e-01
1.814520130830000078e+00,-1.075429706089999993e+00,1.165933312494007168e-01,1.590000000000000023e-05,3.863571415911294338e+01,4.264000000000000012e-01
1.011862774459999947e+00,-6.888224621940000070e-01,1.346124371445950041e-01,2.680000000000000090e-05,3.894686398188385823e+01,1.262999999999999956e-01
8.544698483829999969e-01,-5.015490967350000329e-01,7.925061894407105234e-02,5.000000000000000104e-03,3.776239027666805015e+01,1.559999999999999998e-01
1.018549290619999992e+00,-7.028238768519999846e-01,1.003323289075129382e-01,8.800000000000000449e-06,3.825468170440769455e+01,1.323000000000000009e-01
1.623787387219999934e+00,-1.054606196469999979e+00,1.045972959216468490e-01,1.809999999999999950e-05,3.846719575996864648e+01,1.325000000000000067e-01
-3.049611868680000004e+00,-7.649298403180000427e-01,1.145637311736728836e-01,8.800000000000000449e-06,3.856684344174706780e+01,1.373999999999999944e-01
9.325682391520000447e-01,-6.045088198550000458e-01,1.366984398285635283e-01,6.700000000000000226e-06,3.909365316786385591e+01,1.852000000000000035e-01
1.143614002939999930e+00,-7.961324350570000430e-01,8.527419045801626352e-02,1.679999999999999839e-05,3.772816671731389704e+01,1.247000000000000053e-01
1.194021646369999967e+00,-8.723073439849999833e-01,7.477516299766219510e-02,7.900000000000000595e-06,3.770039325592620116e+01,1.376999999999999891e-01
2.197122871779999986e+00,-1.118233355919999950e+00,9.025753730344948655e-02,1.079999999999999993e-05,3.803448772655040955e+01,1.489999999999999936e-01
1.184121655390000027e+00,-8.242287254719999900e-01,9.499030851502232586e-02,2.229999999999999994e-05,3.846548362830459666e+01,1.338999999999999913e-01
1.089700901779999898e+00,-7.536230516480000308e-01,1.153225577158573517e-01,1.580000000000000119e-05,3.857845347503453581e+01,1.474000000000000032e-01
