2588.94214723 +- 358.645042116
[ 179.09205608   64.42061257]
0.746066092677, 0.200000428782,  0.799999571218
{'OMfit_0': 0.04521584396327144, 'b': 0.14444020492206788, 'l': 0.10557807840777667, 'h_fit_0': 0.002149287121756105, 'z_bulk': 0.0011963129173414577}
107.097293746
Function value is above the specified estimated distance to the minimum (edm).
