30918.8663323 +- 13762.4553191
[ 122.60007469   27.99808163]
0.727765216511, 0.200000001634,  0.799999998366
{'OMfit_0': 0.0010818468156923583, 'b': 0.009407771426506617, 'l': 0.013154934063928092, 'h_fit_0': 0.0007171008684896396, 'z_bulk': 0.045906679694973085}
1400.41066424
no error
