85.6257365089 +- 55.7001484964
[ 139.19544324    7.13140522]
0.703628820424, 0.20000001133,  0.79999998867
{'OMfit_0': 0.14052769578693233, 'b': 0.47115766313557417, 'l': 0.6875049807878075, 'h_fit_0': 0.0005311740675456589, 'z_bulk': 0.00018579598020096455}
193.764416654
Function value is above the specified estimated distance to the minimum (edm).
