58.8812501055 +- 25.517236825
[ 18.73218659  40.0243417 ]
0.712201603619, 0.200000014485,  0.799999985515
{'OMfit_0': 0.02493347060410095, 'b': 0.39609770870430727, 'l': 0.7962031152891786, 'h_fit_0': 6.568042778959393e-05, 'z_bulk': 8.511647016928858e-05}
1074.94478839
Function value is above the specified estimated distance to the minimum (edm).
