4093.62674958 +- 9529.49560405
[ 122.69648113   33.12523313]
0.715527263349, 0.200001223847,  0.799998776153
{'OMfit_0': 0.14884041811609897, 'b': 0.691700168874735, 'l': 0.35969361861052596, 'h_fit_0': 0.06288615036591039, 'z_bulk': 0.031787024350371784}
127.487954992
Function value is above the specified estimated distance to the minimum (edm).
