0.00197824942846 +- 1987.32411921
[ 154.88846342   14.93357759]
0.70781765434, 0.320208294216,  0.679791705784
{'OMfit_0': 0.00020636901131848573, 'b': 2.2833344620830256, 'l': 4.44613372921836, 'h_fit_0': 8.847328493105655e-05, 'z_bulk': 0.006629009844200673}
889.865127316
no error
