32.2873829281 +- 26.293736539
[-90.02440906  19.68169394]
0.709077811213, 0.20000000838,  0.79999999162
{'OMfit_0': 0.12397535651532306, 'b': 0.7584080663144411, 'l': 0.9039650340327379, 'h_fit_0': 7.125045797085061e-06, 'z_bulk': 8.77065983714842e-05}
659.623448006
no error
