61.2060810229 +- 27.9313880821
[-98.31521678  23.15454784]
0.710135954199, 0.200000815084,  0.799999184916
{'OMfit_0': 0.02883011944068732, 'b': 0.45993198617854647, 'l': 0.4958490403047694, 'h_fit_0': 7.174320514485855e-05, 'z_bulk': 9.316922426921836e-05}
618.181395598
Function value is above the specified estimated distance to the minimum (edm).
