2259.76619145 +- 18027.3044092
[-34.06117146 -21.42798614]
0.702760124314, 0.200000022992,  0.799999977008
{'OMfit_0': 0.12821747462707597, 'b': 0.6430364720632801, 'l': 2.155174509175419, 'h_fit_0': 0.007825476551929, 'z_bulk': 0.06013270670744697}
130.556606966
no error
