3427.30443519 +- 592.773559386
[ 159.44584228   50.25213118]
0.737449771294, 0.200000273199,  0.799999726801
{'OMfit_0': 0.0017001815230208162, 'b': 0.1547449488838406, 'l': 0.11087779855345747, 'h_fit_0': 0.0026794982355920482, 'z_bulk': 0.001977282780681322}
1396.32450763
Function value is above the specified estimated distance to the minimum (edm).
