4.49517032837 +- 143.6644853
[ 179.99943645   89.70704363]
0.713377176625, 0.200055343913,  0.799944656087
{'OMfit_0': 0.19987971463539772, 'b': 2.795077453218533, 'l': 5.549366620733238, 'h_fit_0': 0.001059181482729099, 'z_bulk': 0.000479213872616735}
215.269606717
Function value is above the specified estimated distance to the minimum (edm).
