13002.1132333 +- 13352.4096992
[ 121.1905793    26.72676414]
0.721482947611, 0.200000000075,  0.799999999925
{'OMfit_0': 0.001452061910395444, 'b': 0.024276937875915117, 'l': 0.033402061445779285, 'h_fit_0': 0.00010606523875600349, 'z_bulk': 0.044538912643333484}
1348.57551428
no error
