7562.41339634 +- 13478.6559713
[-53.38065792 -34.90031463]
0.685645487104, 0.200000001893,  0.799999998107
{'OMfit_0': 0.037391951187209144, 'b': 0.23567547056482835, 'l': 0.13228949174040006, 'h_fit_0': 0.0004131721055486981, 'z_bulk': 0.044960025522086666}
142.858912432
Minuit reached the specified call limit (maxcalls).
