2125.32962545 +- 552.027826918
[ 179.99999681   51.1487214 ]
0.71133791505, 0.334578320957,  0.665421679043
{'OMfit_0': 0.005091291209756543, 'b': 0.1454724595135144, 'l': 0.06357197916559088, 'h_fit_0': 0.0012865916919349019, 'z_bulk': 0.0018413694392030444}
914.35321968
no error
