1088.61698643 +- 356.221802628
[ 80.1017716   71.64902334]
0.728677545489, 0.236178113772,  0.763821886228
{'OMfit_0': 0.006522367783000277, 'b': 0.2553815426642916, 'l': 0.23116992464175956, 'h_fit_0': 0.002418134381461934, 'z_bulk': 0.0011882298481205589}
819.521657822
Function value is above the specified estimated distance to the minimum (edm).
