1185.76787525 +- 440.912846688
[ 75.21138924  89.99999779]
0.723159186205, 0.265190007834,  0.734809992166
{'OMfit_0': 0.01144706819575464, 'b': 0.3393505229288567, 'l': 0.3300641271303011, 'h_fit_0': 0.005167569539997863, 'z_bulk': 0.0014707291945359469}
807.965078573
no error
