1850.55485733 +- 262.48113995
[-83.73526664  89.99987317]
0.740915782035, 0.200000000013,  0.799999999987
{'OMfit_0': 0.13740662490244432, 'b': 0.6092129679169762, 'l': 3.9794510311506643, 'h_fit_0': 0.00025479981004733476, 'z_bulk': 0.0008755441771299277}
116.803260348
Minuit reached the specified call limit (maxcalls).
