64.545020929 +- 32.4377416931
[-96.47332534 -29.35528407]
0.70865542934, 0.200000000461,  0.799999999539
{'OMfit_0': 0.04463794287018635, 'b': 0.259741956427762, 'l': 0.5751490054103774, 'h_fit_0': 4.5262010088864546e-05, 'z_bulk': 0.00010820082488233185}
626.34662081
no error
