7331.81828841 +- 14914.5105928
[ 119.30156217   25.80743757]
0.702863835865, 0.2000000037,  0.7999999963
{'OMfit_0': 0.03335014585070914, 'b': 0.05867226108671164, 'l': 0.16082475227699744, 'h_fit_0': 0.0008140226645610427, 'z_bulk': 0.04974952831554802}
110.231188165
no error
