685.305380327 +- 330.201386179
[ 140.74562225   81.06061239]
0.722821468111, 0.200000003921,  0.799999996079
{'OMfit_0': 0.04045029183857092, 'b': 0.6087712501181558, 'l': 5.163376354342629, 'h_fit_0': 0.00011125744015083594, 'z_bulk': 0.0011014349488266961}
125.683604982
no error
