28808.0000751 +- 16664.8340603
[ 122.71586123   25.91581062]
0.693685083861, 0.200000001652,  0.799999998348
{'OMfit_0': 0.1248353227607257, 'b': 0.015684460699251224, 'l': 0.014612356558437067, 'h_fit_0': 0.0006546466170563869, 'z_bulk': 0.05558798787265118}
116.585000856
no error
