47.7970870774 +- 59.5469737393
[ 179.99667507  -36.07291715]
0.706627233134, 0.200065544483,  0.799934455517
{'OMfit_0': 0.00013287384146047632, 'b': 0.9185509547249382, 'l': 5.833629985819552, 'h_fit_0': 6.035657821867879e-07, 'z_bulk': 0.00019862762761946318}
160.790964927
no error
