32293.0862068 +- 15330.0894601
[ 124.20894508   27.8751445 ]
0.733615658861, 0.200000164167,  0.799999835833
{'OMfit_0': 0.12679129152327856, 'b': 0.011832232186175906, 'l': 0.015979714589486882, 'h_fit_0': 0.0022056405249958333, 'z_bulk': 0.05113575232193607}
100.429108252
no error
