2.770921285362224928e+00,-4.080724759197453810e-01,2.551295641387818502e-01,1.000000000000000021e-03,4.049164175726393466e+01,1.427273119628688081e-01
2.143577476244331592e-01,-5.310859443106201727e-01,1.573175260980599344e-01,1.000000000000000021e-03,3.965799775199661781e+01,2.515882504356742322e-01
-1.335469851290474796e+00,7.116832771038308358e-01,7.617561016322300649e-01,1.000000000000000021e-03,4.350293888960549538e+01,1.096173333561590302e-01
2.506783680005470138e+00,-6.004432575160597585e-01,8.432910080335602743e-01,1.000000000000000021e-03,4.334647905885826447e+01,2.664806760431573385e-01
1.356465130168680311e+00,-6.681499105085445533e-01,3.972252986338331571e-01,1.000000000000000021e-03,4.157369369359048505e+01,1.519361787062583347e-01
8.709198883205324648e-01,-8.974841818787618886e-01,3.267877423149168070e-01,1.000000000000000021e-03,4.150011878575747915e+01,2.381236814201764806e-01
-1.777588560732759060e+00,-6.533668956289567786e-01,5.921660674470770047e-01,1.000000000000000021e-03,4.289204190964859009e+01,1.596619873559802227e-01
1.877164263426089441e+00,1.042152852062615764e+00,4.118363421987389916e-01,1.000000000000000021e-03,4.168172029590017047e+01,9.802537626301092988e-02
1.080029822584239518e+00,8.585873281990186179e-01,2.087507422694647730e-01,1.000000000000000021e-03,4.006630247232009623e+01,1.407435428751354911e-01
-3.107763698573637878e+00,6.365475819717780759e-01,7.078612183642751798e-01,1.000000000000000021e-03,4.328490530636306488e+01,1.390430798364981069e-01
6.105914220873396303e-01,-5.873871364668182826e-01,4.505315777790657172e-01,1.000000000000000021e-03,4.192032205171138060e+01,2.335921206859045141e-01
-3.135631591007318697e+00,-8.804365325103675755e-01,5.460188861083890011e-01,1.000000000000000021e-03,4.220448405916457801e+01,1.809810709536614770e-01
-1.814451605314588045e+00,-2.875294393912024571e-01,1.474702704847099533e-01,1.000000000000000021e-03,3.919770180738410659e+01,2.130079897579680581e-01
2.618105807799386398e+00,4.896581915712334698e-01,3.297824021856250454e-01,1.000000000000000021e-03,4.092556534916842281e+01,2.619986205536037893e-01
2.385626894438996892e+00,5.305559720220305309e-01,5.112402231535253527e-01,1.000000000000000021e-03,4.235138644007030706e+01,1.721695356501966034e-01
-1.706091261940206882e+00,4.543868649320406128e-01,1.432713921780768285e-01,1.000000000000000021e-03,3.926347893054185789e+01,1.739346359074948611e-01
1.461626797169857106e+00,-3.181205916904912279e-01,5.159107085087928368e-01,1.000000000000000021e-03,4.226194615529110621e+01,1.495577981083653363e-01
8.842401965789967733e-01,-6.616284034706050310e-01,7.362686834384530865e-01,1.000000000000000021e-03,4.329387985757582413e+01,2.727916509743155693e-01
-1.258410333873992704e+00,-3.506480470776449643e-01,1.893543899835661293e-01,1.000000000000000021e-03,3.975434495027794668e+01,1.294015405533688323e-01
-1.915247323424436710e+00,8.759809211094737869e-01,5.045917406889173229e-01,1.000000000000000021e-03,4.263674952712274546e+01,1.777317854150695098e-01
7.088707422652316126e-01,-1.280034318396239490e+00,2.281216360907640794e-01,1.000000000000000021e-03,4.000086434151889137e+01,3.796694116834696819e-01
6.962401581692612140e-01,6.955633353846764066e-01,2.313178069818857541e-01,1.000000000000000021e-03,4.034941004261104780e+01,1.908546110284719544e-01
1.965829045819685206e+00,5.366987714129733966e-01,5.185550599461448140e-01,1.000000000000000021e-03,4.200089894120416290e+01,2.341185460564381426e-01
1.662975327232289580e+00,1.163137832536424554e+00,5.208645683536869964e-01,1.000000000000000021e-03,4.215493502246829394e+01,1.240853371411637929e-01
1.798738817406733581e+00,8.115844380483236975e-01,3.448408169165335657e-01,1.000000000000000021e-03,4.135120496193514583e+01,2.867331493424681299e-01
1.330112245461825715e+00,2.935799481877749972e-01,1.506320347230662993e-01,1.000000000000000021e-03,3.963963930601209995e+01,1.827336499666731839e-01
4.125929057943316103e-01,9.966745978434228270e-01,2.568615967755500940e-01,1.000000000000000021e-03,4.044286927644495222e+01,1.475115396834255077e-01
-3.146830168349534773e-01,6.478932264077408298e-01,2.190904476782569166e-01,1.000000000000000021e-03,4.021398595565906930e+01,9.871973666366710976e-02
-3.130944580943825439e+00,-3.961122672876873363e-01,2.935447346537916058e-01,1.000000000000000021e-03,4.117014101175982432e+01,2.251207383273293172e-01
1.012250584561654954e+00,-8.951113019393311943e-01,1.491522696135709758e-01,1.000000000000000021e-03,3.945623983556877334e+01,1.259957235021345601e-01
1.861890792469006684e+00,4.997382071871139253e-01,4.345764291294811343e-01,1.000000000000000021e-03,4.189690841760818074e+01,1.936196105474179974e-01
2.243384090518571128e+00,9.645561741625048313e-01,4.851169598199631672e-01,1.000000000000000021e-03,4.239770202945299360e+01,1.315839934958753787e-01
7.718975990462215719e-01,4.161056606561470694e-01,5.925529504320679042e-01,1.000000000000000021e-03,4.275601191028417247e+01,2.414683718730757378e-01
-2.633122106881960800e+00,1.203426824203051027e+00,6.054005259037456010e-01,1.000000000000000021e-03,4.288622205690612077e+01,1.130980086668066376e-01
-7.862368681472382548e-01,-6.976472899125497618e-01,5.803140975290044246e-01,1.000000000000000021e-03,4.273895828194263657e+01,3.501882960313328352e-01
-7.070150973820354956e-01,7.228865861103250801e-01,2.495745234193365025e-01,1.000000000000000021e-03,4.034709329510495479e+01,2.425242988233246300e-01
-3.397344916223210554e-01,1.022038733333099803e+00,1.591613984359903089e-01,1.000000000000000021e-03,3.937998054692351246e+01,2.695109432416238349e-01
-2.187282705311190067e+00,-1.428502474687826762e+00,2.158379287964709015e-01,1.000000000000000021e-03,4.027543455044506970e+01,1.999138435179398376e-01
2.409162820695988749e+00,-1.281524423266860113e+00,1.453914631275712299e-01,1.000000000000000021e-03,3.922636214960148493e+01,1.683532060970388544e-01
2.677906913260903465e+00,-4.195223050705263468e-01,3.352329007024987817e-01,1.000000000000000021e-03,4.116592683134835085e+01,1.707705993326002480e-01
-2.562790384742654304e+00,-5.576087218513456900e-01,1.695686134452072391e-01,1.000000000000000021e-03,3.932653648274963842e+01,1.818033699187403540e-01
2.856738327334640282e-01,6.829793720116730249e-01,8.714148851974663490e-01,1.000000000000000021e-03,4.360090326209579814e+01,1.708561332210475070e-01
2.783936376148879788e+00,-1.317405816242673167e+00,4.617857307494717123e-01,1.000000000000000021e-03,4.235034611978384333e+01,1.811469989615074883e-01
-8.963677599681552088e-01,2.991992245616830193e-01,6.945543981726065574e-01,1.000000000000000021e-03,4.338768292613625022e+01,1.468121887064195441e-01
-3.398746895964572801e-01,1.091664301933441994e+00,2.744229769927808427e-01,1.000000000000000021e-03,4.082524719215330578e+01,1.766857718455509541e-01
1.327499756725067925e+00,-9.031461686989877835e-01,3.834737972309663068e-01,1.000000000000000021e-03,4.155289381082791778e+01,1.989615740305998859e-01
2.245319854508747603e+00,-1.225551507344613267e+00,3.257780579243143571e-01,1.000000000000000021e-03,4.132385310063610007e+01,1.898790115204740669e-01
1.533034849363104968e+00,3.248826829261708404e-01,5.100782512198471785e-01,1.000000000000000021e-03,4.213079514428823558e+01,1.520849632529488182e-01
-2.379386609060869517e+00,2.788339960821568653e-01,2.111840511658891195e-01,1.000000000000000021e-03,3.998838462375320546e+01,1.444488980918003096e-01
-2.436063633194435418e+00,3.721859160843434822e-01,3.587297322747784456e-01,1.000000000000000021e-03,4.144444645213830825e+01,1.048669575023651046e-01
2.592696517147884627e+00,-4.681097542711554205e-01,2.195286423500375506e-01,1.000000000000000021e-03,4.036794001259849551e+01,2.240234688958530895e-01
-3.096373100802956024e-01,3.218804625661193519e-01,8.005622696999779020e-01,1.000000000000000021e-03,4.333534445646953515e+01,2.572382212402216095e-01
-1.859778219756890616e+00,-6.210168967166161957e-01,8.775569411828110233e-01,1.000000000000000021e-03,4.366949200420105370e+01,1.926268739173923050e-01
1.946799574357562790e-01,5.189390792541015429e-01,1.083408623990980590e+00,1.000000000000000021e-03,4.425964425398886704e+01,1.245330684279582212e-01
-1.166239936539803956e+00,5.269896639064377553e-01,7.250630698924325213e-01,1.000000000000000021e-03,4.334796838845289813e+01,1.517171590261020830e-01
-1.072580782635879082e+00,9.173287929566744658e-01,2.380383689766802924e-01,1.000000000000000021e-03,4.033984243211016008e+01,1.080933149255493136e-01
-5.144646824620213721e-02,1.091750720778113859e+00,2.524010363359827647e-01,1.000000000000000021e-03,4.029671180495561345e+01,9.955867466445703085e-02
-1.849575082599699494e+00,3.693222240365310327e-01,1.912933420297571185e-01,1.000000000000000021e-03,3.983301740127677704e+01,2.841667616940625196e-01
-1.762884896117210776e+00,-7.605811948244389775e-01,1.251464584352802945e+00,1.000000000000000021e-03,4.447366917997830882e+01,1.419754427202137292e-01
-1.704142219876566555e+00,-9.819145214632649665e-01,2.621585966101132037e-01,1.000000000000000021e-03,4.062677803210769412e+01,1.579095822974238561e-01
-1.113496001579863393e+00,2.990545445368648636e-01,1.594223921726722892e-01,1.000000000000000021e-03,3.935203836147005063e+01,3.423343005554207452e-01
5.454116725868773941e-01,9.105183232237648028e-01,2.213027813882921802e-01,1.000000000000000021e-03,4.027486507399179771e+01,1.698207315633435965e-01
-1.055560580383052116e+00,8.597196673052485139e-01,1.496673142760787112e-01,1.000000000000000021e-03,3.924136479184400628e+01,1.760679896810090350e-01
-7.748265390262982777e-01,4.136315580265457204e-01,3.340830612016874035e-01,1.000000000000000021e-03,4.137194305780317904e+01,2.776423396983582759e-01
-4.856622847116613961e-01,-1.075480226222190527e+00,6.413552434141107650e-01,1.000000000000000021e-03,4.274375033277322444e+01,2.073086957967386068e-01
-1.669674369368960409e+00,1.288818261960352984e+00,5.189200705577541317e-01,1.000000000000000021e-03,4.232096282227906414e+01,1.837882356962102781e-01
-2.789256022936838164e+00,-6.540565004849414610e-01,7.124996845073021667e-01,1.000000000000000021e-03,4.366949452275484589e+01,2.122929746066916368e-01
-1.291461174091211861e+00,-7.829667432732141386e-01,3.138736785213831482e-01,1.000000000000000021e-03,4.131191776618695854e+01,2.022792620329034730e-01
2.561133868985088213e+00,9.142876529565686639e-01,8.356113178844482015e-01,1.000000000000000021e-03,4.359198391339871392e+01,1.295674540142031927e-01
-1.729470089614876915e+00,-5.844277489908795697e-01,1.236857420948274555e+00,1.000000000000000021e-03,4.475378541279280142e+01,1.113093039353938302e-01
-4.796425537240822656e-01,-9.642025977416619487e-01,6.313849158789790472e-01,1.000000000000000021e-03,4.278720709269067868e+01,1.382908507784949559e-01
1.862005162282727611e+00,9.310195158379488412e-01,3.874222896943686489e-01,1.000000000000000021e-03,4.120796341001712904e+01,2.235157079685764214e-01
1.012754943497450100e+00,3.942310408168352431e-01,2.589013122676220302e-01,1.000000000000000021e-03,4.063008526807293208e+01,2.707646027331275240e-01
-2.214320105715630760e+00,5.677320356825648062e-01,2.228578194324852824e-01,1.000000000000000021e-03,4.010903051602802805e+01,2.113858953673749541e-01
2.781575823709965256e+00,-7.823087437926927734e-01,4.515844562879647306e-01,1.000000000000000021e-03,4.181102574863233201e+01,1.575090686625522374e-01
-1.695517044535730600e+00,-3.965844306610513126e-01,7.404036612169042630e-01,1.000000000000000021e-03,4.358343107659461424e+01,1.732812612590481083e-01
3.207641343967377878e-01,3.743497850455677067e-01,4.266410253775498873e-01,1.000000000000000021e-03,4.186964507863562801e+01,1.178210472441505036e-01
-4.334741444966887514e-01,3.303699303627867234e-01,1.893070662631970436e-01,1.000000000000000021e-03,3.974189574386806356e+01,2.772620066825504104e-01
9.869508687716050943e-01,-3.577501034423842263e-01,8.160211112515045606e-01,1.000000000000000021e-03,4.370907254950626708e+01,1.560690459091498838e-01
2.672805477224589055e+00,-6.470488900153000822e-01,2.032051738633118276e-01,1.000000000000000021e-03,3.993341257276631495e+01,2.239487753299625461e-01
1.902397529578867541e+00,-5.291022965766749575e-01,7.005073423095398155e-01,1.000000000000000021e-03,4.317753047286644374e+01,1.936675034807154583e-01
3.412569997304037983e-01,-1.062960809250033112e+00,1.539657535376643960e-01,1.000000000000000021e-03,3.921091490053665751e+01,1.723945663173518383e-01
-2.622242005011806043e+00,-1.156279888631462693e+00,2.947326978481865645e-01,1.000000000000000021e-03,4.070016645961809587e+01,2.071690472109622982e-01
-3.189493138590560051e-02,5.485056566952040136e-01,7.869829309327736055e-01,1.000000000000000021e-03,4.324240379034046811e+01,1.835876038246923858e-01
-9.153398608861431640e-01,-3.276106110696730411e-01,7.927528856626107068e-01,1.000000000000000021e-03,4.366676345946154214e+01,1.436568196711545398e-01
-2.953615527111789874e+00,-2.931372294567651249e-01,2.923443691727043436e-01,1.000000000000000021e-03,4.111927598451798360e+01,2.045259760997202581e-01
1.310043632089311849e+00,5.046653128746649841e-01,2.260050577964394236e-01,1.000000000000000021e-03,4.011736861518424746e+01,1.377522528560349846e-01
-3.117893790771235629e+00,1.057723635085732194e+00,2.167614017071646249e-01,1.000000000000000021e-03,4.011261883754967528e+01,1.253765107017637270e-01
-7.978420563920587405e-01,4.410280354712012851e-01,6.052765605494609957e-01,1.000000000000000021e-03,4.314907907065651216e+01,2.212504772904266559e-01
2.998656368363678659e+00,1.243359026211898755e+00,3.214879448828009689e-01,1.000000000000000021e-03,4.117192161590783428e+01,1.140320891134307818e-01
4.541934901840143368e-01,4.495671540530441490e-01,4.557442398069881939e-01,1.000000000000000021e-03,4.195745137452664153e+01,1.010314342792388298e-01
1.268677200315956100e+00,6.252837467221246115e-01,7.571317327508049200e-01,1.000000000000000021e-03,4.327658181087748801e+01,2.108635124162406282e-01
-9.271019028200999657e-02,2.748489796361421877e-01,4.181935239719711817e-01,1.000000000000000021e-03,4.165985026020279491e+01,2.245549928538494167e-01
1.042513010484626967e-01,-6.933228112170318758e-01,3.219112899763139080e-01,1.000000000000000021e-03,4.089443732764605954e+01,1.755956020444139620e-01
1.304982145479326228e+00,3.880654552143973923e-01,2.975888888746638372e-01,1.000000000000000021e-03,4.081852663535363490e+01,1.350243492887462371e-01
-3.046537247108220381e+00,-1.140629043059785186e+00,1.929537222194583901e-01,1.000000000000000021e-03,4.006226301201386519e+01,1.617606979063074268e-01
-8.351738715304821703e-01,-3.338754933993504093e-01,4.951760991919269550e-01,1.000000000000000021e-03,4.237826878505045158e+01,2.699944432921539961e-01
2.683932224378606790e+00,-7.838882243361512403e-01,2.972679251868421968e-01,1.000000000000000021e-03,4.085879207196011009e+01,2.155093929765085625e-01
1.889777308689433610e+00,-1.157998906847645060e+00,2.131331950142523191e-01,1.000000000000000021e-03,4.019599620379057114e+01,1.652784859926987315e-01
2.199446426002936938e+00,-6.493039684463366434e-01,1.914891759968357920e-01,1.000000000000000021e-03,3.972541435089954831e+01,1.818594017116747230e-01
2.684521636046054205e+00,-6.161769054194891071e-01,3.524979541262029947e-01,1.000000000000000021e-03,4.146025172980907314e+01,1.315310891784655656e-01
2.410887672559432815e+00,2.819969833796558412e-01,2.895164645519334723e-01,1.000000000000000021e-03,4.053522621790722980e+01,1.472751855250734321e-01
2.800387965844638671e+00,6.259797898281220796e-01,4.945356674307344047e-01,1.000000000000000021e-03,4.202537026491383898e+01,1.590504716810952901e-01
2.174737110078151403e+00,-5.154417013180496721e-01,5.541793348838668365e-01,1.000000000000000021e-03,4.242306552515510276e+01,1.859156751772468863e-01
-1.082681103122658417e+00,-5.775974918157342763e-01,1.477234032473531133e-01,1.000000000000000021e-03,3.910379763663220132e+01,2.076392058504326066e-01
3.020108454090043359e+00,-3.004138822216331217e-01,6.133207582814244052e-01,1.000000000000000021e-03,4.301583475873246698e+01,3.596083357271685488e-01
-3.697418432670254163e-01,3.625243745518189620e-01,1.542550281554635472e-01,1.000000000000000021e-03,3.917665555529138288e+01,1.007069092141523042e-01
2.543844592190679599e+00,1.003474354618442366e+00,2.123458956157060484e-01,1.000000000000000021e-03,4.016595839189975692e+01,1.228000422292659100e-01
-2.217367763056034669e+00,9.956335044541688717e-01,1.426899980077152019e-01,1.000000000000000021e-03,3.905952638543443811e+01,9.646182439450637358e-02
3.012315659921658728e+00,-5.531626107355904765e-01,7.640856871121901595e-01,1.000000000000000021e-03,4.320834018289516365e+01,2.647738209864136105e-01
-1.646279545671074374e-01,-9.160973820768719689e-01,2.545228152418372858e-01,1.000000000000000021e-03,4.023939909154749017e+01,2.234093450580285634e-01
-9.925892940874709858e-01,6.689383193530367144e-01,7.175870351980981887e-01,1.000000000000000021e-03,4.307691916561064716e+01,1.763737632328738481e-01
-1.390411645156964804e+00,8.885339005588708261e-01,5.234079764531622825e-01,1.000000000000000021e-03,4.212880025078171542e+01,1.946067081310848823e-01
9.145040519739664475e-01,-7.253562432019071693e-01,1.253193736054022178e+00,1.000000000000000021e-03,4.525865947503297804e+01,3.632041870834827879e-01
2.421576579439019383e+00,3.033914233864791754e-01,1.956603341749214575e-01,1.000000000000000021e-03,3.993129670846604284e+01,1.618364153459505017e-01
-2.349628146672532836e+00,6.979364362304809610e-01,5.187165751490243615e-01,1.000000000000000021e-03,4.259343600326040757e+01,2.476933928298340470e-01
1.331572936256932849e+00,5.451557003125468981e-01,5.769702894893287137e-01,1.000000000000000021e-03,4.241855967746499090e+01,2.607020335615958251e-01
-1.700401547097132982e+00,6.321026528632653907e-01,1.092696170741889627e+00,1.000000000000000021e-03,4.417509533054273874e+01,1.437780087931183337e-01
-2.484559802831011410e+00,-3.939742170756963535e-01,5.311473977182068484e-01,1.000000000000000021e-03,4.238253215036345978e+01,9.940903688037792951e-02
-1.179961126424616813e+00,4.701665196263657975e-01,8.724927682434908682e-01,1.000000000000000021e-03,4.351199689524136005e+01,1.796618868876041497e-01
-1.529698694808763193e-01,-3.371820202421793589e-01,3.935228645333119779e-01,1.000000000000000021e-03,4.172808812524709055e+01,1.299154931014614989e-01
8.697046472832301589e-01,-3.694399499259306552e-01,2.671096456633301752e-01,1.000000000000000021e-03,4.068959515206237398e+01,3.042242954151754830e-01
9.013104761406198762e-01,5.809486093435451970e-01,1.223196831260163098e+00,1.000000000000000021e-03,4.458916549611299018e+01,1.454791035837471047e-01
2.286271229979837116e+00,-6.396765613922086313e-01,1.189728681108813024e+00,1.000000000000000021e-03,4.499432184292327008e+01,1.838386752479436725e-01
1.796248680496060679e+00,9.613815212077412298e-01,4.664613896576517149e-01,1.000000000000000021e-03,4.231900958351661757e+01,1.681983142391982045e-01
2.095267282899722971e+00,2.992455494825174700e-01,4.213359325442360692e-01,1.000000000000000021e-03,4.159031409539301904e+01,1.127924087295310712e-01
-2.457037955039780286e+00,-4.399194797328871420e-01,2.119931842752671436e-01,1.000000000000000021e-03,4.020264722913558586e+01,2.220209964623873766e-01
-4.547540215516119311e-01,-9.085040343242269945e-01,2.948673295622248336e-01,1.000000000000000021e-03,4.104215671609701843e+01,2.210527841640589630e-01
2.141439507859181468e+00,5.016959473983577666e-01,2.531600735038785910e-01,1.000000000000000021e-03,4.032184802839864091e+01,2.694016467963737393e-01
-1.297176964962649892e+00,1.157991938192403314e+00,2.081387271874046707e-01,1.000000000000000021e-03,3.997961277439224403e+01,2.083078697380928157e-01
2.691326720638398839e+00,-6.897689035697395221e-01,1.773487388717638336e-01,1.000000000000000021e-03,4.001505603043785442e+01,2.032720392053310454e-01
2.822938881389654320e+00,7.104971294419764050e-01,1.439793438457512842e-01,1.000000000000000021e-03,3.917214402182523258e+01,1.297993638944811290e-01
-2.144364247968190362e+00,-5.150094914839680182e-01,5.107118745445009544e-01,1.000000000000000021e-03,4.249712832312860655e+01,1.272270732527435444e-01
-4.219987649089773640e-01,6.253726966912998009e-01,3.439856177737146137e-01,1.000000000000000021e-03,4.153153875774474102e+01,1.223255335461102128e-01
-2.962230123222594269e+00,-3.360910338285334475e-01,1.661946887649656812e-01,1.000000000000000021e-03,3.937459696569094802e+01,2.436314556040336810e-01
-2.458208866802755299e+00,-1.040205602859865852e+00,7.716831305209852498e-01,1.000000000000000021e-03,4.334626699990411680e+01,3.422227698087955128e-01
-2.613248572541612802e+00,-8.067996798761108979e-01,3.102410896118843464e-01,1.000000000000000021e-03,4.094126728863179920e+01,2.471426356673374902e-01
1.067675824664437556e+00,8.982068952302224574e-01,8.788951447911883541e-01,1.000000000000000021e-03,4.355049642336447135e+01,1.597184433265690928e-01
-2.111834735595419232e+00,8.856184130249760145e-01,4.808093960392487709e-01,1.000000000000000021e-03,4.216945278013059806e+01,1.957512309459747690e-01
-2.683245137669503677e+00,1.462712277422924867e+00,6.294957430256780118e-01,1.000000000000000021e-03,4.293995095298107145e+01,1.496407019685672135e-01
1.873091101996723573e+00,6.101140452002700165e-01,1.449467503425561077e-01,1.000000000000000021e-03,3.925626942606542968e+01,1.450131467095510385e-01
4.178632182449066867e-01,6.882179051542816062e-01,5.224156304080551649e-01,1.000000000000000021e-03,4.242131501639421032e+01,2.684660119608829887e-01
2.086602979003545855e+00,7.710522698819524123e-01,6.726690207487744377e-01,1.000000000000000021e-03,4.325911715750822850e+01,2.362627769495652952e-01
-1.685456647918849971e+00,4.041529379704260627e-01,1.650497419979699565e-01,1.000000000000000021e-03,3.908226139601750049e+01,2.020062692960334916e-01
1.780741126841358657e-01,6.944934581991941691e-01,3.663852016251927246e-01,1.000000000000000021e-03,4.159435992710392327e+01,2.143952811318597662e-01
2.046698561613588652e+00,7.994667082306841088e-01,3.349785987406841414e-01,1.000000000000000021e-03,4.136273822715092763e+01,1.207763651062210286e-01
7.581468453062423229e-01,3.998802643843031301e-01,2.814972843901384358e-01,1.000000000000000021e-03,4.085421722701460823e+01,2.485468648617462362e-01
1.448858296992338701e+00,5.703866893182709674e-01,2.285618400099251879e-01,1.000000000000000021e-03,4.003739356481844425e+01,2.223842607807417215e-01
-1.997459114028174554e+00,4.108412781376231671e-01,1.443222777898733877e-01,1.000000000000000021e-03,3.915954822858066819e+01,2.206171871645136728e-01
-3.027256612743829400e+00,5.087990325516993373e-01,1.574866713802762774e-01,1.000000000000000021e-03,3.910462665486904399e+01,1.125929669856915449e-01
5.783105607891285693e-01,4.924416671313287530e-01,1.082321276360389994e+00,1.000000000000000021e-03,4.439607054769412287e+01,1.867115242184310409e-01
3.115328610427328115e+00,7.733412999676922972e-01,2.575493988495571873e-01,1.000000000000000021e-03,4.085510892057518362e+01,1.547348528338621798e-01
-5.255918112917643548e-01,-8.159147594445455010e-01,2.409383057295364505e-01,1.000000000000000021e-03,4.027047386007669871e+01,1.704136051939790508e-01
-8.777626095356922953e-01,-5.036441543679635036e-01,1.761641404547351630e-01,1.000000000000000021e-03,3.969266942487378458e+01,9.638198152660817919e-02
-2.598849126622906347e+00,-1.476072959904831894e+00,1.569017104162078180e-01,1.000000000000000021e-03,3.949983923936832753e+01,1.255125985394525412e-01
-1.035762944520976170e+00,3.057431562583416973e-01,2.904383461598392113e-01,1.000000000000000021e-03,4.113989477541330331e+01,3.770755334670369274e-01
-1.615303674629039454e+00,-8.605094440720600923e-01,1.885043514983153479e-01,1.000000000000000021e-03,3.954700140738022185e+01,1.612358569340419101e-01
-2.612551323134433723e+00,-2.833819300585960210e-01,1.103696859349515336e+00,1.000000000000000021e-03,4.383645086157449100e+01,2.554744354458003963e-01
6.380536036822790358e-01,-8.563008460937427957e-01,8.654743497019270482e-01,1.000000000000000021e-03,4.369517759540579505e+01,1.402886777315774658e-01
2.407702959637879836e+00,-6.957900263783857175e-01,1.421229358925062414e-01,1.000000000000000021e-03,3.913003186220435481e+01,1.364914570298180752e-01
2.939427709965745095e-01,3.794354748623485207e-01,4.613195529316966859e-01,1.000000000000000021e-03,4.208223940722555056e+01,2.260691265002612027e-01
7.651227786495504724e-01,-7.590539474007623744e-01,2.329572829822110780e-01,1.000000000000000021e-03,4.007035954682961432e+01,2.129598314819596550e-01
2.363668000622279664e+00,9.818850527153974994e-01,6.254479559488157481e-01,1.000000000000000021e-03,4.280698507335988978e+01,1.330873687696810526e-01
-1.576315985193454949e-01,3.228680148474318834e-01,2.026620957216072050e-01,1.000000000000000021e-03,4.012200747705841763e+01,2.477893466922968524e-01
7.314291967502493108e-01,7.153080861435663351e-01,5.642088239419928986e-01,1.000000000000000021e-03,4.250403870265882489e+01,1.760609949800706064e-01
1.736822976626272386e+00,-5.087798071022764379e-01,3.034080342639826622e-01,1.000000000000000021e-03,4.130694814372002099e+01,2.187639753137756993e-01
1.869492743748402575e+00,-9.111460072047951053e-01,6.447090646902269295e-01,1.000000000000000021e-03,4.284837329158994379e+01,2.469684548660509571e-01
5.263132342502263583e-02,-7.955002547815550606e-01,4.653934630771243697e-01,1.000000000000000021e-03,4.212901646550331236e+01,1.507607184106955489e-01
-9.496592187670263030e-01,9.955485272842805600e-01,5.986114134222635386e-01,1.000000000000000021e-03,4.266103352107828783e+01,1.954877299450399342e-01
-1.391996095538024614e+00,-7.710221457171990700e-01,2.549875636249294697e-01,1.000000000000000021e-03,4.031229128792969618e+01,1.211635485778361498e-01
-2.692107539450791620e+00,-4.991858300752520794e-01,1.204305133316948329e+00,1.000000000000000021e-03,4.455973329981119946e+01,1.707003623923558921e-01
2.053722840311942299e+00,2.629742429537702542e-01,5.319314955665819245e-01,1.000000000000000021e-03,4.264519954704964988e+01,1.230402254446615606e-01
-1.070259006083733588e-01,1.095602038688114011e+00,1.934197482798576395e-01,1.000000000000000021e-03,3.995381131114642415e+01,1.360790163542668352e-01
-9.981586055061244522e-01,6.139302291063692962e-01,8.332868738916037188e-01,1.000000000000000021e-03,4.364637244188745058e+01,1.104457194033696410e-01
2.419877320974079815e+00,4.637483610796500066e-01,1.763380273859289638e-01,1.000000000000000021e-03,3.948370903964440259e+01,1.573776461718937314e-01
1.984963667505177831e+00,1.080149945061407379e+00,6.142296565048683821e-01,1.000000000000000021e-03,4.265302745259639039e+01,2.400467183681215810e-01
-1.433231667226854800e+00,6.664104452417505264e-01,1.857272465820258844e-01,1.000000000000000021e-03,3.970527886468639878e+01,2.028263264548106626e-01
2.162946167957394472e+00,9.363559285352471839e-01,8.232916889471419974e-01,1.000000000000000021e-03,4.364640616575704257e+01,9.634639503994803233e-02
2.327956348953729382e+00,-1.118394475188996484e+00,6.338430008193571830e-01,1.000000000000000021e-03,4.270173877570930188e+01,1.617575424021634456e-01
8.705821242870737109e-02,-6.607338372493921641e-01,5.092286602981268562e-01,1.000000000000000021e-03,4.237594166688509745e+01,2.131774968380762414e-01
3.002897973813199783e+00,1.056081076946230102e+00,4.603773937876023403e-01,1.000000000000000021e-03,4.205665547059866327e+01,1.016894887874239262e-01
-9.060232082736345838e-01,-6.837339892490861271e-01,2.853092097337273092e-01,1.000000000000000021e-03,4.030767809478303576e+01,2.774856196686484311e-01
-2.540400023337322288e+00,3.301757762359898152e-01,1.752673561848390182e-01,1.000000000000000021e-03,3.979527138443767598e+01,2.225177838866894964e-01
1.979560128005806163e+00,-3.646674888320238228e-01,2.529578714442799470e-01,1.000000000000000021e-03,4.049000480899120902e+01,1.861922465593681131e-01
-1.797317819425897856e+00,-6.457002025043433457e-01,1.671555842483043453e-01,1.000000000000000021e-03,3.942569081874483317e+01,1.241853775047025848e-01
-2.218101156794118456e+00,-5.025673783634541092e-01,2.042011574025488496e-01,1.000000000000000021e-03,4.030383076572250189e+01,1.734095834183706220e-01
1.069273026577620023e+00,4.294612608784262875e-01,1.051803127277417094e+00,1.000000000000000021e-03,4.422055203915419952e+01,1.270750416846949948e-01
3.132278407812930432e+00,-4.507845766550948596e-01,8.174792464787374868e-01,1.000000000000000021e-03,4.304607024504311852e+01,3.743245731916958197e-01
-1.477731107758769591e+00,5.447950634541807169e-01,1.568134489896715333e-01,1.000000000000000021e-03,3.935702154218954973e+01,1.449109787394705084e-01
-7.264854468613206606e-01,-2.863247695156765360e-01,2.544455100649558599e-01,1.000000000000000021e-03,4.056118509715485487e+01,1.830465500416040281e-01
2.679907076613879724e+00,-8.393441242611270336e-01,2.390392117762660806e-01,1.000000000000000021e-03,4.047533906929625402e+01,2.058174865259684294e-01
-1.234265461011232246e+00,3.632467880811109939e-01,2.748354710078353413e-01,1.000000000000000021e-03,4.109496380754177380e+01,2.808871952007876427e-01
-1.707493085549178780e-01,3.924136587098578932e-01,2.588020130168393607e-01,1.000000000000000021e-03,4.027324339951029941e+01,2.405931140264454260e-01
1.928100540511092476e+00,1.330468429688453469e+00,2.214381432820782258e-01,1.000000000000000021e-03,4.018682273062348287e+01,1.437937564913140953e-01
-2.718839271238771005e+00,8.176553838671249963e-01,1.822307542691949944e-01,1.000000000000000021e-03,3.950793407870797580e+01,2.295018041802211195e-01
2.058413482732191824e+00,8.566877511891251018e-01,2.804212795267897462e-01,1.000000000000000021e-03,4.067316233688852378e+01,1.240312844292978112e-01
-1.264966835794250954e+00,8.437778794512098557e-01,2.170378493915601226e-01,1.000000000000000021e-03,4.020797532975220889e+01,2.091193344934708098e-01
-2.932005418652070983e+00,-5.570237426215913779e-01,2.388426494498654407e-01,1.000000000000000021e-03,4.044970354354574482e+01,2.804556344054754957e-01
-1.520799951985483345e+00,-6.289766597132208092e-01,4.538717673728349666e-01,1.000000000000000021e-03,4.226760915283924191e+01,1.732280744767550063e-01
2.568609897665672825e+00,-9.789105740454696614e-01,1.453780032548250833e-01,1.000000000000000021e-03,3.949351014480053124e+01,3.174718410629743248e-01
-2.213916905202128582e+00,1.225579294436765831e+00,5.000230593992927020e-01,1.000000000000000021e-03,4.259572401043346446e+01,2.544757691291079094e-01
-2.738551876443127142e+00,1.022498852658642932e+00,8.189897166564976683e-01,1.000000000000000021e-03,4.365917200980209856e+01,2.022242660602611986e-01
-2.532631989946180440e+00,3.853444333871389738e-01,2.132916614432129876e-01,1.000000000000000021e-03,4.015958637687701582e+01,1.789738462822043352e-01
2.823923329646162550e+00,3.559630997846419120e-01,3.626939676740066343e-01,1.000000000000000021e-03,4.121480171969670181e+01,1.323200474632199863e-01
2.056314328834581318e+00,5.507217308519729571e-01,8.234031978405949026e-01,1.000000000000000021e-03,4.356302145210359811e+01,1.077267818914130065e-01
-2.668564420895585876e+00,7.723715280138079287e-01,5.162627210059920202e-01,1.000000000000000021e-03,4.241860894973615359e+01,1.366903114027308852e-01
-9.251127686807638639e-01,-1.335889208460817823e+00,2.642611096286893169e-01,1.000000000000000021e-03,4.030074574119824149e+01,3.262262327320025190e-01
-2.326389041766656618e-01,-4.937182352846407607e-01,1.195107367901052431e+00,1.000000000000000021e-03,4.434827958930192437e+01,1.600169478502659337e-01
1.578112188325929921e+00,2.998746530620768347e-01,7.857007106361955096e-01,1.000000000000000021e-03,4.357083551417940726e+01,1.587479246658517196e-01
-6.335820317758225073e-01,1.131355373799119768e+00,4.566715703922721303e-01,1.000000000000000021e-03,4.202728069593044324e+01,1.970640855725849794e-01
2.063191492623083434e+00,-5.771729574272201901e-01,3.587881547745754851e-01,1.000000000000000021e-03,4.131731748324840936e+01,1.502539078237579429e-01
5.640028933972236480e-01,-6.324448492996164184e-01,1.874382922362844983e-01,1.000000000000000021e-03,3.986334028052121425e+01,1.634373179278575949e-01
6.475640767506174456e-03,-1.217257040263499679e+00,4.256354535218900281e-01,1.000000000000000021e-03,4.201827578693912812e+01,1.002443416801124393e-01
-2.785444040880222794e+00,-5.077636973479251470e-01,6.519082865417451522e-01,1.000000000000000021e-03,4.311833503849796756e+01,2.295449274019244201e-01
-1.282725430227824370e+00,-7.976398054953863781e-01,3.149314033864998308e-01,1.000000000000000021e-03,4.111429911604132315e+01,1.502372277296400438e-01
1.368517777161244453e+00,1.157466872990015716e+00,4.062386955585175485e-01,1.000000000000000021e-03,4.185273627996021162e+01,3.196698211560970448e-01
2.343072326067698441e+00,4.771548755995649316e-01,1.603068098985800383e-01,1.000000000000000021e-03,3.929505054320325996e+01,1.794740891711060771e-01
1.403154975215849198e+00,-3.151772824117289318e-01,2.001560380685203366e-01,1.000000000000000021e-03,3.996385864266257215e+01,3.537588515337469208e-01
-1.029999930356685578e+00,1.019991872826406798e+00,5.967236082277367348e-01,1.000000000000000021e-03,4.297731907786462813e+01,2.152544229125041841e-01
-1.336649164231748843e+00,6.707693984664837572e-01,5.929355900327133444e-01,1.000000000000000021e-03,4.252652658165241917e+01,1.200499428876234537e-01
-1.553872010937764614e+00,3.629248132113374048e-01,2.334939636027257848e-01,1.000000000000000021e-03,4.007770591037391483e+01,3.582021849517122991e-01
-1.763609456182353208e+00,-8.798547801963252368e-01,8.782617483538979197e-01,1.000000000000000021e-03,4.391610106315467021e+01,1.703780845900957075e-01
-2.905215169026872601e+00,-8.412165458595106671e-01,5.416428709093830118e-01,1.000000000000000021e-03,4.223369369976448695e+01,2.017058032486473695e-01
4.967640872898040350e-01,3.697777611454240443e-01,2.093560729174619439e-01,1.000000000000000021e-03,4.028389262789739433e+01,2.156990237426784918e-01
1.252513353459132617e+00,-9.942677643503535778e-01,5.401087814172482737e-01,1.000000000000000021e-03,4.246752846630894140e+01,1.002278779553501808e-01
-2.855328395760942328e+00,1.287824733406349953e+00,6.998233736089545243e-01,1.000000000000000021e-03,4.314268784267788703e+01,1.477745295845156459e-01
3.105464905153204391e+00,-5.104461401145092836e-01,3.308929010648538060e-01,1.000000000000000021e-03,4.123419029062575447e+01,2.653359540597741151e-01
1.988350907623595454e+00,4.199163902930780345e-01,3.869664318208125842e-01,1.000000000000000021e-03,4.126436151505622263e+01,1.922316411556342364e-01
9.101973522074100487e-01,-1.278318691248894634e+00,5.286687761922437279e-01,1.000000000000000021e-03,4.232064090551698854e+01,1.366699026072233647e-01
2.479220732886323830e+00,-4.094316730153435557e-01,2.902802039201928253e-01,1.000000000000000021e-03,4.136723248805093789e+01,2.215252778117350330e-01
2.033370476520186543e+00,-8.312106834866587191e-01,4.008236456348919230e-01,1.000000000000000021e-03,4.104578750280343513e+01,2.561071756117106468e-01
7.556135537399084612e-01,-1.451215926484641372e+00,7.303897225474014210e-01,1.000000000000000021e-03,4.332437205072186259e+01,1.917415290981967502e-01
-2.273203370894340658e+00,3.260529042084892026e-01,6.199064237030187385e-01,1.000000000000000021e-03,4.285739439943246509e+01,2.782291869016244590e-01
-9.335778641142220557e-01,3.900687014141299702e-01,6.147717019411556016e-01,1.000000000000000021e-03,4.287657691255067505e+01,1.537790514553355470e-01
8.020705461649342283e-01,-6.629914646043314486e-01,3.089805543260262244e-01,1.000000000000000021e-03,4.132343282994065703e+01,1.843624594770765235e-01
2.675556179471874074e+00,-1.083617267746682433e+00,3.985204485941922226e-01,1.000000000000000021e-03,4.169045540773461767e+01,2.220739643601345459e-01
1.513722481770769512e+00,6.204987324954074346e-01,3.290980782702932483e-01,1.000000000000000021e-03,4.093266326791837173e+01,2.525415794258263902e-01
7.390891418151501746e-01,-6.677237253007596296e-01,4.757130471012158690e-01,1.000000000000000021e-03,4.205001065698291995e+01,2.128420089825850126e-01
1.946721393987942861e+00,4.971506176197086901e-01,2.925632762772871764e-01,1.000000000000000021e-03,4.097301596184448158e+01,1.489897446234248468e-01
-3.672370584407351757e-01,4.608012872246445291e-01,3.895054947840990156e-01,1.000000000000000021e-03,4.175031444279417769e+01,2.789111182356974750e-01
-1.986647362949283790e+00,-4.628892386226994837e-01,1.712988081650879124e-01,1.000000000000000021e-03,3.966848129829597980e+01,1.631034787619382309e-01
2.572480744696838961e+00,3.454955002724757751e-01,1.536975235038162690e-01,1.000000000000000021e-03,3.942526137342769488e+01,1.005732018243698650e-01
-3.061436577135487447e+00,5.879638913744003048e-01,1.702627488977597192e-01,1.000000000000000021e-03,3.960401160906408080e+01,1.209374387234846832e-01
-2.307748666773674184e+00,8.420117747352247051e-01,8.347504224981299181e-01,1.000000000000000021e-03,4.382405591731155425e+01,2.231577545142355290e-01
-1.292951576965404303e+00,4.457679342480260765e-01,4.083625690564840482e-01,1.000000000000000021e-03,4.175674323666614640e+01,1.572827751890007730e-01
2.940819148676160566e+00,-3.000370224100410432e-01,1.730538906385592490e-01,1.000000000000000021e-03,4.019493755159089687e+01,2.629397206502385731e-01
2.170039486860313005e+00,9.437107970761138276e-01,2.182869619474798739e-01,1.000000000000000021e-03,4.033232825373738706e+01,1.867060126785166640e-01
1.577523957637837704e+00,4.748662238022967053e-01,2.160088434447813288e-01,1.000000000000000021e-03,3.996631518415663464e+01,1.779423215127215185e-01
-2.448062341767162753e+00,-8.981042536019262501e-01,4.378715075902033238e-01,1.000000000000000021e-03,4.189525013279848764e+01,1.010157972408702309e-01
2.537360066609995357e+00,-7.037711932207815213e-01,5.867724818227866290e-01,1.000000000000000021e-03,4.258610934537457382e+01,1.448335711316832697e-01
-1.412205885549091766e+00,-2.684732473947215592e-01,4.571387754410429771e-01,1.000000000000000021e-03,4.207663024269603369e+01,1.657739805465587024e-01
-2.730054923991520610e-01,2.828263737815448486e-01,4.469864995984962341e-01,1.000000000000000021e-03,4.187773100248995206e+01,1.502097897985819608e-01
-2.793722883276579250e+00,3.952471548317264549e-01,3.675506615116013176e-01,1.000000000000000021e-03,4.153120021636478754e+01,1.308448084037545645e-01
-9.382034297834760395e-01,9.103455201214392112e-01,1.477307787904855729e-01,1.000000000000000021e-03,3.911635631363712662e+01,1.240340729312206791e-01
3.075889786975727347e-01,-3.151895483895219563e-01,3.055372581092277162e-01,1.000000000000000021e-03,4.124142454252700674e+01,1.806196483478347548e-01
-3.516547386005060005e-01,-3.905952355874817705e-01,1.881995858206211292e-01,1.000000000000000021e-03,3.995807368891340872e+01,2.308770687999162352e-01
3.649537310475272633e-01,-6.863884506845389089e-01,1.990276976669089759e-01,1.000000000000000021e-03,3.979411932041173827e+01,2.684511140870081136e-01
-2.570967609365129025e+00,8.420119460712958137e-01,8.599582494728601478e-01,1.000000000000000021e-03,4.361087147046040968e+01,2.803557480400110657e-01
-1.834481340959652540e+00,-6.600019429837574725e-01,1.036615171963231496e+00,1.000000000000000021e-03,4.436520135107041796e+01,1.299804292878692646e-01
1.775768023995298428e+00,9.236293129957369175e-01,1.549256078541272341e-01,1.000000000000000021e-03,3.955528315283389418e+01,1.301648379977589365e-01
-2.652213398718342052e+00,-3.801545850143419614e-01,2.336477572418571569e-01,1.000000000000000021e-03,4.053463342542244874e+01,1.450712089469825827e-01
1.054889467319084950e+00,3.454625473980805772e-01,3.673303539384669136e-01,1.000000000000000021e-03,4.144743490753469928e+01,1.392510388103772867e-01
2.245765440381305211e+00,2.962492069052931054e-01,1.150474011552867992e+00,1.000000000000000021e-03,4.445805781304440529e+01,2.052413161261872343e-01
-3.024395998337015001e-01,-8.335715873431612799e-01,6.231155574508315809e-01,1.000000000000000021e-03,4.296558294124391608e+01,1.186225032219747622e-01
1.356465419408293904e+00,4.049964178538394410e-01,2.213534074986573952e-01,1.000000000000000021e-03,4.046949078236592356e+01,2.111850463625886132e-01
1.381590818173408231e-01,-1.062024860979799312e+00,6.143298369866634356e-01,1.000000000000000021e-03,4.295615349161251117e+01,1.568841229140011673e-01
2.892592571774536658e+00,2.780227338862120146e-01,4.642063629156807369e-01,1.000000000000000021e-03,4.208142293378112697e+01,2.508294023211256607e-01
-2.913928258195456422e+00,-8.327513091585252436e-01,1.568505275113034614e-01,1.000000000000000021e-03,3.935140575572341248e+01,2.725117794059302434e-01
-1.395083448217240063e+00,-8.695086645890629518e-01,2.064659597791329571e-01,1.000000000000000021e-03,3.988228461622821186e+01,1.625754478728253238e-01
-5.202324666154525268e-01,7.286206941203827725e-01,8.010859657248441401e-01,1.000000000000000021e-03,4.358565926624615372e+01,1.474638974990988560e-01
-7.900071269032729049e-01,-5.068364321154001928e-01,1.443882076312301699e-01,1.000000000000000021e-03,3.913202370888078008e+01,1.077257585463386597e-01
-2.569720263836136276e+00,6.364356022448784955e-01,1.046101358652455904e+00,1.000000000000000021e-03,4.431867400384751221e+01,2.522814838246454916e-01
2.700575058145922469e+00,4.743684910054568604e-01,1.622162846337849018e-01,1.000000000000000021e-03,3.928034759821846222e+01,1.298493340657962680e-01
-2.564195041327646862e+00,1.003896144633865450e+00,2.589608600150823392e-01,1.000000000000000021e-03,4.074504845787272700e+01,1.508775980827415653e-01
-2.862338695931365695e+00,-4.656223677317095078e-01,7.669368938157856697e-01,1.000000000000000021e-03,4.361778030053274335e+01,1.492221454458628194e-01
1.385617013351987836e+00,-7.906800810206859875e-01,1.812756049107353551e-01,1.000000000000000021e-03,3.973183746098192870e+01,2.117379545708106270e-01
-1.579885806499501832e+00,-5.063606250727574754e-01,1.652784049925908327e-01,1.000000000000000021e-03,3.961656977548411618e+01,1.329864061426623278e-01
-7.509210555853624847e-01,3.593508775047917769e-01,8.543240360589603455e-01,1.000000000000000021e-03,4.365869617281106940e+01,2.974130707491032810e-01
-2.611817896470770783e+00,9.386566518632881717e-01,1.928314694787010009e-01,1.000000000000000021e-03,4.001720366616676472e+01,2.227398559265900413e-01
1.999019611044531963e+00,-6.582724103065876742e-01,3.418797392004970792e-01,1.000000000000000021e-03,4.135243647024868352e+01,1.071307965968473913e-01
-1.517677447313136474e+00,7.629910059687095014e-01,1.614773026236544506e-01,1.000000000000000021e-03,3.925048185532755696e+01,3.610827764922414640e-01
7.721693772429043534e-01,-6.044016267819857235e-01,1.222507087191404995e+00,1.000000000000000021e-03,4.474838703449069044e+01,1.796746049859440642e-01
2.870623433297460281e+00,-2.930453064995250934e-01,7.608731719729613374e-01,1.000000000000000021e-03,4.354441831462517598e+01,2.264585190681528970e-01
-1.979285021838790515e+00,1.498805823879348686e+00,8.441992706663390411e-01,1.000000000000000021e-03,4.379116200865562547e+01,1.408901836801422225e-01
-2.617957012334558353e+00,-1.049500825456648911e+00,6.149092390824009158e-01,1.000000000000000021e-03,4.306615253543914434e+01,1.213207831298341866e-01
-1.335046036523237722e+00,-5.072059138780407039e-01,4.164795300294046321e-01,1.000000000000000021e-03,4.186428749021609264e+01,1.599751811876533314e-01
1.232477045043983921e+00,6.213775010096731499e-01,5.377892980928016264e-01,1.000000000000000021e-03,4.258843722533644183e+01,1.772302806480742787e-01
1.512511619463364987e+00,-8.478779759896251100e-01,1.806676194068768115e-01,1.000000000000000021e-03,3.988917624206105472e+01,2.203802806033017259e-01
-3.867401917020241164e-01,3.586876988042835279e-01,6.236305423815076132e-01,1.000000000000000021e-03,4.274054948512132057e+01,1.369824399055465658e-01
-1.663712380766483978e+00,3.103080679244494267e-01,3.617910440049887377e-01,1.000000000000000021e-03,4.147784224220355753e+01,1.666086778746115882e-01
1.302605684939051045e-02,-5.809085965092504189e-01,4.907169726938309662e-01,1.000000000000000021e-03,4.204716336819815581e+01,2.431747886215360477e-01
7.197937919654160410e-01,1.196092821442792165e+00,8.082927668399142451e-01,1.000000000000000021e-03,4.306447417689268775e+01,2.627649632153984949e-01
1.083086574038023109e+00,3.746074775511689658e-01,2.421422328290212533e-01,1.000000000000000021e-03,4.065769311609783898e+01,1.603021535356303484e-01
2.595217359002419677e+00,-5.503238422987273282e-01,1.697780474177010834e-01,1.000000000000000021e-03,3.972061268356623032e+01,1.845254079178918483e-01
-8.498736926344294673e-01,8.210775761985011911e-01,7.595592653418525853e-01,1.000000000000000021e-03,4.334835734017270426e+01,1.096220133321491458e-01
-4.986693323771747011e-01,1.087634555130302605e+00,2.244569121547379531e-01,1.000000000000000021e-03,4.033549929689004898e+01,1.929745266643343171e-01
1.656198992073178111e+00,-4.752182310713159996e-01,3.363258829432098640e-01,1.000000000000000021e-03,4.127811853804771403e+01,1.349754877296804878e-01
-8.114972143798815374e-01,-1.139632405930752768e+00,3.757514591487278732e-01,1.000000000000000021e-03,4.127549073715965022e+01,2.189386876481140276e-01
-2.635488131048792759e+00,5.953778794238506755e-01,3.345761587035720463e-01,1.000000000000000021e-03,4.073504428912615793e+01,3.581367574605177073e-01
2.857164888187811336e+00,-9.699529499885675143e-01,6.865257580733821197e-01,1.000000000000000021e-03,4.340012393635939247e+01,3.639554668865907505e-01
-1.058785185031003273e+00,-6.383395604634511944e-01,1.914223416300013803e-01,1.000000000000000021e-03,3.952756884297497919e+01,1.607969482070289446e-01
-3.897110186068433180e-01,4.867214966388528907e-01,2.546097181315487568e-01,1.000000000000000021e-03,4.066002608240426497e+01,1.218046983080558615e-01
1.841723709287856892e+00,6.621435121155005987e-01,4.682243672202142104e-01,1.000000000000000021e-03,4.215271030612581171e+01,1.101767748905259914e-01
-2.567692691209758404e+00,8.984367681384868298e-01,9.542694801051370135e-01,1.000000000000000021e-03,4.387944906560634450e+01,2.402983838408502548e-01
-1.491568021151566281e+00,-1.024110876314474172e+00,5.888917060473271015e-01,1.000000000000000021e-03,4.266959246897669544e+01,2.086051630225130293e-01
-3.870500671086096744e-01,-6.808468657196544704e-01,3.765408732590915797e-01,1.000000000000000021e-03,4.150552749813551401e+01,1.313636504161935226e-01
7.812152790714543826e-02,-5.811278638340058311e-01,7.312800560406669259e-01,1.000000000000000021e-03,4.310721484670902015e+01,2.005109165350924261e-01
-9.548568318907260100e-01,-7.333487902163585703e-01,8.100546021365129246e-01,1.000000000000000021e-03,4.332766939716194088e+01,2.143952947328843783e-01
2.785971521070106149e+00,-9.732509402686796429e-01,2.878364042095262754e-01,1.000000000000000021e-03,4.078489107830775851e+01,2.532755647383326258e-01
-2.963903737025427976e+00,3.936902931707517705e-01,3.415446611085508621e-01,1.000000000000000021e-03,4.079035226717252272e+01,2.385325861791481594e-01
2.476133675098171061e-01,-7.070764402282546657e-01,2.664357442012768029e-01,1.000000000000000021e-03,4.092781649905095520e+01,1.239745627227702984e-01
8.938547185155734098e-01,-9.658149591364971753e-01,5.362891652277133048e-01,1.000000000000000021e-03,4.230129180206452588e+01,2.406366396349911285e-01
2.638612600970228428e+00,5.209898527681495750e-01,2.443612687897882552e-01,1.000000000000000021e-03,4.040632283479963149e+01,2.155860933251364520e-01
-1.077704685652498995e+00,5.244386668561591414e-01,1.513270022814312554e-01,1.000000000000000021e-03,3.929314145066042130e+01,1.034738661428150353e-01
1.342685696203403722e+00,-6.491582597053333625e-01,3.307156429213038429e-01,1.000000000000000021e-03,4.108620860281285303e+01,1.566125032792597405e-01
-2.773690208840057903e+00,-9.834813543953311310e-01,8.714016281430683186e-01,1.000000000000000021e-03,4.362353495248826363e+01,1.285052232118714388e-01
-1.514134752373084369e+00,-8.723785445573201125e-01,3.157036704718478859e-01,1.000000000000000021e-03,4.082385007840239410e+01,2.143493499176825079e-01
1.500416580833201508e+00,6.621178013775050886e-01,6.914751010919186758e-01,1.000000000000000021e-03,4.296071358379006710e+01,1.814931643044505050e-01
6.870032435408024440e-02,-1.101471328452083842e+00,5.357430805913587779e-01,1.000000000000000021e-03,4.250635043862192930e+01,1.388168677455129951e-01
-1.741758420228933568e+00,-9.261532091009194723e-01,2.360119203287609491e-01,1.000000000000000021e-03,4.034405404593713484e+01,9.654994732872525243e-02
-2.884327902229347096e+00,-1.211104143049236193e+00,2.547717706238450397e-01,1.000000000000000021e-03,4.051251969647854878e+01,2.432976337461294769e-01
2.875622326543487262e+00,-4.691236532138280957e-01,1.585966498669486580e-01,1.000000000000000021e-03,3.945241657133116320e+01,1.421708703791456641e-01
1.126496845378825107e+00,5.967892700728776312e-01,3.397566302143593120e-01,1.000000000000000021e-03,4.120747598746882545e+01,1.628887861902003908e-01
-1.491157785371155731e+00,5.979366758938167159e-01,2.386016949012610411e-01,1.000000000000000021e-03,4.030477879995758883e+01,1.572014546153606140e-01
2.091144367554731431e+00,-6.811195745110346644e-01,3.563325615556036663e-01,1.000000000000000021e-03,4.150118665479211444e+01,2.117504128856393386e-01
-1.959521363561620433e-01,-7.815178932947525192e-01,2.295083182902051266e-01,1.000000000000000021e-03,4.005780094707566974e+01,1.508183643962271170e-01
2.480120543055306825e+00,-9.872296699122853347e-01,4.048684569752261098e-01,1.000000000000000021e-03,4.189480708575106149e+01,1.952153165303991689e-01
2.409689210457490738e-01,2.760564126448923350e-01,6.741652934690303134e-01,1.000000000000000021e-03,4.331900571238760733e+01,1.517674754574143414e-01
-3.952327329244540444e-01,-7.737308962549085400e-01,5.773431493566452133e-01,1.000000000000000021e-03,4.253799292329823345e+01,3.490730494952664076e-01
-2.480310650064985634e+00,2.689267159628307979e-01,2.082765314488814745e-01,1.000000000000000021e-03,4.003003492039982092e+01,1.869955917229864095e-01
-1.134983851923117459e+00,5.597491670770331496e-01,4.126512478958348495e-01,1.000000000000000021e-03,4.188819074280159072e+01,3.783168135440716506e-01
2.145227377406867753e+00,-3.744567963230214236e-01,5.789973988882126665e-01,1.000000000000000021e-03,4.251798940168416152e+01,2.408120303259485562e-01
1.842444531969995580e-01,-1.219373531399911670e+00,4.251038489797251962e-01,1.000000000000000021e-03,4.278695498409786779e+01,3.787016228010484098e-01
-1.670732388295150805e+00,-7.702396937161014590e-01,1.957017005482886152e-01,1.000000000000000021e-03,3.994206913992911012e+01,1.162098719029825700e-01
-1.504912477784596803e-01,-4.355164078706328379e-01,3.870490366596259779e-01,1.000000000000000021e-03,4.141113349267252630e+01,2.510303388492682308e-01
1.987617119652038689e+00,8.054395586402454121e-01,7.619625578945894429e-01,1.000000000000000021e-03,4.314053552537416181e+01,1.786770440228634960e-01
-2.040924849262609087e+00,-5.116343490285166773e-01,8.989535077813184394e-01,1.000000000000000021e-03,4.388232660746739100e+01,2.475418374913067876e-01
-2.770599784022325096e-01,3.100951565552039213e-01,2.682693361617976002e-01,1.000000000000000021e-03,4.080665507989266416e+01,2.041958990004462959e-01
4.306867357290622422e-01,-8.755504091811135980e-01,3.868964270255217386e-01,1.000000000000000021e-03,4.170047393162741400e+01,9.921564578650861332e-02
-1.912424533049003506e+00,-1.465501337164169415e+00,2.767778358231309799e-01,1.000000000000000021e-03,4.083059041565051217e+01,1.819081686506040796e-01
-1.628544879072043372e+00,8.840554967014391252e-01,3.645899953318105791e-01,1.000000000000000021e-03,4.175131235102037408e+01,2.483378555517189445e-01
3.124064730511483035e+00,1.305287721343846741e+00,6.875204688596219249e-01,1.000000000000000021e-03,4.324454653488383826e+01,1.826275453378550240e-01
-2.596641750011849936e-01,-6.851962765039176784e-01,4.823041531549729921e-01,1.000000000000000021e-03,4.215523853816183220e+01,1.369156495939010398e-01
-5.649560578751877671e-02,3.082672314838239558e-01,2.041181815331829519e-01,1.000000000000000021e-03,3.983610390634564880e+01,1.058309365426599591e-01
-1.654073735721171445e+00,3.027388510569455349e-01,1.951881669877055803e-01,1.000000000000000021e-03,3.976386342445427147e+01,1.048276793076205887e-01
-2.143473533910190465e+00,7.263613889145177360e-01,1.260038495361323729e+00,1.000000000000000021e-03,4.474877762332950937e+01,1.018957654883928393e-01
2.051853876330429927e+00,-1.109784726290926837e+00,3.834959894246210421e-01,1.000000000000000021e-03,4.142468983167693608e+01,1.506765189619779510e-01
2.314537338263942701e+00,-1.067227228653571114e+00,6.075934308268178263e-01,1.000000000000000021e-03,4.294446349881654612e+01,1.499922681064183028e-01
-4.573990103259406581e-01,5.674303277478620622e-01,4.851393513683717185e-01,1.000000000000000021e-03,4.191091309215552485e+01,1.436485628796511926e-01
-1.666642537619494657e+00,3.151409579353248169e-01,6.347732473147382759e-01,1.000000000000000021e-03,4.304837540064649914e+01,9.877347880303993799e-02
2.329999943025844900e+00,3.500504819246603727e-01,6.451398641673820045e-01,1.000000000000000021e-03,4.271218791518096225e+01,1.818323738951992397e-01
-3.082641372388605028e+00,-3.749081947432300055e-01,4.793573392808141431e-01,1.000000000000000021e-03,4.214508987525233152e+01,1.489618624376483624e-01
-1.583428254355553788e+00,-6.600498931749669840e-01,6.495108774339408697e-01,1.000000000000000021e-03,4.304717739207328009e+01,1.737630038387101838e-01
2.732473554869766730e+00,-1.098728497417047478e+00,6.952005544745840648e-01,1.000000000000000021e-03,4.300222486838699609e+01,1.212624780630363747e-01
1.130302612082259905e+00,6.883974249329436468e-01,2.438543446321699282e-01,1.000000000000000021e-03,4.037486742746347090e+01,1.179062220359614332e-01
-8.465049290819677275e-01,5.155504306244873547e-01,2.305724008093501531e-01,1.000000000000000021e-03,4.023919123708052581e+01,2.134622334019111167e-01
2.989922957344220755e+00,-7.843953605884882441e-01,3.472440282126167954e-01,1.000000000000000021e-03,4.123615128100323091e+01,2.366862161598437264e-01
5.758988842082253257e-01,4.557640181883710895e-01,5.864337338037985958e-01,1.000000000000000021e-03,4.302796536943084504e+01,1.641146618671828761e-01
2.951551201380114620e+00,-9.257584087105323878e-01,1.765091452466647226e-01,1.000000000000000021e-03,3.956884499449191850e+01,2.743890270016386412e-01
-1.513039324465419444e+00,5.482647100742061852e-01,2.200386589685801031e-01,1.000000000000000021e-03,3.993586381886689907e+01,1.758040653712737988e-01
3.010500336241756614e+00,-3.566790550187348696e-01,7.951350531989971326e-01,1.000000000000000021e-03,4.319537790821780732e+01,1.494708423786999807e-01
-1.151000771480474416e+00,-7.267598533928220084e-01,2.810878273636747693e-01,1.000000000000000021e-03,4.045932428483759224e+01,2.948679109137233856e-01
-1.656903928957824679e+00,4.577275223357148981e-01,4.263107319901042747e-01,1.000000000000000021e-03,4.182127796891355587e+01,1.178814594641479641e-01
-2.465947529527038995e+00,1.279721524054522774e+00,2.667231622547956427e-01,1.000000000000000021e-03,4.044908756141376927e+01,2.261879774250512287e-01
-2.485938367317181985e-01,-7.879093211537148145e-01,3.965416156036323247e-01,1.000000000000000021e-03,4.160143779040655687e+01,2.402383971121721529e-01
-2.630573356832481835e-01,-1.056842473165542140e+00,8.552670123646017863e-01,1.000000000000000021e-03,4.377733250272520849e+01,2.530009083361740019e-01
1.216872600489121048e+00,1.421412400577855006e+00,3.248385032815095386e-01,1.000000000000000021e-03,4.133561100825438217e+01,2.017407934320425145e-01
-3.270093801944349288e-01,6.765325196318614509e-01,1.873147861120225688e-01,1.000000000000000021e-03,3.972621936896208439e+01,1.447872002222115595e-01
-2.967286558346433623e+00,3.686943857192699348e-01,4.465240713007210260e-01,1.000000000000000021e-03,4.165094413815157992e+01,1.766071910831948921e-01
-2.219623117254239553e+00,1.011546851955722026e+00,1.619288065049016012e-01,1.000000000000000021e-03,3.921569169430169666e+01,1.730277745204698292e-01
-7.755461565609054198e-01,-4.435733567841988467e-01,4.963636752341407110e-01,1.000000000000000021e-03,4.211097800747434405e+01,1.170895629637161567e-01
-2.968468865668225209e+00,-6.159517761068210584e-01,2.484049936133398973e-01,1.000000000000000021e-03,4.066240478870759745e+01,1.772213450336541929e-01
-2.967899247567043819e+00,-6.017326548576121814e-01,8.720468649158157337e-01,1.000000000000000021e-03,4.369837099288107396e+01,1.348166346606918253e-01
2.077534723934460814e+00,-5.289380688496714278e-01,8.709174721528349927e-01,1.000000000000000021e-03,4.352085274599505738e+01,1.078387466906054193e-01
-8.233108821948498246e-03,4.807981535067979983e-01,8.986764704624587985e-01,1.000000000000000021e-03,4.377962703078949147e+01,1.788702226868982281e-01
1.576350739265508061e+00,-4.566812958414729895e-01,7.491581456679703432e-01,1.000000000000000021e-03,4.340416402590369671e+01,1.312628318723543519e-01
-1.942875562840001624e+00,8.848685279526073977e-01,4.584246052180753761e-01,1.000000000000000021e-03,4.213328667462065624e+01,1.005699827358746135e-01
8.841632954800466848e-01,-1.111674158279158720e+00,7.743161032781966657e-01,1.000000000000000021e-03,4.350459459759973413e+01,2.404741706063007745e-01
1.645100785213247541e+00,-5.431377007291529058e-01,5.512106938471439399e-01,1.000000000000000021e-03,4.265857811144317679e+01,1.818103721087864499e-01
-2.839645163433570652e-01,4.998524745464685282e-01,1.453186674276967238e-01,1.000000000000000021e-03,3.926546779239843943e+01,1.116303635876444156e-01
2.712667149517890230e+00,-3.717898944677129336e-01,1.165611327393031083e+00,1.000000000000000021e-03,4.438929676504208999e+01,1.696329227305409248e-01
1.206288368032218727e+00,1.117059755966734791e+00,7.203412659577315136e-01,1.000000000000000021e-03,4.325286477933324392e+01,9.767193101456732307e-02
1.392316862499733965e-01,-5.673038530729168638e-01,7.146423744101364495e-01,1.000000000000000021e-03,4.325453725701795804e+01,1.631417659948710130e-01
-1.244773779512394762e+00,7.762693367316289006e-01,4.261391422878249013e-01,1.000000000000000021e-03,4.174897823445607514e+01,1.804972615052172769e-01
-6.182591686775205098e-01,5.227158607033426385e-01,1.048168835478743510e+00,1.000000000000000021e-03,4.432258746171127939e+01,1.245832785019988925e-01
-3.060900851933128664e+00,-5.176508840415636747e-01,2.676650698036531217e-01,1.000000000000000021e-03,4.066112571452359958e+01,2.180653661362696727e-01
1.826297670168699483e-01,4.470200075213357493e-01,2.258684012936003072e-01,1.000000000000000021e-03,4.032708876795784647e+01,3.166654819476129035e-01
6.382012526103379990e-01,-2.942817866763050016e-01,2.358396681689212127e-01,1.000000000000000021e-03,4.060008142098441652e+01,1.670617432185585727e-01
2.497745551590184299e+00,-1.270669704687205304e+00,6.437627499272804421e-01,1.000000000000000021e-03,4.298626149719868295e+01,1.391245594812821063e-01
8.898641780946388025e-01,-6.921514566002071600e-01,3.618980023726170447e-01,1.000000000000000021e-03,4.109594320418209890e+01,1.981833836013636718e-01
-1.525666618459693868e+00,4.068644313264870860e-01,3.738269495721546765e-01,1.000000000000000021e-03,4.131622730820918576e+01,1.340123795456672207e-01
1.695104764906986361e+00,-1.087975615328320655e+00,6.512355289224716071e-01,1.000000000000000021e-03,4.315092534940115598e+01,1.215895934183834071e-01
-1.642811328817159300e+00,9.818986928388606650e-01,1.155420563478131157e+00,1.000000000000000021e-03,4.469226644844007978e+01,1.471100610961220134e-01
1.773849420699021628e+00,6.019284783449081466e-01,4.082676346727891481e-01,1.000000000000000021e-03,4.180050054381973013e+01,1.150535111883370099e-01
-5.872513576719589068e-01,-3.712851734906881251e-01,5.369966209630481213e-01,1.000000000000000021e-03,4.262707469309427211e+01,1.443780946846102975e-01
-3.065685493976979981e+00,5.907393236255100710e-01,3.329048022685721087e-01,1.000000000000000021e-03,4.145087064673417387e+01,2.091008262070305768e-01
9.116262076023504690e-01,4.324403252266222353e-01,3.142541907774232257e-01,1.000000000000000021e-03,4.118545256385692710e+01,1.838937053564419499e-01
-1.210938518764252958e+00,-6.878686685292932923e-01,2.680611919198099269e-01,1.000000000000000021e-03,4.057645915226673594e+01,2.914517053830588122e-01
2.997405969783301316e+00,-4.225190607089832628e-01,3.972942323436667866e-01,1.000000000000000021e-03,4.160014208544964021e+01,1.231203514267420057e-01
-2.323034483098999736e+00,2.792727526195046828e-01,2.908754730195768357e-01,1.000000000000000021e-03,4.098146226774486678e+01,2.850060560482640115e-01
2.501496593439321181e+00,-3.490344096746615943e-01,3.011231052246354789e-01,1.000000000000000021e-03,4.111945841146895475e+01,1.752624314979643882e-01
-2.239515814291815232e+00,9.336635963145929473e-01,4.084233281996028087e-01,1.000000000000000021e-03,4.097158144143355685e+01,3.685711530087735222e-01
2.810467971246505492e+00,1.256115105685095212e+00,3.708414433536726396e-01,1.000000000000000021e-03,4.141825068485633921e+01,1.820808542268901320e-01
-1.463690340253114508e+00,9.054036046488067591e-01,3.526910814518817716e-01,1.000000000000000021e-03,4.122625939908333947e+01,1.724725791331772062e-01
1.440641325039610621e+00,-8.473232041345205579e-01,6.946585958445221642e-01,1.000000000000000021e-03,4.315657069152985059e+01,1.574820821633224344e-01
-1.009098572065956212e-01,5.736458981218333086e-01,1.802531064953092343e-01,1.000000000000000021e-03,3.929236126964094922e+01,2.539262898316455019e-01
1.175051130710085268e+00,7.776729830234949681e-01,1.079820771673476454e+00,1.000000000000000021e-03,4.424050153077536862e+01,1.618419163909675940e-01
5.971193245765071822e-02,5.597941623363333896e-01,3.054218676267097532e-01,1.000000000000000021e-03,4.090010223333408845e+01,1.867454560965694788e-01
-1.740648464278392815e+00,-9.674745942161495638e-01,3.727501160849533424e-01,1.000000000000000021e-03,4.161070628775962632e+01,1.227693816205856492e-01
2.664752379026042561e+00,1.109358085640142821e+00,2.809926009234262612e-01,1.000000000000000021e-03,4.074058512788640485e+01,1.842126754060084970e-01
-4.644187260995575883e-01,-8.058638017486839944e-01,7.322976154964990769e-01,1.000000000000000021e-03,4.329193693704824142e+01,1.792368192650549696e-01
1.096142357501639353e+00,-9.309142119404482107e-01,2.060514223598077788e-01,1.000000000000000021e-03,4.014328942031508518e+01,1.636787483037136226e-01
-1.239679387875785688e+00,-5.128215109832543472e-01,5.774725370616067277e-01,1.000000000000000021e-03,4.244494064542431744e+01,1.992488286297695033e-01
-2.505434050858002415e+00,-8.783573689800973083e-01,4.200220827405654056e-01,1.000000000000000021e-03,4.178693592298128578e+01,1.590973977265507655e-01
1.726903955120562273e-01,-4.379622680724963857e-01,6.047803516970071680e-01,1.000000000000000021e-03,4.257102382887478598e+01,2.821873714395398691e-01
8.456479240110796880e-01,3.610050735027368063e-01,2.183130447801200358e-01,1.000000000000000021e-03,3.972885428458403823e+01,2.543609790361976986e-01
2.021952720930398684e+00,-1.230605531347522152e+00,1.999261565053529477e-01,1.000000000000000021e-03,3.987179856415399115e+01,1.343492327076122039e-01
5.431007675573726878e-01,-1.274340639184886825e+00,1.785881179725297141e-01,1.000000000000000021e-03,3.972540030541558309e+01,2.052430351845571654e-01
9.388565378047593057e-01,3.332285543023016938e-01,2.425550501370603573e-01,1.000000000000000021e-03,4.028755344919574810e+01,1.946882559058259465e-01
4.042834145284230907e-01,-3.313151611011397879e-01,5.596132489314169511e-01,1.000000000000000021e-03,4.298422213721789831e+01,2.430404862219172901e-01
2.407309442963897261e+00,-1.033529291892972379e+00,8.502355049455632141e-01,1.000000000000000021e-03,4.361980087733774525e+01,2.672735869671356013e-01
-1.923896053370259374e+00,8.374113300625154466e-01,3.862624458249301895e-01,1.000000000000000021e-03,4.131727658260402336e+01,1.729952282271914055e-01
-4.821031636347510307e-01,6.720437049781882166e-01,5.475409805919113637e-01,1.000000000000000021e-03,4.236832235820914860e+01,1.408863274296002499e-01
-2.099916672744033708e+00,3.009127123384880420e-01,5.314355576355762611e-01,1.000000000000000021e-03,4.234114262986092569e+01,2.444207666719903638e-01
-2.636562653698604208e-03,7.591732380553444237e-01,3.464526167958663638e-01,1.000000000000000021e-03,4.110959102811358434e+01,1.224353068157234548e-01
-1.974343406149051905e+00,-7.566816147393230496e-01,5.400737232055230486e-01,1.000000000000000021e-03,4.230431051650747776e+01,2.697594128000585512e-01
-1.671686078883418025e+00,3.867679061317892408e-01,8.116152504951998914e-01,1.000000000000000021e-03,4.346120537927762228e+01,1.483449849628245554e-01
-9.913592999298677100e-01,-1.122006044153300630e+00,1.931369559615907505e-01,1.000000000000000021e-03,3.989257626848175420e+01,1.731093247831854975e-01
-1.428167439527251448e+00,-9.571048086245775854e-01,1.657115502039108179e-01,1.000000000000000021e-03,3.920570480239249633e+01,2.514717621438606332e-01
2.600544236729484204e+00,-7.065911660874066857e-01,9.527696862783399112e-01,1.000000000000000021e-03,4.396308568013939322e+01,1.157480384108097726e-01
6.473222829468370243e-01,1.027929864434511842e+00,5.110591984671077892e-01,1.000000000000000021e-03,4.253602019519619404e+01,2.231743714664342348e-01
-9.240079852430671536e-01,-4.485918513810043251e-01,2.946816336100075429e-01,1.000000000000000021e-03,4.086588644104562462e+01,1.445054499815664195e-01
2.518406047012335947e-01,-1.043459684214683048e+00,1.425014915780355995e-01,1.000000000000000021e-03,3.911599984364170268e+01,1.598929928706638304e-01
-2.114001145417101490e+00,5.379114385272414367e-01,3.276603166902358755e-01,1.000000000000000021e-03,4.121614411234207864e+01,1.668259935077503475e-01
1.710708775172173901e+00,-4.528902862345867142e-01,1.916380408222417842e-01,1.000000000000000021e-03,3.993324699933653221e+01,1.544416580145243634e-01
-1.719734050890802779e+00,-4.808902938468921917e-01,2.517094459323541145e-01,1.000000000000000021e-03,4.034794678712555083e+01,1.909684158104595075e-01
2.532215123783969624e+00,1.105539894733939654e+00,5.628922654145369631e-01,1.000000000000000021e-03,4.277202449088623837e+01,2.532870599525400279e-01
3.026097396738489209e+00,-1.019959835173166018e+00,6.252192512562593230e-01,1.000000000000000021e-03,4.298431226619094758e+01,1.645921248173491114e-01
3.098932185921494664e+00,-2.766576117975581006e-01,2.761767816182683077e-01,1.000000000000000021e-03,4.087819339939782992e+01,2.012157438856451708e-01
-8.538832606760196064e-01,-5.177126405807490617e-01,2.487145536638917243e-01,1.000000000000000021e-03,4.065117907098892402e+01,2.502603091762078402e-01
9.020713604654506668e-01,7.142371705499122037e-01,5.949602824573843041e-01,1.000000000000000021e-03,4.287345186780920869e+01,1.432518143663155386e-01
-1.883624589608279942e+00,1.064719628175628596e+00,6.265875640857321294e-01,1.000000000000000021e-03,4.304246625683965988e+01,2.096826040642487676e-01
1.037177507637192519e-01,6.504052587807795938e-01,2.200753015580427796e-01,1.000000000000000021e-03,4.037204516510273322e+01,1.250989490976744112e-01
-8.135296988429274734e-01,1.280620062140140902e+00,5.940558412444687519e-01,1.000000000000000021e-03,4.265988675881346381e+01,1.923338042192209718e-01
4.699431910403366608e-01,5.430437843151758592e-01,2.042073024102246670e-01,1.000000000000000021e-03,3.996735877219339272e+01,1.139754579047342758e-01
1.854568995522789088e+00,-4.608272804675035417e-01,2.499186349654247685e-01,1.000000000000000021e-03,4.032880603515391016e+01,1.429102951943039546e-01
-2.580166097601624298e+00,1.176219796243228810e+00,1.563757772304290583e-01,1.000000000000000021e-03,3.933269279962930653e+01,2.390803762953925549e-01
1.417003421811469543e+00,-4.399918235275011025e-01,4.050296498131220613e-01,1.000000000000000021e-03,4.146446170541248222e+01,1.730745149595842303e-01
1.163308012584566065e+00,-9.623719386817242150e-01,3.328369284970897901e-01,1.000000000000000021e-03,4.136858195913416836e+01,1.985437018050739133e-01
-1.387413738104431138e+00,-5.822300054075320030e-01,5.204401788355772496e-01,1.000000000000000021e-03,4.279082047272453337e+01,3.117587047237437847e-01
-1.646490107015659676e+00,-1.023650938923000853e+00,8.476847718180458013e-01,1.000000000000000021e-03,4.348902949092443038e+01,2.048567073758142676e-01
1.371305321430885016e+00,-1.128289870154644881e+00,6.264261866630731479e-01,1.000000000000000021e-03,4.252327037647930297e+01,3.041249149987615419e-01
-9.981955824674120237e-01,-3.282436668893624621e-01,1.789890643583231800e-01,1.000000000000000021e-03,3.957947848673143909e+01,1.166761236719879163e-01
-2.132258583012903053e+00,8.669305524757944248e-01,9.303221379135515612e-01,1.000000000000000021e-03,4.385938970510422763e+01,1.653491069639442257e-01
6.164963593102128492e-01,-1.027190772361466387e+00,2.636978906115887700e-01,1.000000000000000021e-03,4.080873309105714242e+01,2.367539473832515617e-01
-1.975045396948968301e+00,7.460404108896310227e-01,1.188518044569716103e+00,1.000000000000000021e-03,4.446720674246030569e+01,1.591384337845055397e-01
-4.298685476640486947e-01,-4.423798395465703415e-01,2.631083312102966421e-01,1.000000000000000021e-03,4.094876140939332032e+01,2.141861844299146889e-01
2.348431039570713530e+00,7.111949759422913075e-01,3.466004985534134608e-01,1.000000000000000021e-03,4.128229656312802121e+01,1.424026662276056399e-01
1.836085176953456966e+00,1.049360332338691304e+00,5.569983879690258988e-01,1.000000000000000021e-03,4.262558881121447740e+01,1.298536285899604126e-01
-1.062887010797499254e+00,-1.152312961274921221e+00,2.152050438955908085e-01,1.000000000000000021e-03,4.031406920365092361e+01,1.652126788986718608e-01
1.760608223887443202e+00,5.854693724213388961e-01,3.691689637424648840e-01,1.000000000000000021e-03,4.140909601751459235e+01,2.696445863636924845e-01
1.973700579329794813e+00,-1.482728940225847447e+00,4.982012197848226798e-01,1.000000000000000021e-03,4.209934985502324167e+01,1.093228178019102770e-01
-6.803991327942977563e-01,-2.982691153820811181e-01,1.166892037840011387e+00,1.000000000000000021e-03,4.476468590798264557e+01,1.524543390895221895e-01
-1.742303728043099298e+00,-5.354650954469448720e-01,1.021419285323200921e+00,1.000000000000000021e-03,4.477117028071198490e+01,2.395232250242235739e-01
-1.895120834583803759e+00,-4.646616786619957029e-01,1.809909081746041704e-01,1.000000000000000021e-03,3.979841380321892785e+01,2.126491061685746031e-01
-1.099990017563414302e+00,-5.702752600720004672e-01,1.584609601647184451e-01,1.000000000000000021e-03,3.923984177464204492e+01,2.065496182405235082e-01
-2.468527229471829454e+00,1.355733249471471780e+00,6.086231842417317850e-01,1.000000000000000021e-03,4.287660756805601636e+01,1.405995178678778879e-01
2.878345221075817584e+00,9.452166565551367583e-01,2.382389315161581589e-01,1.000000000000000021e-03,4.043987120111017219e+01,1.326794461681271575e-01
4.364527135770148725e-01,-2.725255511339064185e-01,4.411739430362089376e-01,1.000000000000000021e-03,4.175043505678664957e+01,2.277286824512032848e-01
1.348110964494285469e+00,-5.925355967080443431e-01,4.036125740029319342e-01,1.000000000000000021e-03,4.169196807904047830e+01,1.941411447272179125e-01
-2.725771813450972303e+00,3.538183063185784683e-01,3.346253944632278099e-01,1.000000000000000021e-03,4.122722326893866551e+01,1.189589466109155086e-01
-2.378161421770132122e+00,-7.216871430827752620e-01,1.884618537242062075e-01,1.000000000000000021e-03,3.997133039408070942e+01,2.544722542009599797e-01
-8.529131610282387754e-01,-5.064265732325010649e-01,3.031077758761178131e-01,1.000000000000000021e-03,4.101058430512552633e+01,1.258890718491568472e-01
-2.956499354942307978e+00,-5.437305403986538721e-01,2.466332979088339261e-01,1.000000000000000021e-03,4.053903950008151469e+01,1.497928542509274485e-01
2.286902951235814996e+00,3.916505799797729281e-01,9.611453765807218552e-01,1.000000000000000021e-03,4.390027481929548259e+01,1.292236188270418085e-01
1.243110210071663779e+00,-3.283831264229406521e-01,3.381247991938574060e-01,1.000000000000000021e-03,4.130596622110152083e+01,1.163439641172545475e-01
1.809023386734376793e+00,3.234883463078790378e-01,3.759036512285771625e-01,1.000000000000000021e-03,4.201437949502755487e+01,3.091308036690324501e-01
9.072338174298497648e-01,1.080147585696728640e+00,9.494070456689902571e-01,1.000000000000000021e-03,4.418840809345486775e+01,1.847157483197774119e-01
2.661716543755598074e+00,2.681830708366417237e-01,1.417552237882395705e-01,1.000000000000000021e-03,3.925260236335933683e+01,1.139920371438438024e-01
-2.490303056123472025e+00,-5.646058960392816850e-01,1.731167690289816541e-01,1.000000000000000021e-03,3.960915023130574752e+01,1.364556782341716790e-01
-1.009588152590328747e+00,5.337517096571442465e-01,2.458264107503671525e-01,1.000000000000000021e-03,4.064482613809945377e+01,1.266522939765107048e-01
9.616638070805381133e-01,8.170470228242656674e-01,2.502952363783792489e-01,1.000000000000000021e-03,4.044036435538915697e+01,1.099291995145756512e-01
6.168977037107605810e-01,6.046159296923976356e-01,7.467359820262358117e-01,1.000000000000000021e-03,4.330028118115371427e+01,1.026017252516041450e-01
-3.032043287842293378e+00,3.017071482320590192e-01,1.806011449455005025e-01,1.000000000000000021e-03,3.976278163170924529e+01,1.708040890522114497e-01
-2.551688228076947063e+00,4.851668769666934722e-01,6.801593822232734343e-01,1.000000000000000021e-03,4.313761952608084016e+01,2.139747358770606456e-01
-1.732723958500325123e+00,-1.163640881118936043e+00,6.101536483647318487e-01,1.000000000000000021e-03,4.277293749714031890e+01,1.978378465639373252e-01
1.916997658325905185e+00,9.073185355832360521e-01,1.583984861840099789e-01,1.000000000000000021e-03,3.952368010396732245e+01,1.075320407686271573e-01
-3.598944824443237600e-01,-5.493872368282743945e-01,1.257059434021798427e+00,1.000000000000000021e-03,4.464340177762818485e+01,1.975131452199449800e-01
-3.264377606429840206e-01,-4.012647455609017477e-01,4.322470459817495669e-01,1.000000000000000021e-03,4.220470042036779290e+01,2.139073784157646818e-01
2.964516218650981472e+00,-1.148811811837697539e+00,6.225748608013590424e-01,1.000000000000000021e-03,4.287748320066914687e+01,1.377702228764242365e-01
-5.551085211516810780e-01,6.305950670513928991e-01,6.366281029720626261e-01,1.000000000000000021e-03,4.292771596496474729e+01,1.929657633346855417e-01
2.581798586687452435e+00,-1.099260635116548812e+00,4.247852125521403011e-01,1.000000000000000021e-03,4.215135635353978216e+01,3.165433347138154607e-01
8.440509109974563273e-01,-4.931307383433041203e-01,3.579168860057788670e-01,1.000000000000000021e-03,4.141944825772322503e+01,2.929168868709182139e-01
1.515900966344470469e+00,-6.706563924226348616e-01,2.046117302827019646e-01,1.000000000000000021e-03,3.990732765226363199e+01,3.135514186316070151e-01
-2.513313501449610410e+00,9.190611533261874300e-01,7.540309703850551770e-01,1.000000000000000021e-03,4.328657125363476155e+01,1.459063413247961016e-01
-3.323310347755650263e-01,-3.715748626893513595e-01,6.010967176644226306e-01,1.000000000000000021e-03,4.272048911954955486e+01,1.833548667954521538e-01
-1.543055287817405974e+00,-1.241588624692070653e+00,2.284628277372382499e-01,1.000000000000000021e-03,4.062123728682421842e+01,2.452797849245741679e-01
9.761835603534319006e-01,6.400639465684347940e-01,3.147914030862739576e-01,1.000000000000000021e-03,4.112702939967671512e+01,1.524320957636646212e-01
-1.722541461883264402e+00,-5.087765822557248629e-01,1.071526574998023840e+00,1.000000000000000021e-03,4.434225101586857676e+01,1.665856738430777084e-01
