2.374399223400000203e+00,-1.072520610009999986e+00,1.109597024071349303e-01,1.090000000000000067e-05,3.856909196805673190e+01,1.226000000000000006e-01
1.794023199870000029e+00,-1.066504575379999986e+00,1.147281605552901151e-01,1.889999999999999862e-05,3.860439076359791954e+01,1.226000000000000006e-01
7.402625042339999739e-01,-3.478394374039999737e-01,1.301435648236375364e-01,5.000000000000000104e-04,3.903246200304418068e+01,1.265000000000000013e-01
2.353709585569999874e+00,-1.080984469609999943e+00,1.329992223246578842e-01,1.609999999999999832e-05,3.907279195134354666e+01,1.386999999999999900e-01
2.802585039039999781e+00,-1.015603153890000110e+00,9.700113702601842469e-02,1.830000000000000097e-05,3.827286114102156489e+01,1.388000000000000067e-01
1.777274800810000110e+00,-1.074644056479999943e+00,1.242288938979598800e-01,1.329999999999999972e-05,3.883310765273428444e+01,1.411999999999999922e-01
2.913516280570000117e+00,-9.707627933700000433e-01,1.154282049737060944e-01,6.900000000000000005e-06,3.834686235721520831e+01,1.700000000000000122e-01
1.085549145259999904e+00,-7.448246486780000231e-01,1.119217018186824397e-01,1.840000000000000001e-05,3.870499305120200972e+01,1.277999999999999969e-01
1.027510266820000018e+00,-6.962213171690000424e-01,1.305619376725490888e-01,1.349999999999999949e-05,3.885790918739287036e+01,1.368999999999999939e-01
1.399970736520000036e+00,-9.625335564200000471e-01,1.403269229721955114e-01,1.980000000000000016e-05,3.912541292571113161e+01,1.358000000000000040e-01
2.570116769140000201e+00,-1.064664255240000079e+00,5.652008632405580713e-02,1.329999999999999972e-05,3.693355792853457586e+01,1.436999999999999944e-01
9.720875361769999445e-01,-6.095229793949999975e-01,1.269865473127553823e-01,1.290000000000000016e-05,3.918584740331480276e+01,1.373000000000000054e-01
1.621246130609999891e+00,-1.030625734150000028e+00,1.218647053416717085e-01,5.000000000000000104e-03,3.880994258393182150e+01,1.584000000000000130e-01
-3.042339658870000019e+00,-7.656767762299999669e-01,9.572598295138323721e-02,5.000000000000000104e-04,3.833475976585790335e+01,1.280999999999999917e-01
1.947272166539999905e+00,-1.101887229609999963e+00,1.246135964623409365e-01,6.999999999999999895e-06,3.868194415220084181e+01,1.270999999999999908e-01
1.341846001540000000e+00,-9.474381739049999585e-01,1.257001990471640074e-01,7.999999999999999638e-06,3.893922462599794443e+01,1.443000000000000116e-01
7.996623925639999575e-01,-4.051612241720000118e-01,1.388623907589927597e-01,1.599999999999999928e-05,3.912226620717054715e+01,1.696000000000000008e-01
8.159396800399999483e-01,-4.608107027469999784e-01,1.322306434293112343e-01,5.000000000000000104e-03,3.938968166682447958e+01,1.826000000000000123e-01
2.125302249619999806e+00,-1.086803689069999912e+00,1.292661881463907925e-01,1.340000000000000045e-05,3.929596304815542851e+01,1.282999999999999974e-01
-3.106068213669999967e+00,-7.694953304789999837e-01,1.287948471471256351e-01,5.000000000000000104e-03,3.885154049292937373e+01,1.608999999999999875e-01
2.841950137700000045e+00,-9.875161071129999746e-01,1.132483780097857107e-01,2.159999999999999987e-05,3.853127798512583269e+01,1.943000000000000005e-01
-3.134999796409999817e+00,-8.037173782269999567e-01,1.367816465105460288e-01,1.419999999999999957e-05,3.900582115244022674e+01,1.270999999999999908e-01
9.671751689580000422e-01,-6.400502010180000312e-01,9.041893753188623428e-02,1.509999999999999942e-05,3.806460401729358267e+01,1.388999999999999957e-01
2.720836001069999899e+00,-9.986845377940000157e-01,1.300623866455548061e-01,1.779999999999999898e-05,3.912370993328664071e+01,1.534999999999999976e-01
8.302812732050000033e-01,-4.498958842110000189e-01,1.039251960929792329e-01,5.000000000000000104e-04,3.857446232107098893e+01,1.365999999999999992e-01
2.647198647480000222e+00,-1.045089967700000066e+00,1.247094237821706475e-01,7.700000000000000816e-06,3.895086507724147395e+01,1.254000000000000115e-01
1.818959325520000059e+00,-1.082495407979999991e+00,1.096519311606578562e-01,2.970000000000000024e-05,3.869028319199231447e+01,1.156999999999999973e-01
1.155317387099999982e+00,-7.915749840529999748e-01,1.226883766325348457e-01,2.159999999999999987e-05,3.881332464257413761e+01,1.307000000000000106e-01
-3.085894853380000136e+00,-7.425671854069999522e-01,1.119624850759182166e-01,5.000000000000000104e-03,3.839071200321301802e+01,1.781999999999999973e-01
1.135128119430000027e+00,-8.234341324370000326e-01,1.337663338014725145e-01,1.540000000000000163e-05,3.911934873856062467e+01,1.270000000000000018e-01
8.771002889440000505e-01,-5.395284705770000411e-01,1.302798362340649163e-01,6.339999999999999607e-05,3.873697345797754821e+01,1.569000000000000117e-01
1.745186286110000040e+00,-1.042342141470000039e+00,1.185706879462977703e-01,5.000000000000000104e-03,3.859287255360989377e+01,1.706999999999999906e-01
2.946531179209999962e+00,-9.604502811189999933e-01,1.259151801048139507e-01,1.079999999999999993e-05,3.896522786718332299e+01,1.285999999999999921e-01
1.166608233690000107e+00,-7.996043302990000212e-01,9.787828047210167526e-02,2.159999999999999987e-05,3.824187657777269322e+01,1.400000000000000133e-01
1.185990132269999942e+00,-8.641372202310000361e-01,5.368829098481864293e-02,1.590000000000000023e-05,3.683539646759458464e+01,1.340000000000000080e-01
-3.115682483410000092e+00,-7.921200688409999469e-01,1.422841906336207440e-01,5.000000000000000104e-04,3.919188863654095201e+01,1.269000000000000128e-01
2.721615272170000210e+00,-1.026974405240000054e+00,1.035401651769318754e-01,1.669999999999999935e-05,3.846694350993578126e+01,1.351999999999999869e-01
2.727804926320000156e+00,-1.024504387349999934e+00,9.894663238029011154e-02,9.399999999999999786e-06,3.823491551997724969e+01,1.759000000000000008e-01
1.426680047809999907e+00,-9.906820955959999564e-01,6.863368048251206055e-02,6.800000000000000116e-06,3.757988470079229870e+01,1.161999999999999977e-01
-3.031490600410000180e+00,-7.521339244750000486e-01,7.208670250321036477e-02,5.000000000000000104e-03,3.783465454653953941e+01,1.552000000000000046e-01
-3.042901330919999925e+00,-7.306456428419999538e-01,1.062425026616740098e-01,5.000000000000000104e-03,3.834069052576786163e+01,1.589000000000000135e-01
8.404722479970000437e-01,-4.623668884409999902e-01,9.376753441254370713e-02,5.000000000000000104e-03,3.779177811864281011e+01,1.965000000000000080e-01
3.100915619489999830e+00,-8.173695768680000473e-01,7.183187363484755394e-02,3.399999999999999973e-05,3.777702249738509011e+01,1.670999999999999985e-01
1.286002955080000065e+00,-9.049919594959999758e-01,1.198089957957741980e-01,5.599999999999999747e-06,3.903081874247917682e+01,2.861000000000000210e-01
1.737660748389999954e+00,-1.062189249350000031e+00,7.902872369844193834e-02,5.000000000000000104e-03,3.789239679425026708e+01,1.638000000000000012e-01
2.095352158109999863e+00,-1.096962326439999913e+00,6.469711030043456823e-02,1.720000000000000134e-05,3.719281648745165114e+01,1.141999999999999960e-01
8.167659532600000105e-01,-4.688205310329999764e-01,1.315494501559724139e-01,3.000000000000000076e-05,3.878951520236985573e+01,1.711999999999999911e-01
2.667802166029999977e+00,-1.012992242439999968e+00,1.266019494041610294e-01,8.199999999999999417e-06,3.871745260647818299e+01,1.376999999999999891e-01
1.009909081290000010e+00,-7.225277238559999482e-01,1.400690251930167829e-01,2.019999999999999972e-05,3.907153603436115219e+01,1.419999999999999873e-01
2.300619155610000188e+00,-1.097223542480000091e+00,1.248696549437693371e-01,5.959999999999999857e-05,3.890322835167057036e+01,1.456999999999999962e-01
1.255215416199999989e+00,-8.574584809030000310e-01,9.303001458613402441e-02,1.900000000000000105e-05,3.810988522497226683e+01,2.167999999999999927e-01
1.911644274089999929e+00,-1.096370223150000101e+00,1.033356853138018838e-01,3.809999999999999775e-05,3.846646132325477652e+01,1.733999999999999986e-01
8.206518518590000255e-01,-3.994206287100000030e-01,1.100846699667710205e-01,2.869999999999999965e-05,3.836861446752921978e+01,1.630999999999999950e-01
9.041604029409999743e-01,-5.889006783089999475e-01,1.262215266985100559e-01,1.020000000000000060e-05,3.898954096054315954e+01,1.348000000000000032e-01
1.415457213080000054e+00,-9.568995503610000508e-01,1.194547660335660844e-01,1.369999999999999927e-05,3.877049942272920191e+01,2.263999999999999901e-01
-3.010963742429999979e+00,-7.220265089699999805e-01,1.373081928398154350e-01,1.709999999999999891e-05,3.876877991462144024e+01,1.378000000000000058e-01
2.101167545840000095e+00,-1.082254349230000079e+00,7.686813385717616853e-02,1.340000000000000045e-05,3.786773847314875496e+01,1.173000000000000015e-01
9.991690961460000242e-01,-7.076684939909999583e-01,1.249945176246449741e-01,1.540000000000000163e-05,3.876461348415363517e+01,1.645000000000000073e-01
1.873057221090000057e+00,-1.090367434140000036e+00,7.425801874949855552e-02,1.399999999999999979e-05,3.760123985618493947e+01,1.307999999999999996e-01
1.857861219069999903e+00,-1.098153534699999989e+00,1.318234897688148610e-01,1.380000000000000001e-05,3.898994229712650395e+01,1.484999999999999931e-01
2.665524588519999849e+00,-1.048996702910000023e+00,6.525543523473209540e-02,2.989999999999999833e-05,3.744782417152080711e+01,1.246000000000000024e-01
2.355154943700000114e+00,-1.097972677060000013e+00,6.255666319207797699e-02,2.199999999999999943e-05,3.724137362487276448e+01,1.806999999999999995e-01
9.795978195679999612e-01,-6.427905315930000363e-01,1.356655135697899528e-01,1.809999999999999950e-05,3.904731607374520053e+01,1.572000000000000064e-01
-3.057869156220000217e+00,-7.350573474220000181e-01,1.336129361732294463e-01,3.470000000000000319e-05,3.912271994923625584e+01,1.242000000000000048e-01
9.920497477990000146e-01,-6.500334753240000207e-01,9.901816325042078759e-02,9.000000000000000228e-06,3.847795209162531194e+01,2.169999999999999984e-01
3.130046329429999830e+00,-8.523119884030000426e-01,1.110268924404271829e-01,1.259999999999999964e-05,3.880533767841621540e+01,1.213000000000000050e-01
2.379028017850000065e+00,-1.072014097799999899e+00,1.343657348182387690e-01,1.049999999999999942e-05,3.920597154581902544e+01,1.262999999999999956e-01
2.357025798630000057e+00,-1.081619083709999929e+00,7.772740946362821646e-02,1.079999999999999993e-05,3.772452720770018431e+01,1.401000000000000023e-01
-2.970667736299999806e+00,-6.774830050879999677e-01,1.063371835648185826e-01,5.000000000000000104e-04,3.860478908126264486e+01,1.595999999999999919e-01
9.081755733340000081e-01,-5.458360787789999780e-01,1.287649336171783343e-01,2.559999999999999884e-05,3.894317041288885406e+01,1.363999999999999935e-01
1.358823888090000098e+00,-9.312103408390000059e-01,1.353438019212187537e-01,5.000000000000000104e-03,3.893405889066971781e+01,1.728999999999999981e-01
2.298395117170000113e+00,-1.078031132260000025e+00,7.369975492046698662e-02,1.439999999999999935e-05,3.763351967161071343e+01,1.371999999999999886e-01
-3.070442777129999801e+00,-7.549988654300000546e-01,9.747334871320378902e-02,1.349999999999999949e-05,3.829520107889931069e+01,1.471000000000000085e-01
1.477099177229999949e+00,-1.010621637769999914e+00,1.413060702362696208e-01,2.339999999999999958e-05,3.922404358957881954e+01,1.431999999999999940e-01
8.741869070719999746e-01,-5.017862068989999980e-01,1.150232382697300437e-01,5.000000000000000104e-04,3.856452567947900434e+01,1.423000000000000098e-01
2.330225988860000097e+00,-1.085528504420000040e+00,1.382821998493035665e-01,9.500000000000000523e-06,3.884085494133358196e+01,1.476000000000000090e-01
7.436354871750000539e-01,-3.504138256459999878e-01,1.348497697200132794e-01,5.000000000000000104e-04,3.905253074267300661e+01,1.774999999999999911e-01
1.427162433049999901e+00,-9.612825434239999911e-01,8.491303322905863205e-02,2.180000000000000134e-05,3.784119817921086337e+01,1.255999999999999894e-01
9.044026198019999851e-01,-5.322096512109999455e-01,1.172688114573781082e-01,5.000000000000000104e-03,3.823434260294656184e+01,1.680000000000000104e-01
8.455056588670000206e-01,-5.142817755869999452e-01,4.486809356227450252e-02,1.349999999999999949e-05,3.647691853820918340e+01,1.323000000000000009e-01
1.205649471110000093e+00,-8.710924191309999953e-01,1.039995489427707476e-01,5.000000000000000104e-04,3.823922822542360933e+01,1.277000000000000079e-01
1.943996264309999944e+00,-1.074116518739999915e+00,1.027031792211325900e-01,1.430000000000000031e-05,3.819410353455605645e+01,1.484000000000000041e-01
3.097793320910000148e+00,-8.262323889349999506e-01,1.066986183419416090e-01,2.069999999999999832e-05,3.850888851455415818e+01,1.265999999999999903e-01
1.039784177770000095e+00,-7.522941733079999693e-01,1.241974344985301570e-01,3.820000000000000018e-05,3.905275426950576190e+01,1.250999999999999890e-01
2.184902241780000143e+00,-1.103811874810000093e+00,7.828992497967113273e-02,2.209999999999999847e-05,3.777597460305619848e+01,1.250000000000000000e-01
1.466494425010000047e+00,-9.700494030970000514e-01,1.293767477963163604e-01,2.349999999999999862e-05,3.887282895990672671e+01,1.444999999999999896e-01
7.947229055519999807e-01,-4.173956512609999780e-01,7.258199521275554567e-02,1.450000000000000009e-05,3.770529135589604408e+01,1.716000000000000025e-01
1.108604996610000004e+00,-7.642787783910000021e-01,8.075477226048244361e-02,5.200000000000000188e-06,3.826081190073169580e+01,1.686999999999999889e-01
2.082009968799999999e+00,-1.113896128449999967e+00,1.181164603304201144e-01,1.049999999999999942e-05,3.895929634603914593e+01,1.280999999999999917e-01
1.869326667860000013e+00,-1.083687296129999922e+00,1.117642829885785449e-01,2.129999999999999935e-05,3.870683488859722132e+01,1.824000000000000066e-01
1.393367858249999980e+00,-9.489811826320000421e-01,4.636120380384745054e-02,2.619999999999999987e-05,3.650438301229917215e+01,1.252999999999999947e-01
1.078385828560000093e+00,-7.403871388199999570e-01,1.174465396435004916e-01,2.099999999999999884e-05,3.864845308339564411e+01,1.232000000000000040e-01
1.011862774459999947e+00,-6.888224621940000070e-01,1.231351073801771889e-01,2.680000000000000090e-05,3.884080140903392930e+01,1.262999999999999956e-01
8.544698483829999969e-01,-5.015490967350000329e-01,1.102874609759316726e-01,5.000000000000000104e-03,3.869532050974269310e+01,1.559999999999999998e-01
1.018549290619999992e+00,-7.028238768519999846e-01,1.255311108717114266e-01,8.800000000000000449e-06,3.872371253654488754e+01,1.323000000000000009e-01
1.623787387219999934e+00,-1.054606196469999979e+00,1.298993794700555870e-01,1.809999999999999950e-05,3.895356808151539951e+01,1.325000000000000067e-01
-3.049611868680000004e+00,-7.649298403180000427e-01,1.329751440333661883e-01,8.800000000000000449e-06,3.904997062770607386e+01,1.373999999999999944e-01
9.325682391520000447e-01,-6.045088198550000458e-01,7.363617260098243023e-02,6.700000000000000226e-06,3.765847584568339101e+01,1.852000000000000035e-01
1.143614002939999930e+00,-7.961324350570000430e-01,1.302213752986300932e-01,1.679999999999999839e-05,3.891220074560493458e+01,1.247000000000000053e-01
1.194021646369999967e+00,-8.723073439849999833e-01,7.836347723548020561e-02,7.900000000000000595e-06,3.769257816879381551e+01,1.376999999999999891e-01
2.197122871779999986e+00,-1.118233355919999950e+00,1.123825798347009020e-01,1.079999999999999993e-05,3.860862951426466338e+01,1.489999999999999936e-01
1.184121655390000027e+00,-8.242287254719999900e-01,8.058958726772091907e-02,2.229999999999999994e-05,3.780977237277740954e+01,1.338999999999999913e-01
1.089700901779999898e+00,-7.536230516480000308e-01,1.279221386051014875e-01,1.580000000000000119e-05,3.895966728939141177e+01,1.474000000000000032e-01
