-1.598279621179586663e+00,2.779993629999999993e-01,2.994824811776752860e-01,1.000000000000000048e-04,4.110777080420299967e+01,1.700000000000000122e-01
-8.306753881795865269e-01,5.048130450000000158e-01,1.360085118875111743e-01,1.000000000000000048e-04,3.924679148786969307e+01,1.600000000000000033e-01
-1.512887194179586281e+00,3.571169940000000209e-01,6.550641716772351852e-01,1.000000000000000048e-04,4.296207985342096691e+01,1.600000000000000033e-01
-2.094054222179586588e+00,-9.657747650000000350e-01,2.518972967877575186e-01,1.000000000000000048e-04,4.048170145336269599e+01,1.600000000000000033e-01
-1.256550916179586252e+00,-1.037146153999999987e+00,3.986357340586219600e-01,1.000000000000000048e-04,4.168120024883634045e+01,1.900000000000000022e-01
-2.638489419179586015e+00,-8.917870300000000361e-01,4.443527145481680485e-01,1.000000000000000048e-04,4.194497467751947539e+01,1.600000000000000033e-01
3.095686500000000008e-02,-1.139960520999999893e+00,8.732641974808446061e-01,1.000000000000000048e-04,4.395259754401311625e+01,1.700000000000000122e-01
-4.765590681795863759e-01,-7.328014390000000544e-01,3.064014751269572567e-01,1.000000000000000048e-04,4.099532050725856180e+01,1.600000000000000033e-01
7.532392530000000530e-01,9.936355940000000109e-01,3.793489481476268743e-01,1.000000000000000048e-04,4.158551747776421337e+01,1.600000000000000033e-01
1.355624495999999901e+00,4.654212710000000253e-01,1.340271312470640463e+00,1.000000000000000048e-04,4.486529798634344957e+01,2.200000000000000011e-01
-2.027672372179586624e+00,-3.494576850000000179e-01,1.879292176986826490e-01,1.000000000000000048e-04,3.990459637802281634e+01,8.999999999999999667e-02
-2.243457714179585949e+00,5.735296930000000071e-01,3.766433738037207046e-01,1.000000000000000048e-04,4.144858231193578746e+01,8.000000000000000167e-02
-1.661352162179586145e+00,7.473004210000000480e-01,2.777034435318759265e-01,1.000000000000000048e-04,4.094670432992845122e+01,1.100000000000000006e-01
-1.046494641179585905e+00,9.839422859999999993e-01,3.545026686606267408e-01,1.000000000000000048e-04,4.127192240901185016e+01,1.600000000000000033e-01
-1.357076630179586019e+00,8.591991679999999576e-01,7.686447171139849655e-01,1.000000000000000048e-04,4.308197028359928993e+01,1.300000000000000044e-01
-1.489161381179585852e+00,8.733460579999999807e-01,2.776879431497669692e-01,1.000000000000000048e-04,4.081083756668171247e+01,8.999999999999999667e-02
2.602874990000000111e+00,9.865781270000000269e-01,7.127032176282517284e-01,1.000000000000000048e-04,4.317401666583366904e+01,2.099999999999999922e-01
2.011122450999999867e+00,-1.257182417000000108e+00,5.161699334323606170e-01,1.000000000000000048e-04,4.262248041393722531e+01,1.799999999999999933e-01
2.487812089999999809e+00,-1.095252646999999913e+00,3.733772625540345835e-01,1.000000000000000048e-04,4.136954121540424012e+01,1.600000000000000033e-01
-2.060955814179585843e+00,9.020563839999999889e-01,8.073574607711011542e-01,1.000000000000000048e-04,4.392173696858080945e+01,1.799999999999999933e-01
-1.552222439179586466e+00,1.270289940999999923e+00,2.909032797648070101e-01,1.000000000000000048e-04,4.078646057160450056e+01,1.600000000000000033e-01
-3.584264691795864266e-01,1.112498557000000110e+00,3.015951017023774661e-01,1.000000000000000048e-04,4.096072453511634848e+01,2.000000000000000111e-01
1.187793541000000008e+00,1.533334508000000040e+00,1.521836294430884973e-01,1.000000000000000048e-04,3.921025758235025194e+01,1.700000000000000122e-01
9.029304540000000490e-01,-5.888661819999999603e-01,9.268074521500355711e-01,1.000000000000000048e-04,4.399399954949824831e+01,1.700000000000000122e-01
2.675488564000000125e+00,-1.029758079000000048e+00,7.681544838785754337e-01,1.000000000000000048e-04,4.353362165822683494e+01,1.700000000000000122e-01
9.979371630000000160e-01,-7.076351440000000492e-01,9.731326132581463728e-01,1.000000000000000048e-04,4.394254575200187674e+01,2.000000000000000111e-01
-2.809922836179586270e+00,-1.219770695000000016e+00,2.468642789634432066e-01,1.000000000000000048e-04,4.045151081063460907e+01,1.900000000000000022e-01
1.945616433999999950e+00,5.533621010000000506e-01,9.855972809190511885e-01,1.000000000000000048e-04,4.415008600858520538e+01,1.700000000000000122e-01
1.369802210000000131e-01,9.686457469999999459e-01,7.577096581663715913e-01,1.000000000000000048e-04,4.353143979553288290e+01,1.000000000000000056e-01
2.377785852000000144e+00,-1.071983155000000076e+00,7.574268392676051231e-01,1.000000000000000048e-04,4.327242183972649059e+01,1.000000000000000056e-01
1.194530383000000029e+00,-8.514353350000000153e-01,2.690084825396816814e-01,1.000000000000000048e-04,4.094984698539373369e+01,1.100000000000000006e-01
2.328991532999999947e+00,-1.085498080000000032e+00,4.993592748958568528e-01,1.000000000000000048e-04,4.215853849808873832e+01,1.199999999999999956e-01
3.099662444999999877e+00,-8.173274409999999879e-01,9.131241676744226154e-01,1.000000000000000048e-04,4.389444857986676141e+01,1.300000000000000044e-01
1.008677688999999988e+00,-7.224949280000000362e-01,1.550980079039430137e-01,1.000000000000000048e-04,3.953972994285929587e+01,1.199999999999999956e-01
1.116317643999999998e+00,-8.188746820000000204e-01,7.246431091490488363e-01,1.000000000000000048e-04,4.305266929237155438e+01,1.499999999999999944e-01
1.368634144999999913e+00,-9.746537960000000167e-01,1.322970063653385875e-01,1.000000000000000048e-04,3.895396321946255114e+01,2.200000000000000011e-01
2.840707745000000006e+00,-9.874777999999999611e-01,4.531526727701804536e-01,1.000000000000000048e-04,4.196941779332161104e+01,1.199999999999999956e-01
1.164831654000000105e+00,-8.361433499999999519e-01,6.430653389373461870e-01,1.000000000000000048e-04,4.315249362268036037e+01,1.600000000000000033e-01
9.274529849999999520e-01,-5.648102149999999488e-01,6.879611854821929828e-01,1.000000000000000048e-04,4.288172345007301089e+01,2.200000000000000011e-01
1.803806121999999901e+00,-1.051757271000000049e+00,5.355029412909595443e-01,1.000000000000000048e-04,4.299157192706588404e+01,2.200000000000000011e-01
1.910407339000000038e+00,-1.096340147000000043e+00,4.425486595230390119e-01,1.000000000000000048e-04,4.217382078240481036e+01,1.300000000000000044e-01
-2.994395329179586174e+00,-6.874333790000000111e-01,3.289549247315244340e-01,1.000000000000000048e-04,4.114330335094764735e+01,1.600000000000000033e-01
2.004169926999999962e+00,-1.114377941999999955e+00,1.209939378521652120e+00,1.000000000000000048e-04,4.472710825097021825e+01,2.099999999999999922e-01
2.993884073999999895e+00,-9.067153500000000310e-01,6.019635212546188274e-01,1.000000000000000048e-04,4.285907901200188519e+01,2.000000000000000111e-01
2.896584697999999847e+00,-6.981149509999999836e-01,1.403585529514279617e-01,1.000000000000000048e-04,3.902690367108252900e+01,2.000000000000000111e-01
2.644964143999999795e+00,-1.038456438999999953e+00,7.687061234954486455e-01,1.000000000000000048e-04,4.339767546529311915e+01,2.500000000000000000e-01
1.395029569000000080e+00,-9.673563530000000021e-01,5.686202871053069874e-01,1.000000000000000048e-04,4.279737757128720688e+01,2.200000000000000011e-01
1.133893306999999906e+00,-8.234022290000000410e-01,4.612871464161705237e-01,1.000000000000000048e-04,4.189880174998435791e+01,1.199999999999999956e-01
9.542908199999999841e-01,-6.210129070000000029e-01,1.809585519499572470e-01,1.000000000000000048e-04,3.980601435685795764e+01,1.400000000000000133e-01
1.112357503999999997e+00,-7.717409769999999947e-01,8.550602330357655045e-01,1.000000000000000048e-04,4.352023317449047113e+01,1.400000000000000133e-01
1.392129267000000059e+00,-9.489503049999999940e-01,4.329656105121095777e-01,1.000000000000000048e-04,4.180978444407059413e+01,1.100000000000000006e-01
3.104633763999999907e+00,-8.563587980000000321e-01,1.215635511408714731e-01,1.000000000000000048e-04,3.894232545352737418e+01,1.199999999999999956e-01
-1.581672989179586430e+00,-6.726275419999999672e-01,5.053661651808296629e-01,1.000000000000000048e-04,4.247998519914089144e+01,2.000000000000000111e-01
8.758714749999999549e-01,-5.394949780000000139e-01,4.284433406859038396e-01,1.000000000000000048e-04,4.205390310847013069e+01,1.199999999999999956e-01
1.027821937999999991e+00,-6.897361509999999640e-01,4.010323622485232331e-01,1.000000000000000048e-04,4.173405000379512586e+01,1.499999999999999944e-01
8.011105990000000343e-01,-4.568120419999999737e-01,4.478342571061719735e-01,1.000000000000000048e-04,4.222053201947837664e+01,1.499999999999999944e-01
8.044453879999999835e-01,-4.591503659999999765e-01,1.951708848742594871e-01,1.000000000000000048e-04,3.989555258500396207e+01,1.100000000000000006e-01
8.290542589999999601e-01,-4.498624509999999965e-01,2.908133089412918704e-01,1.000000000000000048e-04,4.082506702188986480e+01,1.199999999999999956e-01
2.306908324000000121e+00,-1.093655438999999951e+00,1.608303364841361383e-01,1.000000000000000048e-04,3.937258537147351234e+01,1.300000000000000044e-01
-3.090495873179586184e+00,-7.974218849999999970e-01,1.292561214366034772e-01,1.000000000000000048e-04,3.902105329631258002e+01,1.300000000000000044e-01
2.850739061000000074e+00,-9.724982730000000242e-01,2.376261367769820776e-01,1.000000000000000048e-04,4.033699369275543489e+01,1.100000000000000006e-01
1.925211972000000049e+00,-1.067349442999999898e+00,8.270045844598101770e-01,1.000000000000000048e-04,4.364408249367894399e+01,1.600000000000000033e-01
3.010706126000000094e+00,-9.149326070000000088e-01,2.418869031665424885e-01,1.000000000000000048e-04,4.060396972004983951e+01,1.199999999999999956e-01
1.754869720000000077e+00,-1.052947148999999971e+00,2.614728849974718994e-01,1.000000000000000048e-04,4.072036911751558819e+01,1.300000000000000044e-01
3.028086770999999899e+00,-8.725603690000000023e-01,5.047331113719464302e-01,1.000000000000000048e-04,4.224573389080833863e+01,1.199999999999999956e-01
2.780301081000000174e+00,-1.010780400000000023e+00,1.650482737683245382e-01,1.000000000000000048e-04,3.945431460949428271e+01,1.700000000000000122e-01
3.096540631999999960e+00,-8.261897350000000362e-01,2.623354299111617660e-01,1.000000000000000048e-04,4.073296155752939995e+01,1.100000000000000006e-01
-3.043596368179586342e+00,-7.656326449999999451e-01,8.280609990532250553e-01,1.000000000000000048e-04,4.354257301337040076e+01,1.100000000000000006e-01
2.593403560000000052e+00,-1.068240442000000012e+00,1.703173991774233897e-01,1.000000000000000048e-04,3.971142723308970091e+01,1.199999999999999956e-01
1.277663320999999907e+00,-8.910532270000000032e-01,1.273313951702984781e+00,1.000000000000000048e-04,4.456227423951935407e+01,1.499999999999999944e-01
8.729576639999999665e-01,-5.017517409999999733e-01,1.889784376782313036e-01,1.000000000000000048e-04,3.973742592377012528e+01,1.199999999999999956e-01
2.323316692000000128e+00,-1.072994334000000105e+00,2.498617964783440559e-01,1.000000000000000048e-04,4.045591741740939540e+01,1.400000000000000133e-01
-3.012222731179586166e+00,-7.219820959999999621e-01,2.418761651549268255e-01,1.000000000000000048e-04,4.047195279982972238e+01,1.199999999999999956e-01
2.306010604999999991e+00,-1.110345181000000014e+00,3.782003539029976658e-01,1.000000000000000048e-04,4.162547121084575963e+01,1.100000000000000006e-01
2.437557496999999795e+00,-1.097151527000000071e+00,1.413691255103728395e-01,1.000000000000000048e-04,3.922455815373493948e+01,1.100000000000000006e-01
1.098420291999999909e+00,-7.444727049999999569e-01,5.166394619799083987e-01,1.000000000000000048e-04,4.249236656880425755e+01,1.300000000000000044e-01
8.241628739999999897e-01,-4.611620249999999754e-01,7.706380213257888467e-01,1.000000000000000048e-04,4.348499062239315549e+01,1.400000000000000133e-01
1.017317494999999905e+00,-7.027905669999999771e-01,4.099214811309850326e-01,1.000000000000000048e-04,4.189606234274925356e+01,1.199999999999999956e-01
2.728679550999999925e+00,-1.007430967999999982e+00,4.410246803710373698e-01,1.000000000000000048e-04,4.200611708475065598e+01,1.100000000000000006e-01
2.848837458999999850e+00,-9.622339979999999793e-01,4.704123441838805597e-01,1.000000000000000048e-04,4.228361780585039753e+01,1.199999999999999956e-01
-3.065525731179586266e+00,-7.207210450000000046e-01,2.784295318899092653e-01,1.000000000000000048e-04,4.069372081300316779e+01,1.199999999999999956e-01
1.103969978000000074e+00,-7.587182380000000448e-01,4.120774514851286430e-01,1.000000000000000048e-04,4.177642296905528241e+01,1.300000000000000044e-01
1.112034854000000017e+00,-7.675460100000000008e-01,5.160657649138531422e-01,1.000000000000000048e-04,4.241311770811358883e+01,1.199999999999999956e-01
2.373162053000000160e+00,-1.072487750000000073e+00,3.358257680952874136e-01,1.000000000000000048e-04,4.115634187324141635e+01,1.100000000000000006e-01
2.221583438000000132e+00,-1.096064289000000080e+00,4.756216162272679515e-01,1.000000000000000048e-04,4.215218321509595256e+01,1.199999999999999956e-01
2.775251189000000007e+00,-1.013244017000000108e+00,2.330328295049135523e-01,1.000000000000000048e-04,4.031534832209963781e+01,1.700000000000000122e-01
1.527128894000000070e+00,-9.963611940000000056e-01,4.572130552132140924e-01,1.000000000000000048e-04,4.221889304415800837e+01,1.400000000000000133e-01
-1.936135624179586401e+00,1.327891944000000102e+00,7.519309707653105690e-01,1.000000000000000048e-04,4.335060926014156735e+01,1.199999999999999956e-01
2.120951332999999828e+00,-1.112975437000000012e+00,2.068058442759213023e-01,1.000000000000000048e-04,3.990526835995257215e+01,1.600000000000000033e-01
2.950704906999999988e+00,-9.277153000000000205e-01,8.548755634157207961e-01,1.000000000000000048e-04,4.361673486958527945e+01,1.700000000000000122e-01
2.461302839000000020e+00,-1.064109841000000056e+00,1.185338594839039139e+00,1.000000000000000048e-04,4.448836814920425553e+01,1.499999999999999944e-01
1.687800213000000049e+00,-1.037844004000000098e+00,2.075237174852877509e-01,1.000000000000000048e-04,4.021011961862116380e+01,1.100000000000000006e-01
-3.069023128179586113e+00,-7.343218900000000327e-01,6.680349416775066551e-01,1.000000000000000048e-04,4.320253302502396053e+01,2.000000000000000111e-01
7.655655390000000171e-01,-3.825025819999999799e-01,7.467426438357649410e-01,1.000000000000000048e-04,4.330934930650789738e+01,1.300000000000000044e-01
-3.051736326179586012e+00,-7.690870560000000467e-01,7.497413311733995833e-01,1.000000000000000048e-04,4.332336111304690718e+01,1.499999999999999944e-01
-3.116938176179586240e+00,-7.920766919999999711e-01,2.704118897785543485e-01,1.000000000000000048e-04,4.072146514543149465e+01,1.100000000000000006e-01
1.020863690000000101e+00,-6.877910739999999468e-01,7.866158253651123200e-01,1.000000000000000048e-04,4.354509117546295016e+01,1.199999999999999956e-01
1.792785233999999894e+00,-1.066474936999999956e+00,2.952222525277150567e-01,1.000000000000000048e-04,4.097339304627259793e+01,1.100000000000000006e-01
1.805689748000000039e+00,-1.066896787999999985e+00,3.048134858533375624e-01,1.000000000000000048e-04,4.099740071121372154e+01,1.100000000000000006e-01
1.773248071000000037e+00,-1.046601056999999946e+00,1.898798631744433862e-01,1.000000000000000048e-04,4.004215460508640234e+01,2.099999999999999922e-01
1.076689889999999927e+00,-7.549444410000000216e-01,1.698300907890830658e-01,1.000000000000000048e-04,3.962879503585450891e+01,1.199999999999999956e-01
2.336456505000000128e+00,-1.089906792000000069e+00,4.964754140339060484e-01,1.000000000000000048e-04,4.246506374979015419e+01,1.199999999999999956e-01
2.522083900000000156e+00,-1.078852812999999911e+00,1.284095419467280674e+00,1.000000000000000048e-04,4.473625408614947929e+01,1.199999999999999956e-01
3.676074389999999803e-01,1.100614297999999991e+00,3.725577415041612106e-01,1.000000000000000048e-04,4.138128291657208280e+01,1.700000000000000122e-01
2.099931574000000190e+00,-1.082223048999999993e+00,4.557090273944732761e-01,1.000000000000000048e-04,4.213287231072850858e+01,1.100000000000000006e-01
8.155488279999999479e-01,-4.642700679999999802e-01,7.556410021957018497e-01,1.000000000000000048e-04,4.346368042588576941e+01,2.099999999999999922e-01
9.861636230000000447e-01,-6.881834650000000497e-01,4.625552446894296565e-01,1.000000000000000048e-04,4.219016132261148755e+01,1.300000000000000044e-01
1.864254864999999928e+00,-1.086684659999999969e+00,4.547993780792412011e-01,1.000000000000000048e-04,4.201230399829412221e+01,1.199999999999999956e-01
2.873066016000000111e+00,-9.753574739999999466e-01,3.217463306059844541e-01,1.000000000000000048e-04,4.115778762046539185e+01,1.300000000000000044e-01
2.270287562000000037e+00,-1.085086717999999895e+00,1.070249250071178437e+00,1.000000000000000048e-04,4.433320992836931396e+01,1.799999999999999933e-01
8.268071609999999572e-01,-4.587794940000000099e-01,3.379016857011132302e-01,1.000000000000000048e-04,4.123694640952493984e+01,1.199999999999999956e-01
-3.050869045179586347e+00,-7.648855789999999821e-01,6.486527858124742085e-01,1.000000000000000048e-04,4.293142684612724480e+01,1.199999999999999956e-01
1.101963728999999947e+00,-7.466317359999999903e-01,4.879995584679870380e-01,1.000000000000000048e-04,4.243031234937758711e+01,1.900000000000000022e-01
1.745116724000000064e+00,-1.056563783000000090e+00,4.441159112115486973e-01,1.000000000000000048e-04,4.192942638566616864e+01,1.300000000000000044e-01
7.889769570000000343e-01,-3.846565690000000037e-01,3.151403083724868548e-01,1.000000000000000048e-04,4.088709516426303736e+01,1.499999999999999944e-01
1.385818830999999918e+00,-9.278259679999999454e-01,5.746036861412182617e-01,1.000000000000000048e-04,4.263784087035558201e+01,1.499999999999999944e-01
1.138484923000000038e+00,-8.197145099999999518e-01,2.223263400217574404e-01,1.000000000000000048e-04,4.025357185803836302e+01,1.400000000000000133e-01
1.783410439000000069e+00,-1.080958507999999929e+00,2.576615041559555674e-01,1.000000000000000048e-04,4.049338356310691012e+01,1.400000000000000133e-01
2.617653461000000181e+00,-1.025884226000000066e+00,2.885171831133153120e-01,1.000000000000000048e-04,4.088411048900126588e+01,1.199999999999999956e-01
8.270197009999999960e-01,-4.157453939999999903e-01,7.009804239314945118e-01,1.000000000000000048e-04,4.309462457576437089e+01,1.199999999999999956e-01
3.128792493000000174e+00,-8.522697870000000009e-01,2.589347213563237826e-01,1.000000000000000048e-04,4.062606517678974427e+01,1.100000000000000006e-01
1.366158207000000013e+00,-9.614226009999999878e-01,3.111173842266798939e-01,1.000000000000000048e-04,4.088252000336759551e+01,1.100000000000000006e-01
2.846286316000000038e+00,-9.688357899999999745e-01,2.856594106290162305e-01,1.000000000000000048e-04,4.068285027937716336e+01,1.400000000000000133e-01
9.208216280000000031e-01,-6.185352929999999860e-01,2.787820217899541486e-01,1.000000000000000048e-04,4.090526610487109593e+01,1.499999999999999944e-01
7.622987450000000553e-01,-3.411912120000000215e-01,3.843084562118750380e-01,1.000000000000000048e-04,4.151660839251464807e+01,1.199999999999999956e-01
9.277931750000000255e-01,-5.813990460000000304e-01,9.771486740151449357e-01,1.000000000000000048e-04,4.389723662721038266e+01,2.099999999999999922e-01
1.010173165000000095e+00,-6.808591280000000356e-01,2.541046191305114110e-01,1.000000000000000048e-04,4.048124795022894773e+01,1.300000000000000044e-01
1.661181446000000062e+00,-1.029160687999999935e+00,4.784353631853552891e-01,1.000000000000000048e-04,4.230693020112214953e+01,1.400000000000000133e-01
2.089878704000000198e+00,-1.077863170999999953e+00,2.165112039788807952e-01,1.000000000000000048e-04,4.025000648820034854e+01,1.199999999999999956e-01
9.321550429999999610e-01,-6.212176799999999943e-01,8.890767882033621117e-01,1.000000000000000048e-04,4.345689229816033361e+01,1.199999999999999956e-01
2.944595597000000176e+00,-9.127602249999999806e-01,1.205655415825606092e-01,1.000000000000000048e-04,3.879810905894878914e+01,1.100000000000000006e-01
1.288081913999999939e+00,-9.113959929999999598e-01,5.080568850066951025e-01,1.000000000000000048e-04,4.196394360170820192e+01,1.300000000000000044e-01
1.398731861999999992e+00,-9.625033109999999725e-01,5.566907844024306939e-01,1.000000000000000048e-04,4.232578050300209327e+01,1.199999999999999956e-01
1.714165549000000066e+00,-1.043104095999999981e+00,1.901082496783808029e-01,1.000000000000000048e-04,3.985104807696816209e+01,1.199999999999999956e-01
1.014018395999999989e+00,-6.788913789999999615e-01,1.894375065777837985e-01,1.000000000000000048e-04,3.978682878652288224e+01,1.300000000000000044e-01
8.887761809999999985e-01,-5.541821719999999729e-01,8.743844223313876896e-01,1.000000000000000048e-04,4.371611876571166988e+01,1.300000000000000044e-01
1.026278256999999972e+00,-6.961882160000000264e-01,2.079882359495455191e-01,1.000000000000000048e-04,3.980447760620121755e+01,1.199999999999999956e-01
1.824970581999999952e+00,-1.080428363000000003e+00,4.481531400324971770e-01,1.000000000000000048e-04,4.194390632062258817e+01,1.199999999999999956e-01
1.839979185000000017e+00,-1.082878103999999952e+00,3.134894115992172825e-01,1.000000000000000048e-04,4.113159557655941256e+01,1.300000000000000044e-01
-3.070118813179586237e+00,-7.641942569999999879e-01,2.155169959273115499e-01,1.000000000000000048e-04,3.990098869005395699e+01,1.199999999999999956e-01
2.250776613000000204e+00,-1.110438553999999911e+00,4.845946866173147516e-01,1.000000000000000048e-04,4.236806232917824389e+01,1.199999999999999956e-01
2.613802471000000072e+00,-1.066258922999999914e+00,4.023442667945120732e-01,1.000000000000000048e-04,4.171857666268459752e+01,1.199999999999999956e-01
8.050150120000000298e-01,-4.193234060000000096e-01,2.471086281089036607e-01,1.000000000000000048e-04,4.064481832001808215e+01,1.499999999999999944e-01
2.809576177999999924e+00,-9.952447749999999704e-01,3.295300644104091070e-01,1.000000000000000048e-04,4.114009942700659650e+01,1.199999999999999956e-01
8.523447290000000232e-01,-4.773689010000000121e-01,7.293952764132665134e-01,1.000000000000000048e-04,4.325584331362036039e+01,2.000000000000000111e-01
2.975142320999999868e+00,-8.986192680000000266e-01,2.763657773081000801e-01,1.000000000000000048e-04,4.082510999449072386e+01,2.000000000000000111e-01
2.960578484000000010e+00,-9.174235720000000205e-01,2.092771919629354826e-01,1.000000000000000048e-04,4.011967698853031550e+01,1.400000000000000133e-01
1.589239559999999996e+00,-1.046132274999999945e+00,4.884681657637759411e-01,1.000000000000000048e-04,4.211059844531457941e+01,1.199999999999999956e-01
1.095136271999999966e+00,-7.909478989999999543e-01,7.769780798144230172e-01,1.000000000000000048e-04,4.355179885389141248e+01,1.300000000000000044e-01
3.045277111999999953e+00,-8.831592660000000539e-01,2.513782612496386903e-01,1.000000000000000048e-04,4.051560593204796845e+01,1.799999999999999933e-01
3.011317304999999944e+00,-8.969173430000000335e-01,1.267156897094452894e+00,1.000000000000000048e-04,4.465230652585643156e+01,1.499999999999999944e-01
1.946036051000000100e+00,-1.101857058000000000e+00,7.419743904371094434e-01,1.000000000000000048e-04,4.338067791064631251e+01,1.100000000000000006e-01
9.659444579999999503e-01,-6.400164339999999674e-01,1.178487132611008015e-01,1.000000000000000048e-04,3.891104462358026694e+01,1.199999999999999956e-01
1.142944595999999979e+00,-8.229314749999999679e-01,5.266313185615905113e-01,1.000000000000000048e-04,4.201433042761136250e+01,1.499999999999999944e-01
1.336859599999999926e+00,-9.462661719999999610e-01,1.581474992449698469e-01,1.000000000000000048e-04,3.938768720065925777e+01,1.900000000000000022e-01
2.386695267999999981e+00,-1.099692616000000012e+00,1.294256392935539957e-01,1.000000000000000048e-04,3.904386231825434095e+01,1.799999999999999933e-01
1.122946417999999946e+00,-7.871106610000000448e-01,9.782831931337465647e-01,1.000000000000000048e-04,4.421350209340089776e+01,1.499999999999999944e-01
1.038511049000000019e+00,-6.836743480000000428e-01,2.967797276042698496e-01,1.000000000000000048e-04,4.081379708485199131e+01,1.499999999999999944e-01
-1.865548755179585960e+00,5.988235499999999822e-01,4.817073374377400796e-01,1.000000000000000048e-04,4.221636332081011744e+01,3.599999999999999867e-01
-1.208774007179585830e+00,1.086301519000000049e+00,5.017637642366314932e-01,1.000000000000000048e-04,4.292554726245221275e+01,3.900000000000000133e-01
-1.451351928179586359e+00,1.047303024999999943e+00,1.260242270291187516e-01,1.000000000000000048e-04,3.837190782222970142e+01,3.900000000000000133e-01
-1.863787002179586594e+00,5.986409590000000280e-01,6.875323536686002157e-01,1.000000000000000048e-04,4.340179896928810876e+01,3.099999999999999978e-01
-2.367107747179586053e+00,3.570653329999999848e-01,7.861140048677415226e-01,1.000000000000000048e-04,4.356730027536792704e+01,3.300000000000000155e-01
3.110012692999999828e+00,-8.816387980000000013e-01,7.108827778027204669e-01,1.000000000000000048e-04,4.327926519060478228e+01,4.000000000000000222e-01
1.208427087000000011e+00,6.391205479999999550e-01,3.599484927977567583e-01,1.000000000000000048e-04,4.147603943644512015e+01,3.200000000000000067e-01
2.195568135999999893e+00,9.530612539999999688e-01,1.486683402695418987e-01,1.000000000000000048e-04,3.946212870342861123e+01,3.200000000000000067e-01
-1.746303855179585973e+00,7.561700099999999480e-01,9.404423557701586667e-01,1.000000000000000048e-04,4.403654380124553569e+01,3.599999999999999867e-01
-2.613733020179586308e+00,3.020363409999999860e-01,4.913962653486669829e-01,1.000000000000000048e-04,4.227939795498311781e+01,2.399999999999999911e-01
3.080075141000000016e+00,6.813462000000000129e-01,6.365232626713310804e-01,1.000000000000000048e-04,4.309493626609071271e+01,2.999999999999999889e-01
3.084152930000000126e+00,6.750201959999999612e-01,5.356315678041434492e-01,1.000000000000000048e-04,4.242075061672058212e+01,2.399999999999999911e-01
-2.831540824179586302e+00,-5.193198470000000011e-01,2.150160425346152593e-01,1.000000000000000048e-04,4.005231593127791712e+01,2.899999999999999800e-01
2.921667255000000019e+00,-9.403574120000000036e-01,2.507561091372456641e-01,1.000000000000000048e-04,4.055967672825018866e+01,2.899999999999999800e-01
2.610543199999999953e+00,9.294079060000000059e-01,2.265157681071157114e-01,1.000000000000000048e-04,4.071514935333259189e+01,2.899999999999999800e-01
2.614058957000000127e+00,9.310355519999999885e-01,2.601123325584935309e-01,1.000000000000000048e-04,3.989470049086368419e+01,3.699999999999999956e-01
-2.614313936179586406e+00,3.105085300000000048e-01,6.416947144228366540e-01,1.000000000000000048e-04,4.314262261825017930e+01,2.300000000000000100e-01
-2.614275993179586255e+00,3.084493819999999942e-01,1.512105358187838533e-01,1.000000000000000048e-04,3.893198525075830929e+01,2.000000000000000111e-01
3.080236718000000096e+00,6.852664600000000217e-01,4.456540841698539701e-01,1.000000000000000048e-04,4.199231670513159997e+01,3.800000000000000044e-01
3.085135451000000195e+00,6.840520260000000352e-01,5.017835913082056010e-01,1.000000000000000048e-04,4.227118677664944357e+01,2.300000000000000100e-01
-2.829361723179586452e+00,-5.190188390000000096e-01,3.456895746805592751e-01,1.000000000000000048e-04,4.145616312696494532e+01,3.900000000000000133e-01
-2.833706243179586082e+00,-5.260186759999999628e-01,2.491339188253971493e-01,1.000000000000000048e-04,4.045318187563182022e+01,2.200000000000000011e-01
1.286414458000000094e+00,-9.076167339999999806e-01,1.786078645104705043e-01,1.000000000000000048e-04,4.055849816215555848e+01,2.399999999999999911e-01
2.295144749999999956e+00,-1.095028292000000070e+00,6.783982073705094873e-01,1.000000000000000048e-04,4.313622344246232387e+01,2.000000000000000111e-01
2.312115046000000174e+00,-1.091482969000000081e+00,4.383178385297570312e-01,1.000000000000000048e-04,4.208908035994789287e+01,1.900000000000000022e-01
2.535381049000000164e+00,-1.063602453999999975e+00,2.493390016386105579e-01,1.000000000000000048e-04,3.998841032636568826e+01,2.600000000000000089e-01
2.549902755000000187e+00,-1.059649137999999935e+00,1.503743437741493771e-01,1.000000000000000048e-04,3.947580221019885727e+01,1.900000000000000022e-01
-2.980466121795863899e-01,1.081935794000000062e+00,5.870315671771744181e-01,1.000000000000000048e-04,4.278899069629728302e+01,1.000000000000000056e-01
-4.562223411795862660e-01,1.078420874000000085e+00,5.346782639137497295e-01,1.000000000000000048e-04,4.238183429318650042e+01,1.400000000000000133e-01
-4.727696341795866175e-01,1.076427226000000070e+00,3.308860123107755236e-01,1.000000000000000048e-04,4.118001493902395538e+01,1.900000000000000022e-01
-4.909850281795860028e-01,1.086050390999999893e+00,7.187278498751887845e-01,1.000000000000000048e-04,4.322956916672519156e+01,1.499999999999999944e-01
-1.809890014179586615e+00,8.554848849999999727e-01,5.181783899731335907e-01,1.000000000000000048e-04,4.268831774360924669e+01,1.900000000000000022e-01
-1.804843805179586091e+00,8.509932909999999850e-01,7.601824815622071352e-01,1.000000000000000048e-04,4.294774795456034155e+01,1.700000000000000122e-01
-1.798315402179586187e+00,8.389159160000000393e-01,1.853292382932751892e-01,1.000000000000000048e-04,3.981402266985218574e+01,1.100000000000000006e-01
-1.820018681179586650e+00,8.404092629999999620e-01,3.133793920863059412e-01,1.000000000000000048e-04,4.121095503366905177e+01,2.000000000000000111e-01
-2.435936564179586039e+00,3.767214549999999829e-01,2.919619300355293934e-01,1.000000000000000048e-04,4.076817087731055267e+01,1.700000000000000122e-01
-2.738532057179586143e+00,-4.670391260000000266e-01,2.944375855217600257e-01,1.000000000000000048e-04,4.112723212021351316e+01,1.100000000000000006e-01
-2.750126147179586145e+00,-4.750163370000000107e-01,1.048549300378086357e+00,1.000000000000000048e-04,4.453062058167277826e+01,1.700000000000000122e-01
6.777063359999999648e-01,-9.284162910000000046e-01,5.769290206542196930e-01,1.000000000000000048e-04,4.267232280960512725e+01,1.600000000000000033e-01
6.755664329999999662e-01,-9.242990760000000527e-01,2.559438750377798222e-01,1.000000000000000048e-04,4.068317709028146822e+01,2.200000000000000011e-01
1.666277256000000095e+00,1.035703752000000089e+00,6.186765154023143864e-01,1.000000000000000048e-04,4.313467446398713889e+01,2.800000000000000266e-01
1.679531192000000006e+00,1.034147155999999956e+00,2.025410361860415787e-01,1.000000000000000048e-04,4.004920201097728949e+01,2.099999999999999922e-01
1.669961188000000041e+00,1.045784459000000055e+00,4.269866273937441559e-01,1.000000000000000048e-04,4.168003030347490068e+01,2.899999999999999800e-01
1.666612017000000057e+00,1.035903760999999923e+00,1.559216156348308679e-01,1.000000000000000048e-04,3.933919514482350621e+01,1.400000000000000133e-01
1.676630470000000095e+00,1.049302589999999924e+00,3.187740920235173636e-01,1.000000000000000048e-04,4.092196720350894878e+01,1.600000000000000033e-01
1.678871634000000057e+00,1.037439988999999896e+00,3.023617672118408262e-01,1.000000000000000048e-04,4.079629931914840313e+01,2.099999999999999922e-01
-2.159653925179585876e+00,7.341517600000000421e-01,2.958481082341752888e-01,1.000000000000000048e-04,4.075000143724550128e+01,2.600000000000000089e-01
-2.155609593179586447e+00,7.327229189999999726e-01,3.701770268464352753e-01,1.000000000000000048e-04,4.154974021682355101e+01,1.400000000000000133e-01
2.989279821999999864e+00,-1.014333855000000062e+00,2.583780244066857801e-01,1.000000000000000048e-04,4.060325059587777474e+01,1.600000000000000033e-01
6.962963009999999509e-01,-9.242906640000000396e-01,6.754729747433025899e-01,1.000000000000000048e-04,4.291631334484003446e+01,2.000000000000000111e-01
6.831622830000000368e-01,-9.295060950000000322e-01,4.676920161901023665e-01,1.000000000000000048e-04,4.214312431685939941e+01,2.099999999999999922e-01
6.813526220000000189e-01,-9.196739680000000083e-01,3.684158372789920755e-01,1.000000000000000048e-04,4.147855975339036405e+01,1.700000000000000122e-01
1.667475545999999920e+00,1.039138789999999979e+00,6.732812287023293152e-01,1.000000000000000048e-04,4.323179536070464479e+01,1.499999999999999944e-01
1.669072946000000002e+00,1.039627206000000026e+00,1.476893747383660749e-01,1.000000000000000048e-04,3.910776772329114692e+01,1.700000000000000122e-01
2.992464221000000091e+00,-1.009427984000000000e+00,6.488953556436194425e-01,1.000000000000000048e-04,4.300880816504437121e+01,1.400000000000000133e-01
3.013377762000000182e+00,-1.015725085999999999e+00,8.005434723941833308e-01,1.000000000000000048e-04,4.338415489032220762e+01,1.499999999999999944e-01
6.857830799999999893e-01,-9.290922369999999875e-01,1.184974849940145791e-01,1.000000000000000048e-04,3.866544552170532256e+01,3.400000000000000244e-01
6.874880420000000214e-01,-9.251381180000000093e-01,4.901032555405431257e-01,1.000000000000000048e-04,4.240639615591801714e+01,1.700000000000000122e-01
1.659686511000000086e+00,1.040101345999999927e+00,2.608535873684041384e-01,1.000000000000000048e-04,4.080247847535018479e+01,1.400000000000000133e-01
1.692629780999999944e+00,1.043637506000000048e+00,6.570117677759339525e-01,1.000000000000000048e-04,4.283583717898364540e+01,1.799999999999999933e-01
1.682450028999999958e+00,1.049226146999999942e+00,1.987240936469663044e-01,1.000000000000000048e-04,3.990902436433304956e+01,1.900000000000000022e-01
1.675255906999999933e+00,1.048468626000000015e+00,5.970651472164671958e-01,1.000000000000000048e-04,4.273686255215704222e+01,1.499999999999999944e-01
1.692145135000000078e+00,1.039981480000000014e+00,4.895099173718457930e-01,1.000000000000000048e-04,4.223182799941107390e+01,1.700000000000000122e-01
-2.139768073179586061e+00,7.360294179999999908e-01,3.454357255723456976e-01,1.000000000000000048e-04,4.162860370004369770e+01,1.600000000000000033e-01
-2.138731675179585956e+00,7.369836659999999817e-01,1.451728502904232609e-01,1.000000000000000048e-04,3.893570165984093023e+01,1.499999999999999944e-01
6.888283630000000546e-01,-9.193630990000000169e-01,7.024372654187538423e-01,1.000000000000000048e-04,4.345273494265981640e+01,1.700000000000000122e-01
6.776433490000000059e-01,-9.225326109999999469e-01,1.249336891657109927e+00,1.000000000000000048e-04,4.453723325438144798e+01,1.600000000000000033e-01
6.820513620000000499e-01,-9.162569579999999547e-01,5.257637522006513020e-01,1.000000000000000048e-04,4.242970001845751682e+01,2.899999999999999800e-01
6.832637360000000104e-01,-9.208365670000000502e-01,1.785330889614960004e-01,1.000000000000000048e-04,3.954576127134490804e+01,1.400000000000000133e-01
1.683256381999999940e+00,1.050427892999999946e+00,4.645002945890257529e-01,1.000000000000000048e-04,4.211415827119392219e+01,1.499999999999999944e-01
2.987248335999999949e+00,-1.011507587000000097e+00,9.011751054025238794e-01,1.000000000000000048e-04,4.395567935702899831e+01,1.900000000000000022e-01
2.994879214000000012e+00,-1.020537374999999969e+00,7.126231243343885691e-01,1.000000000000000048e-04,4.299004878676652197e+01,2.500000000000000000e-01
2.997056848999999801e+00,-1.020797841000000039e+00,7.702770851542448671e-01,1.000000000000000048e-04,4.370780515277566280e+01,1.499999999999999944e-01
6.981827720000000070e-01,-9.201470600000000166e-01,6.456171343255259210e-01,1.000000000000000048e-04,4.284930906662298611e+01,2.099999999999999922e-01
1.675679171999999939e+00,1.042232051000000048e+00,4.068588093219935864e-01,1.000000000000000048e-04,4.153500015633932918e+01,1.900000000000000022e-01
1.682732345000000018e+00,1.051774148000000020e+00,1.455676071716416331e-01,1.000000000000000048e-04,3.919372069977413986e+01,2.099999999999999922e-01
1.655763980999999996e+00,1.041789395999999979e+00,1.227531175169580990e+00,1.000000000000000048e-04,4.473762159731333554e+01,2.099999999999999922e-01
1.658505131999999938e+00,1.042043577999999915e+00,1.825758764426657077e-01,1.000000000000000048e-04,3.975096107772183274e+01,1.499999999999999944e-01
1.679931540999999973e+00,1.044700675999999939e+00,4.636976257482376962e-01,1.000000000000000048e-04,4.182536690004223345e+01,1.400000000000000133e-01
1.681131209999999987e+00,1.046558263000000100e+00,1.636218680350050025e-01,1.000000000000000048e-04,3.960551060952668934e+01,3.800000000000000044e-01
-2.147380102179586636e+00,7.248191320000000326e-01,4.696258270610140784e-01,1.000000000000000048e-04,4.203425848093637995e+01,2.200000000000000011e-01
-2.137481690179586558e+00,7.386978770000000027e-01,4.584109876260966665e-01,1.000000000000000048e-04,4.202182393126400228e+01,1.499999999999999944e-01
3.007533192999999994e+00,-1.006434849999999992e+00,3.106507028808538351e-01,1.000000000000000048e-04,4.114174305813087074e+01,1.700000000000000122e-01
6.766177190000000063e-01,-9.309161569999999664e-01,3.919867800551093406e-01,1.000000000000000048e-04,4.177191027850753358e+01,1.700000000000000122e-01
6.879719020000000240e-01,-9.170357009999999809e-01,2.746658800349475182e-01,1.000000000000000048e-04,4.078284611082744249e+01,2.600000000000000089e-01
6.868192690000000100e-01,-9.190749710000000183e-01,3.404995714279601682e-01,1.000000000000000048e-04,4.116529772712484458e+01,2.800000000000000266e-01
1.680927606000000019e+00,1.043199457999999913e+00,4.175333150494739964e-01,1.000000000000000048e-04,4.167046575337151637e+01,1.799999999999999933e-01
1.680733408999999901e+00,1.046110547000000057e+00,1.181100138677606548e-01,1.000000000000000048e-04,3.892343376460217996e+01,1.499999999999999944e-01
3.003205794999999956e+00,-1.007960921000000010e+00,3.458044561795998728e-01,1.000000000000000048e-04,4.134250675316634727e+01,2.200000000000000011e-01
3.013387552999999830e+00,-1.018013843000000085e+00,3.879034070832856340e-01,1.000000000000000048e-04,4.162373877902060570e+01,2.000000000000000111e-01
2.991633154000000072e+00,-1.018575491000000000e+00,6.731899202565434503e-01,1.000000000000000048e-04,4.312174101409494398e+01,1.600000000000000033e-01
6.810583510000000063e-01,-9.216344210000000370e-01,2.927003900517037849e-01,1.000000000000000048e-04,4.076041648178028964e+01,1.600000000000000033e-01
1.670069762000000013e+00,1.048284639000000018e+00,8.649915514497437119e-01,1.000000000000000048e-04,4.354035963524557218e+01,2.099999999999999922e-01
1.699713636000000028e+00,1.040243690999999915e+00,5.209972453219524624e-01,1.000000000000000048e-04,4.201319466032160932e+01,2.899999999999999800e-01
1.686195045999999920e+00,1.048540513999999924e+00,2.020711315098995264e-01,1.000000000000000048e-04,4.016388248577099773e+01,1.400000000000000133e-01
1.667162669999999958e+00,1.044746053999999980e+00,5.668157232299517734e-01,1.000000000000000048e-04,4.282037464080988798e+01,2.700000000000000178e-01
1.689467040999999892e+00,1.036330184999999959e+00,2.247343085511337435e-01,1.000000000000000048e-04,4.018977077194918479e+01,1.300000000000000044e-01
1.683799076999999977e+00,1.043385784000000038e+00,5.219829596968879049e-01,1.000000000000000048e-04,4.264764908139729727e+01,1.700000000000000122e-01
-2.151455832179586025e+00,7.398983139999999459e-01,2.096537369770439252e-01,1.000000000000000048e-04,4.039824393013768855e+01,2.500000000000000000e-01
-2.141944958179585967e+00,7.302793560000000461e-01,6.453618459005228125e-01,1.000000000000000048e-04,4.254138202154329207e+01,1.400000000000000133e-01
3.012489310999999947e+00,-1.019874449000000016e+00,3.066714148505622628e-01,1.000000000000000048e-04,4.094503369466082887e+01,1.900000000000000022e-01
6.824463880000000149e-01,-9.193269539999999740e-01,3.083360692326984065e-01,1.000000000000000048e-04,4.115020282997790702e+01,1.600000000000000033e-01
6.933168330000000212e-01,-9.307474239999999899e-01,5.886669779522408774e-01,1.000000000000000048e-04,4.287295660457472479e+01,1.600000000000000033e-01
7.005346909999999871e-01,-9.247541049999999929e-01,3.706503705225621115e-01,1.000000000000000048e-04,4.134332635686536150e+01,2.700000000000000178e-01
1.674988617999999985e+00,1.042237757999999959e+00,6.606607494903726785e-01,1.000000000000000048e-04,4.301845331916813109e+01,1.499999999999999944e-01
1.672026148000000045e+00,1.039374368000000048e+00,2.274627512213305280e-01,1.000000000000000048e-04,4.034291180620034112e+01,1.600000000000000033e-01
2.993618983999999816e+00,-1.008517228000000099e+00,2.147361875826814259e-01,1.000000000000000048e-04,4.020091847187883616e+01,1.700000000000000122e-01
2.992837709999999873e+00,-1.014889098000000045e+00,4.085059656309928400e-01,1.000000000000000048e-04,4.224338138032111800e+01,2.800000000000000266e-01
2.980621672999999916e+00,-1.012535224000000067e+00,3.156184218355830851e-01,1.000000000000000048e-04,4.121215162554565126e+01,1.499999999999999944e-01
3.118379398000000080e+00,-1.044341935000000055e+00,3.004061003381699457e-01,1.000000000000000048e-04,4.091814051674402464e+01,3.099999999999999978e-01
3.132904315000000217e+00,-1.046896950999999909e+00,6.029166449207750134e-01,1.000000000000000048e-04,4.260419411067216089e+01,2.200000000000000011e-01
1.248659997999999938e+00,-1.117162079000000086e+00,2.913137243732661918e-01,1.000000000000000048e-04,4.083781598150382308e+01,2.700000000000000178e-01
2.302446713000000145e+00,-1.091359299000000060e+00,6.758515199000034723e-01,1.000000000000000048e-04,4.293853356561925239e+01,2.899999999999999800e-01
3.133486173000000097e+00,-1.061461677999999909e+00,8.953621695379470058e-01,1.000000000000000048e-04,4.354701214322975744e+01,3.099999999999999978e-01
1.251013366000000016e+00,-1.102704651999999896e+00,6.769798815399261649e-01,1.000000000000000048e-04,4.341435710030199147e+01,2.300000000000000100e-01
1.232341668999999973e+00,-1.105349812000000043e+00,1.453075581169154251e-01,1.000000000000000048e-04,3.936677671804104506e+01,2.200000000000000011e-01
2.330538756999999794e+00,-1.086213730999999960e+00,5.928647175904138145e-01,1.000000000000000048e-04,4.287230572071171508e+01,2.300000000000000100e-01
3.104372880000000112e+00,-1.050765708999999992e+00,4.171795630896537599e-01,1.000000000000000048e-04,4.172748927036681721e+01,2.200000000000000011e-01
3.122794933000000217e+00,-1.050942575000000101e+00,5.355121085854894769e-01,1.000000000000000048e-04,4.236029932279017629e+01,2.099999999999999922e-01
3.135928428000000157e+00,-1.044986675000000087e+00,5.549089523863974804e-01,1.000000000000000048e-04,4.295517832739811581e+01,2.300000000000000100e-01
3.135701593999999925e+00,-1.049448040999999998e+00,5.178129371610054044e-01,1.000000000000000048e-04,4.270325161018978832e+01,2.399999999999999911e-01
2.902190216000000156e+00,-1.054666754000000095e+00,2.311688343844624516e-01,1.000000000000000048e-04,4.026092627134104163e+01,2.099999999999999922e-01
1.219278212000000083e+00,-1.102494101000000004e+00,1.206387334415955692e+00,1.000000000000000048e-04,4.456563560612816133e+01,2.399999999999999911e-01
2.314258420999999899e+00,-1.073777474999999981e+00,6.863260894742888585e-01,1.000000000000000048e-04,4.294275295758327360e+01,2.399999999999999911e-01
3.138600745000000192e+00,-1.056209613999999908e+00,4.575964836738686259e-01,1.000000000000000048e-04,4.221906336141147875e+01,2.800000000000000266e-01
2.873014373000000177e+00,-1.047336534999999902e+00,2.900856091086385646e-01,1.000000000000000048e-04,4.070523383130339568e+01,2.000000000000000111e-01
2.890150627000000139e+00,-1.045368942999999939e+00,2.185654917341859349e-01,1.000000000000000048e-04,3.966376544965837070e+01,2.200000000000000011e-01
-3.136513490179586139e+00,-1.038988312000000080e+00,3.484152516535601318e-01,1.000000000000000048e-04,4.123151302792390283e+01,2.800000000000000266e-01
3.120369102000000172e+00,-1.042910143999999928e+00,2.589539919985806016e-01,1.000000000000000048e-04,4.052401678577919597e+01,2.399999999999999911e-01
3.132773262000000170e+00,-1.048570620000000009e+00,7.706929255120877897e-01,1.000000000000000048e-04,4.366799995648343469e+01,2.300000000000000100e-01
3.132934141999999866e+00,-1.046888051000000042e+00,5.577032394627416956e-01,1.000000000000000048e-04,4.254669511957694539e+01,2.200000000000000011e-01
3.134455274000000014e+00,-1.046257098000000108e+00,3.513202179141212689e-01,1.000000000000000048e-04,4.157016724061455903e+01,2.200000000000000011e-01
2.910504301000000016e+00,-1.063930792999999930e+00,4.891623666325353170e-01,1.000000000000000048e-04,4.251604265276485251e+01,2.399999999999999911e-01
2.301930878999999930e+00,-1.084305269999999988e+00,1.581734030067574182e-01,1.000000000000000048e-04,3.926607447031014431e+01,3.099999999999999978e-01
2.314913878000000036e+00,-1.104421796000000011e+00,1.831214104366449824e-01,1.000000000000000048e-04,3.953880496307967007e+01,2.600000000000000089e-01
1.232494258000000009e+00,-1.089556776000000005e+00,6.851976703305497907e-01,1.000000000000000048e-04,4.300665968478301693e+01,3.099999999999999978e-01
-3.138875270179586341e+00,-1.027091259999999950e+00,6.073643882332844246e-01,1.000000000000000048e-04,4.236343725317716036e+01,3.800000000000000044e-01
1.277748142000000087e+00,-1.105660628999999950e+00,4.622078785547929503e-01,1.000000000000000048e-04,4.160422132575219933e+01,2.500000000000000000e-01
2.339694710999999927e+00,-1.083680948999999893e+00,6.773986405607423933e-01,1.000000000000000048e-04,4.304845635988117891e+01,2.300000000000000100e-01
3.085408954000000037e+00,-1.045989441999999991e+00,2.857536089344541175e-01,1.000000000000000048e-04,4.059149148555092523e+01,2.800000000000000266e-01
3.122183823999999941e+00,-1.053540683000000033e+00,2.362813357710400464e-01,1.000000000000000048e-04,4.004687223389125705e+01,3.699999999999999956e-01
1.263417701000000060e+00,-1.099941301000000093e+00,3.374683222907564062e-01,1.000000000000000048e-04,4.081801300214957706e+01,2.200000000000000011e-01
1.238769020999999970e+00,-1.122513239999999968e+00,1.873446147755772895e-01,1.000000000000000048e-04,3.957611322200312287e+01,2.600000000000000089e-01
1.225778744000000087e+00,-1.107856694000000086e+00,6.797003798435858890e-01,1.000000000000000048e-04,4.320891808823545688e+01,2.500000000000000000e-01
2.356185176999999964e+00,-1.090954028000000076e+00,3.075422601613131413e-01,1.000000000000000048e-04,4.113228426365695611e+01,2.700000000000000178e-01
1.231078855000000027e+00,-1.109460918999999990e+00,4.319316491054046026e-01,1.000000000000000048e-04,4.196646934490298975e+01,2.300000000000000100e-01
2.350025410999999842e+00,-1.078254897999999962e+00,6.204231524099825812e-01,1.000000000000000048e-04,4.269751939314731715e+01,2.300000000000000100e-01
2.889344674999999807e+00,-1.054064458000000037e+00,1.149107442013743707e+00,1.000000000000000048e-04,4.435737005688328338e+01,3.200000000000000067e-01
1.260972444000000081e+00,-1.102168519999999985e+00,6.126694844288658182e-01,1.000000000000000048e-04,4.353734476241730533e+01,2.899999999999999800e-01
3.138597202000000141e+00,-1.049455424000000026e+00,2.197759497759672609e-01,1.000000000000000048e-04,4.001990685986044838e+01,2.600000000000000089e-01
1.280173519000000093e+00,-1.106045986000000036e+00,5.334547263568210074e-01,1.000000000000000048e-04,4.226327798294634164e+01,2.899999999999999800e-01
3.140421104000000074e+00,-1.048273016000000002e+00,8.771498670683928189e-01,1.000000000000000048e-04,4.387755548238851588e+01,2.700000000000000178e-01
2.887571490000000018e+00,-1.060290981000000077e+00,8.145389804836240533e-01,1.000000000000000048e-04,4.377020062094977959e+01,2.300000000000000100e-01
3.117377486000000086e+00,-1.048849812999999909e+00,1.367357661043309136e-01,1.000000000000000048e-04,3.871407660188521049e+01,2.800000000000000266e-01
3.139331405000000075e+00,-1.045946368000000071e+00,1.215477074624312870e+00,1.000000000000000048e-04,4.484827686951633297e+01,2.300000000000000100e-01
2.901812189000000153e+00,-1.070407117000000019e+00,4.340198024298262958e-01,1.000000000000000048e-04,4.219263825955873415e+01,2.200000000000000011e-01
2.874698792999999863e+00,-1.069280417999999955e+00,3.315419185929169288e-01,1.000000000000000048e-04,4.141151760286543038e+01,2.200000000000000011e-01
3.126790450000000110e+00,-1.053686536000000062e+00,7.419805435441417796e-01,1.000000000000000048e-04,4.333334360008648645e+01,2.099999999999999922e-01
1.253234667999999941e+00,-1.096167120000000050e+00,2.232507351424615205e-01,1.000000000000000048e-04,4.018994913423086501e+01,2.200000000000000011e-01
1.242189800000000011e+00,-1.095888138000000067e+00,4.292505511378137406e-01,1.000000000000000048e-04,4.137951559151395742e+01,2.899999999999999800e-01
2.358704259000000025e+00,-1.096119858000000002e+00,1.732491479666375955e-01,1.000000000000000048e-04,3.953942014900259494e+01,2.099999999999999922e-01
3.090657074000000115e+00,-1.046905049999999893e+00,8.115212081701095315e-01,1.000000000000000048e-04,4.364971227626804762e+01,2.300000000000000100e-01
2.350320292999999783e+00,-1.077642637000000070e+00,7.336622434025417139e-01,1.000000000000000048e-04,4.307765176605593638e+01,3.300000000000000155e-01
3.120911620999999858e+00,-1.047605429999999949e+00,1.269494755012002596e+00,1.000000000000000048e-04,4.468073257668979181e+01,2.899999999999999800e-01
2.310418793000000193e+00,-1.091478047999999923e+00,3.896102019490326196e-01,1.000000000000000048e-04,4.168553983748734026e+01,3.300000000000000155e-01
2.888242410000000149e+00,-1.055260810999999910e+00,1.360596273906005127e-01,1.000000000000000048e-04,3.869247696945064519e+01,2.999999999999999889e-01
2.313880778000000138e+00,-1.089056457000000089e+00,3.017173491973252908e-01,1.000000000000000048e-04,4.152148684235269371e+01,2.600000000000000089e-01
3.096505394999999883e+00,-1.050897790999999915e+00,5.805874883798207708e-01,1.000000000000000048e-04,4.292367037535318275e+01,3.300000000000000155e-01
1.264206060000000020e+00,-1.108314516000000083e+00,7.892470839412479844e-01,1.000000000000000048e-04,4.341926749838390265e+01,2.500000000000000000e-01
2.317080779999999951e+00,-1.080569537999999996e+00,6.621238516839873522e-01,1.000000000000000048e-04,4.290534139579362005e+01,2.399999999999999911e-01
2.308161032000000112e+00,-1.080284865999999955e+00,1.005321245536513697e+00,1.000000000000000048e-04,4.446359801039184134e+01,3.900000000000000133e-01
1.213089824000000094e+00,-1.095999417000000031e+00,3.403459487948656825e-01,1.000000000000000048e-04,4.069370940772739687e+01,2.700000000000000178e-01
3.095344697999999894e+00,-1.044259242999999948e+00,1.280610478703221311e-01,1.000000000000000048e-04,3.867049248323398558e+01,2.200000000000000011e-01
3.093500166000000107e+00,-1.047656949999999920e+00,5.701040378410502374e-01,1.000000000000000048e-04,4.235693718889537962e+01,2.300000000000000100e-01
2.871266652000000086e+00,-1.064917746999999970e+00,2.761378600797406158e-01,1.000000000000000048e-04,4.060248561663951250e+01,2.500000000000000000e-01
2.872879009000000039e+00,-1.076645507999999918e+00,1.218016574153755194e-01,1.000000000000000048e-04,3.857934143926549808e+01,2.099999999999999922e-01
1.241294699000000001e+00,-1.109043570000000090e+00,2.007348954107339711e-01,1.000000000000000048e-04,4.032621204801731807e+01,2.099999999999999922e-01
1.238788393000000099e+00,-1.083197141000000085e+00,7.114375672490875768e-01,1.000000000000000048e-04,4.287780547329150238e+01,2.999999999999999889e-01
-3.140928712179586135e+00,-1.049943351000000025e+00,3.401132487581992603e-01,1.000000000000000048e-04,4.085526861887717587e+01,2.200000000000000011e-01
2.897074545000000168e+00,-1.050668165000000043e+00,4.155845358443357451e-01,1.000000000000000048e-04,4.154010296213927234e+01,2.099999999999999922e-01
3.133488720999999977e+00,-1.053899826000000095e+00,1.657340027227769408e-01,1.000000000000000048e-04,3.962854009164184532e+01,2.300000000000000100e-01
2.854965548000000020e+00,-1.051119023000000041e+00,1.800313939162565546e-01,1.000000000000000048e-04,3.999688286760093092e+01,3.200000000000000067e-01
2.846666281000000076e+00,-1.061494909000000098e+00,1.570449730337100114e-01,1.000000000000000048e-04,3.934608838830904176e+01,2.600000000000000089e-01
1.477625364000000108e+00,-9.892628350000000070e-01,3.040680125991963578e-01,1.000000000000000048e-04,4.061941891453416531e+01,2.000000000000000111e-01
-2.998301261179586064e+00,-5.567642400000000213e-01,1.273016112573306380e-01,1.000000000000000048e-04,3.879292146047734491e+01,1.799999999999999933e-01
2.915910107000000195e+00,-9.248875840000000403e-01,3.716630562392204684e-01,1.000000000000000048e-04,4.110829481315209932e+01,2.999999999999999889e-01
2.904218159000000021e+00,-9.279150130000000107e-01,3.826491869619592645e-01,1.000000000000000048e-04,4.125305012497616275e+01,2.399999999999999911e-01
2.945746643000000109e+00,-9.241091030000000428e-01,3.205079586678727388e-01,1.000000000000000048e-04,4.072183045307849625e+01,2.300000000000000100e-01
2.195221751000000054e+00,9.567984520000000215e-01,2.126175447716667222e-01,1.000000000000000048e-04,3.986226982773928285e+01,2.200000000000000011e-01
-2.382074272179586227e+00,-9.504311730000000180e-01,1.994158505596463904e-01,1.000000000000000048e-04,3.939971848224708140e+01,2.300000000000000100e-01
2.197803225999999999e+00,9.560313849999999558e-01,1.420713941109268408e-01,1.000000000000000048e-04,3.931119941862407074e+01,2.300000000000000100e-01
-2.380846050179586282e+00,-9.512843520000000552e-01,9.010376853967592137e-01,1.000000000000000048e-04,4.386393624231941146e+01,2.600000000000000089e-01
-2.382960995179586039e+00,-9.501026420000000527e-01,2.140798324648203188e-01,1.000000000000000048e-04,4.046794321849225184e+01,2.099999999999999922e-01
2.192165822000000208e+00,9.554729659999999791e-01,6.386771737329157705e-01,1.000000000000000048e-04,4.278539087201471602e+01,2.899999999999999800e-01
-2.383512939179586176e+00,-9.505219620000000535e-01,6.019478142468761561e-01,1.000000000000000048e-04,4.249481316038265533e+01,2.000000000000000111e-01
2.197044292000000176e+00,9.582492320000000063e-01,2.585239787197535222e-01,1.000000000000000048e-04,4.061843091435150654e+01,2.500000000000000000e-01
2.198013217999999824e+00,9.570721989999999568e-01,8.382272157040135951e-01,1.000000000000000048e-04,4.353582074474685726e+01,2.099999999999999922e-01
2.198391541999999976e+00,9.561199929999999458e-01,1.757978207815413807e-01,1.000000000000000048e-04,3.965965523288061689e+01,2.300000000000000100e-01
2.199218732999999926e+00,9.570277640000000030e-01,3.565474329700859535e-01,1.000000000000000048e-04,4.147121963939460443e+01,2.200000000000000011e-01
2.196667974999999995e+00,9.569524729999999701e-01,3.922179703100800996e-01,1.000000000000000048e-04,4.196590188443334313e+01,2.399999999999999911e-01
2.196400267000000017e+00,9.571105250000000453e-01,4.900942989555259199e-01,1.000000000000000048e-04,4.229853935852533908e+01,2.500000000000000000e-01
2.195980999000000100e+00,9.563170869999999546e-01,6.170974006143590262e-01,1.000000000000000048e-04,4.260470951570160025e+01,2.200000000000000011e-01
2.198886345000000020e+00,9.574225640000000315e-01,2.099370403470808277e-01,1.000000000000000048e-04,4.047873954508042971e+01,3.300000000000000155e-01
-2.382942164179586264e+00,-9.487821469999999646e-01,9.836480118940955641e-01,1.000000000000000048e-04,4.388755522113338969e+01,2.000000000000000111e-01
2.197058621000000045e+00,9.568337070000000333e-01,5.245521555007581771e-01,1.000000000000000048e-04,4.237942836609750685e+01,2.600000000000000089e-01
2.196754174000000059e+00,9.569828230000000380e-01,1.050492461928504095e+00,1.000000000000000048e-04,4.438642898932201319e+01,2.399999999999999911e-01
-2.381905888179586039e+00,-9.494029419999999719e-01,7.081739437554419592e-01,1.000000000000000048e-04,4.342142007553199790e+01,2.399999999999999911e-01
-2.382353656179586388e+00,-9.501919130000000546e-01,7.366308520937130400e-01,1.000000000000000048e-04,4.311438009016629280e+01,2.600000000000000089e-01
-2.385313647179586383e+00,-9.492824659999999914e-01,2.840560579800699426e-01,1.000000000000000048e-04,4.076916503256128976e+01,2.399999999999999911e-01
-2.383308463179586223e+00,-9.502672559999999491e-01,1.603802579855080346e-01,1.000000000000000048e-04,3.942797663915199280e+01,2.000000000000000111e-01
2.194446376000000143e+00,9.548028840000000184e-01,8.498409202212620084e-01,1.000000000000000048e-04,4.385593311910692194e+01,3.699999999999999956e-01
-2.377678389179586294e+00,-9.493284189999999789e-01,2.476795177278907634e-01,1.000000000000000048e-04,4.056815604006133213e+01,3.099999999999999978e-01
2.195048706000000127e+00,9.553664520000000326e-01,1.505938303589688942e-01,1.000000000000000048e-04,3.897917842671220967e+01,2.399999999999999911e-01
2.194988459000000169e+00,9.569281090000000267e-01,2.090645320243595950e-01,1.000000000000000048e-04,4.008913508968183237e+01,2.099999999999999922e-01
2.198773670000000013e+00,9.585742720000000050e-01,3.088362270600315540e-01,1.000000000000000048e-04,4.114775831908772830e+01,2.800000000000000266e-01
2.196007632000000154e+00,9.574002940000000406e-01,3.704598017193454496e-01,1.000000000000000048e-04,4.164512684680892818e+01,2.800000000000000266e-01
2.193610842000000005e+00,9.569156829999999614e-01,1.757927970271615514e-01,1.000000000000000048e-04,3.982060324324908152e+01,2.099999999999999922e-01
2.194846306000000080e+00,9.574700699999999509e-01,1.237188731281892107e+00,1.000000000000000048e-04,4.483781248165957578e+01,2.300000000000000100e-01
-2.901318991795864832e-01,1.086903570000000041e+00,6.586464878807190004e-01,1.000000000000000048e-04,4.306850380575966142e+01,2.000000000000000111e-01
-2.914486071795865385e-01,1.085909494999999891e+00,9.324859287141225028e-01,1.000000000000000048e-04,4.403249179510655154e+01,1.000000000000000056e-01
-2.954610881795858290e-01,1.084462065999999947e+00,3.904593665388285118e-01,1.000000000000000048e-04,4.158179919661191803e+01,1.199999999999999956e-01
-3.403197011795864313e-01,1.090760651000000081e+00,1.247000195903291697e-01,1.000000000000000048e-04,3.894293791290655804e+01,8.999999999999999667e-02
-3.429455761795860980e-01,1.087892671000000089e+00,5.001294035682799510e-01,1.000000000000000048e-04,4.237907245775168974e+01,1.400000000000000133e-01
6.896152909999999636e-01,-9.249195220000000495e-01,4.322780471110063694e-01,1.000000000000000048e-04,4.193213875792152123e+01,2.000000000000000111e-01
1.024453132999999960e+00,1.182715689999999986e+00,1.272856182651225243e-01,1.000000000000000048e-04,3.885446577558416692e+01,1.900000000000000022e-01
1.006083177000000051e+00,1.165244638999999971e+00,5.384713336710054143e-01,1.000000000000000048e-04,4.258861921258026229e+01,1.700000000000000122e-01
9.905969959999999519e-01,1.153001898999999941e+00,8.145553075182441205e-01,1.000000000000000048e-04,4.420355427525812786e+01,3.499999999999999778e-01
2.950804928999999799e+00,-1.010655210999999998e+00,5.018543442578013991e-01,1.000000000000000048e-04,4.220067878138083017e+01,1.700000000000000122e-01
2.951637304000000128e+00,-1.010683065999999908e+00,8.577836049898948101e-01,1.000000000000000048e-04,4.328302389261371985e+01,1.900000000000000022e-01
-2.349248843179586377e+00,-9.322901449999999590e-01,3.863107162056869104e-01,1.000000000000000048e-04,4.156068891613026040e+01,1.900000000000000022e-01
