-1.598279621179586663e+00,2.779993629999999993e-01,4.907466508670930150e-01,1.000000000000000048e-04,4.264705914967184697e+01,1.700000000000000122e-01
-8.306753881795865269e-01,5.048130450000000158e-01,4.958091903325170247e-01,1.000000000000000048e-04,4.244374160226649906e+01,1.600000000000000033e-01
-1.512887194179586281e+00,3.571169940000000209e-01,4.980104182508715560e-01,1.000000000000000048e-04,4.232193900835502376e+01,1.600000000000000033e-01
-2.094054222179586588e+00,-9.657747650000000350e-01,4.992751606166774270e-01,1.000000000000000048e-04,4.219903844505302004e+01,1.600000000000000033e-01
-1.256550916179586252e+00,-1.037146153999999987e+00,5.099387846947165404e-01,1.000000000000000048e-04,4.256493462887480206e+01,1.900000000000000022e-01
-2.638489419179586015e+00,-8.917870300000000361e-01,4.955289174319612577e-01,1.000000000000000048e-04,4.219723140548334328e+01,1.600000000000000033e-01
-1.710562538179586589e+00,-1.402302595000000096e+00,5.005008940914568161e-01,1.000000000000000048e-04,4.248644502788543775e+01,2.000000000000000111e-01
-2.771840681795865180e-01,-1.115655276000000029e+00,5.009309906997920780e-01,1.000000000000000048e-04,4.237156137535109934e+01,1.700000000000000122e-01
-1.608432286179586335e+00,-6.514894359999999773e-01,5.018281950544798420e-01,1.000000000000000048e-04,4.239220799966906839e+01,1.600000000000000033e-01
-1.490451089179586575e+00,-3.201959389999999850e-01,5.031196592423139435e-01,1.000000000000000048e-04,4.217308190407555912e+01,1.700000000000000122e-01
-1.995144670179586299e+00,-1.040863893000000040e+00,5.001422251834291011e-01,1.000000000000000048e-04,4.274273008079820357e+01,1.799999999999999933e-01
3.095686500000000008e-02,-1.139960520999999893e+00,5.048341646379743697e-01,1.000000000000000048e-04,4.230241043487195896e+01,1.700000000000000122e-01
-2.211919791795864398e-01,-6.717550429999999961e-01,5.252896270104565613e-01,1.000000000000000048e-04,4.275773854432853938e+01,2.200000000000000011e-01
-8.294029241795861651e-01,6.699244909999999553e-01,5.037870865557181332e-01,1.000000000000000048e-04,4.252994763249746768e+01,1.799999999999999933e-01
-4.765590681795863759e-01,-7.328014390000000544e-01,5.030231174049921705e-01,1.000000000000000048e-04,4.224681135291597656e+01,1.600000000000000033e-01
-1.123871723179585835e+00,1.275958498999999913e+00,4.992070812253570633e-01,1.000000000000000048e-04,4.233614192759588946e+01,1.900000000000000022e-01
-5.094723721795864080e-01,-7.371415260000000469e-01,4.977682001831387204e-01,1.000000000000000048e-04,4.237180146448293527e+01,1.600000000000000033e-01
6.571342580000000266e-01,4.949370419999999937e-01,5.190697036702747180e-01,1.000000000000000048e-04,4.236742302617316369e+01,1.700000000000000122e-01
-1.010588552179585875e+00,4.063959939999999826e-01,5.068267990025143721e-01,1.000000000000000048e-04,4.247596622349226436e+01,1.400000000000000133e-01
-5.300352171795861267e-01,-4.198024320000000031e-01,5.164666197081735355e-01,1.000000000000000048e-04,4.244231061819189676e+01,1.499999999999999944e-01
-3.959305511795863097e-01,-4.514385590000000170e-01,5.051357147175843387e-01,1.000000000000000048e-04,4.223524979254158040e+01,1.600000000000000033e-01
-1.302326638179586382e+00,4.891699640000000127e-01,5.095912787781091691e-01,1.000000000000000048e-04,4.243184582011845407e+01,8.999999999999999667e-02
-8.169037861795862554e-01,4.857709299999999897e-01,4.927867645158923171e-01,1.000000000000000048e-04,4.227082048305893380e+01,1.000000000000000056e-01
-1.156602994179586119e+00,7.039336720000000103e-01,5.175112290986798591e-01,1.000000000000000048e-04,4.235339901582194955e+01,1.100000000000000006e-01
2.500120207999999788e+00,-3.403989430000000094e-01,5.068981491957647023e-01,1.000000000000000048e-04,4.236648322259917165e+01,1.100000000000000006e-01
2.397122115999999803e+00,-8.283729720000000407e-01,5.227655482103548135e-01,1.000000000000000048e-04,4.246200754431372815e+01,1.700000000000000122e-01
-4.391142381795862804e-01,9.199097720000000145e-01,5.159404357592878299e-01,1.000000000000000048e-04,4.267964863016422328e+01,2.200000000000000011e-01
-1.356814123179586495e+00,1.335301293999999972e+00,5.098399582319002032e-01,1.000000000000000048e-04,4.255204738826053301e+01,2.600000000000000089e-01
2.612804049999999823e+00,3.003891830000000041e-01,5.179905445344894499e-01,1.000000000000000048e-04,4.236280643557590508e+01,1.700000000000000122e-01
-1.192441121179586005e+00,1.100105410000000061e+00,5.062069365572920976e-01,1.000000000000000048e-04,4.230483255049760061e+01,1.799999999999999933e-01
-3.012917491179586182e+00,1.485957493999999990e+00,5.181203661029452068e-01,1.000000000000000048e-04,4.210576937462290203e+01,2.200000000000000011e-01
-7.329138461795858817e-01,1.044356909000000000e+00,4.974350277094337081e-01,1.000000000000000048e-04,4.225776795459295698e+01,1.700000000000000122e-01
1.024371087000000013e+00,-9.607604419999999923e-01,5.092482483724636300e-01,1.000000000000000048e-04,4.219892440608408180e+01,1.600000000000000033e-01
2.960998206000000188e+00,-8.548671270000000044e-01,5.202397217334240320e-01,1.000000000000000048e-04,4.240238633782557542e+01,1.900000000000000022e-01
-3.017579355179586198e+00,-3.780387199999999948e-01,5.076467989481820986e-01,1.000000000000000048e-04,4.284730917536254680e+01,2.399999999999999911e-01
-2.268575282179586594e+00,6.921453520000000470e-01,5.139686201550717204e-01,1.000000000000000048e-04,4.194278020430760279e+01,3.699999999999999956e-01
2.478186394000000181e+00,5.281495040000000474e-01,4.932553113994977423e-01,1.000000000000000048e-04,4.245127333060693076e+01,2.399999999999999911e-01
7.532392530000000530e-01,9.936355940000000109e-01,5.136510309279020969e-01,1.000000000000000048e-04,4.257285061298971840e+01,1.600000000000000033e-01
1.941716173999999961e+00,9.578325640000000529e-01,5.017449724060338845e-01,1.000000000000000048e-04,4.106160255503888123e+01,3.800000000000000044e-01
2.041827891000000061e+00,-8.953703119999999460e-01,5.125413883327922804e-01,1.000000000000000048e-04,4.222972833141549387e+01,1.700000000000000122e-01
2.521229080999999983e+00,-8.544186950000000058e-01,5.202114384367089173e-01,1.000000000000000048e-04,4.223854755942104333e+01,2.000000000000000111e-01
2.745955969000000163e+00,3.136627880000000257e-01,5.184889358597362108e-01,1.000000000000000048e-04,4.264378802497969900e+01,2.099999999999999922e-01
1.738295793999999894e+00,1.134430556000000090e+00,5.068588206766044824e-01,1.000000000000000048e-04,4.232990820428555878e+01,1.799999999999999933e-01
-8.687814521795864664e-01,6.221710379999999541e-01,5.099612306774430337e-01,1.000000000000000048e-04,4.217522782183372954e+01,3.499999999999999778e-01
-1.857013858179586308e+00,3.937075449999999921e-01,4.886307536640621674e-01,1.000000000000000048e-04,4.189758644196025728e+01,2.999999999999999889e-01
-2.894431473179586156e+00,2.701405689999999971e-01,4.906660421484794199e-01,1.000000000000000048e-04,4.266348626483790696e+01,2.300000000000000100e-01
2.213600608000000136e+00,-5.295933369999999973e-01,5.094342003636636029e-01,1.000000000000000048e-04,4.264537859865363600e+01,2.500000000000000000e-01
9.327636729999999599e-01,4.069681829999999834e-01,5.037458580526450458e-01,1.000000000000000048e-04,4.209708738728521382e+01,2.300000000000000100e-01
1.743234563999999986e+00,7.359057650000000450e-01,5.051596074465170005e-01,1.000000000000000048e-04,4.235119780430623138e+01,2.200000000000000011e-01
-2.812965047179586175e+00,5.929882829999999494e-01,5.095292427075110986e-01,1.000000000000000048e-04,4.189235415227957304e+01,2.399999999999999911e-01
-2.977583888179586413e+00,-1.437144969999999966e-01,5.005888446008288639e-01,1.000000000000000048e-04,4.252589720728998657e+01,2.700000000000000178e-01
2.276564226000000080e+00,-5.051809499999999620e-01,5.145338343549390459e-01,1.000000000000000048e-04,4.166216340671127227e+01,2.800000000000000266e-01
2.667465888000000174e+00,-6.260506340000000502e-01,5.100675493305122377e-01,1.000000000000000048e-04,4.235815253595361440e+01,2.600000000000000089e-01
1.041358068000000081e+00,8.506585119999999778e-01,5.208569499632882405e-01,1.000000000000000048e-04,4.241274996506277262e+01,2.300000000000000100e-01
2.499030525999999863e+00,-9.629979760000000333e-01,5.238231190420932215e-01,1.000000000000000048e-04,4.238495428735163273e+01,3.099999999999999978e-01
1.334501084000000004e+00,-7.340646360000000481e-01,5.220188051777756577e-01,1.000000000000000048e-04,4.263402151136133256e+01,2.300000000000000100e-01
2.196979751999999841e+00,-5.334639439999999677e-01,5.108345928043753759e-01,1.000000000000000048e-04,4.227309168285632524e+01,2.500000000000000000e-01
1.355624495999999901e+00,4.654212710000000253e-01,5.109992399303866506e-01,1.000000000000000048e-04,4.207327460320897927e+01,2.200000000000000011e-01
1.445572062999999963e+00,-8.838676049999999451e-01,5.234648732267697113e-01,1.000000000000000048e-04,4.220727747536264474e+01,3.499999999999999778e-01
7.246286520000000397e-01,-7.843460709999999780e-01,5.095773335922622049e-01,1.000000000000000048e-04,4.211653369324542950e+01,3.099999999999999978e-01
2.179180484000000195e+00,1.312341798999999920e+00,5.171566481791856074e-01,1.000000000000000048e-04,4.225049055691786037e+01,2.200000000000000011e-01
7.669035910000000511e-01,2.329377750000000136e-01,5.262355505583853343e-01,1.000000000000000048e-04,4.250608608275658185e+01,2.500000000000000000e-01
2.984436029999999906e+00,4.410184999999999800e-01,4.998151828395249741e-01,1.000000000000000048e-04,4.217285343341671222e+01,2.999999999999999889e-01
1.808380389999999949e+00,-5.931087419999999666e-01,5.173243651631274087e-01,1.000000000000000048e-04,4.262393206563447734e+01,2.200000000000000011e-01
2.378694356000000010e+00,6.891218140000000547e-01,5.104577686490561206e-01,1.000000000000000048e-04,4.262038771147467742e+01,3.099999999999999978e-01
-1.027171309179585990e+00,8.938185499999999895e-01,5.104029891882539971e-01,1.000000000000000048e-04,4.220174404808872737e+01,3.099999999999999978e-01
2.177629786999999872e+00,1.088514723000000073e+00,5.059031644138527462e-01,1.000000000000000048e-04,4.252910673539875575e+01,2.500000000000000000e-01
2.446904437000000154e+00,4.505237189999999892e-01,5.024235676466914935e-01,1.000000000000000048e-04,4.199892404048278394e+01,2.700000000000000178e-01
-2.745075452179586151e+00,5.290477460000000409e-01,5.103719645828483920e-01,1.000000000000000048e-04,4.209493830077025933e+01,1.600000000000000033e-01
3.470126559999999749e-01,6.971221490000000243e-01,5.029391949878381229e-01,1.000000000000000048e-04,4.231846452350657017e+01,2.399999999999999911e-01
-2.027672372179586624e+00,-3.494576850000000179e-01,4.930965882998485927e-01,1.000000000000000048e-04,4.227524087869897329e+01,8.999999999999999667e-02
-2.243457714179585949e+00,5.735296930000000071e-01,5.044246054412855340e-01,1.000000000000000048e-04,4.227329318735623787e+01,8.000000000000000167e-02
-1.741234469179586242e+00,8.281857209999999858e-01,4.893236236032654229e-01,1.000000000000000048e-04,4.211138833526760550e+01,1.000000000000000056e-01
-1.661352162179586145e+00,7.473004210000000480e-01,4.971839140811091795e-01,1.000000000000000048e-04,4.234433588265311954e+01,1.100000000000000006e-01
-1.046494641179585905e+00,9.839422859999999993e-01,5.041254955050538111e-01,1.000000000000000048e-04,4.214111956883859023e+01,1.600000000000000033e-01
-1.357076630179586019e+00,8.591991679999999576e-01,5.148160435937849666e-01,1.000000000000000048e-04,4.228804643243238104e+01,1.300000000000000044e-01
-1.489161381179585852e+00,8.733460579999999807e-01,5.084211496551569454e-01,1.000000000000000048e-04,4.242268017958791404e+01,8.999999999999999667e-02
2.602874990000000111e+00,9.865781270000000269e-01,5.175016869765665106e-01,1.000000000000000048e-04,4.207186114178553282e+01,2.099999999999999922e-01
6.278667869999999818e-01,1.201237362999999947e+00,5.019391949297435929e-01,1.000000000000000048e-04,4.245833496676824126e+01,1.799999999999999933e-01
1.901542252999999905e+00,5.984822429999999693e-01,5.042443192189094425e-01,1.000000000000000048e-04,4.243688046552099280e+01,1.700000000000000122e-01
9.102462569999999475e-01,3.833152009999999943e-01,5.026228151073273143e-01,1.000000000000000048e-04,4.206381799753992823e+01,2.200000000000000011e-01
4.621894529999999723e-01,4.355896570000000190e-01,5.130323613563909646e-01,1.000000000000000048e-04,4.221535957092832803e+01,2.399999999999999911e-01
1.731299603999999936e+00,-9.087058740000000245e-01,5.159893056235538289e-01,1.000000000000000048e-04,4.257872400546568770e+01,2.200000000000000011e-01
2.307708166999999921e+00,-3.555306579999999994e-01,5.046032218992468898e-01,1.000000000000000048e-04,4.235835570034830511e+01,1.700000000000000122e-01
2.284880370000000216e+00,-4.942566800000000038e-01,5.050627396299853800e-01,1.000000000000000048e-04,4.192694884608345518e+01,2.200000000000000011e-01
-2.729734007179586364e+00,-4.808223520000000084e-01,4.951941698062323205e-01,1.000000000000000048e-04,4.207422286586869831e+01,2.300000000000000100e-01
-2.728058296179586062e+00,8.181749999999999856e-01,5.058138804599834337e-01,1.000000000000000048e-04,4.235974506477020185e+01,2.200000000000000011e-01
1.539636916000000078e+00,-6.652033799999999830e-02,5.096123574345978735e-01,1.000000000000000048e-04,4.225178900575175334e+01,2.999999999999999889e-01
2.937620158000000092e+00,7.383732379999999873e-01,4.923388470422169760e-01,1.000000000000000048e-04,4.233936274778564268e+01,2.200000000000000011e-01
2.624384770999999894e+00,8.339422930000000012e-01,5.072649245613483071e-01,1.000000000000000048e-04,4.259895658446195910e+01,1.799999999999999933e-01
-2.594453966179586235e+00,1.052220571999999965e+00,5.022754810967704486e-01,1.000000000000000048e-04,4.200475531483572667e+01,1.900000000000000022e-01
-2.462277587179586114e+00,1.356652656000000068e+00,5.017412019405587120e-01,1.000000000000000048e-04,4.250921733179052353e+01,2.099999999999999922e-01
2.730654787000000194e+00,8.741146779999999783e-01,5.001366153765698375e-01,1.000000000000000048e-04,4.222610494312334595e+01,1.900000000000000022e-01
1.629450376000000089e+00,2.068732899999999875e-01,5.057519044562428512e-01,1.000000000000000048e-04,4.175480590546639803e+01,2.899999999999999800e-01
1.142160569999999958e-01,6.858846720000000285e-01,5.003120493501982402e-01,1.000000000000000048e-04,4.215040946713194359e+01,1.799999999999999933e-01
-4.383495451795864639e-01,9.198101690000000108e-01,5.080460074997332764e-01,1.000000000000000048e-04,4.271945528705768425e+01,2.600000000000000089e-01
1.001193188000000012e+00,8.013430529999999719e-01,5.044461394522419262e-01,1.000000000000000048e-04,4.200454053140762056e+01,1.799999999999999933e-01
-8.746654461795859703e-01,7.515327899999999506e-01,4.925506496496223630e-01,1.000000000000000048e-04,4.267877171487912591e+01,2.600000000000000089e-01
1.319662558000000097e+00,1.070340469999999933e-01,5.193870227579080456e-01,1.000000000000000048e-04,4.220851028978079000e+01,2.399999999999999911e-01
1.726021762000000015e+00,-6.377623550000000030e-01,5.042708154482484773e-01,1.000000000000000048e-04,4.212094995751674986e+01,2.600000000000000089e-01
-2.754219137179586330e+00,-9.277945709999999568e-01,5.081266432861428761e-01,1.000000000000000048e-04,4.255721966718668625e+01,3.699999999999999956e-01
1.691977534999999921e+00,1.434503057999999998e+00,5.102622707965442928e-01,1.000000000000000048e-04,4.238706915665525798e+01,2.099999999999999922e-01
8.272144390000000236e-01,-4.428667319999999852e-01,5.172592398839290784e-01,1.000000000000000048e-04,4.265622449972946129e+01,2.300000000000000100e-01
-2.185785446179585811e+00,4.040310730000000183e-01,4.876380109904381310e-01,1.000000000000000048e-04,4.212347570105430350e+01,1.799999999999999933e-01
2.680919170000000129e+00,5.929394510000000063e-01,5.144570888501931449e-01,1.000000000000000048e-04,4.228757843974495501e+01,1.799999999999999933e-01
2.468528393999999793e+00,-3.885411739999999892e-01,5.064321601613168689e-01,1.000000000000000048e-04,4.243498694635236035e+01,1.700000000000000122e-01
1.824819092000000031e+00,-9.187566499999999525e-01,5.111265624480709757e-01,1.000000000000000048e-04,4.255221293732235210e+01,2.099999999999999922e-01
2.252174823999999909e+00,-3.842870769999999769e-01,5.123444049417384960e-01,1.000000000000000048e-04,4.239879595711526861e+01,2.000000000000000111e-01
2.889947965000000174e+00,3.184077100000000105e-01,5.138959677647021440e-01,1.000000000000000048e-04,4.219876084823215479e+01,2.000000000000000111e-01
-2.666621499179586241e+00,1.790417820000000104e-01,5.069643243792263387e-01,1.000000000000000048e-04,4.212274782501482662e+01,1.900000000000000022e-01
2.353249148999999818e+00,9.653535600000000549e-01,5.120045296907658194e-01,1.000000000000000048e-04,4.203894228682849388e+01,1.799999999999999933e-01
1.765869402999999949e+00,9.288119630000000182e-01,4.973377443067097392e-01,1.000000000000000048e-04,4.223963318742949724e+01,3.599999999999999867e-01
2.011122450999999867e+00,-1.257182417000000108e+00,5.114498848794062358e-01,1.000000000000000048e-04,4.220890244885087128e+01,1.799999999999999933e-01
1.931340567999999980e+00,-5.991437729999999906e-01,5.042780758487823700e-01,1.000000000000000048e-04,4.196387766454014923e+01,2.000000000000000111e-01
2.835991935000000019e+00,-7.109363199999999550e-01,5.148923144213866099e-01,1.000000000000000048e-04,4.218842605720817573e+01,1.900000000000000022e-01
-2.852520529179586095e+00,8.667541789999999580e-01,5.095597937177969161e-01,1.000000000000000048e-04,4.222913308221261985e+01,1.799999999999999933e-01
-2.458251249179586040e+00,-2.796002539999999925e-01,5.079368233843615243e-01,1.000000000000000048e-04,4.230387498386984646e+01,3.300000000000000155e-01
1.596378985000000084e+00,5.944120290000000084e-01,5.149474975680847777e-01,1.000000000000000048e-04,4.262591957714617763e+01,1.900000000000000022e-01
-2.484014184179586415e+00,8.016642189999999557e-01,5.001434460419984518e-01,1.000000000000000048e-04,4.214355588679507036e+01,1.900000000000000022e-01
-2.431723812179586108e+00,1.223750555999999934e+00,5.060956789743122908e-01,1.000000000000000048e-04,4.230290200969034231e+01,1.700000000000000122e-01
-2.378598255179586118e+00,1.197731727999999940e+00,5.122463908666465837e-01,1.000000000000000048e-04,4.246696944093420711e+01,1.900000000000000022e-01
1.739429998000000088e+00,2.494783479999999887e-01,5.025960436927656705e-01,1.000000000000000048e-04,4.187716680192525587e+01,3.099999999999999978e-01
-2.377494960179586059e+00,9.562939099999999693e-01,5.107704155366576959e-01,1.000000000000000048e-04,4.257684321608402911e+01,1.799999999999999933e-01
-9.021677017958662503e-02,6.959221140000000361e-01,5.142679091460213847e-01,1.000000000000000048e-04,4.224459267831448983e+01,3.499999999999999778e-01
2.021336933000000169e+00,8.510789659999999923e-01,5.127124452144216082e-01,1.000000000000000048e-04,4.225452350926145328e+01,2.800000000000000266e-01
2.573899695999999793e+00,-5.247218830000000001e-01,4.964206728030411409e-01,1.000000000000000048e-04,4.218412723046468216e+01,1.700000000000000122e-01
2.346925623000000183e+00,-7.496726200000000118e-01,5.071034855545617503e-01,1.000000000000000048e-04,4.223677999400033656e+01,1.700000000000000122e-01
2.487812089999999809e+00,-1.095252646999999913e+00,5.218066438647437355e-01,1.000000000000000048e-04,4.275206084155750830e+01,1.600000000000000033e-01
2.543651012999999850e+00,-2.555195920000000176e-01,5.202156045395225359e-01,1.000000000000000048e-04,4.196104209797142914e+01,1.900000000000000022e-01
2.457771880000000131e+00,-4.383329890000000062e-01,5.009895293466835042e-01,1.000000000000000048e-04,4.244156879196258814e+01,1.700000000000000122e-01
-2.749033603179586116e+00,5.277091179999999770e-01,4.924965342214981945e-01,1.000000000000000048e-04,4.209351771206548420e+01,1.799999999999999933e-01
-3.021446786179586397e+00,6.716344440000000526e-01,5.104103745264942926e-01,1.000000000000000048e-04,4.250269706982522422e+01,1.799999999999999933e-01
2.390319493999999878e+00,1.427533710000000067e+00,4.946454274331570922e-01,1.000000000000000048e-04,4.239160271848940198e+01,1.799999999999999933e-01
-2.060955814179585843e+00,9.020563839999999889e-01,4.964913402692203714e-01,1.000000000000000048e-04,4.214544160949834151e+01,1.799999999999999933e-01
-1.552222439179586466e+00,1.270289940999999923e+00,5.088282720057313302e-01,1.000000000000000048e-04,4.234014402921026488e+01,1.600000000000000033e-01
2.491619029000000207e+00,8.136863199999999630e-01,5.111992509835256993e-01,1.000000000000000048e-04,4.237763123923780739e+01,1.900000000000000022e-01
2.336721559999999975e+00,1.049041915000000103e+00,5.186208307441411147e-01,1.000000000000000048e-04,4.246515850825291949e+01,1.700000000000000122e-01
1.201678150000000000e+00,3.331923239999999842e-01,5.162987524101976256e-01,1.000000000000000048e-04,4.249456379336560730e+01,1.900000000000000022e-01
-3.811893421795859993e-01,1.284308205000000092e+00,5.049544116194524257e-01,1.000000000000000048e-04,4.196531060105014177e+01,2.000000000000000111e-01
5.879284790000000038e-01,8.245620540000000442e-01,5.155548043304396533e-01,1.000000000000000048e-04,4.240169052673811478e+01,1.700000000000000122e-01
-3.584264691795864266e-01,1.112498557000000110e+00,5.140731136900154041e-01,1.000000000000000048e-04,4.277863430880713480e+01,2.000000000000000111e-01
-1.085925731795862603e-01,9.806715139999999664e-01,5.058648049758498466e-01,1.000000000000000048e-04,4.257960776354104837e+01,1.799999999999999933e-01
1.189812670000000017e+00,8.219376269999999485e-01,4.969858129150412918e-01,1.000000000000000048e-04,4.213021506960981810e+01,1.700000000000000122e-01
2.896526737999999934e+00,1.048685354999999930e+00,4.951316231517213229e-01,1.000000000000000048e-04,4.215925917847447835e+01,1.700000000000000122e-01
1.187793541000000008e+00,1.533334508000000040e+00,5.103298561804991973e-01,1.000000000000000048e-04,4.238646682803969412e+01,1.700000000000000122e-01
8.784667550000000436e-01,-5.840451829999999678e-01,5.286626479321943073e-01,1.000000000000000048e-04,4.240390016273222074e+01,2.099999999999999922e-01
-2.025603206179586557e+00,1.419180792999999996e+00,5.049255875175282515e-01,1.000000000000000048e-04,4.220960413529583377e+01,1.799999999999999933e-01
1.097118803000000087e+00,1.428367445999999985e+00,5.080295615670218368e-01,1.000000000000000048e-04,4.231345878897450064e+01,1.799999999999999933e-01
-1.923054671795858539e-01,8.268694330000000425e-01,5.206316984396026637e-01,1.000000000000000048e-04,4.215005367326650543e+01,2.000000000000000111e-01
1.974446608000000047e+00,-1.250497374000000050e+00,5.126342137037349644e-01,1.000000000000000048e-04,4.243161335248322530e+01,2.000000000000000111e-01
1.714471547999999901e+00,-4.841846819999999774e-01,5.109470901114931962e-01,1.000000000000000048e-04,4.229986701333814381e+01,1.700000000000000122e-01
1.635209042000000057e+00,-1.499680316999999929e+00,5.249392897933764512e-01,1.000000000000000048e-04,4.222857893534369111e+01,1.900000000000000022e-01
-3.085878636179586021e+00,-8.156760069999999807e-01,5.190764126795721634e-01,1.000000000000000048e-04,4.260752850166381478e+01,1.799999999999999933e-01
1.583648911999999909e+00,-4.051170720000000225e-01,5.235105158703030614e-01,1.000000000000000048e-04,4.233448353396913433e+01,1.700000000000000122e-01
3.116144028999999982e+00,-6.233618589999999626e-01,5.175371159170800706e-01,1.000000000000000048e-04,4.231940831276717319e+01,2.000000000000000111e-01
2.580853791000000008e+00,2.126606490000000071e-01,5.023192487267593709e-01,1.000000000000000048e-04,4.240177505561020865e+01,2.200000000000000011e-01
2.791070910999999821e+00,-3.375241600000000036e-02,5.103586792348071555e-01,1.000000000000000048e-04,4.241720836771300895e+01,2.999999999999999889e-01
2.126664376999999995e+00,-4.630033630000000011e-01,5.163352321463887673e-01,1.000000000000000048e-04,4.226191240368899571e+01,1.799999999999999933e-01
1.264160699999999915e+00,6.289837299999999631e-01,5.111896975620731087e-01,1.000000000000000048e-04,4.240591397155510123e+01,1.900000000000000022e-01
2.608192676999999904e+00,3.485897410000000085e-01,4.949466106423090483e-01,1.000000000000000048e-04,4.197488520003764023e+01,2.200000000000000011e-01
9.029304540000000490e-01,-5.888661819999999603e-01,5.080285365152377164e-01,1.000000000000000048e-04,4.263219034081575387e+01,1.700000000000000122e-01
2.675488564000000125e+00,-1.029758079000000048e+00,5.191287334875185344e-01,1.000000000000000048e-04,4.220398820539471529e+01,1.700000000000000122e-01
9.979371630000000160e-01,-7.076351440000000492e-01,5.101842526403399525e-01,1.000000000000000048e-04,4.256742267645518751e+01,2.000000000000000111e-01
2.816578843999999915e+00,-6.539336449999999523e-01,4.967222356627853941e-01,1.000000000000000048e-04,4.246837002953309081e+01,1.799999999999999933e-01
-2.809922836179586270e+00,-1.219770695000000016e+00,5.187766492185983402e-01,1.000000000000000048e-04,4.254263473895240111e+01,1.900000000000000022e-01
2.816545334000000178e+00,5.529564630000000092e-01,4.967544185685095481e-01,1.000000000000000048e-04,4.242565616412658613e+01,1.700000000000000122e-01
2.293480610000000031e+00,1.430186356999999964e+00,5.182065982847268160e-01,1.000000000000000048e-04,4.225711601585947363e+01,1.700000000000000122e-01
1.900048696999999898e+00,-6.695785770000000081e-01,5.057989868335903694e-01,1.000000000000000048e-04,4.234120666085641460e+01,1.900000000000000022e-01
2.402973735999999860e+00,-4.293495210000000117e-01,5.038906324033891604e-01,1.000000000000000048e-04,4.253302818015545483e+01,2.200000000000000011e-01
3.123677135999999965e+00,5.597831170000000522e-01,5.148053412382060934e-01,1.000000000000000048e-04,4.221213096147765498e+01,1.700000000000000122e-01
1.945616433999999950e+00,5.533621010000000506e-01,5.066934230507960102e-01,1.000000000000000048e-04,4.209978749447564184e+01,1.700000000000000122e-01
-2.603733431795864917e-01,9.574212720000000454e-01,5.133350153743803101e-01,1.000000000000000048e-04,4.320562833474585318e+01,3.800000000000000044e-01
-1.216980031795857897e-01,3.678993019999999836e-01,5.039184412553108228e-01,1.000000000000000048e-04,4.242303033712894234e+01,1.900000000000000022e-01
2.921580513999999962e+00,4.108407450000000072e-01,4.943147409173951345e-01,1.000000000000000048e-04,4.243398774637380910e+01,1.900000000000000022e-01
-2.362072097179586105e+00,1.187667234999999932e+00,4.967186698447889626e-01,1.000000000000000048e-04,4.247466880974004511e+01,1.900000000000000022e-01
-2.337569846179586186e+00,3.756736769999999837e-01,4.879598505260518415e-01,1.000000000000000048e-04,4.236564830363559508e+01,1.700000000000000122e-01
-1.563533060179586265e+00,8.298117619999999528e-01,5.103978013538492675e-01,1.000000000000000048e-04,4.173198383192477934e+01,3.300000000000000155e-01
-7.514201781795861734e-01,8.148208550000000105e-01,5.194762469393099380e-01,1.000000000000000048e-04,4.268174511528980730e+01,2.099999999999999922e-01
-2.172991007179586376e+00,1.278564443000000050e+00,4.968178428642842093e-01,1.000000000000000048e-04,4.228572108327412593e+01,2.000000000000000111e-01
1.004972830999999900e+00,3.284388160000000223e-01,5.013415030743915146e-01,1.000000000000000048e-04,4.216788206647937187e+01,1.799999999999999933e-01
-1.050913719179586536e+00,7.925907810000000220e-01,4.935184507320524716e-01,1.000000000000000048e-04,4.192136901932846627e+01,2.899999999999999800e-01
1.174967896000000067e+00,-7.032179160000000540e-01,5.053270793327049315e-01,1.000000000000000048e-04,4.222385655406125693e+01,1.799999999999999933e-01
2.063754460999999818e+00,1.158898511999999936e+00,5.187706494019947989e-01,1.000000000000000048e-04,4.247974389398294903e+01,1.799999999999999933e-01
1.355273345999999934e+00,1.034050206000000083e+00,5.039104606929325492e-01,1.000000000000000048e-04,4.222812871404483559e+01,1.700000000000000122e-01
1.878516419999999965e+00,-5.891517790000000421e-01,5.031192347074735505e-01,1.000000000000000048e-04,4.222711982048203083e+01,1.799999999999999933e-01
3.042909537999999969e+00,4.914006550000000195e-01,4.916200426400816337e-01,1.000000000000000048e-04,4.232280767941819022e+01,1.700000000000000122e-01
-2.192876876179585821e+00,7.571444160000000423e-01,4.994736870504643544e-01,1.000000000000000048e-04,4.249639355516794836e+01,2.099999999999999922e-01
-1.274335216179586006e+00,7.393028099999999769e-01,4.984703002521386761e-01,1.000000000000000048e-04,4.138868409420135208e+01,3.599999999999999867e-01
3.513372269999999742e-01,1.023017258000000096e+00,5.075129367042885420e-01,1.000000000000000048e-04,4.228016539153445308e+01,1.799999999999999933e-01
-2.045215730179585911e+00,1.346705497999999945e+00,4.902397847535664432e-01,1.000000000000000048e-04,4.247488865966123939e+01,1.799999999999999933e-01
2.622131355000000053e+00,-2.378520580000000051e-01,5.075355771225151802e-01,1.000000000000000048e-04,4.234979572609591258e+01,2.099999999999999922e-01
1.499565373000000035e+00,-5.833961840000000398e-01,5.049653048180871018e-01,1.000000000000000048e-04,4.243232297427866939e+01,1.199999999999999956e-01
9.453780529999999960e-01,-3.014802610000000271e-01,5.148415427030146319e-01,1.000000000000000048e-04,4.261873486322968319e+01,1.799999999999999933e-01
1.003030738000000088e+00,-6.679498139999999751e-01,5.124819217776919178e-01,1.000000000000000048e-04,4.215611751038042598e+01,1.799999999999999933e-01
-2.858957567179586157e+00,-2.878047879999999781e-01,4.940918960837781260e-01,1.000000000000000048e-04,4.225686422865839376e+01,1.300000000000000044e-01
-2.653655062179586022e+00,5.464710109999999510e-01,5.091772871852542348e-01,1.000000000000000048e-04,4.237145896299004733e+01,1.300000000000000044e-01
-1.077960778179586576e+00,1.305029642999999906e+00,5.129089652649601039e-01,1.000000000000000048e-04,4.229969991689922892e+01,1.100000000000000006e-01
2.996279555000000094e+00,-9.792432829999999644e-01,5.123119744630713068e-01,1.000000000000000048e-04,4.227121853664525020e+01,1.600000000000000033e-01
1.369802210000000131e-01,9.686457469999999459e-01,5.050308371358733783e-01,1.000000000000000048e-04,4.240214092589854289e+01,1.000000000000000056e-01
-7.405109531795863731e-01,5.344760480000000369e-01,5.094991306564125022e-01,1.000000000000000048e-04,4.259852806736951436e+01,1.900000000000000022e-01
-1.986221938179586033e+00,3.858849830000000147e-01,4.962202986418267070e-01,1.000000000000000048e-04,4.193941282899682932e+01,2.600000000000000089e-01
-1.660796187179585992e+00,1.337702168000000080e+00,4.967020695099215732e-01,1.000000000000000048e-04,4.211614148592291684e+01,1.300000000000000044e-01
-1.008319883179586540e+00,9.035811799999999838e-01,5.039427537133431834e-01,1.000000000000000048e-04,4.230219619577501078e+01,1.799999999999999933e-01
-2.859227719179586291e+00,-3.383984709999999785e-01,5.023878839524194007e-01,1.000000000000000048e-04,4.213818450965924001e+01,1.799999999999999933e-01
-3.008470453179586279e+00,-9.028608339999999455e-01,4.963067018312363743e-01,1.000000000000000048e-04,4.245279626428376218e+01,1.300000000000000044e-01
2.720373041999999852e+00,-1.026937239000000002e+00,5.076494405945362054e-01,1.000000000000000048e-04,4.233974769768596502e+01,1.100000000000000006e-01
1.131806215999999976e+00,-1.312634394000000038e+00,5.055550000089867879e-01,1.000000000000000048e-04,4.231453821806178439e+01,1.199999999999999956e-01
2.377785852000000144e+00,-1.071983155000000076e+00,5.127711183330998512e-01,1.000000000000000048e-04,4.242224627223157540e+01,1.000000000000000056e-01
1.262497049000000038e+00,-7.576738640000000302e-01,5.201992293473804985e-01,1.000000000000000048e-04,4.220623709681115088e+01,1.900000000000000022e-01
-2.150308364179585929e+00,9.473204419999999848e-01,4.998810177860331105e-01,1.000000000000000048e-04,4.237399927952676393e+01,1.499999999999999944e-01
-2.672281993179586035e+00,8.065802300000000091e-01,4.956924870227723545e-01,1.000000000000000048e-04,4.227298288768012213e+01,1.400000000000000133e-01
-2.768228307179586345e+00,1.501965110000000048e-01,5.042504890852574917e-01,1.000000000000000048e-04,4.229560879916163429e+01,1.300000000000000044e-01
2.456608391000000058e+00,-6.815239560000000418e-01,5.050443178542360911e-01,1.000000000000000048e-04,4.173977861617640883e+01,2.899999999999999800e-01
-1.538735822179586599e+00,7.895792169999999999e-01,4.928951186507628535e-01,1.000000000000000048e-04,4.244860967910069860e+01,1.600000000000000033e-01
-6.811844061795859773e-01,-7.989239399999999991e-01,5.200198613463429265e-01,1.000000000000000048e-04,4.237008093157771071e+01,2.300000000000000100e-01
-9.881069141795864041e-01,9.266642769999999807e-01,4.911025475700017129e-01,1.000000000000000048e-04,4.228660865437944949e+01,2.500000000000000000e-01
9.533575850000000074e-01,-5.868324440000000086e-01,5.259285109461488972e-01,1.000000000000000048e-04,4.258237890350678612e+01,1.199999999999999956e-01
1.194530383000000029e+00,-8.514353350000000153e-01,5.130169339099321935e-01,1.000000000000000048e-04,4.215556228798577365e+01,1.100000000000000006e-01
-1.550854682179585886e+00,1.341867675000000037e+00,5.108242572942147675e-01,1.000000000000000048e-04,4.185039418460641514e+01,3.599999999999999867e-01
2.328991532999999947e+00,-1.085498080000000032e+00,5.197907322876307301e-01,1.000000000000000048e-04,4.219577450585128986e+01,1.199999999999999956e-01
3.099662444999999877e+00,-8.173274409999999879e-01,4.974286379909296230e-01,1.000000000000000048e-04,4.222903559162519826e+01,1.300000000000000044e-01
1.008677688999999988e+00,-7.224949280000000362e-01,5.255935090828631751e-01,1.000000000000000048e-04,4.228867201142757892e+01,1.199999999999999956e-01
1.116317643999999998e+00,-8.188746820000000204e-01,5.190134042532474901e-01,1.000000000000000048e-04,4.253902717620944429e+01,1.499999999999999944e-01
1.368634144999999913e+00,-9.746537960000000167e-01,5.144035079607380823e-01,1.000000000000000048e-04,4.223213842495249537e+01,2.200000000000000011e-01
1.284766933000000000e+00,-9.049604909999999780e-01,5.117882125731394449e-01,1.000000000000000048e-04,4.221553078675255932e+01,1.300000000000000044e-01
2.840707745000000006e+00,-9.874777999999999611e-01,5.141563934694446392e-01,1.000000000000000048e-04,4.249580229630160488e+01,1.199999999999999956e-01
1.164831654000000105e+00,-8.361433499999999519e-01,5.029888027036115705e-01,1.000000000000000048e-04,4.232244940231927899e+01,1.600000000000000033e-01
9.274529849999999520e-01,-5.648102149999999488e-01,5.175203087622699538e-01,1.000000000000000048e-04,4.220344879681103123e+01,2.200000000000000011e-01
1.803806121999999901e+00,-1.051757271000000049e+00,5.253391374886411391e-01,1.000000000000000048e-04,4.252655633931581036e+01,2.200000000000000011e-01
1.910407339000000038e+00,-1.096340147000000043e+00,4.997605327102436767e-01,1.000000000000000048e-04,4.244881250010984530e+01,1.300000000000000044e-01
-2.994395329179586174e+00,-6.874333790000000111e-01,5.088956728088134263e-01,1.000000000000000048e-04,4.240810132727708037e+01,1.600000000000000033e-01
2.004169926999999962e+00,-1.114377941999999955e+00,5.127651967905508812e-01,1.000000000000000048e-04,4.231225376275147454e+01,2.099999999999999922e-01
2.993884073999999895e+00,-9.067153500000000310e-01,5.199712078359677303e-01,1.000000000000000048e-04,4.233826462497555809e+01,2.000000000000000111e-01
2.896584697999999847e+00,-6.981149509999999836e-01,5.057958489909910593e-01,1.000000000000000048e-04,4.199073558820452945e+01,2.000000000000000111e-01
2.644964143999999795e+00,-1.038456438999999953e+00,5.203519062824923935e-01,1.000000000000000048e-04,4.257708802924241098e+01,2.500000000000000000e-01
1.395029569000000080e+00,-9.673563530000000021e-01,5.263889384847941777e-01,1.000000000000000048e-04,4.237032288987359152e+01,2.200000000000000011e-01
1.133893306999999906e+00,-8.234022290000000410e-01,5.124968866431527381e-01,1.000000000000000048e-04,4.232766797812666226e+01,1.199999999999999956e-01
9.542908199999999841e-01,-6.210129070000000029e-01,5.204492380586915878e-01,1.000000000000000048e-04,4.231483590279781026e+01,1.400000000000000133e-01
1.112357503999999997e+00,-7.717409769999999947e-01,5.023858561929959166e-01,1.000000000000000048e-04,4.233190978332249443e+01,1.400000000000000133e-01
1.392129267000000059e+00,-9.489503049999999940e-01,5.269557656576719928e-01,1.000000000000000048e-04,4.249796360210646640e+01,1.100000000000000006e-01
3.104633763999999907e+00,-8.563587980000000321e-01,5.118122662102075893e-01,1.000000000000000048e-04,4.220144870291449735e+01,1.199999999999999956e-01
-1.581672989179586430e+00,-6.726275419999999672e-01,4.933088464607777723e-01,1.000000000000000048e-04,4.216291033829224233e+01,2.000000000000000111e-01
8.758714749999999549e-01,-5.394949780000000139e-01,5.055891667316521065e-01,1.000000000000000048e-04,4.229907598285361559e+01,1.199999999999999956e-01
1.027821937999999991e+00,-6.897361509999999640e-01,5.052101721666628631e-01,1.000000000000000048e-04,4.251558627914572241e+01,1.499999999999999944e-01
8.011105990000000343e-01,-4.568120419999999737e-01,5.152300771524866985e-01,1.000000000000000048e-04,4.238713328518326762e+01,1.499999999999999944e-01
8.044453879999999835e-01,-4.591503659999999765e-01,5.248795197489826148e-01,1.000000000000000048e-04,4.233329042764738404e+01,1.100000000000000006e-01
8.290542589999999601e-01,-4.498624509999999965e-01,5.127729662255877674e-01,1.000000000000000048e-04,4.235205157931213193e+01,1.199999999999999956e-01
2.306908324000000121e+00,-1.093655438999999951e+00,5.228040729577938528e-01,1.000000000000000048e-04,4.233975043543244965e+01,1.300000000000000044e-01
-3.090495873179586184e+00,-7.974218849999999970e-01,5.157556112042107621e-01,1.000000000000000048e-04,4.237156268357718858e+01,1.300000000000000044e-01
2.850739061000000074e+00,-9.724982730000000242e-01,5.140120892909216810e-01,1.000000000000000048e-04,4.250330861183936548e+01,1.100000000000000006e-01
1.925211972000000049e+00,-1.067349442999999898e+00,5.133575344543348518e-01,1.000000000000000048e-04,4.244616214054757108e+01,1.600000000000000033e-01
3.010706126000000094e+00,-9.149326070000000088e-01,5.102140588420449596e-01,1.000000000000000048e-04,4.231398163159784787e+01,1.199999999999999956e-01
1.754869720000000077e+00,-1.052947148999999971e+00,5.186057923870621700e-01,1.000000000000000048e-04,4.230070855966781096e+01,1.300000000000000044e-01
3.028086770999999899e+00,-8.725603690000000023e-01,5.156532873609809275e-01,1.000000000000000048e-04,4.226822501215050920e+01,1.199999999999999956e-01
2.780301081000000174e+00,-1.010780400000000023e+00,5.204483531635126781e-01,1.000000000000000048e-04,4.221809183928558440e+01,1.700000000000000122e-01
3.096540631999999960e+00,-8.261897350000000362e-01,4.937431846229380916e-01,1.000000000000000048e-04,4.220018586765208113e+01,1.100000000000000006e-01
-3.043596368179586342e+00,-7.656326449999999451e-01,5.058397424691210009e-01,1.000000000000000048e-04,4.216710117826684723e+01,1.100000000000000006e-01
2.593403560000000052e+00,-1.068240442000000012e+00,4.976720256884334948e-01,1.000000000000000048e-04,4.226282745594790669e+01,1.199999999999999956e-01
1.277663320999999907e+00,-8.910532270000000032e-01,5.029598331676250478e-01,1.000000000000000048e-04,4.254949752712331446e+01,1.499999999999999944e-01
8.729576639999999665e-01,-5.017517409999999733e-01,5.099324100804245585e-01,1.000000000000000048e-04,4.227136323367567883e+01,1.199999999999999956e-01
2.323316692000000128e+00,-1.072994334000000105e+00,5.115427373731724625e-01,1.000000000000000048e-04,4.219637165918214805e+01,1.400000000000000133e-01
-3.012222731179586166e+00,-7.219820959999999621e-01,4.942444559295899875e-01,1.000000000000000048e-04,4.220879789969698948e+01,1.199999999999999956e-01
2.306010604999999991e+00,-1.110345181000000014e+00,5.015948051312171252e-01,1.000000000000000048e-04,4.218556820532751317e+01,1.100000000000000006e-01
2.437557496999999795e+00,-1.097151527000000071e+00,5.000557017489131173e-01,1.000000000000000048e-04,4.228262193449418760e+01,1.100000000000000006e-01
1.098420291999999909e+00,-7.444727049999999569e-01,5.059653987786520979e-01,1.000000000000000048e-04,4.236158371138520806e+01,1.300000000000000044e-01
8.241628739999999897e-01,-4.611620249999999754e-01,5.036786399895756272e-01,1.000000000000000048e-04,4.241465553757063134e+01,1.400000000000000133e-01
1.017317494999999905e+00,-7.027905669999999771e-01,5.222087703539173287e-01,1.000000000000000048e-04,4.238694864159580078e+01,1.199999999999999956e-01
2.728679550999999925e+00,-1.007430967999999982e+00,5.183180808051919275e-01,1.000000000000000048e-04,4.244253890574449173e+01,1.100000000000000006e-01
2.848837458999999850e+00,-9.622339979999999793e-01,4.987973149940547746e-01,1.000000000000000048e-04,4.230111638082310321e+01,1.199999999999999956e-01
-3.065525731179586266e+00,-7.207210450000000046e-01,5.009762538716302505e-01,1.000000000000000048e-04,4.202995068354466923e+01,1.199999999999999956e-01
1.103969978000000074e+00,-7.587182380000000448e-01,5.155481793328748896e-01,1.000000000000000048e-04,4.224510248440897442e+01,1.300000000000000044e-01
1.112034854000000017e+00,-7.675460100000000008e-01,5.247006562969973587e-01,1.000000000000000048e-04,4.235878020251913512e+01,1.199999999999999956e-01
2.373162053000000160e+00,-1.072487750000000073e+00,5.195061489667429644e-01,1.000000000000000048e-04,4.245610988151649678e+01,1.100000000000000006e-01
2.221583438000000132e+00,-1.096064289000000080e+00,5.056848814772236800e-01,1.000000000000000048e-04,4.235378613184779795e+01,1.199999999999999956e-01
2.775251189000000007e+00,-1.013244017000000108e+00,4.970226988431918347e-01,1.000000000000000048e-04,4.240178518822456510e+01,1.700000000000000122e-01
1.527128894000000070e+00,-9.963611940000000056e-01,5.116166934557591084e-01,1.000000000000000048e-04,4.221080427267709467e+01,1.400000000000000133e-01
-1.936135624179586401e+00,1.327891944000000102e+00,5.148394260125039867e-01,1.000000000000000048e-04,4.251123782992155498e+01,1.199999999999999956e-01
2.120951332999999828e+00,-1.112975437000000012e+00,5.112930148586791734e-01,1.000000000000000048e-04,4.232836716235847518e+01,1.600000000000000033e-01
2.950704906999999988e+00,-9.277153000000000205e-01,5.161098742840841691e-01,1.000000000000000048e-04,4.233729443354307875e+01,1.700000000000000122e-01
2.461302839000000020e+00,-1.064109841000000056e+00,5.222099154052932679e-01,1.000000000000000048e-04,4.242522932918670620e+01,1.499999999999999944e-01
1.687800213000000049e+00,-1.037844004000000098e+00,5.072052121090884214e-01,1.000000000000000048e-04,4.233204320618833094e+01,1.100000000000000006e-01
-3.069023128179586113e+00,-7.343218900000000327e-01,5.185151327296961821e-01,1.000000000000000048e-04,4.242177409923822040e+01,2.000000000000000111e-01
7.655655390000000171e-01,-3.825025819999999799e-01,5.044039157094843961e-01,1.000000000000000048e-04,4.229665317102693933e+01,1.300000000000000044e-01
-3.051736326179586012e+00,-7.690870560000000467e-01,5.189334103720153468e-01,1.000000000000000048e-04,4.225618028317038721e+01,1.499999999999999944e-01
-3.116938176179586240e+00,-7.920766919999999711e-01,5.022700470222869473e-01,1.000000000000000048e-04,4.226455998298860095e+01,1.100000000000000006e-01
1.020863690000000101e+00,-6.877910739999999468e-01,5.212665053434704099e-01,1.000000000000000048e-04,4.248893577918587994e+01,1.199999999999999956e-01
1.792785233999999894e+00,-1.066474936999999956e+00,5.028028817466654310e-01,1.000000000000000048e-04,4.228488359659222340e+01,1.100000000000000006e-01
1.805689748000000039e+00,-1.066896787999999985e+00,5.177428097718657085e-01,1.000000000000000048e-04,4.234946711892239080e+01,1.100000000000000006e-01
1.773248071000000037e+00,-1.046601056999999946e+00,5.239588590552253233e-01,1.000000000000000048e-04,4.212420855368637973e+01,2.099999999999999922e-01
1.076689889999999927e+00,-7.549444410000000216e-01,5.234770501273320331e-01,1.000000000000000048e-04,4.225880641460101828e+01,1.199999999999999956e-01
2.336456505000000128e+00,-1.089906792000000069e+00,5.168974716922507540e-01,1.000000000000000048e-04,4.237608301094113727e+01,1.199999999999999956e-01
2.522083900000000156e+00,-1.078852812999999911e+00,5.096193734019245358e-01,1.000000000000000048e-04,4.232402458149127966e+01,1.199999999999999956e-01
3.676074389999999803e-01,1.100614297999999991e+00,5.112770821300989255e-01,1.000000000000000048e-04,4.247041821426188335e+01,1.700000000000000122e-01
2.099931574000000190e+00,-1.082223048999999993e+00,5.085828433501731194e-01,1.000000000000000048e-04,4.238518662699639350e+01,1.100000000000000006e-01
8.155488279999999479e-01,-4.642700679999999802e-01,5.185484594303702011e-01,1.000000000000000048e-04,4.243630207799618148e+01,2.099999999999999922e-01
9.861636230000000447e-01,-6.881834650000000497e-01,5.262627185173758271e-01,1.000000000000000048e-04,4.229645558594403099e+01,1.300000000000000044e-01
1.864254864999999928e+00,-1.086684659999999969e+00,5.092964281009566552e-01,1.000000000000000048e-04,4.225858624462957636e+01,1.199999999999999956e-01
2.873066016000000111e+00,-9.753574739999999466e-01,5.165707094350315831e-01,1.000000000000000048e-04,4.237583258065341596e+01,1.300000000000000044e-01
2.270287562000000037e+00,-1.085086717999999895e+00,5.056638239967659043e-01,1.000000000000000048e-04,4.237743791519525871e+01,1.799999999999999933e-01
8.268071609999999572e-01,-4.587794940000000099e-01,5.281224442000387320e-01,1.000000000000000048e-04,4.250848339070863346e+01,1.199999999999999956e-01
-3.050869045179586347e+00,-7.648855789999999821e-01,5.098845973390988551e-01,1.000000000000000048e-04,4.228669077613356819e+01,1.199999999999999956e-01
1.101963728999999947e+00,-7.466317359999999903e-01,5.091087648672028010e-01,1.000000000000000048e-04,4.222510157486258464e+01,1.900000000000000022e-01
1.745116724000000064e+00,-1.056563783000000090e+00,5.033813570101464130e-01,1.000000000000000048e-04,4.219863780173240997e+01,1.300000000000000044e-01
7.889769570000000343e-01,-3.846565690000000037e-01,5.060924305994782824e-01,1.000000000000000048e-04,4.237439229853877976e+01,1.499999999999999944e-01
1.385818830999999918e+00,-9.278259679999999454e-01,5.113950882166924394e-01,1.000000000000000048e-04,4.253029718718542540e+01,1.499999999999999944e-01
1.138484923000000038e+00,-8.197145099999999518e-01,5.092288811726977116e-01,1.000000000000000048e-04,4.251520185113355410e+01,1.400000000000000133e-01
1.783410439000000069e+00,-1.080958507999999929e+00,5.150400307824922752e-01,1.000000000000000048e-04,4.231098794904625038e+01,1.400000000000000133e-01
2.617653461000000181e+00,-1.025884226000000066e+00,4.995282541703920387e-01,1.000000000000000048e-04,4.242836194349290935e+01,1.199999999999999956e-01
8.270197009999999960e-01,-4.157453939999999903e-01,5.235455987799635391e-01,1.000000000000000048e-04,4.238910458030377271e+01,1.199999999999999956e-01
3.128792493000000174e+00,-8.522697870000000009e-01,5.064684894554878358e-01,1.000000000000000048e-04,4.207785320162823695e+01,1.100000000000000006e-01
1.366158207000000013e+00,-9.614226009999999878e-01,5.249371243741891568e-01,1.000000000000000048e-04,4.225328958522721479e+01,1.100000000000000006e-01
2.846286316000000038e+00,-9.688357899999999745e-01,5.095495484332526193e-01,1.000000000000000048e-04,4.232509567663692707e+01,1.400000000000000133e-01
9.208216280000000031e-01,-6.185352929999999860e-01,5.038503417540074469e-01,1.000000000000000048e-04,4.242998216171623937e+01,1.499999999999999944e-01
7.622987450000000553e-01,-3.411912120000000215e-01,5.250837957557690228e-01,1.000000000000000048e-04,4.254390619467741175e+01,1.199999999999999956e-01
9.277931750000000255e-01,-5.813990460000000304e-01,5.172096877059382258e-01,1.000000000000000048e-04,4.204934926965242425e+01,2.099999999999999922e-01
1.010173165000000095e+00,-6.808591280000000356e-01,5.045444985288363160e-01,1.000000000000000048e-04,4.224622596471421332e+01,1.300000000000000044e-01
1.661181446000000062e+00,-1.029160687999999935e+00,5.067533357662781235e-01,1.000000000000000048e-04,4.239950425993270500e+01,1.400000000000000133e-01
2.089878704000000198e+00,-1.077863170999999953e+00,5.083405997833003731e-01,1.000000000000000048e-04,4.217164477024773106e+01,1.199999999999999956e-01
9.321550429999999610e-01,-6.212176799999999943e-01,5.034784833845051821e-01,1.000000000000000048e-04,4.230000778381743487e+01,1.199999999999999956e-01
2.944595597000000176e+00,-9.127602249999999806e-01,5.190607661474022638e-01,1.000000000000000048e-04,4.243505754924346007e+01,1.100000000000000006e-01
1.288081913999999939e+00,-9.113959929999999598e-01,5.234594201533084856e-01,1.000000000000000048e-04,4.229563034322276138e+01,1.300000000000000044e-01
1.398731861999999992e+00,-9.625033109999999725e-01,5.222415708229795062e-01,1.000000000000000048e-04,4.266004958088728216e+01,1.199999999999999956e-01
1.714165549000000066e+00,-1.043104095999999981e+00,5.124385656124221811e-01,1.000000000000000048e-04,4.230908811731529084e+01,1.199999999999999956e-01
1.014018395999999989e+00,-6.788913789999999615e-01,5.086629626646808067e-01,1.000000000000000048e-04,4.225517339923703020e+01,1.300000000000000044e-01
8.887761809999999985e-01,-5.541821719999999729e-01,5.124597875190937124e-01,1.000000000000000048e-04,4.230329630898208393e+01,1.300000000000000044e-01
1.026278256999999972e+00,-6.961882160000000264e-01,5.084558431598427131e-01,1.000000000000000048e-04,4.237388232453753290e+01,1.199999999999999956e-01
1.824970581999999952e+00,-1.080428363000000003e+00,5.079388175572046027e-01,1.000000000000000048e-04,4.229478809662557381e+01,1.199999999999999956e-01
1.839979185000000017e+00,-1.082878103999999952e+00,5.220462325916088719e-01,1.000000000000000048e-04,4.229583564871808932e+01,1.300000000000000044e-01
-3.070118813179586237e+00,-7.641942569999999879e-01,5.021993837199907329e-01,1.000000000000000048e-04,4.226163832229995876e+01,1.199999999999999956e-01
2.250776613000000204e+00,-1.110438553999999911e+00,5.095431508638210705e-01,1.000000000000000048e-04,4.204135749777428543e+01,1.199999999999999956e-01
2.613802471000000072e+00,-1.066258922999999914e+00,5.051193514213880853e-01,1.000000000000000048e-04,4.248237967907520840e+01,1.199999999999999956e-01
8.050150120000000298e-01,-4.193234060000000096e-01,5.169202665223666671e-01,1.000000000000000048e-04,4.233276379197627648e+01,1.499999999999999944e-01
2.809576177999999924e+00,-9.952447749999999704e-01,5.122193977220477201e-01,1.000000000000000048e-04,4.228405175875577271e+01,1.199999999999999956e-01
8.523447290000000232e-01,-4.773689010000000121e-01,5.131483884370775517e-01,1.000000000000000048e-04,4.231086788544968158e+01,2.000000000000000111e-01
2.975142320999999868e+00,-8.986192680000000266e-01,5.135231406946660915e-01,1.000000000000000048e-04,4.226400904763102062e+01,2.000000000000000111e-01
2.960578484000000010e+00,-9.174235720000000205e-01,5.156295173736764603e-01,1.000000000000000048e-04,4.226223454713286998e+01,1.400000000000000133e-01
1.589239559999999996e+00,-1.046132274999999945e+00,5.149633282278580637e-01,1.000000000000000048e-04,4.229461198961720925e+01,1.199999999999999956e-01
1.095136271999999966e+00,-7.909478989999999543e-01,5.154606598738056267e-01,1.000000000000000048e-04,4.227180080805393203e+01,1.300000000000000044e-01
3.045277111999999953e+00,-8.831592660000000539e-01,5.106152297742194701e-01,1.000000000000000048e-04,4.238425541191898560e+01,1.799999999999999933e-01
3.011317304999999944e+00,-8.969173430000000335e-01,5.084995378261276677e-01,1.000000000000000048e-04,4.230938706688331052e+01,1.499999999999999944e-01
1.946036051000000100e+00,-1.101857058000000000e+00,5.095274583981237448e-01,1.000000000000000048e-04,4.212412199879925367e+01,1.100000000000000006e-01
9.659444579999999503e-01,-6.400164339999999674e-01,5.028132152539193100e-01,1.000000000000000048e-04,4.210696017404925584e+01,1.199999999999999956e-01
1.142944595999999979e+00,-8.229314749999999679e-01,5.225771004049082347e-01,1.000000000000000048e-04,4.236399279211681801e+01,1.499999999999999944e-01
1.336859599999999926e+00,-9.462661719999999610e-01,5.101397467475279335e-01,1.000000000000000048e-04,4.234488509117799282e+01,1.900000000000000022e-01
2.386695267999999981e+00,-1.099692616000000012e+00,5.076829557532966941e-01,1.000000000000000048e-04,4.260494427027945363e+01,1.799999999999999933e-01
1.122946417999999946e+00,-7.871106610000000448e-01,5.269450007380560574e-01,1.000000000000000048e-04,4.254136927306569760e+01,1.499999999999999944e-01
1.038511049000000019e+00,-6.836743480000000428e-01,5.092461360342002141e-01,1.000000000000000048e-04,4.222065732789650383e+01,1.499999999999999944e-01
-1.865548755179585960e+00,5.988235499999999822e-01,4.983827185397342596e-01,1.000000000000000048e-04,4.225748952134663483e+01,3.599999999999999867e-01
-1.208774007179585830e+00,1.086301519000000049e+00,5.155278355703574178e-01,1.000000000000000048e-04,4.190744760164576377e+01,3.900000000000000133e-01
-1.451351928179586359e+00,1.047303024999999943e+00,5.007327264596754812e-01,1.000000000000000048e-04,4.187400493340881980e+01,3.900000000000000133e-01
-1.863787002179586594e+00,5.986409590000000280e-01,4.989324227634506226e-01,1.000000000000000048e-04,4.166683837662497325e+01,3.099999999999999978e-01
-2.367107747179586053e+00,3.570653329999999848e-01,4.972753559664393475e-01,1.000000000000000048e-04,4.172611203908630984e+01,3.300000000000000155e-01
3.110012692999999828e+00,-8.816387980000000013e-01,5.057455855809354084e-01,1.000000000000000048e-04,4.352192162786932528e+01,4.000000000000000222e-01
1.208427087000000011e+00,6.391205479999999550e-01,5.242106651774300907e-01,1.000000000000000048e-04,4.259430862175086929e+01,3.200000000000000067e-01
2.195568135999999893e+00,9.530612539999999688e-01,4.930044039005720968e-01,1.000000000000000048e-04,4.194502991199711772e+01,3.200000000000000067e-01
-1.746303855179585973e+00,7.561700099999999480e-01,5.072491773186686981e-01,1.000000000000000048e-04,4.270260357218911196e+01,3.599999999999999867e-01
-2.613733020179586308e+00,3.020363409999999860e-01,4.950615120282295667e-01,1.000000000000000048e-04,4.210232618580769071e+01,2.399999999999999911e-01
3.080075141000000016e+00,6.813462000000000129e-01,5.139830414653692170e-01,1.000000000000000048e-04,4.258297060388997579e+01,2.999999999999999889e-01
3.084152930000000126e+00,6.750201959999999612e-01,5.096005635188010086e-01,1.000000000000000048e-04,4.240302245460055985e+01,2.399999999999999911e-01
-2.831540824179586302e+00,-5.193198470000000011e-01,5.113968071213161881e-01,1.000000000000000048e-04,4.255455685747306660e+01,2.899999999999999800e-01
2.921667255000000019e+00,-9.403574120000000036e-01,4.966758412021079483e-01,1.000000000000000048e-04,4.237921341990372071e+01,2.899999999999999800e-01
2.610543199999999953e+00,9.294079060000000059e-01,4.970610238648540680e-01,1.000000000000000048e-04,4.214109013375090740e+01,2.899999999999999800e-01
2.614058957000000127e+00,9.310355519999999885e-01,5.031102765741735094e-01,1.000000000000000048e-04,4.198357082303922283e+01,3.699999999999999956e-01
-2.614313936179586406e+00,3.105085300000000048e-01,4.883107628747638262e-01,1.000000000000000048e-04,4.224531114080829042e+01,2.300000000000000100e-01
-2.614275993179586255e+00,3.084493819999999942e-01,5.073781614616958979e-01,1.000000000000000048e-04,4.269053105375895285e+01,2.000000000000000111e-01
3.080236718000000096e+00,6.852664600000000217e-01,5.044989873771372757e-01,1.000000000000000048e-04,4.289865924002236142e+01,3.800000000000000044e-01
3.085135451000000195e+00,6.840520260000000352e-01,5.113287072120249466e-01,1.000000000000000048e-04,4.263814169709053914e+01,2.300000000000000100e-01
-2.829361723179586452e+00,-5.190188390000000096e-01,5.006520236595739526e-01,1.000000000000000048e-04,4.233062825755269643e+01,3.900000000000000133e-01
-2.833706243179586082e+00,-5.260186759999999628e-01,4.904569970096230858e-01,1.000000000000000048e-04,4.214589996520047777e+01,2.200000000000000011e-01
1.286414458000000094e+00,-9.076167339999999806e-01,5.182721026496377448e-01,1.000000000000000048e-04,4.249583541277801402e+01,2.399999999999999911e-01
2.295144749999999956e+00,-1.095028292000000070e+00,5.006045153731142339e-01,1.000000000000000048e-04,4.211054320483009406e+01,2.000000000000000111e-01
2.312115046000000174e+00,-1.091482969000000081e+00,5.064038548001383866e-01,1.000000000000000048e-04,4.218218249145706977e+01,1.900000000000000022e-01
2.535381049000000164e+00,-1.063602453999999975e+00,5.233409064934557708e-01,1.000000000000000048e-04,4.304700454051023684e+01,2.600000000000000089e-01
2.549902755000000187e+00,-1.059649137999999935e+00,5.009234126655202068e-01,1.000000000000000048e-04,4.254726012769256727e+01,1.900000000000000022e-01
-2.980466121795863899e-01,1.081935794000000062e+00,5.184313624005316701e-01,1.000000000000000048e-04,4.242514646634712960e+01,1.000000000000000056e-01
-4.562223411795862660e-01,1.078420874000000085e+00,5.095670545616142189e-01,1.000000000000000048e-04,4.214604370073783457e+01,1.400000000000000133e-01
-4.727696341795866175e-01,1.076427226000000070e+00,5.183811031572138628e-01,1.000000000000000048e-04,4.272370464118007050e+01,1.900000000000000022e-01
-4.909850281795860028e-01,1.086050390999999893e+00,5.170728570098734878e-01,1.000000000000000048e-04,4.238470799710031400e+01,1.499999999999999944e-01
-1.809890014179586615e+00,8.554848849999999727e-01,4.911269427363305073e-01,1.000000000000000048e-04,4.212244797587036516e+01,1.900000000000000022e-01
-1.804843805179586091e+00,8.509932909999999850e-01,5.137241584912941583e-01,1.000000000000000048e-04,4.258351477921248573e+01,1.700000000000000122e-01
-1.798315402179586187e+00,8.389159160000000393e-01,5.099911820519167360e-01,1.000000000000000048e-04,4.238261229435219946e+01,1.100000000000000006e-01
-1.820018681179586650e+00,8.404092629999999620e-01,5.133833697791785333e-01,1.000000000000000048e-04,4.240451782870297137e+01,2.000000000000000111e-01
-2.435936564179586039e+00,3.767214549999999829e-01,5.060911859004408875e-01,1.000000000000000048e-04,4.208684366966696899e+01,1.700000000000000122e-01
-2.738532057179586143e+00,-4.670391260000000266e-01,5.091412078366737148e-01,1.000000000000000048e-04,4.229653337391538770e+01,1.100000000000000006e-01
-2.750126147179586145e+00,-4.750163370000000107e-01,5.021206416604016010e-01,1.000000000000000048e-04,4.233139085956599956e+01,1.700000000000000122e-01
6.777063359999999648e-01,-9.284162910000000046e-01,5.251999815253309833e-01,1.000000000000000048e-04,4.273918853967092701e+01,1.600000000000000033e-01
6.755664329999999662e-01,-9.242990760000000527e-01,5.198317987132980988e-01,1.000000000000000048e-04,4.206866685671181472e+01,2.200000000000000011e-01
1.666277256000000095e+00,1.035703752000000089e+00,5.196020538190342375e-01,1.000000000000000048e-04,4.297909118581404897e+01,2.800000000000000266e-01
1.679531192000000006e+00,1.034147155999999956e+00,5.097907883881260815e-01,1.000000000000000048e-04,4.193665457267713492e+01,2.099999999999999922e-01
1.669961188000000041e+00,1.045784459000000055e+00,5.086243478938783369e-01,1.000000000000000048e-04,4.228076630109748635e+01,2.899999999999999800e-01
1.666612017000000057e+00,1.035903760999999923e+00,5.085721103719162972e-01,1.000000000000000048e-04,4.248950289873235420e+01,1.400000000000000133e-01
1.676630470000000095e+00,1.049302589999999924e+00,4.940012316411688253e-01,1.000000000000000048e-04,4.231504525838590069e+01,1.600000000000000033e-01
1.678871634000000057e+00,1.037439988999999896e+00,5.080470845544018399e-01,1.000000000000000048e-04,4.218349119021992522e+01,2.099999999999999922e-01
-2.159653925179585876e+00,7.341517600000000421e-01,5.121452811216755663e-01,1.000000000000000048e-04,4.217739811530938709e+01,2.600000000000000089e-01
-2.155609593179586447e+00,7.327229189999999726e-01,4.906303448859705707e-01,1.000000000000000048e-04,4.196358482864058459e+01,1.400000000000000133e-01
2.989279821999999864e+00,-1.014333855000000062e+00,5.052189596245695302e-01,1.000000000000000048e-04,4.234081775011921422e+01,1.600000000000000033e-01
6.962963009999999509e-01,-9.242906640000000396e-01,5.240831563420220718e-01,1.000000000000000048e-04,4.243148894138545302e+01,2.000000000000000111e-01
6.831622830000000368e-01,-9.295060950000000322e-01,5.218397157820384713e-01,1.000000000000000048e-04,4.222648914416293309e+01,2.099999999999999922e-01
6.813526220000000189e-01,-9.196739680000000083e-01,5.126094627657935554e-01,1.000000000000000048e-04,4.231169682203272231e+01,1.700000000000000122e-01
1.667475545999999920e+00,1.039138789999999979e+00,5.043592806711416632e-01,1.000000000000000048e-04,4.204318166100883758e+01,1.499999999999999944e-01
1.669072946000000002e+00,1.039627206000000026e+00,5.147226443003749541e-01,1.000000000000000048e-04,4.222016745356732770e+01,1.700000000000000122e-01
2.992464221000000091e+00,-1.009427984000000000e+00,5.106818241744155440e-01,1.000000000000000048e-04,4.228173445013663923e+01,1.400000000000000133e-01
3.013377762000000182e+00,-1.015725085999999999e+00,5.204954891084929702e-01,1.000000000000000048e-04,4.246763230327318439e+01,1.499999999999999944e-01
6.857830799999999893e-01,-9.290922369999999875e-01,5.230133171672730619e-01,1.000000000000000048e-04,4.222702205508387152e+01,3.400000000000000244e-01
6.874880420000000214e-01,-9.251381180000000093e-01,5.123238755790915366e-01,1.000000000000000048e-04,4.232691544971705611e+01,1.700000000000000122e-01
1.659686511000000086e+00,1.040101345999999927e+00,5.153959580967188980e-01,1.000000000000000048e-04,4.243481238935731170e+01,1.400000000000000133e-01
1.692629780999999944e+00,1.043637506000000048e+00,4.971527732784080111e-01,1.000000000000000048e-04,4.208791993917822083e+01,1.799999999999999933e-01
1.682450028999999958e+00,1.049226146999999942e+00,5.108618418181913867e-01,1.000000000000000048e-04,4.229673661416387631e+01,1.900000000000000022e-01
1.675255906999999933e+00,1.048468626000000015e+00,5.178567365451631765e-01,1.000000000000000048e-04,4.224287751616559206e+01,1.499999999999999944e-01
1.692145135000000078e+00,1.039981480000000014e+00,4.969957195350136470e-01,1.000000000000000048e-04,4.227637049673819547e+01,1.700000000000000122e-01
-2.139768073179586061e+00,7.360294179999999908e-01,4.884064389957514241e-01,1.000000000000000048e-04,4.218786224319864431e+01,1.600000000000000033e-01
-2.138731675179585956e+00,7.369836659999999817e-01,5.139151367386731728e-01,1.000000000000000048e-04,4.246373417282443086e+01,1.499999999999999944e-01
6.888283630000000546e-01,-9.193630990000000169e-01,5.236288567239311131e-01,1.000000000000000048e-04,4.254032462925919589e+01,1.700000000000000122e-01
6.776433490000000059e-01,-9.225326109999999469e-01,5.233580979021585922e-01,1.000000000000000048e-04,4.230214844166213339e+01,1.600000000000000033e-01
6.820513620000000499e-01,-9.162569579999999547e-01,5.227912220034827140e-01,1.000000000000000048e-04,4.240973752833905763e+01,2.899999999999999800e-01
6.832637360000000104e-01,-9.208365670000000502e-01,5.247776246832713820e-01,1.000000000000000048e-04,4.254214143538705883e+01,1.400000000000000133e-01
1.683256381999999940e+00,1.050427892999999946e+00,5.057501828408776934e-01,1.000000000000000048e-04,4.249840272817547771e+01,1.499999999999999944e-01
2.987248335999999949e+00,-1.011507587000000097e+00,5.181768538975852767e-01,1.000000000000000048e-04,4.239926648005901910e+01,1.900000000000000022e-01
2.994879214000000012e+00,-1.020537374999999969e+00,5.199507976632540274e-01,1.000000000000000048e-04,4.198916305312250330e+01,2.500000000000000000e-01
2.997056848999999801e+00,-1.020797841000000039e+00,5.035316799110607366e-01,1.000000000000000048e-04,4.221490841861152887e+01,1.499999999999999944e-01
6.981827720000000070e-01,-9.201470600000000166e-01,5.142840713649605711e-01,1.000000000000000048e-04,4.225381766173346421e+01,2.099999999999999922e-01
1.675679171999999939e+00,1.042232051000000048e+00,5.174330219793386032e-01,1.000000000000000048e-04,4.233323480554567197e+01,1.900000000000000022e-01
1.682732345000000018e+00,1.051774148000000020e+00,5.082976372737415538e-01,1.000000000000000048e-04,4.178831815531196270e+01,2.099999999999999922e-01
1.655763980999999996e+00,1.041789395999999979e+00,4.999275836039827059e-01,1.000000000000000048e-04,4.243731788608107536e+01,2.099999999999999922e-01
1.658505131999999938e+00,1.042043577999999915e+00,5.199703151973000814e-01,1.000000000000000048e-04,4.253509795383546077e+01,1.499999999999999944e-01
1.679931540999999973e+00,1.044700675999999939e+00,5.168789724257070173e-01,1.000000000000000048e-04,4.234914991736171430e+01,1.400000000000000133e-01
1.681131209999999987e+00,1.046558263000000100e+00,5.055510270119676353e-01,1.000000000000000048e-04,4.226624433374305312e+01,3.800000000000000044e-01
-2.147380102179586636e+00,7.248191320000000326e-01,5.109243538124563777e-01,1.000000000000000048e-04,4.196995330950188929e+01,2.200000000000000011e-01
-2.137481690179586558e+00,7.386978770000000027e-01,5.044345473944629177e-01,1.000000000000000048e-04,4.227028022399264984e+01,1.499999999999999944e-01
3.007533192999999994e+00,-1.006434849999999992e+00,4.947077251199771819e-01,1.000000000000000048e-04,4.237865192148831284e+01,1.700000000000000122e-01
6.766177190000000063e-01,-9.309161569999999664e-01,5.122285666884165423e-01,1.000000000000000048e-04,4.228287334626725880e+01,1.700000000000000122e-01
6.879719020000000240e-01,-9.170357009999999809e-01,5.106067839536927444e-01,1.000000000000000048e-04,4.210627345235482011e+01,2.600000000000000089e-01
6.868192690000000100e-01,-9.190749710000000183e-01,5.032717597602256454e-01,1.000000000000000048e-04,4.257044245443579200e+01,2.800000000000000266e-01
1.680927606000000019e+00,1.043199457999999913e+00,4.955959721503757631e-01,1.000000000000000048e-04,4.251032635221078237e+01,1.799999999999999933e-01
1.680733408999999901e+00,1.046110547000000057e+00,5.065483132198720373e-01,1.000000000000000048e-04,4.216636807757363670e+01,1.499999999999999944e-01
3.003205794999999956e+00,-1.007960921000000010e+00,5.216807870613118236e-01,1.000000000000000048e-04,4.229224884605407908e+01,2.200000000000000011e-01
3.013387552999999830e+00,-1.018013843000000085e+00,4.988453197552487062e-01,1.000000000000000048e-04,4.244294536486034986e+01,2.000000000000000111e-01
2.991633154000000072e+00,-1.018575491000000000e+00,4.985867254582345698e-01,1.000000000000000048e-04,4.233860554296849443e+01,1.600000000000000033e-01
6.810583510000000063e-01,-9.216344210000000370e-01,5.097827904906411245e-01,1.000000000000000048e-04,4.238478833222038133e+01,1.600000000000000033e-01
1.670069762000000013e+00,1.048284639000000018e+00,5.069499190777602138e-01,1.000000000000000048e-04,4.233393103507521005e+01,2.099999999999999922e-01
1.699713636000000028e+00,1.040243690999999915e+00,4.955407672897973459e-01,1.000000000000000048e-04,4.222771400611593862e+01,2.899999999999999800e-01
1.686195045999999920e+00,1.048540513999999924e+00,5.140030092126977035e-01,1.000000000000000048e-04,4.214700396362093215e+01,1.400000000000000133e-01
1.667162669999999958e+00,1.044746053999999980e+00,5.078288503330039561e-01,1.000000000000000048e-04,4.181749823333267813e+01,2.700000000000000178e-01
1.689467040999999892e+00,1.036330184999999959e+00,5.168228823365128566e-01,1.000000000000000048e-04,4.241182889045597904e+01,1.300000000000000044e-01
1.683799076999999977e+00,1.043385784000000038e+00,4.989727649061355130e-01,1.000000000000000048e-04,4.210920488571267128e+01,1.700000000000000122e-01
-2.151455832179586025e+00,7.398983139999999459e-01,4.883862931535714047e-01,1.000000000000000048e-04,4.236277416092277548e+01,2.500000000000000000e-01
-2.141944958179585967e+00,7.302793560000000461e-01,4.985429348666463589e-01,1.000000000000000048e-04,4.226331810869123018e+01,1.400000000000000133e-01
3.012489310999999947e+00,-1.019874449000000016e+00,5.154418910557185818e-01,1.000000000000000048e-04,4.247074402755706757e+01,1.900000000000000022e-01
6.824463880000000149e-01,-9.193269539999999740e-01,5.234967884257342163e-01,1.000000000000000048e-04,4.246902330677561110e+01,1.600000000000000033e-01
6.933168330000000212e-01,-9.307474239999999899e-01,5.041038204932675182e-01,1.000000000000000048e-04,4.266677633095949318e+01,1.600000000000000033e-01
7.005346909999999871e-01,-9.247541049999999929e-01,5.095950441456953417e-01,1.000000000000000048e-04,4.214905761364416747e+01,2.700000000000000178e-01
1.674988617999999985e+00,1.042237757999999959e+00,5.184729642874150723e-01,1.000000000000000048e-04,4.218024856065181183e+01,1.499999999999999944e-01
1.672026148000000045e+00,1.039374368000000048e+00,4.986341921357684281e-01,1.000000000000000048e-04,4.224656952159087808e+01,1.600000000000000033e-01
2.993618983999999816e+00,-1.008517228000000099e+00,5.001289905362447108e-01,1.000000000000000048e-04,4.199716032282364608e+01,1.700000000000000122e-01
2.992837709999999873e+00,-1.014889098000000045e+00,5.213926451854127286e-01,1.000000000000000048e-04,4.255277693860254828e+01,2.800000000000000266e-01
2.980621672999999916e+00,-1.012535224000000067e+00,5.047927326239340928e-01,1.000000000000000048e-04,4.218328474279137907e+01,1.499999999999999944e-01
3.118379398000000080e+00,-1.044341935000000055e+00,5.211548317184246937e-01,1.000000000000000048e-04,4.206568288794875343e+01,3.099999999999999978e-01
3.132904315000000217e+00,-1.046896950999999909e+00,4.992671324947346445e-01,1.000000000000000048e-04,4.232617431116094053e+01,2.200000000000000011e-01
1.248659997999999938e+00,-1.117162079000000086e+00,5.229086720460842663e-01,1.000000000000000048e-04,4.253135860125982504e+01,2.700000000000000178e-01
2.302446713000000145e+00,-1.091359299000000060e+00,5.023027404242930150e-01,1.000000000000000048e-04,4.180530370790954464e+01,2.899999999999999800e-01
3.133486173000000097e+00,-1.061461677999999909e+00,5.036307251988341172e-01,1.000000000000000048e-04,4.205020214669381318e+01,3.099999999999999978e-01
1.251013366000000016e+00,-1.102704651999999896e+00,5.109191542065130154e-01,1.000000000000000048e-04,4.215866859722423499e+01,2.300000000000000100e-01
1.232341668999999973e+00,-1.105349812000000043e+00,5.021651307949639431e-01,1.000000000000000048e-04,4.195918992270353698e+01,2.200000000000000011e-01
2.330538756999999794e+00,-1.086213730999999960e+00,5.192786200280490316e-01,1.000000000000000048e-04,4.237583775560361943e+01,2.300000000000000100e-01
3.104372880000000112e+00,-1.050765708999999992e+00,4.991639371704401640e-01,1.000000000000000048e-04,4.179292315799592217e+01,2.200000000000000011e-01
3.122794933000000217e+00,-1.050942575000000101e+00,5.103550549141968595e-01,1.000000000000000048e-04,4.201872359782598210e+01,2.099999999999999922e-01
3.135928428000000157e+00,-1.044986675000000087e+00,5.206371283224251467e-01,1.000000000000000048e-04,4.241032583984686966e+01,2.300000000000000100e-01
3.135701593999999925e+00,-1.049448040999999998e+00,5.196411457138696566e-01,1.000000000000000048e-04,4.233112994425258790e+01,2.399999999999999911e-01
2.902190216000000156e+00,-1.054666754000000095e+00,5.060154310190099203e-01,1.000000000000000048e-04,4.220375802235223262e+01,2.099999999999999922e-01
1.219278212000000083e+00,-1.102494101000000004e+00,5.256510708613482130e-01,1.000000000000000048e-04,4.255535569757063286e+01,2.399999999999999911e-01
2.314258420999999899e+00,-1.073777474999999981e+00,5.169710623912633363e-01,1.000000000000000048e-04,4.244795193267781030e+01,2.399999999999999911e-01
3.138600745000000192e+00,-1.056209613999999908e+00,5.095641407728779271e-01,1.000000000000000048e-04,4.245915786849253948e+01,2.800000000000000266e-01
2.873014373000000177e+00,-1.047336534999999902e+00,4.982547536746024797e-01,1.000000000000000048e-04,4.190791974718597146e+01,2.000000000000000111e-01
2.890150627000000139e+00,-1.045368942999999939e+00,5.020837877049915132e-01,1.000000000000000048e-04,4.234665083367217164e+01,2.200000000000000011e-01
-3.136513490179586139e+00,-1.038988312000000080e+00,5.016229804895844246e-01,1.000000000000000048e-04,4.243583710788798413e+01,2.800000000000000266e-01
3.120369102000000172e+00,-1.042910143999999928e+00,5.020254614622596812e-01,1.000000000000000048e-04,4.203050229927963954e+01,2.399999999999999911e-01
3.132773262000000170e+00,-1.048570620000000009e+00,5.080989769275146006e-01,1.000000000000000048e-04,4.239367250175558866e+01,2.300000000000000100e-01
3.132934141999999866e+00,-1.046888051000000042e+00,5.192211923386675920e-01,1.000000000000000048e-04,4.252458461019968894e+01,2.200000000000000011e-01
3.134455274000000014e+00,-1.046257098000000108e+00,5.075009975014135311e-01,1.000000000000000048e-04,4.237397565117234421e+01,2.200000000000000011e-01
2.910504301000000016e+00,-1.063930792999999930e+00,5.177805998669906540e-01,1.000000000000000048e-04,4.250605476504528468e+01,2.399999999999999911e-01
2.301930878999999930e+00,-1.084305269999999988e+00,5.181859012892668925e-01,1.000000000000000048e-04,4.218144211511668118e+01,3.099999999999999978e-01
2.314913878000000036e+00,-1.104421796000000011e+00,4.976969169668499227e-01,1.000000000000000048e-04,4.231622190248117477e+01,2.600000000000000089e-01
1.232494258000000009e+00,-1.089556776000000005e+00,5.249695817713804225e-01,1.000000000000000048e-04,4.270483385667554188e+01,3.099999999999999978e-01
-3.138875270179586341e+00,-1.027091259999999950e+00,5.206816185286819998e-01,1.000000000000000048e-04,4.234895884933708032e+01,3.800000000000000044e-01
1.277748142000000087e+00,-1.105660628999999950e+00,5.107056106990832678e-01,1.000000000000000048e-04,4.283695874440792295e+01,2.500000000000000000e-01
2.339694710999999927e+00,-1.083680948999999893e+00,5.129867337105660230e-01,1.000000000000000048e-04,4.235802953456170883e+01,2.300000000000000100e-01
3.085408954000000037e+00,-1.045989441999999991e+00,4.962866761855977416e-01,1.000000000000000048e-04,4.247023871205345102e+01,2.800000000000000266e-01
3.122183823999999941e+00,-1.053540683000000033e+00,5.075980896279312926e-01,1.000000000000000048e-04,4.262897587388567189e+01,3.699999999999999956e-01
1.263417701000000060e+00,-1.099941301000000093e+00,5.256186072255113473e-01,1.000000000000000048e-04,4.233996293923858900e+01,2.200000000000000011e-01
1.238769020999999970e+00,-1.122513239999999968e+00,5.265718681622717501e-01,1.000000000000000048e-04,4.245673852654704916e+01,2.600000000000000089e-01
1.225778744000000087e+00,-1.107856694000000086e+00,5.048552444900902270e-01,1.000000000000000048e-04,4.194838154426269483e+01,2.500000000000000000e-01
2.356185176999999964e+00,-1.090954028000000076e+00,5.215369361336932297e-01,1.000000000000000048e-04,4.211508986629326046e+01,2.700000000000000178e-01
1.231078855000000027e+00,-1.109460918999999990e+00,5.218535368901986438e-01,1.000000000000000048e-04,4.238071930462146497e+01,2.300000000000000100e-01
2.350025410999999842e+00,-1.078254897999999962e+00,4.982031018092627495e-01,1.000000000000000048e-04,4.234431562126216875e+01,2.300000000000000100e-01
2.889344674999999807e+00,-1.054064458000000037e+00,5.180999920614375309e-01,1.000000000000000048e-04,4.225544554087962013e+01,3.200000000000000067e-01
1.260972444000000081e+00,-1.102168519999999985e+00,5.165323675792961033e-01,1.000000000000000048e-04,4.272368095906197283e+01,2.899999999999999800e-01
3.138597202000000141e+00,-1.049455424000000026e+00,5.177212822938555004e-01,1.000000000000000048e-04,4.163992894452809423e+01,2.600000000000000089e-01
1.280173519000000093e+00,-1.106045986000000036e+00,5.071167729263266200e-01,1.000000000000000048e-04,4.244655510833462131e+01,2.899999999999999800e-01
3.140421104000000074e+00,-1.048273016000000002e+00,5.057631321010060965e-01,1.000000000000000048e-04,4.179230283474684882e+01,2.700000000000000178e-01
2.887571490000000018e+00,-1.060290981000000077e+00,5.065483066291711634e-01,1.000000000000000048e-04,4.225184084445154298e+01,2.300000000000000100e-01
3.117377486000000086e+00,-1.048849812999999909e+00,5.104388765714027443e-01,1.000000000000000048e-04,4.293781479593019412e+01,2.800000000000000266e-01
3.139331405000000075e+00,-1.045946368000000071e+00,5.090379523837447184e-01,1.000000000000000048e-04,4.242059969866141955e+01,2.300000000000000100e-01
2.901812189000000153e+00,-1.070407117000000019e+00,5.219784262679429965e-01,1.000000000000000048e-04,4.220124251791206405e+01,2.200000000000000011e-01
2.874698792999999863e+00,-1.069280417999999955e+00,5.199374550456243860e-01,1.000000000000000048e-04,4.234824473843454484e+01,2.200000000000000011e-01
3.126790450000000110e+00,-1.053686536000000062e+00,5.129678529469876569e-01,1.000000000000000048e-04,4.209587538053911260e+01,2.099999999999999922e-01
1.253234667999999941e+00,-1.096167120000000050e+00,5.151018018388322517e-01,1.000000000000000048e-04,4.271084751353813402e+01,2.200000000000000011e-01
1.242189800000000011e+00,-1.095888138000000067e+00,5.029797870325602993e-01,1.000000000000000048e-04,4.243181140269211937e+01,2.899999999999999800e-01
2.358704259000000025e+00,-1.096119858000000002e+00,5.075571332985897577e-01,1.000000000000000048e-04,4.256509077316848533e+01,2.099999999999999922e-01
3.090657074000000115e+00,-1.046905049999999893e+00,4.955600949219891582e-01,1.000000000000000048e-04,4.213525525065714561e+01,2.300000000000000100e-01
2.350320292999999783e+00,-1.077642637000000070e+00,5.080853352178744675e-01,1.000000000000000048e-04,4.262775851352525791e+01,3.300000000000000155e-01
3.120911620999999858e+00,-1.047605429999999949e+00,5.142168416210992632e-01,1.000000000000000048e-04,4.197658503978782818e+01,2.899999999999999800e-01
2.310418793000000193e+00,-1.091478047999999923e+00,5.001439571960537567e-01,1.000000000000000048e-04,4.207276763383057983e+01,3.300000000000000155e-01
2.888242410000000149e+00,-1.055260810999999910e+00,4.980041195186781788e-01,1.000000000000000048e-04,4.279348642475073206e+01,2.999999999999999889e-01
2.313880778000000138e+00,-1.089056457000000089e+00,5.236331101344258165e-01,1.000000000000000048e-04,4.176920638485277948e+01,2.600000000000000089e-01
3.096505394999999883e+00,-1.050897790999999915e+00,4.958299096056248967e-01,1.000000000000000048e-04,4.213242480844428428e+01,3.300000000000000155e-01
1.264206060000000020e+00,-1.108314516000000083e+00,5.224250519035447127e-01,1.000000000000000048e-04,4.227307812415642019e+01,2.500000000000000000e-01
2.317080779999999951e+00,-1.080569537999999996e+00,5.033225290532163942e-01,1.000000000000000048e-04,4.262439488802470322e+01,2.399999999999999911e-01
2.308161032000000112e+00,-1.080284865999999955e+00,5.095218573929809480e-01,1.000000000000000048e-04,4.233643492344565828e+01,3.900000000000000133e-01
1.213089824000000094e+00,-1.095999417000000031e+00,5.098901409752194525e-01,1.000000000000000048e-04,4.256285570642938154e+01,2.700000000000000178e-01
3.095344697999999894e+00,-1.044259242999999948e+00,4.959502346668016592e-01,1.000000000000000048e-04,4.195547945656672795e+01,2.200000000000000011e-01
3.093500166000000107e+00,-1.047656949999999920e+00,4.945459007497832182e-01,1.000000000000000048e-04,4.229725527815973152e+01,2.300000000000000100e-01
2.871266652000000086e+00,-1.064917746999999970e+00,5.089796715423215989e-01,1.000000000000000048e-04,4.207723324207906757e+01,2.500000000000000000e-01
2.872879009000000039e+00,-1.076645507999999918e+00,5.049082337604229309e-01,1.000000000000000048e-04,4.228158221210149037e+01,2.099999999999999922e-01
1.241294699000000001e+00,-1.109043570000000090e+00,4.997050217617264867e-01,1.000000000000000048e-04,4.248398826436256570e+01,2.099999999999999922e-01
1.238788393000000099e+00,-1.083197141000000085e+00,5.068121821538853489e-01,1.000000000000000048e-04,4.220102845418340820e+01,2.999999999999999889e-01
-3.140928712179586135e+00,-1.049943351000000025e+00,4.985526869679741679e-01,1.000000000000000048e-04,4.233304090149656673e+01,2.200000000000000011e-01
2.897074545000000168e+00,-1.050668165000000043e+00,5.051048047787416451e-01,1.000000000000000048e-04,4.209451535134446942e+01,2.099999999999999922e-01
3.133488720999999977e+00,-1.053899826000000095e+00,5.112190632339712604e-01,1.000000000000000048e-04,4.257480749923761465e+01,2.300000000000000100e-01
2.854965548000000020e+00,-1.051119023000000041e+00,5.087419730679900720e-01,1.000000000000000048e-04,4.190077602006064694e+01,3.200000000000000067e-01
2.846666281000000076e+00,-1.061494909000000098e+00,4.986290200269538619e-01,1.000000000000000048e-04,4.201160437299547823e+01,2.600000000000000089e-01
1.477625364000000108e+00,-9.892628350000000070e-01,5.252748127261355204e-01,1.000000000000000048e-04,4.246362412539048847e+01,2.000000000000000111e-01
-2.998301261179586064e+00,-5.567642400000000213e-01,5.154387919060854362e-01,1.000000000000000048e-04,4.224071688628345100e+01,1.799999999999999933e-01
2.915910107000000195e+00,-9.248875840000000403e-01,5.068539643050851140e-01,1.000000000000000048e-04,4.239245616312167186e+01,2.999999999999999889e-01
2.904218159000000021e+00,-9.279150130000000107e-01,5.055486683171981355e-01,1.000000000000000048e-04,4.191632187972060564e+01,2.399999999999999911e-01
2.945746643000000109e+00,-9.241091030000000428e-01,5.065987305390831086e-01,1.000000000000000048e-04,4.200374772851466076e+01,2.300000000000000100e-01
2.195221751000000054e+00,9.567984520000000215e-01,5.052779196123575733e-01,1.000000000000000048e-04,4.217859911843671483e+01,2.200000000000000011e-01
-2.382074272179586227e+00,-9.504311730000000180e-01,5.152077933682908117e-01,1.000000000000000048e-04,4.261439986777448752e+01,2.300000000000000100e-01
2.197803225999999999e+00,9.560313849999999558e-01,5.035179991077911588e-01,1.000000000000000048e-04,4.280991088064004657e+01,2.300000000000000100e-01
-2.380846050179586282e+00,-9.512843520000000552e-01,4.945719991722687947e-01,1.000000000000000048e-04,4.213288131330387642e+01,2.600000000000000089e-01
-2.382960995179586039e+00,-9.501026420000000527e-01,4.931649502764057225e-01,1.000000000000000048e-04,4.222074616408186643e+01,2.099999999999999922e-01
2.192165822000000208e+00,9.554729659999999791e-01,4.973402856468120969e-01,1.000000000000000048e-04,4.238155023542555000e+01,2.899999999999999800e-01
-2.383512939179586176e+00,-9.505219620000000535e-01,5.087640479886161859e-01,1.000000000000000048e-04,4.239250986940559329e+01,2.000000000000000111e-01
2.197044292000000176e+00,9.582492320000000063e-01,5.004780785226801143e-01,1.000000000000000048e-04,4.235597995682335437e+01,2.500000000000000000e-01
2.198013217999999824e+00,9.570721989999999568e-01,5.136455453234278767e-01,1.000000000000000048e-04,4.212139377326629130e+01,2.099999999999999922e-01
2.198391541999999976e+00,9.561199929999999458e-01,5.084547705683717389e-01,1.000000000000000048e-04,4.232109498214812504e+01,2.300000000000000100e-01
2.199218732999999926e+00,9.570277640000000030e-01,4.961273442965747904e-01,1.000000000000000048e-04,4.214098387922064148e+01,2.200000000000000011e-01
2.196667974999999995e+00,9.569524729999999701e-01,5.075903496547744531e-01,1.000000000000000048e-04,4.247940048396242929e+01,2.399999999999999911e-01
2.196400267000000017e+00,9.571105250000000453e-01,4.986052490060470799e-01,1.000000000000000048e-04,4.234788587460285925e+01,2.500000000000000000e-01
2.195980999000000100e+00,9.563170869999999546e-01,5.188661391228341913e-01,1.000000000000000048e-04,4.279453248533798870e+01,2.200000000000000011e-01
2.198886345000000020e+00,9.574225640000000315e-01,5.072828167309431091e-01,1.000000000000000048e-04,4.184332304915053413e+01,3.300000000000000155e-01
-2.382942164179586264e+00,-9.487821469999999646e-01,5.137529404856753246e-01,1.000000000000000048e-04,4.253819871074337300e+01,2.000000000000000111e-01
2.197058621000000045e+00,9.568337070000000333e-01,4.945427659537811049e-01,1.000000000000000048e-04,4.244965254559610202e+01,2.600000000000000089e-01
2.196754174000000059e+00,9.569828230000000380e-01,4.927700513883221944e-01,1.000000000000000048e-04,4.232533467879925126e+01,2.399999999999999911e-01
-2.381905888179586039e+00,-9.494029419999999719e-01,4.991406610256357013e-01,1.000000000000000048e-04,4.214903520655659008e+01,2.399999999999999911e-01
-2.382353656179586388e+00,-9.501919130000000546e-01,5.162352189519086032e-01,1.000000000000000048e-04,4.192499121593912292e+01,2.600000000000000089e-01
-2.385313647179586383e+00,-9.492824659999999914e-01,4.944161876264443478e-01,1.000000000000000048e-04,4.208176837308398177e+01,2.399999999999999911e-01
-2.383308463179586223e+00,-9.502672559999999491e-01,4.974997443358479821e-01,1.000000000000000048e-04,4.248014826754571516e+01,2.000000000000000111e-01
2.194446376000000143e+00,9.548028840000000184e-01,5.115755515852520308e-01,1.000000000000000048e-04,4.292074320167293422e+01,3.699999999999999956e-01
-2.377678389179586294e+00,-9.493284189999999789e-01,5.024605653796134774e-01,1.000000000000000048e-04,4.249391145632802846e+01,3.099999999999999978e-01
2.195048706000000127e+00,9.553664520000000326e-01,5.002446872577190895e-01,1.000000000000000048e-04,4.252143312903574213e+01,2.399999999999999911e-01
2.194988459000000169e+00,9.569281090000000267e-01,5.155376263689728233e-01,1.000000000000000048e-04,4.247581951010526069e+01,2.099999999999999922e-01
2.198773670000000013e+00,9.585742720000000050e-01,5.081660546538528944e-01,1.000000000000000048e-04,4.203632813070727536e+01,2.800000000000000266e-01
2.196007632000000154e+00,9.574002940000000406e-01,5.030283082335678113e-01,1.000000000000000048e-04,4.239576654590146632e+01,2.800000000000000266e-01
2.193610842000000005e+00,9.569156829999999614e-01,5.093263998366179823e-01,1.000000000000000048e-04,4.234197967845148725e+01,2.099999999999999922e-01
2.194846306000000080e+00,9.574700699999999509e-01,4.999655116977337332e-01,1.000000000000000048e-04,4.225910831140558344e+01,2.300000000000000100e-01
-2.901318991795864832e-01,1.086903570000000041e+00,5.061949184626497455e-01,1.000000000000000048e-04,4.229825803475029034e+01,2.000000000000000111e-01
-2.914486071795865385e-01,1.085909494999999891e+00,5.205400526739900613e-01,1.000000000000000048e-04,4.242732243525748004e+01,1.000000000000000056e-01
-2.954610881795858290e-01,1.084462065999999947e+00,5.122906046047746020e-01,1.000000000000000048e-04,4.248487831592579056e+01,1.199999999999999956e-01
-3.403197011795864313e-01,1.090760651000000081e+00,5.016974450114060069e-01,1.000000000000000048e-04,4.227514606230682404e+01,8.999999999999999667e-02
-3.429455761795860980e-01,1.087892671000000089e+00,5.198736647730322069e-01,1.000000000000000048e-04,4.236844858010584147e+01,1.400000000000000133e-01
6.896152909999999636e-01,-9.249195220000000495e-01,5.080389616749780846e-01,1.000000000000000048e-04,4.251242009127737020e+01,2.000000000000000111e-01
1.024453132999999960e+00,1.182715689999999986e+00,5.185946943278019194e-01,1.000000000000000048e-04,4.253644050986677883e+01,1.900000000000000022e-01
1.006083177000000051e+00,1.165244638999999971e+00,4.977087676039058106e-01,1.000000000000000048e-04,4.222088514117315583e+01,1.700000000000000122e-01
9.905969959999999519e-01,1.153001898999999941e+00,5.214162289423291963e-01,1.000000000000000048e-04,4.278888217305249952e+01,3.499999999999999778e-01
2.950804928999999799e+00,-1.010655210999999998e+00,5.083881584888909622e-01,1.000000000000000048e-04,4.222013322747103103e+01,1.700000000000000122e-01
2.951637304000000128e+00,-1.010683065999999908e+00,5.165864195702170036e-01,1.000000000000000048e-04,4.237837378689593493e+01,1.900000000000000022e-01
-2.349248843179586377e+00,-9.322901449999999590e-01,5.026598329983822389e-01,1.000000000000000048e-04,4.230863945053975073e+01,1.900000000000000022e-01
