2.770921285362224928e+00,-4.080724759197453810e-01,1.638092594482216668e-01,1.000000000000000021e-03,3.971047560882291805e+01,1.427273119628688081e-01
2.143577476244331592e-01,-5.310859443106201727e-01,1.187301972766356517e+00,1.000000000000000021e-03,4.462779064082413782e+01,2.515882504356742322e-01
-1.335469851290474796e+00,7.116832771038308358e-01,4.294373278275935846e-01,1.000000000000000021e-03,4.207893765752685766e+01,1.096173333561590302e-01
2.506783680005470138e+00,-6.004432575160597585e-01,1.456716414286440830e-01,1.000000000000000021e-03,3.937017534166326271e+01,2.664806760431573385e-01
1.356465130168680311e+00,-6.681499105085445533e-01,7.009969915658993411e-01,1.000000000000000021e-03,4.306137645559153526e+01,1.519361787062583347e-01
8.709198883205324648e-01,-8.974841818787618886e-01,1.405354971960750543e-01,1.000000000000000021e-03,3.911070181731409434e+01,2.381236814201764806e-01
-1.777588560732759060e+00,-6.533668956289567786e-01,4.349890702404199949e-01,1.000000000000000021e-03,4.203664397253286467e+01,1.596619873559802227e-01
1.877164263426089441e+00,1.042152852062615764e+00,5.882887649033403665e-01,1.000000000000000021e-03,4.271468310865755313e+01,9.802537626301092988e-02
1.080029822584239518e+00,8.585873281990186179e-01,2.016737054820563202e-01,1.000000000000000021e-03,4.000147293331408349e+01,1.407435428751354911e-01
-3.107763698573637878e+00,6.365475819717780759e-01,4.928716350894741804e-01,1.000000000000000021e-03,4.236855097323536512e+01,1.390430798364981069e-01
6.105914220873396303e-01,-5.873871364668182826e-01,1.800719279131401951e-01,1.000000000000000021e-03,4.007285746115342562e+01,2.335921206859045141e-01
-3.135631591007318697e+00,-8.804365325103675755e-01,1.605450848076011017e-01,1.000000000000000021e-03,3.953451960449113045e+01,1.809810709536614770e-01
-1.814451605314588045e+00,-2.875294393912024571e-01,6.481137001667516273e-01,1.000000000000000021e-03,4.334964643302747334e+01,2.130079897579680581e-01
2.618105807799386398e+00,4.896581915712334698e-01,8.564547726265243632e-01,1.000000000000000021e-03,4.329798074602920366e+01,2.619986205536037893e-01
2.385626894438996892e+00,5.305559720220305309e-01,6.371778627077517854e-01,1.000000000000000021e-03,4.299969324169900631e+01,1.721695356501966034e-01
-1.706091261940206882e+00,4.543868649320406128e-01,1.738154097525470565e-01,1.000000000000000021e-03,3.926606882449587488e+01,1.739346359074948611e-01
1.461626797169857106e+00,-3.181205916904912279e-01,2.845687553779088219e-01,1.000000000000000021e-03,4.071321678901852437e+01,1.495577981083653363e-01
8.842401965789967733e-01,-6.616284034706050310e-01,5.651070530942992054e-01,1.000000000000000021e-03,4.268488236299424443e+01,2.727916509743155693e-01
-1.258410333873992704e+00,-3.506480470776449643e-01,6.409606391889277610e-01,1.000000000000000021e-03,4.285603653845133465e+01,1.294015405533688323e-01
-1.915247323424436710e+00,8.759809211094737869e-01,1.002713350966715211e+00,1.000000000000000021e-03,4.395488340772710956e+01,1.777317854150695098e-01
7.088707422652316126e-01,-1.280034318396239490e+00,3.266905597503406700e-01,1.000000000000000021e-03,4.107747979561543872e+01,3.796694116834696819e-01
6.962401581692612140e-01,6.955633353846764066e-01,4.560150893245811243e-01,1.000000000000000021e-03,4.191286926391160250e+01,1.908546110284719544e-01
1.965829045819685206e+00,5.366987714129733966e-01,2.595399356292782400e-01,1.000000000000000021e-03,4.029839338240622482e+01,2.341185460564381426e-01
1.662975327232289580e+00,1.163137832536424554e+00,4.498093241833807099e-01,1.000000000000000021e-03,4.182747375185892480e+01,1.240853371411637929e-01
1.798738817406733581e+00,8.115844380483236975e-01,5.437684113892300442e-01,1.000000000000000021e-03,4.314425246643759948e+01,2.867331493424681299e-01
1.330112245461825715e+00,2.935799481877749972e-01,3.541247183983358138e-01,1.000000000000000021e-03,4.134001474523058306e+01,1.827336499666731839e-01
4.125929057943316103e-01,9.966745978434228270e-01,1.540872398765371631e-01,1.000000000000000021e-03,3.916231988025298705e+01,1.475115396834255077e-01
-3.146830168349534773e-01,6.478932264077408298e-01,3.017872715097038583e-01,1.000000000000000021e-03,4.083477755423414379e+01,9.871973666366710976e-02
-3.130944580943825439e+00,-3.961122672876873363e-01,5.243519616446694620e-01,1.000000000000000021e-03,4.239844619568944495e+01,2.251207383273293172e-01
1.012250584561654954e+00,-8.951113019393311943e-01,3.328588645031616000e-01,1.000000000000000021e-03,4.110782337480582527e+01,1.259957235021345601e-01
1.861890792469006684e+00,4.997382071871139253e-01,9.437913601562974986e-01,1.000000000000000021e-03,4.399889735825675530e+01,1.936196105474179974e-01
2.243384090518571128e+00,9.645561741625048313e-01,8.871710098457226135e-01,1.000000000000000021e-03,4.368954589907205133e+01,1.315839934958753787e-01
7.718975990462215719e-01,4.161056606561470694e-01,6.056372789123909417e-01,1.000000000000000021e-03,4.294521655947139749e+01,2.414683718730757378e-01
-2.633122106881960800e+00,1.203426824203051027e+00,1.449659021484244192e-01,1.000000000000000021e-03,3.925519622977569156e+01,1.130980086668066376e-01
-7.862368681472382548e-01,-6.976472899125497618e-01,6.174304587465835326e-01,1.000000000000000021e-03,4.307773333208044164e+01,3.501882960313328352e-01
-7.070150973820354956e-01,7.228865861103250801e-01,2.585086487148733347e-01,1.000000000000000021e-03,4.043142000640791878e+01,2.425242988233246300e-01
-3.397344916223210554e-01,1.022038733333099803e+00,3.902329581093846311e-01,1.000000000000000021e-03,4.199065457846506177e+01,2.695109432416238349e-01
-2.187282705311190067e+00,-1.428502474687826762e+00,1.072403469630221373e+00,1.000000000000000021e-03,4.460240579291424723e+01,1.999138435179398376e-01
2.409162820695988749e+00,-1.281524423266860113e+00,1.714599488837367236e-01,1.000000000000000021e-03,3.959364082456021094e+01,1.683532060970388544e-01
2.677906913260903465e+00,-4.195223050705263468e-01,6.609891095354840651e-01,1.000000000000000021e-03,4.265883292674728011e+01,1.707705993326002480e-01
-2.562790384742654304e+00,-5.576087218513456900e-01,1.480316188736374716e-01,1.000000000000000021e-03,3.930117205897185073e+01,1.818033699187403540e-01
2.856738327334640282e-01,6.829793720116730249e-01,4.647726928257986945e-01,1.000000000000000021e-03,4.193470073551200272e+01,1.708561332210475070e-01
2.783936376148879788e+00,-1.317405816242673167e+00,6.943297681913480623e-01,1.000000000000000021e-03,4.324188208212554230e+01,1.811469989615074883e-01
-8.963677599681552088e-01,2.991992245616830193e-01,8.087698371278422282e-01,1.000000000000000021e-03,4.360164604328643634e+01,1.468121887064195441e-01
-3.398746895964572801e-01,1.091664301933441994e+00,5.316158809939131036e-01,1.000000000000000021e-03,4.230209115887930693e+01,1.766857718455509541e-01
1.327499756725067925e+00,-9.031461686989877835e-01,4.863233334946706066e-01,1.000000000000000021e-03,4.197648056118112692e+01,1.989615740305998859e-01
2.245319854508747603e+00,-1.225551507344613267e+00,3.579121206039803660e-01,1.000000000000000021e-03,4.167398878218981650e+01,1.898790115204740669e-01
1.533034849363104968e+00,3.248826829261708404e-01,2.383624296120443464e-01,1.000000000000000021e-03,4.061946140620090517e+01,1.520849632529488182e-01
-2.379386609060869517e+00,2.788339960821568653e-01,3.405063433767936409e-01,1.000000000000000021e-03,4.144373819733278452e+01,1.444488980918003096e-01
-2.436063633194435418e+00,3.721859160843434822e-01,2.072348961993060179e-01,1.000000000000000021e-03,4.008798626343613591e+01,1.048669575023651046e-01
2.592696517147884627e+00,-4.681097542711554205e-01,4.436234010501622915e-01,1.000000000000000021e-03,4.191047245278627287e+01,2.240234688958530895e-01
-3.096373100802956024e-01,3.218804625661193519e-01,5.516611443388277358e-01,1.000000000000000021e-03,4.245766627521049941e+01,2.572382212402216095e-01
-1.859778219756890616e+00,-6.210168967166161957e-01,1.053007386695822944e+00,1.000000000000000021e-03,4.410974002056198628e+01,1.926268739173923050e-01
1.946799574357562790e-01,5.189390792541015429e-01,6.698079319239644835e-01,1.000000000000000021e-03,4.317068241985396071e+01,1.245330684279582212e-01
-1.166239936539803956e+00,5.269896639064377553e-01,6.251833559432287135e-01,1.000000000000000021e-03,4.297180142946631065e+01,1.517171590261020830e-01
-1.072580782635879082e+00,9.173287929566744658e-01,2.299205083372823921e-01,1.000000000000000021e-03,4.033716346576792944e+01,1.080933149255493136e-01
-5.144646824620213721e-02,1.091750720778113859e+00,2.177573532653704902e-01,1.000000000000000021e-03,4.014918475961774647e+01,9.955867466445703085e-02
-1.849575082599699494e+00,3.693222240365310327e-01,2.575834886526737755e-01,1.000000000000000021e-03,4.014827765629109280e+01,2.841667616940625196e-01
-1.762884896117210776e+00,-7.605811948244389775e-01,1.716417732396382512e-01,1.000000000000000021e-03,3.940826480720981806e+01,1.419754427202137292e-01
-1.704142219876566555e+00,-9.819145214632649665e-01,2.691957416618462329e-01,1.000000000000000021e-03,4.068852410712804613e+01,1.579095822974238561e-01
-1.113496001579863393e+00,2.990545445368648636e-01,1.773243808355289275e-01,1.000000000000000021e-03,3.948064887178667703e+01,3.423343005554207452e-01
5.454116725868773941e-01,9.105183232237648028e-01,2.194037742239192124e-01,1.000000000000000021e-03,4.027377448895192913e+01,1.698207315633435965e-01
-1.055560580383052116e+00,8.597196673052485139e-01,1.627474142775393595e-01,1.000000000000000021e-03,3.921382184963602668e+01,1.760679896810090350e-01
-7.748265390262982777e-01,4.136315580265457204e-01,2.016301917216365425e-01,1.000000000000000021e-03,3.980497397222026024e+01,2.776423396983582759e-01
-4.856622847116613961e-01,-1.075480226222190527e+00,4.677654318619812734e-01,1.000000000000000021e-03,4.258535999790260007e+01,2.073086957967386068e-01
-1.669674369368960409e+00,1.288818261960352984e+00,1.205718138111544491e+00,1.000000000000000021e-03,4.484259634004598638e+01,1.837882356962102781e-01
-2.789256022936838164e+00,-6.540565004849414610e-01,9.473663383088495316e-01,1.000000000000000021e-03,4.380647163221373575e+01,2.122929746066916368e-01
-1.291461174091211861e+00,-7.829667432732141386e-01,6.714606806099163716e-01,1.000000000000000021e-03,4.316005472042197511e+01,2.022792620329034730e-01
2.561133868985088213e+00,9.142876529565686639e-01,1.913627215368789436e-01,1.000000000000000021e-03,3.969936587745204548e+01,1.295674540142031927e-01
-1.729470089614876915e+00,-5.844277489908795697e-01,2.679266926814718452e-01,1.000000000000000021e-03,4.066326290271324240e+01,1.113093039353938302e-01
-4.796425537240822656e-01,-9.642025977416619487e-01,6.200507696698249749e-01,1.000000000000000021e-03,4.273442994831673047e+01,1.382908507784949559e-01
1.862005162282727611e+00,9.310195158379488412e-01,9.323544816838764682e-01,1.000000000000000021e-03,4.401704914087319764e+01,2.235157079685764214e-01
1.012754943497450100e+00,3.942310408168352431e-01,8.167650620376845083e-01,1.000000000000000021e-03,4.350035150526347394e+01,2.707646027331275240e-01
-2.214320105715630760e+00,5.677320356825648062e-01,4.442148313292626494e-01,1.000000000000000021e-03,4.176762453904101591e+01,2.113858953673749541e-01
2.781575823709965256e+00,-7.823087437926927734e-01,1.076115601100411379e+00,1.000000000000000021e-03,4.446950556233333174e+01,1.575090686625522374e-01
-1.695517044535730600e+00,-3.965844306610513126e-01,2.904987773344602786e-01,1.000000000000000021e-03,4.097022994363918258e+01,1.732812612590481083e-01
3.207641343967377878e-01,3.743497850455677067e-01,2.430504797857173660e-01,1.000000000000000021e-03,4.049244510995188762e+01,1.178210472441505036e-01
-4.334741444966887514e-01,3.303699303627867234e-01,4.852290827304202026e-01,1.000000000000000021e-03,4.182416627092823802e+01,2.772620066825504104e-01
9.869508687716050943e-01,-3.577501034423842263e-01,6.410698959154657040e-01,1.000000000000000021e-03,4.293223288833559081e+01,1.560690459091498838e-01
2.672805477224589055e+00,-6.470488900153000822e-01,5.486328143330956308e-01,1.000000000000000021e-03,4.273183611784370584e+01,2.239487753299625461e-01
1.902397529578867541e+00,-5.291022965766749575e-01,2.238652513960073254e-01,1.000000000000000021e-03,4.061156627369815908e+01,1.936675034807154583e-01
3.412569997304037983e-01,-1.062960809250033112e+00,7.796869986035424027e-01,1.000000000000000021e-03,4.373446415111342844e+01,1.723945663173518383e-01
-2.622242005011806043e+00,-1.156279888631462693e+00,2.031365764277204278e-01,1.000000000000000021e-03,4.015482425147234125e+01,2.071690472109622982e-01
-3.189493138590560051e-02,5.485056566952040136e-01,1.660495944116711087e-01,1.000000000000000021e-03,3.971807949211711275e+01,1.835876038246923858e-01
-9.153398608861431640e-01,-3.276106110696730411e-01,7.461070291342359884e-01,1.000000000000000021e-03,4.343649917823695716e+01,1.436568196711545398e-01
-2.953615527111789874e+00,-2.931372294567651249e-01,3.616400900441958388e-01,1.000000000000000021e-03,4.148453307115762811e+01,2.045259760997202581e-01
1.310043632089311849e+00,5.046653128746649841e-01,5.247423986821198039e-01,1.000000000000000021e-03,4.224460914622599716e+01,1.377522528560349846e-01
-3.117893790771235629e+00,1.057723635085732194e+00,4.420347019791344145e-01,1.000000000000000021e-03,4.181942537681768357e+01,1.253765107017637270e-01
-7.978420563920587405e-01,4.410280354712012851e-01,9.654661138783522389e-01,1.000000000000000021e-03,4.391990657567788503e+01,2.212504772904266559e-01
2.998656368363678659e+00,1.243359026211898755e+00,2.599900039592235590e-01,1.000000000000000021e-03,4.076014575380830962e+01,1.140320891134307818e-01
4.541934901840143368e-01,4.495671540530441490e-01,7.428400494828439893e-01,1.000000000000000021e-03,4.333069156853000692e+01,1.010314342792388298e-01
1.268677200315956100e+00,6.252837467221246115e-01,5.564202566760911850e-01,1.000000000000000021e-03,4.245402913134490319e+01,2.108635124162406282e-01
-9.271019028200999657e-02,2.748489796361421877e-01,4.736571953469521645e-01,1.000000000000000021e-03,4.214588795977330449e+01,2.245549928538494167e-01
1.042513010484626967e-01,-6.933228112170318758e-01,6.786568335525178242e-01,1.000000000000000021e-03,4.308097125451465104e+01,1.755956020444139620e-01
1.304982145479326228e+00,3.880654552143973923e-01,2.407722805387373377e-01,1.000000000000000021e-03,4.046969671916619404e+01,1.350243492887462371e-01
-3.046537247108220381e+00,-1.140629043059785186e+00,3.559298398173333933e-01,1.000000000000000021e-03,4.127449386806431875e+01,1.617606979063074268e-01
-8.351738715304821703e-01,-3.338754933993504093e-01,1.191077821727585473e+00,1.000000000000000021e-03,4.444626318853430291e+01,2.699944432921539961e-01
2.683932224378606790e+00,-7.838882243361512403e-01,6.328476118154544583e-01,1.000000000000000021e-03,4.307465311019128507e+01,2.155093929765085625e-01
1.889777308689433610e+00,-1.157998906847645060e+00,3.241397712213673898e-01,1.000000000000000021e-03,4.135484791485209399e+01,1.652784859926987315e-01
2.199446426002936938e+00,-6.493039684463366434e-01,5.529802876097642539e-01,1.000000000000000021e-03,4.210845614591824670e+01,1.818594017116747230e-01
2.684521636046054205e+00,-6.161769054194891071e-01,2.339556577868182607e-01,1.000000000000000021e-03,4.038427418400797819e+01,1.315310891784655656e-01
2.410887672559432815e+00,2.819969833796558412e-01,2.763565720338818643e-01,1.000000000000000021e-03,4.071528204396862094e+01,1.472751855250734321e-01
2.800387965844638671e+00,6.259797898281220796e-01,1.640765275604267881e-01,1.000000000000000021e-03,3.956775851167285651e+01,1.590504716810952901e-01
2.174737110078151403e+00,-5.154417013180496721e-01,5.437089762135995930e-01,1.000000000000000021e-03,4.245228514871883618e+01,1.859156751772468863e-01
-1.082681103122658417e+00,-5.775974918157342763e-01,2.401590555202974819e-01,1.000000000000000021e-03,4.033644428259998449e+01,2.076392058504326066e-01
3.020108454090043359e+00,-3.004138822216331217e-01,2.351134741965366093e-01,1.000000000000000021e-03,3.979853719375944365e+01,3.596083357271685488e-01
-3.697418432670254163e-01,3.625243745518189620e-01,2.613121441820427382e-01,1.000000000000000021e-03,4.059224435844517842e+01,1.007069092141523042e-01
2.543844592190679599e+00,1.003474354618442366e+00,2.638028367035760713e-01,1.000000000000000021e-03,4.058427684164309568e+01,1.228000422292659100e-01
-2.217367763056034669e+00,9.956335044541688717e-01,2.501366908497753005e-01,1.000000000000000021e-03,4.043839262411309221e+01,9.646182439450637358e-02
3.012315659921658728e+00,-5.531626107355904765e-01,4.358478333618402978e-01,1.000000000000000021e-03,4.211750479720608809e+01,2.647738209864136105e-01
-1.646279545671074374e-01,-9.160973820768719689e-01,7.644407091808473886e-01,1.000000000000000021e-03,4.370910524364389005e+01,2.234093450580285634e-01
-9.925892940874709858e-01,6.689383193530367144e-01,6.007875980520418491e-01,1.000000000000000021e-03,4.283213791962453598e+01,1.763737632328738481e-01
-1.390411645156964804e+00,8.885339005588708261e-01,4.155919879365053138e-01,1.000000000000000021e-03,4.179846762349403377e+01,1.946067081310848823e-01
9.145040519739664475e-01,-7.253562432019071693e-01,2.722473832707201780e-01,1.000000000000000021e-03,4.084560841685802757e+01,3.632041870834827879e-01
2.421576579439019383e+00,3.033914233864791754e-01,4.351803426883849024e-01,1.000000000000000021e-03,4.197845982445181079e+01,1.618364153459505017e-01
-2.349628146672532836e+00,6.979364362304809610e-01,8.859238621565674876e-01,1.000000000000000021e-03,4.362893441623401003e+01,2.476933928298340470e-01
1.331572936256932849e+00,5.451557003125468981e-01,4.677234755156771673e-01,1.000000000000000021e-03,4.189687508042896269e+01,2.607020335615958251e-01
-1.700401547097132982e+00,6.321026528632653907e-01,1.162487120464600565e+00,1.000000000000000021e-03,4.437941342493975583e+01,1.437780087931183337e-01
-2.484559802831011410e+00,-3.939742170756963535e-01,3.838294700264519577e-01,1.000000000000000021e-03,4.153746353266912195e+01,9.940903688037792951e-02
-1.179961126424616813e+00,4.701665196263657975e-01,4.236920422706835776e-01,1.000000000000000021e-03,4.178571150891460917e+01,1.796618868876041497e-01
-1.529698694808763193e-01,-3.371820202421793589e-01,6.660743402131419355e-01,1.000000000000000021e-03,4.273677786970571901e+01,1.299154931014614989e-01
8.697046472832301589e-01,-3.694399499259306552e-01,5.402411899547918672e-01,1.000000000000000021e-03,4.240691810184387833e+01,3.042242954151754830e-01
9.013104761406198762e-01,5.809486093435451970e-01,1.612376558238830526e-01,1.000000000000000021e-03,3.929871611120866248e+01,1.454791035837471047e-01
2.286271229979837116e+00,-6.396765613922086313e-01,1.885375405342100130e-01,1.000000000000000021e-03,4.012351063047066901e+01,1.838386752479436725e-01
1.796248680496060679e+00,9.613815212077412298e-01,3.549878374734682929e-01,1.000000000000000021e-03,4.101004849310096745e+01,1.681983142391982045e-01
2.095267282899722971e+00,2.992455494825174700e-01,7.301188620998999568e-01,1.000000000000000021e-03,4.324922510736173109e+01,1.127924087295310712e-01
-2.457037955039780286e+00,-4.399194797328871420e-01,2.651117692398281545e-01,1.000000000000000021e-03,4.085686057118422809e+01,2.220209964623873766e-01
-4.547540215516119311e-01,-9.085040343242269945e-01,2.032478613698645020e-01,1.000000000000000021e-03,3.985157869425093935e+01,2.210527841640589630e-01
2.141439507859181468e+00,5.016959473983577666e-01,1.512566105915016390e-01,1.000000000000000021e-03,3.902216776954091415e+01,2.694016467963737393e-01
-1.297176964962649892e+00,1.157991938192403314e+00,6.133751729703149635e-01,1.000000000000000021e-03,4.258775500251784507e+01,2.083078697380928157e-01
2.691326720638398839e+00,-6.897689035697395221e-01,7.862145006295511163e-01,1.000000000000000021e-03,4.363248400777307978e+01,2.032720392053310454e-01
2.822938881389654320e+00,7.104971294419764050e-01,9.744412298371492032e-01,1.000000000000000021e-03,4.394745065201406220e+01,1.297993638944811290e-01
-2.144364247968190362e+00,-5.150094914839680182e-01,8.504453161676093220e-01,1.000000000000000021e-03,4.339351289823379432e+01,1.272270732527435444e-01
-4.219987649089773640e-01,6.253726966912998009e-01,3.177431259732912405e-01,1.000000000000000021e-03,4.106508054331902713e+01,1.223255335461102128e-01
-2.962230123222594269e+00,-3.360910338285334475e-01,6.222941177568623861e-01,1.000000000000000021e-03,4.320544750035496406e+01,2.436314556040336810e-01
-2.458208866802755299e+00,-1.040205602859865852e+00,3.139913819895989722e-01,1.000000000000000021e-03,4.064491307276802701e+01,3.422227698087955128e-01
-2.613248572541612802e+00,-8.067996798761108979e-01,3.347723687744621479e-01,1.000000000000000021e-03,4.188384025108546638e+01,2.471426356673374902e-01
1.067675824664437556e+00,8.982068952302224574e-01,5.512760773438805106e-01,1.000000000000000021e-03,4.273328351496921584e+01,1.597184433265690928e-01
-2.111834735595419232e+00,8.856184130249760145e-01,6.474226520834185372e-01,1.000000000000000021e-03,4.293273654457755839e+01,1.957512309459747690e-01
-2.683245137669503677e+00,1.462712277422924867e+00,2.651127719154242612e-01,1.000000000000000021e-03,4.075061799411275132e+01,1.496407019685672135e-01
1.873091101996723573e+00,6.101140452002700165e-01,8.801901076404312629e-01,1.000000000000000021e-03,4.365184642257526804e+01,1.450131467095510385e-01
4.178632182449066867e-01,6.882179051542816062e-01,2.649664075889963666e-01,1.000000000000000021e-03,4.065668619115552218e+01,2.684660119608829887e-01
2.086602979003545855e+00,7.710522698819524123e-01,3.796580152920789875e-01,1.000000000000000021e-03,4.151666233273915907e+01,2.362627769495652952e-01
-1.685456647918849971e+00,4.041529379704260627e-01,5.310864924417806332e-01,1.000000000000000021e-03,4.236439458207458841e+01,2.020062692960334916e-01
1.780741126841358657e-01,6.944934581991941691e-01,1.143474110219582673e+00,1.000000000000000021e-03,4.439141639753518831e+01,2.143952811318597662e-01
2.046698561613588652e+00,7.994667082306841088e-01,2.446288513044978519e-01,1.000000000000000021e-03,4.066839841679810519e+01,1.207763651062210286e-01
7.581468453062423229e-01,3.998802643843031301e-01,7.986206470821233250e-01,1.000000000000000021e-03,4.354146273349650897e+01,2.485468648617462362e-01
1.448858296992338701e+00,5.703866893182709674e-01,6.965714508367710778e-01,1.000000000000000021e-03,4.340937884928599289e+01,2.223842607807417215e-01
-1.997459114028174554e+00,4.108412781376231671e-01,2.030508472468470771e-01,1.000000000000000021e-03,3.979507686335095684e+01,2.206171871645136728e-01
-3.027256612743829400e+00,5.087990325516993373e-01,1.438194554327894004e-01,1.000000000000000021e-03,3.915854816202210031e+01,1.125929669856915449e-01
5.783105607891285693e-01,4.924416671313287530e-01,2.495019582273994008e-01,1.000000000000000021e-03,4.103236309195816034e+01,1.867115242184310409e-01
3.115328610427328115e+00,7.733412999676922972e-01,2.280286149466206336e-01,1.000000000000000021e-03,4.053842425948555217e+01,1.547348528338621798e-01
-5.255918112917643548e-01,-8.159147594445455010e-01,6.436065566265940507e-01,1.000000000000000021e-03,4.300402792799443574e+01,1.704136051939790508e-01
-8.777626095356922953e-01,-5.036441543679635036e-01,7.042075630496915650e-01,1.000000000000000021e-03,4.331933842832781068e+01,9.638198152660817919e-02
-2.598849126622906347e+00,-1.476072959904831894e+00,1.612744115795570199e-01,1.000000000000000021e-03,3.946705498878964846e+01,1.255125985394525412e-01
-1.035762944520976170e+00,3.057431562583416973e-01,2.225721781896219387e-01,1.000000000000000021e-03,4.009904705526403035e+01,3.770755334670369274e-01
-1.615303674629039454e+00,-8.605094440720600923e-01,1.784537853508556537e-01,1.000000000000000021e-03,3.971494636735205574e+01,1.612358569340419101e-01
-2.612551323134433723e+00,-2.833819300585960210e-01,1.990007621370111224e-01,1.000000000000000021e-03,4.030236550242959481e+01,2.554744354458003963e-01
6.380536036822790358e-01,-8.563008460937427957e-01,1.436670077382311561e-01,1.000000000000000021e-03,3.916727119764201603e+01,1.402886777315774658e-01
2.407702959637879836e+00,-6.957900263783857175e-01,1.609984561857624730e-01,1.000000000000000021e-03,3.942080876241306697e+01,1.364914570298180752e-01
2.939427709965745095e-01,3.794354748623485207e-01,1.518896759170658139e-01,1.000000000000000021e-03,3.923294487270562314e+01,2.260691265002612027e-01
7.651227786495504724e-01,-7.590539474007623744e-01,3.978657357836055120e-01,1.000000000000000021e-03,4.191767635998014185e+01,2.129598314819596550e-01
2.363668000622279664e+00,9.818850527153974994e-01,1.700293410794657678e-01,1.000000000000000021e-03,3.950653493908775715e+01,1.330873687696810526e-01
-1.576315985193454949e-01,3.228680148474318834e-01,6.650558155418093698e-01,1.000000000000000021e-03,4.302702176858657168e+01,2.477893466922968524e-01
7.314291967502493108e-01,7.153080861435663351e-01,7.321898979953107567e-01,1.000000000000000021e-03,4.358487410803838458e+01,1.760609949800706064e-01
1.736822976626272386e+00,-5.087798071022764379e-01,2.493789140452014053e-01,1.000000000000000021e-03,4.052589572990454769e+01,2.187639753137756993e-01
1.869492743748402575e+00,-9.111460072047951053e-01,1.665642212389948362e-01,1.000000000000000021e-03,3.959240174566512138e+01,2.469684548660509571e-01
5.263132342502263583e-02,-7.955002547815550606e-01,7.247785847058505482e-01,1.000000000000000021e-03,4.322626053142846558e+01,1.507607184106955489e-01
-9.496592187670263030e-01,9.955485272842805600e-01,2.743487796783363741e-01,1.000000000000000021e-03,4.087730197489085526e+01,1.954877299450399342e-01
-1.391996095538024614e+00,-7.710221457171990700e-01,1.598644137091571604e-01,1.000000000000000021e-03,3.952186030828259078e+01,1.211635485778361498e-01
-2.692107539450791620e+00,-4.991858300752520794e-01,3.546509868730634008e-01,1.000000000000000021e-03,4.138599246511736851e+01,1.707003623923558921e-01
2.053722840311942299e+00,2.629742429537702542e-01,3.152742248906812428e-01,1.000000000000000021e-03,4.125223604938837241e+01,1.230402254446615606e-01
-1.070259006083733588e-01,1.095602038688114011e+00,3.510772373212411868e-01,1.000000000000000021e-03,4.118994848919271590e+01,1.360790163542668352e-01
-9.981586055061244522e-01,6.139302291063692962e-01,3.698757283410414320e-01,1.000000000000000021e-03,4.140186084744861716e+01,1.104457194033696410e-01
2.419877320974079815e+00,4.637483610796500066e-01,1.174465650584884724e+00,1.000000000000000021e-03,4.435060473540843162e+01,1.573776461718937314e-01
1.984963667505177831e+00,1.080149945061407379e+00,2.461864571306560112e-01,1.000000000000000021e-03,4.047769082588946787e+01,2.400467183681215810e-01
-1.433231667226854800e+00,6.664104452417505264e-01,1.957146745030007295e-01,1.000000000000000021e-03,3.966037918498052761e+01,2.028263264548106626e-01
2.162946167957394472e+00,9.363559285352471839e-01,5.378105611956769394e-01,1.000000000000000021e-03,4.227589395313066234e+01,9.634639503994803233e-02
2.327956348953729382e+00,-1.118394475188996484e+00,2.510457499481353327e-01,1.000000000000000021e-03,4.073540150039562491e+01,1.617575424021634456e-01
8.705821242870737109e-02,-6.607338372493921641e-01,3.537570892600885308e-01,1.000000000000000021e-03,4.172787474093782834e+01,2.131774968380762414e-01
3.002897973813199783e+00,1.056081076946230102e+00,3.561451795380892182e-01,1.000000000000000021e-03,4.155842541211540464e+01,1.016894887874239262e-01
-9.060232082736345838e-01,-6.837339892490861271e-01,6.840772547862570274e-01,1.000000000000000021e-03,4.332112513917737573e+01,2.774856196686484311e-01
-2.540400023337322288e+00,3.301757762359898152e-01,2.019997952453083112e-01,1.000000000000000021e-03,4.017881931738405399e+01,2.225177838866894964e-01
1.979560128005806163e+00,-3.646674888320238228e-01,8.510581334037261581e-01,1.000000000000000021e-03,4.365275165755680575e+01,1.861922465593681131e-01
-1.797317819425897856e+00,-6.457002025043433457e-01,6.863062378074200609e-01,1.000000000000000021e-03,4.332777058772053635e+01,1.241853775047025848e-01
-2.218101156794118456e+00,-5.025673783634541092e-01,5.962688713809238816e-01,1.000000000000000021e-03,4.301918619113291697e+01,1.734095834183706220e-01
1.069273026577620023e+00,4.294612608784262875e-01,7.983241538100320778e-01,1.000000000000000021e-03,4.334126731470258420e+01,1.270750416846949948e-01
3.132278407812930432e+00,-4.507845766550948596e-01,5.326007035947362134e-01,1.000000000000000021e-03,4.233456685915800932e+01,3.743245731916958197e-01
-1.477731107758769591e+00,5.447950634541807169e-01,2.403700278326179607e-01,1.000000000000000021e-03,4.036023403672275123e+01,1.449109787394705084e-01
-7.264854468613206606e-01,-2.863247695156765360e-01,2.627590509866901680e-01,1.000000000000000021e-03,4.045339784314965925e+01,1.830465500416040281e-01
2.679907076613879724e+00,-8.393441242611270336e-01,2.331528384734162795e-01,1.000000000000000021e-03,4.050379906351711412e+01,2.058174865259684294e-01
-1.234265461011232246e+00,3.632467880811109939e-01,3.779165792154743908e-01,1.000000000000000021e-03,4.133216641173755335e+01,2.808871952007876427e-01
-1.707493085549178780e-01,3.924136587098578932e-01,3.240366465680952768e-01,1.000000000000000021e-03,4.149764958863890030e+01,2.405931140264454260e-01
1.928100540511092476e+00,1.330468429688453469e+00,4.668242101957846835e-01,1.000000000000000021e-03,4.198786986277094258e+01,1.437937564913140953e-01
-2.718839271238771005e+00,8.176553838671249963e-01,3.772045832149919509e-01,1.000000000000000021e-03,4.167107631831409265e+01,2.295018041802211195e-01
2.058413482732191824e+00,8.566877511891251018e-01,1.583975385938165559e-01,1.000000000000000021e-03,3.932135269294998636e+01,1.240312844292978112e-01
-1.264966835794250954e+00,8.437778794512098557e-01,6.552234857270142765e-01,1.000000000000000021e-03,4.289158532411831715e+01,2.091193344934708098e-01
-2.932005418652070983e+00,-5.570237426215913779e-01,5.118156002757932033e-01,1.000000000000000021e-03,4.191983264305575574e+01,2.804556344054754957e-01
-1.520799951985483345e+00,-6.289766597132208092e-01,2.141048682836199646e-01,1.000000000000000021e-03,3.970230991272613608e+01,1.732280744767550063e-01
2.568609897665672825e+00,-9.789105740454696614e-01,8.337801616496727242e-01,1.000000000000000021e-03,4.341918021230095803e+01,3.174718410629743248e-01
-2.213916905202128582e+00,1.225579294436765831e+00,6.519521626990085750e-01,1.000000000000000021e-03,4.277360555970363976e+01,2.544757691291079094e-01
-2.738551876443127142e+00,1.022498852658642932e+00,5.993916096383418157e-01,1.000000000000000021e-03,4.284512149594222308e+01,2.022242660602611986e-01
-2.532631989946180440e+00,3.853444333871389738e-01,2.449768084997119288e-01,1.000000000000000021e-03,4.041973423284761679e+01,1.789738462822043352e-01
2.823923329646162550e+00,3.559630997846419120e-01,2.333850744699805801e-01,1.000000000000000021e-03,4.049955760659734949e+01,1.323200474632199863e-01
2.056314328834581318e+00,5.507217308519729571e-01,4.229396430870659973e-01,1.000000000000000021e-03,4.184383906680993448e+01,1.077267818914130065e-01
-2.668564420895585876e+00,7.723715280138079287e-01,1.191477337222030197e+00,1.000000000000000021e-03,4.454675222399828272e+01,1.366903114027308852e-01
-9.251127686807638639e-01,-1.335889208460817823e+00,6.974957199577125344e-01,1.000000000000000021e-03,4.345636617975763016e+01,3.262262327320025190e-01
-2.326389041766656618e-01,-4.937182352846407607e-01,1.239688603538330547e+00,1.000000000000000021e-03,4.471171340500573876e+01,1.600169478502659337e-01
1.578112188325929921e+00,2.998746530620768347e-01,3.770634967992325670e-01,1.000000000000000021e-03,4.178105798126659209e+01,1.587479246658517196e-01
-6.335820317758225073e-01,1.131355373799119768e+00,3.286164618992200026e-01,1.000000000000000021e-03,4.122614942112218017e+01,1.970640855725849794e-01
2.063191492623083434e+00,-5.771729574272201901e-01,1.133491901857331285e+00,1.000000000000000021e-03,4.466024029272951879e+01,1.502539078237579429e-01
5.640028933972236480e-01,-6.324448492996164184e-01,1.841118486515271879e-01,1.000000000000000021e-03,3.954213507330126021e+01,1.634373179278575949e-01
6.475640767506174456e-03,-1.217257040263499679e+00,2.411473705174589366e-01,1.000000000000000021e-03,4.038415070392640871e+01,1.002443416801124393e-01
-2.785444040880222794e+00,-5.077636973479251470e-01,1.115844098262192219e+00,1.000000000000000021e-03,4.470168125313618646e+01,2.295449274019244201e-01
-1.282725430227824370e+00,-7.976398054953863781e-01,2.071781389719278277e-01,1.000000000000000021e-03,4.007785108389436601e+01,1.502372277296400438e-01
1.368517777161244453e+00,1.157466872990015716e+00,4.892006358315084125e-01,1.000000000000000021e-03,4.193055916511860914e+01,3.196698211560970448e-01
2.343072326067698441e+00,4.771548755995649316e-01,6.367226552752867086e-01,1.000000000000000021e-03,4.297471861518498315e+01,1.794740891711060771e-01
1.403154975215849198e+00,-3.151772824117289318e-01,2.372090748216200140e-01,1.000000000000000021e-03,4.099450294771919800e+01,3.537588515337469208e-01
-1.029999930356685578e+00,1.019991872826406798e+00,2.348586062487703074e-01,1.000000000000000021e-03,4.021660657686261686e+01,2.152544229125041841e-01
-1.336649164231748843e+00,6.707693984664837572e-01,2.677467054686701875e-01,1.000000000000000021e-03,4.055022847266815234e+01,1.200499428876234537e-01
-1.553872010937764614e+00,3.629248132113374048e-01,7.342945306254200499e-01,1.000000000000000021e-03,4.354380568096711102e+01,3.582021849517122991e-01
-1.763609456182353208e+00,-8.798547801963252368e-01,2.409569982060915105e-01,1.000000000000000021e-03,4.024790691103083162e+01,1.703780845900957075e-01
-2.905215169026872601e+00,-8.412165458595106671e-01,2.225522822439622850e-01,1.000000000000000021e-03,4.035122958560914697e+01,2.017058032486473695e-01
4.967640872898040350e-01,3.697777611454240443e-01,6.138983653133702756e-01,1.000000000000000021e-03,4.306436142832039593e+01,2.156990237426784918e-01
1.252513353459132617e+00,-9.942677643503535778e-01,2.864400232319657125e-01,1.000000000000000021e-03,4.098753013024434466e+01,1.002278779553501808e-01
-2.855328395760942328e+00,1.287824733406349953e+00,4.374562960339181128e-01,1.000000000000000021e-03,4.208329477586957523e+01,1.477745295845156459e-01
3.105464905153204391e+00,-5.104461401145092836e-01,3.565312422135737958e-01,1.000000000000000021e-03,4.128277058282165513e+01,2.653359540597741151e-01
1.988350907623595454e+00,4.199163902930780345e-01,9.634419007091452603e-01,1.000000000000000021e-03,4.382564116241345431e+01,1.922316411556342364e-01
9.101973522074100487e-01,-1.278318691248894634e+00,4.204564128405392509e-01,1.000000000000000021e-03,4.177078377527185893e+01,1.366699026072233647e-01
2.479220732886323830e+00,-4.094316730153435557e-01,3.889753513596621026e-01,1.000000000000000021e-03,4.147978139980584444e+01,2.215252778117350330e-01
2.033370476520186543e+00,-8.312106834866587191e-01,1.584947865213361951e-01,1.000000000000000021e-03,3.973289354440245091e+01,2.561071756117106468e-01
7.556135537399084612e-01,-1.451215926484641372e+00,5.151461126444001337e-01,1.000000000000000021e-03,4.237262694147787556e+01,1.917415290981967502e-01
-2.273203370894340658e+00,3.260529042084892026e-01,5.363472551237529196e-01,1.000000000000000021e-03,4.220442152425833626e+01,2.782291869016244590e-01
-9.335778641142220557e-01,3.900687014141299702e-01,2.401803739991417164e-01,1.000000000000000021e-03,4.005390718657987748e+01,1.537790514553355470e-01
8.020705461649342283e-01,-6.629914646043314486e-01,1.891170259004248955e-01,1.000000000000000021e-03,3.949786497205199964e+01,1.843624594770765235e-01
2.675556179471874074e+00,-1.083617267746682433e+00,2.538268833473813491e-01,1.000000000000000021e-03,4.024297440802341441e+01,2.220739643601345459e-01
1.513722481770769512e+00,6.204987324954074346e-01,3.179810762240669053e-01,1.000000000000000021e-03,4.148862626462297243e+01,2.525415794258263902e-01
7.390891418151501746e-01,-6.677237253007596296e-01,5.102050653163059390e-01,1.000000000000000021e-03,4.262865522805019936e+01,2.128420089825850126e-01
1.946721393987942861e+00,4.971506176197086901e-01,4.721897868186621938e-01,1.000000000000000021e-03,4.194359434404336184e+01,1.489897446234248468e-01
-3.672370584407351757e-01,4.608012872246445291e-01,2.123171800196488324e-01,1.000000000000000021e-03,4.005105577187374166e+01,2.789111182356974750e-01
-1.986647362949283790e+00,-4.628892386226994837e-01,2.884100889540868184e-01,1.000000000000000021e-03,4.089138057142883298e+01,1.631034787619382309e-01
2.572480744696838961e+00,3.454955002724757751e-01,5.808186592003516946e-01,1.000000000000000021e-03,4.256732459552517156e+01,1.005732018243698650e-01
-3.061436577135487447e+00,5.879638913744003048e-01,1.252441234061059117e+00,1.000000000000000021e-03,4.457202338242769457e+01,1.209374387234846832e-01
-2.307748666773674184e+00,8.420117747352247051e-01,4.933278518376820188e-01,1.000000000000000021e-03,4.174810168128217924e+01,2.231577545142355290e-01
-1.292951576965404303e+00,4.457679342480260765e-01,9.301975710688064058e-01,1.000000000000000021e-03,4.386745094813866785e+01,1.572827751890007730e-01
2.940819148676160566e+00,-3.000370224100410432e-01,9.216644374161031550e-01,1.000000000000000021e-03,4.402358867347892613e+01,2.629397206502385731e-01
2.170039486860313005e+00,9.437107970761138276e-01,8.580778589728068617e-01,1.000000000000000021e-03,4.387796290354130946e+01,1.867060126785166640e-01
1.577523957637837704e+00,4.748662238022967053e-01,5.611770601165855243e-01,1.000000000000000021e-03,4.266118432244355319e+01,1.779423215127215185e-01
-2.448062341767162753e+00,-8.981042536019262501e-01,6.340356014642511973e-01,1.000000000000000021e-03,4.281119507126365420e+01,1.010157972408702309e-01
2.537360066609995357e+00,-7.037711932207815213e-01,1.558632379211295493e-01,1.000000000000000021e-03,3.923509095123054635e+01,1.448335711316832697e-01
-1.412205885549091766e+00,-2.684732473947215592e-01,2.993102252649553208e-01,1.000000000000000021e-03,4.068847976491716167e+01,1.657739805465587024e-01
-2.730054923991520610e-01,2.828263737815448486e-01,4.787781671315800569e-01,1.000000000000000021e-03,4.195757452770214257e+01,1.502097897985819608e-01
-2.793722883276579250e+00,3.952471548317264549e-01,3.546871805366362818e-01,1.000000000000000021e-03,4.129958214034252961e+01,1.308448084037545645e-01
-9.382034297834760395e-01,9.103455201214392112e-01,7.610941223937985889e-01,1.000000000000000021e-03,4.322827964200023132e+01,1.240340729312206791e-01
3.075889786975727347e-01,-3.151895483895219563e-01,4.829151500077992765e-01,1.000000000000000021e-03,4.202301532601079970e+01,1.806196483478347548e-01
-3.516547386005060005e-01,-3.905952355874817705e-01,3.814535572386263951e-01,1.000000000000000021e-03,4.142420102718388364e+01,2.308770687999162352e-01
3.649537310475272633e-01,-6.863884506845389089e-01,2.585618213684548472e-01,1.000000000000000021e-03,4.060944524262389876e+01,2.684511140870081136e-01
-2.570967609365129025e+00,8.420119460712958137e-01,1.595790040792193221e-01,1.000000000000000021e-03,3.981795723265426545e+01,2.803557480400110657e-01
-1.834481340959652540e+00,-6.600019429837574725e-01,2.430756845821728795e-01,1.000000000000000021e-03,4.014858678166175565e+01,1.299804292878692646e-01
1.775768023995298428e+00,9.236293129957369175e-01,7.854583018075245171e-01,1.000000000000000021e-03,4.332188413450864317e+01,1.301648379977589365e-01
-2.652213398718342052e+00,-3.801545850143419614e-01,3.899666764890195036e-01,1.000000000000000021e-03,4.173108460443281587e+01,1.450712089469825827e-01
1.054889467319084950e+00,3.454625473980805772e-01,6.285004440253987301e-01,1.000000000000000021e-03,4.298729891699821337e+01,1.392510388103772867e-01
2.245765440381305211e+00,2.962492069052931054e-01,9.372473976095254677e-01,1.000000000000000021e-03,4.412608839569095665e+01,2.052413161261872343e-01
-3.024395998337015001e-01,-8.335715873431612799e-01,6.021270244771002034e-01,1.000000000000000021e-03,4.272731218892052851e+01,1.186225032219747622e-01
1.356465419408293904e+00,4.049964178538394410e-01,5.047867483287120649e-01,1.000000000000000021e-03,4.244902214204650903e+01,2.111850463625886132e-01
1.381590818173408231e-01,-1.062024860979799312e+00,4.990860334055664538e-01,1.000000000000000021e-03,4.213502887311818057e+01,1.568841229140011673e-01
2.892592571774536658e+00,2.780227338862120146e-01,7.193610643360404122e-01,1.000000000000000021e-03,4.323929503798704133e+01,2.508294023211256607e-01
-2.913928258195456422e+00,-8.327513091585252436e-01,2.513037759651228775e-01,1.000000000000000021e-03,4.049436441452011337e+01,2.725117794059302434e-01
-1.395083448217240063e+00,-8.695086645890629518e-01,1.502661290786511117e-01,1.000000000000000021e-03,3.931655505801576567e+01,1.625754478728253238e-01
-5.202324666154525268e-01,7.286206941203827725e-01,3.180665593856721873e-01,1.000000000000000021e-03,4.113486359370169509e+01,1.474638974990988560e-01
-7.900071269032729049e-01,-5.068364321154001928e-01,4.240706851739373118e-01,1.000000000000000021e-03,4.191871540969683707e+01,1.077257585463386597e-01
-2.569720263836136276e+00,6.364356022448784955e-01,1.804189696060343184e-01,1.000000000000000021e-03,3.979243710229359010e+01,2.522814838246454916e-01
2.700575058145922469e+00,4.743684910054568604e-01,1.511414778097166511e-01,1.000000000000000021e-03,3.929268987599592577e+01,1.298493340657962680e-01
-2.564195041327646862e+00,1.003896144633865450e+00,1.957865633495414759e-01,1.000000000000000021e-03,3.992683772405572995e+01,1.508775980827415653e-01
-2.862338695931365695e+00,-4.656223677317095078e-01,1.828597724590781404e-01,1.000000000000000021e-03,3.986642059401094684e+01,1.492221454458628194e-01
1.385617013351987836e+00,-7.906800810206859875e-01,1.570884032699557675e-01,1.000000000000000021e-03,3.926312712756231349e+01,2.117379545708106270e-01
-1.579885806499501832e+00,-5.063606250727574754e-01,1.162220974138769236e+00,1.000000000000000021e-03,4.439486747317943127e+01,1.329864061426623278e-01
-7.509210555853624847e-01,3.593508775047917769e-01,3.908852730734710956e-01,1.000000000000000021e-03,4.157986070328039574e+01,2.974130707491032810e-01
-2.611817896470770783e+00,9.386566518632881717e-01,3.408389564805147653e-01,1.000000000000000021e-03,4.165348244013132728e+01,2.227398559265900413e-01
1.999019611044531963e+00,-6.582724103065876742e-01,2.165069905052598997e-01,1.000000000000000021e-03,4.015112150585870410e+01,1.071307965968473913e-01
-1.517677447313136474e+00,7.629910059687095014e-01,2.893363823411396751e-01,1.000000000000000021e-03,4.071190969893388001e+01,3.610827764922414640e-01
7.721693772429043534e-01,-6.044016267819857235e-01,4.836749009072380812e-01,1.000000000000000021e-03,4.200258742485174679e+01,1.796746049859440642e-01
2.870623433297460281e+00,-2.930453064995250934e-01,4.401937811533689349e-01,1.000000000000000021e-03,4.180378840612944202e+01,2.264585190681528970e-01
-1.979285021838790515e+00,1.498805823879348686e+00,4.954330059312961332e-01,1.000000000000000021e-03,4.202892127652454235e+01,1.408901836801422225e-01
-2.617957012334558353e+00,-1.049500825456648911e+00,2.618862870222227190e-01,1.000000000000000021e-03,4.064557410958747852e+01,1.213207831298341866e-01
-1.335046036523237722e+00,-5.072059138780407039e-01,9.108950935028909957e-01,1.000000000000000021e-03,4.387413355231721113e+01,1.599751811876533314e-01
1.232477045043983921e+00,6.213775010096731499e-01,2.148658982577871246e-01,1.000000000000000021e-03,4.010251506736341298e+01,1.772302806480742787e-01
1.512511619463364987e+00,-8.478779759896251100e-01,5.325163967916552998e-01,1.000000000000000021e-03,4.224009101919413212e+01,2.203802806033017259e-01
-3.867401917020241164e-01,3.586876988042835279e-01,2.309619867435270812e-01,1.000000000000000021e-03,4.014122174712450430e+01,1.369824399055465658e-01
-1.663712380766483978e+00,3.103080679244494267e-01,2.431142802362595834e-01,1.000000000000000021e-03,4.050525232002961218e+01,1.666086778746115882e-01
1.302605684939051045e-02,-5.809085965092504189e-01,1.777511817813386408e-01,1.000000000000000021e-03,3.982719610902400831e+01,2.431747886215360477e-01
7.197937919654160410e-01,1.196092821442792165e+00,1.875028333325243768e-01,1.000000000000000021e-03,3.967050549913806634e+01,2.627649632153984949e-01
1.083086574038023109e+00,3.746074775511689658e-01,3.263622670525700986e-01,1.000000000000000021e-03,4.090778226245343063e+01,1.603021535356303484e-01
2.595217359002419677e+00,-5.503238422987273282e-01,5.401160428915372513e-01,1.000000000000000021e-03,4.225495963617348139e+01,1.845254079178918483e-01
-8.498736926344294673e-01,8.210775761985011911e-01,2.930195313180097294e-01,1.000000000000000021e-03,4.088813239027808066e+01,1.096220133321491458e-01
-4.986693323771747011e-01,1.087634555130302605e+00,6.160902471571008121e-01,1.000000000000000021e-03,4.291908774640363333e+01,1.929745266643343171e-01
1.656198992073178111e+00,-4.752182310713159996e-01,3.392322903134461498e-01,1.000000000000000021e-03,4.116949269034812886e+01,1.349754877296804878e-01
-8.114972143798815374e-01,-1.139632405930752768e+00,9.002510295020216269e-01,1.000000000000000021e-03,4.385040504427809793e+01,2.189386876481140276e-01
-2.635488131048792759e+00,5.953778794238506755e-01,2.303171965278716371e-01,1.000000000000000021e-03,4.021043530449767900e+01,3.581367574605177073e-01
2.857164888187811336e+00,-9.699529499885675143e-01,6.780857739965742148e-01,1.000000000000000021e-03,4.325577991735311656e+01,3.639554668865907505e-01
-1.058785185031003273e+00,-6.383395604634511944e-01,1.964207188478697130e-01,1.000000000000000021e-03,3.980447766343838367e+01,1.607969482070289446e-01
-3.897110186068433180e-01,4.867214966388528907e-01,8.048786737630939658e-01,1.000000000000000021e-03,4.369594051322970074e+01,1.218046983080558615e-01
1.841723709287856892e+00,6.621435121155005987e-01,1.560706959389663862e-01,1.000000000000000021e-03,3.953176851841041639e+01,1.101767748905259914e-01
-2.567692691209758404e+00,8.984367681384868298e-01,3.746479004776532840e-01,1.000000000000000021e-03,4.110713083461743622e+01,2.402983838408502548e-01
-1.491568021151566281e+00,-1.024110876314474172e+00,7.665809821092668397e-01,1.000000000000000021e-03,4.366963838339102466e+01,2.086051630225130293e-01
-3.870500671086096744e-01,-6.808468657196544704e-01,2.249842929061016683e-01,1.000000000000000021e-03,4.009891917978131914e+01,1.313636504161935226e-01
7.812152790714543826e-02,-5.811278638340058311e-01,1.598825079417145467e-01,1.000000000000000021e-03,3.947496408250256650e+01,2.005109165350924261e-01
-9.548568318907260100e-01,-7.333487902163585703e-01,4.521700677134283808e-01,1.000000000000000021e-03,4.242768003461888782e+01,2.143952947328843783e-01
2.785971521070106149e+00,-9.732509402686796429e-01,2.305143870282733154e-01,1.000000000000000021e-03,4.044958659383559763e+01,2.532755647383326258e-01
-2.963903737025427976e+00,3.936902931707517705e-01,6.844693326859410121e-01,1.000000000000000021e-03,4.346491865948033251e+01,2.385325861791481594e-01
2.476133675098171061e-01,-7.070764402282546657e-01,7.294114499220247794e-01,1.000000000000000021e-03,4.319080199200851666e+01,1.239745627227702984e-01
8.938547185155734098e-01,-9.658149591364971753e-01,7.120601506389743207e-01,1.000000000000000021e-03,4.302393789428179360e+01,2.406366396349911285e-01
2.638612600970228428e+00,5.209898527681495750e-01,6.470687787505855493e-01,1.000000000000000021e-03,4.325220631297035112e+01,2.155860933251364520e-01
-1.077704685652498995e+00,5.244386668561591414e-01,4.667483784813508674e-01,1.000000000000000021e-03,4.210951689471656323e+01,1.034738661428150353e-01
1.342685696203403722e+00,-6.491582597053333625e-01,5.900995202250822746e-01,1.000000000000000021e-03,4.294861876111101395e+01,1.566125032792597405e-01
-2.773690208840057903e+00,-9.834813543953311310e-01,2.368027028197923212e-01,1.000000000000000021e-03,4.033266391620630031e+01,1.285052232118714388e-01
-1.514134752373084369e+00,-8.723785445573201125e-01,3.020924824845814260e-01,1.000000000000000021e-03,4.088985445492299675e+01,2.143493499176825079e-01
1.500416580833201508e+00,6.621178013775050886e-01,1.494337528252192016e-01,1.000000000000000021e-03,3.952873239949455098e+01,1.814931643044505050e-01
6.870032435408024440e-02,-1.101471328452083842e+00,1.700315641755836271e-01,1.000000000000000021e-03,3.953594043178470940e+01,1.388168677455129951e-01
-1.741758420228933568e+00,-9.261532091009194723e-01,4.418055378688627854e-01,1.000000000000000021e-03,4.192131578810212744e+01,9.654994732872525243e-02
-2.884327902229347096e+00,-1.211104143049236193e+00,7.398122642174873587e-01,1.000000000000000021e-03,4.292128986010917657e+01,2.432976337461294769e-01
2.875622326543487262e+00,-4.691236532138280957e-01,7.619079015138614519e-01,1.000000000000000021e-03,4.349331382098328902e+01,1.421708703791456641e-01
1.126496845378825107e+00,5.967892700728776312e-01,2.037538613908425056e-01,1.000000000000000021e-03,3.996165671732847358e+01,1.628887861902003908e-01
-1.491157785371155731e+00,5.979366758938167159e-01,2.092286193009398332e-01,1.000000000000000021e-03,3.988801979071330805e+01,1.572014546153606140e-01
2.091144367554731431e+00,-6.811195745110346644e-01,2.570300266828096092e-01,1.000000000000000021e-03,4.031608756786367564e+01,2.117504128856393386e-01
-1.959521363561620433e-01,-7.815178932947525192e-01,3.147596603986173580e-01,1.000000000000000021e-03,4.101159492624703518e+01,1.508183643962271170e-01
2.480120543055306825e+00,-9.872296699122853347e-01,6.217279382707945334e-01,1.000000000000000021e-03,4.292029685598465960e+01,1.952153165303991689e-01
2.409689210457490738e-01,2.760564126448923350e-01,3.956367487367147273e-01,1.000000000000000021e-03,4.168058242432002203e+01,1.517674754574143414e-01
-3.952327329244540444e-01,-7.737308962549085400e-01,7.202220268575383333e-01,1.000000000000000021e-03,4.314639649692833956e+01,3.490730494952664076e-01
-2.480310650064985634e+00,2.689267159628307979e-01,2.010061279827630720e-01,1.000000000000000021e-03,3.964290451305758722e+01,1.869955917229864095e-01
-1.134983851923117459e+00,5.597491670770331496e-01,1.177616474093071464e+00,1.000000000000000021e-03,4.397589406869899165e+01,3.783168135440716506e-01
2.145227377406867753e+00,-3.744567963230214236e-01,2.590991664655444282e-01,1.000000000000000021e-03,4.024514514903088980e+01,2.408120303259485562e-01
1.842444531969995580e-01,-1.219373531399911670e+00,2.384794120575284282e-01,1.000000000000000021e-03,3.993846212236426396e+01,3.787016228010484098e-01
-1.670732388295150805e+00,-7.702396937161014590e-01,2.972175516759192337e-01,1.000000000000000021e-03,4.087822806233289441e+01,1.162098719029825700e-01
-1.504912477784596803e-01,-4.355164078706328379e-01,4.512862096667058509e-01,1.000000000000000021e-03,4.197480370844707664e+01,2.510303388492682308e-01
1.987617119652038689e+00,8.054395586402454121e-01,4.472369302790042411e-01,1.000000000000000021e-03,4.185777201883441023e+01,1.786770440228634960e-01
-2.040924849262609087e+00,-5.116343490285166773e-01,5.753248970384952088e-01,1.000000000000000021e-03,4.218359829218767487e+01,2.475418374913067876e-01
-2.770599784022325096e-01,3.100951565552039213e-01,6.827318618331035260e-01,1.000000000000000021e-03,4.304003721509374714e+01,2.041958990004462959e-01
4.306867357290622422e-01,-8.755504091811135980e-01,2.162372316244627335e-01,1.000000000000000021e-03,4.014124014047401090e+01,9.921564578650861332e-02
-1.912424533049003506e+00,-1.465501337164169415e+00,7.071575945160952781e-01,1.000000000000000021e-03,4.307547862670816130e+01,1.819081686506040796e-01
-1.628544879072043372e+00,8.840554967014391252e-01,1.224184378610934321e+00,1.000000000000000021e-03,4.483429983908232686e+01,2.483378555517189445e-01
3.124064730511483035e+00,1.305287721343846741e+00,2.097421045634342285e-01,1.000000000000000021e-03,3.996026640040540201e+01,1.826275453378550240e-01
-2.596641750011849936e-01,-6.851962765039176784e-01,1.735403177895655791e-01,1.000000000000000021e-03,3.954810876604492620e+01,1.369156495939010398e-01
-5.649560578751877671e-02,3.082672314838239558e-01,2.079916763233227162e-01,1.000000000000000021e-03,4.006080590109883133e+01,1.058309365426599591e-01
-1.654073735721171445e+00,3.027388510569455349e-01,3.328370989514464195e-01,1.000000000000000021e-03,4.120181091651949146e+01,1.048276793076205887e-01
-2.143473533910190465e+00,7.263613889145177360e-01,5.816090890949821013e-01,1.000000000000000021e-03,4.258082503709050570e+01,1.018957654883928393e-01
2.051853876330429927e+00,-1.109784726290926837e+00,1.870663404463805968e-01,1.000000000000000021e-03,4.003807852589614669e+01,1.506765189619779510e-01
2.314537338263942701e+00,-1.067227228653571114e+00,3.760189476093125371e-01,1.000000000000000021e-03,4.156657278577036863e+01,1.499922681064183028e-01
-4.573990103259406581e-01,5.674303277478620622e-01,3.039939734260383997e-01,1.000000000000000021e-03,4.113141171365094806e+01,1.436485628796511926e-01
-1.666642537619494657e+00,3.151409579353248169e-01,2.021273488028905163e-01,1.000000000000000021e-03,3.985972186515335380e+01,9.877347880303993799e-02
2.329999943025844900e+00,3.500504819246603727e-01,2.431875653308792629e-01,1.000000000000000021e-03,4.035116572826147063e+01,1.818323738951992397e-01
-3.082641372388605028e+00,-3.749081947432300055e-01,3.341782810330107267e-01,1.000000000000000021e-03,4.119274523775845154e+01,1.489618624376483624e-01
-1.583428254355553788e+00,-6.600498931749669840e-01,1.083620612608558798e+00,1.000000000000000021e-03,4.435976578512043034e+01,1.737630038387101838e-01
2.732473554869766730e+00,-1.098728497417047478e+00,2.163280102168978480e-01,1.000000000000000021e-03,4.025367334359873439e+01,1.212624780630363747e-01
1.130302612082259905e+00,6.883974249329436468e-01,3.379954331819419178e-01,1.000000000000000021e-03,4.121648662452040668e+01,1.179062220359614332e-01
-8.465049290819677275e-01,5.155504306244873547e-01,4.949340189116155919e-01,1.000000000000000021e-03,4.218784220168319621e+01,2.134622334019111167e-01
2.989922957344220755e+00,-7.843953605884882441e-01,3.089154558007394247e-01,1.000000000000000021e-03,4.127784393992056522e+01,2.366862161598437264e-01
5.758988842082253257e-01,4.557640181883710895e-01,7.523433018266625361e-01,1.000000000000000021e-03,4.329332844155683091e+01,1.641146618671828761e-01
2.951551201380114620e+00,-9.257584087105323878e-01,8.687055418263527340e-01,1.000000000000000021e-03,4.393170159211759085e+01,2.743890270016386412e-01
-1.513039324465419444e+00,5.482647100742061852e-01,1.513190595373574698e-01,1.000000000000000021e-03,3.916253566518304297e+01,1.758040653712737988e-01
3.010500336241756614e+00,-3.566790550187348696e-01,2.793728879746173455e-01,1.000000000000000021e-03,4.089403289153004550e+01,1.494708423786999807e-01
-1.151000771480474416e+00,-7.267598533928220084e-01,2.533828467509708915e-01,1.000000000000000021e-03,3.996317463833633354e+01,2.948679109137233856e-01
-1.656903928957824679e+00,4.577275223357148981e-01,2.365819615360642558e-01,1.000000000000000021e-03,4.025061723733315944e+01,1.178814594641479641e-01
-2.465947529527038995e+00,1.279721524054522774e+00,3.296221847737164090e-01,1.000000000000000021e-03,4.120754321232150374e+01,2.261879774250512287e-01
-2.485938367317181985e-01,-7.879093211537148145e-01,2.190997645028516239e-01,1.000000000000000021e-03,4.029853275226604126e+01,2.402383971121721529e-01
-2.630573356832481835e-01,-1.056842473165542140e+00,6.522016891406052785e-01,1.000000000000000021e-03,4.263774073095956396e+01,2.530009083361740019e-01
1.216872600489121048e+00,1.421412400577855006e+00,1.105707189092342890e+00,1.000000000000000021e-03,4.404354691159257840e+01,2.017407934320425145e-01
-3.270093801944349288e-01,6.765325196318614509e-01,5.966958775393780279e-01,1.000000000000000021e-03,4.253274918662518900e+01,1.447872002222115595e-01
-2.967286558346433623e+00,3.686943857192699348e-01,1.967822707178490393e-01,1.000000000000000021e-03,4.001600509354492630e+01,1.766071910831948921e-01
-2.219623117254239553e+00,1.011546851955722026e+00,3.141150697089001298e-01,1.000000000000000021e-03,4.087604064658547998e+01,1.730277745204698292e-01
-7.755461565609054198e-01,-4.435733567841988467e-01,4.877152259399426537e-01,1.000000000000000021e-03,4.205277575431648529e+01,1.170895629637161567e-01
-2.968468865668225209e+00,-6.159517761068210584e-01,3.414052315462396958e-01,1.000000000000000021e-03,4.124202949556496378e+01,1.772213450336541929e-01
-2.967899247567043819e+00,-6.017326548576121814e-01,4.963954597641042632e-01,1.000000000000000021e-03,4.218326277629937238e+01,1.348166346606918253e-01
2.077534723934460814e+00,-5.289380688496714278e-01,8.874120620547498728e-01,1.000000000000000021e-03,4.386900238565542764e+01,1.078387466906054193e-01
-8.233108821948498246e-03,4.807981535067979983e-01,6.845039594104425085e-01,1.000000000000000021e-03,4.311468618120139951e+01,1.788702226868982281e-01
1.576350739265508061e+00,-4.566812958414729895e-01,4.137667929541233303e-01,1.000000000000000021e-03,4.166569498190312970e+01,1.312628318723543519e-01
-1.942875562840001624e+00,8.848685279526073977e-01,2.671690153804344714e-01,1.000000000000000021e-03,4.060837939323272394e+01,1.005699827358746135e-01
8.841632954800466848e-01,-1.111674158279158720e+00,7.091183570071120101e-01,1.000000000000000021e-03,4.321900795757902358e+01,2.404741706063007745e-01
1.645100785213247541e+00,-5.431377007291529058e-01,2.440029989274954403e-01,1.000000000000000021e-03,4.051389984790573351e+01,1.818103721087864499e-01
-2.839645163433570652e-01,4.998524745464685282e-01,1.545850055362141262e-01,1.000000000000000021e-03,3.930738645773671891e+01,1.116303635876444156e-01
2.712667149517890230e+00,-3.717898944677129336e-01,1.777272557285176635e-01,1.000000000000000021e-03,3.949144861593609335e+01,1.696329227305409248e-01
1.206288368032218727e+00,1.117059755966734791e+00,6.217390470872619090e-01,1.000000000000000021e-03,4.290410130673958378e+01,9.767193101456732307e-02
1.392316862499733965e-01,-5.673038530729168638e-01,2.304255652744016114e-01,1.000000000000000021e-03,4.007471970089612512e+01,1.631417659948710130e-01
-1.244773779512394762e+00,7.762693367316289006e-01,4.942242906960683246e-01,1.000000000000000021e-03,4.202013359362912581e+01,1.804972615052172769e-01
-6.182591686775205098e-01,5.227158607033426385e-01,1.259803266206556138e+00,1.000000000000000021e-03,4.469306413119539201e+01,1.245832785019988925e-01
-3.060900851933128664e+00,-5.176508840415636747e-01,1.648379581219079348e-01,1.000000000000000021e-03,3.931660938761059754e+01,2.180653661362696727e-01
1.826297670168699483e-01,4.470200075213357493e-01,2.626116572036572006e-01,1.000000000000000021e-03,4.036605936174822773e+01,3.166654819476129035e-01
6.382012526103379990e-01,-2.942817866763050016e-01,7.346883274446902590e-01,1.000000000000000021e-03,4.296524008211894596e+01,1.670617432185585727e-01
2.497745551590184299e+00,-1.270669704687205304e+00,6.102001088913004967e-01,1.000000000000000021e-03,4.284889036306132937e+01,1.391245594812821063e-01
8.898641780946388025e-01,-6.921514566002071600e-01,6.237331254638744937e-01,1.000000000000000021e-03,4.279544944626931624e+01,1.981833836013636718e-01
-1.525666618459693868e+00,4.068644313264870860e-01,4.125686000464368064e-01,1.000000000000000021e-03,4.167964041594252222e+01,1.340123795456672207e-01
1.695104764906986361e+00,-1.087975615328320655e+00,3.411473946118710465e-01,1.000000000000000021e-03,4.133591242379524999e+01,1.215895934183834071e-01
-1.642811328817159300e+00,9.818986928388606650e-01,2.630318157316149374e-01,1.000000000000000021e-03,4.048414179105367339e+01,1.471100610961220134e-01
1.773849420699021628e+00,6.019284783449081466e-01,5.794335820675380333e-01,1.000000000000000021e-03,4.264116485143160418e+01,1.150535111883370099e-01
-5.872513576719589068e-01,-3.712851734906881251e-01,7.357463920095637100e-01,1.000000000000000021e-03,4.311568809898127341e+01,1.443780946846102975e-01
-3.065685493976979981e+00,5.907393236255100710e-01,3.273312872382843075e-01,1.000000000000000021e-03,4.124959205591822808e+01,2.091008262070305768e-01
9.116262076023504690e-01,4.324403252266222353e-01,4.175233854907129949e-01,1.000000000000000021e-03,4.164378394065782629e+01,1.838937053564419499e-01
-1.210938518764252958e+00,-6.878686685292932923e-01,8.528971113172068019e-01,1.000000000000000021e-03,4.347593267472135636e+01,2.914517053830588122e-01
2.997405969783301316e+00,-4.225190607089832628e-01,3.187121740083740384e-01,1.000000000000000021e-03,4.097890557971127379e+01,1.231203514267420057e-01
-2.323034483098999736e+00,2.792727526195046828e-01,5.736710170999175240e-01,1.000000000000000021e-03,4.283937544591034197e+01,2.850060560482640115e-01
2.501496593439321181e+00,-3.490344096746615943e-01,8.778565665797886108e-01,1.000000000000000021e-03,4.383210699651869646e+01,1.752624314979643882e-01
-2.239515814291815232e+00,9.336635963145929473e-01,4.122337315094031229e-01,1.000000000000000021e-03,4.154697357211693287e+01,3.685711530087735222e-01
2.810467971246505492e+00,1.256115105685095212e+00,1.712272481838288396e-01,1.000000000000000021e-03,3.968342582107997174e+01,1.820808542268901320e-01
-1.463690340253114508e+00,9.054036046488067591e-01,1.773648776882477129e-01,1.000000000000000021e-03,3.943863167405339709e+01,1.724725791331772062e-01
1.440641325039610621e+00,-8.473232041345205579e-01,2.759715307911418947e-01,1.000000000000000021e-03,4.081314599137859744e+01,1.574820821633224344e-01
-1.009098572065956212e-01,5.736458981218333086e-01,2.581553919888950333e-01,1.000000000000000021e-03,4.037161757372098236e+01,2.539262898316455019e-01
1.175051130710085268e+00,7.776729830234949681e-01,6.096951563385255568e-01,1.000000000000000021e-03,4.254342402805667689e+01,1.618419163909675940e-01
5.971193245765071822e-02,5.597941623363333896e-01,2.299207794528994597e-01,1.000000000000000021e-03,4.025546230317161900e+01,1.867454560965694788e-01
-1.740648464278392815e+00,-9.674745942161495638e-01,4.334237406894219102e-01,1.000000000000000021e-03,4.212575316783819090e+01,1.227693816205856492e-01
2.664752379026042561e+00,1.109358085640142821e+00,2.351727377809689212e-01,1.000000000000000021e-03,4.024275073958106219e+01,1.842126754060084970e-01
-4.644187260995575883e-01,-8.058638017486839944e-01,3.199291964438559788e-01,1.000000000000000021e-03,4.134545806754191943e+01,1.792368192650549696e-01
1.096142357501639353e+00,-9.309142119404482107e-01,2.675620125669484484e-01,1.000000000000000021e-03,4.080594520216460097e+01,1.636787483037136226e-01
-1.239679387875785688e+00,-5.128215109832543472e-01,5.684900157302845702e-01,1.000000000000000021e-03,4.260471739305298655e+01,1.992488286297695033e-01
-2.505434050858002415e+00,-8.783573689800973083e-01,6.275237903046322341e-01,1.000000000000000021e-03,4.284507773709396616e+01,1.590973977265507655e-01
1.726903955120562273e-01,-4.379622680724963857e-01,4.415245020373654850e-01,1.000000000000000021e-03,4.253933242468917797e+01,2.821873714395398691e-01
8.456479240110796880e-01,3.610050735027368063e-01,3.769137912633004905e-01,1.000000000000000021e-03,4.180759254219140075e+01,2.543609790361976986e-01
2.021952720930398684e+00,-1.230605531347522152e+00,8.651473258703616942e-01,1.000000000000000021e-03,4.380345845416230333e+01,1.343492327076122039e-01
5.431007675573726878e-01,-1.274340639184886825e+00,4.631536137343235104e-01,1.000000000000000021e-03,4.177445307139834796e+01,2.052430351845571654e-01
9.388565378047593057e-01,3.332285543023016938e-01,1.041881193429780250e+00,1.000000000000000021e-03,4.432794252217232867e+01,1.946882559058259465e-01
4.042834145284230907e-01,-3.313151611011397879e-01,1.225211685583622589e+00,1.000000000000000021e-03,4.460938874319838732e+01,2.430404862219172901e-01
2.407309442963897261e+00,-1.033529291892972379e+00,1.096695680961693231e+00,1.000000000000000021e-03,4.460792158773045202e+01,2.672735869671356013e-01
-1.923896053370259374e+00,8.374113300625154466e-01,3.551944612711948057e-01,1.000000000000000021e-03,4.114669100256607237e+01,1.729952282271914055e-01
-4.821031636347510307e-01,6.720437049781882166e-01,2.656932027661766949e-01,1.000000000000000021e-03,4.043532540021495691e+01,1.408863274296002499e-01
-2.099916672744033708e+00,3.009127123384880420e-01,6.107456402001527618e-01,1.000000000000000021e-03,4.295473936662524039e+01,2.444207666719903638e-01
-2.636562653698604208e-03,7.591732380553444237e-01,6.320338069058932806e-01,1.000000000000000021e-03,4.285398133362907203e+01,1.224353068157234548e-01
-1.974343406149051905e+00,-7.566816147393230496e-01,2.138762094887893817e-01,1.000000000000000021e-03,3.995222967104499645e+01,2.697594128000585512e-01
-1.671686078883418025e+00,3.867679061317892408e-01,3.934236252890934704e-01,1.000000000000000021e-03,4.153947231750596814e+01,1.483449849628245554e-01
-9.913592999298677100e-01,-1.122006044153300630e+00,4.115918514768781566e-01,1.000000000000000021e-03,4.168172818950036174e+01,1.731093247831854975e-01
-1.428167439527251448e+00,-9.571048086245775854e-01,2.664278434526654582e-01,1.000000000000000021e-03,4.047901921485490107e+01,2.514717621438606332e-01
2.600544236729484204e+00,-7.065911660874066857e-01,1.635245804581972884e-01,1.000000000000000021e-03,3.960710746473728960e+01,1.157480384108097726e-01
6.473222829468370243e-01,1.027929864434511842e+00,2.367549398684167805e-01,1.000000000000000021e-03,4.023072690055176537e+01,2.231743714664342348e-01
-9.240079852430671536e-01,-4.485918513810043251e-01,3.422425170002780792e-01,1.000000000000000021e-03,4.125836237035436938e+01,1.445054499815664195e-01
2.518406047012335947e-01,-1.043459684214683048e+00,3.527458608641296234e-01,1.000000000000000021e-03,4.139463654895788380e+01,1.598929928706638304e-01
-2.114001145417101490e+00,5.379114385272414367e-01,2.931460071870672923e-01,1.000000000000000021e-03,4.083236458925102141e+01,1.668259935077503475e-01
1.710708775172173901e+00,-4.528902862345867142e-01,4.894878496098871157e-01,1.000000000000000021e-03,4.208392233443517938e+01,1.544416580145243634e-01
-1.719734050890802779e+00,-4.808902938468921917e-01,5.128678316145089955e-01,1.000000000000000021e-03,4.226326259432178034e+01,1.909684158104595075e-01
2.532215123783969624e+00,1.105539894733939654e+00,8.736680322663481491e-01,1.000000000000000021e-03,4.378241445928937026e+01,2.532870599525400279e-01
3.026097396738489209e+00,-1.019959835173166018e+00,5.421296378632742829e-01,1.000000000000000021e-03,4.247524041762037683e+01,1.645921248173491114e-01
3.098932185921494664e+00,-2.766576117975581006e-01,5.988386322633705294e-01,1.000000000000000021e-03,4.279984535299842463e+01,2.012157438856451708e-01
-8.538832606760196064e-01,-5.177126405807490617e-01,1.465643297705450099e-01,1.000000000000000021e-03,3.840396416530457913e+01,2.502603091762078402e-01
9.020713604654506668e-01,7.142371705499122037e-01,2.692463620405223246e-01,1.000000000000000021e-03,4.053425531014008953e+01,1.432518143663155386e-01
-1.883624589608279942e+00,1.064719628175628596e+00,5.347846190321505766e-01,1.000000000000000021e-03,4.270987312884672349e+01,2.096826040642487676e-01
1.037177507637192519e-01,6.504052587807795938e-01,5.409373707899789441e-01,1.000000000000000021e-03,4.231887757873476374e+01,1.250989490976744112e-01
-8.135296988429274734e-01,1.280620062140140902e+00,8.011066226050465033e-01,1.000000000000000021e-03,4.347344832063192399e+01,1.923338042192209718e-01
4.699431910403366608e-01,5.430437843151758592e-01,1.840336116264322808e-01,1.000000000000000021e-03,3.992785426333996668e+01,1.139754579047342758e-01
1.854568995522789088e+00,-4.608272804675035417e-01,5.887947492836296259e-01,1.000000000000000021e-03,4.259848687785007826e+01,1.429102951943039546e-01
-2.580166097601624298e+00,1.176219796243228810e+00,1.813362095989354827e-01,1.000000000000000021e-03,3.977337061801751616e+01,2.390803762953925549e-01
1.417003421811469543e+00,-4.399918235275011025e-01,1.825422863851839939e-01,1.000000000000000021e-03,3.946460523087156957e+01,1.730745149595842303e-01
1.163308012584566065e+00,-9.623719386817242150e-01,5.718994922041491513e-01,1.000000000000000021e-03,4.265564333622215543e+01,1.985437018050739133e-01
-1.387413738104431138e+00,-5.822300054075320030e-01,7.802838621274346131e-01,1.000000000000000021e-03,4.396210806872132792e+01,3.117587047237437847e-01
-1.646490107015659676e+00,-1.023650938923000853e+00,6.886601464525039518e-01,1.000000000000000021e-03,4.337238306636051277e+01,2.048567073758142676e-01
1.371305321430885016e+00,-1.128289870154644881e+00,1.033020368862197280e+00,1.000000000000000021e-03,4.465653362971774243e+01,3.041249149987615419e-01
-9.981955824674120237e-01,-3.282436668893624621e-01,2.948362445062839843e-01,1.000000000000000021e-03,4.093587219149080170e+01,1.166761236719879163e-01
-2.132258583012903053e+00,8.669305524757944248e-01,1.640737934146687671e-01,1.000000000000000021e-03,3.935209391625975428e+01,1.653491069639442257e-01
6.164963593102128492e-01,-1.027190772361466387e+00,4.064132870760217564e-01,1.000000000000000021e-03,4.210119253734418976e+01,2.367539473832515617e-01
-1.975045396948968301e+00,7.460404108896310227e-01,5.461155927854399739e-01,1.000000000000000021e-03,4.250555400931640548e+01,1.591384337845055397e-01
-4.298685476640486947e-01,-4.423798395465703415e-01,3.630834357306043092e-01,1.000000000000000021e-03,4.148675777405226484e+01,2.141861844299146889e-01
2.348431039570713530e+00,7.111949759422913075e-01,3.070556908903803173e-01,1.000000000000000021e-03,4.095915448630093891e+01,1.424026662276056399e-01
1.836085176953456966e+00,1.049360332338691304e+00,5.095230667511740918e-01,1.000000000000000021e-03,4.238809076282837651e+01,1.298536285899604126e-01
-1.062887010797499254e+00,-1.152312961274921221e+00,9.965290201829526406e-01,1.000000000000000021e-03,4.433770669532032827e+01,1.652126788986718608e-01
1.760608223887443202e+00,5.854693724213388961e-01,7.006375247194054356e-01,1.000000000000000021e-03,4.360672028953334944e+01,2.696445863636924845e-01
1.973700579329794813e+00,-1.482728940225847447e+00,2.505010519297132809e-01,1.000000000000000021e-03,4.052318453410704535e+01,1.093228178019102770e-01
-6.803991327942977563e-01,-2.982691153820811181e-01,1.904081904053347429e-01,1.000000000000000021e-03,3.995503644460859505e+01,1.524543390895221895e-01
-1.742303728043099298e+00,-5.354650954469448720e-01,5.663078418273819192e-01,1.000000000000000021e-03,4.260633961052699448e+01,2.395232250242235739e-01
-1.895120834583803759e+00,-4.646616786619957029e-01,3.467416718894453798e-01,1.000000000000000021e-03,4.108930332100476335e+01,2.126491061685746031e-01
-1.099990017563414302e+00,-5.702752600720004672e-01,4.802172629361178835e-01,1.000000000000000021e-03,4.186265783664759965e+01,2.065496182405235082e-01
-2.468527229471829454e+00,1.355733249471471780e+00,3.505263980983841510e-01,1.000000000000000021e-03,4.139032880798032465e+01,1.405995178678778879e-01
2.878345221075817584e+00,9.452166565551367583e-01,7.331103698950767189e-01,1.000000000000000021e-03,4.304585770727441485e+01,1.326794461681271575e-01
4.364527135770148725e-01,-2.725255511339064185e-01,1.593452452663617347e-01,1.000000000000000021e-03,3.942388214271522884e+01,2.277286824512032848e-01
1.348110964494285469e+00,-5.925355967080443431e-01,1.761113926350965642e-01,1.000000000000000021e-03,3.973918729074381417e+01,1.941411447272179125e-01
-2.725771813450972303e+00,3.538183063185784683e-01,1.248781087091998199e+00,1.000000000000000021e-03,4.484333424861713269e+01,1.189589466109155086e-01
-2.378161421770132122e+00,-7.216871430827752620e-01,1.234553725151677384e+00,1.000000000000000021e-03,4.431750360548481638e+01,2.544722542009599797e-01
-8.529131610282387754e-01,-5.064265732325010649e-01,3.626769697073257692e-01,1.000000000000000021e-03,4.127856724089944862e+01,1.258890718491568472e-01
-2.956499354942307978e+00,-5.437305403986538721e-01,8.234341890473948489e-01,1.000000000000000021e-03,4.372621457502157938e+01,1.497928542509274485e-01
2.286902951235814996e+00,3.916505799797729281e-01,3.148615329968964538e-01,1.000000000000000021e-03,4.115230690648181167e+01,1.292236188270418085e-01
1.243110210071663779e+00,-3.283831264229406521e-01,5.672071450656845926e-01,1.000000000000000021e-03,4.273651361462831488e+01,1.163439641172545475e-01
1.809023386734376793e+00,3.234883463078790378e-01,5.108286918959779044e-01,1.000000000000000021e-03,4.220823812507342154e+01,3.091308036690324501e-01
9.072338174298497648e-01,1.080147585696728640e+00,1.620467868555837132e-01,1.000000000000000021e-03,3.928346223391365299e+01,1.847157483197774119e-01
2.661716543755598074e+00,2.681830708366417237e-01,1.976698733758577298e-01,1.000000000000000021e-03,4.001597051461554599e+01,1.139920371438438024e-01
-2.490303056123472025e+00,-5.646058960392816850e-01,6.834366932431845676e-01,1.000000000000000021e-03,4.307812347391305252e+01,1.364556782341716790e-01
-1.009588152590328747e+00,5.337517096571442465e-01,8.081464890205483087e-01,1.000000000000000021e-03,4.352265059085444676e+01,1.266522939765107048e-01
9.616638070805381133e-01,8.170470228242656674e-01,1.847338140420391461e-01,1.000000000000000021e-03,3.971077712742282984e+01,1.099291995145756512e-01
6.168977037107605810e-01,6.046159296923976356e-01,3.579964972050684313e-01,1.000000000000000021e-03,4.147711447575740351e+01,1.026017252516041450e-01
-3.032043287842293378e+00,3.017071482320590192e-01,1.176245057509737624e+00,1.000000000000000021e-03,4.461765574070322771e+01,1.708040890522114497e-01
-2.551688228076947063e+00,4.851668769666934722e-01,3.367749990683157613e-01,1.000000000000000021e-03,4.171237226287933453e+01,2.139747358770606456e-01
-1.732723958500325123e+00,-1.163640881118936043e+00,3.036117990045332782e-01,1.000000000000000021e-03,4.112707487986665456e+01,1.978378465639373252e-01
1.916997658325905185e+00,9.073185355832360521e-01,2.337642461355637913e-01,1.000000000000000021e-03,4.027046256057902696e+01,1.075320407686271573e-01
-3.598944824443237600e-01,-5.493872368282743945e-01,2.424814289795935718e-01,1.000000000000000021e-03,4.006730136779236773e+01,1.975131452199449800e-01
-3.264377606429840206e-01,-4.012647455609017477e-01,3.794357397582561742e-01,1.000000000000000021e-03,4.144098989397900112e+01,2.139073784157646818e-01
2.964516218650981472e+00,-1.148811811837697539e+00,9.572594733808823531e-01,1.000000000000000021e-03,4.417983421247644316e+01,1.377702228764242365e-01
-5.551085211516810780e-01,6.305950670513928991e-01,7.634882967327472070e-01,1.000000000000000021e-03,4.338232651668608497e+01,1.929657633346855417e-01
2.581798586687452435e+00,-1.099260635116548812e+00,5.551516891744436855e-01,1.000000000000000021e-03,4.300086483403537585e+01,3.165433347138154607e-01
8.440509109974563273e-01,-4.931307383433041203e-01,4.887466343822872705e-01,1.000000000000000021e-03,4.187506545508437483e+01,2.929168868709182139e-01
1.515900966344470469e+00,-6.706563924226348616e-01,2.994384535064205100e-01,1.000000000000000021e-03,4.104184958408746553e+01,3.135514186316070151e-01
-2.513313501449610410e+00,9.190611533261874300e-01,3.264144062038047966e-01,1.000000000000000021e-03,4.105750864943882306e+01,1.459063413247961016e-01
-3.323310347755650263e-01,-3.715748626893513595e-01,9.105593512776704035e-01,1.000000000000000021e-03,4.381116843588393550e+01,1.833548667954521538e-01
-1.543055287817405974e+00,-1.241588624692070653e+00,3.457975247432367727e-01,1.000000000000000021e-03,4.133285932076792335e+01,2.452797849245741679e-01
9.761835603534319006e-01,6.400639465684347940e-01,3.080529798861948443e-01,1.000000000000000021e-03,4.095962855398150282e+01,1.524320957636646212e-01
-1.722541461883264402e+00,-5.087765822557248629e-01,7.953111818917955045e-01,1.000000000000000021e-03,4.374723937924254358e+01,1.665856738430777084e-01
