3.054272990954432387e+00,2.712713647873070677e-01,3.832981697982045244e-01,1.000000000000000048e-04,4.156621390723256582e+01,5.000000000000000278e-02
-1.536260663900597345e+00,2.486196954148978122e-01,4.369506663122353363e-01,1.000000000000000048e-04,4.186524692433193451e+01,5.000000000000000278e-02
-1.131872666706907005e+00,-3.649917268739972798e-01,7.401884709418875552e-01,1.000000000000000048e-04,4.334779236577283257e+01,5.000000000000000278e-02
2.694421935208893615e+00,-7.265057913468169204e-01,3.850195834096141745e-01,1.000000000000000048e-04,4.158732056676381461e+01,5.000000000000000278e-02
-4.046887921496939988e-01,2.752341767900312597e-01,5.110950753679832648e-01,1.000000000000000048e-04,4.237463611167621735e+01,5.000000000000000278e-02
-2.956181046075817775e+00,-1.063094300445283302e+00,3.089223603833939347e-01,1.000000000000000048e-04,4.104673970941280459e+01,5.000000000000000278e-02
-3.227566469694083118e-01,1.217316536720583375e+00,1.464538132147306104e-01,1.000000000000000048e-04,3.923603907803031632e+01,5.000000000000000278e-02
-5.173767446281374305e-02,-1.177869025084120169e+00,1.655838948484582573e-01,1.000000000000000048e-04,3.948947491236224039e+01,5.000000000000000278e-02
1.003629041334441752e-02,8.224896462521731344e-01,7.573394657264249652e-01,1.000000000000000048e-04,4.339582000557629016e+01,5.000000000000000278e-02
-1.071578705165849854e-01,1.474416939125733794e+00,2.396590146619637096e-01,1.000000000000000048e-04,4.036574521979211738e+01,5.000000000000000278e-02
1.286238134088725893e+00,-9.047775439072525128e-01,1.361460600427100154e-01,1.000000000000000048e-04,3.904370977613322680e+01,5.000000000000000278e-02
1.244166854638750763e+00,7.158489871559128304e-01,2.662202496170908983e-01,1.000000000000000048e-04,4.058978299583101546e+01,5.000000000000000278e-02
-3.179150682857998511e-01,1.312645837066130472e+00,7.242552024638269081e-01,1.000000000000000048e-04,4.325989128706805076e+01,5.000000000000000278e-02
1.090901379927706749e+00,8.004739687826836203e-01,2.138394781884640494e-01,1.000000000000000048e-04,4.008350599598676212e+01,5.000000000000000278e-02
2.275597073148289518e+00,-1.331055802249119235e+00,8.115524324935765588e-01,1.000000000000000048e-04,4.355946004892746970e+01,5.000000000000000278e-02
3.630244963790287827e-01,-1.186122778535955380e+00,1.950786200648033653e-01,1.000000000000000048e-04,3.994251329992830080e+01,5.000000000000000278e-02
2.581306176938631403e+00,-1.446604172666995813e+00,2.808643641256332035e-01,1.000000000000000048e-04,4.082119878975567673e+01,5.000000000000000278e-02
1.183727712434089696e+00,-1.211245759463353000e-01,2.629487743770160257e-01,1.000000000000000048e-04,4.070724940566862671e+01,5.000000000000000278e-02
-8.926672856295501113e-01,4.798372687310559215e-02,5.325661398747769670e-01,1.000000000000000048e-04,4.241209117949944840e+01,5.000000000000000278e-02
1.031920381544367160e+00,4.597333376418477613e-02,6.952661351823674618e-01,1.000000000000000048e-04,4.312134107743698763e+01,5.000000000000000278e-02
-1.274443475977309781e+00,-1.201397186477053181e+00,8.968762461662518337e-01,1.000000000000000048e-04,4.397114628628463606e+01,5.000000000000000278e-02
-3.025873727397695223e+00,-1.364904170108420578e+00,1.938692873333964783e-01,1.000000000000000048e-04,3.995651938051666008e+01,5.000000000000000278e-02
-2.918083793569151485e+00,-4.322480473426579817e-01,5.324837712159422587e-01,1.000000000000000048e-04,4.237227218723420208e+01,5.000000000000000278e-02
1.065978337767263362e+00,5.750556324375235562e-01,8.547462518181310198e-01,1.000000000000000048e-04,4.378812127479380223e+01,5.000000000000000278e-02
-6.810231396459736075e-01,5.649623000520671567e-01,5.070537474655774091e-01,1.000000000000000048e-04,4.230208353933847576e+01,5.000000000000000278e-02
-2.006080065368382570e+00,8.911199844450385932e-01,5.910291977334742874e-01,1.000000000000000048e-04,4.272790637708696693e+01,5.000000000000000278e-02
-3.063083011564413649e+00,3.976771761144186623e-01,4.373137034760070652e-01,1.000000000000000048e-04,4.197184500462305579e+01,5.000000000000000278e-02
-4.449897314729667208e-01,-5.216555951610934994e-01,7.169629617153896461e-01,1.000000000000000048e-04,4.320558724314285826e+01,5.000000000000000278e-02
1.042772395272507424e+00,6.982279257280561424e-01,1.308061317842523774e-01,1.000000000000000048e-04,3.899796977225918226e+01,5.000000000000000278e-02
2.410683440797854793e+00,-5.360750518919488172e-03,2.255290743519220431e-01,1.000000000000000048e-04,4.031654837747590392e+01,5.000000000000000278e-02
-2.741780923233990475e+00,1.002515708324567267e-01,3.462191868876387524e-01,1.000000000000000048e-04,4.134348054151951146e+01,5.000000000000000278e-02
-3.049714477992792716e+00,-4.892698218263300536e-01,6.873974725112546036e-01,1.000000000000000048e-04,4.320238088113973163e+01,5.000000000000000278e-02
1.103866519902893195e+00,-6.210303022034527887e-01,4.139178655683197761e-01,1.000000000000000048e-04,4.180068360966191676e+01,5.000000000000000278e-02
1.661659526658350039e+00,-5.240016896680299574e-02,8.500256276421609414e-01,1.000000000000000048e-04,4.379729587877863395e+01,5.000000000000000278e-02
-6.155322718409608207e-01,-9.655465040330780679e-01,4.621962818296072584e-01,1.000000000000000048e-04,4.205701343859222874e+01,5.000000000000000278e-02
-4.742113105092342629e-01,7.218220643891615218e-02,8.837666690106338319e-01,1.000000000000000048e-04,4.380378929982493474e+01,5.000000000000000278e-02
-7.738627749352784413e-01,-1.375905756372177047e+00,7.647718537797290050e-01,1.000000000000000048e-04,4.337266136374596215e+01,5.000000000000000278e-02
-3.039538681356903638e+00,3.169176367374317849e-01,3.668394784313175894e-01,1.000000000000000048e-04,4.157493348377582976e+01,5.000000000000000278e-02
-9.090404490151358097e-01,-5.289915643727767236e-01,8.050266970140607103e-01,1.000000000000000048e-04,4.356723799277664710e+01,5.000000000000000278e-02
-1.303560072191913832e+00,4.039951423148298026e-01,4.037980113913979263e-01,1.000000000000000048e-04,4.173272936656546506e+01,5.000000000000000278e-02
-1.533799209455523060e+00,7.178564934835005573e-01,2.211238157020125605e-01,1.000000000000000048e-04,4.018248942379006650e+01,5.000000000000000278e-02
-1.768314040241411034e+00,-6.366434089738118862e-01,1.175243722495300513e-01,1.000000000000000048e-04,3.862365276750952603e+01,5.000000000000000278e-02
1.145227678476558708e+00,-9.664270474881851980e-01,3.109197339307694374e-01,1.000000000000000048e-04,4.106767744925985397e+01,5.000000000000000278e-02
1.560395076333234599e+00,5.209549331126348548e-01,9.390655222750967646e-01,1.000000000000000048e-04,4.399105239995430594e+01,5.000000000000000278e-02
-3.006169641972867179e+00,5.780319613197097972e-01,6.902930945352740988e-01,1.000000000000000048e-04,4.319662474977505440e+01,5.000000000000000278e-02
1.791752616225370076e+00,-1.230601583709782787e-01,8.046868812515968195e-01,1.000000000000000048e-04,4.351772870484267486e+01,5.000000000000000278e-02
2.110465288141163853e+00,3.565561957328631237e-01,7.182371073245230608e-01,1.000000000000000048e-04,4.314856893433427842e+01,5.000000000000000278e-02
6.819544600170193149e-01,1.053626240290435057e+00,9.318802661247582719e-01,1.000000000000000048e-04,4.384451159105486084e+01,5.000000000000000278e-02
-1.310511928136251614e+00,-1.051718145676566074e+00,7.718289688032748952e-01,1.000000000000000048e-04,4.345969824499254486e+01,5.000000000000000278e-02
5.732111271844657630e-01,-8.298794013475820908e-01,4.380361084872923527e-01,1.000000000000000048e-04,4.194746207887408929e+01,5.000000000000000278e-02
9.083914248024571592e-01,-5.138118765776338304e-01,2.581598792167143497e-01,1.000000000000000048e-04,4.060864637140511491e+01,5.000000000000000278e-02
-2.217434183385293522e+00,-1.049672233014611766e+00,9.303739329484499443e-01,1.000000000000000048e-04,4.391886006111818830e+01,5.000000000000000278e-02
8.693243977657116872e-01,-5.328471323361338996e-02,9.421934432990770603e-01,1.000000000000000048e-04,4.395768785262539069e+01,5.000000000000000278e-02
1.471370460807738034e+00,8.004380466699050345e-01,1.891934739425820133e-01,1.000000000000000048e-04,3.989411728012788672e+01,5.000000000000000278e-02
2.219177941481695449e+00,2.393079618931177599e-01,3.273188201781616069e-01,1.000000000000000048e-04,4.124446562971211705e+01,5.000000000000000278e-02
-1.957037817861054130e+00,7.350339649414214804e-01,5.001330315873449006e-01,1.000000000000000048e-04,4.222426645927739486e+01,5.000000000000000278e-02
9.083468687369782302e-01,-1.716614824385165328e-02,9.323576449659356502e-01,1.000000000000000048e-04,4.393435678530570954e+01,5.000000000000000278e-02
-9.898716669411333768e-02,1.154547922866086207e+00,1.402682072019203474e-01,1.000000000000000048e-04,3.912564336707870893e+01,5.000000000000000278e-02
-1.083801434855150791e+00,-7.804717465377956076e-01,3.794224786489792667e-01,1.000000000000000048e-04,4.145101899511922738e+01,5.000000000000000278e-02
-2.839556874122862951e+00,1.026458468109737066e+00,6.391295591802055309e-01,1.000000000000000048e-04,4.297494451058693699e+01,5.000000000000000278e-02
1.713197091428662056e-01,1.366633824533976860e+00,1.688175006906460496e-01,1.000000000000000048e-04,3.956792216904614179e+01,5.000000000000000278e-02
-2.253566862530690162e+00,1.106348636174747213e+00,9.131191403577094690e-01,1.000000000000000048e-04,4.393217993418486600e+01,5.000000000000000278e-02
4.118755688237025758e-01,8.965327057047836057e-01,5.316402480059725377e-01,1.000000000000000048e-04,4.243656276929210236e+01,5.000000000000000278e-02
-2.595681715490600894e-01,-8.859961286756692367e-01,1.113293376988122585e-01,1.000000000000000048e-04,3.862611657854538549e+01,5.000000000000000278e-02
-5.904757576817147857e-01,5.644293582588333358e-02,1.515827917822696325e-01,1.000000000000000048e-04,3.925749080468595054e+01,5.000000000000000278e-02
-5.135221806854346482e-01,-6.011615366671360094e-01,5.199196090848883234e-01,1.000000000000000048e-04,4.238190369893516163e+01,5.000000000000000278e-02
2.749724485505974592e+00,-4.539862163181327404e-01,1.047628720426447835e-01,1.000000000000000048e-04,3.851753779372442921e+01,5.000000000000000278e-02
2.055070297847944261e+00,6.710549670351668716e-01,5.523121900333272105e-01,1.000000000000000048e-04,4.255370824631228288e+01,5.000000000000000278e-02
-1.937906553341604665e+00,5.947791308134418031e-01,6.395810187780797129e-01,1.000000000000000048e-04,4.281974118926575557e+01,5.000000000000000278e-02
2.714521986013741284e+00,-7.279242257642081215e-01,9.319653769982563229e-01,1.000000000000000048e-04,4.384779319615083182e+01,5.000000000000000278e-02
-1.134736192041708502e+00,1.926423470323870291e-01,8.597698250574641321e-01,1.000000000000000048e-04,4.366401006761682169e+01,5.000000000000000278e-02
-9.431055148711533498e-01,-1.118598382753166476e-01,3.692341909175120840e-01,1.000000000000000048e-04,4.140039926377981772e+01,5.000000000000000278e-02
5.056024047205647243e-01,1.498372515452940146e+00,6.793989091140613112e-01,1.000000000000000048e-04,4.300851788385953967e+01,5.000000000000000278e-02
-2.832367647818956335e+00,1.121496488519172274e+00,7.209098470425048255e-01,1.000000000000000048e-04,4.325794181819773598e+01,5.000000000000000278e-02
2.103713629669251794e+00,8.999722179858160587e-01,1.168909858198616813e-01,1.000000000000000048e-04,3.881626875552709066e+01,5.000000000000000278e-02
-1.560828501809689239e+00,7.738608197588670023e-02,7.795230180355356975e-01,1.000000000000000048e-04,4.346293290262355669e+01,5.000000000000000278e-02
1.952023967333955667e+00,-2.815017622926476726e-01,9.923932774929733469e-02,1.000000000000000048e-04,3.839918487917127976e+01,5.000000000000000278e-02
-2.259741157370668052e+00,-1.100272925035750804e+00,3.252275016799919261e-01,1.000000000000000048e-04,4.114525597713272020e+01,5.000000000000000278e-02
-1.736899029666355565e+00,2.418465290649431942e-01,4.249583265166509971e-01,1.000000000000000048e-04,4.181510255651740948e+01,5.000000000000000278e-02
2.444842410500448260e+00,1.076810257753884059e+00,4.668982721193684071e-01,1.000000000000000048e-04,4.210183749331047665e+01,5.000000000000000278e-02
5.789858282877657913e-02,-1.046528401621156901e+00,8.439636818649993710e-01,1.000000000000000048e-04,4.371743667567108105e+01,5.000000000000000278e-02
1.705291318495520514e+00,6.366583903385532039e-01,7.201171397317271961e-01,1.000000000000000048e-04,4.322124473236188891e+01,5.000000000000000278e-02
-2.437420939166867306e+00,9.613754073592315486e-01,4.449114831528693248e-01,1.000000000000000048e-04,4.192850781774369295e+01,5.000000000000000278e-02
9.825255572698106121e-01,-6.680205952142550530e-01,8.707775630620389062e-01,1.000000000000000048e-04,4.366984918733056986e+01,5.000000000000000278e-02
-2.826139503440960432e+00,1.027395210872515730e+00,2.647775960399376682e-01,1.000000000000000048e-04,4.067394028857047061e+01,5.000000000000000278e-02
5.706082639088125852e-01,-6.222591265900486723e-01,3.254811842594287352e-01,1.000000000000000048e-04,4.116911826596090407e+01,5.000000000000000278e-02
2.973355531835060184e+00,6.597829528924328280e-01,8.765579788464965549e-01,1.000000000000000048e-04,4.378514641622138015e+01,5.000000000000000278e-02
-2.511670904240592250e+00,-8.810591873147219921e-01,9.458221636587906822e-01,1.000000000000000048e-04,4.391071181545576962e+01,5.000000000000000278e-02
-1.510677694324941811e+00,-7.932792221949306333e-01,6.189245466837824949e-01,1.000000000000000048e-04,4.280331134610758426e+01,5.000000000000000278e-02
2.286093496152887816e+00,-5.070122802703380671e-02,7.873631905703366574e-01,1.000000000000000048e-04,4.340424351819940796e+01,5.000000000000000278e-02
3.991261734328928057e-01,-9.119105394270041742e-01,1.830721733557363340e-01,1.000000000000000048e-04,3.985153563614853311e+01,5.000000000000000278e-02
1.007682123747732028e+00,-1.164612797511771491e+00,7.873172267709176442e-01,1.000000000000000048e-04,4.354430520092505930e+01,5.000000000000000278e-02
-3.149134388100449655e-01,-4.978001504348017470e-02,7.212603049242305442e-01,1.000000000000000048e-04,4.320047361637819705e+01,5.000000000000000278e-02
-4.714735154850315801e-01,1.458221980730249889e-01,2.845567474726427015e-01,1.000000000000000048e-04,4.081315103162713598e+01,5.000000000000000278e-02
1.335271021915982459e+00,7.461204728718566770e-01,7.737871785557639548e-01,1.000000000000000048e-04,4.340699498491700581e+01,5.000000000000000278e-02
-4.326701329662117068e-01,-1.374829160204704692e-02,5.173667424932983927e-01,1.000000000000000048e-04,4.233379983221577447e+01,5.000000000000000278e-02
-1.023021986184449172e+00,-4.067453860674845600e-01,7.339928210226300820e-01,1.000000000000000048e-04,4.327814831518553262e+01,5.000000000000000278e-02
3.041904655276749914e+00,1.186213222636090414e+00,7.180485490160604112e-01,1.000000000000000048e-04,4.326889436218418439e+01,5.000000000000000278e-02
1.030321131660569378e+00,2.044426814770379242e-01,3.149494035841815531e-01,1.000000000000000048e-04,4.103042918663255278e+01,5.000000000000000278e-02
-2.648203369434458665e+00,1.053872081478257172e+00,7.524885463566850508e-01,1.000000000000000048e-04,4.338369491743713269e+01,5.000000000000000278e-02
2.083777051594513097e+00,-7.612605777192625878e-01,2.235434181628104255e-01,1.000000000000000048e-04,4.022863586941477365e+01,5.000000000000000278e-02
-1.244705801086261054e-01,-7.819217721377410557e-01,1.692534398202285573e-01,1.000000000000000048e-04,3.961560446708040217e+01,5.000000000000000278e-02
6.262082847137948605e-01,-3.674134817514254081e-01,5.370030475491773814e-01,1.000000000000000048e-04,4.235035481062680418e+01,5.000000000000000278e-02
-2.701825090147313979e-01,-1.077873173525877970e+00,2.619574354333087385e-01,1.000000000000000048e-04,4.072404880320074483e+01,5.000000000000000278e-02
-4.777194548203924640e-01,-3.650941734381882853e-01,3.872726517521252187e-01,1.000000000000000048e-04,4.160658519431332536e+01,5.000000000000000278e-02
-5.385090476980005647e-01,-1.424959216933820105e+00,6.995427603043551379e-01,1.000000000000000048e-04,4.320443141750158134e+01,5.000000000000000278e-02
-8.317706869270522496e-01,1.282762627495570573e-01,8.499130665130343321e-01,1.000000000000000048e-04,4.362225635332439566e+01,5.000000000000000278e-02
1.320761213467882556e+00,-1.937332127771236312e-01,7.284262301334010203e-01,1.000000000000000048e-04,4.323771229099409652e+01,5.000000000000000278e-02
-7.840592714724725631e-01,-3.548230408405046443e-01,8.197322189504583356e-01,1.000000000000000048e-04,4.350321311073255970e+01,5.000000000000000278e-02
-2.359752034287875944e+00,5.228324150257090963e-03,5.333407733443222831e-01,1.000000000000000048e-04,4.241453676613130597e+01,5.000000000000000278e-02
2.609479459104043997e+00,-1.166623021350396527e+00,8.946648293433534516e-01,1.000000000000000048e-04,4.381097367984716584e+01,5.000000000000000278e-02
-2.921288006022398687e+00,-6.269276569973852853e-01,7.654180487496682339e-01,1.000000000000000048e-04,4.343828687073287398e+01,5.000000000000000278e-02
-1.930095687032104435e+00,2.010364690459454096e-01,1.238230909569189020e-01,1.000000000000000048e-04,3.881402159702518162e+01,5.000000000000000278e-02
7.202174805283512171e-02,9.700041838199582322e-01,5.343821470077789737e-01,1.000000000000000048e-04,4.235001106062015452e+01,5.000000000000000278e-02
9.488863178446660385e-01,-1.228328609757992407e+00,7.943766150152800076e-01,1.000000000000000048e-04,4.341660895329292202e+01,5.000000000000000278e-02
-3.040546537639198021e+00,2.892063180354291774e-01,9.883118486937059188e-02,1.000000000000000048e-04,3.836597378364047017e+01,5.000000000000000278e-02
-2.806296893927411773e+00,-1.657094842818982450e-01,5.490678657844676458e-01,1.000000000000000048e-04,4.250990720636469433e+01,5.000000000000000278e-02
2.708402774334660812e+00,8.704561710723086598e-01,7.519269403807127272e-01,1.000000000000000048e-04,4.335328091652556282e+01,5.000000000000000278e-02
-1.276067225815262551e+00,2.643703316932355385e-01,3.194090612834727949e-01,1.000000000000000048e-04,4.109803322402470371e+01,5.000000000000000278e-02
1.738397521134471546e-02,-1.127314072834681768e+00,5.745566137907169857e-01,1.000000000000000048e-04,4.261964773922252192e+01,5.000000000000000278e-02
6.067375045916612031e-01,-2.661650528777899094e-01,7.618136434228177656e-01,1.000000000000000048e-04,4.333600103161215600e+01,5.000000000000000278e-02
-1.802693683357194931e+00,-6.798543597476326417e-01,1.107904287792418341e-01,1.000000000000000048e-04,3.852077234653692983e+01,5.000000000000000278e-02
8.713802644982724388e-01,6.689278160803140416e-01,7.617406812416931405e-01,1.000000000000000048e-04,4.336096622139166357e+01,5.000000000000000278e-02
1.728950984054373308e+00,4.590158751310604579e-01,8.015388501945273081e-01,1.000000000000000048e-04,4.349058354757679012e+01,5.000000000000000278e-02
-2.563513372111096977e-01,2.917235289742328153e-01,7.102018184778147170e-01,1.000000000000000048e-04,4.314474381766448374e+01,5.000000000000000278e-02
1.081273016806293619e+00,-2.416461889637000482e-01,4.673511762804265501e-01,1.000000000000000048e-04,4.204925397654580621e+01,5.000000000000000278e-02
1.186434802549785061e-01,-7.283190579786213981e-02,9.050368893430822403e-01,1.000000000000000048e-04,4.384957815084154475e+01,5.000000000000000278e-02
8.851089613291760472e-01,-3.913519749126321834e-01,5.231159592327438990e-01,1.000000000000000048e-04,4.239356724854518177e+01,5.000000000000000278e-02
-2.619399329929576137e+00,-2.494613459575067971e-02,9.346320615081784577e-01,1.000000000000000048e-04,4.395143013092160800e+01,5.000000000000000278e-02
-2.965315567121269424e+00,1.213824529955172427e+00,5.683434097590407408e-01,1.000000000000000048e-04,4.255098769203692655e+01,5.000000000000000278e-02
2.751708088644114092e+00,-1.705181737400189856e-01,8.588016458094429595e-01,1.000000000000000048e-04,4.368457696005840063e+01,5.000000000000000278e-02
-1.843748616193209733e+00,-1.289203486891558725e+00,9.344183738104800963e-01,1.000000000000000048e-04,4.390869935071017238e+01,5.000000000000000278e-02
3.112658951741176239e-01,-1.717180231696822101e-01,1.063610928334699501e-01,1.000000000000000048e-04,3.850552933358851959e+01,5.000000000000000278e-02
-2.240428683987211400e+00,2.324787406202175610e-01,4.306529315197618057e-01,1.000000000000000048e-04,4.192157040036793347e+01,5.000000000000000278e-02
-2.951691380530291564e+00,7.428534931175789779e-02,7.802158608536955420e-01,1.000000000000000048e-04,4.348034510896506077e+01,5.000000000000000278e-02
2.298789817212300690e+00,1.033122686902312903e+00,7.166902358585116595e-01,1.000000000000000048e-04,4.318884260960926014e+01,5.000000000000000278e-02
4.579369216200088744e-01,-4.367369988009384141e-01,9.978452758542588619e-02,1.000000000000000048e-04,3.830534115303796483e+01,5.000000000000000278e-02
6.919884593188743160e-01,6.820227254020214680e-01,1.772931789688176885e-01,1.000000000000000048e-04,3.969780081328848809e+01,5.000000000000000278e-02
-4.557056042578970789e-01,8.282264057709980420e-01,4.143890815658572979e-01,1.000000000000000048e-04,4.172790693544074969e+01,5.000000000000000278e-02
-7.416167792809327253e-01,1.924056372608229371e-01,1.500693279935543245e-01,1.000000000000000048e-04,3.917708859294398138e+01,5.000000000000000278e-02
1.408809516543851004e+00,-3.910332430269951587e-01,8.851477492305874772e-01,1.000000000000000048e-04,4.381087153839928305e+01,5.000000000000000278e-02
-7.735168901637772265e-01,3.341639042416733041e-01,9.572564640367013933e-01,1.000000000000000048e-04,4.397121937376170564e+01,5.000000000000000278e-02
-2.627589641613976124e+00,-5.674546312220707378e-02,4.652115728563777086e-01,1.000000000000000048e-04,4.206639382084783563e+01,5.000000000000000278e-02
-2.678222786002628641e+00,1.128244312307521202e+00,3.116627580460018532e-01,1.000000000000000048e-04,4.100127814466647891e+01,5.000000000000000278e-02
4.363039455891009055e-01,-8.848644594803656283e-01,8.828132204368865921e-01,1.000000000000000048e-04,4.384446175043120064e+01,5.000000000000000278e-02
-1.631192255073488973e+00,-1.123982880365504311e+00,7.174122675713690001e-01,1.000000000000000048e-04,4.319600458003448296e+01,5.000000000000000278e-02
1.471158215437933237e-01,5.501667261649618723e-01,1.364583971351038816e-01,1.000000000000000048e-04,3.903690476750792016e+01,5.000000000000000278e-02
1.976949058098651513e-01,-1.470223872285183031e+00,7.325858476512141504e-01,1.000000000000000048e-04,4.330712409648683803e+01,5.000000000000000278e-02
-1.217271922606705692e+00,-1.395590627600826750e-01,9.582166141299452988e-01,1.000000000000000048e-04,4.402648311465153341e+01,5.000000000000000278e-02
-8.714657139613279924e-03,-2.422265502613292210e-01,5.207845874968648481e-01,1.000000000000000048e-04,4.240472023168418048e+01,5.000000000000000278e-02
-2.139025279088992093e+00,6.968304396500148989e-01,9.416879070682175890e-01,1.000000000000000048e-04,4.381409765345519958e+01,5.000000000000000278e-02
9.838117874724243705e-01,1.033607740448368784e+00,4.033658696744477634e-01,1.000000000000000048e-04,4.170731603511041641e+01,5.000000000000000278e-02
1.306514047597852723e+00,1.458728358671042447e+00,9.318814778019930412e-01,1.000000000000000048e-04,4.392257125018195296e+01,5.000000000000000278e-02
1.094329325097653793e+00,-1.193435659695821771e+00,8.942950470052126732e-01,1.000000000000000048e-04,4.382123635085361002e+01,5.000000000000000278e-02
3.911543213378010364e-01,3.081977735351704162e-02,3.104192662762919053e-01,1.000000000000000048e-04,4.105777729635072859e+01,5.000000000000000278e-02
2.337886570290168997e+00,6.396354874594791795e-01,1.970858562167905337e-01,1.000000000000000048e-04,3.996765336491965570e+01,5.000000000000000278e-02
2.811107008873299229e+00,1.152953623042307640e+00,9.032466239692145127e-01,1.000000000000000048e-04,4.391626354299645385e+01,5.000000000000000278e-02
2.362490695538091323e+00,-8.592979710224790679e-01,7.365528377756600520e-01,1.000000000000000048e-04,4.332670816954600213e+01,5.000000000000000278e-02
-2.311139761081811628e+00,-9.878587096200518447e-01,1.037455507466666926e-01,1.000000000000000048e-04,3.838345130760372825e+01,5.000000000000000278e-02
-2.951640097410360930e+00,-3.535519816951075978e-01,9.387377075453002817e-01,1.000000000000000048e-04,4.396996484207735278e+01,5.000000000000000278e-02
2.403773371537920589e+00,-4.337996065682936386e-01,8.502827854021319798e-01,1.000000000000000048e-04,4.372571282119761804e+01,5.000000000000000278e-02
-2.665110324659329510e+00,-5.003740251010062590e-01,7.498730647311679931e-01,1.000000000000000048e-04,4.335753298716534232e+01,5.000000000000000278e-02
8.897865377977023371e-01,-3.524866614220487637e-01,3.779227116626080463e-01,1.000000000000000048e-04,4.164162692549389533e+01,5.000000000000000278e-02
-8.087586895202454329e-01,-7.347442291441103057e-01,1.143595306463172090e-01,1.000000000000000048e-04,3.859935817573330752e+01,5.000000000000000278e-02
-2.768138738134568566e+00,4.611105220329902998e-01,7.572714968252673984e-01,1.000000000000000048e-04,4.334648223912879672e+01,5.000000000000000278e-02
2.952351299843222421e+00,-6.337091297126005163e-01,3.843457802290550784e-01,1.000000000000000048e-04,4.161330915198325897e+01,5.000000000000000278e-02
5.763145541969194596e-02,1.049996886878513447e+00,6.864979059900953029e-01,1.000000000000000048e-04,4.312859945245723026e+01,5.000000000000000278e-02
-2.685161497351291615e+00,-5.745069976882836160e-01,5.943237917031896078e-01,1.000000000000000048e-04,4.273477338857913566e+01,5.000000000000000278e-02
3.053384205832201381e-01,-6.218238447453066087e-01,8.344445710017605045e-01,1.000000000000000048e-04,4.363045674604941837e+01,5.000000000000000278e-02
-2.632922552165442909e+00,-9.156138977599408424e-01,7.899712231889883807e-01,1.000000000000000048e-04,4.347713925249620104e+01,5.000000000000000278e-02
-1.128318889131032066e+00,2.462908022304959310e-01,5.493988461111867228e-01,1.000000000000000048e-04,4.249811561091430434e+01,5.000000000000000278e-02
-6.791338395191433008e-01,3.836282937359070111e-02,1.354184045731450237e-01,1.000000000000000048e-04,3.875556906047501116e+01,5.000000000000000278e-02
2.242999486668388442e+00,7.646449608262564368e-01,7.308672711157182533e-01,1.000000000000000048e-04,4.340078604203528556e+01,5.000000000000000278e-02
2.521716181211203001e+00,8.131084866328213145e-01,3.702635252134707233e-01,1.000000000000000048e-04,4.144561180772793563e+01,5.000000000000000278e-02
8.632869471906889913e-01,7.936931217058784682e-01,8.558332941299544583e-01,1.000000000000000048e-04,4.369450710821283224e+01,5.000000000000000278e-02
4.592944420086215729e-01,9.188609541933590030e-01,3.136141329776473974e-01,1.000000000000000048e-04,4.103906774910419841e+01,5.000000000000000278e-02
1.880917552178297925e+00,-1.196928418885521372e+00,1.058640056831496867e-01,1.000000000000000048e-04,3.849609867949496333e+01,5.000000000000000278e-02
4.649621904388583360e-01,-2.692076544391692750e-01,8.241906645362133688e-01,1.000000000000000048e-04,4.365375939843994502e+01,5.000000000000000278e-02
-1.321298697545653544e+00,-3.204922950982849184e-01,3.939501127541995551e-01,1.000000000000000048e-04,4.159498805255933718e+01,5.000000000000000278e-02
5.360116130713046267e-01,-4.200518749586383827e-01,5.064495823550005937e-01,1.000000000000000048e-04,4.226431408079522356e+01,5.000000000000000278e-02
-3.585590072138411522e-01,-2.360295944695391945e-01,1.567814209990316954e-01,1.000000000000000048e-04,3.930711400545187217e+01,5.000000000000000278e-02
-1.800454389490761864e+00,-7.517097212671065565e-01,4.472157662619129503e-01,1.000000000000000048e-04,4.197669605439556051e+01,5.000000000000000278e-02
-6.316139452018965095e-01,-9.553813433430174973e-01,3.450697282433772273e-01,1.000000000000000048e-04,4.127207789731460963e+01,5.000000000000000278e-02
-2.751832297083635304e+00,7.302675642614397944e-02,6.301282577997433521e-01,1.000000000000000048e-04,4.290309590780626792e+01,5.000000000000000278e-02
-9.452174434609825759e-01,-4.150460526964991903e-01,7.233493235579644409e-01,1.000000000000000048e-04,4.332187685204629446e+01,5.000000000000000278e-02
5.866716579615709470e-01,6.791743624560231396e-02,2.770834228699758928e-01,1.000000000000000048e-04,4.072789002500024225e+01,5.000000000000000278e-02
4.104566979268122751e-01,-2.336343141315511129e-01,5.525900415746640704e-01,1.000000000000000048e-04,4.257351366403914028e+01,5.000000000000000278e-02
1.652252395013314334e+00,1.591316642439029039e-01,5.273335436975810087e-01,1.000000000000000048e-04,4.237027789504016795e+01,5.000000000000000278e-02
2.094274088543965462e+00,2.215986254990656157e-01,4.861483538631190537e-01,1.000000000000000048e-04,4.233723835673984581e+01,5.000000000000000278e-02
1.121483448069810152e+00,7.907759036446404544e-01,6.235001505044162062e-01,1.000000000000000048e-04,4.283516109653966453e+01,5.000000000000000278e-02
-1.986727177920579734e-01,3.760254018778763641e-01,6.068185587603804887e-01,1.000000000000000048e-04,4.275288351494307904e+01,5.000000000000000278e-02
2.998270850514510144e+00,9.324290933248331470e-01,7.513143361631748895e-01,1.000000000000000048e-04,4.329609705031956679e+01,5.000000000000000278e-02
1.344197250956561618e+00,-8.469710692342408143e-01,2.474831191583062306e-01,1.000000000000000048e-04,4.056046448109353975e+01,5.000000000000000278e-02
-1.990486082940124524e+00,-5.800187884221963408e-02,9.310522205895346293e-01,1.000000000000000048e-04,4.395705220840500971e+01,5.000000000000000278e-02
7.392764560054052581e-01,1.257834852636223744e-01,2.572852258454467744e-01,1.000000000000000048e-04,4.064865004135578630e+01,5.000000000000000278e-02
-1.966204023728954198e+00,-4.405823938499202619e-01,6.983254793950817163e-01,1.000000000000000048e-04,4.316467846554118637e+01,5.000000000000000278e-02
1.701349034892012391e-01,2.356552232303581462e-01,2.661457056178031522e-01,1.000000000000000048e-04,4.066147603158959356e+01,5.000000000000000278e-02
1.701445219201493941e+00,6.405883516411559064e-01,3.721379975964254072e-01,1.000000000000000048e-04,4.147490938963598950e+01,5.000000000000000278e-02
-1.206507552895093482e+00,8.216494697875873499e-01,2.813768586449296727e-01,1.000000000000000048e-04,4.076998282432505505e+01,5.000000000000000278e-02
1.756848942285116344e+00,-2.241002791299164798e-01,8.704094474634012091e-01,1.000000000000000048e-04,4.370527366468726171e+01,5.000000000000000278e-02
-2.371027031491945269e+00,2.911058503633137118e-01,7.582076136438065106e-01,1.000000000000000048e-04,4.333833708334201162e+01,5.000000000000000278e-02
1.595525644393477549e+00,1.376289757647096046e+00,6.178084404811075014e-01,1.000000000000000048e-04,4.280141586431322764e+01,5.000000000000000278e-02
-2.389678646183184707e+00,1.030484520913814706e+00,8.970333343654708358e-01,1.000000000000000048e-04,4.383567803482367253e+01,5.000000000000000278e-02
5.047956863013385309e-01,1.067124641580054600e+00,4.166381527737781365e-01,1.000000000000000048e-04,4.187020907147643101e+01,5.000000000000000278e-02
1.752056447357616342e+00,1.199124262588389112e-01,4.722482408313251057e-01,1.000000000000000048e-04,4.219985017827411866e+01,5.000000000000000278e-02
-1.476529871853033304e+00,1.036886310712917147e+00,7.169506427755500955e-01,1.000000000000000048e-04,4.318965888187484836e+01,5.000000000000000278e-02
1.435333176846630643e+00,-2.519046103048125929e-01,6.917137992302968552e-01,1.000000000000000048e-04,4.316455533366757891e+01,5.000000000000000278e-02
2.932731111063461960e+00,-6.387906785515728991e-02,2.819089123392253260e-01,1.000000000000000048e-04,4.079908347814326675e+01,5.000000000000000278e-02
1.561231882933584281e+00,3.681294087937665438e-01,3.508361103339252551e-01,1.000000000000000048e-04,4.138046583627811970e+01,5.000000000000000278e-02
1.898354891936750555e+00,-7.786193887503269906e-01,7.274705367473675022e-01,1.000000000000000048e-04,4.336997005669349647e+01,5.000000000000000278e-02
2.903329453369253521e+00,3.048560435128018220e-01,8.589972432935786273e-01,1.000000000000000048e-04,4.367156823624233652e+01,5.000000000000000278e-02
3.126001115908470851e+00,-5.997890537530295996e-01,8.565771212659798461e-01,1.000000000000000048e-04,4.370753738539543320e+01,5.000000000000000278e-02
1.625913386822555040e+00,1.139960212900168024e+00,5.869923261704450557e-01,1.000000000000000048e-04,4.267423285926420107e+01,5.000000000000000278e-02
2.672345055699758554e-01,2.593503465643580697e-01,7.664538435783867509e-01,1.000000000000000048e-04,4.341038667143771335e+01,5.000000000000000278e-02
-2.559060071681833914e+00,-2.806970356954674450e-02,4.475399158747477291e-01,1.000000000000000048e-04,4.202939324970709123e+01,5.000000000000000278e-02
2.836278238402996088e+00,-1.563242914696849617e-01,3.743404555949834123e-01,1.000000000000000048e-04,4.162490109072368227e+01,5.000000000000000278e-02
1.693252519980534387e+00,6.032590133659558873e-01,4.256589301146211923e-01,1.000000000000000048e-04,4.183538780329293161e+01,5.000000000000000278e-02
-4.837622877298088930e-01,-8.586662268465909964e-01,4.609689473450220287e-01,1.000000000000000048e-04,4.203098578220098602e+01,5.000000000000000278e-02
-2.348829006778157868e+00,-7.860694220859762993e-01,1.974327683542389522e-01,1.000000000000000048e-04,3.993360761963487704e+01,5.000000000000000278e-02
-4.884556352960256476e-03,-6.032533904265149349e-01,4.781912989996000007e-01,1.000000000000000048e-04,4.220940625337630792e+01,5.000000000000000278e-02
-2.586300136180829767e+00,-3.154761561931942460e-01,5.058698056611918847e-01,1.000000000000000048e-04,4.231924481502413471e+01,5.000000000000000278e-02
-2.523533816014373432e+00,1.233476427667073327e+00,8.301292195150427045e-01,1.000000000000000048e-04,4.360706848464585761e+01,5.000000000000000278e-02
-1.789964481553777409e+00,3.522798498305212966e-01,6.749356998831894661e-01,1.000000000000000048e-04,4.304680999316658330e+01,5.000000000000000278e-02
-2.408923574445935412e+00,-5.826095661273589243e-02,4.685349088676740159e-01,1.000000000000000048e-04,4.205860389912559327e+01,5.000000000000000278e-02
3.129895855166716423e+00,-1.388289795936989979e-01,6.466595234617009691e-01,1.000000000000000048e-04,4.296630310991891122e+01,5.000000000000000278e-02
-1.174904916171287450e+00,-1.228895321465086621e-01,4.560669303932778362e-01,1.000000000000000048e-04,4.200887027160644038e+01,5.000000000000000278e-02
-1.962474474756422449e+00,2.595129291569677754e-01,4.207342801129207999e-01,1.000000000000000048e-04,4.183401200698784095e+01,5.000000000000000278e-02
-2.799245629084914366e+00,-8.945232751261368298e-01,3.087906517724359201e-01,1.000000000000000048e-04,4.102530798329693340e+01,5.000000000000000278e-02
1.516230708693965035e+00,-3.479141879833367312e-01,3.807309403954801663e-01,1.000000000000000048e-04,4.159371857441968956e+01,5.000000000000000278e-02
-2.333982314220852228e+00,2.888077004437681339e-01,5.581518967383429786e-01,1.000000000000000048e-04,4.259082773630412788e+01,5.000000000000000278e-02
2.726859895269458711e+00,-6.539683675001439767e-02,1.680953648166343406e-01,1.000000000000000048e-04,3.962406800881387170e+01,5.000000000000000278e-02
-1.863621580390409038e+00,-8.068019746447699925e-01,7.058878405555915059e-01,1.000000000000000048e-04,4.318499434312689544e+01,5.000000000000000278e-02
-2.672466886734561342e+00,-4.533378789976592049e-01,2.643494641195520689e-01,1.000000000000000048e-04,4.071051217847124803e+01,5.000000000000000278e-02
-1.917496805549596672e+00,-4.339377784912752389e-01,9.048814809025953476e-01,1.000000000000000048e-04,4.382214746636122982e+01,5.000000000000000278e-02
-1.527336669868398111e+00,-8.323249423783307677e-01,5.207719036808753366e-01,1.000000000000000048e-04,4.239139328177626709e+01,5.000000000000000278e-02
4.705853752366611076e-01,-2.411732574400671236e-01,5.254806503016307140e-01,1.000000000000000048e-04,4.242653804553071950e+01,5.000000000000000278e-02
2.039925058694264770e+00,-1.064543992696673769e+00,2.543652637005127115e-01,1.000000000000000048e-04,4.057790524922670983e+01,5.000000000000000278e-02
-2.972496648016098142e+00,-3.722308588315688116e-01,4.636575852685120847e-01,1.000000000000000048e-04,4.211011321993773038e+01,5.000000000000000278e-02
-2.622993817939830663e+00,1.357189523159108901e+00,7.700467703206543835e-01,1.000000000000000048e-04,4.339392397292542114e+01,5.000000000000000278e-02
-4.671999796099246538e-02,-8.189901991653147917e-03,7.340478015050431182e-01,1.000000000000000048e-04,4.328097257913903206e+01,5.000000000000000278e-02
-2.627451188977488528e+00,7.385980192453458493e-01,6.123963617104910551e-01,1.000000000000000048e-04,4.280719792902535659e+01,5.000000000000000278e-02
-1.941699528706606115e+00,-1.884762714332000044e-01,6.526894092087254240e-01,1.000000000000000048e-04,4.293785623540925656e+01,5.000000000000000278e-02
-2.804254476180263467e+00,1.291588538651316842e+00,3.158792051278440649e-01,1.000000000000000048e-04,4.101024188337712673e+01,5.000000000000000278e-02
2.084392941280338363e+00,-3.319242566762115043e-01,8.668620860614308921e-01,1.000000000000000048e-04,4.382136933422738423e+01,5.000000000000000278e-02
-9.427253874294345692e-01,2.426134410515869977e-01,3.100396006514205549e-01,1.000000000000000048e-04,4.103824731272192139e+01,5.000000000000000278e-02
-1.001909635111139618e+00,-7.004706806903285843e-01,2.094304771991477576e-01,1.000000000000000048e-04,4.005622241083764123e+01,5.000000000000000278e-02
6.676915174751316684e-01,-6.650805734977738304e-01,2.867423859704760769e-01,1.000000000000000048e-04,4.087504037352947961e+01,5.000000000000000278e-02
1.782654576746002029e+00,9.462528645414480799e-01,4.166594709663784535e-01,1.000000000000000048e-04,4.182588867942613575e+01,5.000000000000000278e-02
1.348754947118740333e+00,1.202472962321980976e-01,5.658785676469981762e-01,1.000000000000000048e-04,4.271015250530982854e+01,5.000000000000000278e-02
-2.942309331580574838e+00,3.854517280123803680e-02,3.396021827469248855e-01,1.000000000000000048e-04,4.132340922026901353e+01,5.000000000000000278e-02
2.204305494467373450e+00,9.328020943297725687e-01,2.203977611399965397e-01,1.000000000000000048e-04,4.028479528859437409e+01,5.000000000000000278e-02
-1.503558467822556199e+00,-3.080557999093531674e-01,8.313050423044352488e-01,1.000000000000000048e-04,4.359136451788851474e+01,5.000000000000000278e-02
1.847005378560195865e-01,-8.665234087963693543e-01,2.460754191784062517e-01,1.000000000000000048e-04,4.050544773033955437e+01,5.000000000000000278e-02
-3.089415874930859562e+00,-3.080550817485185888e-01,2.745519356622860840e-01,1.000000000000000048e-04,4.086468154309579859e+01,5.000000000000000278e-02
1.416883061755792816e+00,6.336542343113067410e-01,3.461307211046102950e-01,1.000000000000000048e-04,4.129235424243757535e+01,5.000000000000000278e-02
-2.576560893340727798e+00,1.844311248487020549e-01,3.848772069741543955e-01,1.000000000000000048e-04,4.162423358271995966e+01,5.000000000000000278e-02
1.691151588804759243e+00,-1.163541384668342893e-01,3.805867447763668920e-01,1.000000000000000048e-04,4.157913702489624086e+01,5.000000000000000278e-02
5.875906732472468974e-02,1.255068535255918771e-01,8.309568275035765783e-01,1.000000000000000048e-04,4.364738126890833314e+01,5.000000000000000278e-02
1.141974589521084660e+00,-1.679113750751115575e-02,1.405119377799270985e-01,1.000000000000000048e-04,3.919498288030953859e+01,5.000000000000000278e-02
-2.480527436175493428e+00,-6.498422147136692084e-01,7.968194405755795184e-01,1.000000000000000048e-04,4.356638758511805065e+01,5.000000000000000278e-02
-3.066944944257604000e+00,-4.512110650175131799e-01,4.200835951079435748e-01,1.000000000000000048e-04,4.175384146620571357e+01,5.000000000000000278e-02
2.438378489600633969e+00,3.547798690050907311e-01,1.876779919282016706e-01,1.000000000000000048e-04,3.984976634533627049e+01,5.000000000000000278e-02
1.172051411388955522e+00,8.353421432999956764e-01,7.717623001542928129e-01,1.000000000000000048e-04,4.343973362609681743e+01,5.000000000000000278e-02
2.618703325567891760e+00,4.580666903669503576e-01,2.385124444596753435e-01,1.000000000000000048e-04,4.044167786592731062e+01,5.000000000000000278e-02
-2.286548026254372701e+00,5.079619333508733625e-01,6.783033575750050392e-01,1.000000000000000048e-04,4.304628291608278801e+01,5.000000000000000278e-02
1.330912197240654571e+00,8.565470875896483705e-01,5.106101720991054194e-01,1.000000000000000048e-04,4.226359812378265701e+01,5.000000000000000278e-02
5.061027196895073743e-02,1.551076690421335780e-01,4.265609903585356744e-01,1.000000000000000048e-04,4.188954228980757932e+01,5.000000000000000278e-02
1.375906983020460217e+00,-7.875958009513883695e-02,2.478535660504403992e-01,1.000000000000000048e-04,4.056551931657729426e+01,5.000000000000000278e-02
-8.283030638719366401e-01,8.281477725175365734e-01,4.485609490870159366e-01,1.000000000000000048e-04,4.193606404757368011e+01,5.000000000000000278e-02
1.525038970461942256e+00,-3.919132446429645089e-01,2.282732065857395742e-01,1.000000000000000048e-04,4.037225881427035290e+01,5.000000000000000278e-02
-2.498784032149372614e-01,5.193609221174915191e-01,8.623873808338740066e-01,1.000000000000000048e-04,4.365791210045897941e+01,5.000000000000000278e-02
2.239128690923111620e+00,1.273583793462606639e+00,7.798958077162434499e-01,1.000000000000000048e-04,4.346621390877478319e+01,5.000000000000000278e-02
2.495809722497875249e+00,1.418695866007699813e-01,8.046386724132883472e-01,1.000000000000000048e-04,4.356708942812061736e+01,5.000000000000000278e-02
-1.112708199190671987e+00,-4.897152410228486907e-01,8.220438594993206838e-01,1.000000000000000048e-04,4.364650004043750187e+01,5.000000000000000278e-02
-2.406934629178334895e+00,4.969020464685414140e-01,3.148453877762744657e-01,1.000000000000000048e-04,4.111585695503412552e+01,5.000000000000000278e-02
-8.891278534497040198e-01,-4.027970683600694546e-01,7.534516309761771780e-01,1.000000000000000048e-04,4.339039626323121723e+01,5.000000000000000278e-02
6.932893236892518907e-01,6.230672258885738835e-01,9.985650923658107025e-02,1.000000000000000048e-04,3.833518460650242332e+01,5.000000000000000278e-02
1.609131613657807769e+00,6.474167799685730529e-01,4.771020081101133847e-01,1.000000000000000048e-04,4.220971954086166988e+01,5.000000000000000278e-02
1.635300292216271600e+00,7.268981805293828202e-01,7.262055322121538925e-01,1.000000000000000048e-04,4.325361645049074610e+01,5.000000000000000278e-02
2.877504815858082488e+00,-8.341407251905266218e-01,4.567638736674837219e-01,1.000000000000000048e-04,4.215261460332175147e+01,5.000000000000000278e-02
-1.976330624741532649e+00,2.799612226283469951e-01,2.591968265445314668e-01,1.000000000000000048e-04,4.054094876032704775e+01,5.000000000000000278e-02
1.292560460851963633e+00,1.402540810926085069e+00,2.423207006419489939e-01,1.000000000000000048e-04,4.035581903840815698e+01,5.000000000000000278e-02
-2.536557516356318320e+00,3.827731884947627172e-02,8.180232979726211884e-01,1.000000000000000048e-04,4.360309215554428164e+01,5.000000000000000278e-02
1.753433672024506507e+00,2.772373600306963226e-01,1.616955209705206453e-01,1.000000000000000048e-04,3.959743199151569115e+01,5.000000000000000278e-02
-9.143273490783476731e-01,5.190495094424769640e-01,3.807956993588934580e-01,1.000000000000000048e-04,4.145433247387765618e+01,5.000000000000000278e-02
-2.162220757262957260e+00,-4.372349367141414866e-02,2.185370780589295236e-01,1.000000000000000048e-04,4.023859428235628855e+01,5.000000000000000278e-02
3.981838192054798498e-01,3.518497661747055361e-02,2.228767434285381377e-01,1.000000000000000048e-04,4.023350169337152948e+01,5.000000000000000278e-02
2.646158762555126387e+00,-2.127723187493766321e-01,1.113982574317426977e-01,1.000000000000000048e-04,3.863419031310056795e+01,5.000000000000000278e-02
4.322002629726826584e-01,2.644532413689109074e-01,6.039592195347787129e-01,1.000000000000000048e-04,4.286923640105865729e+01,5.000000000000000278e-02
3.753819740866597421e-01,-4.540049066204547845e-01,3.200479328489969078e-01,1.000000000000000048e-04,4.107143979578347626e+01,5.000000000000000278e-02
-1.807440190713738071e+00,2.966582082052591218e-01,7.384055471944317439e-01,1.000000000000000048e-04,4.326306276180783783e+01,5.000000000000000278e-02
-2.528298614442190839e+00,-6.670532650336332692e-01,4.132773944512542208e-01,1.000000000000000048e-04,4.176090702173843283e+01,5.000000000000000278e-02
9.031773003438861025e-01,-4.320536948857123249e-02,1.899636977788994319e-01,1.000000000000000048e-04,3.995392201174910696e+01,5.000000000000000278e-02
-3.141149679276453721e+00,-2.689630591530729475e-01,8.880999414248536006e-01,1.000000000000000048e-04,4.381576404098674260e+01,5.000000000000000278e-02
-1.225791007679610800e-03,1.794457579141006676e-01,8.364729769782244251e-01,1.000000000000000048e-04,4.365567488885988467e+01,5.000000000000000278e-02
-2.730753105233802991e-01,-2.800249647596708691e-01,7.685311134515877551e-01,1.000000000000000048e-04,4.342815038275025330e+01,5.000000000000000278e-02
1.059883449052015258e+00,7.950578625191249138e-01,7.232444347335913459e-01,1.000000000000000048e-04,4.323664312764519480e+01,5.000000000000000278e-02
6.428754329999044614e-01,6.339502993419023902e-01,3.671932477364256986e-01,1.000000000000000048e-04,4.155986354212904388e+01,5.000000000000000278e-02
2.463177090277009817e+00,-8.450196529941707002e-01,2.709070649353644278e-01,1.000000000000000048e-04,4.075151947111502437e+01,5.000000000000000278e-02
1.056712967354759058e+00,7.499391837151341278e-01,1.924535078965370349e-01,1.000000000000000048e-04,3.983558078140868730e+01,5.000000000000000278e-02
2.560974174551951421e+00,1.390692452482396035e+00,4.022955483497194784e-01,1.000000000000000048e-04,4.173219489212962685e+01,5.000000000000000278e-02
-1.661488441321340215e+00,-8.294154033129190751e-01,7.375039071811528846e-01,1.000000000000000048e-04,4.334022859509879311e+01,5.000000000000000278e-02
-1.059149925670521686e+00,7.447586892284920879e-01,5.231142039472242988e-01,1.000000000000000048e-04,4.242542641169172413e+01,5.000000000000000278e-02
1.818114634610326519e+00,1.699293085113766644e-01,8.058251725170462176e-01,1.000000000000000048e-04,4.358880483639142511e+01,5.000000000000000278e-02
-1.162508293099762779e+00,6.033793918692746949e-01,3.451785266282352271e-01,1.000000000000000048e-04,4.134526523107170703e+01,5.000000000000000278e-02
2.075302418197421339e+00,4.979400383656717999e-02,8.378771085240992456e-01,1.000000000000000048e-04,4.364449861958646437e+01,5.000000000000000278e-02
2.486996191698520597e+00,-2.983316852438742117e-01,8.188309073913961900e-01,1.000000000000000048e-04,4.367440596526019192e+01,5.000000000000000278e-02
1.141698163793686938e+00,-1.222775091764410904e+00,3.314764622394306137e-01,1.000000000000000048e-04,4.121945541120020806e+01,5.000000000000000278e-02
-3.368950474050045329e-01,-4.464579855233103967e-01,6.382649511811420151e-01,1.000000000000000048e-04,4.294791063792408892e+01,5.000000000000000278e-02
-2.293285961193124223e+00,3.611746759802092477e-02,2.619472426888440619e-01,1.000000000000000048e-04,4.056822225013585381e+01,5.000000000000000278e-02
1.399839509659974723e-01,5.702146765211439927e-01,6.985470642668245578e-01,1.000000000000000048e-04,4.314850747517760965e+01,5.000000000000000278e-02
-9.928339341376060112e-01,-5.159645591420476407e-01,7.855655904889040642e-01,1.000000000000000048e-04,4.345403587265579404e+01,5.000000000000000278e-02
-1.444902459336051770e+00,-7.164211971086399400e-01,7.484559934688264082e-01,1.000000000000000048e-04,4.329587645370697402e+01,5.000000000000000278e-02
-2.550470913202064427e+00,-4.590998863205406622e-01,2.057911229284949961e-01,1.000000000000000048e-04,4.002516075262129647e+01,5.000000000000000278e-02
-1.717625830374947871e+00,1.611669740726395794e-01,1.627053214447882201e-01,1.000000000000000048e-04,3.933430190592618914e+01,5.000000000000000278e-02
-1.706038886156348022e+00,-3.709709024180216641e-01,7.139202976954939217e-01,1.000000000000000048e-04,4.311785377956351795e+01,5.000000000000000278e-02
1.229969187078920001e+00,1.060295960642716473e+00,8.104822626702217203e-01,1.000000000000000048e-04,4.361106300644663492e+01,5.000000000000000278e-02
7.996743877089684815e-01,-1.233526705379661692e-02,6.211553739432171817e-01,1.000000000000000048e-04,4.283414931612472287e+01,5.000000000000000278e-02
1.653057313477251711e+00,-3.404766703132862116e-01,8.204018848349834414e-01,1.000000000000000048e-04,4.362019429761244282e+01,5.000000000000000278e-02
-1.540362864552976108e+00,-5.169291210030757533e-02,4.969951386304085617e-01,1.000000000000000048e-04,4.222240788877036977e+01,5.000000000000000278e-02
2.446442468594756114e+00,1.448011854223585360e-01,5.149942939782732321e-01,1.000000000000000048e-04,4.225016420638224446e+01,5.000000000000000278e-02
3.033329709651891193e+00,-2.685396241910726900e-01,5.534664914150366766e-01,1.000000000000000048e-04,4.259219674000217282e+01,5.000000000000000278e-02
1.622553649277270971e+00,-1.054028265678556897e+00,5.422557292502643289e-01,1.000000000000000048e-04,4.248534513729242690e+01,5.000000000000000278e-02
1.208488670149281852e+00,5.158041423206927156e-01,9.865319030286068269e-02,1.000000000000000048e-04,3.835049836437323734e+01,5.000000000000000278e-02
2.514392799976360671e+00,1.566156388878852113e-01,4.401048959657727355e-01,1.000000000000000048e-04,4.197377783896629921e+01,5.000000000000000278e-02
5.390826169327223027e-01,-6.929237791172669914e-01,5.234566664258866187e-01,1.000000000000000048e-04,4.236298618014038908e+01,5.000000000000000278e-02
3.138218961086280956e+00,7.341927588353414080e-02,1.300514246019011111e-01,1.000000000000000048e-04,3.890204116003151569e+01,5.000000000000000278e-02
-6.112037927380780111e-01,-9.149498691729706090e-01,6.921305738424057274e-01,1.000000000000000048e-04,4.311873916750196400e+01,5.000000000000000278e-02
1.424477399854757742e-01,-9.680190946193534263e-01,3.017622322458624051e-01,1.000000000000000048e-04,4.089722479169945757e+01,5.000000000000000278e-02
-2.295494579238394284e+00,6.642250749848410685e-01,4.947491309801506087e-01,1.000000000000000048e-04,4.216248651771292799e+01,5.000000000000000278e-02
-3.691809665502088222e-02,-1.220666953632260965e+00,4.727637629410101905e-01,1.000000000000000048e-04,4.212383994918606334e+01,5.000000000000000278e-02
-2.155930428933330312e+00,2.782594830563605015e-01,7.959646640335888979e-01,1.000000000000000048e-04,4.346820507516402188e+01,5.000000000000000278e-02
-1.735350238816687929e+00,4.614496936294387730e-01,8.470643206461787589e-01,1.000000000000000048e-04,4.372954322381382752e+01,5.000000000000000278e-02
1.437114951793731166e+00,6.766506572062280789e-01,1.461235974254393444e-01,1.000000000000000048e-04,3.919170952040737888e+01,5.000000000000000278e-02
1.551000135537656810e+00,-4.505836594816334806e-01,9.155311825814154147e-01,1.000000000000000048e-04,4.389640936849131236e+01,5.000000000000000278e-02
2.012590461751289972e+00,-8.419287382565920907e-02,1.694106720858519211e-01,1.000000000000000048e-04,3.966573989851772097e+01,5.000000000000000278e-02
-2.281587984149184400e+00,-7.759429845124232727e-02,4.639939446955589908e-01,1.000000000000000048e-04,4.203231511559175004e+01,5.000000000000000278e-02
5.175381801826501871e-01,4.234991008931372480e-01,4.758484166834959783e-01,1.000000000000000048e-04,4.208830127218622152e+01,5.000000000000000278e-02
-1.949681049147820033e+00,2.309835161370796808e-01,3.872933336660333570e-01,1.000000000000000048e-04,4.164691652120423981e+01,5.000000000000000278e-02
5.155855883849072008e-01,-8.366226459442738239e-02,5.074534753799642139e-01,1.000000000000000048e-04,4.226547996331962764e+01,5.000000000000000278e-02
-1.810621965143765610e+00,4.908091462794459403e-01,3.868628531935764947e-01,1.000000000000000048e-04,4.162946950192113604e+01,5.000000000000000278e-02
-1.910541171765100854e+00,6.991388946424961226e-01,8.127832808610695459e-01,1.000000000000000048e-04,4.354317725843392139e+01,5.000000000000000278e-02
-3.099477954883882891e+00,-6.122759866865356004e-01,8.290279778312745762e-01,1.000000000000000048e-04,4.363208285988044821e+01,5.000000000000000278e-02
-4.758305137263985074e-01,-2.719427342602900310e-01,1.476398305001025424e-01,1.000000000000000048e-04,3.914041670404009921e+01,5.000000000000000278e-02
-3.079287859432509045e+00,2.027212651523164766e-01,2.710692806921182196e-01,1.000000000000000048e-04,4.072139081967158347e+01,5.000000000000000278e-02
-2.178261438614487844e+00,1.131286073486103216e+00,6.810460857266917856e-01,1.000000000000000048e-04,4.315913843293439811e+01,5.000000000000000278e-02
-1.057707744502288438e+00,4.321058542772058253e-01,7.387193269069260992e-01,1.000000000000000048e-04,4.330345510790888852e+01,5.000000000000000278e-02
-2.799144521354612891e+00,1.149036665970386117e+00,2.304994089622416364e-01,1.000000000000000048e-04,4.025895027481664101e+01,5.000000000000000278e-02
1.152193700133321563e+00,-1.000484791405695795e-01,6.033279151131343276e-01,1.000000000000000048e-04,4.276998762667704312e+01,5.000000000000000278e-02
1.430222067894610483e+00,8.523653805690667440e-01,1.480967559199126704e-01,1.000000000000000048e-04,3.914513883640250924e+01,5.000000000000000278e-02
2.818960047492502063e+00,-1.343518118639404069e-01,5.246321002084006757e-01,1.000000000000000048e-04,4.244713155628112844e+01,5.000000000000000278e-02
1.997218647703505212e+00,1.258969666004386312e+00,7.553732781972579691e-01,1.000000000000000048e-04,4.334782772931423978e+01,5.000000000000000278e-02
-1.241232116436499888e+00,-5.387085659010015792e-01,5.675420308809064895e-01,1.000000000000000048e-04,4.256920777394578437e+01,5.000000000000000278e-02
-2.009983691935773642e+00,5.976566250101216227e-01,3.163837707915924113e-01,1.000000000000000048e-04,4.109608596029510608e+01,5.000000000000000278e-02
-2.417401339214614087e+00,6.331172577675032720e-01,2.783973497188965140e-01,1.000000000000000048e-04,4.076732593613836286e+01,5.000000000000000278e-02
1.134893564316838521e+00,-9.023508785633849172e-03,4.714491290495217424e-01,1.000000000000000048e-04,4.219087357042108977e+01,5.000000000000000278e-02
-1.998900909856522690e+00,1.867821511719145455e-01,1.974246555653671464e-01,1.000000000000000048e-04,3.996934505603608301e+01,5.000000000000000278e-02
9.982218189168001743e-01,-8.758743962036894537e-01,6.097919606054869046e-01,1.000000000000000048e-04,4.279280754764838690e+01,5.000000000000000278e-02
-1.099068296963796598e-01,-2.529610026290747271e-01,4.188842277376498835e-01,1.000000000000000048e-04,4.179071168253226176e+01,5.000000000000000278e-02
-1.905178049723814659e+00,6.050014939107519751e-01,3.745744608743457604e-01,1.000000000000000048e-04,4.149075737051833812e+01,5.000000000000000278e-02
-1.639423905201552012e+00,-1.469848056492105481e+00,7.314075971672613363e-01,1.000000000000000048e-04,4.332637020414201601e+01,5.000000000000000278e-02
1.162398177155876233e+00,-7.385166570876140479e-01,7.948831295996698909e-01,1.000000000000000048e-04,4.356073759538458035e+01,5.000000000000000278e-02
-8.101859814900977952e-01,4.248433309315027273e-01,6.710115777256742131e-01,1.000000000000000048e-04,4.309113971367680307e+01,5.000000000000000278e-02
-2.321834931697465798e+00,6.535761635277119730e-01,4.217784376089852572e-01,1.000000000000000048e-04,4.182625194587232187e+01,5.000000000000000278e-02
2.800525829426833369e+00,6.069421634242213592e-01,3.865511568493897876e-01,1.000000000000000048e-04,4.161171759403228521e+01,5.000000000000000278e-02
-1.993797202540871227e+00,4.916380649499365596e-01,2.680716786140904251e-01,1.000000000000000048e-04,4.071208174946001890e+01,5.000000000000000278e-02
2.862395499752254935e+00,7.645883726920383872e-01,3.667559329080893882e-01,1.000000000000000048e-04,4.138702745142967387e+01,5.000000000000000278e-02
3.118479991158481290e+00,-6.013041581806063407e-01,9.021362872609834938e-01,1.000000000000000048e-04,4.387636513698918606e+01,5.000000000000000278e-02
-4.689226383659113040e-01,-2.011152237905726725e-01,5.660028763227897830e-01,1.000000000000000048e-04,4.262542743293388980e+01,5.000000000000000278e-02
2.321557492664632072e+00,1.034265596008956400e-01,9.104671711519889410e-01,1.000000000000000048e-04,4.385610428408369188e+01,5.000000000000000278e-02
-2.416540588439130666e+00,-1.092934433071553801e+00,7.392695676076745936e-01,1.000000000000000048e-04,4.338058162353740244e+01,5.000000000000000278e-02
-1.055459256842743887e+00,4.774788071090014796e-01,1.405155897678476151e-01,1.000000000000000048e-04,3.892086316736272522e+01,5.000000000000000278e-02
-1.428323995042327432e+00,4.564306197175049817e-02,7.230866380111595770e-01,1.000000000000000048e-04,4.327813470721139311e+01,5.000000000000000278e-02
-1.900429995917283010e+00,8.520931645162441725e-01,1.916728724511436166e-01,1.000000000000000048e-04,3.984808895559221043e+01,5.000000000000000278e-02
1.860588887575703509e+00,5.067578919986206465e-01,1.028537611293647291e-01,1.000000000000000048e-04,3.848862220250811816e+01,5.000000000000000278e-02
3.128120310031736295e+00,1.982003450440190662e-01,9.801320482805309098e-02,1.000000000000000048e-04,3.826355752069706995e+01,5.000000000000000278e-02
-2.592134170957867578e+00,-6.952237739652539217e-01,1.764935128393652075e-01,1.000000000000000048e-04,3.968675075255228535e+01,5.000000000000000278e-02
1.274508090456823339e+00,-1.125791635984980887e+00,1.570226419131566242e-01,1.000000000000000048e-04,3.937238112187422701e+01,5.000000000000000278e-02
2.315775911646060337e+00,4.603399051958305677e-01,8.888752662459411535e-01,1.000000000000000048e-04,4.379565619884900940e+01,5.000000000000000278e-02
2.613578397065273506e+00,2.937691304967611217e-01,4.761545857804214688e-01,1.000000000000000048e-04,4.209645856345051129e+01,5.000000000000000278e-02
-1.473483067394758095e+00,1.243159656442483829e+00,1.189545149662516454e-01,1.000000000000000048e-04,3.859739405687459879e+01,5.000000000000000278e-02
-1.265332485145463259e+00,1.122212015891867587e+00,8.006126495848397973e-01,1.000000000000000048e-04,4.356481535772473990e+01,5.000000000000000278e-02
1.471854024761743318e+00,1.154120727067417640e+00,4.661597982447960309e-01,1.000000000000000048e-04,4.198314622851586364e+01,5.000000000000000278e-02
2.742686936540128073e+00,3.311195078888995447e-02,6.573407867878606758e-01,1.000000000000000048e-04,4.293880449491615536e+01,5.000000000000000278e-02
-2.849712704088709803e+00,4.438456965501629270e-01,1.506934379342470542e-01,1.000000000000000048e-04,3.933579344300057556e+01,5.000000000000000278e-02
1.424560517449555697e+00,5.385125129423626866e-01,8.108537100306372203e-01,1.000000000000000048e-04,4.359891072050862704e+01,5.000000000000000278e-02
-2.006764528985364393e+00,5.431191671912638519e-01,1.930765415486206393e-01,1.000000000000000048e-04,3.985199882929719450e+01,5.000000000000000278e-02
-1.815783785502550263e+00,-8.917651448884467147e-01,8.519019007006973787e-01,1.000000000000000048e-04,4.380168522991495195e+01,5.000000000000000278e-02
-2.528838629137845739e+00,-1.127064069625925313e+00,1.369341369092864635e-01,1.000000000000000048e-04,3.907713996209589169e+01,5.000000000000000278e-02
-5.889297825285431109e-01,-2.939426286839403879e-01,8.377468878229830107e-01,1.000000000000000048e-04,4.363338522071003922e+01,5.000000000000000278e-02
-1.570707545479412159e+00,4.995248517856749615e-01,5.450518175838783286e-01,1.000000000000000048e-04,4.241720646168114683e+01,5.000000000000000278e-02
6.706295318818398243e-01,-2.611083780500260687e-01,9.391959414621213753e-01,1.000000000000000048e-04,4.402484464496668437e+01,5.000000000000000278e-02
1.984376163927771941e+00,-1.216006448494533210e-01,2.367500744831072534e-01,1.000000000000000048e-04,4.045021031834701830e+01,5.000000000000000278e-02
-1.787717752532889115e-01,-5.063116222388461818e-01,4.606084410281621189e-01,1.000000000000000048e-04,4.212999382141937588e+01,5.000000000000000278e-02
-2.273468255638681157e+00,-8.277354269446296486e-01,3.934589198647466812e-01,1.000000000000000048e-04,4.161065034644937555e+01,5.000000000000000278e-02
7.773219356558502824e-01,-3.307206895829142290e-01,4.033053001631434764e-01,1.000000000000000048e-04,4.168168287608037303e+01,5.000000000000000278e-02
-6.910640774680678611e-01,3.692568054254397047e-02,6.560581007997139391e-01,1.000000000000000048e-04,4.289487823072146711e+01,5.000000000000000278e-02
-7.786964174765436120e-01,-5.496440795358501497e-01,3.485619238203585546e-01,1.000000000000000048e-04,4.131310890892194720e+01,5.000000000000000278e-02
-2.791216849806859024e+00,2.434601790933497156e-01,7.548048649458094506e-01,1.000000000000000048e-04,4.337994084992491395e+01,5.000000000000000278e-02
-9.661169267179112730e-01,-3.128432224901407377e-01,8.827327542445566610e-01,1.000000000000000048e-04,4.378521897170788435e+01,5.000000000000000278e-02
8.923807279827169481e-01,-5.503820191774402293e-01,7.890588709387382771e-01,1.000000000000000048e-04,4.351641693255100307e+01,5.000000000000000278e-02
2.822802229232465265e+00,-9.723818135358739401e-01,9.422755658974231174e-01,1.000000000000000048e-04,4.393000612678424233e+01,5.000000000000000278e-02
1.734189211951241205e+00,-1.322693938891607468e+00,4.029940293363534209e-01,1.000000000000000048e-04,4.177446093525025361e+01,5.000000000000000278e-02
4.704718304706640986e-01,7.147851460088343600e-01,3.047755929273765485e-01,1.000000000000000048e-04,4.103593071096493361e+01,5.000000000000000278e-02
-2.838176858903892708e+00,1.217228179447330305e+00,4.968448849523290356e-01,1.000000000000000048e-04,4.221286112757847775e+01,5.000000000000000278e-02
9.905689586574162320e-01,-3.953880403204967919e-01,1.417793786581824644e-01,1.000000000000000048e-04,3.925523256366730607e+01,5.000000000000000278e-02
-2.276477217866952785e+00,-1.719045519713069403e-01,9.328104398285770316e-01,1.000000000000000048e-04,4.400584472278503512e+01,5.000000000000000278e-02
1.259574957819215690e+00,-5.719451963474292411e-01,7.869579330061255984e-01,1.000000000000000048e-04,4.350814391487183030e+01,5.000000000000000278e-02
-7.505805309867641384e-02,-1.263058596183098903e+00,1.382186252900108325e-01,1.000000000000000048e-04,3.910741505592097411e+01,5.000000000000000278e-02
-2.499389252780052750e+00,-7.465910238582316172e-01,4.795379317586661028e-01,1.000000000000000048e-04,4.212813220545164228e+01,5.000000000000000278e-02
-2.152987296828045682e+00,-6.590809388437879335e-02,4.516576423290326048e-01,1.000000000000000048e-04,4.193675997503650166e+01,5.000000000000000278e-02
4.411402620619080395e-01,8.812332654287424738e-01,7.060543874981746182e-01,1.000000000000000048e-04,4.318514765827984547e+01,5.000000000000000278e-02
1.597607884470356510e+00,2.441605990856305919e-01,4.059799345594921061e-01,1.000000000000000048e-04,4.166590049145802510e+01,5.000000000000000278e-02
-2.281092968979376856e+00,3.531925695366051610e-01,2.107161059359039523e-01,1.000000000000000048e-04,4.009060996906684693e+01,5.000000000000000278e-02
-1.499414207246732467e+00,-7.281585810985851115e-01,3.612418095882725666e-01,1.000000000000000048e-04,4.144415904538141859e+01,5.000000000000000278e-02
-2.023632063407569071e+00,6.226036920444482092e-01,3.463016388846897886e-01,1.000000000000000048e-04,4.140123811249580399e+01,5.000000000000000278e-02
-2.563824758143030458e+00,2.351229748535788033e-01,9.548465844026816640e-01,1.000000000000000048e-04,4.408741325379558873e+01,5.000000000000000278e-02
-1.213679047735794603e+00,-1.045302423273176018e+00,8.610444087974180594e-01,1.000000000000000048e-04,4.375448074501645834e+01,5.000000000000000278e-02
-2.745179371940270396e+00,-1.074239693004708229e-01,8.120414954582177991e-01,1.000000000000000048e-04,4.350976177097188469e+01,5.000000000000000278e-02
-6.204648571185211736e-02,1.176509330326321212e+00,3.650549459743088754e-01,1.000000000000000048e-04,4.134809735530703279e+01,5.000000000000000278e-02
2.817354036831516417e-01,-1.260753337960202725e+00,7.099688419754144331e-01,1.000000000000000048e-04,4.321974139097984136e+01,5.000000000000000278e-02
1.437847432377205692e+00,9.047018795620416221e-01,4.952156101877294159e-01,1.000000000000000048e-04,4.223347627803503457e+01,5.000000000000000278e-02
-1.845876814641937314e+00,-4.638001306595123108e-01,1.737579288264943234e-01,1.000000000000000048e-04,3.959099917821626491e+01,5.000000000000000278e-02
3.216120159962225777e-01,9.498661507524741587e-01,2.585278072774530589e-01,1.000000000000000048e-04,4.061988865574157614e+01,5.000000000000000278e-02
2.477430911824697546e+00,-4.406534930118994886e-01,2.171352445729433089e-01,1.000000000000000048e-04,4.030259820803142645e+01,5.000000000000000278e-02
3.002542210676678813e+00,-3.734816984049718069e-01,2.569908435154706350e-01,1.000000000000000048e-04,4.064276111810332992e+01,5.000000000000000278e-02
2.927101939144266751e+00,-5.431406622477832347e-01,2.379906676038048285e-01,1.000000000000000048e-04,4.046328454247141337e+01,5.000000000000000278e-02
-2.805863837023241381e-01,-3.299601507825455915e-01,4.228681324301681865e-01,1.000000000000000048e-04,4.178088009009807990e+01,5.000000000000000278e-02
-1.004162087284393934e+00,-1.197119286021321560e+00,7.610866458683862579e-01,1.000000000000000048e-04,4.324247734304967850e+01,5.000000000000000278e-02
1.849019184968211604e+00,-4.414480552362431975e-01,1.417190810984401139e-01,1.000000000000000048e-04,3.918107169424177982e+01,5.000000000000000278e-02
-1.785801292753216307e+00,-6.380977092486972424e-01,3.599924018050844055e-01,1.000000000000000048e-04,4.144682827689745608e+01,5.000000000000000278e-02
-3.748720121123478854e-01,4.714362040524058273e-01,5.893352387648280732e-01,1.000000000000000048e-04,4.265499143628836265e+01,5.000000000000000278e-02
1.117477709887904069e+00,-1.261583658149176834e+00,7.524094364953566316e-01,1.000000000000000048e-04,4.344431619468662120e+01,5.000000000000000278e-02
2.563780742372161470e+00,2.069669616771865339e-01,4.507457148879445707e-01,1.000000000000000048e-04,4.210285438241756140e+01,5.000000000000000278e-02
1.093670166079961703e+00,8.793504386123829342e-02,5.653187855308798859e-01,1.000000000000000048e-04,4.261261935228848330e+01,5.000000000000000278e-02
-1.583412318154774345e+00,6.051385436188296829e-01,4.467307028997895557e-01,1.000000000000000048e-04,4.190187502068808811e+01,5.000000000000000278e-02
-2.086735923637025536e+00,-3.354532517749451159e-01,2.955625229835765477e-01,1.000000000000000048e-04,4.095782057892053274e+01,5.000000000000000278e-02
1.348905739089667932e+00,5.539562701541567158e-02,4.028885968326678668e-01,1.000000000000000048e-04,4.174582376073759349e+01,5.000000000000000278e-02
-2.559175612414523293e+00,4.227439665238699185e-01,9.134295120647444310e-01,1.000000000000000048e-04,4.395013182023200216e+01,5.000000000000000278e-02
-1.640682105408112434e+00,1.108858807117044432e+00,3.363487456033060763e-01,1.000000000000000048e-04,4.118081546731470155e+01,5.000000000000000278e-02
-1.608983686834325244e+00,-2.942423663339310824e-01,4.866394661866220162e-01,1.000000000000000048e-04,4.216301212538692056e+01,5.000000000000000278e-02
1.649283805518679813e-01,-8.834355903330494142e-01,4.943554413464072983e-01,1.000000000000000048e-04,4.220643596092057948e+01,5.000000000000000278e-02
-2.818582134763107927e+00,6.880447937259432933e-01,6.581992135407663813e-01,1.000000000000000048e-04,4.299320782920682404e+01,5.000000000000000278e-02
-2.691291044023505385e+00,-1.341827477947058700e+00,8.003424713945113123e-01,1.000000000000000048e-04,4.362837759115910785e+01,5.000000000000000278e-02
7.790371932351587425e-01,8.793627365112492988e-01,8.339729182040620525e-01,1.000000000000000048e-04,4.362155179300447116e+01,5.000000000000000278e-02
-4.354992821673859815e-01,-3.528873525441560410e-01,3.450200728140626616e-01,1.000000000000000048e-04,4.125876665429554890e+01,5.000000000000000278e-02
-1.472065171926177252e+00,-1.548615127222998655e-01,1.182893989301510018e-01,1.000000000000000048e-04,3.860772690645066518e+01,5.000000000000000278e-02
-4.204721862394098508e-01,-8.373542273697132110e-02,5.320862494077236438e-01,1.000000000000000048e-04,4.246090542018865222e+01,5.000000000000000278e-02
-2.926529741203554025e+00,5.884225287755850964e-02,9.451155955159564748e-01,1.000000000000000048e-04,4.394310699142886989e+01,5.000000000000000278e-02
4.960398880788887688e-01,-2.868859048208847184e-01,5.835538718715569395e-01,1.000000000000000048e-04,4.268853993503202560e+01,5.000000000000000278e-02
1.255878532733223807e+00,2.199229308763994695e-01,9.074681941143740715e-01,1.000000000000000048e-04,4.385564856035711045e+01,5.000000000000000278e-02
-2.562800455609422379e+00,4.612039424627374373e-01,4.245203354628421799e-01,1.000000000000000048e-04,4.178431153017418609e+01,5.000000000000000278e-02
-1.812267214647177216e+00,3.419190494859505325e-01,7.490259688055240783e-01,1.000000000000000048e-04,4.329832212688805981e+01,5.000000000000000278e-02
2.974341049189681563e+00,4.900721499943143655e-01,1.574711493141029983e-01,1.000000000000000048e-04,3.935802300732363790e+01,5.000000000000000278e-02
3.060154744224271361e+00,-9.486685664521713468e-01,6.934306225958040137e-01,1.000000000000000048e-04,4.320387250274257696e+01,5.000000000000000278e-02
1.879900400710664776e+00,-2.395700468845645137e-01,7.029934661765999682e-01,1.000000000000000048e-04,4.316902401131651601e+01,5.000000000000000278e-02
1.888548371542850823e+00,8.909005685367472616e-01,6.810342253205383667e-01,1.000000000000000048e-04,4.312607241379934919e+01,5.000000000000000278e-02
-7.515514904825377762e-01,-2.408903000131508154e-01,5.884120048638468159e-01,1.000000000000000048e-04,4.268471481803427281e+01,5.000000000000000278e-02
2.625533980703772308e+00,6.330343673359464240e-01,3.101028559977052623e-01,1.000000000000000048e-04,4.099601051781927197e+01,5.000000000000000278e-02
-4.295246801154859462e-01,3.435520621980887590e-01,1.683236744009859454e-01,1.000000000000000048e-04,3.944805418149921650e+01,5.000000000000000278e-02
-2.522892552905702246e-01,-1.806064994816503066e-02,4.908268895292593470e-01,1.000000000000000048e-04,4.219264998056906535e+01,5.000000000000000278e-02
-4.641109557163112243e-01,6.543395298071530419e-02,4.688220514889487323e-01,1.000000000000000048e-04,4.210012453380230824e+01,5.000000000000000278e-02
1.461480762067285610e+00,-3.566778974750459685e-01,4.138584096306805460e-01,1.000000000000000048e-04,4.187573434828181007e+01,5.000000000000000278e-02
1.339903204098639833e+00,1.723340059531119906e-03,1.297281588066312441e-01,1.000000000000000048e-04,3.906702984241784549e+01,5.000000000000000278e-02
-2.071095457242646987e+00,-8.214923816883747953e-01,4.041606256044489864e-01,1.000000000000000048e-04,4.175277562853216295e+01,5.000000000000000278e-02
-2.917878275956614420e+00,-2.382848981359890761e-01,6.415221510819264505e-01,1.000000000000000048e-04,4.290819778537479579e+01,5.000000000000000278e-02
-1.654706056191819208e-01,-7.328580462732769973e-02,5.264048893895336700e-01,1.000000000000000048e-04,4.233901015585406213e+01,5.000000000000000278e-02
1.509687182973094011e-01,6.458825438763726723e-01,1.905919358905576733e-01,1.000000000000000048e-04,3.985418443960652723e+01,5.000000000000000278e-02
2.110351858569050165e+00,5.045368151470421836e-01,8.215743197968532474e-01,1.000000000000000048e-04,4.364742634570907143e+01,5.000000000000000278e-02
-5.208525187773354048e-01,-8.079313534547193365e-01,4.498934880936882319e-01,1.000000000000000048e-04,4.203046954782489308e+01,5.000000000000000278e-02
