3.054272990954432387e+00,2.712713647873070677e-01,3.357073586345074023e-01,1.000000000000000048e-04,4.133380834285798500e+01,5.000000000000000278e-02
-1.536260663900597345e+00,2.486196954148978122e-01,5.949909067627767723e-01,1.000000000000000048e-04,4.274812073831601822e+01,5.000000000000000278e-02
-1.131872666706907005e+00,-3.649917268739972798e-01,8.402671521186411141e-01,1.000000000000000048e-04,4.361227924759727870e+01,5.000000000000000278e-02
2.694421935208893615e+00,-7.265057913468169204e-01,9.708028914981503554e-02,1.000000000000000048e-04,3.835513042461931121e+01,5.000000000000000278e-02
-4.046887921496939988e-01,2.752341767900312597e-01,3.267903968176073537e-01,1.000000000000000048e-04,4.115413870148247355e+01,5.000000000000000278e-02
-2.956181046075817775e+00,-1.063094300445283302e+00,1.659466783499998765e-01,1.000000000000000048e-04,3.961139850764735115e+01,5.000000000000000278e-02
-3.227566469694083118e-01,1.217316536720583375e+00,5.009699554091133766e-01,1.000000000000000048e-04,4.224269206919638719e+01,5.000000000000000278e-02
-5.173767446281374305e-02,-1.177869025084120169e+00,1.886090557751118890e-01,1.000000000000000048e-04,3.985075297002939720e+01,5.000000000000000278e-02
1.003629041334441752e-02,8.224896462521731344e-01,5.188041598538728483e-01,1.000000000000000048e-04,4.246406967003968447e+01,5.000000000000000278e-02
-1.071578705165849854e-01,1.474416939125733794e+00,2.414907284688825317e-01,1.000000000000000048e-04,4.037843093151388985e+01,5.000000000000000278e-02
1.286238134088725893e+00,-9.047775439072525128e-01,6.857162491852946129e-01,1.000000000000000048e-04,4.311478894095500181e+01,5.000000000000000278e-02
1.244166854638750763e+00,7.158489871559128304e-01,4.818224052807043023e-01,1.000000000000000048e-04,4.217080661864238067e+01,5.000000000000000278e-02
-3.179150682857998511e-01,1.312645837066130472e+00,7.334764742817714289e-01,1.000000000000000048e-04,4.328509723543370313e+01,5.000000000000000278e-02
1.090901379927706749e+00,8.004739687826836203e-01,3.952300750078718838e-01,1.000000000000000048e-04,4.171442891332682734e+01,5.000000000000000278e-02
2.275597073148289518e+00,-1.331055802249119235e+00,4.236109632334679187e-01,1.000000000000000048e-04,4.182894536378598360e+01,5.000000000000000278e-02
3.630244963790287827e-01,-1.186122778535955380e+00,6.175068464369437571e-01,1.000000000000000048e-04,4.279968804885206879e+01,5.000000000000000278e-02
2.581306176938631403e+00,-1.446604172666995813e+00,9.563550686359234554e-02,1.000000000000000048e-04,3.831161770732988714e+01,5.000000000000000278e-02
1.183727712434089696e+00,-1.211245759463353000e-01,7.079225078917352754e-01,1.000000000000000048e-04,4.321968377439749531e+01,5.000000000000000278e-02
-8.926672856295501113e-01,4.798372687310559215e-02,5.741379066459300073e-01,1.000000000000000048e-04,4.267230808247283136e+01,5.000000000000000278e-02
1.031920381544367160e+00,4.597333376418477613e-02,1.184897987010686826e-01,1.000000000000000048e-04,3.887255830997042239e+01,5.000000000000000278e-02
-1.274443475977309781e+00,-1.201397186477053181e+00,2.272159229077239662e-01,1.000000000000000048e-04,4.030878769951455354e+01,5.000000000000000278e-02
-3.025873727397695223e+00,-1.364904170108420578e+00,8.042244300611836039e-01,1.000000000000000048e-04,4.355288685998225873e+01,5.000000000000000278e-02
-2.918083793569151485e+00,-4.322480473426579817e-01,6.345993440691306553e-01,1.000000000000000048e-04,4.293053222054343365e+01,5.000000000000000278e-02
1.065978337767263362e+00,5.750556324375235562e-01,4.293097929593803208e-01,1.000000000000000048e-04,4.194735052839546086e+01,5.000000000000000278e-02
-6.810231396459736075e-01,5.649623000520671567e-01,3.389855967060062536e-01,1.000000000000000048e-04,4.123645500621528015e+01,5.000000000000000278e-02
-2.006080065368382570e+00,8.911199844450385932e-01,8.672399979094116418e-01,1.000000000000000048e-04,4.375305830561333664e+01,5.000000000000000278e-02
-3.063083011564413649e+00,3.976771761144186623e-01,8.401070176062972461e-01,1.000000000000000048e-04,4.378083971258813989e+01,5.000000000000000278e-02
-4.449897314729667208e-01,-5.216555951610934994e-01,2.468103628127091831e-01,1.000000000000000048e-04,4.037728105297749437e+01,5.000000000000000278e-02
1.042772395272507424e+00,6.982279257280561424e-01,5.759594010824315991e-01,1.000000000000000048e-04,4.271682392652937210e+01,5.000000000000000278e-02
2.410683440797854793e+00,-5.360750518919488172e-03,8.300191189668628677e-01,1.000000000000000048e-04,4.360969338917337268e+01,5.000000000000000278e-02
-2.741780923233990475e+00,1.002515708324567267e-01,1.298477639167860964e-01,1.000000000000000048e-04,3.886214552666577049e+01,5.000000000000000278e-02
-3.049714477992792716e+00,-4.892698218263300536e-01,1.632934693748953059e-01,1.000000000000000048e-04,3.953410557849631601e+01,5.000000000000000278e-02
1.103866519902893195e+00,-6.210303022034527887e-01,7.326754602485008316e-01,1.000000000000000048e-04,4.331949732754938509e+01,5.000000000000000278e-02
1.661659526658350039e+00,-5.240016896680299574e-02,5.273119525846368116e-01,1.000000000000000048e-04,4.246788279096295327e+01,5.000000000000000278e-02
-6.155322718409608207e-01,-9.655465040330780679e-01,5.645859854184858140e-01,1.000000000000000048e-04,4.266808655072679812e+01,5.000000000000000278e-02
-4.742113105092342629e-01,7.218220643891615218e-02,2.783881425259278064e-01,1.000000000000000048e-04,4.070682067243205893e+01,5.000000000000000278e-02
-7.738627749352784413e-01,-1.375905756372177047e+00,6.830521312051864857e-01,1.000000000000000048e-04,4.309635349961340012e+01,5.000000000000000278e-02
-3.039538681356903638e+00,3.169176367374317849e-01,6.865926428724740127e-01,1.000000000000000048e-04,4.302413051393769905e+01,5.000000000000000278e-02
-9.090404490151358097e-01,-5.289915643727767236e-01,8.340128644748472375e-01,1.000000000000000048e-04,4.366367980243147429e+01,5.000000000000000278e-02
-1.303560072191913832e+00,4.039951423148298026e-01,3.181035325385725976e-01,1.000000000000000048e-04,4.111627475310694990e+01,5.000000000000000278e-02
-1.533799209455523060e+00,7.178564934835005573e-01,6.023528612306865426e-01,1.000000000000000048e-04,4.274671766404349427e+01,5.000000000000000278e-02
-1.768314040241411034e+00,-6.366434089738118862e-01,6.161500008475577772e-01,1.000000000000000048e-04,4.278429718194188069e+01,5.000000000000000278e-02
1.145227678476558708e+00,-9.664270474881851980e-01,4.534925534152884907e-01,1.000000000000000048e-04,4.207621261744321828e+01,5.000000000000000278e-02
1.560395076333234599e+00,5.209549331126348548e-01,6.613360536469830020e-01,1.000000000000000048e-04,4.303850451280236200e+01,5.000000000000000278e-02
-3.006169641972867179e+00,5.780319613197097972e-01,7.344248944337012919e-01,1.000000000000000048e-04,4.334777795136749035e+01,5.000000000000000278e-02
1.791752616225370076e+00,-1.230601583709782787e-01,8.307472874903401028e-01,1.000000000000000048e-04,4.360110342556444607e+01,5.000000000000000278e-02
2.110465288141163853e+00,3.565561957328631237e-01,2.490526253891613973e-01,1.000000000000000048e-04,4.049286667712865295e+01,5.000000000000000278e-02
6.819544600170193149e-01,1.053626240290435057e+00,6.670669752758351390e-01,1.000000000000000048e-04,4.299271045830282389e+01,5.000000000000000278e-02
-1.310511928136251614e+00,-1.051718145676566074e+00,4.237557606598822968e-01,1.000000000000000048e-04,4.184337539052843624e+01,5.000000000000000278e-02
5.732111271844657630e-01,-8.298794013475820908e-01,5.416876349224675202e-01,1.000000000000000048e-04,4.249839980457779376e+01,5.000000000000000278e-02
9.083914248024571592e-01,-5.138118765776338304e-01,8.356615602936230403e-01,1.000000000000000048e-04,4.365052553832619253e+01,5.000000000000000278e-02
-2.217434183385293522e+00,-1.049672233014611766e+00,6.153769290122275137e-01,1.000000000000000048e-04,4.275027749293634827e+01,5.000000000000000278e-02
8.693243977657116872e-01,-5.328471323361338996e-02,7.239986193732372843e-01,1.000000000000000048e-04,4.335412152364629179e+01,5.000000000000000278e-02
1.471370460807738034e+00,8.004380466699050345e-01,2.182306682511103713e-01,1.000000000000000048e-04,4.021421777547894294e+01,5.000000000000000278e-02
2.219177941481695449e+00,2.393079618931177599e-01,4.226515316901531261e-01,1.000000000000000048e-04,4.184987437331823656e+01,5.000000000000000278e-02
-1.957037817861054130e+00,7.350339649414214804e-01,6.639062379713744910e-01,1.000000000000000048e-04,4.299264593699122372e+01,5.000000000000000278e-02
9.083468687369782302e-01,-1.716614824385165328e-02,8.087647180574353278e-01,1.000000000000000048e-04,4.352328091209507477e+01,5.000000000000000278e-02
-9.898716669411333768e-02,1.154547922866086207e+00,3.259714377069380387e-01,1.000000000000000048e-04,4.120402166009719025e+01,5.000000000000000278e-02
-1.083801434855150791e+00,-7.804717465377956076e-01,1.631027222287759759e-01,1.000000000000000048e-04,3.937464793165138133e+01,5.000000000000000278e-02
-2.839556874122862951e+00,1.026458468109737066e+00,8.163166842847260352e-01,1.000000000000000048e-04,4.352059485830503860e+01,5.000000000000000278e-02
1.713197091428662056e-01,1.366633824533976860e+00,7.677148715368953269e-01,1.000000000000000048e-04,4.335027280546797357e+01,5.000000000000000278e-02
-2.253566862530690162e+00,1.106348636174747213e+00,2.033821088598897209e-01,1.000000000000000048e-04,3.992500454526834375e+01,5.000000000000000278e-02
4.118755688237025758e-01,8.965327057047836057e-01,2.628277499160804886e-01,1.000000000000000048e-04,4.068206945948744391e+01,5.000000000000000278e-02
-2.595681715490600894e-01,-8.859961286756692367e-01,4.035704674545608217e-01,1.000000000000000048e-04,4.159481010810246460e+01,5.000000000000000278e-02
-5.904757576817147857e-01,5.644293582588333358e-02,1.123052679365239559e-01,1.000000000000000048e-04,3.856801673419267473e+01,5.000000000000000278e-02
-5.135221806854346482e-01,-6.011615366671360094e-01,9.259516574889012919e-01,1.000000000000000048e-04,4.396801235961937238e+01,5.000000000000000278e-02
2.749724485505974592e+00,-4.539862163181327404e-01,3.990172240268292647e-01,1.000000000000000048e-04,4.179736048272717142e+01,5.000000000000000278e-02
2.055070297847944261e+00,6.710549670351668716e-01,1.401050183037597652e-01,1.000000000000000048e-04,3.929858094572787763e+01,5.000000000000000278e-02
-1.937906553341604665e+00,5.947791308134418031e-01,8.487764720562358534e-01,1.000000000000000048e-04,4.365610080874485277e+01,5.000000000000000278e-02
2.714521986013741284e+00,-7.279242257642081215e-01,3.296501811789402936e-01,1.000000000000000048e-04,4.122473426035944755e+01,5.000000000000000278e-02
-1.134736192041708502e+00,1.926423470323870291e-01,1.635561255328339403e-01,1.000000000000000048e-04,3.942742489833096187e+01,5.000000000000000278e-02
-9.431055148711533498e-01,-1.118598382753166476e-01,3.417499474426344275e-01,1.000000000000000048e-04,4.126030543970730946e+01,5.000000000000000278e-02
5.056024047205647243e-01,1.498372515452940146e+00,4.131885580586340811e-01,1.000000000000000048e-04,4.181194676780127395e+01,5.000000000000000278e-02
-2.832367647818956335e+00,1.121496488519172274e+00,7.091539340268657732e-01,1.000000000000000048e-04,4.317865130067688995e+01,5.000000000000000278e-02
2.103713629669251794e+00,8.999722179858160587e-01,1.815535498451419372e-01,1.000000000000000048e-04,3.976614778215420642e+01,5.000000000000000278e-02
-1.560828501809689239e+00,7.738608197588670023e-02,2.962599049200436152e-01,1.000000000000000048e-04,4.098185121489179750e+01,5.000000000000000278e-02
1.952023967333955667e+00,-2.815017622926476726e-01,2.903817824854943996e-01,1.000000000000000048e-04,4.087648256728662943e+01,5.000000000000000278e-02
-2.259741157370668052e+00,-1.100272925035750804e+00,3.503831267048043152e-01,1.000000000000000048e-04,4.133805531039957515e+01,5.000000000000000278e-02
-1.736899029666355565e+00,2.418465290649431942e-01,2.860058448367570616e-01,1.000000000000000048e-04,4.090076991571768872e+01,5.000000000000000278e-02
2.444842410500448260e+00,1.076810257753884059e+00,9.915362165493002422e-02,1.000000000000000048e-04,3.830362184238724410e+01,5.000000000000000278e-02
5.789858282877657913e-02,-1.046528401621156901e+00,7.376226348109302666e-01,1.000000000000000048e-04,4.323098115504273409e+01,5.000000000000000278e-02
1.705291318495520514e+00,6.366583903385532039e-01,6.013362761818454860e-01,1.000000000000000048e-04,4.278230398082616404e+01,5.000000000000000278e-02
-2.437420939166867306e+00,9.613754073592315486e-01,7.033523394442482424e-01,1.000000000000000048e-04,4.322680848738593795e+01,5.000000000000000278e-02
9.825255572698106121e-01,-6.680205952142550530e-01,8.003286516539851458e-01,1.000000000000000048e-04,4.351861011467758544e+01,5.000000000000000278e-02
-2.826139503440960432e+00,1.027395210872515730e+00,1.029870193116326771e-01,1.000000000000000048e-04,3.834343930111554499e+01,5.000000000000000278e-02
5.706082639088125852e-01,-6.222591265900486723e-01,3.878406462275625355e-01,1.000000000000000048e-04,4.158970804818778788e+01,5.000000000000000278e-02
2.973355531835060184e+00,6.597829528924328280e-01,8.498856264344958333e-01,1.000000000000000048e-04,4.369826373766315442e+01,5.000000000000000278e-02
-2.511670904240592250e+00,-8.810591873147219921e-01,7.836546732211480126e-01,1.000000000000000048e-04,4.350499340003427307e+01,5.000000000000000278e-02
-1.510677694324941811e+00,-7.932792221949306333e-01,1.680091290133773896e-01,1.000000000000000048e-04,3.952506791462130309e+01,5.000000000000000278e-02
2.286093496152887816e+00,-5.070122802703380671e-02,6.878874220884410029e-01,1.000000000000000048e-04,4.306248692316400906e+01,5.000000000000000278e-02
3.991261734328928057e-01,-9.119105394270041742e-01,3.035884865846434355e-01,1.000000000000000048e-04,4.108758831752815155e+01,5.000000000000000278e-02
1.007682123747732028e+00,-1.164612797511771491e+00,1.687616449532796103e-01,1.000000000000000048e-04,3.964493106537337042e+01,5.000000000000000278e-02
-3.149134388100449655e-01,-4.978001504348017470e-02,9.242947963212717610e-01,1.000000000000000048e-04,4.397358239999782370e+01,5.000000000000000278e-02
-4.714735154850315801e-01,1.458221980730249889e-01,5.374805775025528476e-01,1.000000000000000048e-04,4.248370916952568166e+01,5.000000000000000278e-02
1.335271021915982459e+00,7.461204728718566770e-01,7.929157004330322778e-01,1.000000000000000048e-04,4.347017647422357811e+01,5.000000000000000278e-02
-4.326701329662117068e-01,-1.374829160204704692e-02,2.135623882263686379e-01,1.000000000000000048e-04,4.011597818466037069e+01,5.000000000000000278e-02
-1.023021986184449172e+00,-4.067453860674845600e-01,7.226701717296060146e-01,1.000000000000000048e-04,4.329939637472480030e+01,5.000000000000000278e-02
3.041904655276749914e+00,1.186213222636090414e+00,5.566781027240716995e-01,1.000000000000000048e-04,4.253551785278446573e+01,5.000000000000000278e-02
1.030321131660569378e+00,2.044426814770379242e-01,9.636191242081171282e-02,1.000000000000000048e-04,3.831225291494209273e+01,5.000000000000000278e-02
-2.648203369434458665e+00,1.053872081478257172e+00,7.075299183052468077e-01,1.000000000000000048e-04,4.318835456680772467e+01,5.000000000000000278e-02
2.083777051594513097e+00,-7.612605777192625878e-01,6.440146490855866990e-01,1.000000000000000048e-04,4.297417017751410384e+01,5.000000000000000278e-02
-1.244705801086261054e-01,-7.819217721377410557e-01,7.692515279801876993e-01,1.000000000000000048e-04,4.335405762720092326e+01,5.000000000000000278e-02
6.262082847137948605e-01,-3.674134817514254081e-01,2.140696049437300630e-01,1.000000000000000048e-04,4.018649035166403394e+01,5.000000000000000278e-02
-2.701825090147313979e-01,-1.077873173525877970e+00,9.334006602863913482e-01,1.000000000000000048e-04,4.390273332588380129e+01,5.000000000000000278e-02
-4.777194548203924640e-01,-3.650941734381882853e-01,2.467103302763720141e-01,1.000000000000000048e-04,4.049059105843841877e+01,5.000000000000000278e-02
-5.385090476980005647e-01,-1.424959216933820105e+00,4.164811207502476798e-01,1.000000000000000048e-04,4.178700857840724581e+01,5.000000000000000278e-02
-8.317706869270522496e-01,1.282762627495570573e-01,1.572358689012360866e-01,1.000000000000000048e-04,3.928615789414128301e+01,5.000000000000000278e-02
1.320761213467882556e+00,-1.937332127771236312e-01,9.390267787886812378e-01,1.000000000000000048e-04,4.392709360910639305e+01,5.000000000000000278e-02
-7.840592714724725631e-01,-3.548230408405046443e-01,5.615327233690403652e-01,1.000000000000000048e-04,4.259409031158175907e+01,5.000000000000000278e-02
-2.359752034287875944e+00,5.228324150257090963e-03,1.656798833027020024e-01,1.000000000000000048e-04,3.944235329758382136e+01,5.000000000000000278e-02
2.609479459104043997e+00,-1.166623021350396527e+00,7.051587930153773165e-01,1.000000000000000048e-04,4.317946966905887507e+01,5.000000000000000278e-02
-2.921288006022398687e+00,-6.269276569973852853e-01,1.095634029251695285e-01,1.000000000000000048e-04,3.859392406378265861e+01,5.000000000000000278e-02
-1.930095687032104435e+00,2.010364690459454096e-01,7.911997419989558189e-01,1.000000000000000048e-04,4.343399569401366023e+01,5.000000000000000278e-02
7.202174805283512171e-02,9.700041838199582322e-01,3.233691776591476330e-01,1.000000000000000048e-04,4.109722920764733090e+01,5.000000000000000278e-02
9.488863178446660385e-01,-1.228328609757992407e+00,6.591999224732756346e-01,1.000000000000000048e-04,4.299706106990446131e+01,5.000000000000000278e-02
-3.040546537639198021e+00,2.892063180354291774e-01,8.742071100332313716e-01,1.000000000000000048e-04,4.377319899933251435e+01,5.000000000000000278e-02
-2.806296893927411773e+00,-1.657094842818982450e-01,2.339709745838176591e-01,1.000000000000000048e-04,4.028190025389211826e+01,5.000000000000000278e-02
2.708402774334660812e+00,8.704561710723086598e-01,6.022654009023777899e-01,1.000000000000000048e-04,4.280248173096943987e+01,5.000000000000000278e-02
-1.276067225815262551e+00,2.643703316932355385e-01,4.990693908927068545e-01,1.000000000000000048e-04,4.232909964844169082e+01,5.000000000000000278e-02
1.738397521134471546e-02,-1.127314072834681768e+00,3.275568707459826090e-01,1.000000000000000048e-04,4.114121402059942767e+01,5.000000000000000278e-02
6.067375045916612031e-01,-2.661650528777899094e-01,5.581254692118933214e-01,1.000000000000000048e-04,4.257708893989443766e+01,5.000000000000000278e-02
-1.802693683357194931e+00,-6.798543597476326417e-01,7.301433712390350550e-01,1.000000000000000048e-04,4.329886648497431167e+01,5.000000000000000278e-02
8.713802644982724388e-01,6.689278160803140416e-01,6.948867377478411544e-01,1.000000000000000048e-04,4.307167081075936466e+01,5.000000000000000278e-02
1.728950984054373308e+00,4.590158751310604579e-01,4.493460974535496977e-01,1.000000000000000048e-04,4.205639389747756240e+01,5.000000000000000278e-02
-2.563513372111096977e-01,2.917235289742328153e-01,9.301719813565085815e-01,1.000000000000000048e-04,4.393867493267284630e+01,5.000000000000000278e-02
1.081273016806293619e+00,-2.416461889637000482e-01,6.134417821176720853e-01,1.000000000000000048e-04,4.287517010516508975e+01,5.000000000000000278e-02
1.186434802549785061e-01,-7.283190579786213981e-02,3.780947863212287263e-01,1.000000000000000048e-04,4.152580626623329607e+01,5.000000000000000278e-02
8.851089613291760472e-01,-3.913519749126321834e-01,8.309679541562495775e-01,1.000000000000000048e-04,4.358964915154709985e+01,5.000000000000000278e-02
-2.619399329929576137e+00,-2.494613459575067971e-02,1.811966969093781188e-01,1.000000000000000048e-04,3.972673335217803725e+01,5.000000000000000278e-02
-2.965315567121269424e+00,1.213824529955172427e+00,7.933900990359563643e-01,1.000000000000000048e-04,4.352604379326194106e+01,5.000000000000000278e-02
2.751708088644114092e+00,-1.705181737400189856e-01,4.484191011464240262e-01,1.000000000000000048e-04,4.200343625756717358e+01,5.000000000000000278e-02
-1.843748616193209733e+00,-1.289203486891558725e+00,5.002974032559186490e-01,1.000000000000000048e-04,4.237575038397773852e+01,5.000000000000000278e-02
3.112658951741176239e-01,-1.717180231696822101e-01,2.408726683633171106e-01,1.000000000000000048e-04,4.041198832774047389e+01,5.000000000000000278e-02
-2.240428683987211400e+00,2.324787406202175610e-01,6.882626728520657711e-01,1.000000000000000048e-04,4.312713135661378061e+01,5.000000000000000278e-02
-2.951691380530291564e+00,7.428534931175789779e-02,1.737978846768248875e-01,1.000000000000000048e-04,3.954839771277532634e+01,5.000000000000000278e-02
2.298789817212300690e+00,1.033122686902312903e+00,8.351984667518079775e-01,1.000000000000000048e-04,4.367973720680236482e+01,5.000000000000000278e-02
4.579369216200088744e-01,-4.367369988009384141e-01,3.053368881765048393e-01,1.000000000000000048e-04,4.100826923066844643e+01,5.000000000000000278e-02
6.919884593188743160e-01,6.820227254020214680e-01,7.610747161709014996e-01,1.000000000000000048e-04,4.335073593838573203e+01,5.000000000000000278e-02
-4.557056042578970789e-01,8.282264057709980420e-01,6.203773482866530298e-01,1.000000000000000048e-04,4.286973612232763742e+01,5.000000000000000278e-02
-7.416167792809327253e-01,1.924056372608229371e-01,8.421315257425434631e-01,1.000000000000000048e-04,4.368856036523385455e+01,5.000000000000000278e-02
1.408809516543851004e+00,-3.910332430269951587e-01,4.176279869775820774e-01,1.000000000000000048e-04,4.185021630231754131e+01,5.000000000000000278e-02
-7.735168901637772265e-01,3.341639042416733041e-01,8.880619836108041287e-01,1.000000000000000048e-04,4.380248954498198088e+01,5.000000000000000278e-02
-2.627589641613976124e+00,-5.674546312220707378e-02,8.303100620472991800e-01,1.000000000000000048e-04,4.365927313095028950e+01,5.000000000000000278e-02
-2.678222786002628641e+00,1.128244312307521202e+00,3.238641959646046953e-01,1.000000000000000048e-04,4.108102329142181475e+01,5.000000000000000278e-02
4.363039455891009055e-01,-8.848644594803656283e-01,8.775599030236160836e-01,1.000000000000000048e-04,4.379521863136370285e+01,5.000000000000000278e-02
-1.631192255073488973e+00,-1.123982880365504311e+00,8.826106302282397120e-01,1.000000000000000048e-04,4.383426345855360040e+01,5.000000000000000278e-02
1.471158215437933237e-01,5.501667261649618723e-01,5.343365363321235240e-01,1.000000000000000048e-04,4.239978692498389989e+01,5.000000000000000278e-02
1.976949058098651513e-01,-1.470223872285183031e+00,1.720879752884589831e-01,1.000000000000000048e-04,3.953032831318739682e+01,5.000000000000000278e-02
-1.217271922606705692e+00,-1.395590627600826750e-01,5.645389584162607832e-01,1.000000000000000048e-04,4.251423516605458275e+01,5.000000000000000278e-02
-8.714657139613279924e-03,-2.422265502613292210e-01,3.336526388481779737e-01,1.000000000000000048e-04,4.125425488297009480e+01,5.000000000000000278e-02
-2.139025279088992093e+00,6.968304396500148989e-01,3.264020178072100098e-01,1.000000000000000048e-04,4.106211890902586248e+01,5.000000000000000278e-02
9.838117874724243705e-01,1.033607740448368784e+00,6.751711150952386387e-01,1.000000000000000048e-04,4.301951961739757735e+01,5.000000000000000278e-02
1.306514047597852723e+00,1.458728358671042447e+00,7.909350488756881070e-01,1.000000000000000048e-04,4.348810441550543260e+01,5.000000000000000278e-02
1.094329325097653793e+00,-1.193435659695821771e+00,5.933732898021093494e-01,1.000000000000000048e-04,4.280906451358696785e+01,5.000000000000000278e-02
3.911543213378010364e-01,3.081977735351704162e-02,7.785728896341059802e-01,1.000000000000000048e-04,4.348494205418806757e+01,5.000000000000000278e-02
2.337886570290168997e+00,6.396354874594791795e-01,6.970506291565250478e-01,1.000000000000000048e-04,4.319117362369185997e+01,5.000000000000000278e-02
2.811107008873299229e+00,1.152953623042307640e+00,7.641657863197719447e-01,1.000000000000000048e-04,4.339314847527237617e+01,5.000000000000000278e-02
2.362490695538091323e+00,-8.592979710224790679e-01,3.314261558573532440e-01,1.000000000000000048e-04,4.128197676853093867e+01,5.000000000000000278e-02
-2.311139761081811628e+00,-9.878587096200518447e-01,8.457747601030338735e-01,1.000000000000000048e-04,4.360034302867796896e+01,5.000000000000000278e-02
-2.951640097410360930e+00,-3.535519816951075978e-01,2.602103247760918503e-01,1.000000000000000048e-04,4.065964413646501896e+01,5.000000000000000278e-02
2.403773371537920589e+00,-4.337996065682936386e-01,8.983427489072324246e-01,1.000000000000000048e-04,4.377743487145571777e+01,5.000000000000000278e-02
-2.665110324659329510e+00,-5.003740251010062590e-01,1.540710371764411057e-01,1.000000000000000048e-04,3.932752200692520717e+01,5.000000000000000278e-02
8.897865377977023371e-01,-3.524866614220487637e-01,7.516403896091556902e-01,1.000000000000000048e-04,4.334698830559589311e+01,5.000000000000000278e-02
-8.087586895202454329e-01,-7.347442291441103057e-01,2.813498718902707196e-01,1.000000000000000048e-04,4.078583216633157349e+01,5.000000000000000278e-02
-2.768138738134568566e+00,4.611105220329902998e-01,4.640910100159683083e-01,1.000000000000000048e-04,4.199131865081643866e+01,5.000000000000000278e-02
2.952351299843222421e+00,-6.337091297126005163e-01,7.207586330572133271e-01,1.000000000000000048e-04,4.329813019809174079e+01,5.000000000000000278e-02
5.763145541969194596e-02,1.049996886878513447e+00,2.870439511862816762e-01,1.000000000000000048e-04,4.088659679117084522e+01,5.000000000000000278e-02
-2.685161497351291615e+00,-5.745069976882836160e-01,3.337912642067699664e-01,1.000000000000000048e-04,4.127798846038503200e+01,5.000000000000000278e-02
3.053384205832201381e-01,-6.218238447453066087e-01,1.311140401288530821e-01,1.000000000000000048e-04,3.893122461362833775e+01,5.000000000000000278e-02
-2.632922552165442909e+00,-9.156138977599408424e-01,7.337109045695624499e-01,1.000000000000000048e-04,4.334806212445660378e+01,5.000000000000000278e-02
-1.128318889131032066e+00,2.462908022304959310e-01,6.845935301333430090e-01,1.000000000000000048e-04,4.313676565760155768e+01,5.000000000000000278e-02
-6.791338395191433008e-01,3.836282937359070111e-02,9.096810746897643352e-01,1.000000000000000048e-04,4.381666233100136765e+01,5.000000000000000278e-02
2.242999486668388442e+00,7.646449608262564368e-01,8.880893888020551241e-01,1.000000000000000048e-04,4.380266560352744420e+01,5.000000000000000278e-02
2.521716181211203001e+00,8.131084866328213145e-01,7.502447952347135463e-01,1.000000000000000048e-04,4.333800944952813694e+01,5.000000000000000278e-02
8.632869471906889913e-01,7.936931217058784682e-01,7.046036268267446001e-01,1.000000000000000048e-04,4.317315445248242156e+01,5.000000000000000278e-02
4.592944420086215729e-01,9.188609541933590030e-01,1.449087924725829257e-01,1.000000000000000048e-04,3.907323928313997641e+01,5.000000000000000278e-02
1.880917552178297925e+00,-1.196928418885521372e+00,4.158190652964401934e-01,1.000000000000000048e-04,4.190314201726904741e+01,5.000000000000000278e-02
4.649621904388583360e-01,-2.692076544391692750e-01,3.528725649425850097e-01,1.000000000000000048e-04,4.131393957693047270e+01,5.000000000000000278e-02
-1.321298697545653544e+00,-3.204922950982849184e-01,4.766613037606928227e-01,1.000000000000000048e-04,4.208545073260469138e+01,5.000000000000000278e-02
5.360116130713046267e-01,-4.200518749586383827e-01,6.819497482174887715e-01,1.000000000000000048e-04,4.312863920159910691e+01,5.000000000000000278e-02
-3.585590072138411522e-01,-2.360295944695391945e-01,6.758196783241383621e-01,1.000000000000000048e-04,4.301282122077843439e+01,5.000000000000000278e-02
-1.800454389490761864e+00,-7.517097212671065565e-01,9.414623399588843977e-01,1.000000000000000048e-04,4.399432500013899272e+01,5.000000000000000278e-02
-6.316139452018965095e-01,-9.553813433430174973e-01,2.185466365226806928e-01,1.000000000000000048e-04,4.023763290563812234e+01,5.000000000000000278e-02
-2.751832297083635304e+00,7.302675642614397944e-02,1.963716683587080070e-01,1.000000000000000048e-04,3.989273304722701852e+01,5.000000000000000278e-02
-9.452174434609825759e-01,-4.150460526964991903e-01,3.211492751632138987e-01,1.000000000000000048e-04,4.103890589414249490e+01,5.000000000000000278e-02
5.866716579615709470e-01,6.791743624560231396e-02,3.451333990996796608e-01,1.000000000000000048e-04,4.127041410372464014e+01,5.000000000000000278e-02
4.104566979268122751e-01,-2.336343141315511129e-01,6.740172950664420348e-01,1.000000000000000048e-04,4.306053174087739421e+01,5.000000000000000278e-02
1.652252395013314334e+00,1.591316642439029039e-01,5.045948383583060970e-01,1.000000000000000048e-04,4.233810272091876925e+01,5.000000000000000278e-02
2.094274088543965462e+00,2.215986254990656157e-01,7.173015496257293400e-01,1.000000000000000048e-04,4.326606706596157892e+01,5.000000000000000278e-02
1.121483448069810152e+00,7.907759036446404544e-01,7.311037214544842122e-01,1.000000000000000048e-04,4.329607775374817891e+01,5.000000000000000278e-02
-1.986727177920579734e-01,3.760254018778763641e-01,8.572882002335753260e-01,1.000000000000000048e-04,4.376319829881361301e+01,5.000000000000000278e-02
2.998270850514510144e+00,9.324290933248331470e-01,6.006714844327458724e-01,1.000000000000000048e-04,4.285043202506946614e+01,5.000000000000000278e-02
1.344197250956561618e+00,-8.469710692342408143e-01,1.611168400164670889e-01,1.000000000000000048e-04,3.955840315107762706e+01,5.000000000000000278e-02
-1.990486082940124524e+00,-5.800187884221963408e-02,5.509618683695196584e-01,1.000000000000000048e-04,4.244276502923504069e+01,5.000000000000000278e-02
7.392764560054052581e-01,1.257834852636223744e-01,7.749155620974335079e-01,1.000000000000000048e-04,4.341030258447416657e+01,5.000000000000000278e-02
-1.966204023728954198e+00,-4.405823938499202619e-01,7.346911666116155981e-01,1.000000000000000048e-04,4.332244929435312741e+01,5.000000000000000278e-02
1.701349034892012391e-01,2.356552232303581462e-01,5.156837595973462474e-01,1.000000000000000048e-04,4.232380179284183441e+01,5.000000000000000278e-02
1.701445219201493941e+00,6.405883516411559064e-01,4.857839697812611490e-01,1.000000000000000048e-04,4.220841948655953502e+01,5.000000000000000278e-02
-1.206507552895093482e+00,8.216494697875873499e-01,3.309386724065319640e-01,1.000000000000000048e-04,4.109066831059261204e+01,5.000000000000000278e-02
1.756848942285116344e+00,-2.241002791299164798e-01,1.475901827960626189e-01,1.000000000000000048e-04,3.932072882290127325e+01,5.000000000000000278e-02
-2.371027031491945269e+00,2.911058503633137118e-01,1.633428587324277093e-01,1.000000000000000048e-04,3.942738321155256642e+01,5.000000000000000278e-02
1.595525644393477549e+00,1.376289757647096046e+00,6.976962573740392859e-01,1.000000000000000048e-04,4.314200727808682956e+01,5.000000000000000278e-02
-2.389678646183184707e+00,1.030484520913814706e+00,9.322892967031422007e-01,1.000000000000000048e-04,4.387549702291546794e+01,5.000000000000000278e-02
5.047956863013385309e-01,1.067124641580054600e+00,7.507142588782804715e-01,1.000000000000000048e-04,4.338512411846265593e+01,5.000000000000000278e-02
1.752056447357616342e+00,1.199124262588389112e-01,8.187718842224904758e-01,1.000000000000000048e-04,4.354942506841528882e+01,5.000000000000000278e-02
-1.476529871853033304e+00,1.036886310712917147e+00,9.538181696034855328e-01,1.000000000000000048e-04,4.401593799537726426e+01,5.000000000000000278e-02
1.435333176846630643e+00,-2.519046103048125929e-01,4.358758897591805681e-01,1.000000000000000048e-04,4.196793920231704078e+01,5.000000000000000278e-02
2.932731111063461960e+00,-6.387906785515728991e-02,1.181338434539700444e-01,1.000000000000000048e-04,3.873867293632470421e+01,5.000000000000000278e-02
1.561231882933584281e+00,3.681294087937665438e-01,7.008867358071668718e-01,1.000000000000000048e-04,4.319542317835163203e+01,5.000000000000000278e-02
1.898354891936750555e+00,-7.786193887503269906e-01,6.867505461050000815e-01,1.000000000000000048e-04,4.311536773600238348e+01,5.000000000000000278e-02
2.903329453369253521e+00,3.048560435128018220e-01,3.178613582696105944e-01,1.000000000000000048e-04,4.115658764048699680e+01,5.000000000000000278e-02
3.126001115908470851e+00,-5.997890537530295996e-01,6.556144992482204614e-01,1.000000000000000048e-04,4.296034563097355630e+01,5.000000000000000278e-02
1.625913386822555040e+00,1.139960212900168024e+00,4.942058263664299567e-01,1.000000000000000048e-04,4.224403784852874821e+01,5.000000000000000278e-02
2.672345055699758554e-01,2.593503465643580697e-01,2.577580989373462472e-01,1.000000000000000048e-04,4.048757912128846925e+01,5.000000000000000278e-02
-2.559060071681833914e+00,-2.806970356954674450e-02,3.725674289479903312e-01,1.000000000000000048e-04,4.153153856054679238e+01,5.000000000000000278e-02
2.836278238402996088e+00,-1.563242914696849617e-01,2.501159270105743904e-01,1.000000000000000048e-04,4.048270421501862870e+01,5.000000000000000278e-02
1.693252519980534387e+00,6.032590133659558873e-01,6.232237799825184332e-01,1.000000000000000048e-04,4.289444986661151660e+01,5.000000000000000278e-02
-4.837622877298088930e-01,-8.586662268465909964e-01,3.093297482848871294e-01,1.000000000000000048e-04,4.106626617474665863e+01,5.000000000000000278e-02
-2.348829006778157868e+00,-7.860694220859762993e-01,1.480812264153659186e-01,1.000000000000000048e-04,3.918701340045003434e+01,5.000000000000000278e-02
-4.884556352960256476e-03,-6.032533904265149349e-01,2.873901845762616425e-01,1.000000000000000048e-04,4.086552652932255114e+01,5.000000000000000278e-02
-2.586300136180829767e+00,-3.154761561931942460e-01,4.470748612698471902e-01,1.000000000000000048e-04,4.192827072345280470e+01,5.000000000000000278e-02
-2.523533816014373432e+00,1.233476427667073327e+00,9.406359602566569666e-01,1.000000000000000048e-04,4.392917913929650098e+01,5.000000000000000278e-02
-1.789964481553777409e+00,3.522798498305212966e-01,2.895495358113715501e-01,1.000000000000000048e-04,4.083852175067045209e+01,5.000000000000000278e-02
-2.408923574445935412e+00,-5.826095661273589243e-02,3.466354857550326685e-01,1.000000000000000048e-04,4.128214438369025174e+01,5.000000000000000278e-02
3.129895855166716423e+00,-1.388289795936989979e-01,1.214604487334602911e-01,1.000000000000000048e-04,3.883188579961073827e+01,5.000000000000000278e-02
-1.174904916171287450e+00,-1.228895321465086621e-01,5.577165817996529995e-01,1.000000000000000048e-04,4.243834401485991492e+01,5.000000000000000278e-02
-1.962474474756422449e+00,2.595129291569677754e-01,9.446173200662013603e-01,1.000000000000000048e-04,4.398867057601091091e+01,5.000000000000000278e-02
-2.799245629084914366e+00,-8.945232751261368298e-01,9.124040197716667411e-01,1.000000000000000048e-04,4.389781512301771471e+01,5.000000000000000278e-02
1.516230708693965035e+00,-3.479141879833367312e-01,4.227747271591826284e-01,1.000000000000000048e-04,4.188331789098714353e+01,5.000000000000000278e-02
-2.333982314220852228e+00,2.888077004437681339e-01,6.986365697630949612e-01,1.000000000000000048e-04,4.314728149647656608e+01,5.000000000000000278e-02
2.726859895269458711e+00,-6.539683675001439767e-02,2.172932760032475485e-01,1.000000000000000048e-04,4.022446555039115168e+01,5.000000000000000278e-02
-1.863621580390409038e+00,-8.068019746447699925e-01,1.236350721451309198e-01,1.000000000000000048e-04,3.880602501232414880e+01,5.000000000000000278e-02
-2.672466886734561342e+00,-4.533378789976592049e-01,8.017120624603131240e-01,1.000000000000000048e-04,4.355797902607577043e+01,5.000000000000000278e-02
-1.917496805549596672e+00,-4.339377784912752389e-01,6.762234853906758936e-01,1.000000000000000048e-04,4.314050297177347915e+01,5.000000000000000278e-02
-1.527336669868398111e+00,-8.323249423783307677e-01,2.273832857789375161e-01,1.000000000000000048e-04,4.025845670910122465e+01,5.000000000000000278e-02
4.705853752366611076e-01,-2.411732574400671236e-01,3.417662150378246722e-01,1.000000000000000048e-04,4.129950497577112145e+01,5.000000000000000278e-02
2.039925058694264770e+00,-1.064543992696673769e+00,2.704993479453912109e-01,1.000000000000000048e-04,4.071267216370582531e+01,5.000000000000000278e-02
-2.972496648016098142e+00,-3.722308588315688116e-01,1.513104492487500341e-01,1.000000000000000048e-04,3.935238570271352643e+01,5.000000000000000278e-02
-2.622993817939830663e+00,1.357189523159108901e+00,3.610716850227662089e-01,1.000000000000000048e-04,4.139337099220749394e+01,5.000000000000000278e-02
-4.671999796099246538e-02,-8.189901991653147917e-03,5.316776706042096734e-01,1.000000000000000048e-04,4.237172247229457867e+01,5.000000000000000278e-02
-2.627451188977488528e+00,7.385980192453458493e-01,5.533233726212782866e-01,1.000000000000000048e-04,4.258281528500280899e+01,5.000000000000000278e-02
-1.941699528706606115e+00,-1.884762714332000044e-01,6.826778135083559906e-01,1.000000000000000048e-04,4.308818831886035383e+01,5.000000000000000278e-02
-2.804254476180263467e+00,1.291588538651316842e+00,7.222629634582691249e-01,1.000000000000000048e-04,4.327059234823148159e+01,5.000000000000000278e-02
2.084392941280338363e+00,-3.319242566762115043e-01,1.747763201387202425e-01,1.000000000000000048e-04,3.982215071052980448e+01,5.000000000000000278e-02
-9.427253874294345692e-01,2.426134410515869977e-01,8.553704901130809723e-01,1.000000000000000048e-04,4.375007378988123463e+01,5.000000000000000278e-02
-1.001909635111139618e+00,-7.004706806903285843e-01,4.906368198245223411e-01,1.000000000000000048e-04,4.216981246229893543e+01,5.000000000000000278e-02
6.676915174751316684e-01,-6.650805734977738304e-01,2.247185494132950545e-01,1.000000000000000048e-04,4.032319434793298996e+01,5.000000000000000278e-02
1.782654576746002029e+00,9.462528645414480799e-01,1.221888254506591220e-01,1.000000000000000048e-04,3.895533416957394479e+01,5.000000000000000278e-02
1.348754947118740333e+00,1.202472962321980976e-01,6.094022037414159598e-01,1.000000000000000048e-04,4.273371613842182626e+01,5.000000000000000278e-02
-2.942309331580574838e+00,3.854517280123803680e-02,3.797502620959865016e-01,1.000000000000000048e-04,4.158691114249060661e+01,5.000000000000000278e-02
2.204305494467373450e+00,9.328020943297725687e-01,1.449951321202045396e-01,1.000000000000000048e-04,3.922964103021450910e+01,5.000000000000000278e-02
-1.503558467822556199e+00,-3.080557999093531674e-01,8.353914045415393730e-01,1.000000000000000048e-04,4.367923772032381180e+01,5.000000000000000278e-02
1.847005378560195865e-01,-8.665234087963693543e-01,8.472086614951039873e-01,1.000000000000000048e-04,4.365948250638115979e+01,5.000000000000000278e-02
-3.089415874930859562e+00,-3.080550817485185888e-01,8.144681338510639801e-01,1.000000000000000048e-04,4.356291340497874387e+01,5.000000000000000278e-02
1.416883061755792816e+00,6.336542343113067410e-01,7.172956493459623495e-01,1.000000000000000048e-04,4.325865739753215422e+01,5.000000000000000278e-02
-2.576560893340727798e+00,1.844311248487020549e-01,3.104525280334009540e-01,1.000000000000000048e-04,4.105916842738626826e+01,5.000000000000000278e-02
1.691151588804759243e+00,-1.163541384668342893e-01,3.111635043020353208e-01,1.000000000000000048e-04,4.117906864332154981e+01,5.000000000000000278e-02
5.875906732472468974e-02,1.255068535255918771e-01,8.206937301791925599e-01,1.000000000000000048e-04,4.366008722144110266e+01,5.000000000000000278e-02
1.141974589521084660e+00,-1.679113750751115575e-02,2.268830359440847655e-01,1.000000000000000048e-04,4.026690349091770571e+01,5.000000000000000278e-02
-2.480527436175493428e+00,-6.498422147136692084e-01,5.516455257053725081e-01,1.000000000000000048e-04,4.258099645302419844e+01,5.000000000000000278e-02
-3.066944944257604000e+00,-4.512110650175131799e-01,7.447802355801793617e-01,1.000000000000000048e-04,4.341667542554235837e+01,5.000000000000000278e-02
2.438378489600633969e+00,3.547798690050907311e-01,7.737984507124402445e-01,1.000000000000000048e-04,4.343637662684214718e+01,5.000000000000000278e-02
1.172051411388955522e+00,8.353421432999956764e-01,7.158593421884260621e-01,1.000000000000000048e-04,4.323148573340187539e+01,5.000000000000000278e-02
2.618703325567891760e+00,4.580666903669503576e-01,4.133237186289093756e-01,1.000000000000000048e-04,4.174729218733345704e+01,5.000000000000000278e-02
-2.286548026254372701e+00,5.079619333508733625e-01,2.757728363333247223e-01,1.000000000000000048e-04,4.072056620584734787e+01,5.000000000000000278e-02
1.330912197240654571e+00,8.565470875896483705e-01,4.100342798038763004e-01,1.000000000000000048e-04,4.173374422501379399e+01,5.000000000000000278e-02
5.061027196895073743e-02,1.551076690421335780e-01,4.487277754960847798e-01,1.000000000000000048e-04,4.193472970326894966e+01,5.000000000000000278e-02
1.375906983020460217e+00,-7.875958009513883695e-02,7.414056808888405126e-01,1.000000000000000048e-04,4.339534351088760644e+01,5.000000000000000278e-02
-8.283030638719366401e-01,8.281477725175365734e-01,2.096393400191365330e-01,1.000000000000000048e-04,3.997563250613811192e+01,5.000000000000000278e-02
1.525038970461942256e+00,-3.919132446429645089e-01,4.808629591955511096e-01,1.000000000000000048e-04,4.214068870056267713e+01,5.000000000000000278e-02
-2.498784032149372614e-01,5.193609221174915191e-01,1.676578563319739423e-01,1.000000000000000048e-04,3.941647852551474784e+01,5.000000000000000278e-02
2.239128690923111620e+00,1.273583793462606639e+00,1.485581609016253246e-01,1.000000000000000048e-04,3.914021204691064781e+01,5.000000000000000278e-02
2.495809722497875249e+00,1.418695866007699813e-01,6.401594432666453116e-01,1.000000000000000048e-04,4.290900426395889866e+01,5.000000000000000278e-02
-1.112708199190671987e+00,-4.897152410228486907e-01,2.178753772276034173e-01,1.000000000000000048e-04,4.006008050183285008e+01,5.000000000000000278e-02
-2.406934629178334895e+00,4.969020464685414140e-01,2.409553642023603004e-01,1.000000000000000048e-04,4.029800672966047870e+01,5.000000000000000278e-02
-8.891278534497040198e-01,-4.027970683600694546e-01,5.251666517301099013e-01,1.000000000000000048e-04,4.238973346233788675e+01,5.000000000000000278e-02
6.932893236892518907e-01,6.230672258885738835e-01,1.717217893789360073e-01,1.000000000000000048e-04,3.962783396447256479e+01,5.000000000000000278e-02
1.609131613657807769e+00,6.474167799685730529e-01,6.078113001325473608e-01,1.000000000000000048e-04,4.280710366803979383e+01,5.000000000000000278e-02
1.635300292216271600e+00,7.268981805293828202e-01,3.239126227789430601e-01,1.000000000000000048e-04,4.118017341798831410e+01,5.000000000000000278e-02
2.877504815858082488e+00,-8.341407251905266218e-01,8.277982352441857206e-01,1.000000000000000048e-04,4.355777988402383016e+01,5.000000000000000278e-02
-1.976330624741532649e+00,2.799612226283469951e-01,7.677901809502312158e-01,1.000000000000000048e-04,4.339619586121008155e+01,5.000000000000000278e-02
1.292560460851963633e+00,1.402540810926085069e+00,1.613538552090338918e-01,1.000000000000000048e-04,3.944594298096837548e+01,5.000000000000000278e-02
-2.536557516356318320e+00,3.827731884947627172e-02,8.618953160085529586e-01,1.000000000000000048e-04,4.378019867347644123e+01,5.000000000000000278e-02
1.753433672024506507e+00,2.772373600306963226e-01,8.718367474123704941e-01,1.000000000000000048e-04,4.373432196555620521e+01,5.000000000000000278e-02
-9.143273490783476731e-01,5.190495094424769640e-01,3.122757213250548780e-01,1.000000000000000048e-04,4.101922011783150168e+01,5.000000000000000278e-02
-2.162220757262957260e+00,-4.372349367141414866e-02,7.024289871129905105e-01,1.000000000000000048e-04,4.311908331543607176e+01,5.000000000000000278e-02
3.981838192054798498e-01,3.518497661747055361e-02,6.419879667312147209e-01,1.000000000000000048e-04,4.292819681737414328e+01,5.000000000000000278e-02
2.646158762555126387e+00,-2.127723187493766321e-01,7.602141747211548228e-01,1.000000000000000048e-04,4.341961207895888464e+01,5.000000000000000278e-02
4.322002629726826584e-01,2.644532413689109074e-01,1.496730534769372678e-01,1.000000000000000048e-04,3.927818294676934130e+01,5.000000000000000278e-02
3.753819740866597421e-01,-4.540049066204547845e-01,3.462923832392179602e-01,1.000000000000000048e-04,4.139976332999835051e+01,5.000000000000000278e-02
-1.807440190713738071e+00,2.966582082052591218e-01,1.044663545614841205e-01,1.000000000000000048e-04,3.830820435137273705e+01,5.000000000000000278e-02
-2.528298614442190839e+00,-6.670532650336332692e-01,2.681178150982177488e-01,1.000000000000000048e-04,4.069069304538794540e+01,5.000000000000000278e-02
9.031773003438861025e-01,-4.320536948857123249e-02,6.759719442774554388e-01,1.000000000000000048e-04,4.309462967461305283e+01,5.000000000000000278e-02
-3.141149679276453721e+00,-2.689630591530729475e-01,3.470964302390644463e-01,1.000000000000000048e-04,4.132478854414767966e+01,5.000000000000000278e-02
-1.225791007679610800e-03,1.794457579141006676e-01,9.404052009269188162e-01,1.000000000000000048e-04,4.396316608477251009e+01,5.000000000000000278e-02
-2.730753105233802991e-01,-2.800249647596708691e-01,6.768218241173209471e-01,1.000000000000000048e-04,4.308322946246567398e+01,5.000000000000000278e-02
1.059883449052015258e+00,7.950578625191249138e-01,2.584612130497447868e-01,1.000000000000000048e-04,4.061931840845493014e+01,5.000000000000000278e-02
6.428754329999044614e-01,6.339502993419023902e-01,8.141448661050110225e-01,1.000000000000000048e-04,4.357877868079667394e+01,5.000000000000000278e-02
2.463177090277009817e+00,-8.450196529941707002e-01,4.902717588890510569e-01,1.000000000000000048e-04,4.217531523176231190e+01,5.000000000000000278e-02
1.056712967354759058e+00,7.499391837151341278e-01,1.919673490210211941e-01,1.000000000000000048e-04,3.987584615559364210e+01,5.000000000000000278e-02
2.560974174551951421e+00,1.390692452482396035e+00,8.910093926642177475e-01,1.000000000000000048e-04,4.386186196770581347e+01,5.000000000000000278e-02
-1.661488441321340215e+00,-8.294154033129190751e-01,6.017491641864907148e-01,1.000000000000000048e-04,4.278080036770989381e+01,5.000000000000000278e-02
-1.059149925670521686e+00,7.447586892284920879e-01,5.981895758589355072e-01,1.000000000000000048e-04,4.276940015943403495e+01,5.000000000000000278e-02
1.818114634610326519e+00,1.699293085113766644e-01,2.944690603288349084e-01,1.000000000000000048e-04,4.089939281685133210e+01,5.000000000000000278e-02
-1.162508293099762779e+00,6.033793918692746949e-01,9.371668081500377223e-01,1.000000000000000048e-04,4.393922660876954467e+01,5.000000000000000278e-02
2.075302418197421339e+00,4.979400383656717999e-02,4.875467864752967007e-01,1.000000000000000048e-04,4.227096869130861734e+01,5.000000000000000278e-02
2.486996191698520597e+00,-2.983316852438742117e-01,4.863050976320808516e-01,1.000000000000000048e-04,4.226773911391788374e+01,5.000000000000000278e-02
1.141698163793686938e+00,-1.222775091764410904e+00,7.209590199566622282e-01,1.000000000000000048e-04,4.323375840948216364e+01,5.000000000000000278e-02
-3.368950474050045329e-01,-4.464579855233103967e-01,6.651982214506761970e-01,1.000000000000000048e-04,4.299150758984215059e+01,5.000000000000000278e-02
-2.293285961193124223e+00,3.611746759802092477e-02,6.708704415627713136e-01,1.000000000000000048e-04,4.309122248117429876e+01,5.000000000000000278e-02
1.399839509659974723e-01,5.702146765211439927e-01,1.620042563500976307e-01,1.000000000000000048e-04,3.952159846495721496e+01,5.000000000000000278e-02
-9.928339341376060112e-01,-5.159645591420476407e-01,2.164859663934828315e-01,1.000000000000000048e-04,4.013040540329507166e+01,5.000000000000000278e-02
-1.444902459336051770e+00,-7.164211971086399400e-01,3.011124552074917471e-01,1.000000000000000048e-04,4.093235144920317481e+01,5.000000000000000278e-02
-2.550470913202064427e+00,-4.590998863205406622e-01,7.976900180038235533e-01,1.000000000000000048e-04,4.347623819491860075e+01,5.000000000000000278e-02
-1.717625830374947871e+00,1.611669740726395794e-01,7.517300321201296764e-01,1.000000000000000048e-04,4.336241866914162557e+01,5.000000000000000278e-02
-1.706038886156348022e+00,-3.709709024180216641e-01,7.186001555276833042e-01,1.000000000000000048e-04,4.323654753452199628e+01,5.000000000000000278e-02
1.229969187078920001e+00,1.060295960642716473e+00,1.287778292062553565e-01,1.000000000000000048e-04,3.882112721094402730e+01,5.000000000000000278e-02
7.996743877089684815e-01,-1.233526705379661692e-02,1.131559380376141455e-01,1.000000000000000048e-04,3.872335670677539099e+01,5.000000000000000278e-02
1.653057313477251711e+00,-3.404766703132862116e-01,6.623582151187696887e-01,1.000000000000000048e-04,4.302434081965139256e+01,5.000000000000000278e-02
-1.540362864552976108e+00,-5.169291210030757533e-02,7.263263719236272564e-01,1.000000000000000048e-04,4.319020682949872736e+01,5.000000000000000278e-02
2.446442468594756114e+00,1.448011854223585360e-01,9.321179025247423588e-01,1.000000000000000048e-04,4.400139716794858202e+01,5.000000000000000278e-02
3.033329709651891193e+00,-2.685396241910726900e-01,2.151828955595000981e-01,1.000000000000000048e-04,4.013429329927546974e+01,5.000000000000000278e-02
1.622553649277270971e+00,-1.054028265678556897e+00,5.487253978671942090e-01,1.000000000000000048e-04,4.258661758362578098e+01,5.000000000000000278e-02
1.208488670149281852e+00,5.158041423206927156e-01,3.343695646996081017e-01,1.000000000000000048e-04,4.128415822948763036e+01,5.000000000000000278e-02
2.514392799976360671e+00,1.566156388878852113e-01,4.635730111594618119e-01,1.000000000000000048e-04,4.208163687695348898e+01,5.000000000000000278e-02
5.390826169327223027e-01,-6.929237791172669914e-01,7.884226824145963430e-01,1.000000000000000048e-04,4.346886563973843920e+01,5.000000000000000278e-02
3.138218961086280956e+00,7.341927588353414080e-02,6.530866998851705407e-01,1.000000000000000048e-04,4.304900699734887581e+01,5.000000000000000278e-02
-6.112037927380780111e-01,-9.149498691729706090e-01,6.753081537179501659e-01,1.000000000000000048e-04,4.311799920543247566e+01,5.000000000000000278e-02
1.424477399854757742e-01,-9.680190946193534263e-01,2.008593870090102929e-01,1.000000000000000048e-04,3.999489076504338669e+01,5.000000000000000278e-02
-2.295494579238394284e+00,6.642250749848410685e-01,5.477654783945768990e-01,1.000000000000000048e-04,4.251478411978087735e+01,5.000000000000000278e-02
-3.691809665502088222e-02,-1.220666953632260965e+00,2.185975951215781699e-01,1.000000000000000048e-04,4.014477636281392137e+01,5.000000000000000278e-02
-2.155930428933330312e+00,2.782594830563605015e-01,6.561015182022102987e-01,1.000000000000000048e-04,4.299120733374492431e+01,5.000000000000000278e-02
-1.735350238816687929e+00,4.614496936294387730e-01,9.396389799091253714e-01,1.000000000000000048e-04,4.405020107313422528e+01,5.000000000000000278e-02
1.437114951793731166e+00,6.766506572062280789e-01,5.385102622312569753e-01,1.000000000000000048e-04,4.258324488123331975e+01,5.000000000000000278e-02
1.551000135537656810e+00,-4.505836594816334806e-01,2.732309191159336681e-01,1.000000000000000048e-04,4.073340711684009108e+01,5.000000000000000278e-02
2.012590461751289972e+00,-8.419287382565920907e-02,4.349223421973784642e-01,1.000000000000000048e-04,4.195385329349979742e+01,5.000000000000000278e-02
-2.281587984149184400e+00,-7.759429845124232727e-02,8.661099923032880010e-01,1.000000000000000048e-04,4.376680142685394515e+01,5.000000000000000278e-02
5.175381801826501871e-01,4.234991008931372480e-01,3.529101179857485615e-01,1.000000000000000048e-04,4.140444782250472855e+01,5.000000000000000278e-02
-1.949681049147820033e+00,2.309835161370796808e-01,8.729754629856636416e-01,1.000000000000000048e-04,4.373965159405234004e+01,5.000000000000000278e-02
5.155855883849072008e-01,-8.366226459442738239e-02,2.603472673029016971e-01,1.000000000000000048e-04,4.056502352636986330e+01,5.000000000000000278e-02
-1.810621965143765610e+00,4.908091462794459403e-01,5.483511516201342584e-01,1.000000000000000048e-04,4.244601897619213560e+01,5.000000000000000278e-02
-1.910541171765100854e+00,6.991388946424961226e-01,2.173989768227144737e-01,1.000000000000000048e-04,4.008290585606153655e+01,5.000000000000000278e-02
-3.099477954883882891e+00,-6.122759866865356004e-01,2.794842536749670980e-01,1.000000000000000048e-04,4.074771177189132487e+01,5.000000000000000278e-02
-4.758305137263985074e-01,-2.719427342602900310e-01,7.935364415596610765e-01,1.000000000000000048e-04,4.339690674914760393e+01,5.000000000000000278e-02
-3.079287859432509045e+00,2.027212651523164766e-01,8.765190809297660479e-01,1.000000000000000048e-04,4.380574369083662845e+01,5.000000000000000278e-02
-2.178261438614487844e+00,1.131286073486103216e+00,7.163897578820701550e-01,1.000000000000000048e-04,4.320066644867240768e+01,5.000000000000000278e-02
-1.057707744502288438e+00,4.321058542772058253e-01,3.111846940554250374e-01,1.000000000000000048e-04,4.098985704542791808e+01,5.000000000000000278e-02
-2.799144521354612891e+00,1.149036665970386117e+00,1.301676292213109765e-01,1.000000000000000048e-04,3.877614019610160057e+01,5.000000000000000278e-02
1.152193700133321563e+00,-1.000484791405695795e-01,1.639857726888103162e-01,1.000000000000000048e-04,3.951113156672899862e+01,5.000000000000000278e-02
1.430222067894610483e+00,8.523653805690667440e-01,7.871445878674201424e-01,1.000000000000000048e-04,4.346308904046394161e+01,5.000000000000000278e-02
2.818960047492502063e+00,-1.343518118639404069e-01,1.205606388901094839e-01,1.000000000000000048e-04,3.881010410491315810e+01,5.000000000000000278e-02
1.997218647703505212e+00,1.258969666004386312e+00,1.736528659544085418e-01,1.000000000000000048e-04,3.965207075293573524e+01,5.000000000000000278e-02
-1.241232116436499888e+00,-5.387085659010015792e-01,7.219512441718591855e-01,1.000000000000000048e-04,4.321429974001375740e+01,5.000000000000000278e-02
-2.009983691935773642e+00,5.976566250101216227e-01,9.386114474376268113e-01,1.000000000000000048e-04,4.397097445278787831e+01,5.000000000000000278e-02
-2.417401339214614087e+00,6.331172577675032720e-01,4.797747163501806522e-01,1.000000000000000048e-04,4.209084646523962192e+01,5.000000000000000278e-02
1.134893564316838521e+00,-9.023508785633849172e-03,4.128338150857882027e-01,1.000000000000000048e-04,4.175213673893004085e+01,5.000000000000000278e-02
-1.998900909856522690e+00,1.867821511719145455e-01,5.394311549408785655e-01,1.000000000000000048e-04,4.249772319543965438e+01,5.000000000000000278e-02
9.982218189168001743e-01,-8.758743962036894537e-01,7.115506584303805671e-01,1.000000000000000048e-04,4.329221717156822535e+01,5.000000000000000278e-02
-1.099068296963796598e-01,-2.529610026290747271e-01,8.128636927394312650e-01,1.000000000000000048e-04,4.364931207477545172e+01,5.000000000000000278e-02
-1.905178049723814659e+00,6.050014939107519751e-01,3.393659917292672912e-01,1.000000000000000048e-04,4.114833807184253800e+01,5.000000000000000278e-02
-1.639423905201552012e+00,-1.469848056492105481e+00,3.884665105083049408e-01,1.000000000000000048e-04,4.167674373091038120e+01,5.000000000000000278e-02
1.162398177155876233e+00,-7.385166570876140479e-01,6.037449846548297305e-01,1.000000000000000048e-04,4.280563764241108515e+01,5.000000000000000278e-02
-8.101859814900977952e-01,4.248433309315027273e-01,6.494773491840630797e-01,1.000000000000000048e-04,4.295488292698541954e+01,5.000000000000000278e-02
-2.321834931697465798e+00,6.535761635277119730e-01,8.127034809455060405e-01,1.000000000000000048e-04,4.352479326019321348e+01,5.000000000000000278e-02
2.800525829426833369e+00,6.069421634242213592e-01,7.382480421120267700e-01,1.000000000000000048e-04,4.333749956666424197e+01,5.000000000000000278e-02
-1.993797202540871227e+00,4.916380649499365596e-01,7.732833229224058691e-01,1.000000000000000048e-04,4.340951770033304769e+01,5.000000000000000278e-02
2.862395499752254935e+00,7.645883726920383872e-01,1.255825779180070878e-01,1.000000000000000048e-04,3.886675841385232388e+01,5.000000000000000278e-02
3.118479991158481290e+00,-6.013041581806063407e-01,6.700042292290153689e-01,1.000000000000000048e-04,4.299569870273852956e+01,5.000000000000000278e-02
-4.689226383659113040e-01,-2.011152237905726725e-01,3.632128805905256996e-01,1.000000000000000048e-04,4.144832801655181953e+01,5.000000000000000278e-02
2.321557492664632072e+00,1.034265596008956400e-01,3.506456292102264616e-01,1.000000000000000048e-04,4.140098248865764674e+01,5.000000000000000278e-02
-2.416540588439130666e+00,-1.092934433071553801e+00,5.572657288724796043e-01,1.000000000000000048e-04,4.257488910879776967e+01,5.000000000000000278e-02
-1.055459256842743887e+00,4.774788071090014796e-01,1.721518439196527694e-01,1.000000000000000048e-04,3.951453825405950226e+01,5.000000000000000278e-02
-1.428323995042327432e+00,4.564306197175049817e-02,2.593978954985700636e-01,1.000000000000000048e-04,4.066679766906327842e+01,5.000000000000000278e-02
-1.900429995917283010e+00,8.520931645162441725e-01,3.036557455130755034e-01,1.000000000000000048e-04,4.095670427610337327e+01,5.000000000000000278e-02
1.860588887575703509e+00,5.067578919986206465e-01,2.081927926040483268e-01,1.000000000000000048e-04,4.013513864828568956e+01,5.000000000000000278e-02
3.128120310031736295e+00,1.982003450440190662e-01,8.893258990791612639e-01,1.000000000000000048e-04,4.382061004510331514e+01,5.000000000000000278e-02
-2.592134170957867578e+00,-6.952237739652539217e-01,8.303222636510267929e-01,1.000000000000000048e-04,4.376764706119627135e+01,5.000000000000000278e-02
1.274508090456823339e+00,-1.125791635984980887e+00,5.567630905664822105e-01,1.000000000000000048e-04,4.257159079025293380e+01,5.000000000000000278e-02
2.315775911646060337e+00,4.603399051958305677e-01,7.422397724738196700e-01,1.000000000000000048e-04,4.333837412272909262e+01,5.000000000000000278e-02
2.613578397065273506e+00,2.937691304967611217e-01,1.948334289091921967e-01,1.000000000000000048e-04,3.995990339095275345e+01,5.000000000000000278e-02
-1.473483067394758095e+00,1.243159656442483829e+00,4.246980497312762282e-01,1.000000000000000048e-04,4.181290162745269612e+01,5.000000000000000278e-02
-1.265332485145463259e+00,1.122212015891867587e+00,8.115073288773300142e-01,1.000000000000000048e-04,4.361113825071786465e+01,5.000000000000000278e-02
1.471854024761743318e+00,1.154120727067417640e+00,2.309981803729976857e-01,1.000000000000000048e-04,4.034335059357076858e+01,5.000000000000000278e-02
2.742686936540128073e+00,3.311195078888995447e-02,2.835837490180175280e-01,1.000000000000000048e-04,4.094326247123360218e+01,5.000000000000000278e-02
-2.849712704088709803e+00,4.438456965501629270e-01,2.438417702208779403e-01,1.000000000000000048e-04,4.042965767570307634e+01,5.000000000000000278e-02
1.424560517449555697e+00,5.385125129423626866e-01,4.008793006738844422e-01,1.000000000000000048e-04,4.164256232781184508e+01,5.000000000000000278e-02
-2.006764528985364393e+00,5.431191671912638519e-01,8.618614148805319175e-01,1.000000000000000048e-04,4.373604420416418037e+01,5.000000000000000278e-02
-1.815783785502550263e+00,-8.917651448884467147e-01,6.263881066275927001e-01,1.000000000000000048e-04,4.294496913073652422e+01,5.000000000000000278e-02
-2.528838629137845739e+00,-1.127064069625925313e+00,7.559001587915457065e-01,1.000000000000000048e-04,4.337938920962552203e+01,5.000000000000000278e-02
-5.889297825285431109e-01,-2.939426286839403879e-01,3.335296421768525477e-01,1.000000000000000048e-04,4.120987228478226427e+01,5.000000000000000278e-02
-1.570707545479412159e+00,4.995248517856749615e-01,1.215666147405869424e-01,1.000000000000000048e-04,3.869476569263536447e+01,5.000000000000000278e-02
6.706295318818398243e-01,-2.611083780500260687e-01,7.335857715220841513e-01,1.000000000000000048e-04,4.331289437205285253e+01,5.000000000000000278e-02
1.984376163927771941e+00,-1.216006448494533210e-01,1.577201470430305008e-01,1.000000000000000048e-04,3.951196713493815338e+01,5.000000000000000278e-02
-1.787717752532889115e-01,-5.063116222388461818e-01,6.114003328119048675e-01,1.000000000000000048e-04,4.274337414207674612e+01,5.000000000000000278e-02
-2.273468255638681157e+00,-8.277354269446296486e-01,5.821125270278342256e-01,1.000000000000000048e-04,4.264089757133865533e+01,5.000000000000000278e-02
7.773219356558502824e-01,-3.307206895829142290e-01,3.066321433620571302e-01,1.000000000000000048e-04,4.100672377860711748e+01,5.000000000000000278e-02
-6.910640774680678611e-01,3.692568054254397047e-02,5.760169251444280381e-01,1.000000000000000048e-04,4.264784009705969225e+01,5.000000000000000278e-02
-7.786964174765436120e-01,-5.496440795358501497e-01,5.635714438622616562e-01,1.000000000000000048e-04,4.256441860600997273e+01,5.000000000000000278e-02
-2.791216849806859024e+00,2.434601790933497156e-01,8.322291337562850444e-01,1.000000000000000048e-04,4.365772865632418842e+01,5.000000000000000278e-02
-9.661169267179112730e-01,-3.128432224901407377e-01,7.698788511726968320e-01,1.000000000000000048e-04,4.336767423572993607e+01,5.000000000000000278e-02
8.923807279827169481e-01,-5.503820191774402293e-01,4.901523276956614161e-01,1.000000000000000048e-04,4.217787521701495024e+01,5.000000000000000278e-02
2.822802229232465265e+00,-9.723818135358739401e-01,8.382630401046773372e-01,1.000000000000000048e-04,4.359894461467658999e+01,5.000000000000000278e-02
1.734189211951241205e+00,-1.322693938891607468e+00,8.769468523729966325e-01,1.000000000000000048e-04,4.368217567698194159e+01,5.000000000000000278e-02
4.704718304706640986e-01,7.147851460088343600e-01,8.245684423019994380e-01,1.000000000000000048e-04,4.365362959380836827e+01,5.000000000000000278e-02
-2.838176858903892708e+00,1.217228179447330305e+00,2.276790065988800738e-01,1.000000000000000048e-04,4.029467848625397863e+01,5.000000000000000278e-02
9.905689586574162320e-01,-3.953880403204967919e-01,7.828434744868137951e-01,1.000000000000000048e-04,4.343871054162781320e+01,5.000000000000000278e-02
-2.276477217866952785e+00,-1.719045519713069403e-01,5.995920782896695389e-01,1.000000000000000048e-04,4.271611725747936106e+01,5.000000000000000278e-02
1.259574957819215690e+00,-5.719451963474292411e-01,2.560794187439374703e-01,1.000000000000000048e-04,4.058971440484219073e+01,5.000000000000000278e-02
-7.505805309867641384e-02,-1.263058596183098903e+00,9.413082280078495234e-01,1.000000000000000048e-04,4.398404286478898229e+01,5.000000000000000278e-02
-2.499389252780052750e+00,-7.465910238582316172e-01,2.547561843388657099e-01,1.000000000000000048e-04,4.058955243722224537e+01,5.000000000000000278e-02
-2.152987296828045682e+00,-6.590809388437879335e-02,6.581428721347291066e-01,1.000000000000000048e-04,4.302745472715749031e+01,5.000000000000000278e-02
4.411402620619080395e-01,8.812332654287424738e-01,1.905746114295365778e-01,1.000000000000000048e-04,3.975749562648492486e+01,5.000000000000000278e-02
1.597607884470356510e+00,2.441605990856305919e-01,1.045506749781985878e-01,1.000000000000000048e-04,3.854887539308413125e+01,5.000000000000000278e-02
-2.281092968979376856e+00,3.531925695366051610e-01,5.261098728132842517e-01,1.000000000000000048e-04,4.235449388799204939e+01,5.000000000000000278e-02
-1.499414207246732467e+00,-7.281585810985851115e-01,9.414223349853996226e-01,1.000000000000000048e-04,4.396607441294502649e+01,5.000000000000000278e-02
-2.023632063407569071e+00,6.226036920444482092e-01,4.487722800940654455e-01,1.000000000000000048e-04,4.192850168278822309e+01,5.000000000000000278e-02
-2.563824758143030458e+00,2.351229748535788033e-01,9.000745710929902721e-01,1.000000000000000048e-04,4.400869522183821658e+01,5.000000000000000278e-02
-1.213679047735794603e+00,-1.045302423273176018e+00,4.742372811385580089e-01,1.000000000000000048e-04,4.209942035139143712e+01,5.000000000000000278e-02
-2.745179371940270396e+00,-1.074239693004708229e-01,2.797330300300999717e-01,1.000000000000000048e-04,4.084697706561643571e+01,5.000000000000000278e-02
-6.204648571185211736e-02,1.176509330326321212e+00,6.967355385857492145e-01,1.000000000000000048e-04,4.308816074123053141e+01,5.000000000000000278e-02
2.817354036831516417e-01,-1.260753337960202725e+00,3.839103101698189136e-01,1.000000000000000048e-04,4.158428205781049769e+01,5.000000000000000278e-02
1.437847432377205692e+00,9.047018795620416221e-01,6.909621641411820558e-01,1.000000000000000048e-04,4.327054293919611894e+01,5.000000000000000278e-02
-1.845876814641937314e+00,-4.638001306595123108e-01,7.424290383887865996e-01,1.000000000000000048e-04,4.335480690279094773e+01,5.000000000000000278e-02
3.216120159962225777e-01,9.498661507524741587e-01,2.416927128343138165e-01,1.000000000000000048e-04,4.044693743211761472e+01,5.000000000000000278e-02
2.477430911824697546e+00,-4.406534930118994886e-01,8.554992160741783369e-01,1.000000000000000048e-04,4.373529918905747138e+01,5.000000000000000278e-02
3.002542210676678813e+00,-3.734816984049718069e-01,1.951040698996566736e-01,1.000000000000000048e-04,3.995538085200166734e+01,5.000000000000000278e-02
2.927101939144266751e+00,-5.431406622477832347e-01,3.124098217103603581e-01,1.000000000000000048e-04,4.118265855720876090e+01,5.000000000000000278e-02
-2.805863837023241381e-01,-3.299601507825455915e-01,6.270214764564989718e-01,1.000000000000000048e-04,4.290982287305293852e+01,5.000000000000000278e-02
-1.004162087284393934e+00,-1.197119286021321560e+00,7.281041531835510394e-01,1.000000000000000048e-04,4.322325831648131356e+01,5.000000000000000278e-02
1.849019184968211604e+00,-4.414480552362431975e-01,5.170473009100142736e-01,1.000000000000000048e-04,4.246847402771606994e+01,5.000000000000000278e-02
-1.785801292753216307e+00,-6.380977092486972424e-01,4.454029377967507752e-01,1.000000000000000048e-04,4.202940445028887240e+01,5.000000000000000278e-02
-3.748720121123478854e-01,4.714362040524058273e-01,3.099416452424219592e-01,1.000000000000000048e-04,4.099533242098659969e+01,5.000000000000000278e-02
1.117477709887904069e+00,-1.261583658149176834e+00,6.655562500758569477e-01,1.000000000000000048e-04,4.302145214877645429e+01,5.000000000000000278e-02
2.563780742372161470e+00,2.069669616771865339e-01,2.023881971326060292e-01,1.000000000000000048e-04,4.003342250971215321e+01,5.000000000000000278e-02
1.093670166079961703e+00,8.793504386123829342e-02,3.405669027382765002e-01,1.000000000000000048e-04,4.136539153268655866e+01,5.000000000000000278e-02
-1.583412318154774345e+00,6.051385436188296829e-01,3.034433053034248928e-01,1.000000000000000048e-04,4.099396184645841146e+01,5.000000000000000278e-02
-2.086735923637025536e+00,-3.354532517749451159e-01,4.791690064095925905e-01,1.000000000000000048e-04,4.216376796017563322e+01,5.000000000000000278e-02
1.348905739089667932e+00,5.539562701541567158e-02,2.770098183466367381e-01,1.000000000000000048e-04,4.082776181587462361e+01,5.000000000000000278e-02
-2.559175612414523293e+00,4.227439665238699185e-01,4.447237943470714328e-01,1.000000000000000048e-04,4.201417434086472014e+01,5.000000000000000278e-02
-1.640682105408112434e+00,1.108858807117044432e+00,2.590900277952463693e-01,1.000000000000000048e-04,4.049535396384634112e+01,5.000000000000000278e-02
-1.608983686834325244e+00,-2.942423663339310824e-01,5.354534482684683017e-01,1.000000000000000048e-04,4.240263968657706073e+01,5.000000000000000278e-02
1.649283805518679813e-01,-8.834355903330494142e-01,4.214794719416017355e-01,1.000000000000000048e-04,4.196372964218137724e+01,5.000000000000000278e-02
-2.818582134763107927e+00,6.880447937259432933e-01,3.903787132657949854e-01,1.000000000000000048e-04,4.158530540825447730e+01,5.000000000000000278e-02
-2.691291044023505385e+00,-1.341827477947058700e+00,6.543626416310188709e-01,1.000000000000000048e-04,4.306288627503259647e+01,5.000000000000000278e-02
7.790371932351587425e-01,8.793627365112492988e-01,3.834647046920571789e-01,1.000000000000000048e-04,4.168122140635114192e+01,5.000000000000000278e-02
-4.354992821673859815e-01,-3.528873525441560410e-01,3.811455498323106372e-01,1.000000000000000048e-04,4.148326342676276823e+01,5.000000000000000278e-02
-1.472065171926177252e+00,-1.548615127222998655e-01,7.903593709406884216e-01,1.000000000000000048e-04,4.360616782174925987e+01,5.000000000000000278e-02
-4.204721862394098508e-01,-8.373542273697132110e-02,2.091433348714575313e-01,1.000000000000000048e-04,4.007813779121269704e+01,5.000000000000000278e-02
-2.926529741203554025e+00,5.884225287755850964e-02,8.691687567666066538e-01,1.000000000000000048e-04,4.371993420014872811e+01,5.000000000000000278e-02
4.960398880788887688e-01,-2.868859048208847184e-01,6.131717417832653894e-01,1.000000000000000048e-04,4.283573381562892024e+01,5.000000000000000278e-02
1.255878532733223807e+00,2.199229308763994695e-01,5.857935569780610141e-01,1.000000000000000048e-04,4.276883364758867856e+01,5.000000000000000278e-02
-2.562800455609422379e+00,4.612039424627374373e-01,1.145649037432643347e-01,1.000000000000000048e-04,3.859497946081972231e+01,5.000000000000000278e-02
-1.812267214647177216e+00,3.419190494859505325e-01,5.281235031599709195e-01,1.000000000000000048e-04,4.248622559946608135e+01,5.000000000000000278e-02
2.974341049189681563e+00,4.900721499943143655e-01,2.585319168326367656e-01,1.000000000000000048e-04,4.060224730678458371e+01,5.000000000000000278e-02
3.060154744224271361e+00,-9.486685664521713468e-01,6.392512791786730819e-01,1.000000000000000048e-04,4.304021260623726164e+01,5.000000000000000278e-02
1.879900400710664776e+00,-2.395700468845645137e-01,2.094230596851986981e-01,1.000000000000000048e-04,4.019833445867863020e+01,5.000000000000000278e-02
1.888548371542850823e+00,8.909005685367472616e-01,8.556479409457715679e-01,1.000000000000000048e-04,4.373843553944884377e+01,5.000000000000000278e-02
-7.515514904825377762e-01,-2.408903000131508154e-01,8.913091773941972384e-01,1.000000000000000048e-04,4.381656854859876660e+01,5.000000000000000278e-02
2.625533980703772308e+00,6.330343673359464240e-01,9.229340193880033461e-01,1.000000000000000048e-04,4.386178247057551260e+01,5.000000000000000278e-02
-4.295246801154859462e-01,3.435520621980887590e-01,4.640553084015202057e-01,1.000000000000000048e-04,4.208529119776641636e+01,5.000000000000000278e-02
-2.522892552905702246e-01,-1.806064994816503066e-02,4.059946548580293246e-01,1.000000000000000048e-04,4.168702437239733882e+01,5.000000000000000278e-02
-4.641109557163112243e-01,6.543395298071530419e-02,6.396621717039434607e-01,1.000000000000000048e-04,4.287263048574423152e+01,5.000000000000000278e-02
1.461480762067285610e+00,-3.566778974750459685e-01,6.450343682694688052e-01,1.000000000000000048e-04,4.296594638494367757e+01,5.000000000000000278e-02
1.339903204098639833e+00,1.723340059531119906e-03,3.842457876005371809e-01,1.000000000000000048e-04,4.166093852439818335e+01,5.000000000000000278e-02
-2.071095457242646987e+00,-8.214923816883747953e-01,5.305616259190666373e-01,1.000000000000000048e-04,4.243761599829826991e+01,5.000000000000000278e-02
-2.917878275956614420e+00,-2.382848981359890761e-01,5.082228401832151743e-01,1.000000000000000048e-04,4.231878446859193588e+01,5.000000000000000278e-02
-1.654706056191819208e-01,-7.328580462732769973e-02,5.738344210237666942e-01,1.000000000000000048e-04,4.264467649726218212e+01,5.000000000000000278e-02
1.509687182973094011e-01,6.458825438763726723e-01,3.441950827873674346e-01,1.000000000000000048e-04,4.126194970986787069e+01,5.000000000000000278e-02
2.110351858569050165e+00,5.045368151470421836e-01,5.065836718460929866e-01,1.000000000000000048e-04,4.226057781480768227e+01,5.000000000000000278e-02
-5.208525187773354048e-01,-8.079313534547193365e-01,7.351221954389923763e-01,1.000000000000000048e-04,4.328765549900681719e+01,5.000000000000000278e-02
