-1.598279621179586663e+00,2.779993629999999993e-01,1.424076496786463863e-02,1.000000000000000048e-04,3.411296186071662362e+01,1.700000000000000122e-01
-1.710562538179586589e+00,-1.402302595000000096e+00,3.904376744856463688e-02,1.000000000000000048e-04,3.647365477747775486e+01,2.000000000000000111e-01
-2.771840681795865180e-01,-1.115655276000000029e+00,5.055245315776035753e-02,1.000000000000000048e-04,3.697143763174012321e+01,1.700000000000000122e-01
-1.608432286179586335e+00,-6.514894359999999773e-01,9.126184400018777509e-03,1.000000000000000048e-04,3.326030685672802178e+01,1.600000000000000033e-01
-1.490451089179586575e+00,-3.201959389999999850e-01,1.373644380343175264e-02,1.000000000000000048e-04,3.416210157155484239e+01,1.700000000000000122e-01
-1.995144670179586299e+00,-1.040863893000000040e+00,1.920000439931568437e-02,1.000000000000000048e-04,3.482105877657767223e+01,1.799999999999999933e-01
-2.211919791795864398e-01,-6.717550429999999961e-01,2.637103192043221966e-02,1.000000000000000048e-04,3.519821593182125241e+01,2.200000000000000011e-01
-8.294029241795861651e-01,6.699244909999999553e-01,4.605100309596998898e-02,1.000000000000000048e-04,3.682412984132351852e+01,1.799999999999999933e-01
-1.123871723179585835e+00,1.275958498999999913e+00,2.870000000000000155e-03,1.000000000000000048e-04,3.034764186005040898e+01,1.900000000000000022e-01
-5.094723721795864080e-01,-7.371415260000000469e-01,4.174300274178266434e-02,1.000000000000000048e-04,3.607085538438111882e+01,1.600000000000000033e-01
6.571342580000000266e-01,4.949370419999999937e-01,5.083490670389201327e-02,1.000000000000000048e-04,3.656875434582613593e+01,1.700000000000000122e-01
-1.010588552179585875e+00,4.063959939999999826e-01,3.628960225808985918e-02,1.000000000000000048e-04,3.605804840684120194e+01,1.400000000000000133e-01
-5.300352171795861267e-01,-4.198024320000000031e-01,1.267076423881041691e-02,1.000000000000000048e-04,3.324330708656257372e+01,1.499999999999999944e-01
-3.959305511795863097e-01,-4.514385590000000170e-01,5.051001050849790452e-02,1.000000000000000048e-04,3.650132461575744003e+01,1.600000000000000033e-01
-1.302326638179586382e+00,4.891699640000000127e-01,3.317979437020368572e-02,1.000000000000000048e-04,3.587864234748073500e+01,8.999999999999999667e-02
-8.169037861795862554e-01,4.857709299999999897e-01,2.059749458657833543e-02,1.000000000000000048e-04,3.502478626095472691e+01,1.000000000000000056e-01
-1.156602994179586119e+00,7.039336720000000103e-01,9.570869936506465336e-03,1.000000000000000048e-04,3.375519170874873964e+01,1.100000000000000006e-01
2.500120207999999788e+00,-3.403989430000000094e-01,1.993537781949661358e-02,1.000000000000000048e-04,3.473014300004624033e+01,1.100000000000000006e-01
2.397122115999999803e+00,-8.283729720000000407e-01,3.179084451613300999e-02,1.000000000000000048e-04,3.563474048934943283e+01,1.700000000000000122e-01
-4.391142381795862804e-01,9.199097720000000145e-01,1.110888616169791732e-02,1.000000000000000048e-04,3.338234594765712870e+01,2.200000000000000011e-01
-1.356814123179586495e+00,1.335301293999999972e+00,2.070802277354766296e-02,1.000000000000000048e-04,3.558588043689955072e+01,2.600000000000000089e-01
2.612804049999999823e+00,3.003891830000000041e-01,4.351587290426661703e-02,1.000000000000000048e-04,3.666210456280020935e+01,1.700000000000000122e-01
-1.192441121179586005e+00,1.100105410000000061e+00,1.844423456981725273e-02,1.000000000000000048e-04,3.458893998275366499e+01,1.799999999999999933e-01
-3.012917491179586182e+00,1.485957493999999990e+00,3.738034786923050135e-02,1.000000000000000048e-04,3.646503430814134106e+01,2.200000000000000011e-01
-7.329138461795858817e-01,1.044356909000000000e+00,2.957911714750904864e-03,1.000000000000000048e-04,3.134091752658223484e+01,1.700000000000000122e-01
1.024371087000000013e+00,-9.607604419999999923e-01,3.726305542351870947e-02,1.000000000000000048e-04,3.577343941637234082e+01,1.600000000000000033e-01
2.960998206000000188e+00,-8.548671270000000044e-01,6.598566136373884561e-03,1.000000000000000048e-04,3.220605025278459266e+01,1.900000000000000022e-01
-3.017579355179586198e+00,-3.780387199999999948e-01,3.988643690526205710e-02,1.000000000000000048e-04,3.602813943702791732e+01,2.399999999999999911e-01
-2.268575282179586594e+00,6.921453520000000470e-01,1.826464445333342290e-02,1.000000000000000048e-04,3.426844538172124288e+01,3.699999999999999956e-01
2.478186394000000181e+00,5.281495040000000474e-01,4.109040718267786829e-02,1.000000000000000048e-04,3.645570301251735401e+01,2.399999999999999911e-01
1.941716173999999961e+00,9.578325640000000529e-01,7.899381989038056773e-03,1.000000000000000048e-04,3.270317148940711860e+01,3.800000000000000044e-01
2.041827891000000061e+00,-8.953703119999999460e-01,4.754328698089804739e-02,1.000000000000000048e-04,3.662965586195573309e+01,1.700000000000000122e-01
2.521229080999999983e+00,-8.544186950000000058e-01,1.376737508571457269e-02,1.000000000000000048e-04,3.362244171372107360e+01,2.000000000000000111e-01
2.745955969000000163e+00,3.136627880000000257e-01,3.821696535856200505e-02,1.000000000000000048e-04,3.631297628136751143e+01,2.099999999999999922e-01
1.738295793999999894e+00,1.134430556000000090e+00,3.135507177116192423e-02,1.000000000000000048e-04,3.586270968668772952e+01,1.799999999999999933e-01
-8.687814521795864664e-01,6.221710379999999541e-01,2.243562337087978698e-02,1.000000000000000048e-04,3.459059984576963132e+01,3.499999999999999778e-01
-1.857013858179586308e+00,3.937075449999999921e-01,4.017323060521293954e-02,1.000000000000000048e-04,3.677964480768147837e+01,2.999999999999999889e-01
-2.894431473179586156e+00,2.701405689999999971e-01,3.636783050129177575e-02,1.000000000000000048e-04,3.596995622724408292e+01,2.300000000000000100e-01
2.213600608000000136e+00,-5.295933369999999973e-01,9.929657854810702844e-03,1.000000000000000048e-04,3.276828335235079237e+01,2.500000000000000000e-01
9.327636729999999599e-01,4.069681829999999834e-01,4.899504771820728521e-02,1.000000000000000048e-04,3.676104354373249805e+01,2.300000000000000100e-01
1.743234563999999986e+00,7.359057650000000450e-01,4.763394555959976628e-03,1.000000000000000048e-04,3.138112503169326573e+01,2.200000000000000011e-01
-2.812965047179586175e+00,5.929882829999999494e-01,2.870000000000000155e-03,1.000000000000000048e-04,3.141757531127106517e+01,2.399999999999999911e-01
-2.977583888179586413e+00,-1.437144969999999966e-01,4.035577670233170267e-02,1.000000000000000048e-04,3.683174951146395415e+01,2.700000000000000178e-01
2.276564226000000080e+00,-5.051809499999999620e-01,4.044403477529678881e-02,1.000000000000000048e-04,3.650885021439756173e+01,2.800000000000000266e-01
2.667465888000000174e+00,-6.260506340000000502e-01,2.870000000000000155e-03,1.000000000000000048e-04,2.644381231214689976e+01,2.600000000000000089e-01
1.041358068000000081e+00,8.506585119999999778e-01,2.585066270017044587e-02,1.000000000000000048e-04,3.517369867099266401e+01,2.300000000000000100e-01
2.499030525999999863e+00,-9.629979760000000333e-01,3.024614361564226250e-02,1.000000000000000048e-04,3.587365913710585374e+01,3.099999999999999978e-01
1.334501084000000004e+00,-7.340646360000000481e-01,3.302707398802318117e-02,1.000000000000000048e-04,3.592721285168693868e+01,2.300000000000000100e-01
2.196979751999999841e+00,-5.334639439999999677e-01,6.737517581417273860e-03,1.000000000000000048e-04,3.174692210816254700e+01,2.500000000000000000e-01
1.445572062999999963e+00,-8.838676049999999451e-01,3.215626919901803937e-02,1.000000000000000048e-04,3.611251450594289736e+01,3.499999999999999778e-01
7.246286520000000397e-01,-7.843460709999999780e-01,1.586925225092183922e-02,1.000000000000000048e-04,3.378535979373793907e+01,3.099999999999999978e-01
2.179180484000000195e+00,1.312341798999999920e+00,2.202364305352455531e-02,1.000000000000000048e-04,3.501992208014495844e+01,2.200000000000000011e-01
7.669035910000000511e-01,2.329377750000000136e-01,2.062616224943925047e-02,1.000000000000000048e-04,3.487616834706495439e+01,2.500000000000000000e-01
2.984436029999999906e+00,4.410184999999999800e-01,2.649077987605275020e-02,1.000000000000000048e-04,3.568375826672262718e+01,2.999999999999999889e-01
1.808380389999999949e+00,-5.931087419999999666e-01,6.650353734770186875e-03,1.000000000000000048e-04,3.123598867111665456e+01,2.200000000000000011e-01
2.378694356000000010e+00,6.891218140000000547e-01,3.574141021057020140e-02,1.000000000000000048e-04,3.575566793331477555e+01,3.099999999999999978e-01
-1.027171309179585990e+00,8.938185499999999895e-01,4.601468691421772839e-02,1.000000000000000048e-04,3.647558613475381151e+01,3.099999999999999978e-01
2.177629786999999872e+00,1.088514723000000073e+00,6.779632704206894900e-03,1.000000000000000048e-04,3.277531931741347648e+01,2.500000000000000000e-01
2.446904437000000154e+00,4.505237189999999892e-01,2.516514078241272045e-02,1.000000000000000048e-04,3.524586529906704158e+01,2.700000000000000178e-01
-2.745075452179586151e+00,5.290477460000000409e-01,2.870000000000000155e-03,1.000000000000000048e-04,3.137851438266571336e+01,1.600000000000000033e-01
3.470126559999999749e-01,6.971221490000000243e-01,2.870000000000000155e-03,1.000000000000000048e-04,2.693988433598033794e+01,2.399999999999999911e-01
-1.741234469179586242e+00,8.281857209999999858e-01,4.181431153332315631e-02,1.000000000000000048e-04,3.649874873210583104e+01,1.000000000000000056e-01
6.278667869999999818e-01,1.201237362999999947e+00,3.010712921019420563e-02,1.000000000000000048e-04,3.555308049897399769e+01,1.799999999999999933e-01
1.901542252999999905e+00,5.984822429999999693e-01,4.086152743007609445e-02,1.000000000000000048e-04,3.644759662991999960e+01,1.700000000000000122e-01
9.102462569999999475e-01,3.833152009999999943e-01,1.545931344999718071e-02,1.000000000000000048e-04,3.369301523208785198e+01,2.200000000000000011e-01
4.621894529999999723e-01,4.355896570000000190e-01,2.561302084213612495e-02,1.000000000000000048e-04,3.529576268733497812e+01,2.399999999999999911e-01
1.731299603999999936e+00,-9.087058740000000245e-01,1.274799994603581510e-02,1.000000000000000048e-04,3.335570605262105914e+01,2.200000000000000011e-01
2.307708166999999921e+00,-3.555306579999999994e-01,2.948703722327228327e-02,1.000000000000000048e-04,3.573461917148042488e+01,1.700000000000000122e-01
2.284880370000000216e+00,-4.942566800000000038e-01,2.566604810212869126e-02,1.000000000000000048e-04,3.520430799093937679e+01,2.200000000000000011e-01
-2.729734007179586364e+00,-4.808223520000000084e-01,1.158007183542175689e-02,1.000000000000000048e-04,3.396492883201600677e+01,2.300000000000000100e-01
-2.728058296179586062e+00,8.181749999999999856e-01,3.162060685933876236e-02,1.000000000000000048e-04,3.591335417180206235e+01,2.200000000000000011e-01
1.539636916000000078e+00,-6.652033799999999830e-02,1.751001687852626887e-02,1.000000000000000048e-04,3.393298986381361004e+01,2.999999999999999889e-01
2.937620158000000092e+00,7.383732379999999873e-01,1.770722781336009355e-02,1.000000000000000048e-04,3.469226172093529215e+01,2.200000000000000011e-01
2.624384770999999894e+00,8.339422930000000012e-01,1.559087542022652428e-02,1.000000000000000048e-04,3.456581348163561529e+01,1.799999999999999933e-01
-2.594453966179586235e+00,1.052220571999999965e+00,2.870000000000000155e-03,1.000000000000000048e-04,3.063402486235289146e+01,1.900000000000000022e-01
-2.462277587179586114e+00,1.356652656000000068e+00,3.533019314018237544e-02,1.000000000000000048e-04,3.624359197311628833e+01,2.099999999999999922e-01
2.730654787000000194e+00,8.741146779999999783e-01,1.791583425882126157e-02,1.000000000000000048e-04,3.463471453469423267e+01,1.900000000000000022e-01
1.629450376000000089e+00,2.068732899999999875e-01,4.850922593178097486e-02,1.000000000000000048e-04,3.667207791816557716e+01,2.899999999999999800e-01
1.142160569999999958e-01,6.858846720000000285e-01,1.069878315718320039e-02,1.000000000000000048e-04,3.324927918699079754e+01,1.799999999999999933e-01
-4.383495451795864639e-01,9.198101690000000108e-01,2.733543876867172706e-02,1.000000000000000048e-04,3.549112891949526727e+01,2.600000000000000089e-01
1.001193188000000012e+00,8.013430529999999719e-01,6.006045060314324502e-03,1.000000000000000048e-04,3.173299853135469917e+01,1.799999999999999933e-01
-8.746654461795859703e-01,7.515327899999999506e-01,2.003460200784945577e-02,1.000000000000000048e-04,3.488227230509163235e+01,2.600000000000000089e-01
1.319662558000000097e+00,1.070340469999999933e-01,2.297411770315482826e-02,1.000000000000000048e-04,3.496592405792323888e+01,2.399999999999999911e-01
1.726021762000000015e+00,-6.377623550000000030e-01,4.666067546538976707e-02,1.000000000000000048e-04,3.617367348806085658e+01,2.600000000000000089e-01
-2.754219137179586330e+00,-9.277945709999999568e-01,8.945684649970697677e-03,1.000000000000000048e-04,3.327678020263987690e+01,3.699999999999999956e-01
1.691977534999999921e+00,1.434503057999999998e+00,3.978030167180812704e-02,1.000000000000000048e-04,3.631245034848680575e+01,2.099999999999999922e-01
8.272144390000000236e-01,-4.428667319999999852e-01,3.640320216749048932e-02,1.000000000000000048e-04,3.590248273222902498e+01,2.300000000000000100e-01
-2.185785446179585811e+00,4.040310730000000183e-01,3.234246940173446383e-02,1.000000000000000048e-04,3.603791494945053131e+01,1.799999999999999933e-01
2.680919170000000129e+00,5.929394510000000063e-01,1.531400199736610013e-02,1.000000000000000048e-04,3.435721183702038672e+01,1.799999999999999933e-01
2.468528393999999793e+00,-3.885411739999999892e-01,3.833653060380082245e-02,1.000000000000000048e-04,3.626176626324785701e+01,1.700000000000000122e-01
1.824819092000000031e+00,-9.187566499999999525e-01,4.248188323171819825e-02,1.000000000000000048e-04,3.594716001004200479e+01,2.099999999999999922e-01
2.252174823999999909e+00,-3.842870769999999769e-01,2.276438702015703974e-02,1.000000000000000048e-04,3.500682023712997193e+01,2.000000000000000111e-01
2.889947965000000174e+00,3.184077100000000105e-01,2.622258006451105850e-02,1.000000000000000048e-04,3.553494775509832238e+01,2.000000000000000111e-01
-2.666621499179586241e+00,1.790417820000000104e-01,2.173409158156491827e-02,1.000000000000000048e-04,3.521702088014996690e+01,1.900000000000000022e-01
2.353249148999999818e+00,9.653535600000000549e-01,4.113996737369673973e-02,1.000000000000000048e-04,3.661943811042710450e+01,1.799999999999999933e-01
1.765869402999999949e+00,9.288119630000000182e-01,7.879529976215327025e-03,1.000000000000000048e-04,3.346457820163865904e+01,3.599999999999999867e-01
1.931340567999999980e+00,-5.991437729999999906e-01,2.521869499460938080e-02,1.000000000000000048e-04,3.539544019697180488e+01,2.000000000000000111e-01
2.835991935000000019e+00,-7.109363199999999550e-01,2.870000000000000155e-03,1.000000000000000048e-04,2.809090244220555022e+01,1.900000000000000022e-01
-2.852520529179586095e+00,8.667541789999999580e-01,2.870000000000000155e-03,1.000000000000000048e-04,3.069635594043539939e+01,1.799999999999999933e-01
-2.458251249179586040e+00,-2.796002539999999925e-01,1.838141732659792638e-02,1.000000000000000048e-04,3.451480504076800315e+01,3.300000000000000155e-01
1.596378985000000084e+00,5.944120290000000084e-01,2.788086250756816042e-02,1.000000000000000048e-04,3.523224143411909637e+01,1.900000000000000022e-01
-2.484014184179586415e+00,8.016642189999999557e-01,3.050087737104423269e-02,1.000000000000000048e-04,3.566171691400039379e+01,1.900000000000000022e-01
-2.431723812179586108e+00,1.223750555999999934e+00,2.630077521841833743e-02,1.000000000000000048e-04,3.560692662876837744e+01,1.700000000000000122e-01
-2.378598255179586118e+00,1.197731727999999940e+00,1.967641108921336368e-02,1.000000000000000048e-04,3.502621650990275270e+01,1.900000000000000022e-01
1.739429998000000088e+00,2.494783479999999887e-01,2.794624162675152235e-02,1.000000000000000048e-04,3.534874977597047518e+01,3.099999999999999978e-01
-2.377494960179586059e+00,9.562939099999999693e-01,9.023208898824686131e-03,1.000000000000000048e-04,3.355835511858955300e+01,1.799999999999999933e-01
-9.021677017958662503e-02,6.959221140000000361e-01,2.830756387326149870e-02,1.000000000000000048e-04,3.546550726126962161e+01,3.499999999999999778e-01
2.021336933000000169e+00,8.510789659999999923e-01,4.713390795954897072e-02,1.000000000000000048e-04,3.588106374540063825e+01,2.800000000000000266e-01
2.573899695999999793e+00,-5.247218830000000001e-01,2.870000000000000155e-03,1.000000000000000048e-04,3.007421397000387486e+01,1.700000000000000122e-01
2.346925623000000183e+00,-7.496726200000000118e-01,2.515434024931995083e-02,1.000000000000000048e-04,3.488024658989625237e+01,1.700000000000000122e-01
2.543651012999999850e+00,-2.555195920000000176e-01,1.880488919990552787e-02,1.000000000000000048e-04,3.446806457569295645e+01,1.900000000000000022e-01
2.457771880000000131e+00,-4.383329890000000062e-01,1.921967776868926947e-02,1.000000000000000048e-04,3.492947602817094577e+01,1.700000000000000122e-01
-2.749033603179586116e+00,5.277091179999999770e-01,1.954546162119297215e-02,1.000000000000000048e-04,3.513799933823450772e+01,1.799999999999999933e-01
-3.021446786179586397e+00,6.716344440000000526e-01,2.438908773850378964e-02,1.000000000000000048e-04,3.561493355576156006e+01,1.799999999999999933e-01
2.390319493999999878e+00,1.427533710000000067e+00,4.002455910741531397e-02,1.000000000000000048e-04,3.632312340098970083e+01,1.799999999999999933e-01
2.491619029000000207e+00,8.136863199999999630e-01,2.524263045172858710e-02,1.000000000000000048e-04,3.500980846821033765e+01,1.900000000000000022e-01
2.336721559999999975e+00,1.049041915000000103e+00,3.268406870874529524e-02,1.000000000000000048e-04,3.584623165557800917e+01,1.700000000000000122e-01
1.201678150000000000e+00,3.331923239999999842e-01,3.149733084023509377e-02,1.000000000000000048e-04,3.554398155502509127e+01,1.900000000000000022e-01
-3.811893421795859993e-01,1.284308205000000092e+00,2.706983902260784447e-02,1.000000000000000048e-04,3.560549512344380219e+01,2.000000000000000111e-01
5.879284790000000038e-01,8.245620540000000442e-01,1.602878966686960283e-02,1.000000000000000048e-04,3.416097598802734581e+01,1.700000000000000122e-01
-1.085925731795862603e-01,9.806715139999999664e-01,2.492565012104130950e-02,1.000000000000000048e-04,3.524216915376167947e+01,1.799999999999999933e-01
1.189812670000000017e+00,8.219376269999999485e-01,4.478958321501802509e-02,1.000000000000000048e-04,3.638564398790924059e+01,1.700000000000000122e-01
2.896526737999999934e+00,1.048685354999999930e+00,3.268856687331300748e-02,1.000000000000000048e-04,3.604241932557509642e+01,1.700000000000000122e-01
8.784667550000000436e-01,-5.840451829999999678e-01,2.870000000000000155e-03,1.000000000000000048e-04,nan,2.099999999999999922e-01
-2.025603206179586557e+00,1.419180792999999996e+00,1.750916266735225157e-02,1.000000000000000048e-04,3.468234289940007642e+01,1.799999999999999933e-01
1.097118803000000087e+00,1.428367445999999985e+00,9.800786951732476382e-03,1.000000000000000048e-04,3.313145414943031142e+01,1.799999999999999933e-01
-1.923054671795858539e-01,8.268694330000000425e-01,4.540217801802404196e-02,1.000000000000000048e-04,3.637159455325316060e+01,2.000000000000000111e-01
1.974446608000000047e+00,-1.250497374000000050e+00,9.181474458473504185e-03,1.000000000000000048e-04,3.253934266772453299e+01,2.000000000000000111e-01
1.714471547999999901e+00,-4.841846819999999774e-01,1.124200379790329940e-02,1.000000000000000048e-04,3.290190765193769096e+01,1.700000000000000122e-01
1.635209042000000057e+00,-1.499680316999999929e+00,2.973226761589442546e-02,1.000000000000000048e-04,3.551107802942313185e+01,1.900000000000000022e-01
-3.085878636179586021e+00,-8.156760069999999807e-01,2.785299038640065561e-02,1.000000000000000048e-04,3.557049673481373020e+01,1.799999999999999933e-01
1.583648911999999909e+00,-4.051170720000000225e-01,4.756827555936871121e-03,1.000000000000000048e-04,2.995233825609122036e+01,1.700000000000000122e-01
3.116144028999999982e+00,-6.233618589999999626e-01,2.870000000000000155e-03,1.000000000000000048e-04,3.033585110256013451e+01,2.000000000000000111e-01
2.580853791000000008e+00,2.126606490000000071e-01,3.413300427460108644e-02,1.000000000000000048e-04,3.608142437968793814e+01,2.200000000000000011e-01
2.791070910999999821e+00,-3.375241600000000036e-02,2.870000000000000155e-03,1.000000000000000048e-04,2.784746701548360903e+01,2.999999999999999889e-01
2.126664376999999995e+00,-4.630033630000000011e-01,2.713284250756697880e-02,1.000000000000000048e-04,3.517635602522350524e+01,1.799999999999999933e-01
1.264160699999999915e+00,6.289837299999999631e-01,2.870000000000000155e-03,1.000000000000000048e-04,2.629627576070111772e+01,1.900000000000000022e-01
2.608192676999999904e+00,3.485897410000000085e-01,3.234742335630569343e-02,1.000000000000000048e-04,3.564100693546116361e+01,2.200000000000000011e-01
2.816578843999999915e+00,-6.539336449999999523e-01,1.617405229798984934e-02,1.000000000000000048e-04,3.433793031780819405e+01,1.799999999999999933e-01
2.816545334000000178e+00,5.529564630000000092e-01,2.870000000000000155e-03,1.000000000000000048e-04,3.090253580980516901e+01,1.700000000000000122e-01
2.293480610000000031e+00,1.430186356999999964e+00,4.572095471216974794e-02,1.000000000000000048e-04,3.661336392212300694e+01,1.700000000000000122e-01
1.900048696999999898e+00,-6.695785770000000081e-01,2.870000000000000155e-03,1.000000000000000048e-04,2.778679180401159243e+01,1.900000000000000022e-01
2.402973735999999860e+00,-4.293495210000000117e-01,3.986831601353291177e-02,1.000000000000000048e-04,3.644393762986844365e+01,2.200000000000000011e-01
3.123677135999999965e+00,5.597831170000000522e-01,3.096647470116109524e-02,1.000000000000000048e-04,3.573876888951163266e+01,1.700000000000000122e-01
-2.603733431795864917e-01,9.574212720000000454e-01,6.799508462473458081e-03,1.000000000000000048e-04,3.260185669412780385e+01,3.800000000000000044e-01
-1.216980031795857897e-01,3.678993019999999836e-01,6.386678544886503772e-03,1.000000000000000048e-04,3.200393888339385029e+01,1.900000000000000022e-01
2.921580513999999962e+00,4.108407450000000072e-01,1.647853150153966162e-02,1.000000000000000048e-04,3.443941452947901638e+01,1.900000000000000022e-01
-2.362072097179586105e+00,1.187667234999999932e+00,6.585105071317487457e-03,1.000000000000000048e-04,3.306766660964694182e+01,1.900000000000000022e-01
-2.337569846179586186e+00,3.756736769999999837e-01,1.300652124045709179e-02,1.000000000000000048e-04,3.403122610679125160e+01,1.700000000000000122e-01
-1.563533060179586265e+00,8.298117619999999528e-01,5.204322392963867117e-03,1.000000000000000048e-04,3.263133147594398054e+01,3.300000000000000155e-01
-7.514201781795861734e-01,8.148208550000000105e-01,1.140620470011488585e-02,1.000000000000000048e-04,3.383495110088137636e+01,2.099999999999999922e-01
-2.172991007179586376e+00,1.278564443000000050e+00,6.151130966512097231e-03,1.000000000000000048e-04,3.263876429232467302e+01,2.000000000000000111e-01
1.004972830999999900e+00,3.284388160000000223e-01,4.535707471647976163e-02,1.000000000000000048e-04,3.615792214128455129e+01,1.799999999999999933e-01
-1.050913719179586536e+00,7.925907810000000220e-01,2.659731772568796337e-02,1.000000000000000048e-04,3.506710343381293171e+01,2.899999999999999800e-01
1.174967896000000067e+00,-7.032179160000000540e-01,2.870000000000000155e-03,1.000000000000000048e-04,nan,1.799999999999999933e-01
2.063754460999999818e+00,1.158898511999999936e+00,3.456735836285185215e-02,1.000000000000000048e-04,3.608819662104077253e+01,1.799999999999999933e-01
1.355273345999999934e+00,1.034050206000000083e+00,7.571215767008920849e-03,1.000000000000000048e-04,3.267194560685380367e+01,1.700000000000000122e-01
1.878516419999999965e+00,-5.891517790000000421e-01,4.161591543267317839e-02,1.000000000000000048e-04,3.611566659633307097e+01,1.799999999999999933e-01
3.042909537999999969e+00,4.914006550000000195e-01,1.497320255889622587e-02,1.000000000000000048e-04,3.410176868308212761e+01,1.700000000000000122e-01
-2.192876876179585821e+00,7.571444160000000423e-01,3.104684316951322742e-02,1.000000000000000048e-04,3.605490588346918912e+01,2.099999999999999922e-01
-1.274335216179586006e+00,7.393028099999999769e-01,1.130524975816560307e-02,1.000000000000000048e-04,3.471342210859745592e+01,3.599999999999999867e-01
3.513372269999999742e-01,1.023017258000000096e+00,1.467171758815366545e-02,1.000000000000000048e-04,3.399904266132491415e+01,1.799999999999999933e-01
-2.045215730179585911e+00,1.346705497999999945e+00,3.056664584791923822e-02,1.000000000000000048e-04,3.579457085443808495e+01,1.799999999999999933e-01
2.622131355000000053e+00,-2.378520580000000051e-01,4.732733920461273947e-02,1.000000000000000048e-04,3.690595581525956703e+01,2.099999999999999922e-01
1.499565373000000035e+00,-5.833961840000000398e-01,2.870000000000000155e-03,1.000000000000000048e-04,nan,1.199999999999999956e-01
9.453780529999999960e-01,-3.014802610000000271e-01,1.364245043638367960e-02,1.000000000000000048e-04,3.341096576277605124e+01,1.799999999999999933e-01
1.003030738000000088e+00,-6.679498139999999751e-01,1.668016750176359864e-02,1.000000000000000048e-04,3.330945477450258352e+01,1.799999999999999933e-01
-2.858957567179586157e+00,-2.878047879999999781e-01,3.328029164236201431e-02,1.000000000000000048e-04,3.594175470168258357e+01,1.300000000000000044e-01
-2.653655062179586022e+00,5.464710109999999510e-01,2.870000000000000155e-03,1.000000000000000048e-04,2.590456824253846690e+01,1.300000000000000044e-01
-1.077960778179586576e+00,1.305029642999999906e+00,2.230466014217435955e-02,1.000000000000000048e-04,3.509832052615771403e+01,1.100000000000000006e-01
2.996279555000000094e+00,-9.792432829999999644e-01,2.529998207548289635e-02,1.000000000000000048e-04,3.510637901836299335e+01,1.600000000000000033e-01
-7.405109531795863731e-01,5.344760480000000369e-01,2.870000000000000155e-03,1.000000000000000048e-04,2.232989441297019084e+01,1.900000000000000022e-01
-1.986221938179586033e+00,3.858849830000000147e-01,3.659824879199535808e-02,1.000000000000000048e-04,3.698802252523631751e+01,2.600000000000000089e-01
-1.660796187179585992e+00,1.337702168000000080e+00,3.923949395105252869e-02,1.000000000000000048e-04,3.596488039567505268e+01,1.300000000000000044e-01
-1.008319883179586540e+00,9.035811799999999838e-01,2.578777123874287369e-02,1.000000000000000048e-04,3.555403881000106026e+01,1.799999999999999933e-01
-2.859227719179586291e+00,-3.383984709999999785e-01,4.451645290937333854e-02,1.000000000000000048e-04,3.677991281599108220e+01,1.799999999999999933e-01
-3.008470453179586279e+00,-9.028608339999999455e-01,3.935522167153737705e-02,1.000000000000000048e-04,3.630970987079327728e+01,1.300000000000000044e-01
2.720373041999999852e+00,-1.026937239000000002e+00,3.892136409692303900e-02,1.000000000000000048e-04,3.591433361398536306e+01,1.100000000000000006e-01
1.131806215999999976e+00,-1.312634394000000038e+00,3.829580656930597904e-02,1.000000000000000048e-04,3.604548282106866708e+01,1.199999999999999956e-01
1.262497049000000038e+00,-7.576738640000000302e-01,3.979287983561774489e-02,1.000000000000000048e-04,3.598621920683692821e+01,1.900000000000000022e-01
-2.150308364179585929e+00,9.473204419999999848e-01,3.069070823211061949e-03,1.000000000000000048e-04,3.184554018232820383e+01,1.499999999999999944e-01
-2.672281993179586035e+00,8.065802300000000091e-01,2.870000000000000155e-03,1.000000000000000048e-04,2.866636051028703847e+01,1.400000000000000133e-01
-2.768228307179586345e+00,1.501965110000000048e-01,1.218365095466378278e-02,1.000000000000000048e-04,3.416041622381980858e+01,1.300000000000000044e-01
2.456608391000000058e+00,-6.815239560000000418e-01,1.679167416794458134e-02,1.000000000000000048e-04,3.444293814495944162e+01,2.899999999999999800e-01
-1.538735822179586599e+00,7.895792169999999999e-01,1.042777794491311916e-02,1.000000000000000048e-04,3.387418869553427214e+01,1.600000000000000033e-01
-6.811844061795859773e-01,-7.989239399999999991e-01,4.762759643168990031e-02,1.000000000000000048e-04,3.659667238234549558e+01,2.300000000000000100e-01
-9.881069141795864041e-01,9.266642769999999807e-01,2.870000000000000155e-03,1.000000000000000048e-04,nan,2.500000000000000000e-01
9.533575850000000074e-01,-5.868324440000000086e-01,9.914552991099778723e-03,1.000000000000000048e-04,3.212984876076394158e+01,1.199999999999999956e-01
-1.550854682179585886e+00,1.341867675000000037e+00,1.102734912357528074e-02,1.000000000000000048e-04,3.345749837595766962e+01,3.599999999999999867e-01
1.284766933000000000e+00,-9.049604909999999780e-01,4.219763623236638672e-02,1.000000000000000048e-04,3.598996587016259951e+01,1.300000000000000044e-01
