-1.598279621179586663e+00,2.779993629999999993e-01,3.101705333544924059e-02,1.000000000000000048e-04,3.546050065864267964e+01,1.700000000000000122e-01
-1.710562538179586589e+00,-1.402302595000000096e+00,8.521012091445401282e-03,1.000000000000000048e-04,3.292785070900393407e+01,2.000000000000000111e-01
-2.771840681795865180e-01,-1.115655276000000029e+00,2.944701968072660492e-02,1.000000000000000048e-04,3.539562527493226440e+01,1.700000000000000122e-01
-1.608432286179586335e+00,-6.514894359999999773e-01,2.985987238414522515e-02,1.000000000000000048e-04,3.518709940837980099e+01,1.600000000000000033e-01
-1.490451089179586575e+00,-3.201959389999999850e-01,1.410790644829673646e-02,1.000000000000000048e-04,3.297624412658106507e+01,1.700000000000000122e-01
-1.995144670179586299e+00,-1.040863893000000040e+00,2.342371889278371810e-02,1.000000000000000048e-04,3.506521925004800977e+01,1.799999999999999933e-01
-2.211919791795864398e-01,-6.717550429999999961e-01,1.995136876459624453e-02,1.000000000000000048e-04,3.456927491615439152e+01,2.200000000000000011e-01
-8.294029241795861651e-01,6.699244909999999553e-01,1.430742407417362472e-02,1.000000000000000048e-04,3.297395300824305764e+01,1.799999999999999933e-01
-1.123871723179585835e+00,1.275958498999999913e+00,2.256140737577738697e-02,1.000000000000000048e-04,3.486834672627038856e+01,1.900000000000000022e-01
-5.094723721795864080e-01,-7.371415260000000469e-01,2.567233309207028746e-02,1.000000000000000048e-04,3.492112486722767528e+01,1.600000000000000033e-01
6.571342580000000266e-01,4.949370419999999937e-01,2.207815171992622005e-02,1.000000000000000048e-04,3.494610943721571772e+01,1.700000000000000122e-01
-1.010588552179585875e+00,4.063959939999999826e-01,1.792170887466126850e-02,1.000000000000000048e-04,3.402023601371572425e+01,1.400000000000000133e-01
-5.300352171795861267e-01,-4.198024320000000031e-01,1.680923530116529285e-02,1.000000000000000048e-04,3.405557296842643211e+01,1.499999999999999944e-01
-3.959305511795863097e-01,-4.514385590000000170e-01,4.363356480656710445e-02,1.000000000000000048e-04,3.651228957193553271e+01,1.600000000000000033e-01
-1.302326638179586382e+00,4.891699640000000127e-01,1.595793474341977713e-02,1.000000000000000048e-04,3.340909836557048607e+01,8.999999999999999667e-02
-8.169037861795862554e-01,4.857709299999999897e-01,3.001635408072322875e-02,1.000000000000000048e-04,3.513458547340625415e+01,1.000000000000000056e-01
-1.156602994179586119e+00,7.039336720000000103e-01,2.788237032931784043e-02,1.000000000000000048e-04,3.515949085466380808e+01,1.100000000000000006e-01
2.500120207999999788e+00,-3.403989430000000094e-01,2.390610259521008807e-02,1.000000000000000048e-04,3.546299957839238459e+01,1.100000000000000006e-01
2.397122115999999803e+00,-8.283729720000000407e-01,2.147714630031205552e-02,1.000000000000000048e-04,3.576260974497439804e+01,1.700000000000000122e-01
-4.391142381795862804e-01,9.199097720000000145e-01,2.807797618859475541e-02,1.000000000000000048e-04,3.504451586652525918e+01,2.200000000000000011e-01
-1.356814123179586495e+00,1.335301293999999972e+00,3.147804577400625803e-02,1.000000000000000048e-04,3.573171895330559522e+01,2.600000000000000089e-01
2.612804049999999823e+00,3.003891830000000041e-01,2.872489067936401241e-02,1.000000000000000048e-04,3.555972997716889239e+01,1.700000000000000122e-01
-1.192441121179586005e+00,1.100105410000000061e+00,3.409171093561957910e-02,1.000000000000000048e-04,3.547688581776192507e+01,1.799999999999999933e-01
-3.012917491179586182e+00,1.485957493999999990e+00,1.328041525487955177e-02,1.000000000000000048e-04,3.420855129807573292e+01,2.200000000000000011e-01
-7.329138461795858817e-01,1.044356909000000000e+00,2.295059219802997319e-02,1.000000000000000048e-04,3.455895704988969186e+01,1.700000000000000122e-01
1.024371087000000013e+00,-9.607604419999999923e-01,1.635527984070273000e-02,1.000000000000000048e-04,3.496548037777574081e+01,1.600000000000000033e-01
2.960998206000000188e+00,-8.548671270000000044e-01,2.165953103145645819e-02,1.000000000000000048e-04,3.543990086524124195e+01,1.900000000000000022e-01
-3.017579355179586198e+00,-3.780387199999999948e-01,1.852808436868214059e-02,1.000000000000000048e-04,3.474835886938002005e+01,2.399999999999999911e-01
-2.268575282179586594e+00,6.921453520000000470e-01,3.547409701733306164e-02,1.000000000000000048e-04,3.588678707367069620e+01,3.699999999999999956e-01
2.478186394000000181e+00,5.281495040000000474e-01,1.465668429364308523e-02,1.000000000000000048e-04,3.437402288099873005e+01,2.399999999999999911e-01
1.941716173999999961e+00,9.578325640000000529e-01,1.977211956850766228e-02,1.000000000000000048e-04,3.500970507103047424e+01,3.800000000000000044e-01
2.041827891000000061e+00,-8.953703119999999460e-01,2.257621623441652403e-02,1.000000000000000048e-04,3.522230378933988959e+01,1.700000000000000122e-01
2.521229080999999983e+00,-8.544186950000000058e-01,4.733165949932560679e-03,1.000000000000000048e-04,3.290065681268121978e+01,2.000000000000000111e-01
2.745955969000000163e+00,3.136627880000000257e-01,2.072843395581647208e-02,1.000000000000000048e-04,3.493517533819034071e+01,2.099999999999999922e-01
1.738295793999999894e+00,1.134430556000000090e+00,3.559372167078889149e-02,1.000000000000000048e-04,3.604451581993880893e+01,1.799999999999999933e-01
-8.687814521795864664e-01,6.221710379999999541e-01,1.960841959890413655e-02,1.000000000000000048e-04,3.420183400307068666e+01,3.499999999999999778e-01
-1.857013858179586308e+00,3.937075449999999921e-01,4.265014830603508500e-02,1.000000000000000048e-04,3.599345979643417337e+01,2.999999999999999889e-01
-2.894431473179586156e+00,2.701405689999999971e-01,1.253933882737956473e-02,1.000000000000000048e-04,3.359485813134796928e+01,2.300000000000000100e-01
2.213600608000000136e+00,-5.295933369999999973e-01,1.739929718531341152e-02,1.000000000000000048e-04,3.484686934929749214e+01,2.500000000000000000e-01
9.327636729999999599e-01,4.069681829999999834e-01,9.393609270742953044e-03,1.000000000000000048e-04,3.319400189896590803e+01,2.300000000000000100e-01
1.743234563999999986e+00,7.359057650000000450e-01,4.052750848593533739e-02,1.000000000000000048e-04,3.631146750291134140e+01,2.200000000000000011e-01
-2.812965047179586175e+00,5.929882829999999494e-01,2.105156290171517064e-02,1.000000000000000048e-04,3.471122387402991905e+01,2.399999999999999911e-01
-2.977583888179586413e+00,-1.437144969999999966e-01,8.483923157580397501e-03,1.000000000000000048e-04,3.277105856304407183e+01,2.700000000000000178e-01
2.276564226000000080e+00,-5.051809499999999620e-01,1.206168271525975833e-02,1.000000000000000048e-04,3.399760279075076141e+01,2.800000000000000266e-01
2.667465888000000174e+00,-6.260506340000000502e-01,1.178206207697285457e-02,1.000000000000000048e-04,3.407841664601964737e+01,2.600000000000000089e-01
1.041358068000000081e+00,8.506585119999999778e-01,1.617265256156796838e-02,1.000000000000000048e-04,3.438845641917033191e+01,2.300000000000000100e-01
2.499030525999999863e+00,-9.629979760000000333e-01,9.814598746810343499e-03,1.000000000000000048e-04,3.329857151914890778e+01,3.099999999999999978e-01
1.334501084000000004e+00,-7.340646360000000481e-01,3.175370110474329266e-02,1.000000000000000048e-04,3.593178425462784276e+01,2.300000000000000100e-01
2.196979751999999841e+00,-5.334639439999999677e-01,2.439130619413276690e-02,1.000000000000000048e-04,3.532930717360178363e+01,2.500000000000000000e-01
1.445572062999999963e+00,-8.838676049999999451e-01,1.488963397948861456e-02,1.000000000000000048e-04,3.456961591329491057e+01,3.499999999999999778e-01
7.246286520000000397e-01,-7.843460709999999780e-01,2.001934221688284055e-02,1.000000000000000048e-04,3.577520074284120000e+01,3.099999999999999978e-01
2.179180484000000195e+00,1.312341798999999920e+00,1.217202624606406047e-02,1.000000000000000048e-04,3.347297922028027983e+01,2.200000000000000011e-01
7.669035910000000511e-01,2.329377750000000136e-01,7.515872577976256963e-03,1.000000000000000048e-04,3.309244987345638123e+01,2.500000000000000000e-01
2.984436029999999906e+00,4.410184999999999800e-01,2.960392116944943197e-02,1.000000000000000048e-04,3.508409544141923675e+01,2.999999999999999889e-01
1.808380389999999949e+00,-5.931087419999999666e-01,9.158010443284458901e-03,1.000000000000000048e-04,3.402048371532867321e+01,2.200000000000000011e-01
2.378694356000000010e+00,6.891218140000000547e-01,2.448809494310055790e-02,1.000000000000000048e-04,3.559013136802037280e+01,3.099999999999999978e-01
-1.027171309179585990e+00,8.938185499999999895e-01,3.665988952061982609e-02,1.000000000000000048e-04,3.553119395013322190e+01,3.099999999999999978e-01
2.177629786999999872e+00,1.088514723000000073e+00,2.882625363577262512e-02,1.000000000000000048e-04,3.544850447097560675e+01,2.500000000000000000e-01
2.446904437000000154e+00,4.505237189999999892e-01,1.038384325205088388e-02,1.000000000000000048e-04,3.357776964389489649e+01,2.700000000000000178e-01
-2.745075452179586151e+00,5.290477460000000409e-01,1.611015785880409723e-02,1.000000000000000048e-04,3.421298879561777539e+01,1.600000000000000033e-01
3.470126559999999749e-01,6.971221490000000243e-01,2.035909498802102036e-02,1.000000000000000048e-04,3.472548621932963187e+01,2.399999999999999911e-01
-1.741234469179586242e+00,8.281857209999999858e-01,4.544758035310225708e-02,1.000000000000000048e-04,3.634601899296728789e+01,1.000000000000000056e-01
6.278667869999999818e-01,1.201237362999999947e+00,2.243727700729158947e-02,1.000000000000000048e-04,3.457716848652743380e+01,1.799999999999999933e-01
1.901542252999999905e+00,5.984822429999999693e-01,1.212121178661895726e-02,1.000000000000000048e-04,3.402842522263733827e+01,1.700000000000000122e-01
9.102462569999999475e-01,3.833152009999999943e-01,2.959865205565237467e-02,1.000000000000000048e-04,3.552294623438790921e+01,2.200000000000000011e-01
4.621894529999999723e-01,4.355896570000000190e-01,1.258037323439675781e-02,1.000000000000000048e-04,3.333502129697166794e+01,2.399999999999999911e-01
1.731299603999999936e+00,-9.087058740000000245e-01,2.858393167576034344e-02,1.000000000000000048e-04,3.602353330613974691e+01,2.200000000000000011e-01
2.307708166999999921e+00,-3.555306579999999994e-01,4.162840547331092544e-02,1.000000000000000048e-04,3.670162462795594394e+01,1.700000000000000122e-01
2.284880370000000216e+00,-4.942566800000000038e-01,3.523240583556708216e-02,1.000000000000000048e-04,3.641783349815926840e+01,2.200000000000000011e-01
-2.729734007179586364e+00,-4.808223520000000084e-01,9.615064079343760284e-03,1.000000000000000048e-04,3.297901287627315270e+01,2.300000000000000100e-01
-2.728058296179586062e+00,8.181749999999999856e-01,1.151157629266963411e-02,1.000000000000000048e-04,3.336436843327510360e+01,2.200000000000000011e-01
1.539636916000000078e+00,-6.652033799999999830e-02,1.416714410619812625e-02,1.000000000000000048e-04,3.428461462451766550e+01,2.999999999999999889e-01
2.937620158000000092e+00,7.383732379999999873e-01,1.513498572371396733e-02,1.000000000000000048e-04,3.424420216155843377e+01,2.200000000000000011e-01
2.624384770999999894e+00,8.339422930000000012e-01,1.154108057393088416e-02,1.000000000000000048e-04,3.365441987892040032e+01,1.799999999999999933e-01
-2.594453966179586235e+00,1.052220571999999965e+00,2.007988581336195288e-02,1.000000000000000048e-04,3.463755119522716086e+01,1.900000000000000022e-01
-2.462277587179586114e+00,1.356652656000000068e+00,1.858206147970276056e-02,1.000000000000000048e-04,3.413573721565536800e+01,2.099999999999999922e-01
2.730654787000000194e+00,8.741146779999999783e-01,1.008548046152224487e-02,1.000000000000000048e-04,3.359506005455290989e+01,1.900000000000000022e-01
1.629450376000000089e+00,2.068732899999999875e-01,1.478050952641951632e-02,1.000000000000000048e-04,3.496184318277371261e+01,2.899999999999999800e-01
1.142160569999999958e-01,6.858846720000000285e-01,1.286270927367771932e-02,1.000000000000000048e-04,3.323197962871736877e+01,1.799999999999999933e-01
-4.383495451795864639e-01,9.198101690000000108e-01,2.377890313554154034e-02,1.000000000000000048e-04,3.535770558436299638e+01,2.600000000000000089e-01
1.001193188000000012e+00,8.013430529999999719e-01,4.093643946486369423e-02,1.000000000000000048e-04,3.657088024784349045e+01,1.799999999999999933e-01
-8.746654461795859703e-01,7.515327899999999506e-01,1.353701734274448398e-02,1.000000000000000048e-04,3.285646205329906877e+01,2.600000000000000089e-01
1.319662558000000097e+00,1.070340469999999933e-01,1.274758658937025224e-02,1.000000000000000048e-04,3.435409377246514850e+01,2.399999999999999911e-01
1.726021762000000015e+00,-6.377623550000000030e-01,1.702267197898255091e-02,1.000000000000000048e-04,3.493911142750648224e+01,2.600000000000000089e-01
-2.754219137179586330e+00,-9.277945709999999568e-01,3.091631254667071005e-02,1.000000000000000048e-04,3.573122511442339544e+01,3.699999999999999956e-01
1.691977534999999921e+00,1.434503057999999998e+00,3.269433064991233984e-02,1.000000000000000048e-04,3.575235421056041218e+01,2.099999999999999922e-01
8.272144390000000236e-01,-4.428667319999999852e-01,3.077125703665295475e-02,1.000000000000000048e-04,3.580262960269957517e+01,2.300000000000000100e-01
-2.185785446179585811e+00,4.040310730000000183e-01,2.245869261029143082e-02,1.000000000000000048e-04,3.483772535085181943e+01,1.799999999999999933e-01
2.680919170000000129e+00,5.929394510000000063e-01,1.059103588338805579e-02,1.000000000000000048e-04,3.400740425059301231e+01,1.799999999999999933e-01
2.468528393999999793e+00,-3.885411739999999892e-01,2.349427148555816025e-02,1.000000000000000048e-04,3.565276370271202211e+01,1.700000000000000122e-01
1.824819092000000031e+00,-9.187566499999999525e-01,5.074482213981434953e-03,1.000000000000000048e-04,3.290254363452273623e+01,2.099999999999999922e-01
2.252174823999999909e+00,-3.842870769999999769e-01,6.631044908466998677e-03,1.000000000000000048e-04,3.354299795598675615e+01,2.000000000000000111e-01
2.889947965000000174e+00,3.184077100000000105e-01,1.865288204607606914e-02,1.000000000000000048e-04,3.472541978799543472e+01,2.000000000000000111e-01
-2.666621499179586241e+00,1.790417820000000104e-01,1.726097566588191690e-02,1.000000000000000048e-04,3.437502042577084183e+01,1.900000000000000022e-01
2.353249148999999818e+00,9.653535600000000549e-01,9.951183952238151775e-03,1.000000000000000048e-04,3.336768726706635846e+01,1.799999999999999933e-01
1.765869402999999949e+00,9.288119630000000182e-01,3.167336944755794192e-02,1.000000000000000048e-04,3.526242270151641378e+01,3.599999999999999867e-01
1.931340567999999980e+00,-5.991437729999999906e-01,1.888600341681345718e-02,1.000000000000000048e-04,3.536352760023678599e+01,2.000000000000000111e-01
2.835991935000000019e+00,-7.109363199999999550e-01,1.068786961252565781e-02,1.000000000000000048e-04,3.397144552647210958e+01,1.900000000000000022e-01
-2.852520529179586095e+00,8.667541789999999580e-01,3.954901108176889224e-02,1.000000000000000048e-04,3.609863297737302190e+01,1.799999999999999933e-01
-2.458251249179586040e+00,-2.796002539999999925e-01,1.050962478226158403e-02,1.000000000000000048e-04,3.301753906642044711e+01,3.300000000000000155e-01
1.596378985000000084e+00,5.944120290000000084e-01,2.764815919067209471e-02,1.000000000000000048e-04,3.566350928878484439e+01,1.900000000000000022e-01
-2.484014184179586415e+00,8.016642189999999557e-01,1.880987263701738854e-02,1.000000000000000048e-04,3.414658569686582013e+01,1.900000000000000022e-01
-2.431723812179586108e+00,1.223750555999999934e+00,2.571802266803890902e-02,1.000000000000000048e-04,3.522261484951440025e+01,1.700000000000000122e-01
-2.378598255179586118e+00,1.197731727999999940e+00,3.801448082453906530e-02,1.000000000000000048e-04,3.569853438123662670e+01,1.900000000000000022e-01
1.739429998000000088e+00,2.494783479999999887e-01,2.950084067687419598e-02,1.000000000000000048e-04,3.585110159917057615e+01,3.099999999999999978e-01
-2.377494960179586059e+00,9.562939099999999693e-01,4.615160631183501394e-02,1.000000000000000048e-04,3.667275117511980653e+01,1.799999999999999933e-01
-9.021677017958662503e-02,6.959221140000000361e-01,1.479830258764081030e-02,1.000000000000000048e-04,3.363675994945396752e+01,3.499999999999999778e-01
2.021336933000000169e+00,8.510789659999999923e-01,4.584284469951960261e-02,1.000000000000000048e-04,3.624615038268363776e+01,2.800000000000000266e-01
2.573899695999999793e+00,-5.247218830000000001e-01,1.120929737967379936e-02,1.000000000000000048e-04,3.435189503362382624e+01,1.700000000000000122e-01
2.346925623000000183e+00,-7.496726200000000118e-01,3.000641068703435721e-02,1.000000000000000048e-04,3.596298273378077681e+01,1.700000000000000122e-01
2.543651012999999850e+00,-2.555195920000000176e-01,9.224478830266003015e-03,1.000000000000000048e-04,3.349663158234965721e+01,1.900000000000000022e-01
2.457771880000000131e+00,-4.383329890000000062e-01,1.505958979527011188e-02,1.000000000000000048e-04,3.446047084189066112e+01,1.700000000000000122e-01
-2.749033603179586116e+00,5.277091179999999770e-01,4.115791450706551835e-02,1.000000000000000048e-04,3.643530045083640800e+01,1.799999999999999933e-01
-3.021446786179586397e+00,6.716344440000000526e-01,2.036020564494278595e-02,1.000000000000000048e-04,3.506464694659792514e+01,1.799999999999999933e-01
2.390319493999999878e+00,1.427533710000000067e+00,3.475004412892701566e-02,1.000000000000000048e-04,3.582632702000050529e+01,1.799999999999999933e-01
2.491619029000000207e+00,8.136863199999999630e-01,8.710068142348870168e-03,1.000000000000000048e-04,3.303332372980811016e+01,1.900000000000000022e-01
2.336721559999999975e+00,1.049041915000000103e+00,2.159451185775695947e-02,1.000000000000000048e-04,3.545625428765806930e+01,1.700000000000000122e-01
1.201678150000000000e+00,3.331923239999999842e-01,1.662723744175154117e-02,1.000000000000000048e-04,3.455897763886700602e+01,1.900000000000000022e-01
-3.811893421795859993e-01,1.284308205000000092e+00,2.620748785674464898e-02,1.000000000000000048e-04,3.503085145084970975e+01,2.000000000000000111e-01
5.879284790000000038e-01,8.245620540000000442e-01,4.676737869286418103e-02,1.000000000000000048e-04,3.670930529608804704e+01,1.700000000000000122e-01
-1.085925731795862603e-01,9.806715139999999664e-01,2.871039153606180783e-02,1.000000000000000048e-04,3.547037554368651513e+01,1.799999999999999933e-01
1.189812670000000017e+00,8.219376269999999485e-01,2.418993063785657149e-02,1.000000000000000048e-04,3.540184048705102526e+01,1.700000000000000122e-01
2.896526737999999934e+00,1.048685354999999930e+00,2.431361946703214372e-02,1.000000000000000048e-04,3.499414413815009084e+01,1.700000000000000122e-01
8.784667550000000436e-01,-5.840451829999999678e-01,3.950318265672514428e-02,1.000000000000000048e-04,3.650403387318002046e+01,2.099999999999999922e-01
-2.025603206179586557e+00,1.419180792999999996e+00,2.166758672375257433e-02,1.000000000000000048e-04,3.441269842958150349e+01,1.799999999999999933e-01
1.097118803000000087e+00,1.428367445999999985e+00,2.582174744454279747e-02,1.000000000000000048e-04,3.523586476242000032e+01,1.799999999999999933e-01
-1.923054671795858539e-01,8.268694330000000425e-01,1.692922081899639331e-02,1.000000000000000048e-04,3.407062210766764565e+01,2.000000000000000111e-01
1.974446608000000047e+00,-1.250497374000000050e+00,1.093345433466463845e-02,1.000000000000000048e-04,3.397776295585628503e+01,2.000000000000000111e-01
1.714471547999999901e+00,-4.841846819999999774e-01,2.922687485325781154e-02,1.000000000000000048e-04,3.588264914089836566e+01,1.700000000000000122e-01
1.635209042000000057e+00,-1.499680316999999929e+00,2.195849183667553106e-02,1.000000000000000048e-04,3.524916335665106004e+01,1.900000000000000022e-01
-3.085878636179586021e+00,-8.156760069999999807e-01,9.033918898862625113e-03,1.000000000000000048e-04,3.350024499177236237e+01,1.799999999999999933e-01
1.583648911999999909e+00,-4.051170720000000225e-01,2.173140034306131341e-02,1.000000000000000048e-04,3.522236785965552031e+01,1.700000000000000122e-01
3.116144028999999982e+00,-6.233618589999999626e-01,2.440037112853676859e-02,1.000000000000000048e-04,3.544435532492710195e+01,2.000000000000000111e-01
2.580853791000000008e+00,2.126606490000000071e-01,1.018148616401104434e-02,1.000000000000000048e-04,3.432867233263823437e+01,2.200000000000000011e-01
2.791070910999999821e+00,-3.375241600000000036e-02,2.004192556664219360e-02,1.000000000000000048e-04,3.447507238632514515e+01,2.999999999999999889e-01
2.126664376999999995e+00,-4.630033630000000011e-01,2.696217491681207612e-02,1.000000000000000048e-04,3.568282789827251378e+01,1.799999999999999933e-01
1.264160699999999915e+00,6.289837299999999631e-01,1.722760965636771502e-02,1.000000000000000048e-04,3.446944067971056569e+01,1.900000000000000022e-01
2.608192676999999904e+00,3.485897410000000085e-01,2.364109887823429013e-02,1.000000000000000048e-04,3.571401240406741096e+01,2.200000000000000011e-01
2.816578843999999915e+00,-6.539336449999999523e-01,2.544544614745025690e-02,1.000000000000000048e-04,3.581253234041157185e+01,1.799999999999999933e-01
2.816545334000000178e+00,5.529564630000000092e-01,9.019180992458908364e-03,1.000000000000000048e-04,3.333267703471354082e+01,1.700000000000000122e-01
2.293480610000000031e+00,1.430186356999999964e+00,1.627410999517708845e-02,1.000000000000000048e-04,3.419800386809855297e+01,1.700000000000000122e-01
1.900048696999999898e+00,-6.695785770000000081e-01,2.948698285048889645e-02,1.000000000000000048e-04,3.559187057899608675e+01,1.900000000000000022e-01
2.402973735999999860e+00,-4.293495210000000117e-01,4.066222323366930347e-02,1.000000000000000048e-04,3.647491294397369188e+01,2.200000000000000011e-01
3.123677135999999965e+00,5.597831170000000522e-01,2.246735344638017828e-02,1.000000000000000048e-04,3.500970421381284581e+01,1.700000000000000122e-01
-2.603733431795864917e-01,9.574212720000000454e-01,4.962806906358752101e-02,1.000000000000000048e-04,3.623318617512394724e+01,3.800000000000000044e-01
-1.216980031795857897e-01,3.678993019999999836e-01,1.983641771913391416e-02,1.000000000000000048e-04,3.414366138044537280e+01,1.900000000000000022e-01
2.921580513999999962e+00,4.108407450000000072e-01,1.523110947246975044e-02,1.000000000000000048e-04,3.396010406631235412e+01,1.900000000000000022e-01
-2.362072097179586105e+00,1.187667234999999932e+00,1.102325829324968254e-02,1.000000000000000048e-04,3.283984137539942338e+01,1.900000000000000022e-01
-2.337569846179586186e+00,3.756736769999999837e-01,2.052427876681806040e-02,1.000000000000000048e-04,3.436435328295434033e+01,1.700000000000000122e-01
-1.563533060179586265e+00,8.298117619999999528e-01,1.983257117680392589e-02,1.000000000000000048e-04,3.408135829256325877e+01,3.300000000000000155e-01
-7.514201781795861734e-01,8.148208550000000105e-01,2.861770776107519509e-02,1.000000000000000048e-04,3.491714651369450451e+01,2.099999999999999922e-01
-2.172991007179586376e+00,1.278564443000000050e+00,2.881966574622008004e-02,1.000000000000000048e-04,3.523150447665779694e+01,2.000000000000000111e-01
1.004972830999999900e+00,3.284388160000000223e-01,2.043552811042181894e-02,1.000000000000000048e-04,3.506240959780254229e+01,1.799999999999999933e-01
-1.050913719179586536e+00,7.925907810000000220e-01,1.751517246439271425e-02,1.000000000000000048e-04,3.368949364704500482e+01,2.899999999999999800e-01
1.174967896000000067e+00,-7.032179160000000540e-01,1.605248424449690070e-02,1.000000000000000048e-04,3.449251765450269858e+01,1.799999999999999933e-01
2.063754460999999818e+00,1.158898511999999936e+00,4.062831887961415589e-02,1.000000000000000048e-04,3.620320516213999440e+01,1.799999999999999933e-01
1.355273345999999934e+00,1.034050206000000083e+00,9.543969406630603558e-03,1.000000000000000048e-04,3.320079192887238406e+01,1.700000000000000122e-01
1.878516419999999965e+00,-5.891517790000000421e-01,1.696262978949203415e-02,1.000000000000000048e-04,3.503972753190966216e+01,1.799999999999999933e-01
3.042909537999999969e+00,4.914006550000000195e-01,3.122565029523238778e-02,1.000000000000000048e-04,3.552233396732755466e+01,1.700000000000000122e-01
-2.192876876179585821e+00,7.571444160000000423e-01,3.724636118286595021e-02,1.000000000000000048e-04,3.609226977605621300e+01,2.099999999999999922e-01
-1.274335216179586006e+00,7.393028099999999769e-01,4.469426599641468378e-02,1.000000000000000048e-04,3.674644656906646389e+01,3.599999999999999867e-01
3.513372269999999742e-01,1.023017258000000096e+00,2.770765930009377875e-02,1.000000000000000048e-04,3.541382097107916849e+01,1.799999999999999933e-01
-2.045215730179585911e+00,1.346705497999999945e+00,2.205323459976860079e-02,1.000000000000000048e-04,3.462456958856318323e+01,1.799999999999999933e-01
2.622131355000000053e+00,-2.378520580000000051e-01,1.132997351558673316e-02,1.000000000000000048e-04,3.417833079504968907e+01,2.099999999999999922e-01
1.499565373000000035e+00,-5.833961840000000398e-01,9.428893140065230938e-03,1.000000000000000048e-04,3.368427365589443667e+01,1.199999999999999956e-01
9.453780529999999960e-01,-3.014802610000000271e-01,4.012547263457610924e-02,1.000000000000000048e-04,3.610753827268793259e+01,1.799999999999999933e-01
1.003030738000000088e+00,-6.679498139999999751e-01,1.561490189288750052e-02,1.000000000000000048e-04,3.438379773467551104e+01,1.799999999999999933e-01
-2.858957567179586157e+00,-2.878047879999999781e-01,2.040705961794775369e-02,1.000000000000000048e-04,3.451698933203810071e+01,1.300000000000000044e-01
-2.653655062179586022e+00,5.464710109999999510e-01,1.490394485430801552e-02,1.000000000000000048e-04,3.376262798309770119e+01,1.300000000000000044e-01
-1.077960778179586576e+00,1.305029642999999906e+00,3.143620383859579981e-02,1.000000000000000048e-04,3.544849915985865607e+01,1.100000000000000006e-01
2.996279555000000094e+00,-9.792432829999999644e-01,5.904310169156712362e-03,1.000000000000000048e-04,3.286261922534647795e+01,1.600000000000000033e-01
-7.405109531795863731e-01,5.344760480000000369e-01,3.318939184503566509e-02,1.000000000000000048e-04,3.576429607681547651e+01,1.900000000000000022e-01
-1.986221938179586033e+00,3.858849830000000147e-01,3.162535610466421510e-02,1.000000000000000048e-04,3.507467389460218499e+01,2.600000000000000089e-01
-1.660796187179585992e+00,1.337702168000000080e+00,2.371315564655529506e-02,1.000000000000000048e-04,3.477642860534015767e+01,1.300000000000000044e-01
-1.008319883179586540e+00,9.035811799999999838e-01,3.307419980383796698e-02,1.000000000000000048e-04,3.526287968827520558e+01,1.799999999999999933e-01
-2.859227719179586291e+00,-3.383984709999999785e-01,3.117914624338680163e-02,1.000000000000000048e-04,3.588862881809291139e+01,1.799999999999999933e-01
-3.008470453179586279e+00,-9.028608339999999455e-01,8.066617844304735385e-03,1.000000000000000048e-04,3.322780818072023123e+01,1.300000000000000044e-01
2.720373041999999852e+00,-1.026937239000000002e+00,1.005715364195536310e-02,1.000000000000000048e-04,3.388851099756412566e+01,1.100000000000000006e-01
1.131806215999999976e+00,-1.312634394000000038e+00,3.035097973143119354e-02,1.000000000000000048e-04,3.598603613422076819e+01,1.199999999999999956e-01
1.262497049000000038e+00,-7.576738640000000302e-01,3.033211105295441357e-02,1.000000000000000048e-04,3.597195770812968618e+01,1.900000000000000022e-01
-2.150308364179585929e+00,9.473204419999999848e-01,1.982654374906989148e-02,1.000000000000000048e-04,3.407335995214868518e+01,1.499999999999999944e-01
-2.672281993179586035e+00,8.065802300000000091e-01,1.652806802423967270e-02,1.000000000000000048e-04,3.393166491370603666e+01,1.400000000000000133e-01
-2.768228307179586345e+00,1.501965110000000048e-01,3.387244274312029013e-02,1.000000000000000048e-04,3.567130595537020099e+01,1.300000000000000044e-01
2.456608391000000058e+00,-6.815239560000000418e-01,2.026184562259936150e-02,1.000000000000000048e-04,3.542564791645570921e+01,2.899999999999999800e-01
-1.538735822179586599e+00,7.895792169999999999e-01,2.790646803044682933e-02,1.000000000000000048e-04,3.515122579775331246e+01,1.600000000000000033e-01
-6.811844061795859773e-01,-7.989239399999999991e-01,1.830463077785204895e-02,1.000000000000000048e-04,3.416996750137544581e+01,2.300000000000000100e-01
-9.881069141795864041e-01,9.266642769999999807e-01,2.437443281802620376e-02,1.000000000000000048e-04,3.461199793243250866e+01,2.500000000000000000e-01
9.533575850000000074e-01,-5.868324440000000086e-01,2.510113783442213808e-02,1.000000000000000048e-04,3.533384820181618835e+01,1.199999999999999956e-01
-1.550854682179585886e+00,1.341867675000000037e+00,3.507114525063714794e-02,1.000000000000000048e-04,3.559001931382650952e+01,3.599999999999999867e-01
1.284766933000000000e+00,-9.049604909999999780e-01,1.920749758565687415e-02,1.000000000000000048e-04,3.470623145592668379e+01,1.300000000000000044e-01
