-1.598279621179586663e+00,2.779993629999999993e-01,2.401939638669192689e-02,1.000000000000000048e-04,3.515766774391576632e+01,1.700000000000000122e-01
-8.306753881795865269e-01,5.048130450000000158e-01,4.862839115072836726e-02,1.000000000000000048e-04,3.611861284556086815e+01,1.600000000000000033e-01
-1.512887194179586281e+00,3.571169940000000209e-01,4.063416581046253029e-03,1.000000000000000048e-04,3.176507751850745720e+01,1.600000000000000033e-01
-2.094054222179586588e+00,-9.657747650000000350e-01,7.636307684049326028e-03,1.000000000000000048e-04,3.290747589582909427e+01,1.600000000000000033e-01
-1.256550916179586252e+00,-1.037146153999999987e+00,2.342988595855199918e-02,1.000000000000000048e-04,3.540674674521791587e+01,1.900000000000000022e-01
-2.638489419179586015e+00,-8.917870300000000361e-01,2.997731343618315059e-02,1.000000000000000048e-04,3.587332276823504884e+01,1.600000000000000033e-01
-1.710562538179586589e+00,-1.402302595000000096e+00,1.715447703224581844e-02,1.000000000000000048e-04,3.446557841654954046e+01,2.000000000000000111e-01
-2.771840681795865180e-01,-1.115655276000000029e+00,1.715235828849293043e-02,1.000000000000000048e-04,3.448246530652124875e+01,1.700000000000000122e-01
-1.608432286179586335e+00,-6.514894359999999773e-01,3.617494580125013570e-02,1.000000000000000048e-04,3.585998366612156474e+01,1.600000000000000033e-01
-1.490451089179586575e+00,-3.201959389999999850e-01,1.708557918654407537e-02,1.000000000000000048e-04,3.429221540709822591e+01,1.700000000000000122e-01
-1.995144670179586299e+00,-1.040863893000000040e+00,2.126424705344365229e-02,1.000000000000000048e-04,3.534131659225936062e+01,1.799999999999999933e-01
3.095686500000000008e-02,-1.139960520999999893e+00,1.850767020195376311e-02,1.000000000000000048e-04,3.475249705425403590e+01,1.700000000000000122e-01
-2.211919791795864398e-01,-6.717550429999999961e-01,2.057869254948552218e-02,1.000000000000000048e-04,3.504184861604638002e+01,2.200000000000000011e-01
-8.294029241795861651e-01,6.699244909999999553e-01,1.064763626331188817e-02,1.000000000000000048e-04,3.338943963672656423e+01,1.799999999999999933e-01
-4.765590681795863759e-01,-7.328014390000000544e-01,1.679223774576410477e-02,1.000000000000000048e-04,3.425708530338671665e+01,1.600000000000000033e-01
-1.123871723179585835e+00,1.275958498999999913e+00,8.258413683155163554e-03,1.000000000000000048e-04,3.267259143607333982e+01,1.900000000000000022e-01
-5.094723721795864080e-01,-7.371415260000000469e-01,1.631337938488885975e-02,1.000000000000000048e-04,3.412779672469368819e+01,1.600000000000000033e-01
6.571342580000000266e-01,4.949370419999999937e-01,6.885324892548383424e-02,1.000000000000000048e-04,3.750044269365916705e+01,1.700000000000000122e-01
-1.010588552179585875e+00,4.063959939999999826e-01,1.633921542064609156e-02,1.000000000000000048e-04,3.439970431738012024e+01,1.400000000000000133e-01
-5.300352171795861267e-01,-4.198024320000000031e-01,2.797009802686600821e-02,1.000000000000000048e-04,3.533334304211164323e+01,1.499999999999999944e-01
-3.959305511795863097e-01,-4.514385590000000170e-01,1.325707333590231407e-02,1.000000000000000048e-04,3.361740888278038852e+01,1.600000000000000033e-01
-1.302326638179586382e+00,4.891699640000000127e-01,2.910634678075507686e-02,1.000000000000000048e-04,3.577483181714171678e+01,8.999999999999999667e-02
-8.169037861795862554e-01,4.857709299999999897e-01,2.278104238669587112e-02,1.000000000000000048e-04,3.497935100789788265e+01,1.000000000000000056e-01
-1.156602994179586119e+00,7.039336720000000103e-01,9.673510515206595883e-03,1.000000000000000048e-04,3.340800216255289712e+01,1.100000000000000006e-01
2.500120207999999788e+00,-3.403989430000000094e-01,2.215730568046758719e-02,1.000000000000000048e-04,3.488943903894780618e+01,1.100000000000000006e-01
2.397122115999999803e+00,-8.283729720000000407e-01,2.927292847542317666e-02,1.000000000000000048e-04,3.562493481174610821e+01,1.700000000000000122e-01
-4.391142381795862804e-01,9.199097720000000145e-01,4.337839981903957032e-02,1.000000000000000048e-04,3.630229723838415623e+01,2.200000000000000011e-01
-1.356814123179586495e+00,1.335301293999999972e+00,1.982644416297008050e-02,1.000000000000000048e-04,3.485869185183346985e+01,2.600000000000000089e-01
2.612804049999999823e+00,3.003891830000000041e-01,3.092040801752471424e-02,1.000000000000000048e-04,3.546792287029521873e+01,1.700000000000000122e-01
-2.350352662179586272e+00,1.041324629000000002e+00,4.121731568377362542e-02,1.000000000000000048e-04,3.610657576874476860e+01,5.300000000000000266e-01
-1.192441121179586005e+00,1.100105410000000061e+00,4.003634440696712815e-02,1.000000000000000048e-04,3.621151002606916336e+01,1.799999999999999933e-01
-3.012917491179586182e+00,1.485957493999999990e+00,9.275279655944101975e-03,1.000000000000000048e-04,3.294304507298369344e+01,2.200000000000000011e-01
-7.329138461795858817e-01,1.044356909000000000e+00,2.222827530508908467e-02,1.000000000000000048e-04,3.521526164108050949e+01,1.700000000000000122e-01
1.024371087000000013e+00,-9.607604419999999923e-01,9.974802953424788399e-03,1.000000000000000048e-04,3.291280967806983426e+01,1.600000000000000033e-01
2.960998206000000188e+00,-8.548671270000000044e-01,2.170338079599010150e-02,1.000000000000000048e-04,3.516454805063955291e+01,1.900000000000000022e-01
-2.929124628179586409e+00,8.872048380000000511e-01,2.577331626255641162e-02,1.000000000000000048e-04,3.547972288783105910e+01,4.600000000000000200e-01
-3.017579355179586198e+00,-3.780387199999999948e-01,3.948359409245671969e-02,1.000000000000000048e-04,3.638177833369596925e+01,2.399999999999999911e-01
-2.268575282179586594e+00,6.921453520000000470e-01,2.653638608901709439e-02,1.000000000000000048e-04,3.562992907805354292e+01,3.699999999999999956e-01
2.478186394000000181e+00,5.281495040000000474e-01,4.108230849522875872e-02,1.000000000000000048e-04,3.627350278132587391e+01,2.399999999999999911e-01
7.532392530000000530e-01,9.936355940000000109e-01,1.236079137018331053e-02,1.000000000000000048e-04,3.322395654233406503e+01,1.600000000000000033e-01
1.772935874999999939e+00,1.383062164999999899e+00,3.612499439293515024e-02,1.000000000000000048e-04,3.596082406625743033e+01,7.399999999999999911e-01
1.941716173999999961e+00,9.578325640000000529e-01,3.414525120964584382e-02,1.000000000000000048e-04,3.554885579776902915e+01,3.800000000000000044e-01
2.041827891000000061e+00,-8.953703119999999460e-01,1.880880648753180395e-02,1.000000000000000048e-04,3.423247309908202141e+01,1.700000000000000122e-01
2.521229080999999983e+00,-8.544186950000000058e-01,3.285735421039492898e-02,1.000000000000000048e-04,3.627182326563379888e+01,2.000000000000000111e-01
2.745955969000000163e+00,3.136627880000000257e-01,1.085337399079100429e-02,1.000000000000000048e-04,3.343259035696936365e+01,2.099999999999999922e-01
1.738295793999999894e+00,1.134430556000000090e+00,1.137594666160790524e-02,1.000000000000000048e-04,3.316004750109759414e+01,1.799999999999999933e-01
-8.687814521795864664e-01,6.221710379999999541e-01,2.069856499962186014e-02,1.000000000000000048e-04,3.467374404603526727e+01,3.499999999999999778e-01
-1.857013858179586308e+00,3.937075449999999921e-01,2.226363440843348585e-02,1.000000000000000048e-04,3.500500679051590680e+01,2.999999999999999889e-01
-2.894431473179586156e+00,2.701405689999999971e-01,1.177323980043532003e-02,1.000000000000000048e-04,3.368212692142446230e+01,2.300000000000000100e-01
2.213600608000000136e+00,-5.295933369999999973e-01,8.645290135489869243e-03,1.000000000000000048e-04,3.301787961719671927e+01,2.500000000000000000e-01
9.327636729999999599e-01,4.069681829999999834e-01,3.775635204731742078e-02,1.000000000000000048e-04,3.620764662991511784e+01,2.300000000000000100e-01
1.743234563999999986e+00,7.359057650000000450e-01,6.339054029631485676e-02,1.000000000000000048e-04,3.738031118138059128e+01,2.200000000000000011e-01
-2.812965047179586175e+00,5.929882829999999494e-01,4.131069210866189501e-02,1.000000000000000048e-04,3.586428396343806213e+01,2.399999999999999911e-01
-2.977583888179586413e+00,-1.437144969999999966e-01,2.694249637181278523e-02,1.000000000000000048e-04,3.560868606341405496e+01,2.700000000000000178e-01
2.276564226000000080e+00,-5.051809499999999620e-01,1.764742034359390033e-02,1.000000000000000048e-04,3.434316373574634440e+01,2.800000000000000266e-01
2.667465888000000174e+00,-6.260506340000000502e-01,9.357769997386577998e-03,1.000000000000000048e-04,3.316705019747949024e+01,2.600000000000000089e-01
1.041358068000000081e+00,8.506585119999999778e-01,1.687237635134142266e-02,1.000000000000000048e-04,3.435932399896042710e+01,2.300000000000000100e-01
2.499030525999999863e+00,-9.629979760000000333e-01,3.271630427193850110e-02,1.000000000000000048e-04,3.567683362196385133e+01,3.099999999999999978e-01
1.334501084000000004e+00,-7.340646360000000481e-01,1.168635215842317443e-02,1.000000000000000048e-04,3.327987157942511942e+01,2.300000000000000100e-01
2.196979751999999841e+00,-5.334639439999999677e-01,3.550582062423335294e-02,1.000000000000000048e-04,3.586368021648686266e+01,2.500000000000000000e-01
1.355624495999999901e+00,4.654212710000000253e-01,2.342909427684380930e-02,1.000000000000000048e-04,3.468545739385080395e+01,2.200000000000000011e-01
1.445572062999999963e+00,-8.838676049999999451e-01,2.316517043994115177e-02,1.000000000000000048e-04,3.482129769193739577e+01,3.499999999999999778e-01
7.246286520000000397e-01,-7.843460709999999780e-01,1.958406860491268553e-02,1.000000000000000048e-04,3.483604286688206741e+01,3.099999999999999978e-01
2.179180484000000195e+00,1.312341798999999920e+00,3.938772574533788706e-02,1.000000000000000048e-04,3.621697346405218099e+01,2.200000000000000011e-01
7.669035910000000511e-01,2.329377750000000136e-01,1.588621564267467257e-02,1.000000000000000048e-04,3.413798136268963646e+01,2.500000000000000000e-01
1.528220198000000085e+00,-6.827860190000000218e-01,1.227632348744722712e-02,1.000000000000000048e-04,3.373333973957847576e+01,4.199999999999999845e-01
2.984436029999999906e+00,4.410184999999999800e-01,4.666218473168726177e-02,1.000000000000000048e-04,3.681693824561912010e+01,2.999999999999999889e-01
1.808380389999999949e+00,-5.931087419999999666e-01,1.198904532202527129e-02,1.000000000000000048e-04,3.391915438497210999e+01,2.200000000000000011e-01
2.378694356000000010e+00,6.891218140000000547e-01,4.351765126206919021e-02,1.000000000000000048e-04,3.644276324175205417e+01,3.099999999999999978e-01
-1.027171309179585990e+00,8.938185499999999895e-01,1.846940431174171060e-02,1.000000000000000048e-04,3.473266646106836220e+01,3.099999999999999978e-01
2.177629786999999872e+00,1.088514723000000073e+00,3.131768476976559690e-02,1.000000000000000048e-04,3.571895448100909221e+01,2.500000000000000000e-01
2.446904437000000154e+00,4.505237189999999892e-01,1.873938120808582575e-02,1.000000000000000048e-04,3.456872422436555325e+01,2.700000000000000178e-01
-2.745075452179586151e+00,5.290477460000000409e-01,1.007646635567982507e-02,1.000000000000000048e-04,3.348194615575542343e+01,1.600000000000000033e-01
3.470126559999999749e-01,6.971221490000000243e-01,1.712497774418841878e-02,1.000000000000000048e-04,3.427880038143617725e+01,2.399999999999999911e-01
-2.027672372179586624e+00,-3.494576850000000179e-01,3.979913095572684689e-02,1.000000000000000048e-04,3.653409842282087538e+01,8.999999999999999667e-02
-2.243457714179585949e+00,5.735296930000000071e-01,2.525673052034371757e-02,1.000000000000000048e-04,3.497528799292782509e+01,8.000000000000000167e-02
-1.741234469179586242e+00,8.281857209999999858e-01,1.789321962017642598e-02,1.000000000000000048e-04,3.454958190177144672e+01,1.000000000000000056e-01
-1.661352162179586145e+00,7.473004210000000480e-01,1.045624774847309091e-02,1.000000000000000048e-04,3.324904326453996362e+01,1.100000000000000006e-01
-1.046494641179585905e+00,9.839422859999999993e-01,1.663219515743441512e-02,1.000000000000000048e-04,3.395549543618406574e+01,1.600000000000000033e-01
-1.357076630179586019e+00,8.591991679999999576e-01,2.171087916416758468e-02,1.000000000000000048e-04,3.495246785914610399e+01,1.300000000000000044e-01
-1.489161381179585852e+00,8.733460579999999807e-01,2.680964922138362461e-02,1.000000000000000048e-04,3.514000063802835427e+01,8.999999999999999667e-02
2.602874990000000111e+00,9.865781270000000269e-01,3.651804038673800434e-02,1.000000000000000048e-04,3.574669639800896448e+01,2.099999999999999922e-01
6.278667869999999818e-01,1.201237362999999947e+00,3.365794754873507877e-02,1.000000000000000048e-04,3.553977984816093283e+01,1.799999999999999933e-01
1.901542252999999905e+00,5.984822429999999693e-01,8.928116386996753917e-03,1.000000000000000048e-04,3.283863847606426134e+01,1.700000000000000122e-01
9.102462569999999475e-01,3.833152009999999943e-01,3.591514124139427722e-02,1.000000000000000048e-04,3.557742400929688387e+01,2.200000000000000011e-01
4.621894529999999723e-01,4.355896570000000190e-01,2.072095854137256943e-02,1.000000000000000048e-04,3.511055084340254240e+01,2.399999999999999911e-01
1.731299603999999936e+00,-9.087058740000000245e-01,2.698490018643573407e-02,1.000000000000000048e-04,3.529034637433272792e+01,2.200000000000000011e-01
2.307708166999999921e+00,-3.555306579999999994e-01,1.376162207787068326e-02,1.000000000000000048e-04,3.402005848423153367e+01,1.700000000000000122e-01
2.284880370000000216e+00,-4.942566800000000038e-01,1.647731344711411694e-02,1.000000000000000048e-04,3.425684503925705826e+01,2.200000000000000011e-01
-2.729734007179586364e+00,-4.808223520000000084e-01,1.715151182625951343e-02,1.000000000000000048e-04,3.471114603291290734e+01,2.300000000000000100e-01
-2.728058296179586062e+00,8.181749999999999856e-01,1.113322211546519114e-02,1.000000000000000048e-04,3.320144459665258552e+01,2.200000000000000011e-01
1.539636916000000078e+00,-6.652033799999999830e-02,1.518330742656948118e-02,1.000000000000000048e-04,3.365420299217679201e+01,2.999999999999999889e-01
2.937620158000000092e+00,7.383732379999999873e-01,1.155012396451549073e-02,1.000000000000000048e-04,3.348546421133213613e+01,2.200000000000000011e-01
2.624384770999999894e+00,8.339422930000000012e-01,9.567012549702935686e-03,1.000000000000000048e-04,3.260925227517083158e+01,1.799999999999999933e-01
-2.594453966179586235e+00,1.052220571999999965e+00,2.217059553639266767e-02,1.000000000000000048e-04,3.491937530627419051e+01,1.900000000000000022e-01
-2.462277587179586114e+00,1.356652656000000068e+00,2.122621562340643031e-02,1.000000000000000048e-04,3.452579962340371367e+01,2.099999999999999922e-01
2.730654787000000194e+00,8.741146779999999783e-01,2.236304776696651508e-02,1.000000000000000048e-04,3.536864750818807579e+01,1.900000000000000022e-01
-2.564984794179586025e+00,9.572418230000000472e-01,2.312932968683623081e-02,1.000000000000000048e-04,3.498651119499803741e+01,4.400000000000000022e-01
1.629450376000000089e+00,2.068732899999999875e-01,2.078126445369332664e-02,1.000000000000000048e-04,3.481737565673816448e+01,2.899999999999999800e-01
1.142160569999999958e-01,6.858846720000000285e-01,3.101403422794613007e-02,1.000000000000000048e-04,3.526860419633592159e+01,1.799999999999999933e-01
-4.383495451795864639e-01,9.198101690000000108e-01,1.049045852901109299e-02,1.000000000000000048e-04,3.317625423940216933e+01,2.600000000000000089e-01
1.001193188000000012e+00,8.013430529999999719e-01,2.322346606174896522e-02,1.000000000000000048e-04,3.493252840620180422e+01,1.799999999999999933e-01
-8.746654461795859703e-01,7.515327899999999506e-01,2.525844619771056010e-02,1.000000000000000048e-04,3.602002787606379286e+01,2.600000000000000089e-01
1.319662558000000097e+00,1.070340469999999933e-01,2.045842230839811648e-02,1.000000000000000048e-04,3.453489436853634942e+01,2.399999999999999911e-01
1.726021762000000015e+00,-6.377623550000000030e-01,2.482150604028188212e-02,1.000000000000000048e-04,3.507949642685628788e+01,2.600000000000000089e-01
-2.754219137179586330e+00,-9.277945709999999568e-01,2.646826023762427482e-02,1.000000000000000048e-04,3.529758669815095118e+01,3.699999999999999956e-01
1.691977534999999921e+00,1.434503057999999998e+00,4.065089515851627588e-02,1.000000000000000048e-04,3.678050312735158656e+01,2.099999999999999922e-01
8.272144390000000236e-01,-4.428667319999999852e-01,8.911570455885309272e-03,1.000000000000000048e-04,3.265431878149995271e+01,2.300000000000000100e-01
-2.185785446179585811e+00,4.040310730000000183e-01,2.208684955705697561e-02,1.000000000000000048e-04,3.533959878769525176e+01,1.799999999999999933e-01
2.680919170000000129e+00,5.929394510000000063e-01,5.248941858079692047e-02,1.000000000000000048e-04,3.708672201357462939e+01,1.799999999999999933e-01
2.468528393999999793e+00,-3.885411739999999892e-01,2.329939536846925563e-02,1.000000000000000048e-04,3.515593816458120102e+01,1.700000000000000122e-01
1.824819092000000031e+00,-9.187566499999999525e-01,2.091733257339445373e-02,1.000000000000000048e-04,3.487906623767847947e+01,2.099999999999999922e-01
2.252174823999999909e+00,-3.842870769999999769e-01,1.221533229684101940e-02,1.000000000000000048e-04,3.367427619041524167e+01,2.000000000000000111e-01
2.889947965000000174e+00,3.184077100000000105e-01,2.588280657782338068e-02,1.000000000000000048e-04,3.512646622702152399e+01,2.000000000000000111e-01
-2.125870880179586031e+00,7.967372299999999630e-01,1.098715682174677966e-02,1.000000000000000048e-04,3.346666662464581776e+01,4.400000000000000022e-01
-2.666621499179586241e+00,1.790417820000000104e-01,1.029900297167785084e-02,1.000000000000000048e-04,3.331891430307027946e+01,1.900000000000000022e-01
2.353249148999999818e+00,9.653535600000000549e-01,1.576096362116419236e-02,1.000000000000000048e-04,3.393924276437414989e+01,1.799999999999999933e-01
1.765869402999999949e+00,9.288119630000000182e-01,2.212348778373107727e-02,1.000000000000000048e-04,3.470273234396577777e+01,3.599999999999999867e-01
1.162949336999999916e+00,5.157872650000000503e-01,2.958772845949764196e-02,1.000000000000000048e-04,3.539950494672123682e+01,4.099999999999999756e-01
2.011122450999999867e+00,-1.257182417000000108e+00,1.301742695984442477e-02,1.000000000000000048e-04,3.389386777796198658e+01,1.799999999999999933e-01
1.931340567999999980e+00,-5.991437729999999906e-01,1.252227297952934748e-02,1.000000000000000048e-04,3.329000611446772950e+01,2.000000000000000111e-01
2.835991935000000019e+00,-7.109363199999999550e-01,2.078299495288304932e-02,1.000000000000000048e-04,3.465681257189606157e+01,1.900000000000000022e-01
-2.852520529179586095e+00,8.667541789999999580e-01,7.133475895604535211e-03,1.000000000000000048e-04,3.270614190018930145e+01,1.799999999999999933e-01
-2.458251249179586040e+00,-2.796002539999999925e-01,2.107867826096665453e-02,1.000000000000000048e-04,3.488759160148383387e+01,3.300000000000000155e-01
1.596378985000000084e+00,5.944120290000000084e-01,7.399958855344390685e-03,1.000000000000000048e-04,3.233047258049253969e+01,1.900000000000000022e-01
-2.484014184179586415e+00,8.016642189999999557e-01,2.105153024630346259e-02,1.000000000000000048e-04,3.481003971502534711e+01,1.900000000000000022e-01
-2.431723812179586108e+00,1.223750555999999934e+00,1.329518515191363548e-02,1.000000000000000048e-04,3.378845715170120201e+01,1.700000000000000122e-01
-2.378598255179586118e+00,1.197731727999999940e+00,3.199270202308635014e-02,1.000000000000000048e-04,3.537787101826189939e+01,1.900000000000000022e-01
1.739429998000000088e+00,2.494783479999999887e-01,3.003087924305614109e-02,1.000000000000000048e-04,3.536920340626406301e+01,3.099999999999999978e-01
-2.377494960179586059e+00,9.562939099999999693e-01,1.510727687179413969e-02,1.000000000000000048e-04,3.457971102063610402e+01,1.799999999999999933e-01
-9.021677017958662503e-02,6.959221140000000361e-01,1.769174058853639764e-02,1.000000000000000048e-04,3.438171099992330682e+01,3.499999999999999778e-01
2.021336933000000169e+00,8.510789659999999923e-01,2.791196495398740041e-02,1.000000000000000048e-04,3.563321161099701584e+01,2.800000000000000266e-01
2.573899695999999793e+00,-5.247218830000000001e-01,1.990943641657971774e-02,1.000000000000000048e-04,3.466790876467663196e+01,1.700000000000000122e-01
2.346925623000000183e+00,-7.496726200000000118e-01,1.360989829703052045e-02,1.000000000000000048e-04,3.368891559599428120e+01,1.700000000000000122e-01
2.487812089999999809e+00,-1.095252646999999913e+00,3.367173709425808070e-02,1.000000000000000048e-04,3.612680721777881843e+01,1.600000000000000033e-01
2.543651012999999850e+00,-2.555195920000000176e-01,1.493989803045092657e-02,1.000000000000000048e-04,3.418688591488116657e+01,1.900000000000000022e-01
2.457771880000000131e+00,-4.383329890000000062e-01,1.992206664169393626e-02,1.000000000000000048e-04,3.487637972207672732e+01,1.700000000000000122e-01
-2.749033603179586116e+00,5.277091179999999770e-01,3.135730120797064480e-02,1.000000000000000048e-04,3.574855940016313127e+01,1.799999999999999933e-01
-3.021446786179586397e+00,6.716344440000000526e-01,2.656488995230454897e-02,1.000000000000000048e-04,3.532232304195159855e+01,1.799999999999999933e-01
2.390319493999999878e+00,1.427533710000000067e+00,4.104594177628539953e-03,1.000000000000000048e-04,3.104655255269716463e+01,1.799999999999999933e-01
-2.060955814179585843e+00,9.020563839999999889e-01,3.716884807809694991e-02,1.000000000000000048e-04,3.583356806532065519e+01,1.799999999999999933e-01
-1.552222439179586466e+00,1.270289940999999923e+00,3.014700384155544199e-02,1.000000000000000048e-04,3.588011850422652316e+01,1.600000000000000033e-01
2.491619029000000207e+00,8.136863199999999630e-01,2.608901353000403489e-02,1.000000000000000048e-04,3.520655875020307235e+01,1.900000000000000022e-01
2.336721559999999975e+00,1.049041915000000103e+00,5.534587841147464715e-03,1.000000000000000048e-04,3.139448086622585521e+01,1.700000000000000122e-01
1.201678150000000000e+00,3.331923239999999842e-01,1.621632793730953814e-02,1.000000000000000048e-04,3.430103040583895790e+01,1.900000000000000022e-01
-3.811893421795859993e-01,1.284308205000000092e+00,5.869327326641693432e-03,1.000000000000000048e-04,3.189679007437587899e+01,2.000000000000000111e-01
5.879284790000000038e-01,8.245620540000000442e-01,4.679173426471017194e-02,1.000000000000000048e-04,3.653561318071611197e+01,1.700000000000000122e-01
-3.584264691795864266e-01,1.112498557000000110e+00,1.114229861032667301e-02,1.000000000000000048e-04,3.373616493606676414e+01,2.000000000000000111e-01
-1.085925731795862603e-01,9.806715139999999664e-01,2.631220135892031742e-02,1.000000000000000048e-04,3.552988112352344530e+01,1.799999999999999933e-01
1.189812670000000017e+00,8.219376269999999485e-01,2.286536651114312590e-02,1.000000000000000048e-04,3.479850527689981021e+01,1.700000000000000122e-01
2.896526737999999934e+00,1.048685354999999930e+00,3.683436233526204973e-02,1.000000000000000048e-04,3.586044040709641223e+01,1.700000000000000122e-01
1.187793541000000008e+00,1.533334508000000040e+00,4.944712961061581424e-03,1.000000000000000048e-04,3.130428164074553976e+01,1.700000000000000122e-01
8.784667550000000436e-01,-5.840451829999999678e-01,3.563286948917454566e-02,1.000000000000000048e-04,3.591711014040259187e+01,2.099999999999999922e-01
-2.025603206179586557e+00,1.419180792999999996e+00,1.118480459271853356e-02,1.000000000000000048e-04,3.379440366379954952e+01,1.799999999999999933e-01
1.097118803000000087e+00,1.428367445999999985e+00,4.191437723483359967e-02,1.000000000000000048e-04,3.633670818333459351e+01,1.799999999999999933e-01
-1.923054671795858539e-01,8.268694330000000425e-01,2.009775946038949712e-02,1.000000000000000048e-04,3.435784825750317850e+01,2.000000000000000111e-01
1.974446608000000047e+00,-1.250497374000000050e+00,1.420779561466289920e-02,1.000000000000000048e-04,3.425851613948815810e+01,2.000000000000000111e-01
1.714471547999999901e+00,-4.841846819999999774e-01,1.950916691987414353e-02,1.000000000000000048e-04,3.427013448542027874e+01,1.700000000000000122e-01
1.635209042000000057e+00,-1.499680316999999929e+00,2.708295643664437868e-02,1.000000000000000048e-04,3.580123770066848721e+01,1.900000000000000022e-01
-3.085878636179586021e+00,-8.156760069999999807e-01,8.698613908712182763e-03,1.000000000000000048e-04,3.288124306533292440e+01,1.799999999999999933e-01
1.583648911999999909e+00,-4.051170720000000225e-01,5.728336144666967833e-02,1.000000000000000048e-04,3.759222171996992756e+01,1.700000000000000122e-01
3.116144028999999982e+00,-6.233618589999999626e-01,1.456083042494493718e-02,1.000000000000000048e-04,3.401247855403166653e+01,2.000000000000000111e-01
2.580853791000000008e+00,2.126606490000000071e-01,1.480129507593819227e-02,1.000000000000000048e-04,3.353243036791499776e+01,2.200000000000000011e-01
2.791070910999999821e+00,-3.375241600000000036e-02,5.078683867589806056e-03,1.000000000000000048e-04,3.222736107609955525e+01,2.999999999999999889e-01
2.126664376999999995e+00,-4.630033630000000011e-01,1.295356071720221713e-02,1.000000000000000048e-04,3.358994750359049419e+01,1.799999999999999933e-01
1.264160699999999915e+00,6.289837299999999631e-01,2.465232373149639500e-02,1.000000000000000048e-04,3.543501603181974957e+01,1.900000000000000022e-01
2.608192676999999904e+00,3.485897410000000085e-01,2.050884021501819809e-02,1.000000000000000048e-04,3.483133076014576801e+01,2.200000000000000011e-01
9.029304540000000490e-01,-5.888661819999999603e-01,8.387158195660049387e-03,1.000000000000000048e-04,3.251073914075586657e+01,1.700000000000000122e-01
2.675488564000000125e+00,-1.029758079000000048e+00,2.151033078134823029e-02,1.000000000000000048e-04,3.491974555626998011e+01,1.700000000000000122e-01
9.979371630000000160e-01,-7.076351440000000492e-01,4.213751051053327146e-02,1.000000000000000048e-04,3.642277809392507493e+01,2.000000000000000111e-01
2.816578843999999915e+00,-6.539336449999999523e-01,1.570672794800831440e-02,1.000000000000000048e-04,3.416970335349950005e+01,1.799999999999999933e-01
-2.809922836179586270e+00,-1.219770695000000016e+00,3.451497957449589649e-02,1.000000000000000048e-04,3.614923509400466628e+01,1.900000000000000022e-01
2.816545334000000178e+00,5.529564630000000092e-01,1.814152807254143518e-02,1.000000000000000048e-04,3.409836182597660326e+01,1.700000000000000122e-01
2.293480610000000031e+00,1.430186356999999964e+00,3.637224305216113507e-02,1.000000000000000048e-04,3.571502399682084672e+01,1.700000000000000122e-01
1.900048696999999898e+00,-6.695785770000000081e-01,2.276825613145105898e-02,1.000000000000000048e-04,3.476453807593793499e+01,1.900000000000000022e-01
2.402973735999999860e+00,-4.293495210000000117e-01,1.788172655508835085e-02,1.000000000000000048e-04,3.410460778868002762e+01,2.200000000000000011e-01
3.123677135999999965e+00,5.597831170000000522e-01,2.463306635675999168e-02,1.000000000000000048e-04,3.493486057992384275e+01,1.700000000000000122e-01
1.945616433999999950e+00,5.533621010000000506e-01,2.345098082293750608e-02,1.000000000000000048e-04,3.524713724964267669e+01,1.700000000000000122e-01
-2.603733431795864917e-01,9.574212720000000454e-01,4.334716924210346711e-02,1.000000000000000048e-04,3.613474999038430013e+01,3.800000000000000044e-01
-1.216980031795857897e-01,3.678993019999999836e-01,1.456602944347906714e-02,1.000000000000000048e-04,3.370722626185832382e+01,1.900000000000000022e-01
2.921580513999999962e+00,4.108407450000000072e-01,2.489816652073550962e-02,1.000000000000000048e-04,3.489036979656531656e+01,1.900000000000000022e-01
-2.362072097179586105e+00,1.187667234999999932e+00,2.391091331889794169e-02,1.000000000000000048e-04,3.490765354741355253e+01,1.900000000000000022e-01
-2.337569846179586186e+00,3.756736769999999837e-01,4.003867324847854015e-02,1.000000000000000048e-04,3.643390531200900995e+01,1.700000000000000122e-01
-1.563533060179586265e+00,8.298117619999999528e-01,2.255729665897643343e-02,1.000000000000000048e-04,3.506639838392975150e+01,3.300000000000000155e-01
-7.514201781795861734e-01,8.148208550000000105e-01,1.510839390699336704e-02,1.000000000000000048e-04,3.394506378211764996e+01,2.099999999999999922e-01
-2.172991007179586376e+00,1.278564443000000050e+00,1.529551696525000004e-02,1.000000000000000048e-04,3.400772502982646728e+01,2.000000000000000111e-01
1.004972830999999900e+00,3.284388160000000223e-01,2.833502212701088929e-02,1.000000000000000048e-04,3.548779112035546746e+01,1.799999999999999933e-01
-1.050913719179586536e+00,7.925907810000000220e-01,4.325670174741214069e-02,1.000000000000000048e-04,3.642008566397886682e+01,2.899999999999999800e-01
1.174967896000000067e+00,-7.032179160000000540e-01,2.696336636473262161e-02,1.000000000000000048e-04,3.492173030733295036e+01,1.799999999999999933e-01
2.063754460999999818e+00,1.158898511999999936e+00,1.566578591011991151e-02,1.000000000000000048e-04,3.398716286534292408e+01,1.799999999999999933e-01
1.355273345999999934e+00,1.034050206000000083e+00,1.195728021618247539e-02,1.000000000000000048e-04,3.321869069437323674e+01,1.700000000000000122e-01
1.878516419999999965e+00,-5.891517790000000421e-01,4.972518965779659794e-02,1.000000000000000048e-04,3.653938359474597775e+01,1.799999999999999933e-01
3.042909537999999969e+00,4.914006550000000195e-01,3.151275706040812530e-02,1.000000000000000048e-04,3.544958131129797607e+01,1.700000000000000122e-01
-2.192876876179585821e+00,7.571444160000000423e-01,2.087188495674396904e-02,1.000000000000000048e-04,3.459812504960829216e+01,2.099999999999999922e-01
-1.274335216179586006e+00,7.393028099999999769e-01,2.571555824282789615e-02,1.000000000000000048e-04,3.559323294520913805e+01,3.599999999999999867e-01
3.513372269999999742e-01,1.023017258000000096e+00,1.464465948365956116e-02,1.000000000000000048e-04,3.405205310245568029e+01,1.799999999999999933e-01
-2.045215730179585911e+00,1.346705497999999945e+00,2.189411471781421703e-02,1.000000000000000048e-04,3.493558583413592089e+01,1.799999999999999933e-01
2.622131355000000053e+00,-2.378520580000000051e-01,1.583290090324629418e-02,1.000000000000000048e-04,3.453877654316318768e+01,2.099999999999999922e-01
1.499565373000000035e+00,-5.833961840000000398e-01,2.825345704403448011e-02,1.000000000000000048e-04,3.489347866045625324e+01,1.199999999999999956e-01
9.453780529999999960e-01,-3.014802610000000271e-01,2.842912609432390880e-02,1.000000000000000048e-04,3.526943320192492592e+01,1.799999999999999933e-01
1.003030738000000088e+00,-6.679498139999999751e-01,4.805358593789033073e-02,1.000000000000000048e-04,3.632245717038581034e+01,1.799999999999999933e-01
-2.858957567179586157e+00,-2.878047879999999781e-01,2.302229897294294503e-02,1.000000000000000048e-04,3.539705122625774436e+01,1.300000000000000044e-01
-2.653655062179586022e+00,5.464710109999999510e-01,9.990651824107299461e-03,1.000000000000000048e-04,3.304105000912622359e+01,1.300000000000000044e-01
-1.077960778179586576e+00,1.305029642999999906e+00,6.467305635413644893e-03,1.000000000000000048e-04,3.227186967149528130e+01,1.100000000000000006e-01
2.996279555000000094e+00,-9.792432829999999644e-01,6.904830002207873463e-03,1.000000000000000048e-04,3.270644443597266360e+01,1.600000000000000033e-01
1.369802210000000131e-01,9.686457469999999459e-01,1.528167226241761156e-02,1.000000000000000048e-04,3.444492648503484133e+01,1.000000000000000056e-01
-7.405109531795863731e-01,5.344760480000000369e-01,4.166722231746433636e-02,1.000000000000000048e-04,3.604759759217145643e+01,1.900000000000000022e-01
-1.986221938179586033e+00,3.858849830000000147e-01,1.672250480987758081e-02,1.000000000000000048e-04,3.449966080744909647e+01,2.600000000000000089e-01
-1.660796187179585992e+00,1.337702168000000080e+00,3.403398147287073350e-02,1.000000000000000048e-04,3.599156887313251474e+01,1.300000000000000044e-01
-1.008319883179586540e+00,9.035811799999999838e-01,1.524035844793147909e-02,1.000000000000000048e-04,3.378092988929578411e+01,1.799999999999999933e-01
-2.859227719179586291e+00,-3.383984709999999785e-01,9.260288701022911795e-03,1.000000000000000048e-04,3.319839274064906220e+01,1.799999999999999933e-01
-3.008470453179586279e+00,-9.028608339999999455e-01,1.362965436449581347e-02,1.000000000000000048e-04,3.381709660755923608e+01,1.300000000000000044e-01
2.720373041999999852e+00,-1.026937239000000002e+00,2.468850708151193452e-02,1.000000000000000048e-04,3.510054216375019109e+01,1.100000000000000006e-01
1.131806215999999976e+00,-1.312634394000000038e+00,1.896016909452447052e-02,1.000000000000000048e-04,3.410566545275619177e+01,1.199999999999999956e-01
2.377785852000000144e+00,-1.071983155000000076e+00,5.399267026463316910e-03,1.000000000000000048e-04,3.206363419332501508e+01,1.000000000000000056e-01
1.262497049000000038e+00,-7.576738640000000302e-01,1.698674755671225611e-02,1.000000000000000048e-04,3.417635366657638230e+01,1.900000000000000022e-01
-2.150308364179585929e+00,9.473204419999999848e-01,1.920819746780821902e-02,1.000000000000000048e-04,3.439321374319239766e+01,1.499999999999999944e-01
-2.672281993179586035e+00,8.065802300000000091e-01,2.297026104764943177e-02,1.000000000000000048e-04,3.529130392579532582e+01,1.400000000000000133e-01
-2.768228307179586345e+00,1.501965110000000048e-01,1.875566400290762381e-02,1.000000000000000048e-04,3.459325061174939009e+01,1.300000000000000044e-01
2.456608391000000058e+00,-6.815239560000000418e-01,1.372862984286071786e-02,1.000000000000000048e-04,3.377682230691876697e+01,2.899999999999999800e-01
-1.538735822179586599e+00,7.895792169999999999e-01,3.595548671473514091e-02,1.000000000000000048e-04,3.625559126036191770e+01,1.600000000000000033e-01
-6.811844061795859773e-01,-7.989239399999999991e-01,3.983845554319898064e-02,1.000000000000000048e-04,3.575280539817595127e+01,2.300000000000000100e-01
-9.881069141795864041e-01,9.266642769999999807e-01,9.637418873888581317e-03,1.000000000000000048e-04,3.336588074986718766e+01,2.500000000000000000e-01
9.533575850000000074e-01,-5.868324440000000086e-01,2.670782681740613285e-02,1.000000000000000048e-04,3.499081838168537928e+01,1.199999999999999956e-01
1.194530383000000029e+00,-8.514353350000000153e-01,3.232472124342700148e-02,1.000000000000000048e-04,3.573762445789844833e+01,1.100000000000000006e-01
-1.550854682179585886e+00,1.341867675000000037e+00,1.813800806203680338e-02,1.000000000000000048e-04,3.401523718887622039e+01,3.599999999999999867e-01
2.328991532999999947e+00,-1.085498080000000032e+00,3.810172685959534178e-02,1.000000000000000048e-04,3.604171287989451855e+01,1.199999999999999956e-01
3.099662444999999877e+00,-8.173274409999999879e-01,5.886748146332720921e-03,1.000000000000000048e-04,3.288065654405000515e+01,1.300000000000000044e-01
1.008677688999999988e+00,-7.224949280000000362e-01,1.743895668118033981e-02,1.000000000000000048e-04,3.410445326101093144e+01,1.199999999999999956e-01
1.116317643999999998e+00,-8.188746820000000204e-01,3.242213380332592543e-02,1.000000000000000048e-04,3.562347288475202589e+01,1.499999999999999944e-01
1.368634144999999913e+00,-9.746537960000000167e-01,2.558502872030365971e-02,1.000000000000000048e-04,3.505369661535610248e+01,2.200000000000000011e-01
1.284766933000000000e+00,-9.049604909999999780e-01,1.864518240100565549e-02,1.000000000000000048e-04,3.389203767881998175e+01,1.300000000000000044e-01
2.840707745000000006e+00,-9.874777999999999611e-01,1.323970402569774052e-02,1.000000000000000048e-04,3.403257081201514467e+01,1.199999999999999956e-01
1.164831654000000105e+00,-8.361433499999999519e-01,4.789776795294464762e-03,1.000000000000000048e-04,3.096289299333929890e+01,1.600000000000000033e-01
9.274529849999999520e-01,-5.648102149999999488e-01,1.562551007690893279e-02,1.000000000000000048e-04,3.385029725065037098e+01,2.200000000000000011e-01
1.803806121999999901e+00,-1.051757271000000049e+00,4.141568849084231729e-03,1.000000000000000048e-04,3.131972889390206660e+01,2.200000000000000011e-01
1.910407339000000038e+00,-1.096340147000000043e+00,7.238185630450422181e-03,1.000000000000000048e-04,3.256725735511714248e+01,1.300000000000000044e-01
-2.994395329179586174e+00,-6.874333790000000111e-01,2.145728590099249544e-02,1.000000000000000048e-04,3.518683481274221236e+01,1.600000000000000033e-01
2.004169926999999962e+00,-1.114377941999999955e+00,2.273747488609489942e-02,1.000000000000000048e-04,3.467345126081065843e+01,2.099999999999999922e-01
2.993884073999999895e+00,-9.067153500000000310e-01,1.483781587481614039e-02,1.000000000000000048e-04,3.401144363614317001e+01,2.000000000000000111e-01
2.896584697999999847e+00,-6.981149509999999836e-01,1.829833469593178386e-02,1.000000000000000048e-04,3.484025924957352771e+01,2.000000000000000111e-01
2.644964143999999795e+00,-1.038456438999999953e+00,2.631346504233977868e-02,1.000000000000000048e-04,3.532729842325143466e+01,2.500000000000000000e-01
1.395029569000000080e+00,-9.673563530000000021e-01,1.076616765966931233e-02,1.000000000000000048e-04,3.358056860924199327e+01,2.200000000000000011e-01
1.133893306999999906e+00,-8.234022290000000410e-01,1.574665758747428868e-02,1.000000000000000048e-04,3.439569405489878307e+01,1.199999999999999956e-01
9.542908199999999841e-01,-6.210129070000000029e-01,1.433532173940355037e-02,1.000000000000000048e-04,3.357883353327945741e+01,1.400000000000000133e-01
1.112357503999999997e+00,-7.717409769999999947e-01,2.618394720937322617e-02,1.000000000000000048e-04,3.511683868684194465e+01,1.400000000000000133e-01
1.392129267000000059e+00,-9.489503049999999940e-01,2.650424635434345255e-02,1.000000000000000048e-04,3.521293981469108303e+01,1.100000000000000006e-01
3.104633763999999907e+00,-8.563587980000000321e-01,2.698607690684196037e-02,1.000000000000000048e-04,3.538562758554320453e+01,1.199999999999999956e-01
-1.581672989179586430e+00,-6.726275419999999672e-01,1.339828382043073418e-02,1.000000000000000048e-04,3.364424634379296464e+01,2.000000000000000111e-01
8.758714749999999549e-01,-5.394949780000000139e-01,2.278675619676984176e-02,1.000000000000000048e-04,3.507675064497350803e+01,1.199999999999999956e-01
1.027821937999999991e+00,-6.897361509999999640e-01,1.551151985553467227e-02,1.000000000000000048e-04,3.387729911362362145e+01,1.499999999999999944e-01
8.011105990000000343e-01,-4.568120419999999737e-01,1.182346740070849833e-02,1.000000000000000048e-04,3.338489208429914612e+01,1.499999999999999944e-01
8.044453879999999835e-01,-4.591503659999999765e-01,2.920081355187043037e-02,1.000000000000000048e-04,3.552055570157182984e+01,1.100000000000000006e-01
8.290542589999999601e-01,-4.498624509999999965e-01,1.931562793937557920e-02,1.000000000000000048e-04,3.454561481259000999e+01,1.199999999999999956e-01
2.306908324000000121e+00,-1.093655438999999951e+00,3.451218647431697484e-02,1.000000000000000048e-04,3.578383333131304767e+01,1.300000000000000044e-01
-3.090495873179586184e+00,-7.974218849999999970e-01,2.158778417238749192e-02,1.000000000000000048e-04,3.533465132349097360e+01,1.300000000000000044e-01
2.850739061000000074e+00,-9.724982730000000242e-01,2.051045127143535929e-02,1.000000000000000048e-04,3.507285877405556107e+01,1.100000000000000006e-01
1.925211972000000049e+00,-1.067349442999999898e+00,1.998294894815133560e-02,1.000000000000000048e-04,3.456253912418586793e+01,1.600000000000000033e-01
3.010706126000000094e+00,-9.149326070000000088e-01,1.732773847110502530e-02,1.000000000000000048e-04,3.482683574107144864e+01,1.199999999999999956e-01
1.754869720000000077e+00,-1.052947148999999971e+00,8.366375601972508846e-03,1.000000000000000048e-04,3.248377407002429607e+01,1.300000000000000044e-01
3.028086770999999899e+00,-8.725603690000000023e-01,4.558082865698853681e-02,1.000000000000000048e-04,3.698336333369253026e+01,1.199999999999999956e-01
2.780301081000000174e+00,-1.010780400000000023e+00,7.656902006499155533e-03,1.000000000000000048e-04,3.297546337684789108e+01,1.700000000000000122e-01
3.096540631999999960e+00,-8.261897350000000362e-01,1.423717005405977787e-02,1.000000000000000048e-04,3.424422076847636731e+01,1.100000000000000006e-01
-3.043596368179586342e+00,-7.656326449999999451e-01,2.725396304805438596e-02,1.000000000000000048e-04,3.541141721625066197e+01,1.100000000000000006e-01
2.593403560000000052e+00,-1.068240442000000012e+00,3.164046969439260337e-02,1.000000000000000048e-04,3.550131601907584411e+01,1.199999999999999956e-01
1.277663320999999907e+00,-8.910532270000000032e-01,1.464291187217781065e-02,1.000000000000000048e-04,3.409440246347206482e+01,1.499999999999999944e-01
8.729576639999999665e-01,-5.017517409999999733e-01,2.896478055945261865e-02,1.000000000000000048e-04,3.570544094545730474e+01,1.199999999999999956e-01
2.323316692000000128e+00,-1.072994334000000105e+00,4.554567502695094916e-02,1.000000000000000048e-04,3.649177817194055962e+01,1.400000000000000133e-01
-3.012222731179586166e+00,-7.219820959999999621e-01,3.714128665359339720e-02,1.000000000000000048e-04,3.597155388655587416e+01,1.199999999999999956e-01
2.306010604999999991e+00,-1.110345181000000014e+00,1.661897686787727757e-02,1.000000000000000048e-04,3.422729185790804252e+01,1.100000000000000006e-01
2.437557496999999795e+00,-1.097151527000000071e+00,2.236722070487884295e-02,1.000000000000000048e-04,3.475985228844426445e+01,1.100000000000000006e-01
1.098420291999999909e+00,-7.444727049999999569e-01,2.106752251990529068e-02,1.000000000000000048e-04,3.498736416211938405e+01,1.300000000000000044e-01
8.241628739999999897e-01,-4.611620249999999754e-01,2.954879753118366814e-02,1.000000000000000048e-04,3.523672451036001263e+01,1.400000000000000133e-01
1.017317494999999905e+00,-7.027905669999999771e-01,3.438449530893539219e-02,1.000000000000000048e-04,3.614712826106709542e+01,1.199999999999999956e-01
2.728679550999999925e+00,-1.007430967999999982e+00,2.147599357709895074e-02,1.000000000000000048e-04,3.543148614840255561e+01,1.100000000000000006e-01
2.848837458999999850e+00,-9.622339979999999793e-01,2.204250547367658797e-02,1.000000000000000048e-04,3.499532947275966421e+01,1.199999999999999956e-01
-3.065525731179586266e+00,-7.207210450000000046e-01,9.815728314348293182e-03,1.000000000000000048e-04,3.325592880142690433e+01,1.199999999999999956e-01
1.103969978000000074e+00,-7.587182380000000448e-01,2.824178205914806838e-02,1.000000000000000048e-04,3.554501145051303013e+01,1.300000000000000044e-01
1.112034854000000017e+00,-7.675460100000000008e-01,3.713757047909749254e-02,1.000000000000000048e-04,3.590243028731464392e+01,1.199999999999999956e-01
2.373162053000000160e+00,-1.072487750000000073e+00,2.870000000000000155e-03,1.000000000000000048e-04,3.021615359088230335e+01,1.100000000000000006e-01
2.221583438000000132e+00,-1.096064289000000080e+00,3.601280651805005562e-02,1.000000000000000048e-04,3.576263460697813912e+01,1.199999999999999956e-01
2.775251189000000007e+00,-1.013244017000000108e+00,1.653823667671971975e-02,1.000000000000000048e-04,3.455167332152458215e+01,1.700000000000000122e-01
1.527128894000000070e+00,-9.963611940000000056e-01,3.159974944150678589e-02,1.000000000000000048e-04,3.600453367363342494e+01,1.400000000000000133e-01
-1.936135624179586401e+00,1.327891944000000102e+00,3.293939490963770922e-02,1.000000000000000048e-04,3.612523519986808651e+01,1.199999999999999956e-01
2.120951332999999828e+00,-1.112975437000000012e+00,2.700378692847471562e-02,1.000000000000000048e-04,3.526928909958537162e+01,1.600000000000000033e-01
2.950704906999999988e+00,-9.277153000000000205e-01,9.984891997525835450e-03,1.000000000000000048e-04,3.382295273971882210e+01,1.700000000000000122e-01
2.461302839000000020e+00,-1.064109841000000056e+00,5.928705676431489380e-02,1.000000000000000048e-04,3.703209627405448146e+01,1.499999999999999944e-01
1.687800213000000049e+00,-1.037844004000000098e+00,2.358447240757621799e-02,1.000000000000000048e-04,3.494114423547068071e+01,1.100000000000000006e-01
-3.069023128179586113e+00,-7.343218900000000327e-01,3.972015802688622088e-02,1.000000000000000048e-04,3.642640541774833451e+01,2.000000000000000111e-01
7.655655390000000171e-01,-3.825025819999999799e-01,1.390557658599989033e-02,1.000000000000000048e-04,3.364700662516900564e+01,1.300000000000000044e-01
-3.051736326179586012e+00,-7.690870560000000467e-01,1.159309380470974205e-02,1.000000000000000048e-04,3.393617084944749962e+01,1.499999999999999944e-01
-3.116938176179586240e+00,-7.920766919999999711e-01,1.921073373147730301e-02,1.000000000000000048e-04,3.514827889944312034e+01,1.100000000000000006e-01
1.020863690000000101e+00,-6.877910739999999468e-01,6.811288688182814965e-03,1.000000000000000048e-04,3.216055736382231345e+01,1.199999999999999956e-01
1.792785233999999894e+00,-1.066474936999999956e+00,2.324474108255936144e-02,1.000000000000000048e-04,3.469673408767427247e+01,1.100000000000000006e-01
1.805689748000000039e+00,-1.066896787999999985e+00,9.929232040019053684e-03,1.000000000000000048e-04,3.299162738480207224e+01,1.100000000000000006e-01
1.773248071000000037e+00,-1.046601056999999946e+00,2.539794338285816799e-02,1.000000000000000048e-04,3.530288632025422402e+01,2.099999999999999922e-01
1.076689889999999927e+00,-7.549444410000000216e-01,2.792648167386335700e-02,1.000000000000000048e-04,3.541322469320302702e+01,1.199999999999999956e-01
2.336456505000000128e+00,-1.089906792000000069e+00,2.744710000803141092e-02,1.000000000000000048e-04,3.569007585646207303e+01,1.199999999999999956e-01
2.522083900000000156e+00,-1.078852812999999911e+00,1.182695620640039635e-02,1.000000000000000048e-04,3.336312408450173450e+01,1.199999999999999956e-01
3.676074389999999803e-01,1.100614297999999991e+00,2.143381256374210508e-02,1.000000000000000048e-04,3.478470890419254147e+01,1.700000000000000122e-01
2.099931574000000190e+00,-1.082223048999999993e+00,3.395288827121700770e-02,1.000000000000000048e-04,3.584870666850386556e+01,1.100000000000000006e-01
8.155488279999999479e-01,-4.642700679999999802e-01,9.521956711713075450e-03,1.000000000000000048e-04,3.291787819755124644e+01,2.099999999999999922e-01
9.861636230000000447e-01,-6.881834650000000497e-01,3.496370938404602668e-02,1.000000000000000048e-04,3.570881738906297187e+01,1.300000000000000044e-01
1.864254864999999928e+00,-1.086684659999999969e+00,1.362753642132230603e-02,1.000000000000000048e-04,3.380592474225353783e+01,1.199999999999999956e-01
2.873066016000000111e+00,-9.753574739999999466e-01,1.765045526008468535e-02,1.000000000000000048e-04,3.436364672368972606e+01,1.300000000000000044e-01
2.270287562000000037e+00,-1.085086717999999895e+00,2.468047670835882279e-02,1.000000000000000048e-04,3.523324579683681179e+01,1.799999999999999933e-01
8.268071609999999572e-01,-4.587794940000000099e-01,1.408131679825475047e-02,1.000000000000000048e-04,3.358442109924568086e+01,1.199999999999999956e-01
-3.050869045179586347e+00,-7.648855789999999821e-01,1.025797284648644059e-02,1.000000000000000048e-04,3.349925033724221635e+01,1.199999999999999956e-01
1.101963728999999947e+00,-7.466317359999999903e-01,1.361544321222218912e-02,1.000000000000000048e-04,3.397804881233540186e+01,1.900000000000000022e-01
1.745116724000000064e+00,-1.056563783000000090e+00,2.337233461566090575e-02,1.000000000000000048e-04,3.490512714078897005e+01,1.300000000000000044e-01
7.889769570000000343e-01,-3.846565690000000037e-01,1.343588406453610773e-02,1.000000000000000048e-04,3.346590424120967100e+01,1.499999999999999944e-01
1.385818830999999918e+00,-9.278259679999999454e-01,2.928949406858882831e-02,1.000000000000000048e-04,3.526369769939500287e+01,1.499999999999999944e-01
1.138484923000000038e+00,-8.197145099999999518e-01,1.681318878278781348e-02,1.000000000000000048e-04,3.437174817079622358e+01,1.400000000000000133e-01
1.783410439000000069e+00,-1.080958507999999929e+00,2.213045471518637619e-02,1.000000000000000048e-04,3.489463817900040254e+01,1.400000000000000133e-01
2.617653461000000181e+00,-1.025884226000000066e+00,2.704978901108190392e-02,1.000000000000000048e-04,3.523523743808728881e+01,1.199999999999999956e-01
8.270197009999999960e-01,-4.157453939999999903e-01,2.587419706328408786e-02,1.000000000000000048e-04,3.529185356998130629e+01,1.199999999999999956e-01
3.128792493000000174e+00,-8.522697870000000009e-01,3.085337703690149702e-02,1.000000000000000048e-04,3.585291112870057617e+01,1.100000000000000006e-01
1.366158207000000013e+00,-9.614226009999999878e-01,1.886979939769761749e-02,1.000000000000000048e-04,3.416081882170846029e+01,1.100000000000000006e-01
2.846286316000000038e+00,-9.688357899999999745e-01,1.309248301355925292e-02,1.000000000000000048e-04,3.408359425835831047e+01,1.400000000000000133e-01
9.208216280000000031e-01,-6.185352929999999860e-01,2.817759110862971816e-02,1.000000000000000048e-04,3.564148388638918163e+01,1.499999999999999944e-01
7.622987450000000553e-01,-3.411912120000000215e-01,2.058259155602737422e-02,1.000000000000000048e-04,3.428148371289766061e+01,1.199999999999999956e-01
9.277931750000000255e-01,-5.813990460000000304e-01,2.100990901079491380e-02,1.000000000000000048e-04,3.484097564071865349e+01,2.099999999999999922e-01
1.010173165000000095e+00,-6.808591280000000356e-01,1.841653700009282524e-02,1.000000000000000048e-04,3.433537460383163165e+01,1.300000000000000044e-01
1.661181446000000062e+00,-1.029160687999999935e+00,2.407028849195658182e-02,1.000000000000000048e-04,3.515671022343407515e+01,1.400000000000000133e-01
2.089878704000000198e+00,-1.077863170999999953e+00,3.805322138898947770e-02,1.000000000000000048e-04,3.606006383047670738e+01,1.199999999999999956e-01
9.321550429999999610e-01,-6.212176799999999943e-01,2.875203761660838353e-02,1.000000000000000048e-04,3.538911725392149066e+01,1.199999999999999956e-01
2.944595597000000176e+00,-9.127602249999999806e-01,4.537341896381574813e-02,1.000000000000000048e-04,3.665019438970327315e+01,1.100000000000000006e-01
1.288081913999999939e+00,-9.113959929999999598e-01,1.823712507982166997e-02,1.000000000000000048e-04,3.481538670975371730e+01,1.300000000000000044e-01
1.398731861999999992e+00,-9.625033109999999725e-01,2.740760075481785130e-02,1.000000000000000048e-04,3.519063183156653452e+01,1.199999999999999956e-01
1.714165549000000066e+00,-1.043104095999999981e+00,8.590675325888641467e-03,1.000000000000000048e-04,3.279189797193969724e+01,1.199999999999999956e-01
1.014018395999999989e+00,-6.788913789999999615e-01,4.066297281980424394e-02,1.000000000000000048e-04,3.609353969065705314e+01,1.300000000000000044e-01
8.887761809999999985e-01,-5.541821719999999729e-01,1.978677381095628185e-02,1.000000000000000048e-04,3.506723826049700676e+01,1.300000000000000044e-01
1.026278256999999972e+00,-6.961882160000000264e-01,3.049313149410126655e-02,1.000000000000000048e-04,3.546892277836623464e+01,1.199999999999999956e-01
1.824970581999999952e+00,-1.080428363000000003e+00,1.236197863268850838e-02,1.000000000000000048e-04,3.352451499505176002e+01,1.199999999999999956e-01
1.839979185000000017e+00,-1.082878103999999952e+00,1.893159979525949055e-02,1.000000000000000048e-04,3.422069779108481669e+01,1.300000000000000044e-01
-3.070118813179586237e+00,-7.641942569999999879e-01,1.983441416698039639e-02,1.000000000000000048e-04,3.468942189699637169e+01,1.199999999999999956e-01
2.250776613000000204e+00,-1.110438553999999911e+00,1.944772505518077566e-02,1.000000000000000048e-04,3.475997590295798290e+01,1.199999999999999956e-01
2.613802471000000072e+00,-1.066258922999999914e+00,3.125441035044507210e-02,1.000000000000000048e-04,3.592301291449494727e+01,1.199999999999999956e-01
8.050150120000000298e-01,-4.193234060000000096e-01,3.888149463808021622e-02,1.000000000000000048e-04,3.612895344276570597e+01,1.499999999999999944e-01
2.809576177999999924e+00,-9.952447749999999704e-01,3.297380336507771403e-02,1.000000000000000048e-04,3.565995651998898097e+01,1.199999999999999956e-01
8.523447290000000232e-01,-4.773689010000000121e-01,1.971162831880612920e-02,1.000000000000000048e-04,3.460612891409238046e+01,2.000000000000000111e-01
2.975142320999999868e+00,-8.986192680000000266e-01,1.498293647781911986e-02,1.000000000000000048e-04,3.439315649474740866e+01,2.000000000000000111e-01
2.960578484000000010e+00,-9.174235720000000205e-01,2.328268657495469185e-02,1.000000000000000048e-04,3.517799985826038522e+01,1.400000000000000133e-01
1.589239559999999996e+00,-1.046132274999999945e+00,2.022400175245553378e-02,1.000000000000000048e-04,3.521407455046281854e+01,1.199999999999999956e-01
1.095136271999999966e+00,-7.909478989999999543e-01,6.966780454175092174e-03,1.000000000000000048e-04,3.239124683087804613e+01,1.300000000000000044e-01
3.045277111999999953e+00,-8.831592660000000539e-01,3.574884506153752639e-02,1.000000000000000048e-04,3.586009841268220555e+01,1.799999999999999933e-01
3.011317304999999944e+00,-8.969173430000000335e-01,1.107290782869929657e-02,1.000000000000000048e-04,3.373455102836808095e+01,1.499999999999999944e-01
1.946036051000000100e+00,-1.101857058000000000e+00,2.054895779645127263e-02,1.000000000000000048e-04,3.471146903207518619e+01,1.100000000000000006e-01
9.659444579999999503e-01,-6.400164339999999674e-01,2.218303867962756470e-02,1.000000000000000048e-04,3.470965166366546839e+01,1.199999999999999956e-01
1.142944595999999979e+00,-8.229314749999999679e-01,1.737256959728350481e-02,1.000000000000000048e-04,3.401653092266718659e+01,1.499999999999999944e-01
1.336859599999999926e+00,-9.462661719999999610e-01,2.950449739158567120e-02,1.000000000000000048e-04,3.533521723576181017e+01,1.900000000000000022e-01
2.386695267999999981e+00,-1.099692616000000012e+00,1.141140652908756437e-02,1.000000000000000048e-04,3.352981793343438710e+01,1.799999999999999933e-01
1.122946417999999946e+00,-7.871106610000000448e-01,2.405078236090818500e-02,1.000000000000000048e-04,3.499939135487549180e+01,1.499999999999999944e-01
1.038511049000000019e+00,-6.836743480000000428e-01,1.359679413025527417e-02,1.000000000000000048e-04,3.362615376692079394e+01,1.499999999999999944e-01
-1.865548755179585960e+00,5.988235499999999822e-01,8.489724867879910875e-03,1.000000000000000048e-04,3.296381309673702731e+01,3.599999999999999867e-01
-1.208774007179585830e+00,1.086301519000000049e+00,3.264821107416993051e-02,1.000000000000000048e-04,3.572761418391530697e+01,3.900000000000000133e-01
-1.451351928179586359e+00,1.047303024999999943e+00,2.138779223121356488e-02,1.000000000000000048e-04,3.476355935751451653e+01,3.900000000000000133e-01
-1.863787002179586594e+00,5.986409590000000280e-01,2.467029585023272631e-02,1.000000000000000048e-04,3.504695214185136365e+01,3.099999999999999978e-01
-2.367107747179586053e+00,3.570653329999999848e-01,1.170463727128923104e-02,1.000000000000000048e-04,3.394700856215963114e+01,3.300000000000000155e-01
-1.756700719179586478e+00,1.186865959999999998e+00,2.377580157579894937e-02,1.000000000000000048e-04,3.513827340786857434e+01,4.600000000000000200e-01
3.110012692999999828e+00,-8.816387980000000013e-01,1.884553889093121271e-02,1.000000000000000048e-04,3.463494537650529281e+01,4.000000000000000222e-01
1.208427087000000011e+00,6.391205479999999550e-01,1.668495696006111473e-02,1.000000000000000048e-04,3.387249417156000675e+01,3.200000000000000067e-01
2.195568135999999893e+00,9.530612539999999688e-01,1.827171951949213557e-02,1.000000000000000048e-04,3.420529484370214846e+01,3.200000000000000067e-01
1.005319582999999906e+00,6.711075279999999532e-01,2.507390279602295102e-02,1.000000000000000048e-04,3.472745868695395899e+01,8.100000000000000533e-01
-1.746303855179585973e+00,7.561700099999999480e-01,3.577413046393207452e-02,1.000000000000000048e-04,3.598995331217854243e+01,3.599999999999999867e-01
-4.601474541795864681e-01,1.080353384999999999e+00,3.656479770237619498e-02,1.000000000000000048e-04,3.607366843500619069e+01,4.699999999999999734e-01
-1.809340496179586033e+00,8.561831709999999651e-01,1.462047360542273466e-02,1.000000000000000048e-04,3.372953561670256306e+01,5.600000000000000533e-01
-1.804726732179585902e+00,8.415213710000000180e-01,6.239540694430445456e-03,1.000000000000000048e-04,3.204967590856183790e+01,5.100000000000000089e-01
-1.920735154179586068e+00,8.789503189999999799e-01,1.369929561871652268e-02,1.000000000000000048e-04,3.414666620313444412e+01,4.500000000000000111e-01
-2.443118364179586166e+00,3.912645049999999847e-01,3.444048909829322547e-02,1.000000000000000048e-04,3.660522589239846525e+01,6.400000000000000133e-01
-2.443397905179586438e+00,3.924271049999999983e-01,2.643968033593679934e-02,1.000000000000000048e-04,3.559261095344363213e+01,4.199999999999999845e-01
-1.798694144179585841e+00,8.464773150000000079e-01,2.127274085320052244e-02,1.000000000000000048e-04,3.455573475145949658e+01,6.600000000000000311e-01
-1.799964602179586315e+00,8.443478660000000025e-01,1.140162862408811151e-02,1.000000000000000048e-04,3.338260178582549287e+01,6.099999999999999867e-01
-1.805111234179586077e+00,8.421560940000000217e-01,1.708921489793913118e-02,1.000000000000000048e-04,3.408814862876857887e+01,5.100000000000000089e-01
-2.442430271179586221e+00,3.917367079999999890e-01,2.092108726313757217e-02,1.000000000000000048e-04,3.493065720787461714e+01,9.200000000000000400e-01
-2.432135523179586034e+00,3.856870689999999935e-01,1.867208105798234818e-02,1.000000000000000048e-04,3.496135132851686222e+01,4.500000000000000111e-01
-2.443115938179586166e+00,3.817974199999999985e-01,4.243371385168659415e-02,1.000000000000000048e-04,3.631340948716290740e+01,1.010000000000000009e+00
-2.507217827179586411e+00,2.806706330000000027e-01,2.391388661675875049e-02,1.000000000000000048e-04,3.499166186733079797e+01,7.199999999999999734e-01
-2.751331907179586089e+00,-4.573921380000000037e-01,6.780045443442572761e-03,1.000000000000000048e-04,3.304296481020171683e+01,4.299999999999999933e-01
-2.751204501179586259e+00,-4.575163139999999795e-01,1.620783528421054775e-02,1.000000000000000048e-04,3.432780748094135248e+01,5.100000000000000089e-01
-2.751948792179586434e+00,-4.626465410000000222e-01,9.868725228221686407e-03,1.000000000000000048e-04,3.353363152170328476e+01,9.000000000000000222e-01
-2.714588277179586395e+00,-4.966179359999999821e-01,1.632339921983216868e-02,1.000000000000000048e-04,3.451567689584116039e+01,5.200000000000000178e-01
-4.484873401795859138e-01,1.078759022000000067e+00,1.204048642270705294e-02,1.000000000000000048e-04,3.342479581087985707e+01,4.600000000000000200e-01
1.900693019999999955e-01,8.157953839999999568e-01,3.066212464064510534e-02,1.000000000000000048e-04,3.535441826077282457e+01,5.899999999999999689e-01
-1.022766420179586078e+00,1.083744478000000067e+00,1.306885530950108176e-02,1.000000000000000048e-04,3.375899663000662088e+01,6.300000000000000044e-01
-4.695071691795860147e-01,1.083533926999999952e+00,3.080091115340666263e-02,1.000000000000000048e-04,3.574957581012201047e+01,4.400000000000000022e-01
-2.430196729179586068e+00,3.866488559999999852e-01,1.830675759946776004e-02,1.000000000000000048e-04,3.420515117968181329e+01,4.500000000000000111e-01
-1.912154461179586207e+00,8.727908680000000530e-01,2.866578764734217799e-02,1.000000000000000048e-04,3.554922994373711020e+01,4.699999999999999734e-01
-2.513608092179586251e+00,4.011275939999999762e-01,5.659288708956378144e-03,1.000000000000000048e-04,3.203891489185470931e+01,4.699999999999999734e-01
-2.755728471179586414e+00,-5.498326249999999638e-01,1.553712576255805722e-02,1.000000000000000048e-04,3.457471193461768166e+01,5.100000000000000089e-01
3.086866033999999814e+00,-8.456466849999999535e-01,4.094407175918512998e-02,1.000000000000000048e-04,3.640985729825644057e+01,5.200000000000000178e-01
2.898135272999999845e+00,-9.408617099999999622e-01,4.455837913761651059e-02,1.000000000000000048e-04,3.668872928440947589e+01,5.600000000000000533e-01
2.887933338999999933e+00,-9.438168839999999671e-01,5.008898834832220537e-02,1.000000000000000048e-04,3.689690757650191699e+01,4.799999999999999822e-01
2.256176956000000011e+00,-1.014735844999999914e+00,2.343969262887357630e-02,1.000000000000000048e-04,3.512741552821198354e+01,5.000000000000000000e-01
2.229698910000000200e+00,-1.018180813999999934e+00,1.569268434146109392e-02,1.000000000000000048e-04,3.402164612564659762e+01,6.400000000000000133e-01
2.227960753000000071e+00,-1.020489782000000067e+00,2.968031476520049949e-02,1.000000000000000048e-04,3.560763198956824027e+01,5.999999999999999778e-01
1.978102527999999971e+00,-9.529058719999999871e-01,3.205871852027186719e-02,1.000000000000000048e-04,3.558175064973980994e+01,5.200000000000000178e-01
2.842930618000000020e+00,9.211371910000000218e-01,2.860993005712808568e-02,1.000000000000000048e-04,3.558243455320647541e+01,4.899999999999999911e-01
2.611089279999999846e+00,9.227226889999999848e-01,3.581382465087434852e-02,1.000000000000000048e-04,3.631136828814551620e+01,4.899999999999999911e-01
-2.613733020179586308e+00,3.020363409999999860e-01,1.945891271273381129e-02,1.000000000000000048e-04,3.491762108349790594e+01,2.399999999999999911e-01
3.080075141000000016e+00,6.813462000000000129e-01,4.358088536005011449e-02,1.000000000000000048e-04,3.676645223940599294e+01,2.999999999999999889e-01
-2.614795632179586438e+00,3.100862600000000024e-01,5.022320532245050373e-03,1.000000000000000048e-04,3.233932526407259900e+01,7.099999999999999645e-01
3.084152930000000126e+00,6.750201959999999612e-01,1.728196144215310426e-02,1.000000000000000048e-04,3.451387046279255344e+01,2.399999999999999911e-01
-2.831540824179586302e+00,-5.193198470000000011e-01,4.763808850918627158e-02,1.000000000000000048e-04,3.661888733812716623e+01,2.899999999999999800e-01
2.921667255000000019e+00,-9.403574120000000036e-01,6.434186569822308854e-03,1.000000000000000048e-04,3.257661242174322069e+01,2.899999999999999800e-01
2.914679634000000075e+00,-9.413881210000000221e-01,1.319257746230229067e-02,1.000000000000000048e-04,3.398045176027234504e+01,7.299999999999999822e-01
2.905880500999999949e+00,-9.458600109999999450e-01,2.912046685619995579e-02,1.000000000000000048e-04,3.587781345305838698e+01,4.299999999999999933e-01
2.610543199999999953e+00,9.294079060000000059e-01,2.512664328825020554e-02,1.000000000000000048e-04,3.510455913369746384e+01,2.899999999999999800e-01
2.614058957000000127e+00,9.310355519999999885e-01,2.117592959191916258e-02,1.000000000000000048e-04,3.492769706278387076e+01,3.699999999999999956e-01
-2.614313936179586406e+00,3.105085300000000048e-01,1.125853193439585453e-02,1.000000000000000048e-04,3.326066704724637901e+01,2.300000000000000100e-01
-2.614275993179586255e+00,3.084493819999999942e-01,2.380947097197072537e-02,1.000000000000000048e-04,3.507327465616299378e+01,2.000000000000000111e-01
3.080236718000000096e+00,6.852664600000000217e-01,5.168162487898753099e-03,1.000000000000000048e-04,3.201533871840046430e+01,3.800000000000000044e-01
3.085135451000000195e+00,6.840520260000000352e-01,2.075298203436681810e-02,1.000000000000000048e-04,3.471671192694031305e+01,2.300000000000000100e-01
-2.608333968179586293e+00,3.075313129999999728e-01,1.912037563460389222e-02,1.000000000000000048e-04,3.478909067187959891e+01,5.799999999999999600e-01
-2.828421734179586089e+00,-5.202039349999999507e-01,4.072617964434877003e-02,1.000000000000000048e-04,3.633867102064221655e+01,5.200000000000000178e-01
-2.829361723179586452e+00,-5.190188390000000096e-01,1.317271895998350928e-02,1.000000000000000048e-04,3.392122678110555256e+01,3.900000000000000133e-01
-2.833706243179586082e+00,-5.260186759999999628e-01,1.715319215593602564e-02,1.000000000000000048e-04,3.480203533778023228e+01,2.200000000000000011e-01
1.286414458000000094e+00,-9.076167339999999806e-01,2.859701275730430758e-02,1.000000000000000048e-04,3.570258692235888276e+01,2.399999999999999911e-01
2.295144749999999956e+00,-1.095028292000000070e+00,1.252193642950194530e-02,1.000000000000000048e-04,3.407335644471870495e+01,2.000000000000000111e-01
2.312115046000000174e+00,-1.091482969000000081e+00,3.724326109246822725e-02,1.000000000000000048e-04,3.584619956705768828e+01,1.900000000000000022e-01
2.535381049000000164e+00,-1.063602453999999975e+00,6.504162862533968692e-03,1.000000000000000048e-04,3.195311777149662547e+01,2.600000000000000089e-01
2.549902755000000187e+00,-1.059649137999999935e+00,4.619331917697544476e-02,1.000000000000000048e-04,3.664520161992489733e+01,1.900000000000000022e-01
-2.980466121795863899e-01,1.081935794000000062e+00,1.152263810121390009e-02,1.000000000000000048e-04,3.323676478253855748e+01,1.000000000000000056e-01
-4.562223411795862660e-01,1.078420874000000085e+00,1.585000788441837116e-02,1.000000000000000048e-04,3.335883125094175483e+01,1.400000000000000133e-01
-4.727696341795866175e-01,1.076427226000000070e+00,1.653210808048610758e-02,1.000000000000000048e-04,3.429541424248132131e+01,1.900000000000000022e-01
-4.909850281795860028e-01,1.086050390999999893e+00,2.154447589098107407e-02,1.000000000000000048e-04,3.510099529034253152e+01,1.499999999999999944e-01
-1.809890014179586615e+00,8.554848849999999727e-01,8.546639359545693537e-03,1.000000000000000048e-04,3.248524314943903590e+01,1.900000000000000022e-01
-1.804843805179586091e+00,8.509932909999999850e-01,1.515214548932064531e-02,1.000000000000000048e-04,3.452299679521006226e+01,1.700000000000000122e-01
-1.798315402179586187e+00,8.389159160000000393e-01,1.992441976773351442e-02,1.000000000000000048e-04,3.466833486120489027e+01,1.100000000000000006e-01
-1.820018681179586650e+00,8.404092629999999620e-01,1.882206347430281923e-02,1.000000000000000048e-04,3.437285698065015538e+01,2.000000000000000111e-01
-2.435936564179586039e+00,3.767214549999999829e-01,2.071400422687452725e-02,1.000000000000000048e-04,3.514644676374510368e+01,1.700000000000000122e-01
-2.738532057179586143e+00,-4.670391260000000266e-01,1.267371609131973109e-02,1.000000000000000048e-04,3.393554594354605314e+01,1.100000000000000006e-01
-2.750126147179586145e+00,-4.750163370000000107e-01,1.789703464608338734e-02,1.000000000000000048e-04,3.468209447914193078e+01,1.700000000000000122e-01
6.777063359999999648e-01,-9.284162910000000046e-01,3.060149295469627440e-02,1.000000000000000048e-04,3.515339394431997988e+01,1.600000000000000033e-01
6.755664329999999662e-01,-9.242990760000000527e-01,1.840622901974442449e-02,1.000000000000000048e-04,3.456298653149926992e+01,2.200000000000000011e-01
1.666277256000000095e+00,1.035703752000000089e+00,2.257082092920126293e-02,1.000000000000000048e-04,3.447041832189623989e+01,2.800000000000000266e-01
1.679531192000000006e+00,1.034147155999999956e+00,6.338276892806993246e-02,1.000000000000000048e-04,3.722113898558013290e+01,2.099999999999999922e-01
1.669961188000000041e+00,1.045784459000000055e+00,1.981966037992011209e-02,1.000000000000000048e-04,3.454070949023677883e+01,2.899999999999999800e-01
1.666612017000000057e+00,1.035903760999999923e+00,1.033143634554201107e-02,1.000000000000000048e-04,3.298521732361930248e+01,1.400000000000000133e-01
1.676630470000000095e+00,1.049302589999999924e+00,2.026246009311116758e-02,1.000000000000000048e-04,3.471315117962979002e+01,1.600000000000000033e-01
1.678871634000000057e+00,1.037439988999999896e+00,1.870226152825438248e-02,1.000000000000000048e-04,3.445480657166496741e+01,2.099999999999999922e-01
-2.159653925179585876e+00,7.341517600000000421e-01,2.538682136154268854e-02,1.000000000000000048e-04,3.513161581325295657e+01,2.600000000000000089e-01
-2.155609593179586447e+00,7.327229189999999726e-01,3.304568815692809913e-02,1.000000000000000048e-04,3.586570120515570181e+01,1.400000000000000133e-01
2.989279821999999864e+00,-1.014333855000000062e+00,1.658969809249843941e-02,1.000000000000000048e-04,3.449358638343164074e+01,1.600000000000000033e-01
6.962963009999999509e-01,-9.242906640000000396e-01,2.036568111089631650e-02,1.000000000000000048e-04,3.426429575862776744e+01,2.000000000000000111e-01
6.831622830000000368e-01,-9.295060950000000322e-01,2.043175177336076231e-02,1.000000000000000048e-04,3.460991528153317631e+01,2.099999999999999922e-01
6.813526220000000189e-01,-9.196739680000000083e-01,1.068784575062786679e-02,1.000000000000000048e-04,3.346636884026494840e+01,1.700000000000000122e-01
1.667475545999999920e+00,1.039138789999999979e+00,7.032729780225066563e-03,1.000000000000000048e-04,3.235791616925222058e+01,1.499999999999999944e-01
1.669072946000000002e+00,1.039627206000000026e+00,2.027292921070711351e-02,1.000000000000000048e-04,3.492172775337017754e+01,1.700000000000000122e-01
2.992464221000000091e+00,-1.009427984000000000e+00,4.964933622541023439e-03,1.000000000000000048e-04,3.190534581444196860e+01,1.400000000000000133e-01
3.013377762000000182e+00,-1.015725085999999999e+00,2.075645096477529705e-02,1.000000000000000048e-04,3.514454695028238262e+01,1.499999999999999944e-01
6.857830799999999893e-01,-9.290922369999999875e-01,1.453587148318313815e-02,1.000000000000000048e-04,3.428831763458629212e+01,3.400000000000000244e-01
6.874880420000000214e-01,-9.251381180000000093e-01,2.027819302921374245e-02,1.000000000000000048e-04,3.454728997892524234e+01,1.700000000000000122e-01
1.659686511000000086e+00,1.040101345999999927e+00,2.723481346379030832e-02,1.000000000000000048e-04,3.543741773941210482e+01,1.400000000000000133e-01
1.673757463999999917e+00,1.042554473000000037e+00,3.287866406499118099e-02,1.000000000000000048e-04,3.600432652932340716e+01,4.299999999999999933e-01
1.692629780999999944e+00,1.043637506000000048e+00,1.330015025845776577e-02,1.000000000000000048e-04,3.322714912505973217e+01,1.799999999999999933e-01
1.682450028999999958e+00,1.049226146999999942e+00,2.444812569424348325e-02,1.000000000000000048e-04,3.497433579537290882e+01,1.900000000000000022e-01
1.675255906999999933e+00,1.048468626000000015e+00,2.789373088276603241e-02,1.000000000000000048e-04,3.548466177766398033e+01,1.499999999999999944e-01
1.692145135000000078e+00,1.039981480000000014e+00,2.615270711005912574e-02,1.000000000000000048e-04,3.513459134518888050e+01,1.700000000000000122e-01
-2.139768073179586061e+00,7.360294179999999908e-01,3.022662300692613435e-02,1.000000000000000048e-04,3.556910766524676148e+01,1.600000000000000033e-01
-2.138731675179585956e+00,7.369836659999999817e-01,3.946114376203091467e-02,1.000000000000000048e-04,3.643228459112472706e+01,1.499999999999999944e-01
6.888283630000000546e-01,-9.193630990000000169e-01,2.815102502588051614e-02,1.000000000000000048e-04,3.509987874708831157e+01,1.700000000000000122e-01
6.776433490000000059e-01,-9.225326109999999469e-01,1.399913579442491063e-02,1.000000000000000048e-04,3.376327867418893192e+01,1.600000000000000033e-01
6.820513620000000499e-01,-9.162569579999999547e-01,3.520885757155611806e-02,1.000000000000000048e-04,3.596826985877829230e+01,2.899999999999999800e-01
6.832637360000000104e-01,-9.208365670000000502e-01,4.743447036933590155e-02,1.000000000000000048e-04,3.681384083856638512e+01,1.400000000000000133e-01
1.683256381999999940e+00,1.050427892999999946e+00,1.351195607592647896e-02,1.000000000000000048e-04,3.367673770441297876e+01,1.499999999999999944e-01
2.987248335999999949e+00,-1.011507587000000097e+00,2.610580289151376299e-02,1.000000000000000048e-04,3.541473908987441632e+01,1.900000000000000022e-01
2.994879214000000012e+00,-1.020537374999999969e+00,1.974529880512920776e-02,1.000000000000000048e-04,3.489839845036657806e+01,2.500000000000000000e-01
2.997056848999999801e+00,-1.020797841000000039e+00,1.486652246033415281e-02,1.000000000000000048e-04,3.437436428282563128e+01,1.499999999999999944e-01
6.981827720000000070e-01,-9.201470600000000166e-01,9.539824361719961843e-03,1.000000000000000048e-04,3.314984523484259427e+01,2.099999999999999922e-01
1.675679171999999939e+00,1.042232051000000048e+00,1.867226630979312851e-02,1.000000000000000048e-04,3.452902543673803137e+01,1.900000000000000022e-01
1.682732345000000018e+00,1.051774148000000020e+00,2.870000000000000155e-03,1.000000000000000048e-04,2.846565483895012250e+01,2.099999999999999922e-01
1.655763980999999996e+00,1.041789395999999979e+00,3.712907117615160679e-02,1.000000000000000048e-04,3.600249613134759130e+01,2.099999999999999922e-01
1.658505131999999938e+00,1.042043577999999915e+00,2.716069805728249520e-02,1.000000000000000048e-04,3.557919685058789838e+01,1.499999999999999944e-01
1.679931540999999973e+00,1.044700675999999939e+00,3.594095741877323391e-02,1.000000000000000048e-04,3.593161196995359319e+01,1.400000000000000133e-01
1.681131209999999987e+00,1.046558263000000100e+00,2.901990838537193973e-02,1.000000000000000048e-04,3.532614102338048667e+01,3.800000000000000044e-01
-2.147380102179586636e+00,7.248191320000000326e-01,1.742439613362245510e-02,1.000000000000000048e-04,3.433197759899668711e+01,2.200000000000000011e-01
-2.137481690179586558e+00,7.386978770000000027e-01,1.239500703635276757e-02,1.000000000000000048e-04,3.378231822771765991e+01,1.499999999999999944e-01
3.007533192999999994e+00,-1.006434849999999992e+00,1.750304326657992071e-02,1.000000000000000048e-04,3.458510731593346321e+01,1.700000000000000122e-01
6.766177190000000063e-01,-9.309161569999999664e-01,1.754036018649363093e-02,1.000000000000000048e-04,3.451301492303218765e+01,1.700000000000000122e-01
6.879719020000000240e-01,-9.170357009999999809e-01,1.536619600732946900e-02,1.000000000000000048e-04,3.426554018091847098e+01,2.600000000000000089e-01
6.868192690000000100e-01,-9.190749710000000183e-01,2.040500736943418048e-02,1.000000000000000048e-04,3.474939066861514192e+01,2.800000000000000266e-01
1.680927606000000019e+00,1.043199457999999913e+00,2.639425886358859330e-02,1.000000000000000048e-04,3.491570824289786401e+01,1.799999999999999933e-01
1.680733408999999901e+00,1.046110547000000057e+00,2.935894003894556903e-02,1.000000000000000048e-04,3.547593289426391294e+01,1.499999999999999944e-01
3.003205794999999956e+00,-1.007960921000000010e+00,6.949837469365061082e-03,1.000000000000000048e-04,3.239720332951307569e+01,2.200000000000000011e-01
3.013387552999999830e+00,-1.018013843000000085e+00,2.121082744144575649e-02,1.000000000000000048e-04,3.503973549615814420e+01,2.000000000000000111e-01
2.991633154000000072e+00,-1.018575491000000000e+00,1.903236574172817441e-02,1.000000000000000048e-04,3.476893865814388107e+01,1.600000000000000033e-01
6.810583510000000063e-01,-9.216344210000000370e-01,2.015100723020890605e-02,1.000000000000000048e-04,3.457943483671991913e+01,1.600000000000000033e-01
1.670069762000000013e+00,1.048284639000000018e+00,3.880190036312858304e-02,1.000000000000000048e-04,3.615925225647480090e+01,2.099999999999999922e-01
1.699713636000000028e+00,1.040243690999999915e+00,1.119767227199086612e-02,1.000000000000000048e-04,3.333255127691289488e+01,2.899999999999999800e-01
1.686195045999999920e+00,1.048540513999999924e+00,7.406863357436899165e-03,1.000000000000000048e-04,3.202720205891545646e+01,1.400000000000000133e-01
1.667162669999999958e+00,1.044746053999999980e+00,2.464814760425060314e-02,1.000000000000000048e-04,3.504222568540491523e+01,2.700000000000000178e-01
1.689467040999999892e+00,1.036330184999999959e+00,3.970189922988409670e-02,1.000000000000000048e-04,3.619972832277696284e+01,1.300000000000000044e-01
1.683799076999999977e+00,1.043385784000000038e+00,1.580484220244837701e-02,1.000000000000000048e-04,3.429097627838051920e+01,1.700000000000000122e-01
-2.151455832179586025e+00,7.398983139999999459e-01,2.592537366904990037e-02,1.000000000000000048e-04,3.536157641927287898e+01,2.500000000000000000e-01
-2.141944958179585967e+00,7.302793560000000461e-01,1.549919914666908483e-02,1.000000000000000048e-04,3.416994669772882531e+01,1.400000000000000133e-01
3.012489310999999947e+00,-1.019874449000000016e+00,7.667216347779337582e-03,1.000000000000000048e-04,3.296875097203605520e+01,1.900000000000000022e-01
6.824463880000000149e-01,-9.193269539999999740e-01,1.677090376646916958e-02,1.000000000000000048e-04,3.441105436909513315e+01,1.600000000000000033e-01
6.933168330000000212e-01,-9.307474239999999899e-01,2.843072144947567104e-02,1.000000000000000048e-04,3.538131409070243194e+01,1.600000000000000033e-01
7.005346909999999871e-01,-9.247541049999999929e-01,1.452703025549828553e-02,1.000000000000000048e-04,3.406744269488042676e+01,2.700000000000000178e-01
1.674988617999999985e+00,1.042237757999999959e+00,4.335131862042618245e-02,1.000000000000000048e-04,3.617641841290181048e+01,1.499999999999999944e-01
1.672026148000000045e+00,1.039374368000000048e+00,3.355279455772364194e-02,1.000000000000000048e-04,3.559515147390011691e+01,1.600000000000000033e-01
2.993618983999999816e+00,-1.008517228000000099e+00,1.668831220726141318e-02,1.000000000000000048e-04,3.432082471219154485e+01,1.700000000000000122e-01
2.992837709999999873e+00,-1.014889098000000045e+00,2.727648222932899102e-02,1.000000000000000048e-04,3.557812287087952541e+01,2.800000000000000266e-01
2.980621672999999916e+00,-1.012535224000000067e+00,2.283773922806897616e-02,1.000000000000000048e-04,3.504714364685693084e+01,1.499999999999999944e-01
3.118379398000000080e+00,-1.044341935000000055e+00,1.000022074210393797e-02,1.000000000000000048e-04,3.349591124882630311e+01,3.099999999999999978e-01
3.132904315000000217e+00,-1.046896950999999909e+00,1.256467589521825801e-02,1.000000000000000048e-04,3.398487950435344374e+01,2.200000000000000011e-01
1.248659997999999938e+00,-1.117162079000000086e+00,1.215582618797417247e-02,1.000000000000000048e-04,3.375057553985129033e+01,2.700000000000000178e-01
2.302446713000000145e+00,-1.091359299000000060e+00,3.899361008313140253e-02,1.000000000000000048e-04,3.609706979686401951e+01,2.899999999999999800e-01
3.133486173000000097e+00,-1.061461677999999909e+00,2.216929272405687712e-02,1.000000000000000048e-04,3.531343766875996693e+01,3.099999999999999978e-01
1.251013366000000016e+00,-1.102704651999999896e+00,1.550244829866409546e-02,1.000000000000000048e-04,3.376363347336753407e+01,2.300000000000000100e-01
1.232341668999999973e+00,-1.105349812000000043e+00,1.949009093694042960e-02,1.000000000000000048e-04,3.484611278309238003e+01,2.200000000000000011e-01
2.330538756999999794e+00,-1.086213730999999960e+00,3.579849904829601748e-02,1.000000000000000048e-04,3.682134535528172847e+01,2.300000000000000100e-01
3.104372880000000112e+00,-1.050765708999999992e+00,1.219217608995726287e-02,1.000000000000000048e-04,3.380544615660496532e+01,2.200000000000000011e-01
3.122794933000000217e+00,-1.050942575000000101e+00,1.191698451466249864e-02,1.000000000000000048e-04,3.360190143143217512e+01,2.099999999999999922e-01
3.135928428000000157e+00,-1.044986675000000087e+00,1.286566774772057720e-02,1.000000000000000048e-04,3.389101526464536818e+01,2.300000000000000100e-01
3.135701593999999925e+00,-1.049448040999999998e+00,4.103921493893980532e-02,1.000000000000000048e-04,3.659593603128094230e+01,2.399999999999999911e-01
2.902190216000000156e+00,-1.054666754000000095e+00,3.474782876830584399e-02,1.000000000000000048e-04,3.561058364454665792e+01,2.099999999999999922e-01
1.219278212000000083e+00,-1.102494101000000004e+00,3.587737675797941783e-02,1.000000000000000048e-04,3.614522249979772539e+01,2.399999999999999911e-01
2.314258420999999899e+00,-1.073777474999999981e+00,2.708370249434932653e-02,1.000000000000000048e-04,3.552228640666488246e+01,2.399999999999999911e-01
3.138600745000000192e+00,-1.056209613999999908e+00,3.374049036546167279e-02,1.000000000000000048e-04,3.541065104180834311e+01,2.800000000000000266e-01
2.873014373000000177e+00,-1.047336534999999902e+00,3.521254388701655635e-02,1.000000000000000048e-04,3.582923853371669054e+01,2.000000000000000111e-01
2.890150627000000139e+00,-1.045368942999999939e+00,1.463021833133693050e-02,1.000000000000000048e-04,3.451512594236448450e+01,2.200000000000000011e-01
-3.136513490179586139e+00,-1.038988312000000080e+00,1.273497284308366950e-02,1.000000000000000048e-04,3.406053977115146836e+01,2.800000000000000266e-01
3.120369102000000172e+00,-1.042910143999999928e+00,4.620133707123463829e-02,1.000000000000000048e-04,3.655459974749259544e+01,2.399999999999999911e-01
3.132773262000000170e+00,-1.048570620000000009e+00,2.507972807075198318e-02,1.000000000000000048e-04,3.500152676178233691e+01,2.300000000000000100e-01
3.132934141999999866e+00,-1.046888051000000042e+00,1.282105376917153094e-02,1.000000000000000048e-04,3.421744658644021797e+01,2.200000000000000011e-01
3.134455274000000014e+00,-1.046257098000000108e+00,2.487422408793937834e-02,1.000000000000000048e-04,3.572544342684282981e+01,2.200000000000000011e-01
2.910504301000000016e+00,-1.063930792999999930e+00,2.052598627752844074e-02,1.000000000000000048e-04,3.467752658342893568e+01,2.399999999999999911e-01
2.301930878999999930e+00,-1.084305269999999988e+00,3.888694010275628443e-02,1.000000000000000048e-04,3.624028837980755924e+01,3.099999999999999978e-01
2.314913878000000036e+00,-1.104421796000000011e+00,2.991427624727682755e-02,1.000000000000000048e-04,3.571983184548170698e+01,2.600000000000000089e-01
1.232494258000000009e+00,-1.089556776000000005e+00,1.322751471394267853e-02,1.000000000000000048e-04,3.381053570184756296e+01,3.099999999999999978e-01
-3.138875270179586341e+00,-1.027091259999999950e+00,2.349237204972065562e-02,1.000000000000000048e-04,3.543815837979395411e+01,3.800000000000000044e-01
1.277748142000000087e+00,-1.105660628999999950e+00,2.470622276857614708e-02,1.000000000000000048e-04,3.540336961186910969e+01,2.500000000000000000e-01
2.339694710999999927e+00,-1.083680948999999893e+00,2.209895897570479661e-02,1.000000000000000048e-04,3.518536059330902077e+01,2.300000000000000100e-01
3.085408954000000037e+00,-1.045989441999999991e+00,8.196348682156129328e-03,1.000000000000000048e-04,3.291393046931244015e+01,2.800000000000000266e-01
3.122183823999999941e+00,-1.053540683000000033e+00,5.973443284032375900e-03,1.000000000000000048e-04,3.227531021866825967e+01,3.699999999999999956e-01
1.263417701000000060e+00,-1.099941301000000093e+00,3.094080579514657536e-02,1.000000000000000048e-04,3.552894054586681705e+01,2.200000000000000011e-01
1.238769020999999970e+00,-1.122513239999999968e+00,2.754238344764114998e-02,1.000000000000000048e-04,3.529099138319809725e+01,2.600000000000000089e-01
1.225778744000000087e+00,-1.107856694000000086e+00,3.766897137143709884e-02,1.000000000000000048e-04,3.570133017286185151e+01,2.500000000000000000e-01
2.356185176999999964e+00,-1.090954028000000076e+00,2.493216219712479642e-02,1.000000000000000048e-04,3.468770659509444698e+01,2.700000000000000178e-01
1.231078855000000027e+00,-1.109460918999999990e+00,5.758853391929852350e-02,1.000000000000000048e-04,3.690229833038146268e+01,2.300000000000000100e-01
2.350025410999999842e+00,-1.078254897999999962e+00,3.591255098434364967e-02,1.000000000000000048e-04,3.577372119787028026e+01,2.300000000000000100e-01
2.889344674999999807e+00,-1.054064458000000037e+00,5.503614369829135100e-02,1.000000000000000048e-04,3.715717109361691683e+01,3.200000000000000067e-01
1.260972444000000081e+00,-1.102168519999999985e+00,3.319322039050209838e-02,1.000000000000000048e-04,3.609316594733535055e+01,2.899999999999999800e-01
3.138597202000000141e+00,-1.049455424000000026e+00,2.263388148862399696e-02,1.000000000000000048e-04,3.544290246816805023e+01,2.600000000000000089e-01
1.280173519000000093e+00,-1.106045986000000036e+00,2.137543694007359996e-02,1.000000000000000048e-04,3.498474878669362198e+01,2.899999999999999800e-01
3.140421104000000074e+00,-1.048273016000000002e+00,1.837333167263821565e-02,1.000000000000000048e-04,3.450452072964496608e+01,2.700000000000000178e-01
2.887571490000000018e+00,-1.060290981000000077e+00,1.824961753364151562e-02,1.000000000000000048e-04,3.493539486790529480e+01,2.300000000000000100e-01
3.117377486000000086e+00,-1.048849812999999909e+00,1.319783719989153781e-02,1.000000000000000048e-04,3.375669541433222776e+01,2.800000000000000266e-01
3.139331405000000075e+00,-1.045946368000000071e+00,1.703135664767652102e-02,1.000000000000000048e-04,3.425127443154435269e+01,2.300000000000000100e-01
2.901812189000000153e+00,-1.070407117000000019e+00,1.911134999102581666e-02,1.000000000000000048e-04,3.488545574803939786e+01,2.200000000000000011e-01
2.874698792999999863e+00,-1.069280417999999955e+00,7.778224407215539316e-03,1.000000000000000048e-04,3.293293081252193844e+01,2.200000000000000011e-01
3.126790450000000110e+00,-1.053686536000000062e+00,3.873839585496985372e-02,1.000000000000000048e-04,3.643579361439330455e+01,2.099999999999999922e-01
1.253234667999999941e+00,-1.096167120000000050e+00,1.588339518463222078e-02,1.000000000000000048e-04,3.387506394823225264e+01,2.200000000000000011e-01
1.242189800000000011e+00,-1.095888138000000067e+00,3.085695355411210983e-02,1.000000000000000048e-04,3.597980269010927401e+01,2.899999999999999800e-01
2.358704259000000025e+00,-1.096119858000000002e+00,2.334873303547335688e-02,1.000000000000000048e-04,3.482721553918485569e+01,2.099999999999999922e-01
3.090657074000000115e+00,-1.046905049999999893e+00,1.871259729354690649e-02,1.000000000000000048e-04,3.494360118161144868e+01,2.300000000000000100e-01
2.350320292999999783e+00,-1.077642637000000070e+00,7.554297364834150486e-03,1.000000000000000048e-04,3.247960423815741393e+01,3.300000000000000155e-01
3.120911620999999858e+00,-1.047605429999999949e+00,2.072494406588099025e-02,1.000000000000000048e-04,3.434555351199944084e+01,2.899999999999999800e-01
2.310418793000000193e+00,-1.091478047999999923e+00,9.353115834498826331e-03,1.000000000000000048e-04,3.327490025746471503e+01,3.300000000000000155e-01
2.888242410000000149e+00,-1.055260810999999910e+00,2.901428242671455493e-02,1.000000000000000048e-04,3.555501143194910441e+01,2.999999999999999889e-01
2.313880778000000138e+00,-1.089056457000000089e+00,1.285310068167766495e-02,1.000000000000000048e-04,3.412970926568724650e+01,2.600000000000000089e-01
3.096505394999999883e+00,-1.050897790999999915e+00,2.575724268694234986e-02,1.000000000000000048e-04,3.516333301866747973e+01,3.300000000000000155e-01
1.264206060000000020e+00,-1.108314516000000083e+00,5.090211391396870511e-03,1.000000000000000048e-04,3.164190100199926547e+01,2.500000000000000000e-01
2.317080779999999951e+00,-1.080569537999999996e+00,2.486732539818214960e-02,1.000000000000000048e-04,3.543503972001089863e+01,2.399999999999999911e-01
2.308161032000000112e+00,-1.080284865999999955e+00,4.503579673250324156e-02,1.000000000000000048e-04,3.670649463275832147e+01,3.900000000000000133e-01
1.213089824000000094e+00,-1.095999417000000031e+00,3.086383030363926139e-02,1.000000000000000048e-04,3.541681332433515195e+01,2.700000000000000178e-01
3.095344697999999894e+00,-1.044259242999999948e+00,2.120264576424468750e-02,1.000000000000000048e-04,3.497908781333998718e+01,2.200000000000000011e-01
3.093500166000000107e+00,-1.047656949999999920e+00,2.884227135790595753e-02,1.000000000000000048e-04,3.567873760043136855e+01,2.300000000000000100e-01
2.871266652000000086e+00,-1.064917746999999970e+00,9.971776484364536230e-03,1.000000000000000048e-04,3.347043976074392901e+01,2.500000000000000000e-01
2.872879009000000039e+00,-1.076645507999999918e+00,7.386126803603954016e-03,1.000000000000000048e-04,3.277352292483404028e+01,2.099999999999999922e-01
1.241294699000000001e+00,-1.109043570000000090e+00,2.579793554007703271e-02,1.000000000000000048e-04,3.488421488202648391e+01,2.099999999999999922e-01
1.238788393000000099e+00,-1.083197141000000085e+00,1.684667866106548395e-02,1.000000000000000048e-04,3.408912456738179486e+01,2.999999999999999889e-01
-3.140928712179586135e+00,-1.049943351000000025e+00,1.696149000193769574e-02,1.000000000000000048e-04,3.399029668769140500e+01,2.200000000000000011e-01
2.897074545000000168e+00,-1.050668165000000043e+00,3.444890150312129862e-03,1.000000000000000048e-04,3.147670880785309677e+01,2.099999999999999922e-01
3.133488720999999977e+00,-1.053899826000000095e+00,3.012598303431812674e-02,1.000000000000000048e-04,3.618068944852726787e+01,2.300000000000000100e-01
2.854965548000000020e+00,-1.051119023000000041e+00,2.710498096488511699e-02,1.000000000000000048e-04,3.530773827128708575e+01,3.200000000000000067e-01
2.846666281000000076e+00,-1.061494909000000098e+00,4.360378032087641742e-02,1.000000000000000048e-04,3.663619243855148255e+01,2.600000000000000089e-01
1.477625364000000108e+00,-9.892628350000000070e-01,1.040893684016430676e-02,1.000000000000000048e-04,3.345918765256372041e+01,2.000000000000000111e-01
-2.998301261179586064e+00,-5.567642400000000213e-01,2.332396994751539943e-02,1.000000000000000048e-04,3.493732286863205871e+01,1.799999999999999933e-01
2.915910107000000195e+00,-9.248875840000000403e-01,1.465057793908508543e-02,1.000000000000000048e-04,3.387492329136695446e+01,2.999999999999999889e-01
2.904218159000000021e+00,-9.279150130000000107e-01,1.052458713174808658e-02,1.000000000000000048e-04,3.367269166310776285e+01,2.399999999999999911e-01
2.912492748000000020e+00,-9.378063049999999512e-01,2.993221388266387173e-02,1.000000000000000048e-04,3.552917130797197132e+01,4.600000000000000200e-01
2.945746643000000109e+00,-9.241091030000000428e-01,1.633804536169036759e-02,1.000000000000000048e-04,3.419945344257306630e+01,2.300000000000000100e-01
2.195221751000000054e+00,9.567984520000000215e-01,3.535173165650262739e-02,1.000000000000000048e-04,3.617069545155504784e+01,2.200000000000000011e-01
-2.382074272179586227e+00,-9.504311730000000180e-01,3.583477803061474454e-02,1.000000000000000048e-04,3.600890996962809254e+01,2.300000000000000100e-01
2.197803225999999999e+00,9.560313849999999558e-01,3.824819423145164876e-02,1.000000000000000048e-04,3.567996340839304281e+01,2.300000000000000100e-01
-2.380846050179586282e+00,-9.512843520000000552e-01,9.103935070002844299e-03,1.000000000000000048e-04,3.311163730612845768e+01,2.600000000000000089e-01
-2.382960995179586039e+00,-9.501026420000000527e-01,3.344696545632297457e-02,1.000000000000000048e-04,3.590193660684175825e+01,2.099999999999999922e-01
2.192165822000000208e+00,9.554729659999999791e-01,1.171515111309173740e-02,1.000000000000000048e-04,3.327566270336161125e+01,2.899999999999999800e-01
-2.383512939179586176e+00,-9.505219620000000535e-01,1.217779210442682114e-02,1.000000000000000048e-04,3.381135157854917139e+01,2.000000000000000111e-01
2.197044292000000176e+00,9.582492320000000063e-01,2.655428615876775922e-02,1.000000000000000048e-04,3.520080175590058502e+01,2.500000000000000000e-01
2.198013217999999824e+00,9.570721989999999568e-01,4.535067837994932738e-02,1.000000000000000048e-04,3.609924373338568415e+01,2.099999999999999922e-01
2.198391541999999976e+00,9.561199929999999458e-01,2.902845274685450505e-02,1.000000000000000048e-04,3.516808644208305878e+01,2.300000000000000100e-01
2.199218732999999926e+00,9.570277640000000030e-01,1.372934715752149870e-02,1.000000000000000048e-04,3.372484532385927736e+01,2.200000000000000011e-01
2.196667974999999995e+00,9.569524729999999701e-01,3.119490785178302694e-02,1.000000000000000048e-04,3.589766091032495865e+01,2.399999999999999911e-01
2.196400267000000017e+00,9.571105250000000453e-01,1.262713962184514038e-02,1.000000000000000048e-04,3.328424560956297285e+01,2.500000000000000000e-01
2.195980999000000100e+00,9.563170869999999546e-01,2.357890342930146765e-02,1.000000000000000048e-04,3.486455590670623650e+01,2.200000000000000011e-01
2.198886345000000020e+00,9.574225640000000315e-01,3.384679311891702902e-02,1.000000000000000048e-04,3.581846519276628271e+01,3.300000000000000155e-01
-2.382942164179586264e+00,-9.487821469999999646e-01,3.504411047339717200e-02,1.000000000000000048e-04,3.619977727449383309e+01,2.000000000000000111e-01
2.197058621000000045e+00,9.568337070000000333e-01,2.470834087181428274e-02,1.000000000000000048e-04,3.483252958822316714e+01,2.600000000000000089e-01
2.196754174000000059e+00,9.569828230000000380e-01,1.831501763130805038e-02,1.000000000000000048e-04,3.442965992197662217e+01,2.399999999999999911e-01
-2.381905888179586039e+00,-9.494029419999999719e-01,2.920779315074240046e-02,1.000000000000000048e-04,3.536721614494866373e+01,2.399999999999999911e-01
-2.382353656179586388e+00,-9.501919130000000546e-01,1.341239218148659873e-02,1.000000000000000048e-04,3.400983008858915468e+01,2.600000000000000089e-01
-2.385313647179586383e+00,-9.492824659999999914e-01,2.021861292722992864e-02,1.000000000000000048e-04,3.486714834807608554e+01,2.399999999999999911e-01
-2.383308463179586223e+00,-9.502672559999999491e-01,3.756458149179042749e-02,1.000000000000000048e-04,3.606968772208658436e+01,2.000000000000000111e-01
2.194446376000000143e+00,9.548028840000000184e-01,7.807280734500432473e-03,1.000000000000000048e-04,3.226518525475714227e+01,3.699999999999999956e-01
-2.377678389179586294e+00,-9.493284189999999789e-01,2.297711327985085816e-02,1.000000000000000048e-04,3.486748378862975528e+01,3.099999999999999978e-01
2.195048706000000127e+00,9.553664520000000326e-01,2.414110769988053740e-02,1.000000000000000048e-04,3.495479912043122539e+01,2.399999999999999911e-01
2.194988459000000169e+00,9.569281090000000267e-01,1.516384497677436549e-02,1.000000000000000048e-04,3.388902086344450026e+01,2.099999999999999922e-01
2.198773670000000013e+00,9.585742720000000050e-01,1.076559570371626862e-02,1.000000000000000048e-04,3.311059743790757182e+01,2.800000000000000266e-01
2.196007632000000154e+00,9.574002940000000406e-01,7.188031063513289354e-03,1.000000000000000048e-04,3.193414508173361099e+01,2.800000000000000266e-01
2.193610842000000005e+00,9.569156829999999614e-01,2.008035964665721984e-02,1.000000000000000048e-04,3.438882887316653125e+01,2.099999999999999922e-01
2.194846306000000080e+00,9.574700699999999509e-01,3.110955330179066003e-02,1.000000000000000048e-04,3.544271586000565577e+01,2.300000000000000100e-01
8.096471539999999800e-01,9.894972960000000262e-01,2.625319526994340791e-02,1.000000000000000048e-04,3.549296975024107326e+01,9.499999999999999556e-01
-2.901318991795864832e-01,1.086903570000000041e+00,3.444425668573436461e-02,1.000000000000000048e-04,3.572946954090851790e+01,2.000000000000000111e-01
-2.914486071795865385e-01,1.085909494999999891e+00,1.715313320010225517e-02,1.000000000000000048e-04,3.395944963379365333e+01,1.000000000000000056e-01
-2.954610881795858290e-01,1.084462065999999947e+00,9.888898895749731466e-03,1.000000000000000048e-04,3.274063000078271557e+01,1.199999999999999956e-01
-3.403197011795864313e-01,1.090760651000000081e+00,1.510317286707274498e-02,1.000000000000000048e-04,3.430009809060006631e+01,8.999999999999999667e-02
-3.429455761795860980e-01,1.087892671000000089e+00,1.475467718290168762e-02,1.000000000000000048e-04,3.361040277575975210e+01,1.400000000000000133e-01
6.896152909999999636e-01,-9.249195220000000495e-01,4.875529545045220736e-02,1.000000000000000048e-04,3.702528977530871401e+01,2.000000000000000111e-01
9.689134900000000439e-01,1.175295868000000077e+00,8.911883294135281020e-03,1.000000000000000048e-04,3.234465267825802925e+01,4.500000000000000111e-01
1.024453132999999960e+00,1.182715689999999986e+00,1.030262839660078811e-02,1.000000000000000048e-04,3.292737165045082293e+01,1.900000000000000022e-01
1.006083177000000051e+00,1.165244638999999971e+00,1.175199018383210614e-02,1.000000000000000048e-04,3.366321531052546590e+01,1.700000000000000122e-01
9.905969959999999519e-01,1.153001898999999941e+00,1.590124824146799121e-02,1.000000000000000048e-04,3.406602037117126258e+01,3.499999999999999778e-01
2.950210608999999984e+00,-1.015290931000000008e+00,1.817405236428393245e-02,1.000000000000000048e-04,3.463041847671901508e+01,5.000000000000000000e-01
2.950804928999999799e+00,-1.010655210999999998e+00,3.528408829163320881e-02,1.000000000000000048e-04,3.549200681841128358e+01,1.700000000000000122e-01
2.951637304000000128e+00,-1.010683065999999908e+00,3.137240815145592165e-02,1.000000000000000048e-04,3.579867288348756915e+01,1.900000000000000022e-01
-2.349248843179586377e+00,-9.322901449999999590e-01,1.934070852877933788e-02,1.000000000000000048e-04,3.510031494689799558e+01,1.900000000000000022e-01
