-1.598279621179586663e+00,2.779993629999999993e-01,3.375987335183472382e-02,1.000000000000000048e-04,3.575380010735803893e+01,1.700000000000000122e-01
-1.710562538179586589e+00,-1.402302595000000096e+00,4.521071196398618319e-02,1.000000000000000048e-04,3.655221136381344138e+01,2.000000000000000111e-01
-2.771840681795865180e-01,-1.115655276000000029e+00,2.694275976303805997e-02,1.000000000000000048e-04,3.551609288352080540e+01,1.700000000000000122e-01
-1.608432286179586335e+00,-6.514894359999999773e-01,1.776791880248906885e-02,1.000000000000000048e-04,3.435814463664939211e+01,1.600000000000000033e-01
-1.490451089179586575e+00,-3.201959389999999850e-01,2.223221004743858309e-02,1.000000000000000048e-04,3.490394425743983220e+01,1.700000000000000122e-01
-1.995144670179586299e+00,-1.040863893000000040e+00,2.411352787950327148e-02,1.000000000000000048e-04,3.515591688413478977e+01,1.799999999999999933e-01
-2.211919791795864398e-01,-6.717550429999999961e-01,1.244015235753881399e-02,1.000000000000000048e-04,3.384804878406659867e+01,2.200000000000000011e-01
-8.294029241795861651e-01,6.699244909999999553e-01,2.252096913384371568e-02,1.000000000000000048e-04,3.488699320352809963e+01,1.799999999999999933e-01
-1.123871723179585835e+00,1.275958498999999913e+00,4.597161686483475229e-02,1.000000000000000048e-04,3.674870159491159427e+01,1.900000000000000022e-01
-5.094723721795864080e-01,-7.371415260000000469e-01,2.426064884297196578e-02,1.000000000000000048e-04,3.523533107994853708e+01,1.600000000000000033e-01
6.571342580000000266e-01,4.949370419999999937e-01,3.611113121740827658e-02,1.000000000000000048e-04,3.626488699904871282e+01,1.700000000000000122e-01
-1.010588552179585875e+00,4.063959939999999826e-01,2.926488018572137584e-02,1.000000000000000048e-04,3.535746739775574810e+01,1.400000000000000133e-01
-5.300352171795861267e-01,-4.198024320000000031e-01,2.006156576200979202e-02,1.000000000000000048e-04,3.455646275074511919e+01,1.499999999999999944e-01
-3.959305511795863097e-01,-4.514385590000000170e-01,1.441871061096788864e-02,1.000000000000000048e-04,3.388070716297174556e+01,1.600000000000000033e-01
-1.302326638179586382e+00,4.891699640000000127e-01,4.722689657134671037e-02,1.000000000000000048e-04,3.641088511030201857e+01,8.999999999999999667e-02
-8.169037861795862554e-01,4.857709299999999897e-01,3.002448414156377865e-02,1.000000000000000048e-04,3.528304317301788728e+01,1.000000000000000056e-01
-1.156602994179586119e+00,7.039336720000000103e-01,2.624673733351889915e-02,1.000000000000000048e-04,3.511327998821904828e+01,1.100000000000000006e-01
2.500120207999999788e+00,-3.403989430000000094e-01,1.063199712283235954e-02,1.000000000000000048e-04,3.375479905325124008e+01,1.100000000000000006e-01
2.397122115999999803e+00,-8.283729720000000407e-01,4.476706948283948329e-02,1.000000000000000048e-04,3.646607956829664943e+01,1.700000000000000122e-01
-4.391142381795862804e-01,9.199097720000000145e-01,1.319544825326190995e-02,1.000000000000000048e-04,3.299447846907062143e+01,2.200000000000000011e-01
-1.356814123179586495e+00,1.335301293999999972e+00,1.891032819444227187e-02,1.000000000000000048e-04,3.405206848814759724e+01,2.600000000000000089e-01
2.612804049999999823e+00,3.003891830000000041e-01,2.640520309675031818e-02,1.000000000000000048e-04,3.548651706665334871e+01,1.700000000000000122e-01
-1.192441121179586005e+00,1.100105410000000061e+00,1.655954141012916381e-02,1.000000000000000048e-04,3.406990407691685618e+01,1.799999999999999933e-01
-3.012917491179586182e+00,1.485957493999999990e+00,3.825127447460729968e-02,1.000000000000000048e-04,3.611274642713559757e+01,2.200000000000000011e-01
-7.329138461795858817e-01,1.044356909000000000e+00,3.272758672555164949e-02,1.000000000000000048e-04,3.564343708657325749e+01,1.700000000000000122e-01
1.024371087000000013e+00,-9.607604419999999923e-01,1.530395257103411844e-02,1.000000000000000048e-04,3.426515785302120065e+01,1.600000000000000033e-01
2.960998206000000188e+00,-8.548671270000000044e-01,2.533624655674993065e-02,1.000000000000000048e-04,3.540016228185144342e+01,1.900000000000000022e-01
-3.017579355179586198e+00,-3.780387199999999948e-01,8.290112722479481278e-03,1.000000000000000048e-04,3.253241247597060237e+01,2.399999999999999911e-01
-2.268575282179586594e+00,6.921453520000000470e-01,2.981751306607538510e-02,1.000000000000000048e-04,3.538536730088501514e+01,3.699999999999999956e-01
2.478186394000000181e+00,5.281495040000000474e-01,8.936738143745071028e-03,1.000000000000000048e-04,3.341986100138374383e+01,2.399999999999999911e-01
1.941716173999999961e+00,9.578325640000000529e-01,8.627001225253616568e-03,1.000000000000000048e-04,3.365508770501438107e+01,3.800000000000000044e-01
2.041827891000000061e+00,-8.953703119999999460e-01,1.139563432210599636e-02,1.000000000000000048e-04,3.398452223909414727e+01,1.700000000000000122e-01
2.521229080999999983e+00,-8.544186950000000058e-01,2.252066757856585610e-02,1.000000000000000048e-04,3.490926823976843707e+01,2.000000000000000111e-01
2.745955969000000163e+00,3.136627880000000257e-01,2.747522094820098459e-02,1.000000000000000048e-04,3.546371435558800300e+01,2.099999999999999922e-01
1.738295793999999894e+00,1.134430556000000090e+00,1.203002081947346369e-02,1.000000000000000048e-04,3.359452933519212081e+01,1.799999999999999933e-01
-8.687814521795864664e-01,6.221710379999999541e-01,2.221200138336532071e-02,1.000000000000000048e-04,3.442877862909459452e+01,3.499999999999999778e-01
-1.857013858179586308e+00,3.937075449999999921e-01,3.307823728811798425e-02,1.000000000000000048e-04,3.528389351383519568e+01,2.999999999999999889e-01
-2.894431473179586156e+00,2.701405689999999971e-01,2.801648185260208201e-02,1.000000000000000048e-04,3.506707707767735371e+01,2.300000000000000100e-01
2.213600608000000136e+00,-5.295933369999999973e-01,2.421172641472901788e-02,1.000000000000000048e-04,3.543737612013079996e+01,2.500000000000000000e-01
9.327636729999999599e-01,4.069681829999999834e-01,2.179768378023716480e-02,1.000000000000000048e-04,3.511159249354196277e+01,2.300000000000000100e-01
1.743234563999999986e+00,7.359057650000000450e-01,3.502174574902650050e-02,1.000000000000000048e-04,3.585487579200391650e+01,2.200000000000000011e-01
-2.812965047179586175e+00,5.929882829999999494e-01,1.424618684447853667e-02,1.000000000000000048e-04,3.422267123548758860e+01,2.399999999999999911e-01
-2.977583888179586413e+00,-1.437144969999999966e-01,1.616169054079108491e-02,1.000000000000000048e-04,3.472821025094273040e+01,2.700000000000000178e-01
2.276564226000000080e+00,-5.051809499999999620e-01,3.135313320129395898e-02,1.000000000000000048e-04,3.596059203376197644e+01,2.800000000000000266e-01
2.667465888000000174e+00,-6.260506340000000502e-01,7.947352716480171608e-03,1.000000000000000048e-04,3.348588149554546334e+01,2.600000000000000089e-01
1.041358068000000081e+00,8.506585119999999778e-01,1.000138873281475327e-02,1.000000000000000048e-04,3.362975769911015078e+01,2.300000000000000100e-01
2.499030525999999863e+00,-9.629979760000000333e-01,1.426524087571290345e-02,1.000000000000000048e-04,3.458492263719464432e+01,3.099999999999999978e-01
1.334501084000000004e+00,-7.340646360000000481e-01,1.048123679346479875e-02,1.000000000000000048e-04,3.371059008869475804e+01,2.300000000000000100e-01
2.196979751999999841e+00,-5.334639439999999677e-01,6.007236779958846640e-03,1.000000000000000048e-04,3.252312637877127344e+01,2.500000000000000000e-01
1.445572062999999963e+00,-8.838676049999999451e-01,4.322732290145192557e-02,1.000000000000000048e-04,3.665023330559808556e+01,3.499999999999999778e-01
7.246286520000000397e-01,-7.843460709999999780e-01,1.814821625997709020e-02,1.000000000000000048e-04,3.505321531752770170e+01,3.099999999999999978e-01
2.179180484000000195e+00,1.312341798999999920e+00,2.625682450800370660e-02,1.000000000000000048e-04,3.541024082161175812e+01,2.200000000000000011e-01
7.669035910000000511e-01,2.329377750000000136e-01,3.290062332906207310e-02,1.000000000000000048e-04,3.587594433192109733e+01,2.500000000000000000e-01
2.984436029999999906e+00,4.410184999999999800e-01,1.930835962729626765e-02,1.000000000000000048e-04,3.413109569318906011e+01,2.999999999999999889e-01
1.808380389999999949e+00,-5.931087419999999666e-01,1.533684516309108403e-02,1.000000000000000048e-04,3.440832917339633212e+01,2.200000000000000011e-01
2.378694356000000010e+00,6.891218140000000547e-01,1.856284129165319818e-02,1.000000000000000048e-04,3.506985593863576156e+01,3.099999999999999978e-01
-1.027171309179585990e+00,8.938185499999999895e-01,2.603358229964580772e-02,1.000000000000000048e-04,3.475630335234851032e+01,3.099999999999999978e-01
2.177629786999999872e+00,1.088514723000000073e+00,2.640497010090747665e-02,1.000000000000000048e-04,3.543307779785741474e+01,2.500000000000000000e-01
2.446904437000000154e+00,4.505237189999999892e-01,1.651199544110548700e-02,1.000000000000000048e-04,3.411948669283138003e+01,2.700000000000000178e-01
-2.745075452179586151e+00,5.290477460000000409e-01,2.174230635354734709e-02,1.000000000000000048e-04,3.479914105932429180e+01,1.600000000000000033e-01
3.470126559999999749e-01,6.971221490000000243e-01,1.162589075671149885e-02,1.000000000000000048e-04,3.319315024373163681e+01,2.399999999999999911e-01
-1.741234469179586242e+00,8.281857209999999858e-01,3.548138327284067195e-02,1.000000000000000048e-04,3.573252564842461965e+01,1.000000000000000056e-01
6.278667869999999818e-01,1.201237362999999947e+00,2.241215449655964420e-02,1.000000000000000048e-04,3.535828060871502032e+01,1.799999999999999933e-01
1.901542252999999905e+00,5.984822429999999693e-01,1.643989201366280462e-02,1.000000000000000048e-04,3.438751408793165609e+01,1.700000000000000122e-01
9.102462569999999475e-01,3.833152009999999943e-01,2.261384804794164260e-02,1.000000000000000048e-04,3.533196473278187000e+01,2.200000000000000011e-01
4.621894529999999723e-01,4.355896570000000190e-01,3.238739094590847856e-02,1.000000000000000048e-04,3.556311450854413181e+01,2.399999999999999911e-01
1.731299603999999936e+00,-9.087058740000000245e-01,3.271723669201298534e-02,1.000000000000000048e-04,3.602190932314798033e+01,2.200000000000000011e-01
2.307708166999999921e+00,-3.555306579999999994e-01,2.611458898841223508e-02,1.000000000000000048e-04,3.550912939312502914e+01,1.700000000000000122e-01
2.284880370000000216e+00,-4.942566800000000038e-01,1.314404614533670745e-02,1.000000000000000048e-04,3.424276892821355744e+01,2.200000000000000011e-01
-2.729734007179586364e+00,-4.808223520000000084e-01,1.831729393979686371e-02,1.000000000000000048e-04,3.456249609321886140e+01,2.300000000000000100e-01
-2.728058296179586062e+00,8.181749999999999856e-01,2.438220846485084081e-02,1.000000000000000048e-04,3.534381595104493812e+01,2.200000000000000011e-01
1.539636916000000078e+00,-6.652033799999999830e-02,1.141031854409613189e-02,1.000000000000000048e-04,3.353818687342569405e+01,2.999999999999999889e-01
2.937620158000000092e+00,7.383732379999999873e-01,2.915977377427347861e-02,1.000000000000000048e-04,3.552769487337933896e+01,2.200000000000000011e-01
2.624384770999999894e+00,8.339422930000000012e-01,3.232906711850702663e-02,1.000000000000000048e-04,3.551322459622988248e+01,1.799999999999999933e-01
-2.594453966179586235e+00,1.052220571999999965e+00,3.492721574341950408e-02,1.000000000000000048e-04,3.571192787384276812e+01,1.900000000000000022e-01
-2.462277587179586114e+00,1.356652656000000068e+00,1.602566256346782403e-02,1.000000000000000048e-04,3.372240833147049699e+01,2.099999999999999922e-01
2.730654787000000194e+00,8.741146779999999783e-01,1.243577619010105551e-02,1.000000000000000048e-04,3.370715960784553289e+01,1.900000000000000022e-01
1.629450376000000089e+00,2.068732899999999875e-01,6.359918030280686807e-03,1.000000000000000048e-04,3.267706286947320393e+01,2.899999999999999800e-01
1.142160569999999958e-01,6.858846720000000285e-01,2.193489453852870419e-02,1.000000000000000048e-04,3.486886871227289930e+01,1.799999999999999933e-01
-4.383495451795864639e-01,9.198101690000000108e-01,2.271314174912708594e-02,1.000000000000000048e-04,3.452471469011441485e+01,2.600000000000000089e-01
1.001193188000000012e+00,8.013430529999999719e-01,1.591548621157046206e-02,1.000000000000000048e-04,3.444950784674428945e+01,1.799999999999999933e-01
-8.746654461795859703e-01,7.515327899999999506e-01,1.215506201288030219e-02,1.000000000000000048e-04,3.280287579448228286e+01,2.600000000000000089e-01
1.319662558000000097e+00,1.070340469999999933e-01,1.094228849526035496e-02,1.000000000000000048e-04,3.373976852174246233e+01,2.399999999999999911e-01
1.726021762000000015e+00,-6.377623550000000030e-01,1.318923440417951731e-02,1.000000000000000048e-04,3.406674994031457260e+01,2.600000000000000089e-01
-2.754219137179586330e+00,-9.277945709999999568e-01,1.224599123133462975e-02,1.000000000000000048e-04,3.342159163076123463e+01,3.699999999999999956e-01
1.691977534999999921e+00,1.434503057999999998e+00,1.820893667561551688e-02,1.000000000000000048e-04,3.430023038122046586e+01,2.099999999999999922e-01
8.272144390000000236e-01,-4.428667319999999852e-01,3.086168668459476905e-02,1.000000000000000048e-04,3.595345508632028242e+01,2.300000000000000100e-01
-2.185785446179585811e+00,4.040310730000000183e-01,2.145475751632486272e-02,1.000000000000000048e-04,3.461534458550138282e+01,1.799999999999999933e-01
2.680919170000000129e+00,5.929394510000000063e-01,1.105757371919424692e-02,1.000000000000000048e-04,3.365319215775118522e+01,1.799999999999999933e-01
2.468528393999999793e+00,-3.885411739999999892e-01,1.769138832950645224e-02,1.000000000000000048e-04,3.481314551587192341e+01,1.700000000000000122e-01
1.824819092000000031e+00,-9.187566499999999525e-01,1.479448942571282011e-02,1.000000000000000048e-04,3.410904929686365250e+01,2.099999999999999922e-01
2.252174823999999909e+00,-3.842870769999999769e-01,2.346132860707128565e-02,1.000000000000000048e-04,3.536083467140785075e+01,2.000000000000000111e-01
2.889947965000000174e+00,3.184077100000000105e-01,2.993915546307790443e-02,1.000000000000000048e-04,3.557911766409497289e+01,2.000000000000000111e-01
-2.666621499179586241e+00,1.790417820000000104e-01,1.739896389717299208e-02,1.000000000000000048e-04,3.433648435397666532e+01,1.900000000000000022e-01
2.353249148999999818e+00,9.653535600000000549e-01,1.605508534394228803e-02,1.000000000000000048e-04,3.457237555040457977e+01,1.799999999999999933e-01
1.765869402999999949e+00,9.288119630000000182e-01,1.211786926081215299e-02,1.000000000000000048e-04,3.339693568918880828e+01,3.599999999999999867e-01
1.931340567999999980e+00,-5.991437729999999906e-01,2.555264568594495245e-02,1.000000000000000048e-04,3.530530896073175029e+01,2.000000000000000111e-01
2.835991935000000019e+00,-7.109363199999999550e-01,1.380617722884047716e-02,1.000000000000000048e-04,3.411696257679593458e+01,1.900000000000000022e-01
-2.852520529179586095e+00,8.667541789999999580e-01,2.331424651779179236e-02,1.000000000000000048e-04,3.483458838277925196e+01,1.799999999999999933e-01
-2.458251249179586040e+00,-2.796002539999999925e-01,3.473056470533109064e-02,1.000000000000000048e-04,3.564743742712126107e+01,3.300000000000000155e-01
1.596378985000000084e+00,5.944120290000000084e-01,3.838875090876103791e-02,1.000000000000000048e-04,3.618393523953450597e+01,1.900000000000000022e-01
-2.484014184179586415e+00,8.016642189999999557e-01,1.034658880431749139e-02,1.000000000000000048e-04,3.298578143450946243e+01,1.900000000000000022e-01
-2.431723812179586108e+00,1.223750555999999934e+00,1.822496221189395804e-02,1.000000000000000048e-04,3.434707218358390435e+01,1.700000000000000122e-01
-2.378598255179586118e+00,1.197731727999999940e+00,3.307034313335521780e-02,1.000000000000000048e-04,3.543164835922986100e+01,1.900000000000000022e-01
1.739429998000000088e+00,2.494783479999999887e-01,2.355327062753587164e-02,1.000000000000000048e-04,3.501428274134499929e+01,3.099999999999999978e-01
-2.377494960179586059e+00,9.562939099999999693e-01,3.555612357780124633e-02,1.000000000000000048e-04,3.576746737756484862e+01,1.799999999999999933e-01
-9.021677017958662503e-02,6.959221140000000361e-01,3.559293931465745686e-02,1.000000000000000048e-04,3.640807526318526044e+01,3.499999999999999778e-01
2.021336933000000169e+00,8.510789659999999923e-01,2.860712697272926874e-02,1.000000000000000048e-04,3.524980480462617294e+01,2.800000000000000266e-01
2.573899695999999793e+00,-5.247218830000000001e-01,1.540691848808273257e-02,1.000000000000000048e-04,3.452292928566931351e+01,1.700000000000000122e-01
2.346925623000000183e+00,-7.496726200000000118e-01,1.427214649296693061e-02,1.000000000000000048e-04,3.449987377607916272e+01,1.700000000000000122e-01
2.543651012999999850e+00,-2.555195920000000176e-01,1.956458118150705694e-02,1.000000000000000048e-04,3.473955938625276474e+01,1.900000000000000022e-01
2.457771880000000131e+00,-4.383329890000000062e-01,1.605920069864041899e-02,1.000000000000000048e-04,3.426196867059582729e+01,1.700000000000000122e-01
-2.749033603179586116e+00,5.277091179999999770e-01,1.661108765268393128e-02,1.000000000000000048e-04,3.416787196737541166e+01,1.799999999999999933e-01
-3.021446786179586397e+00,6.716344440000000526e-01,9.934935215913487383e-03,1.000000000000000048e-04,3.302397721984908685e+01,1.799999999999999933e-01
2.390319493999999878e+00,1.427533710000000067e+00,2.080388365749419322e-02,1.000000000000000048e-04,3.484700337468998299e+01,1.799999999999999933e-01
2.491619029000000207e+00,8.136863199999999630e-01,2.251330943263774031e-02,1.000000000000000048e-04,3.505025783855283805e+01,1.900000000000000022e-01
2.336721559999999975e+00,1.049041915000000103e+00,2.455711039338481783e-02,1.000000000000000048e-04,3.499504224391425566e+01,1.700000000000000122e-01
1.201678150000000000e+00,3.331923239999999842e-01,3.199537823395326441e-02,1.000000000000000048e-04,3.598719170877407691e+01,1.900000000000000022e-01
-3.811893421795859993e-01,1.284308205000000092e+00,2.791730810720327582e-02,1.000000000000000048e-04,3.546123245476842811e+01,2.000000000000000111e-01
5.879284790000000038e-01,8.245620540000000442e-01,1.070052828912193554e-02,1.000000000000000048e-04,3.328630281602257668e+01,1.700000000000000122e-01
-1.085925731795862603e-01,9.806715139999999664e-01,3.638379063629004762e-02,1.000000000000000048e-04,3.605037160843182420e+01,1.799999999999999933e-01
1.189812670000000017e+00,8.219376269999999485e-01,3.190448597845430001e-02,1.000000000000000048e-04,3.600099661679777796e+01,1.700000000000000122e-01
2.896526737999999934e+00,1.048685354999999930e+00,1.536966448818133379e-02,1.000000000000000048e-04,3.401616351718919873e+01,1.700000000000000122e-01
8.784667550000000436e-01,-5.840451829999999678e-01,4.320076095404901118e-02,1.000000000000000048e-04,3.672884158458920467e+01,2.099999999999999922e-01
-2.025603206179586557e+00,1.419180792999999996e+00,3.305647429552460714e-02,1.000000000000000048e-04,3.588050753565753581e+01,1.799999999999999933e-01
1.097118803000000087e+00,1.428367445999999985e+00,4.847666399662831083e-02,1.000000000000000048e-04,3.682701061322390501e+01,1.799999999999999933e-01
-1.923054671795858539e-01,8.268694330000000425e-01,3.577808372794577529e-02,1.000000000000000048e-04,3.591474898419786399e+01,2.000000000000000111e-01
1.974446608000000047e+00,-1.250497374000000050e+00,3.029160049639290087e-02,1.000000000000000048e-04,3.578067096564119254e+01,2.000000000000000111e-01
1.714471547999999901e+00,-4.841846819999999774e-01,2.962586911069586826e-02,1.000000000000000048e-04,3.591384991761001544e+01,1.700000000000000122e-01
1.635209042000000057e+00,-1.499680316999999929e+00,3.280885182088599805e-02,1.000000000000000048e-04,3.574294937137520378e+01,1.900000000000000022e-01
-3.085878636179586021e+00,-8.156760069999999807e-01,2.821155526979102213e-02,1.000000000000000048e-04,3.561895528801117905e+01,1.799999999999999933e-01
1.583648911999999909e+00,-4.051170720000000225e-01,2.052962204842079252e-02,1.000000000000000048e-04,3.487454235268540970e+01,1.700000000000000122e-01
3.116144028999999982e+00,-6.233618589999999626e-01,2.513709078683268316e-02,1.000000000000000048e-04,3.505862745666426861e+01,2.000000000000000111e-01
2.580853791000000008e+00,2.126606490000000071e-01,7.424091493946072262e-03,1.000000000000000048e-04,3.363022518379460024e+01,2.200000000000000011e-01
2.791070910999999821e+00,-3.375241600000000036e-02,1.834226154926099639e-02,1.000000000000000048e-04,3.478607728562992207e+01,2.999999999999999889e-01
2.126664376999999995e+00,-4.630033630000000011e-01,9.865139450609738958e-03,1.000000000000000048e-04,3.388956418602070642e+01,1.799999999999999933e-01
1.264160699999999915e+00,6.289837299999999631e-01,3.728858699799331156e-02,1.000000000000000048e-04,3.589293019539210405e+01,1.900000000000000022e-01
2.608192676999999904e+00,3.485897410000000085e-01,2.278315846579159754e-02,1.000000000000000048e-04,3.499878688101060220e+01,2.200000000000000011e-01
2.816578843999999915e+00,-6.539336449999999523e-01,1.648544826815001585e-02,1.000000000000000048e-04,3.465047769036917202e+01,1.799999999999999933e-01
2.816545334000000178e+00,5.529564630000000092e-01,2.022253869097201395e-02,1.000000000000000048e-04,3.497193569516528555e+01,1.700000000000000122e-01
2.293480610000000031e+00,1.430186356999999964e+00,1.533874748774577412e-02,1.000000000000000048e-04,3.400788716788700583e+01,1.700000000000000122e-01
1.900048696999999898e+00,-6.695785770000000081e-01,2.390745655432802153e-02,1.000000000000000048e-04,3.507274724718168102e+01,1.900000000000000022e-01
2.402973735999999860e+00,-4.293495210000000117e-01,2.096997230407793289e-02,1.000000000000000048e-04,3.533497347273551981e+01,2.200000000000000011e-01
3.123677135999999965e+00,5.597831170000000522e-01,2.796466701030730917e-02,1.000000000000000048e-04,3.529176763643597070e+01,1.700000000000000122e-01
-2.603733431795864917e-01,9.574212720000000454e-01,1.527996345354787344e-02,1.000000000000000048e-04,3.373925972443151267e+01,3.800000000000000044e-01
-1.216980031795857897e-01,3.678993019999999836e-01,3.004859168062345987e-02,1.000000000000000048e-04,3.540173942276169328e+01,1.900000000000000022e-01
2.921580513999999962e+00,4.108407450000000072e-01,1.045831556063969714e-02,1.000000000000000048e-04,3.315722839737537697e+01,1.900000000000000022e-01
-2.362072097179586105e+00,1.187667234999999932e+00,2.012325782073398628e-02,1.000000000000000048e-04,3.466122094018275845e+01,1.900000000000000022e-01
-2.337569846179586186e+00,3.756736769999999837e-01,2.993284694899500664e-02,1.000000000000000048e-04,3.529557680708937539e+01,1.700000000000000122e-01
-1.563533060179586265e+00,8.298117619999999528e-01,2.907630106363945366e-02,1.000000000000000048e-04,3.528686823504413184e+01,3.300000000000000155e-01
-7.514201781795861734e-01,8.148208550000000105e-01,1.219264822946386495e-02,1.000000000000000048e-04,3.297920452361329779e+01,2.099999999999999922e-01
-2.172991007179586376e+00,1.278564443000000050e+00,2.769491809770086022e-02,1.000000000000000048e-04,3.536467487222749639e+01,2.000000000000000111e-01
1.004972830999999900e+00,3.284388160000000223e-01,1.724396294688168574e-02,1.000000000000000048e-04,3.433795427022587177e+01,1.799999999999999933e-01
-1.050913719179586536e+00,7.925907810000000220e-01,4.060704328574282762e-02,1.000000000000000048e-04,3.583917424271558616e+01,2.899999999999999800e-01
1.174967896000000067e+00,-7.032179160000000540e-01,3.126917887613522851e-02,1.000000000000000048e-04,3.601565415351105059e+01,1.799999999999999933e-01
2.063754460999999818e+00,1.158898511999999936e+00,1.398077941175190908e-02,1.000000000000000048e-04,3.377594071401475873e+01,1.799999999999999933e-01
1.355273345999999934e+00,1.034050206000000083e+00,1.425086010704901263e-02,1.000000000000000048e-04,3.425094966750973668e+01,1.700000000000000122e-01
1.878516419999999965e+00,-5.891517790000000421e-01,2.073026625845986182e-02,1.000000000000000048e-04,3.500145230351060377e+01,1.799999999999999933e-01
3.042909537999999969e+00,4.914006550000000195e-01,1.854736148950775210e-02,1.000000000000000048e-04,3.474748888712424844e+01,1.700000000000000122e-01
-2.192876876179585821e+00,7.571444160000000423e-01,1.862329255996586497e-02,1.000000000000000048e-04,3.481129509666485689e+01,2.099999999999999922e-01
-1.274335216179586006e+00,7.393028099999999769e-01,1.831343479309643918e-02,1.000000000000000048e-04,3.440639947887862604e+01,3.599999999999999867e-01
3.513372269999999742e-01,1.023017258000000096e+00,1.592445441496193048e-02,1.000000000000000048e-04,3.394279733360130535e+01,1.799999999999999933e-01
-2.045215730179585911e+00,1.346705497999999945e+00,1.288027745972453175e-02,1.000000000000000048e-04,3.325733698467138311e+01,1.799999999999999933e-01
2.622131355000000053e+00,-2.378520580000000051e-01,2.412282406363419618e-02,1.000000000000000048e-04,3.513266289688677801e+01,2.099999999999999922e-01
1.499565373000000035e+00,-5.833961840000000398e-01,1.374841618655731068e-02,1.000000000000000048e-04,3.436168842658810973e+01,1.199999999999999956e-01
9.453780529999999960e-01,-3.014802610000000271e-01,9.713249473200624706e-03,1.000000000000000048e-04,3.355807124568597288e+01,1.799999999999999933e-01
1.003030738000000088e+00,-6.679498139999999751e-01,8.671768758037767810e-03,1.000000000000000048e-04,3.327837717779771509e+01,1.799999999999999933e-01
-2.858957567179586157e+00,-2.878047879999999781e-01,1.889446488356560927e-02,1.000000000000000048e-04,3.455457404412804578e+01,1.300000000000000044e-01
-2.653655062179586022e+00,5.464710109999999510e-01,4.029739928595765797e-02,1.000000000000000048e-04,3.640817315322361480e+01,1.300000000000000044e-01
-1.077960778179586576e+00,1.305029642999999906e+00,2.895366555421774457e-02,1.000000000000000048e-04,3.532472706424475462e+01,1.100000000000000006e-01
2.996279555000000094e+00,-9.792432829999999644e-01,2.350029917914486788e-02,1.000000000000000048e-04,3.520974079591194084e+01,1.600000000000000033e-01
-7.405109531795863731e-01,5.344760480000000369e-01,5.077498683737524665e-02,1.000000000000000048e-04,3.680093023152385712e+01,1.900000000000000022e-01
-1.986221938179586033e+00,3.858849830000000147e-01,4.470450428927597031e-02,1.000000000000000048e-04,3.627750715634982726e+01,2.600000000000000089e-01
-1.660796187179585992e+00,1.337702168000000080e+00,1.716455685658235808e-02,1.000000000000000048e-04,3.393527070602800677e+01,1.300000000000000044e-01
-1.008319883179586540e+00,9.035811799999999838e-01,2.163986932564188059e-02,1.000000000000000048e-04,3.478011011045132506e+01,1.799999999999999933e-01
-2.859227719179586291e+00,-3.383984709999999785e-01,9.678610330505099668e-03,1.000000000000000048e-04,3.289922600385339280e+01,1.799999999999999933e-01
-3.008470453179586279e+00,-9.028608339999999455e-01,2.109192366202505831e-02,1.000000000000000048e-04,3.497746089495415589e+01,1.300000000000000044e-01
2.720373041999999852e+00,-1.026937239000000002e+00,1.667408672662529234e-02,1.000000000000000048e-04,3.459552576743302410e+01,1.100000000000000006e-01
1.131806215999999976e+00,-1.312634394000000038e+00,2.083875705341164952e-02,1.000000000000000048e-04,3.493401954330009573e+01,1.199999999999999956e-01
1.262497049000000038e+00,-7.576738640000000302e-01,2.936985413455106553e-02,1.000000000000000048e-04,3.578582637439822633e+01,1.900000000000000022e-01
-2.150308364179585929e+00,9.473204419999999848e-01,2.180283889058687308e-02,1.000000000000000048e-04,3.469467324253326979e+01,1.499999999999999944e-01
-2.672281993179586035e+00,8.065802300000000091e-01,2.983397776577789706e-02,1.000000000000000048e-04,3.559407696454502457e+01,1.400000000000000133e-01
-2.768228307179586345e+00,1.501965110000000048e-01,1.134399927904161665e-02,1.000000000000000048e-04,3.356592503731727817e+01,1.300000000000000044e-01
2.456608391000000058e+00,-6.815239560000000418e-01,1.060062099026626292e-02,1.000000000000000048e-04,3.449629396512879964e+01,2.899999999999999800e-01
-1.538735822179586599e+00,7.895792169999999999e-01,2.428861397423021096e-02,1.000000000000000048e-04,3.482853256658518148e+01,1.600000000000000033e-01
-6.811844061795859773e-01,-7.989239399999999991e-01,1.493291811181429729e-02,1.000000000000000048e-04,3.391787009370566608e+01,2.300000000000000100e-01
-9.881069141795864041e-01,9.266642769999999807e-01,3.989362859754153057e-02,1.000000000000000048e-04,3.597040400654944392e+01,2.500000000000000000e-01
9.533575850000000074e-01,-5.868324440000000086e-01,1.947210223560125186e-02,1.000000000000000048e-04,3.487767550785948600e+01,1.199999999999999956e-01
-1.550854682179585886e+00,1.341867675000000037e+00,1.062240597506480810e-02,1.000000000000000048e-04,3.258072343251252789e+01,3.599999999999999867e-01
1.284766933000000000e+00,-9.049604909999999780e-01,2.109094235194763911e-02,1.000000000000000048e-04,3.494746707344564385e+01,1.300000000000000044e-01
