-1.598279621179586663e+00,2.779993629999999993e-01,1.214302622190066572e-02,1.000000000000000048e-04,3.423649576606206324e+01,1.700000000000000122e-01
-1.710562538179586589e+00,-1.402302595000000096e+00,1.452311044692367048e-02,1.000000000000000048e-04,3.338961180783670102e+01,2.000000000000000111e-01
-2.771840681795865180e-01,-1.115655276000000029e+00,2.590818112498105563e-02,1.000000000000000048e-04,3.492401651736705048e+01,1.700000000000000122e-01
-1.608432286179586335e+00,-6.514894359999999773e-01,1.714647220198894928e-02,1.000000000000000048e-04,3.469824610714334767e+01,1.600000000000000033e-01
-1.490451089179586575e+00,-3.201959389999999850e-01,1.018497190922107443e-02,1.000000000000000048e-04,3.379360149502383592e+01,1.700000000000000122e-01
-1.995144670179586299e+00,-1.040863893000000040e+00,2.738106195103839902e-02,1.000000000000000048e-04,3.520681343181119871e+01,1.799999999999999933e-01
-2.211919791795864398e-01,-6.717550429999999961e-01,2.550768088688015744e-02,1.000000000000000048e-04,3.510352873829127418e+01,2.200000000000000011e-01
-8.294029241795861651e-01,6.699244909999999553e-01,2.046940442809774829e-02,1.000000000000000048e-04,3.512411433116016468e+01,1.799999999999999933e-01
-1.123871723179585835e+00,1.275958498999999913e+00,2.613884884756267901e-02,1.000000000000000048e-04,3.573785330998351384e+01,1.900000000000000022e-01
-5.094723721795864080e-01,-7.371415260000000469e-01,1.807556072570126737e-02,1.000000000000000048e-04,3.415082876323761241e+01,1.600000000000000033e-01
6.571342580000000266e-01,4.949370419999999937e-01,4.906944051062689383e-02,1.000000000000000048e-04,3.670980843491882695e+01,1.700000000000000122e-01
-1.010588552179585875e+00,4.063959939999999826e-01,2.652823367308676517e-02,1.000000000000000048e-04,3.549646975739598531e+01,1.400000000000000133e-01
-5.300352171795861267e-01,-4.198024320000000031e-01,1.208962196308172032e-02,1.000000000000000048e-04,3.327167827830897551e+01,1.499999999999999944e-01
-3.959305511795863097e-01,-4.514385590000000170e-01,1.092780306939622470e-02,1.000000000000000048e-04,3.278002401047918823e+01,1.600000000000000033e-01
-1.302326638179586382e+00,4.891699640000000127e-01,2.805479416569167661e-02,1.000000000000000048e-04,3.561333400749807510e+01,8.999999999999999667e-02
-8.169037861795862554e-01,4.857709299999999897e-01,1.896305317876367802e-02,1.000000000000000048e-04,3.475275960461107161e+01,1.000000000000000056e-01
-1.156602994179586119e+00,7.039336720000000103e-01,2.503336223391339210e-02,1.000000000000000048e-04,3.554162468941180464e+01,1.100000000000000006e-01
2.500120207999999788e+00,-3.403989430000000094e-01,2.124228903471214736e-02,1.000000000000000048e-04,3.485274463169508863e+01,1.100000000000000006e-01
2.397122115999999803e+00,-8.283729720000000407e-01,2.344369721772765480e-02,1.000000000000000048e-04,3.514720782284886269e+01,1.700000000000000122e-01
-4.391142381795862804e-01,9.199097720000000145e-01,3.210140885617907003e-02,1.000000000000000048e-04,3.559847633274073075e+01,2.200000000000000011e-01
-1.356814123179586495e+00,1.335301293999999972e+00,1.622110712512592201e-02,1.000000000000000048e-04,3.432260444371497243e+01,2.600000000000000089e-01
2.612804049999999823e+00,3.003891830000000041e-01,8.279933841372377756e-03,1.000000000000000048e-04,3.317346912444794782e+01,1.700000000000000122e-01
-1.192441121179586005e+00,1.100105410000000061e+00,5.865487558371240695e-03,1.000000000000000048e-04,3.257130192349988107e+01,1.799999999999999933e-01
-3.012917491179586182e+00,1.485957493999999990e+00,3.020568150085134462e-02,1.000000000000000048e-04,3.627280322802803170e+01,2.200000000000000011e-01
-7.329138461795858817e-01,1.044356909000000000e+00,3.652834905592916570e-02,1.000000000000000048e-04,3.624917233354607049e+01,1.700000000000000122e-01
1.024371087000000013e+00,-9.607604419999999923e-01,2.012680191537685737e-02,1.000000000000000048e-04,3.416852848565616085e+01,1.600000000000000033e-01
2.960998206000000188e+00,-8.548671270000000044e-01,1.963040022507445137e-02,1.000000000000000048e-04,3.467862272414004821e+01,1.900000000000000022e-01
-3.017579355179586198e+00,-3.780387199999999948e-01,1.541994567823912199e-02,1.000000000000000048e-04,3.409353963824724332e+01,2.399999999999999911e-01
-2.268575282179586594e+00,6.921453520000000470e-01,2.577056608540306826e-02,1.000000000000000048e-04,3.543477507848071184e+01,3.699999999999999956e-01
2.478186394000000181e+00,5.281495040000000474e-01,7.184490697877965459e-03,1.000000000000000048e-04,3.288398461153870045e+01,2.399999999999999911e-01
1.941716173999999961e+00,9.578325640000000529e-01,4.457844415772727054e-02,1.000000000000000048e-04,3.660567024222548582e+01,3.800000000000000044e-01
2.041827891000000061e+00,-8.953703119999999460e-01,2.778795579096371426e-02,1.000000000000000048e-04,3.520008442748197552e+01,1.700000000000000122e-01
2.521229080999999983e+00,-8.544186950000000058e-01,2.143087023436063276e-02,1.000000000000000048e-04,3.479293651573128443e+01,2.000000000000000111e-01
2.745955969000000163e+00,3.136627880000000257e-01,2.536120117237983251e-02,1.000000000000000048e-04,3.505414446329403688e+01,2.099999999999999922e-01
1.738295793999999894e+00,1.134430556000000090e+00,3.016757458462548946e-02,1.000000000000000048e-04,3.564398064494761087e+01,1.799999999999999933e-01
-8.687814521795864664e-01,6.221710379999999541e-01,3.031978430596105056e-02,1.000000000000000048e-04,3.557486579787367731e+01,3.499999999999999778e-01
-1.857013858179586308e+00,3.937075449999999921e-01,5.264480682705574566e-03,1.000000000000000048e-04,3.286895436858683439e+01,2.999999999999999889e-01
-2.894431473179586156e+00,2.701405689999999971e-01,1.073876354364444730e-02,1.000000000000000048e-04,3.418958742937864059e+01,2.300000000000000100e-01
2.213600608000000136e+00,-5.295933369999999973e-01,1.919597767416991729e-02,1.000000000000000048e-04,3.446650932083552732e+01,2.500000000000000000e-01
9.327636729999999599e-01,4.069681829999999834e-01,3.276249363033434392e-02,1.000000000000000048e-04,3.548970253932728269e+01,2.300000000000000100e-01
1.743234563999999986e+00,7.359057650000000450e-01,3.464824215364048499e-02,1.000000000000000048e-04,3.595777746376602835e+01,2.200000000000000011e-01
-2.812965047179586175e+00,5.929882829999999494e-01,5.247770950278729529e-03,1.000000000000000048e-04,3.269531091438687298e+01,2.399999999999999911e-01
-2.977583888179586413e+00,-1.437144969999999966e-01,8.388830143055692190e-03,1.000000000000000048e-04,3.382434285882121827e+01,2.700000000000000178e-01
2.276564226000000080e+00,-5.051809499999999620e-01,3.100917296620142594e-02,1.000000000000000048e-04,3.595653269552020248e+01,2.800000000000000266e-01
2.667465888000000174e+00,-6.260506340000000502e-01,1.112764390613096843e-02,1.000000000000000048e-04,3.347896221432435482e+01,2.600000000000000089e-01
1.041358068000000081e+00,8.506585119999999778e-01,3.125271935591866779e-02,1.000000000000000048e-04,3.580779148105008147e+01,2.300000000000000100e-01
2.499030525999999863e+00,-9.629979760000000333e-01,2.571696191813654941e-02,1.000000000000000048e-04,3.599211350081253613e+01,3.099999999999999978e-01
1.334501084000000004e+00,-7.340646360000000481e-01,2.168837871208539880e-02,1.000000000000000048e-04,3.490981265202354678e+01,2.300000000000000100e-01
2.196979751999999841e+00,-5.334639439999999677e-01,1.640291169296825835e-02,1.000000000000000048e-04,3.440002977928729422e+01,2.500000000000000000e-01
1.445572062999999963e+00,-8.838676049999999451e-01,3.134407644147207961e-02,1.000000000000000048e-04,3.549725214483110847e+01,3.499999999999999778e-01
7.246286520000000397e-01,-7.843460709999999780e-01,2.052316543287324713e-02,1.000000000000000048e-04,3.453003272889792896e+01,3.099999999999999978e-01
2.179180484000000195e+00,1.312341798999999920e+00,1.520825043246731845e-02,1.000000000000000048e-04,3.454200919089031885e+01,2.200000000000000011e-01
7.669035910000000511e-01,2.329377750000000136e-01,3.619369409084027822e-02,1.000000000000000048e-04,3.577779695533311610e+01,2.500000000000000000e-01
2.984436029999999906e+00,4.410184999999999800e-01,2.066399152671816175e-02,1.000000000000000048e-04,3.480232805160795095e+01,2.999999999999999889e-01
1.808380389999999949e+00,-5.931087419999999666e-01,1.852718998307967269e-02,1.000000000000000048e-04,3.394279735639746320e+01,2.200000000000000011e-01
2.378694356000000010e+00,6.891218140000000547e-01,1.941396627429603505e-02,1.000000000000000048e-04,3.489922569460443924e+01,3.099999999999999978e-01
-1.027171309179585990e+00,8.938185499999999895e-01,3.677165126121240135e-02,1.000000000000000048e-04,3.589851040308500529e+01,3.099999999999999978e-01
2.177629786999999872e+00,1.088514723000000073e+00,2.185486932016678097e-02,1.000000000000000048e-04,3.511885072894580873e+01,2.500000000000000000e-01
2.446904437000000154e+00,4.505237189999999892e-01,1.782252035514719779e-02,1.000000000000000048e-04,3.498531604635921610e+01,2.700000000000000178e-01
-2.745075452179586151e+00,5.290477460000000409e-01,3.205906050790074957e-02,1.000000000000000048e-04,3.650781897457162728e+01,1.600000000000000033e-01
3.470126559999999749e-01,6.971221490000000243e-01,1.516037641316758666e-02,1.000000000000000048e-04,3.385944597281573465e+01,2.399999999999999911e-01
-1.741234469179586242e+00,8.281857209999999858e-01,1.110134814946905912e-02,1.000000000000000048e-04,3.402155546711614420e+01,1.000000000000000056e-01
6.278667869999999818e-01,1.201237362999999947e+00,2.435352307772520319e-02,1.000000000000000048e-04,3.540972720483197378e+01,1.799999999999999933e-01
1.901542252999999905e+00,5.984822429999999693e-01,9.305443182314965256e-03,1.000000000000000048e-04,3.267510821077733141e+01,1.700000000000000122e-01
9.102462569999999475e-01,3.833152009999999943e-01,1.652718572158273780e-02,1.000000000000000048e-04,3.393755927840633291e+01,2.200000000000000011e-01
4.621894529999999723e-01,4.355896570000000190e-01,1.721577974973165226e-02,1.000000000000000048e-04,3.424341196203074844e+01,2.399999999999999911e-01
1.731299603999999936e+00,-9.087058740000000245e-01,3.094643345688963265e-02,1.000000000000000048e-04,3.576192173514448314e+01,2.200000000000000011e-01
2.307708166999999921e+00,-3.555306579999999994e-01,3.320025232823775596e-02,1.000000000000000048e-04,3.560079448098881727e+01,1.700000000000000122e-01
2.284880370000000216e+00,-4.942566800000000038e-01,2.143079670529290937e-02,1.000000000000000048e-04,3.438362775360334211e+01,2.200000000000000011e-01
-2.729734007179586364e+00,-4.808223520000000084e-01,3.030887568757156814e-02,1.000000000000000048e-04,3.589194034866898164e+01,2.300000000000000100e-01
-2.728058296179586062e+00,8.181749999999999856e-01,9.569228043093902514e-03,1.000000000000000048e-04,3.387896768605743603e+01,2.200000000000000011e-01
1.539636916000000078e+00,-6.652033799999999830e-02,2.363515803266746929e-02,1.000000000000000048e-04,3.490318488838694577e+01,2.999999999999999889e-01
2.937620158000000092e+00,7.383732379999999873e-01,1.015270840700499555e-02,1.000000000000000048e-04,3.390079079066764223e+01,2.200000000000000011e-01
2.624384770999999894e+00,8.339422930000000012e-01,3.222081021044398419e-02,1.000000000000000048e-04,3.593934108517546377e+01,1.799999999999999933e-01
-2.594453966179586235e+00,1.052220571999999965e+00,1.199525944027057811e-02,1.000000000000000048e-04,3.403577917606105530e+01,1.900000000000000022e-01
-2.462277587179586114e+00,1.356652656000000068e+00,7.361443393908650989e-03,1.000000000000000048e-04,3.321340301016509500e+01,2.099999999999999922e-01
2.730654787000000194e+00,8.741146779999999783e-01,2.810989606783165229e-02,1.000000000000000048e-04,3.564257086096216653e+01,1.900000000000000022e-01
1.629450376000000089e+00,2.068732899999999875e-01,2.063639068241962526e-02,1.000000000000000048e-04,3.398767927470121464e+01,2.899999999999999800e-01
1.142160569999999958e-01,6.858846720000000285e-01,1.842343658802114703e-02,1.000000000000000048e-04,3.408545518570532096e+01,1.799999999999999933e-01
-4.383495451795864639e-01,9.198101690000000108e-01,1.214648627757997090e-02,1.000000000000000048e-04,3.339912555273790673e+01,2.600000000000000089e-01
1.001193188000000012e+00,8.013430529999999719e-01,2.855825055839700255e-02,1.000000000000000048e-04,3.566676926683928173e+01,1.799999999999999933e-01
-8.746654461795859703e-01,7.515327899999999506e-01,2.569391524327468979e-02,1.000000000000000048e-04,3.589871033042040693e+01,2.600000000000000089e-01
1.319662558000000097e+00,1.070340469999999933e-01,3.445507428855498766e-02,1.000000000000000048e-04,3.583308121387494793e+01,2.399999999999999911e-01
1.726021762000000015e+00,-6.377623550000000030e-01,2.222003168415254137e-02,1.000000000000000048e-04,3.398402895745265084e+01,2.600000000000000089e-01
-2.754219137179586330e+00,-9.277945709999999568e-01,4.660614323727862995e-02,1.000000000000000048e-04,3.653980734073343228e+01,3.699999999999999956e-01
1.691977534999999921e+00,1.434503057999999998e+00,1.210872197251000593e-02,1.000000000000000048e-04,3.390585131532546370e+01,2.099999999999999922e-01
8.272144390000000236e-01,-4.428667319999999852e-01,3.477444484856739848e-02,1.000000000000000048e-04,3.552206305246129148e+01,2.300000000000000100e-01
-2.185785446179585811e+00,4.040310730000000183e-01,1.210050215948266228e-02,1.000000000000000048e-04,3.430863182269310130e+01,1.799999999999999933e-01
2.680919170000000129e+00,5.929394510000000063e-01,2.892165954866099398e-02,1.000000000000000048e-04,3.555836184665184874e+01,1.799999999999999933e-01
2.468528393999999793e+00,-3.885411739999999892e-01,1.749625872210347488e-02,1.000000000000000048e-04,3.461054331716269417e+01,1.700000000000000122e-01
1.824819092000000031e+00,-9.187566499999999525e-01,2.036779994728088461e-02,1.000000000000000048e-04,3.440651176543637746e+01,2.099999999999999922e-01
2.252174823999999909e+00,-3.842870769999999769e-01,3.369444157962542263e-02,1.000000000000000048e-04,3.573746507899110725e+01,2.000000000000000111e-01
2.889947965000000174e+00,3.184077100000000105e-01,9.227436002857691832e-03,1.000000000000000048e-04,3.345412051573913459e+01,2.000000000000000111e-01
-2.666621499179586241e+00,1.790417820000000104e-01,2.556325535301473550e-02,1.000000000000000048e-04,3.582714798820289559e+01,1.900000000000000022e-01
2.353249148999999818e+00,9.653535600000000549e-01,2.454209691007824823e-02,1.000000000000000048e-04,3.552488450882978555e+01,1.799999999999999933e-01
1.765869402999999949e+00,9.288119630000000182e-01,4.463548755922253086e-02,1.000000000000000048e-04,3.624859980707742579e+01,3.599999999999999867e-01
1.931340567999999980e+00,-5.991437729999999906e-01,1.576659293587234778e-02,1.000000000000000048e-04,3.381890293724949714e+01,2.000000000000000111e-01
2.835991935000000019e+00,-7.109363199999999550e-01,1.321723144407882522e-02,1.000000000000000048e-04,3.346053359449673081e+01,1.900000000000000022e-01
-2.852520529179586095e+00,8.667541789999999580e-01,2.881805483581922900e-02,1.000000000000000048e-04,3.571961256114713734e+01,1.799999999999999933e-01
-2.458251249179586040e+00,-2.796002539999999925e-01,1.086250246059039526e-02,1.000000000000000048e-04,3.421342533383042905e+01,3.300000000000000155e-01
1.596378985000000084e+00,5.944120290000000084e-01,2.107047118518923234e-02,1.000000000000000048e-04,3.480902436155986379e+01,1.900000000000000022e-01
-2.484014184179586415e+00,8.016642189999999557e-01,5.652872763577176940e-03,1.000000000000000048e-04,3.329387896324272589e+01,1.900000000000000022e-01
-2.431723812179586108e+00,1.223750555999999934e+00,2.200574647034403419e-02,1.000000000000000048e-04,3.534947977897533633e+01,1.700000000000000122e-01
-2.378598255179586118e+00,1.197731727999999940e+00,9.250659394336002705e-03,1.000000000000000048e-04,3.331809974909276661e+01,1.900000000000000022e-01
1.739429998000000088e+00,2.494783479999999887e-01,2.668123030800084727e-02,1.000000000000000048e-04,3.480414825461397754e+01,3.099999999999999978e-01
-2.377494960179586059e+00,9.562939099999999693e-01,8.810323406642339705e-03,1.000000000000000048e-04,3.391507214810950188e+01,1.799999999999999933e-01
-9.021677017958662503e-02,6.959221140000000361e-01,3.054751010989664728e-02,1.000000000000000048e-04,3.589859434913594782e+01,3.499999999999999778e-01
2.021336933000000169e+00,8.510789659999999923e-01,2.502205296365089815e-02,1.000000000000000048e-04,3.440513690260712565e+01,2.800000000000000266e-01
2.573899695999999793e+00,-5.247218830000000001e-01,4.719719030358460188e-02,1.000000000000000048e-04,3.644959786983621086e+01,1.700000000000000122e-01
2.346925623000000183e+00,-7.496726200000000118e-01,2.927746734388358973e-02,1.000000000000000048e-04,3.566799969899619782e+01,1.700000000000000122e-01
2.543651012999999850e+00,-2.555195920000000176e-01,1.590734690961936870e-02,1.000000000000000048e-04,3.419175400069593707e+01,1.900000000000000022e-01
2.457771880000000131e+00,-4.383329890000000062e-01,4.415772832827147276e-02,1.000000000000000048e-04,3.686033834370814333e+01,1.700000000000000122e-01
-2.749033603179586116e+00,5.277091179999999770e-01,2.313554337974887964e-02,1.000000000000000048e-04,3.531237211073768378e+01,1.799999999999999933e-01
-3.021446786179586397e+00,6.716344440000000526e-01,3.605244485684799827e-02,1.000000000000000048e-04,3.616963245197288757e+01,1.799999999999999933e-01
2.390319493999999878e+00,1.427533710000000067e+00,1.251621865329832772e-02,1.000000000000000048e-04,3.392856259463170687e+01,1.799999999999999933e-01
2.491619029000000207e+00,8.136863199999999630e-01,4.055267282378771654e-02,1.000000000000000048e-04,3.645162580019317744e+01,1.900000000000000022e-01
2.336721559999999975e+00,1.049041915000000103e+00,2.156796517041503769e-02,1.000000000000000048e-04,3.482069410297992818e+01,1.700000000000000122e-01
1.201678150000000000e+00,3.331923239999999842e-01,3.204507915521004335e-02,1.000000000000000048e-04,3.601353497970514894e+01,1.900000000000000022e-01
-3.811893421795859993e-01,1.284308205000000092e+00,2.761795550908741070e-02,1.000000000000000048e-04,3.540511701473197803e+01,2.000000000000000111e-01
5.879284790000000038e-01,8.245620540000000442e-01,1.036711937747880619e-02,1.000000000000000048e-04,3.298019919780758613e+01,1.700000000000000122e-01
-1.085925731795862603e-01,9.806715139999999664e-01,9.141740220740102174e-03,1.000000000000000048e-04,3.323639284779152092e+01,1.799999999999999933e-01
1.189812670000000017e+00,8.219376269999999485e-01,4.378510891792619653e-02,1.000000000000000048e-04,3.650625129674362768e+01,1.700000000000000122e-01
2.896526737999999934e+00,1.048685354999999930e+00,1.193480749629349802e-02,1.000000000000000048e-04,3.382222712330893444e+01,1.700000000000000122e-01
8.784667550000000436e-01,-5.840451829999999678e-01,1.923717316989281834e-02,1.000000000000000048e-04,3.410108223399004856e+01,2.099999999999999922e-01
-2.025603206179586557e+00,1.419180792999999996e+00,7.496328689202691464e-03,1.000000000000000048e-04,3.320329696194367131e+01,1.799999999999999933e-01
1.097118803000000087e+00,1.428367445999999985e+00,1.289727893075243159e-02,1.000000000000000048e-04,3.435641201558656377e+01,1.799999999999999933e-01
-1.923054671795858539e-01,8.268694330000000425e-01,1.616348312008586419e-02,1.000000000000000048e-04,3.403366927556134414e+01,2.000000000000000111e-01
1.974446608000000047e+00,-1.250497374000000050e+00,2.951610155034956051e-02,1.000000000000000048e-04,3.531949550150105210e+01,2.000000000000000111e-01
1.714471547999999901e+00,-4.841846819999999774e-01,2.869286061794906750e-02,1.000000000000000048e-04,3.545019698998590485e+01,1.700000000000000122e-01
1.635209042000000057e+00,-1.499680316999999929e+00,3.376279742883370183e-02,1.000000000000000048e-04,3.550748939042700414e+01,1.900000000000000022e-01
-3.085878636179586021e+00,-8.156760069999999807e-01,8.048176914003724036e-03,1.000000000000000048e-04,3.320247411158923967e+01,1.799999999999999933e-01
1.583648911999999909e+00,-4.051170720000000225e-01,3.238415318040699376e-02,1.000000000000000048e-04,3.520533697656057370e+01,1.700000000000000122e-01
3.116144028999999982e+00,-6.233618589999999626e-01,2.234142212227507862e-02,1.000000000000000048e-04,3.530467799424562259e+01,2.000000000000000111e-01
2.580853791000000008e+00,2.126606490000000071e-01,1.848936561047098692e-02,1.000000000000000048e-04,3.490133134496691270e+01,2.200000000000000011e-01
2.791070910999999821e+00,-3.375241600000000036e-02,3.179335718370301933e-02,1.000000000000000048e-04,3.556302977695978740e+01,2.999999999999999889e-01
2.126664376999999995e+00,-4.630033630000000011e-01,1.631860897023762469e-02,1.000000000000000048e-04,3.408897921790514829e+01,1.799999999999999933e-01
1.264160699999999915e+00,6.289837299999999631e-01,2.618915252155207263e-02,1.000000000000000048e-04,3.479958331491159385e+01,1.900000000000000022e-01
2.608192676999999904e+00,3.485897410000000085e-01,2.468814698465138235e-02,1.000000000000000048e-04,3.551259981070190719e+01,2.200000000000000011e-01
2.816578843999999915e+00,-6.539336449999999523e-01,1.385786104583197620e-02,1.000000000000000048e-04,3.366327563413457824e+01,1.799999999999999933e-01
2.816545334000000178e+00,5.529564630000000092e-01,4.175668741571025855e-02,1.000000000000000048e-04,3.631657593414414720e+01,1.700000000000000122e-01
2.293480610000000031e+00,1.430186356999999964e+00,2.954179200626994017e-02,1.000000000000000048e-04,3.591509972996906441e+01,1.700000000000000122e-01
1.900048696999999898e+00,-6.695785770000000081e-01,1.821027285310816701e-02,1.000000000000000048e-04,3.442593198834701695e+01,1.900000000000000022e-01
2.402973735999999860e+00,-4.293495210000000117e-01,2.032566969444316030e-02,1.000000000000000048e-04,3.487964024479945380e+01,2.200000000000000011e-01
3.123677135999999965e+00,5.597831170000000522e-01,2.357025612338592424e-02,1.000000000000000048e-04,3.573331397982143187e+01,1.700000000000000122e-01
-2.603733431795864917e-01,9.574212720000000454e-01,3.066489952025985843e-02,1.000000000000000048e-04,3.544077309362684503e+01,3.800000000000000044e-01
-1.216980031795857897e-01,3.678993019999999836e-01,3.132095524388267549e-02,1.000000000000000048e-04,3.555243469087106689e+01,1.900000000000000022e-01
2.921580513999999962e+00,4.108407450000000072e-01,7.267539375508613730e-03,1.000000000000000048e-04,3.285054271687622673e+01,1.900000000000000022e-01
-2.362072097179586105e+00,1.187667234999999932e+00,4.198476471302470259e-02,1.000000000000000048e-04,3.630664663650024693e+01,1.900000000000000022e-01
-2.337569846179586186e+00,3.756736769999999837e-01,1.442904540991651885e-02,1.000000000000000048e-04,3.476901159199778135e+01,1.700000000000000122e-01
-1.563533060179586265e+00,8.298117619999999528e-01,9.392126435199044110e-03,1.000000000000000048e-04,3.346666914734414178e+01,3.300000000000000155e-01
-7.514201781795861734e-01,8.148208550000000105e-01,9.923256723203710550e-03,1.000000000000000048e-04,3.347496139201891197e+01,2.099999999999999922e-01
-2.172991007179586376e+00,1.278564443000000050e+00,9.765330982771658341e-03,1.000000000000000048e-04,3.398938855087146749e+01,2.000000000000000111e-01
1.004972830999999900e+00,3.284388160000000223e-01,3.389287637300331113e-02,1.000000000000000048e-04,3.585066545259013537e+01,1.799999999999999933e-01
-1.050913719179586536e+00,7.925907810000000220e-01,1.705693617785564165e-02,1.000000000000000048e-04,3.459797700030797785e+01,2.899999999999999800e-01
1.174967896000000067e+00,-7.032179160000000540e-01,2.640192752433523360e-02,1.000000000000000048e-04,3.472812976093508297e+01,1.799999999999999933e-01
2.063754460999999818e+00,1.158898511999999936e+00,9.604923385163388616e-03,1.000000000000000048e-04,3.331213427250423109e+01,1.799999999999999933e-01
1.355273345999999934e+00,1.034050206000000083e+00,1.786335435032326835e-02,1.000000000000000048e-04,3.434704946314749918e+01,1.700000000000000122e-01
1.878516419999999965e+00,-5.891517790000000421e-01,1.291552494288739084e-02,1.000000000000000048e-04,3.347182346588711965e+01,1.799999999999999933e-01
3.042909537999999969e+00,4.914006550000000195e-01,1.937445498493017837e-02,1.000000000000000048e-04,3.523740877241283442e+01,1.700000000000000122e-01
-2.192876876179585821e+00,7.571444160000000423e-01,2.470922263025432386e-02,1.000000000000000048e-04,3.502674955223324105e+01,2.099999999999999922e-01
-1.274335216179586006e+00,7.393028099999999769e-01,6.345666203342981149e-03,1.000000000000000048e-04,3.320201891004971628e+01,3.599999999999999867e-01
3.513372269999999742e-01,1.023017258000000096e+00,9.246987982241439141e-03,1.000000000000000048e-04,3.299834760607981821e+01,1.799999999999999933e-01
-2.045215730179585911e+00,1.346705497999999945e+00,2.314186704951581852e-02,1.000000000000000048e-04,3.544060885758707968e+01,1.799999999999999933e-01
2.622131355000000053e+00,-2.378520580000000051e-01,1.881766165660558876e-02,1.000000000000000048e-04,3.438485462422581662e+01,2.099999999999999922e-01
1.499565373000000035e+00,-5.833961840000000398e-01,3.183060409799010060e-02,1.000000000000000048e-04,3.534460152183305581e+01,1.199999999999999956e-01
9.453780529999999960e-01,-3.014802610000000271e-01,1.953281906334480844e-02,1.000000000000000048e-04,3.382890661860184167e+01,1.799999999999999933e-01
1.003030738000000088e+00,-6.679498139999999751e-01,1.481775680657326788e-02,1.000000000000000048e-04,3.329934651783580790e+01,1.799999999999999933e-01
-2.858957567179586157e+00,-2.878047879999999781e-01,5.573757445715532555e-03,1.000000000000000048e-04,3.296946607728805390e+01,1.300000000000000044e-01
-2.653655062179586022e+00,5.464710109999999510e-01,2.125844998214865278e-02,1.000000000000000048e-04,3.547228954949824242e+01,1.300000000000000044e-01
-1.077960778179586576e+00,1.305029642999999906e+00,1.293468032410505231e-02,1.000000000000000048e-04,3.392942469041305031e+01,1.100000000000000006e-01
2.996279555000000094e+00,-9.792432829999999644e-01,1.666194176980018149e-02,1.000000000000000048e-04,3.425601299505954955e+01,1.600000000000000033e-01
-7.405109531795863731e-01,5.344760480000000369e-01,2.089312620771677231e-02,1.000000000000000048e-04,3.502382767144688103e+01,1.900000000000000022e-01
-1.986221938179586033e+00,3.858849830000000147e-01,4.091862628677667146e-03,1.000000000000000048e-04,3.312371556039997955e+01,2.600000000000000089e-01
-1.660796187179585992e+00,1.337702168000000080e+00,9.004806761077954746e-03,1.000000000000000048e-04,3.350957489745725582e+01,1.300000000000000044e-01
-1.008319883179586540e+00,9.035811799999999838e-01,3.722300128028144250e-02,1.000000000000000048e-04,3.598926186849968190e+01,1.799999999999999933e-01
-2.859227719179586291e+00,-3.383984709999999785e-01,1.846140088061054563e-02,1.000000000000000048e-04,3.485842289258394544e+01,1.799999999999999933e-01
-3.008470453179586279e+00,-9.028608339999999455e-01,9.014300059492441619e-03,1.000000000000000048e-04,3.316466121328527095e+01,1.300000000000000044e-01
2.720373041999999852e+00,-1.026937239000000002e+00,2.841789434005193016e-02,1.000000000000000048e-04,3.545711797039344049e+01,1.100000000000000006e-01
1.131806215999999976e+00,-1.312634394000000038e+00,2.391194700125720551e-02,1.000000000000000048e-04,3.469298847713510270e+01,1.199999999999999956e-01
1.262497049000000038e+00,-7.576738640000000302e-01,2.931276831990015097e-02,1.000000000000000048e-04,3.497274047164446387e+01,1.900000000000000022e-01
-2.150308364179585929e+00,9.473204419999999848e-01,3.554736968493199534e-02,1.000000000000000048e-04,3.632246270450109193e+01,1.499999999999999944e-01
-2.672281993179586035e+00,8.065802300000000091e-01,2.969407021494774312e-02,1.000000000000000048e-04,3.581181778236430091e+01,1.400000000000000133e-01
-2.768228307179586345e+00,1.501965110000000048e-01,3.792982187848070730e-02,1.000000000000000048e-04,3.633061433684224539e+01,1.300000000000000044e-01
2.456608391000000058e+00,-6.815239560000000418e-01,3.310025862842147504e-02,1.000000000000000048e-04,3.522895344403740836e+01,2.899999999999999800e-01
-1.538735822179586599e+00,7.895792169999999999e-01,3.664284376853443881e-02,1.000000000000000048e-04,3.634936123140652597e+01,1.600000000000000033e-01
-6.811844061795859773e-01,-7.989239399999999991e-01,1.098727632594886927e-02,1.000000000000000048e-04,3.302454528244385301e+01,2.300000000000000100e-01
-9.881069141795864041e-01,9.266642769999999807e-01,1.363901445384207989e-02,1.000000000000000048e-04,3.429620936967224765e+01,2.500000000000000000e-01
9.533575850000000074e-01,-5.868324440000000086e-01,2.444647117218456955e-02,1.000000000000000048e-04,3.458621055367252239e+01,1.199999999999999956e-01
-1.550854682179585886e+00,1.341867675000000037e+00,1.007021452732614897e-02,1.000000000000000048e-04,3.422355057983303794e+01,3.599999999999999867e-01
1.284766933000000000e+00,-9.049604909999999780e-01,1.870997163129728413e-02,1.000000000000000048e-04,3.406217697123199883e+01,1.300000000000000044e-01
