-1.598279621179586663e+00,2.779993629999999993e-01,2.505402133068868054e-02,1.000000000000000048e-04,3.486322774205332564e+01,1.700000000000000122e-01
-1.710562538179586589e+00,-1.402302595000000096e+00,2.938283651449213885e-02,1.000000000000000048e-04,3.554866502335970324e+01,2.000000000000000111e-01
-2.771840681795865180e-01,-1.115655276000000029e+00,2.565166689155273794e-02,1.000000000000000048e-04,3.517155137554018296e+01,1.700000000000000122e-01
-1.608432286179586335e+00,-6.514894359999999773e-01,1.463652280093041824e-02,1.000000000000000048e-04,3.388163470708912683e+01,1.600000000000000033e-01
-1.490451089179586575e+00,-3.201959389999999850e-01,1.315864688196022314e-02,1.000000000000000048e-04,3.351923780212000992e+01,1.700000000000000122e-01
-1.995144670179586299e+00,-1.040863893000000040e+00,2.960988166754807693e-02,1.000000000000000048e-04,3.536362006721500251e+01,1.799999999999999933e-01
-2.211919791795864398e-01,-6.717550429999999961e-01,2.771743641262203184e-02,1.000000000000000048e-04,3.545342395725280227e+01,2.200000000000000011e-01
-8.294029241795861651e-01,6.699244909999999553e-01,1.909568788169679898e-02,1.000000000000000048e-04,3.430299119180259027e+01,1.799999999999999933e-01
-1.123871723179585835e+00,1.275958498999999913e+00,2.510417694159117197e-02,1.000000000000000048e-04,3.542834310467264913e+01,1.900000000000000022e-01
-5.094723721795864080e-01,-7.371415260000000469e-01,4.333323183863124761e-02,1.000000000000000048e-04,3.643090633368704800e+01,1.600000000000000033e-01
6.571342580000000266e-01,4.949370419999999937e-01,2.332953948142568734e-02,1.000000000000000048e-04,3.512358600019002353e+01,1.700000000000000122e-01
-1.010588552179585875e+00,4.063959939999999826e-01,1.661202717764065362e-02,1.000000000000000048e-04,3.426739700521813603e+01,1.400000000000000133e-01
-5.300352171795861267e-01,-4.198024320000000031e-01,1.317995199021071429e-02,1.000000000000000048e-04,3.352055251082286702e+01,1.499999999999999944e-01
-3.959305511795863097e-01,-4.514385590000000170e-01,3.180843917987630221e-02,1.000000000000000048e-04,3.581122699613356986e+01,1.600000000000000033e-01
-1.302326638179586382e+00,4.891699640000000127e-01,2.053843893301077195e-02,1.000000000000000048e-04,3.475812654210849217e+01,8.999999999999999667e-02
-8.169037861795862554e-01,4.857709299999999897e-01,1.661288340456490431e-02,1.000000000000000048e-04,3.416057856269546278e+01,1.000000000000000056e-01
-1.156602994179586119e+00,7.039336720000000103e-01,2.251365846140807037e-02,1.000000000000000048e-04,3.471489955314708453e+01,1.100000000000000006e-01
2.500120207999999788e+00,-3.403989430000000094e-01,2.029253559224919456e-02,1.000000000000000048e-04,3.490309483886590414e+01,1.100000000000000006e-01
2.397122115999999803e+00,-8.283729720000000407e-01,1.373436886901679976e-02,1.000000000000000048e-04,3.359863168997407001e+01,1.700000000000000122e-01
-4.391142381795862804e-01,9.199097720000000145e-01,4.355435825177456088e-02,1.000000000000000048e-04,3.665952229353067082e+01,2.200000000000000011e-01
-1.356814123179586495e+00,1.335301293999999972e+00,1.550195285892863595e-02,1.000000000000000048e-04,3.431955453724533811e+01,2.600000000000000089e-01
2.612804049999999823e+00,3.003891830000000041e-01,1.840293294190908924e-02,1.000000000000000048e-04,3.459493535235677797e+01,1.700000000000000122e-01
-1.192441121179586005e+00,1.100105410000000061e+00,2.060471744555214535e-02,1.000000000000000048e-04,3.474517867931892567e+01,1.799999999999999933e-01
-3.012917491179586182e+00,1.485957493999999990e+00,2.081370230505319441e-02,1.000000000000000048e-04,3.502112692530569404e+01,2.200000000000000011e-01
-7.329138461795858817e-01,1.044356909000000000e+00,2.710877809939038485e-02,1.000000000000000048e-04,3.529035092918584837e+01,1.700000000000000122e-01
1.024371087000000013e+00,-9.607604419999999923e-01,2.408768532980132271e-02,1.000000000000000048e-04,3.536429616919011210e+01,1.600000000000000033e-01
2.960998206000000188e+00,-8.548671270000000044e-01,3.264496344473988287e-02,1.000000000000000048e-04,3.575365200941914878e+01,1.900000000000000022e-01
-3.017579355179586198e+00,-3.780387199999999948e-01,4.674443311802067846e-02,1.000000000000000048e-04,3.656798744698795645e+01,2.399999999999999911e-01
-2.268575282179586594e+00,6.921453520000000470e-01,1.398813240691043625e-02,1.000000000000000048e-04,3.402814446792818615e+01,3.699999999999999956e-01
2.478186394000000181e+00,5.281495040000000474e-01,3.285781813917831862e-02,1.000000000000000048e-04,3.577081201647166608e+01,2.399999999999999911e-01
1.941716173999999961e+00,9.578325640000000529e-01,1.447069305471515577e-02,1.000000000000000048e-04,3.385666433852633617e+01,3.800000000000000044e-01
2.041827891000000061e+00,-8.953703119999999460e-01,2.339859623510753828e-02,1.000000000000000048e-04,3.523462276329021137e+01,1.700000000000000122e-01
2.521229080999999983e+00,-8.544186950000000058e-01,3.883327840001937759e-02,1.000000000000000048e-04,3.632934137034077793e+01,2.000000000000000111e-01
2.745955969000000163e+00,3.136627880000000257e-01,2.425917189248316674e-02,1.000000000000000048e-04,3.525058542178331322e+01,2.099999999999999922e-01
1.738295793999999894e+00,1.134430556000000090e+00,8.502291806470996249e-03,1.000000000000000048e-04,3.292069967458613178e+01,1.799999999999999933e-01
-8.687814521795864664e-01,6.221710379999999541e-01,3.551763324618328888e-02,1.000000000000000048e-04,3.630717954377809775e+01,3.499999999999999778e-01
-1.857013858179586308e+00,3.937075449999999921e-01,2.720823886872181241e-02,1.000000000000000048e-04,3.546844953685702251e+01,2.999999999999999889e-01
-2.894431473179586156e+00,2.701405689999999971e-01,3.119855760864620464e-02,1.000000000000000048e-04,3.541115507628013859e+01,2.300000000000000100e-01
2.213600608000000136e+00,-5.295933369999999973e-01,2.884239878892524978e-02,1.000000000000000048e-04,3.565983549561703114e+01,2.500000000000000000e-01
9.327636729999999599e-01,4.069681829999999834e-01,1.052697459859586182e-02,1.000000000000000048e-04,3.326804098354275396e+01,2.300000000000000100e-01
1.743234563999999986e+00,7.359057650000000450e-01,1.269412247526346960e-02,1.000000000000000048e-04,3.363331399850708436e+01,2.200000000000000011e-01
-2.812965047179586175e+00,5.929882829999999494e-01,2.627250533327396553e-02,1.000000000000000048e-04,3.508914689139325560e+01,2.399999999999999911e-01
-2.977583888179586413e+00,-1.437144969999999966e-01,1.044179096411768093e-02,1.000000000000000048e-04,3.278457233119763714e+01,2.700000000000000178e-01
2.276564226000000080e+00,-5.051809499999999620e-01,1.138969510793019779e-02,1.000000000000000048e-04,3.423637118065574469e+01,2.800000000000000266e-01
2.667465888000000174e+00,-6.260506340000000502e-01,3.444615484507873582e-02,1.000000000000000048e-04,3.583572043654186956e+01,2.600000000000000089e-01
1.041358068000000081e+00,8.506585119999999778e-01,8.643772896445911513e-03,1.000000000000000048e-04,3.265492065149471301e+01,2.300000000000000100e-01
2.499030525999999863e+00,-9.629979760000000333e-01,1.361703973845318494e-02,1.000000000000000048e-04,3.395137436199535586e+01,3.099999999999999978e-01
1.334501084000000004e+00,-7.340646360000000481e-01,4.343304102496414743e-02,1.000000000000000048e-04,3.639024471124799476e+01,2.300000000000000100e-01
2.196979751999999841e+00,-5.334639439999999677e-01,4.330412467569311197e-02,1.000000000000000048e-04,3.660857131920907648e+01,2.500000000000000000e-01
1.445572062999999963e+00,-8.838676049999999451e-01,1.372129290552281944e-02,1.000000000000000048e-04,3.474148264773157990e+01,3.499999999999999778e-01
7.246286520000000397e-01,-7.843460709999999780e-01,2.461453875250563250e-02,1.000000000000000048e-04,3.505990844738972356e+01,3.099999999999999978e-01
2.179180484000000195e+00,1.312341798999999920e+00,3.189355354995582204e-02,1.000000000000000048e-04,3.588135827728726213e+01,2.200000000000000011e-01
7.669035910000000511e-01,2.329377750000000136e-01,2.840269161996933356e-02,1.000000000000000048e-04,3.582367865716963706e+01,2.500000000000000000e-01
2.984436029999999906e+00,4.410184999999999800e-01,2.559831355571584588e-02,1.000000000000000048e-04,3.510223605933388313e+01,2.999999999999999889e-01
1.808380389999999949e+00,-5.931087419999999666e-01,2.698197204066943300e-02,1.000000000000000048e-04,3.564873587609048400e+01,2.200000000000000011e-01
2.378694356000000010e+00,6.891218140000000547e-01,1.078293151467257793e-02,1.000000000000000048e-04,3.371976382095390079e+01,3.099999999999999978e-01
-1.027171309179585990e+00,8.938185499999999895e-01,1.271992938937671624e-02,1.000000000000000048e-04,3.343301550985653847e+01,3.099999999999999978e-01
2.177629786999999872e+00,1.088514723000000073e+00,2.032192813701505507e-02,1.000000000000000048e-04,3.477255039185219232e+01,2.500000000000000000e-01
2.446904437000000154e+00,4.505237189999999892e-01,3.990375632807419137e-02,1.000000000000000048e-04,3.617129506501628100e+01,2.700000000000000178e-01
-2.745075452179586151e+00,5.290477460000000409e-01,2.879323376345710450e-02,1.000000000000000048e-04,3.520304649574762124e+01,1.600000000000000033e-01
3.470126559999999749e-01,6.971221490000000243e-01,1.020441279793082856e-02,1.000000000000000048e-04,3.362836698274305292e+01,2.399999999999999911e-01
-1.741234469179586242e+00,8.281857209999999858e-01,9.571832787482748017e-03,1.000000000000000048e-04,3.310977074227866268e+01,1.000000000000000056e-01
6.278667869999999818e-01,1.201237362999999947e+00,1.303428403668838165e-02,1.000000000000000048e-04,3.359897007291612425e+01,1.799999999999999933e-01
1.901542252999999905e+00,5.984822429999999693e-01,2.286467614897458311e-02,1.000000000000000048e-04,3.493907979354279547e+01,1.700000000000000122e-01
9.102462569999999475e-01,3.833152009999999943e-01,2.818349603942316151e-02,1.000000000000000048e-04,3.525359784700139443e+01,2.200000000000000011e-01
4.621894529999999723e-01,4.355896570000000190e-01,2.474354475684137356e-02,1.000000000000000048e-04,3.492205011474401033e+01,2.399999999999999911e-01
1.731299603999999936e+00,-9.087058740000000245e-01,3.324688912318074507e-02,1.000000000000000048e-04,3.596589236729545291e+01,2.200000000000000011e-01
2.307708166999999921e+00,-3.555306579999999994e-01,1.597885340082205730e-02,1.000000000000000048e-04,3.439934484094131051e+01,1.700000000000000122e-01
2.284880370000000216e+00,-4.942566800000000038e-01,7.961504534087060492e-03,1.000000000000000048e-04,3.286234430974913323e+01,2.200000000000000011e-01
-2.729734007179586364e+00,-4.808223520000000084e-01,1.457556491391387432e-02,1.000000000000000048e-04,3.388307850929004417e+01,2.300000000000000100e-01
-2.728058296179586062e+00,8.181749999999999856e-01,2.471248557913963140e-02,1.000000000000000048e-04,3.535734436954278692e+01,2.200000000000000011e-01
1.539636916000000078e+00,-6.652033799999999830e-02,9.976812781008481679e-03,1.000000000000000048e-04,3.316504725171025569e+01,2.999999999999999889e-01
2.937620158000000092e+00,7.383732379999999873e-01,3.069877822403488388e-02,1.000000000000000048e-04,3.599907327343908747e+01,2.200000000000000011e-01
2.624384770999999894e+00,8.339422930000000012e-01,1.546064652267942208e-02,1.000000000000000048e-04,3.443892433800382236e+01,1.799999999999999933e-01
-2.594453966179586235e+00,1.052220571999999965e+00,2.404420891878822353e-02,1.000000000000000048e-04,3.517214718591645095e+01,1.900000000000000022e-01
-2.462277587179586114e+00,1.356652656000000068e+00,1.822570179868554519e-02,1.000000000000000048e-04,3.463501295074950548e+01,2.099999999999999922e-01
2.730654787000000194e+00,8.741146779999999783e-01,8.573806675076678374e-03,1.000000000000000048e-04,3.249743034323542190e+01,1.900000000000000022e-01
1.629450376000000089e+00,2.068732899999999875e-01,3.151346611274075116e-02,1.000000000000000048e-04,3.554494000658181818e+01,2.899999999999999800e-01
1.142160569999999958e-01,6.858846720000000285e-01,1.756892412520949520e-02,1.000000000000000048e-04,3.417995056332099324e+01,1.799999999999999933e-01
-4.383495451795864639e-01,9.198101690000000108e-01,1.183565387184848383e-02,1.000000000000000048e-04,3.331777470011746090e+01,2.600000000000000089e-01
1.001193188000000012e+00,8.013430529999999719e-01,1.221193646343010641e-02,1.000000000000000048e-04,3.340462578504790514e+01,1.799999999999999933e-01
-8.746654461795859703e-01,7.515327899999999506e-01,2.615070563548060889e-02,1.000000000000000048e-04,3.474606953273703880e+01,2.600000000000000089e-01
1.319662558000000097e+00,1.070340469999999933e-01,3.742797709143053098e-02,1.000000000000000048e-04,3.635460409330816844e+01,2.399999999999999911e-01
1.726021762000000015e+00,-6.377623550000000030e-01,3.940803188090313824e-02,1.000000000000000048e-04,3.623013372686062894e+01,2.600000000000000089e-01
-2.754219137179586330e+00,-9.277945709999999568e-01,3.418818185478444960e-02,1.000000000000000048e-04,3.591763879187473663e+01,3.699999999999999956e-01
1.691977534999999921e+00,1.434503057999999998e+00,2.934789798953829632e-02,1.000000000000000048e-04,3.516061410275978716e+01,2.099999999999999922e-01
8.272144390000000236e-01,-4.428667319999999852e-01,1.995094033976929637e-02,1.000000000000000048e-04,3.461421038163553732e+01,2.300000000000000100e-01
-2.185785446179585811e+00,4.040310730000000183e-01,1.723365930376963284e-02,1.000000000000000048e-04,3.440824552296683692e+01,1.799999999999999933e-01
2.680919170000000129e+00,5.929394510000000063e-01,4.736590781181959642e-02,1.000000000000000048e-04,3.635360225880974383e+01,1.799999999999999933e-01
2.468528393999999793e+00,-3.885411739999999892e-01,3.378262817618993274e-02,1.000000000000000048e-04,3.578403903462874780e+01,1.700000000000000122e-01
1.824819092000000031e+00,-9.187566499999999525e-01,1.811122139055765246e-02,1.000000000000000048e-04,3.483493860751279669e+01,2.099999999999999922e-01
2.252174823999999909e+00,-3.842870769999999769e-01,2.003967601647826946e-02,1.000000000000000048e-04,3.490176663331495632e+01,2.000000000000000111e-01
2.889947965000000174e+00,3.184077100000000105e-01,1.397884270487059766e-02,1.000000000000000048e-04,3.388967990441889100e+01,2.000000000000000111e-01
-2.666621499179586241e+00,1.790417820000000104e-01,1.228896517192801241e-02,1.000000000000000048e-04,3.347818668328302749e+01,1.900000000000000022e-01
2.353249148999999818e+00,9.653535600000000549e-01,2.690942539600560401e-02,1.000000000000000048e-04,3.532236661654665255e+01,1.799999999999999933e-01
1.765869402999999949e+00,9.288119630000000182e-01,2.451542122733196827e-02,1.000000000000000048e-04,3.523661491368037701e+01,3.599999999999999867e-01
1.931340567999999980e+00,-5.991437729999999906e-01,1.374475226179927567e-02,1.000000000000000048e-04,3.401480486169462125e+01,2.000000000000000111e-01
2.835991935000000019e+00,-7.109363199999999550e-01,2.951369783321711182e-02,1.000000000000000048e-04,3.563588243427891200e+01,1.900000000000000022e-01
-2.852520529179586095e+00,8.667541789999999580e-01,1.162814691367120012e-02,1.000000000000000048e-04,3.374880800564342564e+01,1.799999999999999933e-01
-2.458251249179586040e+00,-2.796002539999999925e-01,1.361639975752249043e-02,1.000000000000000048e-04,3.413254460117794764e+01,3.300000000000000155e-01
1.596378985000000084e+00,5.944120290000000084e-01,1.139672487468534889e-02,1.000000000000000048e-04,3.360407643800468236e+01,1.900000000000000022e-01
-2.484014184179586415e+00,8.016642189999999557e-01,2.991140871233599619e-02,1.000000000000000048e-04,3.525378220216585134e+01,1.900000000000000022e-01
-2.431723812179586108e+00,1.223750555999999934e+00,1.017122575415596586e-02,1.000000000000000048e-04,3.309162979626827905e+01,1.700000000000000122e-01
-2.378598255179586118e+00,1.197731727999999940e+00,2.412816599670541962e-02,1.000000000000000048e-04,3.478648696156490416e+01,1.900000000000000022e-01
1.739429998000000088e+00,2.494783479999999887e-01,1.986724685392471379e-02,1.000000000000000048e-04,3.469305694889440161e+01,3.099999999999999978e-01
-2.377494960179586059e+00,9.562939099999999693e-01,1.655453304804987980e-02,1.000000000000000048e-04,3.432830647517939582e+01,1.799999999999999933e-01
-9.021677017958662503e-02,6.959221140000000361e-01,1.993697293080454180e-02,1.000000000000000048e-04,3.485576504226110472e+01,3.499999999999999778e-01
2.021336933000000169e+00,8.510789659999999923e-01,2.508975095892918006e-02,1.000000000000000048e-04,3.517502644446554427e+01,2.800000000000000266e-01
2.573899695999999793e+00,-5.247218830000000001e-01,2.704079140355664101e-02,1.000000000000000048e-04,3.579940819029051369e+01,1.700000000000000122e-01
2.346925623000000183e+00,-7.496726200000000118e-01,2.827268289672613122e-02,1.000000000000000048e-04,3.602104956874443076e+01,1.700000000000000122e-01
2.543651012999999850e+00,-2.555195920000000176e-01,2.466251905856964299e-02,1.000000000000000048e-04,3.513451632772707001e+01,1.900000000000000022e-01
2.457771880000000131e+00,-4.383329890000000062e-01,4.056843046330271818e-02,1.000000000000000048e-04,3.631453421441906926e+01,1.700000000000000122e-01
-2.749033603179586116e+00,5.277091179999999770e-01,1.583692730759711509e-02,1.000000000000000048e-04,3.437766125194482214e+01,1.799999999999999933e-01
-3.021446786179586397e+00,6.716344440000000526e-01,2.697176761353792251e-02,1.000000000000000048e-04,3.520249448279181337e+01,1.799999999999999933e-01
2.390319493999999878e+00,1.427533710000000067e+00,3.074909070413656131e-02,1.000000000000000048e-04,3.565143170343102952e+01,1.799999999999999933e-01
2.491619029000000207e+00,8.136863199999999630e-01,2.113651647252123844e-02,1.000000000000000048e-04,3.481200083395364686e+01,1.900000000000000022e-01
2.336721559999999975e+00,1.049041915000000103e+00,1.472844918415461279e-02,1.000000000000000048e-04,3.379300427253564720e+01,1.700000000000000122e-01
1.201678150000000000e+00,3.331923239999999842e-01,1.252050572644525239e-02,1.000000000000000048e-04,3.353140989299173214e+01,1.900000000000000022e-01
-3.811893421795859993e-01,1.284308205000000092e+00,2.075366066137873666e-02,1.000000000000000048e-04,3.460246886507140829e+01,2.000000000000000111e-01
5.879284790000000038e-01,8.245620540000000442e-01,2.198092331262291310e-02,1.000000000000000048e-04,3.474192141908388010e+01,1.700000000000000122e-01
-1.085925731795862603e-01,9.806715139999999664e-01,3.761704838894464054e-02,1.000000000000000048e-04,3.632673114086870214e+01,1.799999999999999933e-01
1.189812670000000017e+00,8.219376269999999485e-01,2.571714370995681342e-02,1.000000000000000048e-04,3.523915952032834298e+01,1.700000000000000122e-01
2.896526737999999934e+00,1.048685354999999930e+00,4.137641110701029135e-02,1.000000000000000048e-04,3.619826353521737872e+01,1.700000000000000122e-01
8.784667550000000436e-01,-5.840451829999999678e-01,3.255194355531454420e-02,1.000000000000000048e-04,3.574819813393042267e+01,2.099999999999999922e-01
-2.025603206179586557e+00,1.419180792999999996e+00,1.005797806663566440e-02,1.000000000000000048e-04,3.294800561194289656e+01,1.799999999999999933e-01
1.097118803000000087e+00,1.428367445999999985e+00,1.224943530991984275e-02,1.000000000000000048e-04,3.383648598762439974e+01,1.799999999999999933e-01
-1.923054671795858539e-01,8.268694330000000425e-01,2.202080111888027325e-02,1.000000000000000048e-04,3.497179839014251002e+01,2.000000000000000111e-01
1.974446608000000047e+00,-1.250497374000000050e+00,2.677447954270917307e-02,1.000000000000000048e-04,3.564257741165225468e+01,2.000000000000000111e-01
1.714471547999999901e+00,-4.841846819999999774e-01,1.607178239567486067e-02,1.000000000000000048e-04,3.429702035809146565e+01,1.700000000000000122e-01
1.635209042000000057e+00,-1.499680316999999929e+00,1.642694098557395677e-02,1.000000000000000048e-04,3.444658674185415492e+01,1.900000000000000022e-01
-3.085878636179586021e+00,-8.156760069999999807e-01,3.902127229062091196e-02,1.000000000000000048e-04,3.598699918445412038e+01,1.799999999999999933e-01
1.583648911999999909e+00,-4.051170720000000225e-01,2.373278281970914172e-02,1.000000000000000048e-04,3.529258540137172417e+01,1.700000000000000122e-01
3.116144028999999982e+00,-6.233618589999999626e-01,2.352936899264457260e-02,1.000000000000000048e-04,3.511071241967302115e+01,2.000000000000000111e-01
2.580853791000000008e+00,2.126606490000000071e-01,2.358837899729215870e-02,1.000000000000000048e-04,3.492188671842448144e+01,2.200000000000000011e-01
2.791070910999999821e+00,-3.375241600000000036e-02,1.979069309010106359e-02,1.000000000000000048e-04,3.508137508033058083e+01,2.999999999999999889e-01
2.126664376999999995e+00,-4.630033630000000011e-01,2.590988627575829817e-02,1.000000000000000048e-04,3.496740382936862801e+01,1.799999999999999933e-01
1.264160699999999915e+00,6.289837299999999631e-01,1.398959471436023172e-02,1.000000000000000048e-04,3.418076979415499750e+01,1.900000000000000022e-01
2.608192676999999904e+00,3.485897410000000085e-01,1.698348242517400131e-02,1.000000000000000048e-04,3.467830777054096103e+01,2.200000000000000011e-01
2.816578843999999915e+00,-6.539336449999999523e-01,1.212004719983550416e-02,1.000000000000000048e-04,3.343000742026898564e+01,1.799999999999999933e-01
2.816545334000000178e+00,5.529564630000000092e-01,2.658645897251821211e-02,1.000000000000000048e-04,3.522844205463100309e+01,1.700000000000000122e-01
2.293480610000000031e+00,1.430186356999999964e+00,2.798653886082314024e-02,1.000000000000000048e-04,3.536902352088420542e+01,1.700000000000000122e-01
1.900048696999999898e+00,-6.695785770000000081e-01,1.521744002922420513e-02,1.000000000000000048e-04,3.414390188677909066e+01,1.900000000000000022e-01
2.402973735999999860e+00,-4.293495210000000117e-01,3.021757519813195181e-02,1.000000000000000048e-04,3.561870387954038364e+01,2.200000000000000011e-01
3.123677135999999965e+00,5.597831170000000522e-01,1.644490500546380574e-02,1.000000000000000048e-04,3.446844190278260811e+01,1.700000000000000122e-01
-2.603733431795864917e-01,9.574212720000000454e-01,2.575702639796828564e-02,1.000000000000000048e-04,3.483336490362987092e+01,3.800000000000000044e-01
-1.216980031795857897e-01,3.678993019999999836e-01,2.085524412003181283e-02,1.000000000000000048e-04,3.475460827243622930e+01,1.900000000000000022e-01
2.921580513999999962e+00,4.108407450000000072e-01,1.371437476563741598e-02,1.000000000000000048e-04,3.393660080865813455e+01,1.900000000000000022e-01
-2.362072097179586105e+00,1.187667234999999932e+00,1.968921768845022235e-02,1.000000000000000048e-04,3.475164915051473002e+01,1.900000000000000022e-01
-2.337569846179586186e+00,3.756736769999999837e-01,3.081983494727258410e-02,1.000000000000000048e-04,3.547321168380597101e+01,1.700000000000000122e-01
-1.563533060179586265e+00,8.298117619999999528e-01,3.529901599410156798e-02,1.000000000000000048e-04,3.573334203437035228e+01,3.300000000000000155e-01
-7.514201781795861734e-01,8.148208550000000105e-01,2.289290860277715112e-02,1.000000000000000048e-04,3.500917909003457140e+01,2.099999999999999922e-01
-2.172991007179586376e+00,1.278564443000000050e+00,2.223899845377319551e-02,1.000000000000000048e-04,3.468709857942017294e+01,2.000000000000000111e-01
1.004972830999999900e+00,3.284388160000000223e-01,1.901682738188337218e-02,1.000000000000000048e-04,3.445208116679373234e+01,1.799999999999999933e-01
-1.050913719179586536e+00,7.925907810000000220e-01,1.135585873875477603e-02,1.000000000000000048e-04,3.321767859434680759e+01,2.899999999999999800e-01
1.174967896000000067e+00,-7.032179160000000540e-01,2.506059806964566761e-02,1.000000000000000048e-04,3.526923094061566388e+01,1.799999999999999933e-01
2.063754460999999818e+00,1.158898511999999936e+00,2.293112703680688647e-02,1.000000000000000048e-04,3.501790515109526325e+01,1.799999999999999933e-01
1.355273345999999934e+00,1.034050206000000083e+00,2.966617555339379209e-02,1.000000000000000048e-04,3.579503458852455822e+01,1.700000000000000122e-01
1.878516419999999965e+00,-5.891517790000000421e-01,3.747669877759696178e-02,1.000000000000000048e-04,3.623851044947925715e+01,1.799999999999999933e-01
3.042909537999999969e+00,4.914006550000000195e-01,4.193210518596779401e-02,1.000000000000000048e-04,3.629716108488030812e+01,1.700000000000000122e-01
-2.192876876179585821e+00,7.571444160000000423e-01,1.707814563995513346e-02,1.000000000000000048e-04,3.418566616454160112e+01,2.099999999999999922e-01
-1.274335216179586006e+00,7.393028099999999769e-01,3.349094268895380644e-02,1.000000000000000048e-04,3.561032474995846542e+01,3.599999999999999867e-01
3.513372269999999742e-01,1.023017258000000096e+00,1.139007428399141375e-02,1.000000000000000048e-04,3.336561613631529610e+01,1.799999999999999933e-01
-2.045215730179585911e+00,1.346705497999999945e+00,1.250866583364862450e-02,1.000000000000000048e-04,3.355393005474293489e+01,1.799999999999999933e-01
2.622131355000000053e+00,-2.378520580000000051e-01,3.408773317465962904e-02,1.000000000000000048e-04,3.568012741276911015e+01,2.099999999999999922e-01
1.499565373000000035e+00,-5.833961840000000398e-01,1.836935307520648486e-02,1.000000000000000048e-04,3.459193045554528112e+01,1.199999999999999956e-01
9.453780529999999960e-01,-3.014802610000000271e-01,3.952210519883858630e-02,1.000000000000000048e-04,3.620898819883873898e+01,1.799999999999999933e-01
1.003030738000000088e+00,-6.679498139999999751e-01,2.658326432466240341e-02,1.000000000000000048e-04,3.560521646260971096e+01,1.799999999999999933e-01
-2.858957567179586157e+00,-2.878047879999999781e-01,1.297726228226925294e-02,1.000000000000000048e-04,3.383559081137435243e+01,1.300000000000000044e-01
-2.653655062179586022e+00,5.464710109999999510e-01,1.422861151108945066e-02,1.000000000000000048e-04,3.387599537966987384e+01,1.300000000000000044e-01
-1.077960778179586576e+00,1.305029642999999906e+00,1.744909018455054195e-02,1.000000000000000048e-04,3.438491598346767120e+01,1.100000000000000006e-01
2.996279555000000094e+00,-9.792432829999999644e-01,1.074536782263835200e-02,1.000000000000000048e-04,3.337247607956442152e+01,1.600000000000000033e-01
-7.405109531795863731e-01,5.344760480000000369e-01,1.217731628275808831e-02,1.000000000000000048e-04,3.365761913156669038e+01,1.900000000000000022e-01
-1.986221938179586033e+00,3.858849830000000147e-01,1.823923941324623321e-02,1.000000000000000048e-04,3.457541977469090710e+01,2.600000000000000089e-01
-1.660796187179585992e+00,1.337702168000000080e+00,1.980917632851220134e-02,1.000000000000000048e-04,3.461713354827886491e+01,1.300000000000000044e-01
-1.008319883179586540e+00,9.035811799999999838e-01,2.441088280905168162e-02,1.000000000000000048e-04,3.518889867373562907e+01,1.799999999999999933e-01
-2.859227719179586291e+00,-3.383984709999999785e-01,1.561856536446137866e-02,1.000000000000000048e-04,3.406296265591964811e+01,1.799999999999999933e-01
-3.008470453179586279e+00,-9.028608339999999455e-01,3.158570627495116412e-02,1.000000000000000048e-04,3.578181965998277292e+01,1.300000000000000044e-01
2.720373041999999852e+00,-1.026937239000000002e+00,9.287593243867631188e-03,1.000000000000000048e-04,3.317102418055633706e+01,1.100000000000000006e-01
1.131806215999999976e+00,-1.312634394000000038e+00,1.132895496235719612e-02,1.000000000000000048e-04,3.357230203732152773e+01,1.199999999999999956e-01
1.262497049000000038e+00,-7.576738640000000302e-01,1.176741128021907556e-02,1.000000000000000048e-04,3.354268256405019599e+01,1.900000000000000022e-01
-2.150308364179585929e+00,9.473204419999999848e-01,2.950261968453227190e-02,1.000000000000000048e-04,3.568198654167252926e+01,1.499999999999999944e-01
-2.672281993179586035e+00,8.065802300000000091e-01,1.482829297684573611e-02,1.000000000000000048e-04,3.408617368175352169e+01,1.400000000000000133e-01
-2.768228307179586345e+00,1.501965110000000048e-01,4.276507066411006086e-02,1.000000000000000048e-04,3.652968952828706506e+01,1.300000000000000044e-01
2.456608391000000058e+00,-6.815239560000000418e-01,2.546232734847153623e-02,1.000000000000000048e-04,3.539359485500418145e+01,2.899999999999999800e-01
-1.538735822179586599e+00,7.895792169999999999e-01,2.039444129589496058e-02,1.000000000000000048e-04,3.457838970222417885e+01,1.600000000000000033e-01
-6.811844061795859773e-01,-7.989239399999999991e-01,2.147146193543902903e-02,1.000000000000000048e-04,3.463663493273309513e+01,2.300000000000000100e-01
-9.881069141795864041e-01,9.266642769999999807e-01,2.848184453199253952e-02,1.000000000000000048e-04,3.541967525771826075e+01,2.500000000000000000e-01
9.533575850000000074e-01,-5.868324440000000086e-01,2.768660870143491159e-02,1.000000000000000048e-04,3.543214968540152654e+01,1.199999999999999956e-01
-1.550854682179585886e+00,1.341867675000000037e+00,3.439096688470866248e-02,1.000000000000000048e-04,3.604970432833400906e+01,3.599999999999999867e-01
1.284766933000000000e+00,-9.049604909999999780e-01,2.468490150050284271e-02,1.000000000000000048e-04,3.494964055361904087e+01,1.300000000000000044e-01
