-1.598279621179586663e+00,2.779993629999999993e-01,2.881724038514144048e-02,1.000000000000000048e-04,3.579328077667533847e+01,1.700000000000000122e-01
-8.306753881795865269e-01,5.048130450000000158e-01,3.765864565915122419e-02,1.000000000000000048e-04,3.596720165515752399e+01,1.600000000000000033e-01
-1.512887194179586281e+00,3.571169940000000209e-01,1.467592077531598704e-02,1.000000000000000048e-04,3.447867790253061315e+01,1.600000000000000033e-01
-2.094054222179586588e+00,-9.657747650000000350e-01,1.531091373963522351e-02,1.000000000000000048e-04,3.435436126983241678e+01,1.600000000000000033e-01
-1.256550916179586252e+00,-1.037146153999999987e+00,7.678381364752073779e-03,1.000000000000000048e-04,3.265470161835874308e+01,1.900000000000000022e-01
-2.638489419179586015e+00,-8.917870300000000361e-01,1.114560477071147027e-02,1.000000000000000048e-04,3.393570320062227808e+01,1.600000000000000033e-01
-1.710562538179586589e+00,-1.402302595000000096e+00,6.315386703771519450e-03,1.000000000000000048e-04,3.237982001992309478e+01,2.000000000000000111e-01
-2.771840681795865180e-01,-1.115655276000000029e+00,3.350106819486819987e-02,1.000000000000000048e-04,3.612624149860747735e+01,1.700000000000000122e-01
-1.608432286179586335e+00,-6.514894359999999773e-01,1.298376408074308763e-02,1.000000000000000048e-04,3.390841686725124049e+01,1.600000000000000033e-01
-1.490451089179586575e+00,-3.201959389999999850e-01,2.634851397282234053e-02,1.000000000000000048e-04,3.533381532795973357e+01,1.700000000000000122e-01
-1.995144670179586299e+00,-1.040863893000000040e+00,3.991187863872225350e-02,1.000000000000000048e-04,3.599026785638533710e+01,1.799999999999999933e-01
3.095686500000000008e-02,-1.139960520999999893e+00,5.822788222265229408e-03,1.000000000000000048e-04,3.183570838428687821e+01,1.700000000000000122e-01
-2.211919791795864398e-01,-6.717550429999999961e-01,4.063083034605075028e-02,1.000000000000000048e-04,3.628980978936245094e+01,2.200000000000000011e-01
-8.294029241795861651e-01,6.699244909999999553e-01,2.690286809955377834e-02,1.000000000000000048e-04,3.551416589025556902e+01,1.799999999999999933e-01
-4.765590681795863759e-01,-7.328014390000000544e-01,6.809570518698127017e-03,1.000000000000000048e-04,3.235141222581079035e+01,1.600000000000000033e-01
-1.123871723179585835e+00,1.275958498999999913e+00,2.761061186732605144e-02,1.000000000000000048e-04,3.555507959264251383e+01,1.900000000000000022e-01
-5.094723721795864080e-01,-7.371415260000000469e-01,2.814050302036608109e-02,1.000000000000000048e-04,3.551203502165776626e+01,1.600000000000000033e-01
6.571342580000000266e-01,4.949370419999999937e-01,3.489882790476461771e-02,1.000000000000000048e-04,3.576319859653281696e+01,1.700000000000000122e-01
-1.010588552179585875e+00,4.063959939999999826e-01,1.368368446615120249e-02,1.000000000000000048e-04,3.399198712720133386e+01,1.400000000000000133e-01
-5.300352171795861267e-01,-4.198024320000000031e-01,1.536020783971658865e-02,1.000000000000000048e-04,3.427617855674232317e+01,1.499999999999999944e-01
-3.959305511795863097e-01,-4.514385590000000170e-01,7.301093978465833523e-02,1.000000000000000048e-04,3.795286128534770853e+01,1.600000000000000033e-01
-1.302326638179586382e+00,4.891699640000000127e-01,1.695364662371967590e-02,1.000000000000000048e-04,3.440380413348879074e+01,8.999999999999999667e-02
-8.169037861795862554e-01,4.857709299999999897e-01,3.971973513828253033e-02,1.000000000000000048e-04,3.589100584473504085e+01,1.000000000000000056e-01
-1.156602994179586119e+00,7.039336720000000103e-01,1.096199951478427081e-02,1.000000000000000048e-04,3.323944649487461334e+01,1.100000000000000006e-01
2.500120207999999788e+00,-3.403989430000000094e-01,1.571104036071302446e-02,1.000000000000000048e-04,3.417729626073654003e+01,1.100000000000000006e-01
2.397122115999999803e+00,-8.283729720000000407e-01,1.765018435154463994e-02,1.000000000000000048e-04,3.443271534657056065e+01,1.700000000000000122e-01
-4.391142381795862804e-01,9.199097720000000145e-01,1.270906452258202535e-02,1.000000000000000048e-04,3.341675050399268798e+01,2.200000000000000011e-01
-1.356814123179586495e+00,1.335301293999999972e+00,3.312177896688162093e-02,1.000000000000000048e-04,3.571245174544472434e+01,2.600000000000000089e-01
2.612804049999999823e+00,3.003891830000000041e-01,3.408905456941080381e-02,1.000000000000000048e-04,3.576151211202102331e+01,1.700000000000000122e-01
-2.350352662179586272e+00,1.041324629000000002e+00,3.498458765581857755e-02,1.000000000000000048e-04,3.593081992877041131e+01,5.300000000000000266e-01
-1.192441121179586005e+00,1.100105410000000061e+00,1.368566746824173563e-02,1.000000000000000048e-04,3.376465372251776387e+01,1.799999999999999933e-01
-3.012917491179586182e+00,1.485957493999999990e+00,1.979644895365662016e-02,1.000000000000000048e-04,3.456289034287423334e+01,2.200000000000000011e-01
-7.329138461795858817e-01,1.044356909000000000e+00,2.859638138621667380e-02,1.000000000000000048e-04,3.558037606817400444e+01,1.700000000000000122e-01
1.024371087000000013e+00,-9.607604419999999923e-01,2.868123764817398502e-02,1.000000000000000048e-04,3.527186246705964834e+01,1.600000000000000033e-01
2.960998206000000188e+00,-8.548671270000000044e-01,2.124095531901737388e-02,1.000000000000000048e-04,3.486343970702820627e+01,1.900000000000000022e-01
-2.929124628179586409e+00,8.872048380000000511e-01,9.356328797127222430e-03,1.000000000000000048e-04,3.320814316909623898e+01,4.600000000000000200e-01
-3.017579355179586198e+00,-3.780387199999999948e-01,2.217660157620016115e-02,1.000000000000000048e-04,3.460388045891105691e+01,2.399999999999999911e-01
-2.268575282179586594e+00,6.921453520000000470e-01,8.444713405269865802e-03,1.000000000000000048e-04,3.313108199345416693e+01,3.699999999999999956e-01
2.478186394000000181e+00,5.281495040000000474e-01,1.406664740553020820e-02,1.000000000000000048e-04,3.381649393775195023e+01,2.399999999999999911e-01
7.532392530000000530e-01,9.936355940000000109e-01,3.222569196885460840e-02,1.000000000000000048e-04,3.612594252317031618e+01,1.600000000000000033e-01
1.772935874999999939e+00,1.383062164999999899e+00,2.546934563980629562e-02,1.000000000000000048e-04,3.538810993069176192e+01,7.399999999999999911e-01
1.941716173999999961e+00,9.578325640000000529e-01,1.524030494130435009e-02,1.000000000000000048e-04,3.386091940008330425e+01,3.800000000000000044e-01
2.041827891000000061e+00,-8.953703119999999460e-01,2.626003110134877971e-02,1.000000000000000048e-04,3.494910544177299982e+01,1.700000000000000122e-01
2.521229080999999983e+00,-8.544186950000000058e-01,2.487446005566140705e-02,1.000000000000000048e-04,3.568797413763422810e+01,2.000000000000000111e-01
2.745955969000000163e+00,3.136627880000000257e-01,1.876114392857153312e-02,1.000000000000000048e-04,3.478145477324757451e+01,2.099999999999999922e-01
1.738295793999999894e+00,1.134430556000000090e+00,8.297107051312035964e-03,1.000000000000000048e-04,3.241462343306625371e+01,1.799999999999999933e-01
-8.687814521795864664e-01,6.221710379999999541e-01,2.790985698734793630e-02,1.000000000000000048e-04,3.564620272098606790e+01,3.499999999999999778e-01
-1.857013858179586308e+00,3.937075449999999921e-01,1.593684612487100694e-02,1.000000000000000048e-04,3.419051864261580675e+01,2.999999999999999889e-01
-2.894431473179586156e+00,2.701405689999999971e-01,4.573896756612039205e-02,1.000000000000000048e-04,3.691724163590785679e+01,2.300000000000000100e-01
2.213600608000000136e+00,-5.295933369999999973e-01,1.565345356205649630e-02,1.000000000000000048e-04,3.384670302818839360e+01,2.500000000000000000e-01
9.327636729999999599e-01,4.069681829999999834e-01,3.822408775464847253e-02,1.000000000000000048e-04,3.653930366857626666e+01,2.300000000000000100e-01
1.743234563999999986e+00,7.359057650000000450e-01,1.509070528357248087e-02,1.000000000000000048e-04,3.399690866499548036e+01,2.200000000000000011e-01
-2.812965047179586175e+00,5.929882829999999494e-01,2.041493979072428466e-02,1.000000000000000048e-04,3.492947947730666414e+01,2.399999999999999911e-01
-2.977583888179586413e+00,-1.437144969999999966e-01,1.779461209952493128e-02,1.000000000000000048e-04,3.437489962386286635e+01,2.700000000000000178e-01
2.276564226000000080e+00,-5.051809499999999620e-01,8.493621987451849265e-03,1.000000000000000048e-04,3.286315224337329255e+01,2.800000000000000266e-01
2.667465888000000174e+00,-6.260506340000000502e-01,2.340433179386125495e-02,1.000000000000000048e-04,3.522151764700934962e+01,2.600000000000000089e-01
1.041358068000000081e+00,8.506585119999999778e-01,9.139175369013985417e-03,1.000000000000000048e-04,3.284971826315533150e+01,2.300000000000000100e-01
2.499030525999999863e+00,-9.629979760000000333e-01,4.858459787436997246e-02,1.000000000000000048e-04,3.695031992547000499e+01,3.099999999999999978e-01
1.334501084000000004e+00,-7.340646360000000481e-01,1.463977698983964792e-02,1.000000000000000048e-04,3.421852596180157491e+01,2.300000000000000100e-01
2.196979751999999841e+00,-5.334639439999999677e-01,1.802055386016809813e-02,1.000000000000000048e-04,3.443301181945674472e+01,2.500000000000000000e-01
1.355624495999999901e+00,4.654212710000000253e-01,3.741489048209611923e-02,1.000000000000000048e-04,3.606426821592699383e+01,2.200000000000000011e-01
1.445572062999999963e+00,-8.838676049999999451e-01,1.579727260744556716e-02,1.000000000000000048e-04,3.392975081866355680e+01,3.499999999999999778e-01
7.246286520000000397e-01,-7.843460709999999780e-01,1.386475298063039041e-02,1.000000000000000048e-04,3.407809017075842917e+01,3.099999999999999978e-01
2.179180484000000195e+00,1.312341798999999920e+00,3.199800298764055029e-02,1.000000000000000048e-04,3.545831675875292888e+01,2.200000000000000011e-01
7.669035910000000511e-01,2.329377750000000136e-01,3.277975845500580299e-02,1.000000000000000048e-04,3.565535116671517102e+01,2.500000000000000000e-01
1.528220198000000085e+00,-6.827860190000000218e-01,1.380846896140952573e-02,1.000000000000000048e-04,3.381454391937006676e+01,4.199999999999999845e-01
2.984436029999999906e+00,4.410184999999999800e-01,6.244111035642818663e-03,1.000000000000000048e-04,3.163761249281417420e+01,2.999999999999999889e-01
1.808380389999999949e+00,-5.931087419999999666e-01,1.949723246682122380e-02,1.000000000000000048e-04,3.425031605666971757e+01,2.200000000000000011e-01
2.378694356000000010e+00,6.891218140000000547e-01,2.674970327520131974e-02,1.000000000000000048e-04,3.559917763194170703e+01,3.099999999999999978e-01
-1.027171309179585990e+00,8.938185499999999895e-01,3.923760645726970253e-02,1.000000000000000048e-04,3.638916284629401332e+01,3.099999999999999978e-01
2.177629786999999872e+00,1.088514723000000073e+00,4.504004489773438813e-02,1.000000000000000048e-04,3.648451178593123956e+01,2.500000000000000000e-01
2.446904437000000154e+00,4.505237189999999892e-01,1.840738556273180393e-02,1.000000000000000048e-04,3.462455393704517803e+01,2.700000000000000178e-01
-2.745075452179586151e+00,5.290477460000000409e-01,7.509009004435407419e-03,1.000000000000000048e-04,3.262494045647558494e+01,1.600000000000000033e-01
3.470126559999999749e-01,6.971221490000000243e-01,1.866717180664267950e-02,1.000000000000000048e-04,3.455767433653453935e+01,2.399999999999999911e-01
-2.027672372179586624e+00,-3.494576850000000179e-01,1.504899391525094110e-02,1.000000000000000048e-04,3.411338648450647781e+01,8.999999999999999667e-02
-2.243457714179585949e+00,5.735296930000000071e-01,1.624907224798088912e-02,1.000000000000000048e-04,3.440080903558082781e+01,8.000000000000000167e-02
-1.741234469179586242e+00,8.281857209999999858e-01,2.816753005398009435e-02,1.000000000000000048e-04,3.520320795381608292e+01,1.000000000000000056e-01
-1.661352162179586145e+00,7.473004210000000480e-01,8.501686897224969286e-03,1.000000000000000048e-04,3.287496304465229713e+01,1.100000000000000006e-01
-1.046494641179585905e+00,9.839422859999999993e-01,1.293317062769583359e-02,1.000000000000000048e-04,3.358054660067347896e+01,1.600000000000000033e-01
-1.357076630179586019e+00,8.591991679999999576e-01,3.042868062137271679e-02,1.000000000000000048e-04,3.595224599329369397e+01,1.300000000000000044e-01
-1.489161381179585852e+00,8.733460579999999807e-01,1.201555118394748156e-02,1.000000000000000048e-04,3.325736678489073483e+01,8.999999999999999667e-02
2.602874990000000111e+00,9.865781270000000269e-01,1.761722711918300988e-02,1.000000000000000048e-04,3.467838818767552311e+01,2.099999999999999922e-01
6.278667869999999818e-01,1.201237362999999947e+00,1.844539902569430900e-02,1.000000000000000048e-04,3.461661825226268974e+01,1.799999999999999933e-01
1.901542252999999905e+00,5.984822429999999693e-01,3.912248057624445607e-02,1.000000000000000048e-04,3.614287035872109044e+01,1.700000000000000122e-01
9.102462569999999475e-01,3.833152009999999943e-01,1.457305590488888747e-02,1.000000000000000048e-04,3.361250236987948625e+01,2.200000000000000011e-01
4.621894529999999723e-01,4.355896570000000190e-01,3.129632391673631275e-02,1.000000000000000048e-04,3.575306993346191575e+01,2.399999999999999911e-01
1.731299603999999936e+00,-9.087058740000000245e-01,2.454025359272904439e-02,1.000000000000000048e-04,3.501143845733204785e+01,2.200000000000000011e-01
2.307708166999999921e+00,-3.555306579999999994e-01,1.402933529504202248e-02,1.000000000000000048e-04,3.394503410658541043e+01,1.700000000000000122e-01
2.284880370000000216e+00,-4.942566800000000038e-01,3.699994709652099090e-02,1.000000000000000048e-04,3.575337034469946929e+01,2.200000000000000011e-01
-2.729734007179586364e+00,-4.808223520000000084e-01,2.345590019212462352e-02,1.000000000000000048e-04,3.502458961895504785e+01,2.300000000000000100e-01
-2.728058296179586062e+00,8.181749999999999856e-01,1.600728798465755887e-02,1.000000000000000048e-04,3.437131309842056481e+01,2.200000000000000011e-01
1.539636916000000078e+00,-6.652033799999999830e-02,4.046177659467486976e-02,1.000000000000000048e-04,3.614834015008656110e+01,2.999999999999999889e-01
2.937620158000000092e+00,7.383732379999999873e-01,2.113390906572476524e-02,1.000000000000000048e-04,3.455281058201659761e+01,2.200000000000000011e-01
2.624384770999999894e+00,8.339422930000000012e-01,4.257202215007249713e-02,1.000000000000000048e-04,3.612423825632539121e+01,1.799999999999999933e-01
-2.594453966179586235e+00,1.052220571999999965e+00,2.231781637209939717e-02,1.000000000000000048e-04,3.509181063532200540e+01,1.900000000000000022e-01
-2.462277587179586114e+00,1.356652656000000068e+00,1.151621990844775567e-02,1.000000000000000048e-04,3.326199109926348285e+01,2.099999999999999922e-01
2.730654787000000194e+00,8.741146779999999783e-01,2.905782340170137701e-02,1.000000000000000048e-04,3.550455012857314330e+01,1.900000000000000022e-01
-2.564984794179586025e+00,9.572418230000000472e-01,3.873138792347652348e-02,1.000000000000000048e-04,3.645538594326370685e+01,4.400000000000000022e-01
1.629450376000000089e+00,2.068732899999999875e-01,1.535483366510104197e-02,1.000000000000000048e-04,3.410722597584606319e+01,2.899999999999999800e-01
1.142160569999999958e-01,6.858846720000000285e-01,2.170792626599071795e-02,1.000000000000000048e-04,3.455223163376077622e+01,1.799999999999999933e-01
-4.383495451795864639e-01,9.198101690000000108e-01,1.056928599506523625e-02,1.000000000000000048e-04,3.311155335977149150e+01,2.600000000000000089e-01
1.001193188000000012e+00,8.013430529999999719e-01,1.476883279640928137e-02,1.000000000000000048e-04,3.433182780959337066e+01,1.799999999999999933e-01
-8.746654461795859703e-01,7.515327899999999506e-01,1.614459120361644295e-02,1.000000000000000048e-04,3.379236883248830026e+01,2.600000000000000089e-01
1.319662558000000097e+00,1.070340469999999933e-01,5.552511103511648116e-02,1.000000000000000048e-04,3.688949752419451045e+01,2.399999999999999911e-01
1.726021762000000015e+00,-6.377623550000000030e-01,8.792884677812917715e-03,1.000000000000000048e-04,3.303613291576388633e+01,2.600000000000000089e-01
-2.754219137179586330e+00,-9.277945709999999568e-01,2.700759929228535583e-02,1.000000000000000048e-04,3.517468823289880220e+01,3.699999999999999956e-01
1.691977534999999921e+00,1.434503057999999998e+00,5.151709511214819237e-02,1.000000000000000048e-04,3.671788648509870967e+01,2.099999999999999922e-01
8.272144390000000236e-01,-4.428667319999999852e-01,7.587893532397638197e-03,1.000000000000000048e-04,3.258621763528863369e+01,2.300000000000000100e-01
-2.185785446179585811e+00,4.040310730000000183e-01,3.715003139717687475e-02,1.000000000000000048e-04,3.603376310742066835e+01,1.799999999999999933e-01
2.680919170000000129e+00,5.929394510000000063e-01,1.185580271538566599e-02,1.000000000000000048e-04,3.355420011253885804e+01,1.799999999999999933e-01
2.468528393999999793e+00,-3.885411739999999892e-01,9.276531646183361346e-03,1.000000000000000048e-04,3.309275019322718947e+01,1.700000000000000122e-01
1.824819092000000031e+00,-9.187566499999999525e-01,3.090643170422335828e-02,1.000000000000000048e-04,3.542918645792929055e+01,2.099999999999999922e-01
2.252174823999999909e+00,-3.842870769999999769e-01,9.451984321069861750e-03,1.000000000000000048e-04,3.298159421721349105e+01,2.000000000000000111e-01
2.889947965000000174e+00,3.184077100000000105e-01,1.198082174721859516e-02,1.000000000000000048e-04,3.378259703820183546e+01,2.000000000000000111e-01
-2.125870880179586031e+00,7.967372299999999630e-01,4.728998410046258982e-02,1.000000000000000048e-04,3.669562916559065968e+01,4.400000000000000022e-01
-2.666621499179586241e+00,1.790417820000000104e-01,1.896063864463015669e-02,1.000000000000000048e-04,3.441941776064697223e+01,1.900000000000000022e-01
2.353249148999999818e+00,9.653535600000000549e-01,1.537735241209925441e-02,1.000000000000000048e-04,3.383829630648526887e+01,1.799999999999999933e-01
1.765869402999999949e+00,9.288119630000000182e-01,2.737670975683936803e-02,1.000000000000000048e-04,3.541191709069899929e+01,3.599999999999999867e-01
1.162949336999999916e+00,5.157872650000000503e-01,7.495219632283944833e-03,1.000000000000000048e-04,3.245581083982066417e+01,4.099999999999999756e-01
2.011122450999999867e+00,-1.257182417000000108e+00,7.051620784292467192e-02,1.000000000000000048e-04,3.755272097259121722e+01,1.799999999999999933e-01
1.931340567999999980e+00,-5.991437729999999906e-01,2.629829862228949544e-02,1.000000000000000048e-04,3.497034198506870695e+01,2.000000000000000111e-01
2.835991935000000019e+00,-7.109363199999999550e-01,3.890078117693063220e-02,1.000000000000000048e-04,3.631095048695839722e+01,1.900000000000000022e-01
-2.852520529179586095e+00,8.667541789999999580e-01,4.579193164063166677e-02,1.000000000000000048e-04,3.669193550971370854e+01,1.799999999999999933e-01
-2.458251249179586040e+00,-2.796002539999999925e-01,3.324873443802656148e-02,1.000000000000000048e-04,3.614052163310613963e+01,3.300000000000000155e-01
1.596378985000000084e+00,5.944120290000000084e-01,2.142585046669331916e-02,1.000000000000000048e-04,3.507324046712879806e+01,1.900000000000000022e-01
-2.484014184179586415e+00,8.016642189999999557e-01,1.139959582509098013e-02,1.000000000000000048e-04,3.328284110486264069e+01,1.900000000000000022e-01
-2.431723812179586108e+00,1.223750555999999934e+00,2.031965527684875816e-02,1.000000000000000048e-04,3.496660895557003101e+01,1.700000000000000122e-01
-2.378598255179586118e+00,1.197731727999999940e+00,2.870000000000000155e-03,1.000000000000000048e-04,2.832239722404457183e+01,1.900000000000000022e-01
1.739429998000000088e+00,2.494783479999999887e-01,1.515686601824350888e-02,1.000000000000000048e-04,3.402135842733357407e+01,3.099999999999999978e-01
-2.377494960179586059e+00,9.562939099999999693e-01,2.815666015260376298e-02,1.000000000000000048e-04,3.558885374737752016e+01,1.799999999999999933e-01
-9.021677017958662503e-02,6.959221140000000361e-01,4.261681876724154883e-02,1.000000000000000048e-04,3.649295581985619918e+01,3.499999999999999778e-01
2.021336933000000169e+00,8.510789659999999923e-01,3.658725797678696878e-02,1.000000000000000048e-04,3.590371830258265362e+01,2.800000000000000266e-01
2.573899695999999793e+00,-5.247218830000000001e-01,2.483062158983195822e-02,1.000000000000000048e-04,3.527077957822993426e+01,1.700000000000000122e-01
2.346925623000000183e+00,-7.496726200000000118e-01,3.284231522214553500e-02,1.000000000000000048e-04,3.535020812293947046e+01,1.700000000000000122e-01
2.487812089999999809e+00,-1.095252646999999913e+00,2.232821759532321870e-02,1.000000000000000048e-04,3.450364299783699806e+01,1.600000000000000033e-01
2.543651012999999850e+00,-2.555195920000000176e-01,2.103439131880424640e-02,1.000000000000000048e-04,3.493781055813627745e+01,1.900000000000000022e-01
2.457771880000000131e+00,-4.383329890000000062e-01,1.631767711039455726e-02,1.000000000000000048e-04,3.456023290203538778e+01,1.700000000000000122e-01
-2.749033603179586116e+00,5.277091179999999770e-01,1.964357722324572286e-02,1.000000000000000048e-04,3.439044495359831899e+01,1.799999999999999933e-01
-3.021446786179586397e+00,6.716344440000000526e-01,1.197220699449697001e-02,1.000000000000000048e-04,3.357979389560339456e+01,1.799999999999999933e-01
2.390319493999999878e+00,1.427533710000000067e+00,4.191397650956840693e-02,1.000000000000000048e-04,3.609186057182891005e+01,1.799999999999999933e-01
-2.060955814179585843e+00,9.020563839999999889e-01,8.219879800013041304e-03,1.000000000000000048e-04,3.256838519916605890e+01,1.799999999999999933e-01
-1.552222439179586466e+00,1.270289940999999923e+00,1.332213963293349401e-02,1.000000000000000048e-04,3.424154930633892491e+01,1.600000000000000033e-01
2.491619029000000207e+00,8.136863199999999630e-01,3.483937464052444533e-02,1.000000000000000048e-04,3.550460790875514050e+01,1.900000000000000022e-01
2.336721559999999975e+00,1.049041915000000103e+00,3.508941490236794358e-02,1.000000000000000048e-04,3.578002792803557952e+01,1.700000000000000122e-01
1.201678150000000000e+00,3.331923239999999842e-01,4.284148984643110225e-02,1.000000000000000048e-04,3.627593582311074272e+01,1.900000000000000022e-01
-3.811893421795859993e-01,1.284308205000000092e+00,9.609076524480064663e-03,1.000000000000000048e-04,3.296504634578559489e+01,2.000000000000000111e-01
5.879284790000000038e-01,8.245620540000000442e-01,2.605296246585919739e-02,1.000000000000000048e-04,3.505440137037794557e+01,1.700000000000000122e-01
-3.584264691795864266e-01,1.112498557000000110e+00,2.102214031983185016e-02,1.000000000000000048e-04,3.468108478957297081e+01,2.000000000000000111e-01
-1.085925731795862603e-01,9.806715139999999664e-01,9.393473004051910991e-03,1.000000000000000048e-04,3.300770555107500570e+01,1.799999999999999933e-01
1.189812670000000017e+00,8.219376269999999485e-01,1.990270504314683997e-02,1.000000000000000048e-04,3.444952066244025701e+01,1.700000000000000122e-01
2.896526737999999934e+00,1.048685354999999930e+00,2.516791141161811574e-02,1.000000000000000048e-04,3.515655055661551387e+01,1.700000000000000122e-01
1.187793541000000008e+00,1.533334508000000040e+00,3.340283834809265606e-02,1.000000000000000048e-04,3.546961473520426011e+01,1.700000000000000122e-01
8.784667550000000436e-01,-5.840451829999999678e-01,7.912618289423134499e-03,1.000000000000000048e-04,3.243819045577320992e+01,2.099999999999999922e-01
-2.025603206179586557e+00,1.419180792999999996e+00,1.935669579508569882e-02,1.000000000000000048e-04,3.471807917749494266e+01,1.799999999999999933e-01
1.097118803000000087e+00,1.428367445999999985e+00,1.560568963648112373e-02,1.000000000000000048e-04,3.428656317421314270e+01,1.799999999999999933e-01
-1.923054671795858539e-01,8.268694330000000425e-01,3.341789803481787224e-02,1.000000000000000048e-04,3.562064334874288107e+01,2.000000000000000111e-01
1.974446608000000047e+00,-1.250497374000000050e+00,4.871605835607173418e-02,1.000000000000000048e-04,3.672118090817696157e+01,2.000000000000000111e-01
1.714471547999999901e+00,-4.841846819999999774e-01,2.185514738490001996e-02,1.000000000000000048e-04,3.466610385800578342e+01,1.700000000000000122e-01
1.635209042000000057e+00,-1.499680316999999929e+00,1.481150741323045139e-02,1.000000000000000048e-04,3.419051060692009969e+01,1.900000000000000022e-01
-3.085878636179586021e+00,-8.156760069999999807e-01,7.150703345789599652e-03,1.000000000000000048e-04,3.230105791294265316e+01,1.799999999999999933e-01
1.583648911999999909e+00,-4.051170720000000225e-01,3.556299232744519756e-02,1.000000000000000048e-04,3.593367013482796324e+01,1.700000000000000122e-01
3.116144028999999982e+00,-6.233618589999999626e-01,2.432886120249433404e-02,1.000000000000000048e-04,3.523374330818076317e+01,2.000000000000000111e-01
2.580853791000000008e+00,2.126606490000000071e-01,1.438581562174601203e-02,1.000000000000000048e-04,3.431803163312487470e+01,2.200000000000000011e-01
2.791070910999999821e+00,-3.375241600000000036e-02,2.378335369954420742e-02,1.000000000000000048e-04,3.500049450848473498e+01,2.999999999999999889e-01
2.126664376999999995e+00,-4.630033630000000011e-01,1.495225485736395576e-02,1.000000000000000048e-04,3.380719473453648760e+01,1.799999999999999933e-01
1.264160699999999915e+00,6.289837299999999631e-01,4.253089498267526025e-02,1.000000000000000048e-04,3.594893422225595003e+01,1.900000000000000022e-01
2.608192676999999904e+00,3.485897410000000085e-01,7.186112588094095699e-03,1.000000000000000048e-04,3.251731796914683059e+01,2.200000000000000011e-01
9.029304540000000490e-01,-5.888661819999999603e-01,3.300702488655193889e-02,1.000000000000000048e-04,3.571343732322940667e+01,1.700000000000000122e-01
2.675488564000000125e+00,-1.029758079000000048e+00,2.173962201021795160e-02,1.000000000000000048e-04,3.489062431306643219e+01,1.700000000000000122e-01
9.979371630000000160e-01,-7.076351440000000492e-01,6.010063981166213765e-03,1.000000000000000048e-04,3.225792012187329760e+01,2.000000000000000111e-01
2.816578843999999915e+00,-6.539336449999999523e-01,3.090473355305922709e-02,1.000000000000000048e-04,3.579767909893121924e+01,1.799999999999999933e-01
-2.809922836179586270e+00,-1.219770695000000016e+00,3.040949029966899531e-02,1.000000000000000048e-04,3.600329231186452716e+01,1.900000000000000022e-01
2.816545334000000178e+00,5.529564630000000092e-01,2.569040861126481445e-02,1.000000000000000048e-04,3.504263995824283029e+01,1.700000000000000122e-01
2.293480610000000031e+00,1.430186356999999964e+00,1.585910516408750581e-02,1.000000000000000048e-04,3.413040294358606275e+01,1.700000000000000122e-01
1.900048696999999898e+00,-6.695785770000000081e-01,2.842698165635360041e-02,1.000000000000000048e-04,3.601911683312238921e+01,1.900000000000000022e-01
2.402973735999999860e+00,-4.293495210000000117e-01,1.674056886350960838e-02,1.000000000000000048e-04,3.444853161904011785e+01,2.200000000000000011e-01
3.123677135999999965e+00,5.597831170000000522e-01,1.406495109389793718e-02,1.000000000000000048e-04,3.409221483619322157e+01,1.700000000000000122e-01
1.945616433999999950e+00,5.533621010000000506e-01,2.857565837448139412e-02,1.000000000000000048e-04,3.578905826560526293e+01,1.700000000000000122e-01
-2.603733431795864917e-01,9.574212720000000454e-01,3.410516463773394236e-02,1.000000000000000048e-04,3.584752351170804729e+01,3.800000000000000044e-01
-1.216980031795857897e-01,3.678993019999999836e-01,7.982623438415492600e-03,1.000000000000000048e-04,3.284683882400372568e+01,1.900000000000000022e-01
2.921580513999999962e+00,4.108407450000000072e-01,2.986831075168372429e-02,1.000000000000000048e-04,3.597001299112830708e+01,1.900000000000000022e-01
-2.362072097179586105e+00,1.187667234999999932e+00,3.071300438593427273e-02,1.000000000000000048e-04,3.557221764994861957e+01,1.900000000000000022e-01
-2.337569846179586186e+00,3.756736769999999837e-01,2.106330817540902345e-02,1.000000000000000048e-04,3.518137136796791964e+01,1.700000000000000122e-01
-1.563533060179586265e+00,8.298117619999999528e-01,4.766579153501848687e-02,1.000000000000000048e-04,3.657777686418334895e+01,3.300000000000000155e-01
-7.514201781795861734e-01,8.148208550000000105e-01,1.302720920429534246e-02,1.000000000000000048e-04,3.374994779808734080e+01,2.099999999999999922e-01
-2.172991007179586376e+00,1.278564443000000050e+00,1.462713752270139445e-02,1.000000000000000048e-04,3.414456457046050275e+01,2.000000000000000111e-01
1.004972830999999900e+00,3.284388160000000223e-01,1.392617457664457881e-02,1.000000000000000048e-04,3.384533587177837433e+01,1.799999999999999933e-01
-1.050913719179586536e+00,7.925907810000000220e-01,2.942167878772061762e-02,1.000000000000000048e-04,3.550323732078954464e+01,2.899999999999999800e-01
1.174967896000000067e+00,-7.032179160000000540e-01,2.122989063776925533e-02,1.000000000000000048e-04,3.456276863136363175e+01,1.799999999999999933e-01
2.063754460999999818e+00,1.158898511999999936e+00,1.005116223400870368e-02,1.000000000000000048e-04,3.303962182087133925e+01,1.799999999999999933e-01
1.355273345999999934e+00,1.034050206000000083e+00,9.104605412245447837e-03,1.000000000000000048e-04,3.269867067407471239e+01,1.700000000000000122e-01
1.878516419999999965e+00,-5.891517790000000421e-01,5.193126862422792200e-03,1.000000000000000048e-04,3.147534055371082573e+01,1.799999999999999933e-01
3.042909537999999969e+00,4.914006550000000195e-01,1.731497581489915838e-02,1.000000000000000048e-04,3.452474812268268778e+01,1.700000000000000122e-01
-2.192876876179585821e+00,7.571444160000000423e-01,1.910065158282625575e-02,1.000000000000000048e-04,3.462741742622700514e+01,2.099999999999999922e-01
-1.274335216179586006e+00,7.393028099999999769e-01,4.537056735002953367e-02,1.000000000000000048e-04,3.651625227465697066e+01,3.599999999999999867e-01
3.513372269999999742e-01,1.023017258000000096e+00,3.431294663932127342e-02,1.000000000000000048e-04,3.554944506010810557e+01,1.799999999999999933e-01
-2.045215730179585911e+00,1.346705497999999945e+00,3.706363724907113522e-02,1.000000000000000048e-04,3.628598109422317464e+01,1.799999999999999933e-01
2.622131355000000053e+00,-2.378520580000000051e-01,2.491054558006289277e-02,1.000000000000000048e-04,3.517222251009884815e+01,2.099999999999999922e-01
1.499565373000000035e+00,-5.833961840000000398e-01,4.066789635646017587e-02,1.000000000000000048e-04,3.622406493195191501e+01,1.199999999999999956e-01
9.453780529999999960e-01,-3.014802610000000271e-01,4.571494953367882808e-02,1.000000000000000048e-04,3.686261603087604044e+01,1.799999999999999933e-01
1.003030738000000088e+00,-6.679498139999999751e-01,1.057013467324274814e-02,1.000000000000000048e-04,3.339043592654347492e+01,1.799999999999999933e-01
-2.858957567179586157e+00,-2.878047879999999781e-01,2.749916509079697313e-02,1.000000000000000048e-04,3.535378321945892566e+01,1.300000000000000044e-01
-2.653655062179586022e+00,5.464710109999999510e-01,2.735163362694992273e-02,1.000000000000000048e-04,3.478903500302656937e+01,1.300000000000000044e-01
-1.077960778179586576e+00,1.305029642999999906e+00,1.620833674324662077e-02,1.000000000000000048e-04,3.440426173380693342e+01,1.100000000000000006e-01
2.996279555000000094e+00,-9.792432829999999644e-01,5.757996919148800075e-03,1.000000000000000048e-04,3.250854500515117707e+01,1.600000000000000033e-01
1.369802210000000131e-01,9.686457469999999459e-01,1.765257607051773370e-02,1.000000000000000048e-04,3.410111488650521494e+01,1.000000000000000056e-01
-7.405109531795863731e-01,5.344760480000000369e-01,9.022632316718848244e-03,1.000000000000000048e-04,3.307800792215297747e+01,1.900000000000000022e-01
-1.986221938179586033e+00,3.858849830000000147e-01,1.368721909312253793e-02,1.000000000000000048e-04,3.424124027993870811e+01,2.600000000000000089e-01
-1.660796187179585992e+00,1.337702168000000080e+00,1.244531601399967435e-02,1.000000000000000048e-04,3.357599186230262234e+01,1.300000000000000044e-01
-1.008319883179586540e+00,9.035811799999999838e-01,4.677051724523395571e-02,1.000000000000000048e-04,3.650617495413367664e+01,1.799999999999999933e-01
-2.859227719179586291e+00,-3.383984709999999785e-01,1.641677990644918594e-02,1.000000000000000048e-04,3.419340221048728523e+01,1.799999999999999933e-01
-3.008470453179586279e+00,-9.028608339999999455e-01,2.387560657686771393e-02,1.000000000000000048e-04,3.493939604514548591e+01,1.300000000000000044e-01
2.720373041999999852e+00,-1.026937239000000002e+00,1.368794975842946293e-02,1.000000000000000048e-04,3.385116331717941307e+01,1.100000000000000006e-01
1.131806215999999976e+00,-1.312634394000000038e+00,2.015797181977818653e-02,1.000000000000000048e-04,3.484469451552868691e+01,1.199999999999999956e-01
2.377785852000000144e+00,-1.071983155000000076e+00,6.177068312439804032e-03,1.000000000000000048e-04,3.223024623040865322e+01,1.000000000000000056e-01
1.262497049000000038e+00,-7.576738640000000302e-01,1.016767270173146720e-02,1.000000000000000048e-04,3.331942848435995330e+01,1.900000000000000022e-01
-2.150308364179585929e+00,9.473204419999999848e-01,1.008614732085488797e-02,1.000000000000000048e-04,3.291626536282350912e+01,1.499999999999999944e-01
-2.672281993179586035e+00,8.065802300000000091e-01,1.019425296923470725e-02,1.000000000000000048e-04,3.335749445585859974e+01,1.400000000000000133e-01
-2.768228307179586345e+00,1.501965110000000048e-01,3.056630504994384268e-02,1.000000000000000048e-04,3.579428076898418709e+01,1.300000000000000044e-01
2.456608391000000058e+00,-6.815239560000000418e-01,5.828200048146170431e-02,1.000000000000000048e-04,3.737581064895107374e+01,2.899999999999999800e-01
-1.538735822179586599e+00,7.895792169999999999e-01,1.296749255653262267e-02,1.000000000000000048e-04,3.381217100400370867e+01,1.600000000000000033e-01
-6.811844061795859773e-01,-7.989239399999999991e-01,3.309147707691328932e-02,1.000000000000000048e-04,3.619619586698939884e+01,2.300000000000000100e-01
-9.881069141795864041e-01,9.266642769999999807e-01,1.681570059595660638e-02,1.000000000000000048e-04,3.432547980163431589e+01,2.500000000000000000e-01
9.533575850000000074e-01,-5.868324440000000086e-01,3.672461428188866783e-02,1.000000000000000048e-04,3.605972149304400176e+01,1.199999999999999956e-01
1.194530383000000029e+00,-8.514353350000000153e-01,1.843712580445711069e-02,1.000000000000000048e-04,3.417058546077947767e+01,1.100000000000000006e-01
-1.550854682179585886e+00,1.341867675000000037e+00,2.024014162350784574e-02,1.000000000000000048e-04,3.461379137467700673e+01,3.599999999999999867e-01
2.328991532999999947e+00,-1.085498080000000032e+00,1.726406050490436606e-02,1.000000000000000048e-04,3.430481175691262052e+01,1.199999999999999956e-01
3.099662444999999877e+00,-8.173274409999999879e-01,3.558452122893651648e-02,1.000000000000000048e-04,3.635744924822043345e+01,1.300000000000000044e-01
1.008677688999999988e+00,-7.224949280000000362e-01,1.851546250356395085e-02,1.000000000000000048e-04,3.433487010218660629e+01,1.199999999999999956e-01
1.116317643999999998e+00,-8.188746820000000204e-01,3.972526782101182263e-02,1.000000000000000048e-04,3.655639672564294074e+01,1.499999999999999944e-01
1.368634144999999913e+00,-9.746537960000000167e-01,2.243353850228668733e-02,1.000000000000000048e-04,3.492619044898850689e+01,2.200000000000000011e-01
1.284766933000000000e+00,-9.049604909999999780e-01,3.659855573875847590e-02,1.000000000000000048e-04,3.610010285186696422e+01,1.300000000000000044e-01
2.840707745000000006e+00,-9.874777999999999611e-01,2.088688214682909994e-02,1.000000000000000048e-04,3.456996221915593281e+01,1.199999999999999956e-01
1.164831654000000105e+00,-8.361433499999999519e-01,3.678365611576950300e-02,1.000000000000000048e-04,3.590712676173345130e+01,1.600000000000000033e-01
9.274529849999999520e-01,-5.648102149999999488e-01,2.841430906147879298e-02,1.000000000000000048e-04,3.518526993064448760e+01,2.200000000000000011e-01
1.803806121999999901e+00,-1.051757271000000049e+00,2.057239610443284406e-02,1.000000000000000048e-04,3.449438188769712355e+01,2.200000000000000011e-01
1.910407339000000038e+00,-1.096340147000000043e+00,3.178845266526098001e-02,1.000000000000000048e-04,3.551357480080369555e+01,1.300000000000000044e-01
-2.994395329179586174e+00,-6.874333790000000111e-01,2.155981404067230933e-02,1.000000000000000048e-04,3.473857829761055882e+01,1.600000000000000033e-01
2.004169926999999962e+00,-1.114377941999999955e+00,2.379945704620589630e-02,1.000000000000000048e-04,3.542517797546185676e+01,2.099999999999999922e-01
2.993884073999999895e+00,-9.067153500000000310e-01,7.049508649873059696e-02,1.000000000000000048e-04,3.759004472679741582e+01,2.000000000000000111e-01
2.896584697999999847e+00,-6.981149509999999836e-01,2.768048182785132205e-02,1.000000000000000048e-04,3.562198313313919584e+01,2.000000000000000111e-01
2.644964143999999795e+00,-1.038456438999999953e+00,2.832440361891386260e-02,1.000000000000000048e-04,3.521839174260099981e+01,2.500000000000000000e-01
1.395029569000000080e+00,-9.673563530000000021e-01,2.778869635199709975e-02,1.000000000000000048e-04,3.515475832759365460e+01,2.200000000000000011e-01
1.133893306999999906e+00,-8.234022290000000410e-01,9.281924845073064034e-03,1.000000000000000048e-04,3.294064084259293423e+01,1.199999999999999956e-01
9.542908199999999841e-01,-6.210129070000000029e-01,1.288522047484619293e-02,1.000000000000000048e-04,3.363738673138115587e+01,1.400000000000000133e-01
1.112357503999999997e+00,-7.717409769999999947e-01,6.591709845549909019e-03,1.000000000000000048e-04,3.212701400502270843e+01,1.400000000000000133e-01
1.392129267000000059e+00,-9.489503049999999940e-01,1.256301212021027069e-02,1.000000000000000048e-04,3.365378307754107823e+01,1.100000000000000006e-01
3.104633763999999907e+00,-8.563587980000000321e-01,2.400065522876349000e-02,1.000000000000000048e-04,3.533390102368810659e+01,1.199999999999999956e-01
-1.581672989179586430e+00,-6.726275419999999672e-01,6.303424684077185702e-03,1.000000000000000048e-04,3.270690371216447545e+01,2.000000000000000111e-01
8.758714749999999549e-01,-5.394949780000000139e-01,2.441866234043965633e-02,1.000000000000000048e-04,3.455222661452494748e+01,1.199999999999999956e-01
1.027821937999999991e+00,-6.897361509999999640e-01,3.743793883021928615e-02,1.000000000000000048e-04,3.596550377087951489e+01,1.499999999999999944e-01
8.011105990000000343e-01,-4.568120419999999737e-01,2.529350609400937699e-02,1.000000000000000048e-04,3.534987900881420586e+01,1.499999999999999944e-01
8.044453879999999835e-01,-4.591503659999999765e-01,1.004645225366496142e-02,1.000000000000000048e-04,3.298035185212042109e+01,1.100000000000000006e-01
8.290542589999999601e-01,-4.498624509999999965e-01,1.348025759844606597e-02,1.000000000000000048e-04,3.373591841686712200e+01,1.199999999999999956e-01
2.306908324000000121e+00,-1.093655438999999951e+00,3.179286873369036037e-02,1.000000000000000048e-04,3.594358753614753255e+01,1.300000000000000044e-01
-3.090495873179586184e+00,-7.974218849999999970e-01,1.558225486433184592e-02,1.000000000000000048e-04,3.446574920893176852e+01,1.300000000000000044e-01
2.850739061000000074e+00,-9.724982730000000242e-01,3.751345796708571712e-02,1.000000000000000048e-04,3.607498377680219193e+01,1.100000000000000006e-01
1.925211972000000049e+00,-1.067349442999999898e+00,2.212280667234289844e-02,1.000000000000000048e-04,3.497610005805172051e+01,1.600000000000000033e-01
3.010706126000000094e+00,-9.149326070000000088e-01,2.279179885908422243e-02,1.000000000000000048e-04,3.496569131437580324e+01,1.199999999999999956e-01
1.754869720000000077e+00,-1.052947148999999971e+00,3.941338509503067300e-03,1.000000000000000048e-04,3.131706921360354912e+01,1.300000000000000044e-01
3.028086770999999899e+00,-8.725603690000000023e-01,3.856877985116957674e-02,1.000000000000000048e-04,3.635648788652857633e+01,1.199999999999999956e-01
2.780301081000000174e+00,-1.010780400000000023e+00,6.145533075856191019e-03,1.000000000000000048e-04,3.236072361775435269e+01,1.700000000000000122e-01
3.096540631999999960e+00,-8.261897350000000362e-01,5.175527774988775143e-02,1.000000000000000048e-04,3.679820954287352208e+01,1.100000000000000006e-01
-3.043596368179586342e+00,-7.656326449999999451e-01,3.306741668018298164e-02,1.000000000000000048e-04,3.607168985442037723e+01,1.100000000000000006e-01
2.593403560000000052e+00,-1.068240442000000012e+00,2.508859614731240306e-02,1.000000000000000048e-04,3.526738955270032960e+01,1.199999999999999956e-01
1.277663320999999907e+00,-8.910532270000000032e-01,2.444637549904871143e-02,1.000000000000000048e-04,3.524411052795262833e+01,1.499999999999999944e-01
8.729576639999999665e-01,-5.017517409999999733e-01,3.577000057183177262e-02,1.000000000000000048e-04,3.574864083138871962e+01,1.199999999999999956e-01
2.323316692000000128e+00,-1.072994334000000105e+00,1.370084224763390424e-02,1.000000000000000048e-04,3.375438222270226873e+01,1.400000000000000133e-01
-3.012222731179586166e+00,-7.219820959999999621e-01,2.522805220514157121e-02,1.000000000000000048e-04,3.518213741272129624e+01,1.199999999999999956e-01
2.306010604999999991e+00,-1.110345181000000014e+00,1.725778373326303239e-02,1.000000000000000048e-04,3.423963822326216189e+01,1.100000000000000006e-01
2.437557496999999795e+00,-1.097151527000000071e+00,1.464226448390726354e-02,1.000000000000000048e-04,3.435013211639159181e+01,1.100000000000000006e-01
1.098420291999999909e+00,-7.444727049999999569e-01,7.729792559678205777e-03,1.000000000000000048e-04,3.243586417353355955e+01,1.300000000000000044e-01
8.241628739999999897e-01,-4.611620249999999754e-01,8.711027549543892690e-03,1.000000000000000048e-04,3.286336187587312452e+01,1.400000000000000133e-01
1.017317494999999905e+00,-7.027905669999999771e-01,2.917949883423909263e-02,1.000000000000000048e-04,3.562745148749743862e+01,1.199999999999999956e-01
2.728679550999999925e+00,-1.007430967999999982e+00,3.295877260781554519e-02,1.000000000000000048e-04,3.579612684151280888e+01,1.100000000000000006e-01
2.848837458999999850e+00,-9.622339979999999793e-01,7.384949788856509656e-03,1.000000000000000048e-04,3.270494298535762567e+01,1.199999999999999956e-01
-3.065525731179586266e+00,-7.207210450000000046e-01,2.344074195670020622e-02,1.000000000000000048e-04,3.471802712119526291e+01,1.199999999999999956e-01
1.103969978000000074e+00,-7.587182380000000448e-01,1.713967058320831072e-02,1.000000000000000048e-04,3.442966991958631695e+01,1.300000000000000044e-01
1.112034854000000017e+00,-7.675460100000000008e-01,8.735956025262447966e-03,1.000000000000000048e-04,3.303044708988593214e+01,1.199999999999999956e-01
2.373162053000000160e+00,-1.072487750000000073e+00,2.229389952711069434e-02,1.000000000000000048e-04,3.436143296623460941e+01,1.100000000000000006e-01
2.221583438000000132e+00,-1.096064289000000080e+00,1.240093594687929901e-02,1.000000000000000048e-04,3.358041095490543881e+01,1.199999999999999956e-01
2.775251189000000007e+00,-1.013244017000000108e+00,2.173849812069317267e-02,1.000000000000000048e-04,3.481597735403421012e+01,1.700000000000000122e-01
1.527128894000000070e+00,-9.963611940000000056e-01,3.395233977720879537e-02,1.000000000000000048e-04,3.579769152010491240e+01,1.400000000000000133e-01
-1.936135624179586401e+00,1.327891944000000102e+00,4.418499160520217295e-02,1.000000000000000048e-04,3.638474352648191257e+01,1.199999999999999956e-01
2.120951332999999828e+00,-1.112975437000000012e+00,4.414545303141270693e-02,1.000000000000000048e-04,3.693840932637662888e+01,1.600000000000000033e-01
2.950704906999999988e+00,-9.277153000000000205e-01,2.606104899004924036e-02,1.000000000000000048e-04,3.538395385640330915e+01,1.700000000000000122e-01
2.461302839000000020e+00,-1.064109841000000056e+00,2.911037308310437943e-02,1.000000000000000048e-04,3.595054127400467792e+01,1.499999999999999944e-01
1.687800213000000049e+00,-1.037844004000000098e+00,2.287774932643915626e-02,1.000000000000000048e-04,3.505316694628416485e+01,1.100000000000000006e-01
-3.069023128179586113e+00,-7.343218900000000327e-01,2.462395632943636947e-02,1.000000000000000048e-04,3.543338914944000351e+01,2.000000000000000111e-01
7.655655390000000171e-01,-3.825025819999999799e-01,1.934689545365619878e-02,1.000000000000000048e-04,3.425406249259059166e+01,1.300000000000000044e-01
-3.051736326179586012e+00,-7.690870560000000467e-01,5.153300152904138898e-02,1.000000000000000048e-04,3.704312601973896335e+01,1.499999999999999944e-01
-3.116938176179586240e+00,-7.920766919999999711e-01,2.368327523989122163e-02,1.000000000000000048e-04,3.519365035830532662e+01,1.100000000000000006e-01
1.020863690000000101e+00,-6.877910739999999468e-01,1.140891636632979100e-02,1.000000000000000048e-04,3.355970755902853142e+01,1.199999999999999956e-01
1.792785233999999894e+00,-1.066474936999999956e+00,1.481205037364441424e-02,1.000000000000000048e-04,3.395747603565447292e+01,1.100000000000000006e-01
1.805689748000000039e+00,-1.066896787999999985e+00,3.190282749962358722e-02,1.000000000000000048e-04,3.593124670092854700e+01,1.100000000000000006e-01
1.773248071000000037e+00,-1.046601056999999946e+00,1.559843455033282922e-02,1.000000000000000048e-04,3.381828163592817305e+01,2.099999999999999922e-01
1.076689889999999927e+00,-7.549444410000000216e-01,1.535823792149693112e-02,1.000000000000000048e-04,3.397743460041799324e+01,1.199999999999999956e-01
2.336456505000000128e+00,-1.089906792000000069e+00,3.313012878534848937e-02,1.000000000000000048e-04,3.583871109204444849e+01,1.199999999999999956e-01
2.522083900000000156e+00,-1.078852812999999911e+00,2.146950144934467453e-02,1.000000000000000048e-04,3.485108633667795885e+01,1.199999999999999956e-01
3.676074389999999803e-01,1.100614297999999991e+00,1.902133917823922715e-02,1.000000000000000048e-04,3.450633165255582924e+01,1.700000000000000122e-01
2.099931574000000190e+00,-1.082223048999999993e+00,1.071003216965871196e-02,1.000000000000000048e-04,3.312596020802931207e+01,1.100000000000000006e-01
8.155488279999999479e-01,-4.642700679999999802e-01,3.180878279816723442e-02,1.000000000000000048e-04,3.596896194252381918e+01,2.099999999999999922e-01
9.861636230000000447e-01,-6.881834650000000497e-01,9.899407266531046190e-03,1.000000000000000048e-04,3.281197633435863992e+01,1.300000000000000044e-01
1.864254864999999928e+00,-1.086684659999999969e+00,1.918826017111019411e-02,1.000000000000000048e-04,3.443467233527002236e+01,1.199999999999999956e-01
2.873066016000000111e+00,-9.753574739999999466e-01,1.992532676767488908e-02,1.000000000000000048e-04,3.494951563253210480e+01,1.300000000000000044e-01
2.270287562000000037e+00,-1.085086717999999895e+00,2.828597409437061394e-02,1.000000000000000048e-04,3.561618025918284758e+01,1.799999999999999933e-01
8.268071609999999572e-01,-4.587794940000000099e-01,1.084909557444291295e-02,1.000000000000000048e-04,3.382894082745328035e+01,1.199999999999999956e-01
-3.050869045179586347e+00,-7.648855789999999821e-01,2.406622888576137598e-02,1.000000000000000048e-04,3.551663560124231367e+01,1.199999999999999956e-01
1.101963728999999947e+00,-7.466317359999999903e-01,2.422718792173839120e-02,1.000000000000000048e-04,3.516318833044294223e+01,1.900000000000000022e-01
1.745116724000000064e+00,-1.056563783000000090e+00,3.237624072280587129e-02,1.000000000000000048e-04,3.574921461982977178e+01,1.300000000000000044e-01
7.889769570000000343e-01,-3.846565690000000037e-01,9.779002249290513760e-03,1.000000000000000048e-04,3.332416319133434257e+01,1.499999999999999944e-01
1.385818830999999918e+00,-9.278259679999999454e-01,2.207902911959580550e-02,1.000000000000000048e-04,3.494501200053515078e+01,1.499999999999999944e-01
1.138484923000000038e+00,-8.197145099999999518e-01,9.590261437321778715e-03,1.000000000000000048e-04,3.288086024045335876e+01,1.400000000000000133e-01
1.783410439000000069e+00,-1.080958507999999929e+00,9.810196955356342841e-03,1.000000000000000048e-04,3.297804211024099885e+01,1.400000000000000133e-01
2.617653461000000181e+00,-1.025884226000000066e+00,2.059105176727560327e-02,1.000000000000000048e-04,3.503326009268853625e+01,1.199999999999999956e-01
8.270197009999999960e-01,-4.157453939999999903e-01,2.786554721155276582e-02,1.000000000000000048e-04,3.553293616878079320e+01,1.199999999999999956e-01
3.128792493000000174e+00,-8.522697870000000009e-01,2.355175153688082723e-02,1.000000000000000048e-04,3.526355102250361284e+01,1.100000000000000006e-01
1.366158207000000013e+00,-9.614226009999999878e-01,6.962537266276935810e-03,1.000000000000000048e-04,3.216229759604479455e+01,1.100000000000000006e-01
2.846286316000000038e+00,-9.688357899999999745e-01,9.405359322098183483e-03,1.000000000000000048e-04,3.347108071169028420e+01,1.400000000000000133e-01
9.208216280000000031e-01,-6.185352929999999860e-01,1.371629119708961397e-02,1.000000000000000048e-04,3.352738382047103016e+01,1.499999999999999944e-01
7.622987450000000553e-01,-3.411912120000000215e-01,3.524613554246647240e-02,1.000000000000000048e-04,3.618945326748550428e+01,1.199999999999999956e-01
9.277931750000000255e-01,-5.813990460000000304e-01,1.642394295114879554e-02,1.000000000000000048e-04,3.440821587930810210e+01,2.099999999999999922e-01
1.010173165000000095e+00,-6.808591280000000356e-01,1.966001906620151729e-02,1.000000000000000048e-04,3.410981861082744615e+01,1.300000000000000044e-01
1.661181446000000062e+00,-1.029160687999999935e+00,1.391605075262591917e-02,1.000000000000000048e-04,3.377754188140166747e+01,1.400000000000000133e-01
2.089878704000000198e+00,-1.077863170999999953e+00,6.419106233670923700e-03,1.000000000000000048e-04,3.241897250022682186e+01,1.199999999999999956e-01
9.321550429999999610e-01,-6.212176799999999943e-01,2.098144771219612181e-02,1.000000000000000048e-04,3.457681856011337374e+01,1.199999999999999956e-01
2.944595597000000176e+00,-9.127602249999999806e-01,1.490299558592989015e-02,1.000000000000000048e-04,3.411546590025485415e+01,1.100000000000000006e-01
1.288081913999999939e+00,-9.113959929999999598e-01,6.717582082427675516e-03,1.000000000000000048e-04,3.239741534547615487e+01,1.300000000000000044e-01
1.398731861999999992e+00,-9.625033109999999725e-01,2.581347501875042028e-02,1.000000000000000048e-04,3.546011642385366258e+01,1.199999999999999956e-01
1.714165549000000066e+00,-1.043104095999999981e+00,4.286549564884123420e-02,1.000000000000000048e-04,3.671243602378210369e+01,1.199999999999999956e-01
1.014018395999999989e+00,-6.788913789999999615e-01,5.260407481379991701e-02,1.000000000000000048e-04,3.681280051137233045e+01,1.300000000000000044e-01
8.887761809999999985e-01,-5.541821719999999729e-01,2.086917498019946748e-02,1.000000000000000048e-04,3.444907390507565026e+01,1.300000000000000044e-01
1.026278256999999972e+00,-6.961882160000000264e-01,1.504036258582863717e-02,1.000000000000000048e-04,3.401275064815288118e+01,1.199999999999999956e-01
1.824970581999999952e+00,-1.080428363000000003e+00,2.379251074987176473e-02,1.000000000000000048e-04,3.499651806914076957e+01,1.199999999999999956e-01
1.839979185000000017e+00,-1.082878103999999952e+00,1.728899632094726968e-02,1.000000000000000048e-04,3.431123346530843321e+01,1.300000000000000044e-01
-3.070118813179586237e+00,-7.641942569999999879e-01,1.672811508368421407e-02,1.000000000000000048e-04,3.455141020893946546e+01,1.199999999999999956e-01
2.250776613000000204e+00,-1.110438553999999911e+00,4.324654090480106738e-02,1.000000000000000048e-04,3.587039485339283118e+01,1.199999999999999956e-01
2.613802471000000072e+00,-1.066258922999999914e+00,5.819756386673313742e-03,1.000000000000000048e-04,3.237307800202657404e+01,1.199999999999999956e-01
8.050150120000000298e-01,-4.193234060000000096e-01,1.520834485845767858e-02,1.000000000000000048e-04,3.421307089775323362e+01,1.499999999999999944e-01
2.809576177999999924e+00,-9.952447749999999704e-01,4.386852193850376835e-03,1.000000000000000048e-04,3.155534595752510185e+01,1.199999999999999956e-01
8.523447290000000232e-01,-4.773689010000000121e-01,3.776193164232632959e-02,1.000000000000000048e-04,3.607924741417974701e+01,2.000000000000000111e-01
2.975142320999999868e+00,-8.986192680000000266e-01,2.271657284159855905e-02,1.000000000000000048e-04,3.528838428020382878e+01,2.000000000000000111e-01
2.960578484000000010e+00,-9.174235720000000205e-01,9.768045915307776994e-03,1.000000000000000048e-04,3.319810933991974622e+01,1.400000000000000133e-01
1.589239559999999996e+00,-1.046132274999999945e+00,2.675455257325531910e-02,1.000000000000000048e-04,3.534617280423496766e+01,1.199999999999999956e-01
1.095136271999999966e+00,-7.909478989999999543e-01,2.842996878242698422e-02,1.000000000000000048e-04,3.555093918713377832e+01,1.300000000000000044e-01
3.045277111999999953e+00,-8.831592660000000539e-01,1.003978716120923487e-02,1.000000000000000048e-04,3.349760100270960805e+01,1.799999999999999933e-01
3.011317304999999944e+00,-8.969173430000000335e-01,2.928288657654576355e-02,1.000000000000000048e-04,3.557396237137341899e+01,1.499999999999999944e-01
1.946036051000000100e+00,-1.101857058000000000e+00,1.814064066641019046e-02,1.000000000000000048e-04,3.430039023912066654e+01,1.100000000000000006e-01
9.659444579999999503e-01,-6.400164339999999674e-01,2.914773264265391184e-02,1.000000000000000048e-04,3.523401292005208774e+01,1.199999999999999956e-01
1.142944595999999979e+00,-8.229314749999999679e-01,3.200944638921909835e-02,1.000000000000000048e-04,3.578364299925982550e+01,1.499999999999999944e-01
1.336859599999999926e+00,-9.462661719999999610e-01,4.211686918415002978e-02,1.000000000000000048e-04,3.640917282649397890e+01,1.900000000000000022e-01
2.386695267999999981e+00,-1.099692616000000012e+00,2.034673128102837403e-02,1.000000000000000048e-04,3.483931112455516654e+01,1.799999999999999933e-01
1.122946417999999946e+00,-7.871106610000000448e-01,5.662539300504687567e-02,1.000000000000000048e-04,3.693832801285142153e+01,1.499999999999999944e-01
1.038511049000000019e+00,-6.836743480000000428e-01,1.231126497653356466e-02,1.000000000000000048e-04,3.389431046466453523e+01,1.499999999999999944e-01
-1.865548755179585960e+00,5.988235499999999822e-01,5.598623449301176613e-02,1.000000000000000048e-04,3.719657629092171192e+01,3.599999999999999867e-01
-1.208774007179585830e+00,1.086301519000000049e+00,1.092179675956672646e-02,1.000000000000000048e-04,3.379309094567647520e+01,3.900000000000000133e-01
-1.451351928179586359e+00,1.047303024999999943e+00,2.786854339211153331e-02,1.000000000000000048e-04,3.588243116500613894e+01,3.900000000000000133e-01
-1.863787002179586594e+00,5.986409590000000280e-01,3.076936335654045784e-02,1.000000000000000048e-04,3.567069986685252303e+01,3.099999999999999978e-01
-2.367107747179586053e+00,3.570653329999999848e-01,8.656027666825938383e-03,1.000000000000000048e-04,3.271215948455012779e+01,3.300000000000000155e-01
-1.756700719179586478e+00,1.186865959999999998e+00,1.921839313075079936e-02,1.000000000000000048e-04,3.468692722685923258e+01,4.600000000000000200e-01
3.110012692999999828e+00,-8.816387980000000013e-01,3.521167058935592564e-02,1.000000000000000048e-04,3.633082123001473462e+01,4.000000000000000222e-01
1.208427087000000011e+00,6.391205479999999550e-01,1.751110548874046380e-02,1.000000000000000048e-04,3.413882547959310898e+01,3.200000000000000067e-01
2.195568135999999893e+00,9.530612539999999688e-01,6.261838939637609514e-03,1.000000000000000048e-04,3.158688315745531483e+01,3.200000000000000067e-01
1.005319582999999906e+00,6.711075279999999532e-01,1.357703463660087095e-02,1.000000000000000048e-04,3.360098914723614882e+01,8.100000000000000533e-01
-1.746303855179585973e+00,7.561700099999999480e-01,2.320223942458965460e-02,1.000000000000000048e-04,3.512189164873545622e+01,3.599999999999999867e-01
-4.601474541795864681e-01,1.080353384999999999e+00,2.554443617500035124e-02,1.000000000000000048e-04,3.497050060321243592e+01,4.699999999999999734e-01
-1.809340496179586033e+00,8.561831709999999651e-01,1.420699582382289883e-02,1.000000000000000048e-04,3.422768199451491000e+01,5.600000000000000533e-01
-1.804726732179585902e+00,8.415213710000000180e-01,2.184894486107014089e-02,1.000000000000000048e-04,3.493302574906285685e+01,5.100000000000000089e-01
-1.920735154179586068e+00,8.789503189999999799e-01,2.557400791509700788e-02,1.000000000000000048e-04,3.505192784213839019e+01,4.500000000000000111e-01
-2.443118364179586166e+00,3.912645049999999847e-01,8.278832657839352294e-03,1.000000000000000048e-04,3.270081936280097068e+01,6.400000000000000133e-01
-2.443397905179586438e+00,3.924271049999999983e-01,3.138866335079959491e-02,1.000000000000000048e-04,3.605621520402694102e+01,4.199999999999999845e-01
-1.798694144179585841e+00,8.464773150000000079e-01,2.059791820427547826e-02,1.000000000000000048e-04,3.482464470853933136e+01,6.600000000000000311e-01
-1.799964602179586315e+00,8.443478660000000025e-01,1.488355491771908845e-02,1.000000000000000048e-04,3.412804548128707438e+01,6.099999999999999867e-01
-1.805111234179586077e+00,8.421560940000000217e-01,2.063035345368979812e-02,1.000000000000000048e-04,3.511736950136400992e+01,5.100000000000000089e-01
-2.442430271179586221e+00,3.917367079999999890e-01,1.246847820740848434e-02,1.000000000000000048e-04,3.403467147477231691e+01,9.200000000000000400e-01
-2.432135523179586034e+00,3.856870689999999935e-01,3.689247208505541664e-02,1.000000000000000048e-04,3.633050955471615850e+01,4.500000000000000111e-01
-2.443115938179586166e+00,3.817974199999999985e-01,2.114473206337796896e-02,1.000000000000000048e-04,3.504080773156509565e+01,1.010000000000000009e+00
-2.507217827179586411e+00,2.806706330000000027e-01,1.145032470600781949e-02,1.000000000000000048e-04,3.331261482918819183e+01,7.199999999999999734e-01
-2.751331907179586089e+00,-4.573921380000000037e-01,3.601511088344699907e-02,1.000000000000000048e-04,3.621263173267239210e+01,4.299999999999999933e-01
-2.751204501179586259e+00,-4.575163139999999795e-01,2.404047906381334698e-02,1.000000000000000048e-04,3.515253046100565371e+01,5.100000000000000089e-01
-2.751948792179586434e+00,-4.626465410000000222e-01,1.949065829240348435e-02,1.000000000000000048e-04,3.471510037235460544e+01,9.000000000000000222e-01
-2.714588277179586395e+00,-4.966179359999999821e-01,1.353860327304889921e-02,1.000000000000000048e-04,3.386132155297799073e+01,5.200000000000000178e-01
-4.484873401795859138e-01,1.078759022000000067e+00,1.993995517787605642e-02,1.000000000000000048e-04,3.438215435756889349e+01,4.600000000000000200e-01
1.900693019999999955e-01,8.157953839999999568e-01,3.899713156934536684e-02,1.000000000000000048e-04,3.627320390278281792e+01,5.899999999999999689e-01
-1.022766420179586078e+00,1.083744478000000067e+00,2.108013753466808637e-02,1.000000000000000048e-04,3.513133372962579415e+01,6.300000000000000044e-01
-4.695071691795860147e-01,1.083533926999999952e+00,3.721638938970550647e-02,1.000000000000000048e-04,3.600408083616198240e+01,4.400000000000000022e-01
-2.430196729179586068e+00,3.866488559999999852e-01,1.010250636791143464e-02,1.000000000000000048e-04,3.321031515797742628e+01,4.500000000000000111e-01
-1.912154461179586207e+00,8.727908680000000530e-01,2.601424820623110534e-02,1.000000000000000048e-04,3.476367690796065091e+01,4.699999999999999734e-01
-2.513608092179586251e+00,4.011275939999999762e-01,1.253181108588585779e-02,1.000000000000000048e-04,3.395690751386067774e+01,4.699999999999999734e-01
-2.755728471179586414e+00,-5.498326249999999638e-01,9.198362289528416724e-03,1.000000000000000048e-04,3.299489134465289908e+01,5.100000000000000089e-01
3.086866033999999814e+00,-8.456466849999999535e-01,1.108638075136503254e-02,1.000000000000000048e-04,3.362413147644850397e+01,5.200000000000000178e-01
2.898135272999999845e+00,-9.408617099999999622e-01,6.878865812578238703e-03,1.000000000000000048e-04,3.235253327982493232e+01,5.600000000000000533e-01
2.887933338999999933e+00,-9.438168839999999671e-01,3.153955539105934847e-02,1.000000000000000048e-04,3.553748982898129327e+01,4.799999999999999822e-01
2.256176956000000011e+00,-1.014735844999999914e+00,1.710283474081708555e-02,1.000000000000000048e-04,3.446763520661410496e+01,5.000000000000000000e-01
2.229698910000000200e+00,-1.018180813999999934e+00,1.333991326820993528e-02,1.000000000000000048e-04,3.388138779282596857e+01,6.400000000000000133e-01
2.227960753000000071e+00,-1.020489782000000067e+00,1.744470910715678613e-02,1.000000000000000048e-04,3.465949201647716649e+01,5.999999999999999778e-01
1.978102527999999971e+00,-9.529058719999999871e-01,2.724896220775119282e-02,1.000000000000000048e-04,3.552231837512820789e+01,5.200000000000000178e-01
2.842930618000000020e+00,9.211371910000000218e-01,2.960012822872926108e-02,1.000000000000000048e-04,3.542482275896212229e+01,4.899999999999999911e-01
2.611089279999999846e+00,9.227226889999999848e-01,9.499322645039498525e-03,1.000000000000000048e-04,3.284832136466755514e+01,4.899999999999999911e-01
-2.613733020179586308e+00,3.020363409999999860e-01,7.329292806990506115e-02,1.000000000000000048e-04,3.789881150162099743e+01,2.399999999999999911e-01
3.080075141000000016e+00,6.813462000000000129e-01,2.329877736588059634e-02,1.000000000000000048e-04,3.504521098903497744e+01,2.999999999999999889e-01
-2.614795632179586438e+00,3.100862600000000024e-01,2.638361347370166143e-02,1.000000000000000048e-04,3.536343943502875220e+01,7.099999999999999645e-01
3.084152930000000126e+00,6.750201959999999612e-01,1.214261594911580922e-02,1.000000000000000048e-04,3.379316076394361090e+01,2.399999999999999911e-01
-2.831540824179586302e+00,-5.193198470000000011e-01,7.433720569913759846e-03,1.000000000000000048e-04,3.296864228945767650e+01,2.899999999999999800e-01
2.921667255000000019e+00,-9.403574120000000036e-01,2.276282411628782754e-02,1.000000000000000048e-04,3.538563981870753139e+01,2.899999999999999800e-01
2.914679634000000075e+00,-9.413881210000000221e-01,2.005067326224185820e-02,1.000000000000000048e-04,3.472780451315966843e+01,7.299999999999999822e-01
2.905880500999999949e+00,-9.458600109999999450e-01,2.882469508792184776e-02,1.000000000000000048e-04,3.573243138077447156e+01,4.299999999999999933e-01
2.610543199999999953e+00,9.294079060000000059e-01,1.597910353362852476e-02,1.000000000000000048e-04,3.369832182099283813e+01,2.899999999999999800e-01
2.614058957000000127e+00,9.310355519999999885e-01,2.357910000541618700e-02,1.000000000000000048e-04,3.486921697843520462e+01,3.699999999999999956e-01
-2.614313936179586406e+00,3.105085300000000048e-01,2.249529731302013502e-02,1.000000000000000048e-04,3.501077914056376272e+01,2.300000000000000100e-01
-2.614275993179586255e+00,3.084493819999999942e-01,7.501197866061515285e-03,1.000000000000000048e-04,3.291134230306897024e+01,2.000000000000000111e-01
3.080236718000000096e+00,6.852664600000000217e-01,3.071549241088233906e-02,1.000000000000000048e-04,3.567660025402409474e+01,3.800000000000000044e-01
3.085135451000000195e+00,6.840520260000000352e-01,3.702174830134064010e-02,1.000000000000000048e-04,3.628550391511747364e+01,2.300000000000000100e-01
-2.608333968179586293e+00,3.075313129999999728e-01,1.708016238550569277e-02,1.000000000000000048e-04,3.478069521144338694e+01,5.799999999999999600e-01
-2.828421734179586089e+00,-5.202039349999999507e-01,5.142990520567103374e-02,1.000000000000000048e-04,3.686706305710243470e+01,5.200000000000000178e-01
-2.829361723179586452e+00,-5.190188390000000096e-01,2.123607316022146918e-02,1.000000000000000048e-04,3.492589341396583080e+01,3.900000000000000133e-01
-2.833706243179586082e+00,-5.260186759999999628e-01,2.599642084940234632e-02,1.000000000000000048e-04,3.551689350619670904e+01,2.200000000000000011e-01
1.286414458000000094e+00,-9.076167339999999806e-01,2.305577535019209812e-02,1.000000000000000048e-04,3.474840576035227002e+01,2.399999999999999911e-01
2.295144749999999956e+00,-1.095028292000000070e+00,1.938190237062387133e-02,1.000000000000000048e-04,3.471737494092543841e+01,2.000000000000000111e-01
2.312115046000000174e+00,-1.091482969000000081e+00,1.094487867358684419e-02,1.000000000000000048e-04,3.321182537308659022e+01,1.900000000000000022e-01
2.535381049000000164e+00,-1.063602453999999975e+00,3.779859683052433361e-02,1.000000000000000048e-04,3.630808599341831666e+01,2.600000000000000089e-01
2.549902755000000187e+00,-1.059649137999999935e+00,2.870000000000000155e-03,1.000000000000000048e-04,3.084686587251025713e+01,1.900000000000000022e-01
-2.980466121795863899e-01,1.081935794000000062e+00,2.319730951276688380e-02,1.000000000000000048e-04,3.489635808638207237e+01,1.000000000000000056e-01
-4.562223411795862660e-01,1.078420874000000085e+00,9.049583666531191284e-03,1.000000000000000048e-04,3.281025602611467207e+01,1.400000000000000133e-01
-4.727696341795866175e-01,1.076427226000000070e+00,2.505508491679164784e-02,1.000000000000000048e-04,3.511094357939455080e+01,1.900000000000000022e-01
-4.909850281795860028e-01,1.086050390999999893e+00,1.935920959382286810e-02,1.000000000000000048e-04,3.485949786111589788e+01,1.499999999999999944e-01
-1.809890014179586615e+00,8.554848849999999727e-01,1.937573776435241868e-02,1.000000000000000048e-04,3.440263262480169715e+01,1.900000000000000022e-01
-1.804843805179586091e+00,8.509932909999999850e-01,2.004713197707408412e-02,1.000000000000000048e-04,3.481440420005198177e+01,1.700000000000000122e-01
-1.798315402179586187e+00,8.389159160000000393e-01,2.499373024824680378e-02,1.000000000000000048e-04,3.496854891438859880e+01,1.100000000000000006e-01
-1.820018681179586650e+00,8.404092629999999620e-01,2.431754695216326034e-02,1.000000000000000048e-04,3.502205186407920934e+01,2.000000000000000111e-01
-2.435936564179586039e+00,3.767214549999999829e-01,1.932208831662540760e-02,1.000000000000000048e-04,3.464742900296976558e+01,1.700000000000000122e-01
-2.738532057179586143e+00,-4.670391260000000266e-01,2.083136236879279402e-02,1.000000000000000048e-04,3.461576409439108204e+01,1.100000000000000006e-01
-2.750126147179586145e+00,-4.750163370000000107e-01,1.650364542797455591e-02,1.000000000000000048e-04,3.468100415889588817e+01,1.700000000000000122e-01
6.777063359999999648e-01,-9.284162910000000046e-01,3.408230087107044781e-02,1.000000000000000048e-04,3.588474850001635019e+01,1.600000000000000033e-01
6.755664329999999662e-01,-9.242990760000000527e-01,2.172254108068338851e-02,1.000000000000000048e-04,3.528717398644896974e+01,2.200000000000000011e-01
1.666277256000000095e+00,1.035703752000000089e+00,1.538753531192704749e-02,1.000000000000000048e-04,3.431801213350199475e+01,2.800000000000000266e-01
1.679531192000000006e+00,1.034147155999999956e+00,1.760896677168055646e-02,1.000000000000000048e-04,3.417238807145854196e+01,2.099999999999999922e-01
1.669961188000000041e+00,1.045784459000000055e+00,2.851550983875816847e-02,1.000000000000000048e-04,3.567472625404251119e+01,2.899999999999999800e-01
1.666612017000000057e+00,1.035903760999999923e+00,1.915832005067286126e-02,1.000000000000000048e-04,3.468896224053698063e+01,1.400000000000000133e-01
1.676630470000000095e+00,1.049302589999999924e+00,4.715876182412426232e-03,1.000000000000000048e-04,3.152054656088264650e+01,1.600000000000000033e-01
1.678871634000000057e+00,1.037439988999999896e+00,3.554689805619037912e-02,1.000000000000000048e-04,3.598803153207105510e+01,2.099999999999999922e-01
-2.159653925179585876e+00,7.341517600000000421e-01,9.596490370178845097e-03,1.000000000000000048e-04,3.315454656046205884e+01,2.600000000000000089e-01
-2.155609593179586447e+00,7.327229189999999726e-01,1.564650541659506899e-02,1.000000000000000048e-04,3.396085118063075470e+01,1.400000000000000133e-01
2.989279821999999864e+00,-1.014333855000000062e+00,2.744407980789720369e-02,1.000000000000000048e-04,3.548003678637984848e+01,1.600000000000000033e-01
6.962963009999999509e-01,-9.242906640000000396e-01,1.196510850754983757e-02,1.000000000000000048e-04,3.366812102781626947e+01,2.000000000000000111e-01
6.831622830000000368e-01,-9.295060950000000322e-01,3.465303756235971200e-02,1.000000000000000048e-04,3.630861783330801984e+01,2.099999999999999922e-01
6.813526220000000189e-01,-9.196739680000000083e-01,2.732825146047135334e-02,1.000000000000000048e-04,3.464330451836353575e+01,1.700000000000000122e-01
1.667475545999999920e+00,1.039138789999999979e+00,1.088974686733368280e-02,1.000000000000000048e-04,3.315705933625862656e+01,1.499999999999999944e-01
1.669072946000000002e+00,1.039627206000000026e+00,2.486725280469226362e-02,1.000000000000000048e-04,3.521399057085879036e+01,1.700000000000000122e-01
2.992464221000000091e+00,-1.009427984000000000e+00,1.695821897180116444e-02,1.000000000000000048e-04,3.459888571818129321e+01,1.400000000000000133e-01
3.013377762000000182e+00,-1.015725085999999999e+00,1.078300851864755217e-02,1.000000000000000048e-04,3.370737553656869778e+01,1.499999999999999944e-01
6.857830799999999893e-01,-9.290922369999999875e-01,2.299790329843642844e-02,1.000000000000000048e-04,3.490946211083034711e+01,3.400000000000000244e-01
6.874880420000000214e-01,-9.251381180000000093e-01,1.772640290967930632e-02,1.000000000000000048e-04,3.423869793761055291e+01,1.700000000000000122e-01
1.659686511000000086e+00,1.040101345999999927e+00,1.433819134719072075e-02,1.000000000000000048e-04,3.397691088744154797e+01,1.400000000000000133e-01
1.673757463999999917e+00,1.042554473000000037e+00,2.028456288384106188e-02,1.000000000000000048e-04,3.476767098082176943e+01,4.299999999999999933e-01
1.692629780999999944e+00,1.043637506000000048e+00,1.504542899846605941e-02,1.000000000000000048e-04,3.365051409624354051e+01,1.799999999999999933e-01
1.682450028999999958e+00,1.049226146999999942e+00,4.482030159043137729e-03,1.000000000000000048e-04,3.110601293419733082e+01,1.900000000000000022e-01
1.675255906999999933e+00,1.048468626000000015e+00,1.264948495475337609e-02,1.000000000000000048e-04,3.389434981880511089e+01,1.499999999999999944e-01
1.692145135000000078e+00,1.039981480000000014e+00,6.235462964897964255e-03,1.000000000000000048e-04,3.200127041119027638e+01,1.700000000000000122e-01
-2.139768073179586061e+00,7.360294179999999908e-01,2.219854459831860360e-02,1.000000000000000048e-04,3.483781699705912871e+01,1.600000000000000033e-01
-2.138731675179585956e+00,7.369836659999999817e-01,1.988408919158191068e-02,1.000000000000000048e-04,3.483648245916967312e+01,1.499999999999999944e-01
6.888283630000000546e-01,-9.193630990000000169e-01,2.131685988378984042e-02,1.000000000000000048e-04,3.496324521271239405e+01,1.700000000000000122e-01
6.776433490000000059e-01,-9.225326109999999469e-01,1.186259254889177051e-02,1.000000000000000048e-04,3.324974198534952308e+01,1.600000000000000033e-01
6.820513620000000499e-01,-9.162569579999999547e-01,2.268481746333961269e-02,1.000000000000000048e-04,3.471837942469358751e+01,2.899999999999999800e-01
6.832637360000000104e-01,-9.208365670000000502e-01,4.086693833476551241e-02,1.000000000000000048e-04,3.574338824607523435e+01,1.400000000000000133e-01
1.683256381999999940e+00,1.050427892999999946e+00,4.223824581530788436e-02,1.000000000000000048e-04,3.654556514382156962e+01,1.499999999999999944e-01
2.987248335999999949e+00,-1.011507587000000097e+00,1.833666661586375035e-02,1.000000000000000048e-04,3.466443335570063766e+01,1.900000000000000022e-01
2.994879214000000012e+00,-1.020537374999999969e+00,1.727739535252559300e-02,1.000000000000000048e-04,3.459497573073488041e+01,2.500000000000000000e-01
2.997056848999999801e+00,-1.020797841000000039e+00,8.628394712909326358e-03,1.000000000000000048e-04,3.306058826648249038e+01,1.499999999999999944e-01
6.981827720000000070e-01,-9.201470600000000166e-01,3.145980813725524072e-03,1.000000000000000048e-04,3.054961236051780915e+01,2.099999999999999922e-01
1.675679171999999939e+00,1.042232051000000048e+00,2.120736048805227369e-02,1.000000000000000048e-04,3.443786290338368872e+01,1.900000000000000022e-01
1.682732345000000018e+00,1.051774148000000020e+00,2.619350926476049501e-02,1.000000000000000048e-04,3.530870939650264972e+01,2.099999999999999922e-01
1.655763980999999996e+00,1.041789395999999979e+00,1.998825665665426854e-02,1.000000000000000048e-04,3.415108644245319880e+01,2.099999999999999922e-01
1.658505131999999938e+00,1.042043577999999915e+00,1.183221599019423920e-02,1.000000000000000048e-04,3.306958203362966486e+01,1.499999999999999944e-01
1.679931540999999973e+00,1.044700675999999939e+00,1.681292847887938535e-02,1.000000000000000048e-04,3.391841618104700018e+01,1.400000000000000133e-01
1.681131209999999987e+00,1.046558263000000100e+00,1.836331579731309560e-02,1.000000000000000048e-04,3.440062367332357240e+01,3.800000000000000044e-01
-2.147380102179586636e+00,7.248191320000000326e-01,1.629898552873987327e-02,1.000000000000000048e-04,3.411364816435379765e+01,2.200000000000000011e-01
-2.137481690179586558e+00,7.386978770000000027e-01,3.243263824456876776e-02,1.000000000000000048e-04,3.605110789948247429e+01,1.499999999999999944e-01
3.007533192999999994e+00,-1.006434849999999992e+00,1.611494857963124971e-02,1.000000000000000048e-04,3.398516833054497255e+01,1.700000000000000122e-01
6.766177190000000063e-01,-9.309161569999999664e-01,2.217309802939060326e-02,1.000000000000000048e-04,3.525875257456563361e+01,1.700000000000000122e-01
6.879719020000000240e-01,-9.170357009999999809e-01,9.894231360834337963e-03,1.000000000000000048e-04,3.323206829241023996e+01,2.600000000000000089e-01
6.868192690000000100e-01,-9.190749710000000183e-01,2.154127198990218872e-02,1.000000000000000048e-04,3.479154341676387929e+01,2.800000000000000266e-01
1.680927606000000019e+00,1.043199457999999913e+00,1.760945822097181868e-02,1.000000000000000048e-04,3.460884830627759357e+01,1.799999999999999933e-01
1.680733408999999901e+00,1.046110547000000057e+00,1.676588328890882273e-02,1.000000000000000048e-04,3.457304542936989122e+01,1.499999999999999944e-01
3.003205794999999956e+00,-1.007960921000000010e+00,1.561498591799104219e-02,1.000000000000000048e-04,3.486102753416088973e+01,2.200000000000000011e-01
3.013387552999999830e+00,-1.018013843000000085e+00,1.546573706664156056e-02,1.000000000000000048e-04,3.418384873700244242e+01,2.000000000000000111e-01
2.991633154000000072e+00,-1.018575491000000000e+00,1.834702478736405240e-02,1.000000000000000048e-04,3.456847193365632620e+01,1.600000000000000033e-01
6.810583510000000063e-01,-9.216344210000000370e-01,1.873602157433973403e-02,1.000000000000000048e-04,3.442272964419075976e+01,1.600000000000000033e-01
1.670069762000000013e+00,1.048284639000000018e+00,3.339912535947386907e-02,1.000000000000000048e-04,3.548379478527710518e+01,2.099999999999999922e-01
1.699713636000000028e+00,1.040243690999999915e+00,1.059521764133442012e-02,1.000000000000000048e-04,3.306757469670605332e+01,2.899999999999999800e-01
1.686195045999999920e+00,1.048540513999999924e+00,1.596681956310885830e-02,1.000000000000000048e-04,3.393353310918394072e+01,1.400000000000000133e-01
1.667162669999999958e+00,1.044746053999999980e+00,3.112033097143207527e-02,1.000000000000000048e-04,3.538493749033770541e+01,2.700000000000000178e-01
1.689467040999999892e+00,1.036330184999999959e+00,3.623516943332338869e-02,1.000000000000000048e-04,3.618646849064960946e+01,1.300000000000000044e-01
1.683799076999999977e+00,1.043385784000000038e+00,2.768962926634954691e-02,1.000000000000000048e-04,3.482085218484745326e+01,1.700000000000000122e-01
-2.151455832179586025e+00,7.398983139999999459e-01,1.582986515409867678e-02,1.000000000000000048e-04,3.420118460535514515e+01,2.500000000000000000e-01
-2.141944958179585967e+00,7.302793560000000461e-01,1.660167150453273344e-02,1.000000000000000048e-04,3.395456474454523033e+01,1.400000000000000133e-01
3.012489310999999947e+00,-1.019874449000000016e+00,9.185728119223135479e-03,1.000000000000000048e-04,3.327122170117193178e+01,1.900000000000000022e-01
6.824463880000000149e-01,-9.193269539999999740e-01,1.350823566404724119e-02,1.000000000000000048e-04,3.358180280898372416e+01,1.600000000000000033e-01
6.933168330000000212e-01,-9.307474239999999899e-01,3.017293540302334875e-02,1.000000000000000048e-04,3.594263616942752293e+01,1.600000000000000033e-01
7.005346909999999871e-01,-9.247541049999999929e-01,2.082463943011481078e-02,1.000000000000000048e-04,3.517276299624314362e+01,2.700000000000000178e-01
1.674988617999999985e+00,1.042237757999999959e+00,4.037978461143265640e-02,1.000000000000000048e-04,3.662460308956617183e+01,1.499999999999999944e-01
1.672026148000000045e+00,1.039374368000000048e+00,2.666566467897113490e-02,1.000000000000000048e-04,3.515796475352397721e+01,1.600000000000000033e-01
2.993618983999999816e+00,-1.008517228000000099e+00,2.244762747790285395e-02,1.000000000000000048e-04,3.490672721896317654e+01,1.700000000000000122e-01
2.992837709999999873e+00,-1.014889098000000045e+00,1.309448286114123228e-02,1.000000000000000048e-04,3.395324262214328570e+01,2.800000000000000266e-01
2.980621672999999916e+00,-1.012535224000000067e+00,1.348316340327393448e-02,1.000000000000000048e-04,3.390883917821602722e+01,1.499999999999999944e-01
3.118379398000000080e+00,-1.044341935000000055e+00,1.118662999811359526e-02,1.000000000000000048e-04,3.297315245886083801e+01,3.099999999999999978e-01
3.132904315000000217e+00,-1.046896950999999909e+00,4.561765216809376966e-02,1.000000000000000048e-04,3.662410107199064413e+01,2.200000000000000011e-01
1.248659997999999938e+00,-1.117162079000000086e+00,5.034872012353597270e-02,1.000000000000000048e-04,3.743461634784969050e+01,2.700000000000000178e-01
2.302446713000000145e+00,-1.091359299000000060e+00,1.269451623763928616e-02,1.000000000000000048e-04,3.373179368436356640e+01,2.899999999999999800e-01
3.133486173000000097e+00,-1.061461677999999909e+00,2.576942479880428571e-02,1.000000000000000048e-04,3.509907742833721755e+01,3.099999999999999978e-01
1.251013366000000016e+00,-1.102704651999999896e+00,1.917457855162951752e-02,1.000000000000000048e-04,3.466722272561266749e+01,2.300000000000000100e-01
1.232341668999999973e+00,-1.105349812000000043e+00,9.715915187311630064e-03,1.000000000000000048e-04,3.326924495200513121e+01,2.200000000000000011e-01
2.330538756999999794e+00,-1.086213730999999960e+00,1.707724746799699211e-02,1.000000000000000048e-04,3.499333418920012662e+01,2.300000000000000100e-01
3.104372880000000112e+00,-1.050765708999999992e+00,3.688917091819732264e-02,1.000000000000000048e-04,3.621799856120531302e+01,2.200000000000000011e-01
3.122794933000000217e+00,-1.050942575000000101e+00,4.679916269777328885e-02,1.000000000000000048e-04,3.664108176322455535e+01,2.099999999999999922e-01
3.135928428000000157e+00,-1.044986675000000087e+00,3.072657289671387737e-02,1.000000000000000048e-04,3.572877323063841715e+01,2.300000000000000100e-01
3.135701593999999925e+00,-1.049448040999999998e+00,1.381197560846736394e-02,1.000000000000000048e-04,3.393306412034192476e+01,2.399999999999999911e-01
2.902190216000000156e+00,-1.054666754000000095e+00,1.996916627537070887e-02,1.000000000000000048e-04,3.458228799114617402e+01,2.099999999999999922e-01
1.219278212000000083e+00,-1.102494101000000004e+00,2.604772664038468299e-02,1.000000000000000048e-04,3.530468382423622842e+01,2.399999999999999911e-01
2.314258420999999899e+00,-1.073777474999999981e+00,3.906282022948448507e-02,1.000000000000000048e-04,3.620197353459580825e+01,2.399999999999999911e-01
3.138600745000000192e+00,-1.056209613999999908e+00,1.896640448065189943e-02,1.000000000000000048e-04,3.462541552739690331e+01,2.800000000000000266e-01
2.873014373000000177e+00,-1.047336534999999902e+00,2.342720620651372876e-02,1.000000000000000048e-04,3.541305712978637388e+01,2.000000000000000111e-01
2.890150627000000139e+00,-1.045368942999999939e+00,1.983078957260930864e-02,1.000000000000000048e-04,3.454072711565657272e+01,2.200000000000000011e-01
-3.136513490179586139e+00,-1.038988312000000080e+00,1.885414259454853969e-02,1.000000000000000048e-04,3.469854306690210421e+01,2.800000000000000266e-01
3.120369102000000172e+00,-1.042910143999999928e+00,1.439328960936836488e-02,1.000000000000000048e-04,3.411680493260654856e+01,2.399999999999999911e-01
3.132773262000000170e+00,-1.048570620000000009e+00,8.089292301953765474e-03,1.000000000000000048e-04,3.335247233398581557e+01,2.300000000000000100e-01
3.132934141999999866e+00,-1.046888051000000042e+00,2.193570246875964358e-02,1.000000000000000048e-04,3.484655290828169427e+01,2.200000000000000011e-01
3.134455274000000014e+00,-1.046257098000000108e+00,2.396389082329819509e-02,1.000000000000000048e-04,3.514980253763966545e+01,2.200000000000000011e-01
2.910504301000000016e+00,-1.063930792999999930e+00,4.717358779649605260e-02,1.000000000000000048e-04,3.651102554182904214e+01,2.399999999999999911e-01
2.301930878999999930e+00,-1.084305269999999988e+00,2.214807187722578341e-02,1.000000000000000048e-04,3.457860519051604342e+01,3.099999999999999978e-01
2.314913878000000036e+00,-1.104421796000000011e+00,5.220139202475770901e-03,1.000000000000000048e-04,3.172302958625502356e+01,2.600000000000000089e-01
1.232494258000000009e+00,-1.089556776000000005e+00,1.160141987636409411e-02,1.000000000000000048e-04,3.382832531719746783e+01,3.099999999999999978e-01
-3.138875270179586341e+00,-1.027091259999999950e+00,2.394195345173533163e-02,1.000000000000000048e-04,3.524736308354783176e+01,3.800000000000000044e-01
1.277748142000000087e+00,-1.105660628999999950e+00,1.576364077689684784e-02,1.000000000000000048e-04,3.427727791878764663e+01,2.500000000000000000e-01
2.339694710999999927e+00,-1.083680948999999893e+00,2.928701414039425188e-02,1.000000000000000048e-04,3.492718670381956514e+01,2.300000000000000100e-01
3.085408954000000037e+00,-1.045989441999999991e+00,9.196845950817600368e-03,1.000000000000000048e-04,3.276038917790163651e+01,2.800000000000000266e-01
3.122183823999999941e+00,-1.053540683000000033e+00,2.739680492067653184e-02,1.000000000000000048e-04,3.576685980390266195e+01,3.699999999999999956e-01
1.263417701000000060e+00,-1.099941301000000093e+00,3.877747657645724821e-02,1.000000000000000048e-04,3.624713941888221314e+01,2.200000000000000011e-01
1.238769020999999970e+00,-1.122513239999999968e+00,1.707636691215430602e-02,1.000000000000000048e-04,3.444034256505926095e+01,2.600000000000000089e-01
1.225778744000000087e+00,-1.107856694000000086e+00,3.908026499969730061e-02,1.000000000000000048e-04,3.587849671703520471e+01,2.500000000000000000e-01
2.356185176999999964e+00,-1.090954028000000076e+00,4.492991543779067953e-02,1.000000000000000048e-04,3.628564620989529743e+01,2.700000000000000178e-01
1.231078855000000027e+00,-1.109460918999999990e+00,2.082719410746691757e-02,1.000000000000000048e-04,3.489687208407180918e+01,2.300000000000000100e-01
2.350025410999999842e+00,-1.078254897999999962e+00,3.052078652946321746e-02,1.000000000000000048e-04,3.588333699713752623e+01,2.300000000000000100e-01
2.889344674999999807e+00,-1.054064458000000037e+00,1.247536146345784580e-02,1.000000000000000048e-04,3.352389493591171288e+01,3.200000000000000067e-01
1.260972444000000081e+00,-1.102168519999999985e+00,2.087192200114929008e-02,1.000000000000000048e-04,3.507693568835103548e+01,2.899999999999999800e-01
3.138597202000000141e+00,-1.049455424000000026e+00,2.529581776304778984e-02,1.000000000000000048e-04,3.521917453235841577e+01,2.600000000000000089e-01
1.280173519000000093e+00,-1.106045986000000036e+00,3.948287196813060618e-03,1.000000000000000048e-04,3.097170976640740747e+01,2.899999999999999800e-01
3.140421104000000074e+00,-1.048273016000000002e+00,9.566165050893804533e-03,1.000000000000000048e-04,3.322945861428698322e+01,2.700000000000000178e-01
2.887571490000000018e+00,-1.060290981000000077e+00,4.847251666104757106e-02,1.000000000000000048e-04,3.670597480684077141e+01,2.300000000000000100e-01
3.117377486000000086e+00,-1.048849812999999909e+00,2.306463532863278765e-02,1.000000000000000048e-04,3.480393291059311878e+01,2.800000000000000266e-01
3.139331405000000075e+00,-1.045946368000000071e+00,5.945629016586684301e-03,1.000000000000000048e-04,3.213045438446004454e+01,2.300000000000000100e-01
2.901812189000000153e+00,-1.070407117000000019e+00,1.922670584190488974e-02,1.000000000000000048e-04,3.488647792978016327e+01,2.200000000000000011e-01
2.874698792999999863e+00,-1.069280417999999955e+00,1.555939958379903842e-02,1.000000000000000048e-04,3.416595520842571432e+01,2.200000000000000011e-01
3.126790450000000110e+00,-1.053686536000000062e+00,1.439109949224159912e-02,1.000000000000000048e-04,3.394886917038864738e+01,2.099999999999999922e-01
1.253234667999999941e+00,-1.096167120000000050e+00,3.668954641682242723e-02,1.000000000000000048e-04,3.586831651699893087e+01,2.200000000000000011e-01
1.242189800000000011e+00,-1.095888138000000067e+00,2.563833826504313684e-02,1.000000000000000048e-04,3.555697635171220838e+01,2.899999999999999800e-01
2.358704259000000025e+00,-1.096119858000000002e+00,5.633717335225973954e-02,1.000000000000000048e-04,3.695064165466435213e+01,2.099999999999999922e-01
3.090657074000000115e+00,-1.046905049999999893e+00,1.952293682064354385e-02,1.000000000000000048e-04,3.457351941464721534e+01,2.300000000000000100e-01
2.350320292999999783e+00,-1.077642637000000070e+00,1.182700680773396407e-02,1.000000000000000048e-04,3.356334196826234262e+01,3.300000000000000155e-01
3.120911620999999858e+00,-1.047605429999999949e+00,1.552396794235111344e-02,1.000000000000000048e-04,3.439002573087579862e+01,2.899999999999999800e-01
2.310418793000000193e+00,-1.091478047999999923e+00,3.569389517275367574e-02,1.000000000000000048e-04,3.576909409685826802e+01,3.300000000000000155e-01
2.888242410000000149e+00,-1.055260810999999910e+00,2.964694643687093567e-02,1.000000000000000048e-04,3.561455292437958065e+01,2.999999999999999889e-01
2.313880778000000138e+00,-1.089056457000000089e+00,4.284787278178603387e-02,1.000000000000000048e-04,3.583889972711351390e+01,2.600000000000000089e-01
3.096505394999999883e+00,-1.050897790999999915e+00,1.687502367934712311e-02,1.000000000000000048e-04,3.441135814204155707e+01,3.300000000000000155e-01
1.264206060000000020e+00,-1.108314516000000083e+00,5.203855368434529005e-02,1.000000000000000048e-04,3.696320592193285393e+01,2.500000000000000000e-01
2.317080779999999951e+00,-1.080569537999999996e+00,1.645259665864862164e-02,1.000000000000000048e-04,3.379182779697040218e+01,2.399999999999999911e-01
2.308161032000000112e+00,-1.080284865999999955e+00,1.013939899059645988e-02,1.000000000000000048e-04,3.374984495663179018e+01,3.900000000000000133e-01
1.213089824000000094e+00,-1.095999417000000031e+00,2.268909797096152481e-02,1.000000000000000048e-04,3.446408243732652465e+01,2.700000000000000178e-01
3.095344697999999894e+00,-1.044259242999999948e+00,1.430225015707375924e-02,1.000000000000000048e-04,3.413361355762817340e+01,2.200000000000000011e-01
3.093500166000000107e+00,-1.047656949999999920e+00,5.390757032751580802e-02,1.000000000000000048e-04,3.734695768705179120e+01,2.300000000000000100e-01
2.871266652000000086e+00,-1.064917746999999970e+00,2.370850992833117843e-02,1.000000000000000048e-04,3.535689195661175432e+01,2.500000000000000000e-01
2.872879009000000039e+00,-1.076645507999999918e+00,6.338668789451373797e-02,1.000000000000000048e-04,3.695408663688104411e+01,2.099999999999999922e-01
1.241294699000000001e+00,-1.109043570000000090e+00,1.820393561223321299e-02,1.000000000000000048e-04,3.429945171698958006e+01,2.099999999999999922e-01
1.238788393000000099e+00,-1.083197141000000085e+00,1.027917437279390889e-02,1.000000000000000048e-04,3.313784353952287631e+01,2.999999999999999889e-01
-3.140928712179586135e+00,-1.049943351000000025e+00,3.649513761537481749e-02,1.000000000000000048e-04,3.655090986899082850e+01,2.200000000000000011e-01
2.897074545000000168e+00,-1.050668165000000043e+00,5.742783209123691890e-03,1.000000000000000048e-04,3.196089426583614213e+01,2.099999999999999922e-01
3.133488720999999977e+00,-1.053899826000000095e+00,1.404711713480555346e-02,1.000000000000000048e-04,3.410150600275940747e+01,2.300000000000000100e-01
2.854965548000000020e+00,-1.051119023000000041e+00,1.361463034336152234e-02,1.000000000000000048e-04,3.392923069784468737e+01,3.200000000000000067e-01
2.846666281000000076e+00,-1.061494909000000098e+00,3.749824610659913127e-02,1.000000000000000048e-04,3.589158167898915508e+01,2.600000000000000089e-01
1.477625364000000108e+00,-9.892628350000000070e-01,5.459259861482879117e-03,1.000000000000000048e-04,3.205357721365002988e+01,2.000000000000000111e-01
-2.998301261179586064e+00,-5.567642400000000213e-01,1.562489679378820107e-02,1.000000000000000048e-04,3.413097011959786897e+01,1.799999999999999933e-01
2.915910107000000195e+00,-9.248875840000000403e-01,1.947665415992716476e-02,1.000000000000000048e-04,3.468827614981957197e+01,2.999999999999999889e-01
2.904218159000000021e+00,-9.279150130000000107e-01,3.405664527038254619e-02,1.000000000000000048e-04,3.593326581194672542e+01,2.399999999999999911e-01
2.912492748000000020e+00,-9.378063049999999512e-01,1.781321739583852093e-02,1.000000000000000048e-04,3.431281605396521428e+01,4.600000000000000200e-01
2.945746643000000109e+00,-9.241091030000000428e-01,3.683382024660608600e-02,1.000000000000000048e-04,3.626246795473106488e+01,2.300000000000000100e-01
2.195221751000000054e+00,9.567984520000000215e-01,2.126138513303210686e-02,1.000000000000000048e-04,3.523532873165394363e+01,2.200000000000000011e-01
-2.382074272179586227e+00,-9.504311730000000180e-01,9.732537345261693673e-03,1.000000000000000048e-04,3.358391534304834636e+01,2.300000000000000100e-01
2.197803225999999999e+00,9.560313849999999558e-01,1.096258732476540487e-02,1.000000000000000048e-04,3.344677080726222584e+01,2.300000000000000100e-01
-2.380846050179586282e+00,-9.512843520000000552e-01,5.992479114966586806e-03,1.000000000000000048e-04,3.243617899277323602e+01,2.600000000000000089e-01
-2.382960995179586039e+00,-9.501026420000000527e-01,2.212891883538103954e-02,1.000000000000000048e-04,3.483046998658815596e+01,2.099999999999999922e-01
2.192165822000000208e+00,9.554729659999999791e-01,1.288420264249712233e-02,1.000000000000000048e-04,3.412697341510873628e+01,2.899999999999999800e-01
-2.383512939179586176e+00,-9.505219620000000535e-01,1.363624473805580273e-02,1.000000000000000048e-04,3.361515160488259824e+01,2.000000000000000111e-01
2.197044292000000176e+00,9.582492320000000063e-01,3.167679501015152610e-02,1.000000000000000048e-04,3.592852665410627822e+01,2.500000000000000000e-01
2.198013217999999824e+00,9.570721989999999568e-01,5.356355297685855277e-03,1.000000000000000048e-04,3.194068961505592341e+01,2.099999999999999922e-01
2.198391541999999976e+00,9.561199929999999458e-01,2.248580557944701575e-02,1.000000000000000048e-04,3.493322848640080736e+01,2.300000000000000100e-01
2.199218732999999926e+00,9.570277640000000030e-01,5.316327271435139501e-02,1.000000000000000048e-04,3.693804643747210292e+01,2.200000000000000011e-01
2.196667974999999995e+00,9.569524729999999701e-01,3.634472430509583241e-02,1.000000000000000048e-04,3.588975936970919633e+01,2.399999999999999911e-01
2.196400267000000017e+00,9.571105250000000453e-01,2.688102378445544893e-02,1.000000000000000048e-04,3.532114252018831735e+01,2.500000000000000000e-01
2.195980999000000100e+00,9.563170869999999546e-01,3.155133842752100293e-02,1.000000000000000048e-04,3.579168405266648989e+01,2.200000000000000011e-01
2.198886345000000020e+00,9.574225640000000315e-01,3.365966198899195128e-02,1.000000000000000048e-04,3.579394936894300372e+01,3.300000000000000155e-01
-2.382942164179586264e+00,-9.487821469999999646e-01,1.965739166880586808e-02,1.000000000000000048e-04,3.469545398973042438e+01,2.000000000000000111e-01
2.197058621000000045e+00,9.568337070000000333e-01,3.634470682973200972e-02,1.000000000000000048e-04,3.618936327251120844e+01,2.600000000000000089e-01
2.196754174000000059e+00,9.569828230000000380e-01,3.009202086745621507e-02,1.000000000000000048e-04,3.554948067771384501e+01,2.399999999999999911e-01
-2.381905888179586039e+00,-9.494029419999999719e-01,2.167502886498029468e-02,1.000000000000000048e-04,3.496477548713033201e+01,2.399999999999999911e-01
-2.382353656179586388e+00,-9.501919130000000546e-01,1.798391927236187016e-02,1.000000000000000048e-04,3.478650149166880823e+01,2.600000000000000089e-01
-2.385313647179586383e+00,-9.492824659999999914e-01,2.123376511483132667e-02,1.000000000000000048e-04,3.503915326705917721e+01,2.399999999999999911e-01
-2.383308463179586223e+00,-9.502672559999999491e-01,2.913752557549487143e-02,1.000000000000000048e-04,3.590971383026768393e+01,2.000000000000000111e-01
2.194446376000000143e+00,9.548028840000000184e-01,1.699502825617904556e-02,1.000000000000000048e-04,3.418222877479091437e+01,3.699999999999999956e-01
-2.377678389179586294e+00,-9.493284189999999789e-01,1.290029702494299713e-02,1.000000000000000048e-04,3.364572978789492907e+01,3.099999999999999978e-01
2.195048706000000127e+00,9.553664520000000326e-01,7.142537261352277511e-03,1.000000000000000048e-04,3.240695368290285217e+01,2.399999999999999911e-01
2.194988459000000169e+00,9.569281090000000267e-01,2.603246327149921768e-02,1.000000000000000048e-04,3.540591751580544155e+01,2.099999999999999922e-01
2.198773670000000013e+00,9.585742720000000050e-01,1.493587344935209948e-02,1.000000000000000048e-04,3.398774914008225068e+01,2.800000000000000266e-01
2.196007632000000154e+00,9.574002940000000406e-01,2.068856510497796286e-02,1.000000000000000048e-04,3.470336344731197897e+01,2.800000000000000266e-01
2.193610842000000005e+00,9.569156829999999614e-01,3.066286743188917363e-02,1.000000000000000048e-04,3.550269293371439261e+01,2.099999999999999922e-01
2.194846306000000080e+00,9.574700699999999509e-01,1.965158723249893491e-02,1.000000000000000048e-04,3.454466365175500187e+01,2.300000000000000100e-01
8.096471539999999800e-01,9.894972960000000262e-01,1.299346942443890818e-02,1.000000000000000048e-04,3.375262711828187179e+01,9.499999999999999556e-01
-2.901318991795864832e-01,1.086903570000000041e+00,3.527362181884208248e-02,1.000000000000000048e-04,3.586468851856024997e+01,2.000000000000000111e-01
-2.914486071795865385e-01,1.085909494999999891e+00,2.507943855572136727e-02,1.000000000000000048e-04,3.524131918847547240e+01,1.000000000000000056e-01
-2.954610881795858290e-01,1.084462065999999947e+00,2.142820459452332571e-02,1.000000000000000048e-04,3.472086469098709216e+01,1.199999999999999956e-01
-3.403197011795864313e-01,1.090760651000000081e+00,2.708222650975855572e-02,1.000000000000000048e-04,3.523798062966189804e+01,8.999999999999999667e-02
-3.429455761795860980e-01,1.087892671000000089e+00,3.480349556177597670e-02,1.000000000000000048e-04,3.565704886712893540e+01,1.400000000000000133e-01
6.896152909999999636e-01,-9.249195220000000495e-01,2.236395524805989687e-02,1.000000000000000048e-04,3.484129981150117317e+01,2.000000000000000111e-01
9.689134900000000439e-01,1.175295868000000077e+00,2.186927065350907640e-02,1.000000000000000048e-04,3.431092714912121266e+01,4.500000000000000111e-01
1.024453132999999960e+00,1.182715689999999986e+00,2.589700734761124501e-02,1.000000000000000048e-04,3.528038306540194213e+01,1.900000000000000022e-01
1.006083177000000051e+00,1.165244638999999971e+00,4.076433182701477698e-02,1.000000000000000048e-04,3.642070980248752221e+01,1.700000000000000122e-01
9.905969959999999519e-01,1.153001898999999941e+00,6.048869443076476671e-03,1.000000000000000048e-04,3.196638908345011743e+01,3.499999999999999778e-01
2.950210608999999984e+00,-1.015290931000000008e+00,1.375244021563570840e-02,1.000000000000000048e-04,3.399725756776539498e+01,5.000000000000000000e-01
2.950804928999999799e+00,-1.010655210999999998e+00,1.754680950126785710e-02,1.000000000000000048e-04,3.510583327268781773e+01,1.700000000000000122e-01
2.951637304000000128e+00,-1.010683065999999908e+00,2.136036233646065874e-02,1.000000000000000048e-04,3.473330262819286673e+01,1.900000000000000022e-01
-2.349248843179586377e+00,-9.322901449999999590e-01,2.884114967031070620e-02,1.000000000000000048e-04,3.571372954543860345e+01,1.900000000000000022e-01
