-1.598279621179586663e+00,2.779993629999999993e-01,5.068890873727074364e-01,1.000000000000000048e-04,4.203415393015481527e+01,1.700000000000000122e-01
-8.306753881795865269e-01,5.048130450000000158e-01,4.995133145601262648e-01,1.000000000000000048e-04,4.225850438489584349e+01,1.600000000000000033e-01
-1.512887194179586281e+00,3.571169940000000209e-01,4.995367061014719390e-01,1.000000000000000048e-04,4.226392295734002857e+01,1.600000000000000033e-01
-2.094054222179586588e+00,-9.657747650000000350e-01,5.185579179813391004e-01,1.000000000000000048e-04,4.214845675557054250e+01,1.600000000000000033e-01
-1.256550916179586252e+00,-1.037146153999999987e+00,5.080828690797019043e-01,1.000000000000000048e-04,4.223235695709093562e+01,1.900000000000000022e-01
-2.638489419179586015e+00,-8.917870300000000361e-01,5.148714860214325117e-01,1.000000000000000048e-04,4.251017915989980622e+01,1.600000000000000033e-01
-1.710562538179586589e+00,-1.402302595000000096e+00,5.132038438593991003e-01,1.000000000000000048e-04,4.223983556741540468e+01,2.000000000000000111e-01
-2.771840681795865180e-01,-1.115655276000000029e+00,5.064610181677251521e-01,1.000000000000000048e-04,4.198953770189098123e+01,1.700000000000000122e-01
-1.608432286179586335e+00,-6.514894359999999773e-01,5.016297648531820030e-01,1.000000000000000048e-04,4.220164882120347727e+01,1.600000000000000033e-01
-1.490451089179586575e+00,-3.201959389999999850e-01,5.024729503701392819e-01,1.000000000000000048e-04,4.227325631400814387e+01,1.700000000000000122e-01
-1.995144670179586299e+00,-1.040863893000000040e+00,5.197883532317113531e-01,1.000000000000000048e-04,4.254617206883627745e+01,1.799999999999999933e-01
3.095686500000000008e-02,-1.139960520999999893e+00,5.000333891839991995e-01,1.000000000000000048e-04,4.266383405635451709e+01,1.700000000000000122e-01
-2.211919791795864398e-01,-6.717550429999999961e-01,5.176132147784717752e-01,1.000000000000000048e-04,4.225679985582446108e+01,2.200000000000000011e-01
-8.294029241795861651e-01,6.699244909999999553e-01,5.116812315963972235e-01,1.000000000000000048e-04,4.207078648114649866e+01,1.799999999999999933e-01
-4.765590681795863759e-01,-7.328014390000000544e-01,5.194957308240548688e-01,1.000000000000000048e-04,4.235048837617805617e+01,1.600000000000000033e-01
-1.123871723179585835e+00,1.275958498999999913e+00,4.996705290601350935e-01,1.000000000000000048e-04,4.212236199140154014e+01,1.900000000000000022e-01
-5.094723721795864080e-01,-7.371415260000000469e-01,5.167372557152429824e-01,1.000000000000000048e-04,4.220652323414664409e+01,1.600000000000000033e-01
6.571342580000000266e-01,4.949370419999999937e-01,5.119030337470940051e-01,1.000000000000000048e-04,4.235482852082606087e+01,1.700000000000000122e-01
-1.010588552179585875e+00,4.063959939999999826e-01,5.174651400509810983e-01,1.000000000000000048e-04,4.224147955105303964e+01,1.400000000000000133e-01
-5.300352171795861267e-01,-4.198024320000000031e-01,5.103643255726266759e-01,1.000000000000000048e-04,4.209507580309364982e+01,1.499999999999999944e-01
-3.959305511795863097e-01,-4.514385590000000170e-01,4.995008627668411361e-01,1.000000000000000048e-04,4.236953429962242268e+01,1.600000000000000033e-01
-1.302326638179586382e+00,4.891699640000000127e-01,5.109394261977799889e-01,1.000000000000000048e-04,4.211548889143933394e+01,8.999999999999999667e-02
-8.169037861795862554e-01,4.857709299999999897e-01,4.981285777726083275e-01,1.000000000000000048e-04,4.245593202597284233e+01,1.000000000000000056e-01
-1.156602994179586119e+00,7.039336720000000103e-01,5.042520690675664774e-01,1.000000000000000048e-04,4.216965849851766990e+01,1.100000000000000006e-01
2.500120207999999788e+00,-3.403989430000000094e-01,4.965398003839667229e-01,1.000000000000000048e-04,4.223588593595869156e+01,1.100000000000000006e-01
2.397122115999999803e+00,-8.283729720000000407e-01,5.068205839218682396e-01,1.000000000000000048e-04,4.234226219919028011e+01,1.700000000000000122e-01
-4.391142381795862804e-01,9.199097720000000145e-01,5.165101197786878817e-01,1.000000000000000048e-04,4.244797476405302206e+01,2.200000000000000011e-01
-1.356814123179586495e+00,1.335301293999999972e+00,5.131993356206965284e-01,1.000000000000000048e-04,4.234989808874052386e+01,2.600000000000000089e-01
2.612804049999999823e+00,3.003891830000000041e-01,5.129372221116692554e-01,1.000000000000000048e-04,4.240220286287711104e+01,1.700000000000000122e-01
-1.192441121179586005e+00,1.100105410000000061e+00,4.919699143768843097e-01,1.000000000000000048e-04,4.225186181592219015e+01,1.799999999999999933e-01
-3.012917491179586182e+00,1.485957493999999990e+00,4.985439951002095249e-01,1.000000000000000048e-04,4.212204701649780247e+01,2.200000000000000011e-01
-7.329138461795858817e-01,1.044356909000000000e+00,5.172985318538019239e-01,1.000000000000000048e-04,4.244665427121749701e+01,1.700000000000000122e-01
1.024371087000000013e+00,-9.607604419999999923e-01,5.078161719574998401e-01,1.000000000000000048e-04,4.226995567790276453e+01,1.600000000000000033e-01
2.960998206000000188e+00,-8.548671270000000044e-01,5.033072704916574658e-01,1.000000000000000048e-04,4.237948021397436804e+01,1.900000000000000022e-01
-3.017579355179586198e+00,-3.780387199999999948e-01,5.032380477759341719e-01,1.000000000000000048e-04,4.207950877083628427e+01,2.399999999999999911e-01
-2.268575282179586594e+00,6.921453520000000470e-01,4.957031670231382137e-01,1.000000000000000048e-04,4.256032482023748287e+01,3.699999999999999956e-01
2.478186394000000181e+00,5.281495040000000474e-01,5.198155029932598481e-01,1.000000000000000048e-04,4.226812691160589708e+01,2.399999999999999911e-01
7.532392530000000530e-01,9.936355940000000109e-01,5.207426906170136149e-01,1.000000000000000048e-04,4.270050444952818935e+01,1.600000000000000033e-01
1.941716173999999961e+00,9.578325640000000529e-01,5.171798472365958244e-01,1.000000000000000048e-04,4.224811895215030688e+01,3.800000000000000044e-01
2.041827891000000061e+00,-8.953703119999999460e-01,5.234701505244299113e-01,1.000000000000000048e-04,4.224738516842240443e+01,1.700000000000000122e-01
2.521229080999999983e+00,-8.544186950000000058e-01,5.222587939188088058e-01,1.000000000000000048e-04,4.260198926830260291e+01,2.000000000000000111e-01
2.745955969000000163e+00,3.136627880000000257e-01,5.029286923763867101e-01,1.000000000000000048e-04,4.221936865411375095e+01,2.099999999999999922e-01
1.738295793999999894e+00,1.134430556000000090e+00,4.978490594120732471e-01,1.000000000000000048e-04,4.240873364569493020e+01,1.799999999999999933e-01
-8.687814521795864664e-01,6.221710379999999541e-01,5.129755080404312384e-01,1.000000000000000048e-04,4.262808935322163251e+01,3.499999999999999778e-01
-1.857013858179586308e+00,3.937075449999999921e-01,5.099422363357033472e-01,1.000000000000000048e-04,4.211193483364773016e+01,2.999999999999999889e-01
-2.894431473179586156e+00,2.701405689999999971e-01,5.148009140868874400e-01,1.000000000000000048e-04,4.237824878044917654e+01,2.300000000000000100e-01
2.213600608000000136e+00,-5.295933369999999973e-01,5.060615479015586615e-01,1.000000000000000048e-04,4.261236472041881029e+01,2.500000000000000000e-01
9.327636729999999599e-01,4.069681829999999834e-01,5.208702429311462545e-01,1.000000000000000048e-04,4.229532932339981244e+01,2.300000000000000100e-01
1.743234563999999986e+00,7.359057650000000450e-01,5.142871561905324462e-01,1.000000000000000048e-04,4.246836644818154127e+01,2.200000000000000011e-01
-2.812965047179586175e+00,5.929882829999999494e-01,4.955143053208372894e-01,1.000000000000000048e-04,4.244921574028477096e+01,2.399999999999999911e-01
-2.977583888179586413e+00,-1.437144969999999966e-01,4.958026654776643838e-01,1.000000000000000048e-04,4.225247998160219254e+01,2.700000000000000178e-01
2.276564226000000080e+00,-5.051809499999999620e-01,4.966343314246661755e-01,1.000000000000000048e-04,4.276787865687312262e+01,2.800000000000000266e-01
2.667465888000000174e+00,-6.260506340000000502e-01,4.989598645169901481e-01,1.000000000000000048e-04,4.248493605779061966e+01,2.600000000000000089e-01
1.041358068000000081e+00,8.506585119999999778e-01,4.993807553586941950e-01,1.000000000000000048e-04,4.240791514447973043e+01,2.300000000000000100e-01
2.499030525999999863e+00,-9.629979760000000333e-01,4.957556832443246186e-01,1.000000000000000048e-04,4.210157128126568438e+01,3.099999999999999978e-01
1.334501084000000004e+00,-7.340646360000000481e-01,5.203560258091706192e-01,1.000000000000000048e-04,4.234915715143479531e+01,2.300000000000000100e-01
2.196979751999999841e+00,-5.334639439999999677e-01,5.042522696743760857e-01,1.000000000000000048e-04,4.197781556837155392e+01,2.500000000000000000e-01
1.355624495999999901e+00,4.654212710000000253e-01,5.163587771205886412e-01,1.000000000000000048e-04,4.231097565266282601e+01,2.200000000000000011e-01
1.445572062999999963e+00,-8.838676049999999451e-01,5.210656943212399472e-01,1.000000000000000048e-04,4.263347172816656894e+01,3.499999999999999778e-01
7.246286520000000397e-01,-7.843460709999999780e-01,5.090217720094847298e-01,1.000000000000000048e-04,4.227488121653460951e+01,3.099999999999999978e-01
2.179180484000000195e+00,1.312341798999999920e+00,5.016481933550658301e-01,1.000000000000000048e-04,4.251071549017348161e+01,2.200000000000000011e-01
7.669035910000000511e-01,2.329377750000000136e-01,5.204620476662065176e-01,1.000000000000000048e-04,4.241932571298683996e+01,2.500000000000000000e-01
2.984436029999999906e+00,4.410184999999999800e-01,5.165685322109241362e-01,1.000000000000000048e-04,4.234405688636035592e+01,2.999999999999999889e-01
1.808380389999999949e+00,-5.931087419999999666e-01,5.103421688851514926e-01,1.000000000000000048e-04,4.235680793468437599e+01,2.200000000000000011e-01
2.378694356000000010e+00,6.891218140000000547e-01,4.992607396395030150e-01,1.000000000000000048e-04,4.256512962162150870e+01,3.099999999999999978e-01
-1.027171309179585990e+00,8.938185499999999895e-01,5.161457104316908850e-01,1.000000000000000048e-04,4.227779612180777491e+01,3.099999999999999978e-01
2.177629786999999872e+00,1.088514723000000073e+00,5.070661685583570666e-01,1.000000000000000048e-04,4.216346855415388006e+01,2.500000000000000000e-01
2.446904437000000154e+00,4.505237189999999892e-01,5.109717951150292148e-01,1.000000000000000048e-04,4.251775260907636778e+01,2.700000000000000178e-01
-2.745075452179586151e+00,5.290477460000000409e-01,4.933441021330602361e-01,1.000000000000000048e-04,4.236399521139290414e+01,1.600000000000000033e-01
3.470126559999999749e-01,6.971221490000000243e-01,5.185990270957403503e-01,1.000000000000000048e-04,4.223969874174925820e+01,2.399999999999999911e-01
-2.027672372179586624e+00,-3.494576850000000179e-01,5.134206495298077044e-01,1.000000000000000048e-04,4.220222293309387140e+01,8.999999999999999667e-02
-2.243457714179585949e+00,5.735296930000000071e-01,5.096284776190835863e-01,1.000000000000000048e-04,4.219860907700176966e+01,8.000000000000000167e-02
-1.741234469179586242e+00,8.281857209999999858e-01,5.014272520337568206e-01,1.000000000000000048e-04,4.235801534481134922e+01,1.000000000000000056e-01
-1.661352162179586145e+00,7.473004210000000480e-01,5.030565180461961106e-01,1.000000000000000048e-04,4.237241130049101656e+01,1.100000000000000006e-01
-1.046494641179585905e+00,9.839422859999999993e-01,4.918001787434773675e-01,1.000000000000000048e-04,4.237434646542303796e+01,1.600000000000000033e-01
-1.357076630179586019e+00,8.591991679999999576e-01,5.088579151947223433e-01,1.000000000000000048e-04,4.210789077404038494e+01,1.300000000000000044e-01
-1.489161381179585852e+00,8.733460579999999807e-01,5.137999532847326023e-01,1.000000000000000048e-04,4.219352551016920927e+01,8.999999999999999667e-02
2.602874990000000111e+00,9.865781270000000269e-01,5.143196446176845349e-01,1.000000000000000048e-04,4.221100054726496609e+01,2.099999999999999922e-01
6.278667869999999818e-01,1.201237362999999947e+00,5.212871284060109911e-01,1.000000000000000048e-04,4.214280961639733647e+01,1.799999999999999933e-01
1.901542252999999905e+00,5.984822429999999693e-01,5.183366856021189850e-01,1.000000000000000048e-04,4.252265065795512555e+01,1.700000000000000122e-01
9.102462569999999475e-01,3.833152009999999943e-01,5.205807315401576041e-01,1.000000000000000048e-04,4.229699193802086654e+01,2.200000000000000011e-01
4.621894529999999723e-01,4.355896570000000190e-01,5.041336165286474102e-01,1.000000000000000048e-04,4.261082772704508415e+01,2.399999999999999911e-01
1.731299603999999936e+00,-9.087058740000000245e-01,5.132512040439776158e-01,1.000000000000000048e-04,4.210394754804003270e+01,2.200000000000000011e-01
2.307708166999999921e+00,-3.555306579999999994e-01,5.095696151897044501e-01,1.000000000000000048e-04,4.219880677998264673e+01,1.700000000000000122e-01
2.284880370000000216e+00,-4.942566800000000038e-01,4.956873752150732226e-01,1.000000000000000048e-04,4.190944674999694541e+01,2.200000000000000011e-01
-2.729734007179586364e+00,-4.808223520000000084e-01,5.186180594901310670e-01,1.000000000000000048e-04,4.246906236932264278e+01,2.300000000000000100e-01
-2.728058296179586062e+00,8.181749999999999856e-01,5.044334296478387714e-01,1.000000000000000048e-04,4.260150468756395270e+01,2.200000000000000011e-01
1.539636916000000078e+00,-6.652033799999999830e-02,5.135942817465521948e-01,1.000000000000000048e-04,4.214553419438531989e+01,2.999999999999999889e-01
2.937620158000000092e+00,7.383732379999999873e-01,5.023650365623710812e-01,1.000000000000000048e-04,4.214739472519541863e+01,2.200000000000000011e-01
2.624384770999999894e+00,8.339422930000000012e-01,5.080498028078301864e-01,1.000000000000000048e-04,4.255502287369977665e+01,1.799999999999999933e-01
-2.594453966179586235e+00,1.052220571999999965e+00,5.148678182678509962e-01,1.000000000000000048e-04,4.216336438427148892e+01,1.900000000000000022e-01
-2.462277587179586114e+00,1.356652656000000068e+00,5.140789785890915731e-01,1.000000000000000048e-04,4.222584368412373834e+01,2.099999999999999922e-01
2.730654787000000194e+00,8.741146779999999783e-01,5.135372847391508344e-01,1.000000000000000048e-04,4.230292038581093550e+01,1.900000000000000022e-01
1.629450376000000089e+00,2.068732899999999875e-01,5.057714974546765330e-01,1.000000000000000048e-04,4.219257571892256919e+01,2.899999999999999800e-01
1.142160569999999958e-01,6.858846720000000285e-01,5.099801302973883121e-01,1.000000000000000048e-04,4.209731135327894691e+01,1.799999999999999933e-01
-4.383495451795864639e-01,9.198101690000000108e-01,4.975631443049997049e-01,1.000000000000000048e-04,4.244260810951629992e+01,2.600000000000000089e-01
1.001193188000000012e+00,8.013430529999999719e-01,5.154954118765162630e-01,1.000000000000000048e-04,4.257933230192834628e+01,1.799999999999999933e-01
-8.746654461795859703e-01,7.515327899999999506e-01,4.930794198935086747e-01,1.000000000000000048e-04,4.218166049615928870e+01,2.600000000000000089e-01
1.319662558000000097e+00,1.070340469999999933e-01,5.171253937290831715e-01,1.000000000000000048e-04,4.233488562828495105e+01,2.399999999999999911e-01
1.726021762000000015e+00,-6.377623550000000030e-01,5.030165746701038554e-01,1.000000000000000048e-04,4.221825167155512304e+01,2.600000000000000089e-01
-2.754219137179586330e+00,-9.277945709999999568e-01,5.132021792075296407e-01,1.000000000000000048e-04,4.280125085158663012e+01,3.699999999999999956e-01
1.691977534999999921e+00,1.434503057999999998e+00,5.146766606373476272e-01,1.000000000000000048e-04,4.268274116818400898e+01,2.099999999999999922e-01
8.272144390000000236e-01,-4.428667319999999852e-01,5.169334804971528197e-01,1.000000000000000048e-04,4.285961924993841166e+01,2.300000000000000100e-01
-2.185785446179585811e+00,4.040310730000000183e-01,4.955004099039674870e-01,1.000000000000000048e-04,4.216951357996904193e+01,1.799999999999999933e-01
2.680919170000000129e+00,5.929394510000000063e-01,4.929565606538579559e-01,1.000000000000000048e-04,4.215495941675310831e+01,1.799999999999999933e-01
2.468528393999999793e+00,-3.885411739999999892e-01,5.146652033252403502e-01,1.000000000000000048e-04,4.240943788825290284e+01,1.700000000000000122e-01
1.824819092000000031e+00,-9.187566499999999525e-01,5.085314068201645110e-01,1.000000000000000048e-04,4.227602957115757931e+01,2.099999999999999922e-01
2.252174823999999909e+00,-3.842870769999999769e-01,5.007601425360583836e-01,1.000000000000000048e-04,4.228036931005166110e+01,2.000000000000000111e-01
2.889947965000000174e+00,3.184077100000000105e-01,4.997545305462720577e-01,1.000000000000000048e-04,4.205173655660514243e+01,2.000000000000000111e-01
-2.666621499179586241e+00,1.790417820000000104e-01,4.957169102964915641e-01,1.000000000000000048e-04,4.213777311638171597e+01,1.900000000000000022e-01
2.353249148999999818e+00,9.653535600000000549e-01,4.979819702831238537e-01,1.000000000000000048e-04,4.220320220823907675e+01,1.799999999999999933e-01
1.765869402999999949e+00,9.288119630000000182e-01,5.003876096303288001e-01,1.000000000000000048e-04,4.191931823151174541e+01,3.599999999999999867e-01
2.011122450999999867e+00,-1.257182417000000108e+00,5.064641383200449987e-01,1.000000000000000048e-04,4.241354338537279745e+01,1.799999999999999933e-01
1.931340567999999980e+00,-5.991437729999999906e-01,5.225893125160665509e-01,1.000000000000000048e-04,4.210946816506447732e+01,2.000000000000000111e-01
2.835991935000000019e+00,-7.109363199999999550e-01,5.136778823699170715e-01,1.000000000000000048e-04,4.221559194727730357e+01,1.900000000000000022e-01
-2.852520529179586095e+00,8.667541789999999580e-01,5.052161083167205913e-01,1.000000000000000048e-04,4.213722959522063150e+01,1.799999999999999933e-01
-2.458251249179586040e+00,-2.796002539999999925e-01,5.132827176709080508e-01,1.000000000000000048e-04,4.285513893770661298e+01,3.300000000000000155e-01
1.596378985000000084e+00,5.944120290000000084e-01,5.035321080386325754e-01,1.000000000000000048e-04,4.268395101492379951e+01,1.900000000000000022e-01
-2.484014184179586415e+00,8.016642189999999557e-01,4.912316821138786871e-01,1.000000000000000048e-04,4.242275249662375813e+01,1.900000000000000022e-01
-2.431723812179586108e+00,1.223750555999999934e+00,5.146910039921792634e-01,1.000000000000000048e-04,4.249904339816645660e+01,1.700000000000000122e-01
-2.378598255179586118e+00,1.197731727999999940e+00,5.078240741943276237e-01,1.000000000000000048e-04,4.246727532515099313e+01,1.900000000000000022e-01
1.739429998000000088e+00,2.494783479999999887e-01,5.084451009698316426e-01,1.000000000000000048e-04,4.215024789475201317e+01,3.099999999999999978e-01
-2.377494960179586059e+00,9.562939099999999693e-01,4.914044665850956228e-01,1.000000000000000048e-04,4.229375087581503578e+01,1.799999999999999933e-01
-9.021677017958662503e-02,6.959221140000000361e-01,5.215033221710929645e-01,1.000000000000000048e-04,4.269230736013766148e+01,3.499999999999999778e-01
2.021336933000000169e+00,8.510789659999999923e-01,5.075828594330684673e-01,1.000000000000000048e-04,4.190520353590309099e+01,2.800000000000000266e-01
2.573899695999999793e+00,-5.247218830000000001e-01,5.138090886383626099e-01,1.000000000000000048e-04,4.217751179546120710e+01,1.700000000000000122e-01
2.346925623000000183e+00,-7.496726200000000118e-01,4.956419232047393209e-01,1.000000000000000048e-04,4.207118278063970251e+01,1.700000000000000122e-01
2.487812089999999809e+00,-1.095252646999999913e+00,5.111675882523876169e-01,1.000000000000000048e-04,4.220104021650579540e+01,1.600000000000000033e-01
2.543651012999999850e+00,-2.555195920000000176e-01,5.105644793097523504e-01,1.000000000000000048e-04,4.259718064124535886e+01,1.900000000000000022e-01
2.457771880000000131e+00,-4.383329890000000062e-01,5.144122764395044900e-01,1.000000000000000048e-04,4.231275875355633787e+01,1.700000000000000122e-01
-2.749033603179586116e+00,5.277091179999999770e-01,4.983814873138141532e-01,1.000000000000000048e-04,4.242906049806029500e+01,1.799999999999999933e-01
-3.021446786179586397e+00,6.716344440000000526e-01,4.993837428909675413e-01,1.000000000000000048e-04,4.223522215108548750e+01,1.799999999999999933e-01
2.390319493999999878e+00,1.427533710000000067e+00,4.946683409236214413e-01,1.000000000000000048e-04,4.237580500356678215e+01,1.799999999999999933e-01
-2.060955814179585843e+00,9.020563839999999889e-01,5.078891228326618545e-01,1.000000000000000048e-04,4.192324062910257965e+01,1.799999999999999933e-01
-1.552222439179586466e+00,1.270289940999999923e+00,5.182516426899270723e-01,1.000000000000000048e-04,4.215905012515592176e+01,1.600000000000000033e-01
2.491619029000000207e+00,8.136863199999999630e-01,5.188413863597289843e-01,1.000000000000000048e-04,4.258935264740309634e+01,1.900000000000000022e-01
2.336721559999999975e+00,1.049041915000000103e+00,5.165853997685641019e-01,1.000000000000000048e-04,4.260750523697955572e+01,1.700000000000000122e-01
1.201678150000000000e+00,3.331923239999999842e-01,4.980238515743504735e-01,1.000000000000000048e-04,4.236113373465259002e+01,1.900000000000000022e-01
-3.811893421795859993e-01,1.284308205000000092e+00,4.936358147661359386e-01,1.000000000000000048e-04,4.225451219556688898e+01,2.000000000000000111e-01
5.879284790000000038e-01,8.245620540000000442e-01,5.051645797632089430e-01,1.000000000000000048e-04,4.228533959880132187e+01,1.700000000000000122e-01
-3.584264691795864266e-01,1.112498557000000110e+00,5.048089999551763629e-01,1.000000000000000048e-04,4.210054632757675108e+01,2.000000000000000111e-01
-1.085925731795862603e-01,9.806715139999999664e-01,5.208224686207223453e-01,1.000000000000000048e-04,4.246278920983396432e+01,1.799999999999999933e-01
1.189812670000000017e+00,8.219376269999999485e-01,4.976716793280917539e-01,1.000000000000000048e-04,4.237357405677556699e+01,1.700000000000000122e-01
2.896526737999999934e+00,1.048685354999999930e+00,4.960808865947174962e-01,1.000000000000000048e-04,4.205772152526386520e+01,1.700000000000000122e-01
1.187793541000000008e+00,1.533334508000000040e+00,4.927030021446250352e-01,1.000000000000000048e-04,4.251122585527900100e+01,1.700000000000000122e-01
8.784667550000000436e-01,-5.840451829999999678e-01,5.268208499847484294e-01,1.000000000000000048e-04,4.261697910587537308e+01,2.099999999999999922e-01
-2.025603206179586557e+00,1.419180792999999996e+00,5.034506572557029269e-01,1.000000000000000048e-04,4.232173512016421313e+01,1.799999999999999933e-01
1.097118803000000087e+00,1.428367445999999985e+00,5.171204100281359128e-01,1.000000000000000048e-04,4.226888609962492183e+01,1.799999999999999933e-01
-1.923054671795858539e-01,8.268694330000000425e-01,5.065304592219195268e-01,1.000000000000000048e-04,4.228787180666942902e+01,2.000000000000000111e-01
1.974446608000000047e+00,-1.250497374000000050e+00,5.145773204715340388e-01,1.000000000000000048e-04,4.252783376882737798e+01,2.000000000000000111e-01
1.714471547999999901e+00,-4.841846819999999774e-01,5.156659573962010246e-01,1.000000000000000048e-04,4.225937092162030240e+01,1.700000000000000122e-01
1.635209042000000057e+00,-1.499680316999999929e+00,4.986927487770842493e-01,1.000000000000000048e-04,4.213244619808981639e+01,1.900000000000000022e-01
-3.085878636179586021e+00,-8.156760069999999807e-01,5.008924197718096494e-01,1.000000000000000048e-04,4.223755656015809024e+01,1.799999999999999933e-01
1.583648911999999909e+00,-4.051170720000000225e-01,5.149031989919878871e-01,1.000000000000000048e-04,4.227312971539894448e+01,1.700000000000000122e-01
3.116144028999999982e+00,-6.233618589999999626e-01,5.169268114598062347e-01,1.000000000000000048e-04,4.234121863909361139e+01,2.000000000000000111e-01
2.580853791000000008e+00,2.126606490000000071e-01,5.075884568507882388e-01,1.000000000000000048e-04,4.209452811720704091e+01,2.200000000000000011e-01
2.791070910999999821e+00,-3.375241600000000036e-02,5.008471612600704503e-01,1.000000000000000048e-04,4.267960451298367275e+01,2.999999999999999889e-01
2.126664376999999995e+00,-4.630033630000000011e-01,5.042203657448112164e-01,1.000000000000000048e-04,4.228220578480673453e+01,1.799999999999999933e-01
1.264160699999999915e+00,6.289837299999999631e-01,5.168708966129649252e-01,1.000000000000000048e-04,4.237985617290937057e+01,1.900000000000000022e-01
2.608192676999999904e+00,3.485897410000000085e-01,5.151951205571505543e-01,1.000000000000000048e-04,4.243700619205350222e+01,2.200000000000000011e-01
9.029304540000000490e-01,-5.888661819999999603e-01,5.006853057015814290e-01,1.000000000000000048e-04,4.189336730530814634e+01,1.700000000000000122e-01
2.675488564000000125e+00,-1.029758079000000048e+00,5.153122593255354822e-01,1.000000000000000048e-04,4.196873345232718577e+01,1.700000000000000122e-01
9.979371630000000160e-01,-7.076351440000000492e-01,5.084834418866746031e-01,1.000000000000000048e-04,4.200537005197112705e+01,2.000000000000000111e-01
2.816578843999999915e+00,-6.539336449999999523e-01,4.951355209273673452e-01,1.000000000000000048e-04,4.228761242591480141e+01,1.799999999999999933e-01
-2.809922836179586270e+00,-1.219770695000000016e+00,5.006291772368174353e-01,1.000000000000000048e-04,4.191800560670255749e+01,1.900000000000000022e-01
2.816545334000000178e+00,5.529564630000000092e-01,5.132229108410009122e-01,1.000000000000000048e-04,4.218010605920466816e+01,1.700000000000000122e-01
2.293480610000000031e+00,1.430186356999999964e+00,5.036949536329664578e-01,1.000000000000000048e-04,4.223721181997333929e+01,1.700000000000000122e-01
1.900048696999999898e+00,-6.695785770000000081e-01,5.203515449542914784e-01,1.000000000000000048e-04,4.243707425026020985e+01,1.900000000000000022e-01
2.402973735999999860e+00,-4.293495210000000117e-01,5.027306468736947309e-01,1.000000000000000048e-04,4.238891487276531223e+01,2.200000000000000011e-01
3.123677135999999965e+00,5.597831170000000522e-01,5.027980661722013522e-01,1.000000000000000048e-04,4.219731185098143555e+01,1.700000000000000122e-01
1.945616433999999950e+00,5.533621010000000506e-01,5.014383392303203291e-01,1.000000000000000048e-04,4.222119921021670308e+01,1.700000000000000122e-01
-2.603733431795864917e-01,9.574212720000000454e-01,5.184779252505635760e-01,1.000000000000000048e-04,4.261960152253312373e+01,3.800000000000000044e-01
-1.216980031795857897e-01,3.678993019999999836e-01,5.164604083926749301e-01,1.000000000000000048e-04,4.232959821060292427e+01,1.900000000000000022e-01
2.921580513999999962e+00,4.108407450000000072e-01,5.047062220682076994e-01,1.000000000000000048e-04,4.219221964275178038e+01,1.900000000000000022e-01
-2.362072097179586105e+00,1.187667234999999932e+00,4.958292418577887606e-01,1.000000000000000048e-04,4.206140824681573775e+01,1.900000000000000022e-01
-2.337569846179586186e+00,3.756736769999999837e-01,5.027950805934731093e-01,1.000000000000000048e-04,4.217023973176565477e+01,1.700000000000000122e-01
-1.563533060179586265e+00,8.298117619999999528e-01,4.950797348315143509e-01,1.000000000000000048e-04,4.217302320186249887e+01,3.300000000000000155e-01
-7.514201781795861734e-01,8.148208550000000105e-01,5.070711274833301641e-01,1.000000000000000048e-04,4.208298110201629783e+01,2.099999999999999922e-01
-2.172991007179586376e+00,1.278564443000000050e+00,5.145985026662036610e-01,1.000000000000000048e-04,4.236282680653228994e+01,2.000000000000000111e-01
1.004972830999999900e+00,3.284388160000000223e-01,5.205601666863735044e-01,1.000000000000000048e-04,4.275742227529602957e+01,1.799999999999999933e-01
-1.050913719179586536e+00,7.925907810000000220e-01,4.920854471325804003e-01,1.000000000000000048e-04,4.207402391960498278e+01,2.899999999999999800e-01
1.174967896000000067e+00,-7.032179160000000540e-01,5.169793667923301417e-01,1.000000000000000048e-04,4.214336516832491952e+01,1.799999999999999933e-01
2.063754460999999818e+00,1.158898511999999936e+00,5.021318727636434609e-01,1.000000000000000048e-04,4.246852194471209430e+01,1.799999999999999933e-01
1.355273345999999934e+00,1.034050206000000083e+00,5.091116459850124620e-01,1.000000000000000048e-04,4.253559304354946136e+01,1.700000000000000122e-01
1.878516419999999965e+00,-5.891517790000000421e-01,5.236638157659088133e-01,1.000000000000000048e-04,4.243929711262066462e+01,1.799999999999999933e-01
3.042909537999999969e+00,4.914006550000000195e-01,5.040929767032940045e-01,1.000000000000000048e-04,4.225659446736883496e+01,1.700000000000000122e-01
-2.192876876179585821e+00,7.571444160000000423e-01,5.055579010713615595e-01,1.000000000000000048e-04,4.238737580472396616e+01,2.099999999999999922e-01
-1.274335216179586006e+00,7.393028099999999769e-01,4.991474876415842310e-01,1.000000000000000048e-04,4.225948044914785839e+01,3.599999999999999867e-01
3.513372269999999742e-01,1.023017258000000096e+00,5.177049994679943090e-01,1.000000000000000048e-04,4.228556797200540274e+01,1.799999999999999933e-01
-2.045215730179585911e+00,1.346705497999999945e+00,5.111731450687533318e-01,1.000000000000000048e-04,4.245182117791147647e+01,1.799999999999999933e-01
2.622131355000000053e+00,-2.378520580000000051e-01,5.071873048605317624e-01,1.000000000000000048e-04,4.216168453303809827e+01,2.099999999999999922e-01
1.499565373000000035e+00,-5.833961840000000398e-01,5.239676670774862099e-01,1.000000000000000048e-04,4.219136547555640249e+01,1.199999999999999956e-01
9.453780529999999960e-01,-3.014802610000000271e-01,5.113362632680287234e-01,1.000000000000000048e-04,4.231754859691984905e+01,1.799999999999999933e-01
1.003030738000000088e+00,-6.679498139999999751e-01,5.045849441917535927e-01,1.000000000000000048e-04,4.210073395625445869e+01,1.799999999999999933e-01
-2.858957567179586157e+00,-2.878047879999999781e-01,5.172842454527843969e-01,1.000000000000000048e-04,4.229345625521003171e+01,1.300000000000000044e-01
-2.653655062179586022e+00,5.464710109999999510e-01,4.945911324103500206e-01,1.000000000000000048e-04,4.233634330603995721e+01,1.300000000000000044e-01
-1.077960778179586576e+00,1.305029642999999906e+00,5.174398689340615753e-01,1.000000000000000048e-04,4.238913488714823785e+01,1.100000000000000006e-01
2.996279555000000094e+00,-9.792432829999999644e-01,5.098106478557324905e-01,1.000000000000000048e-04,4.272273004820767994e+01,1.600000000000000033e-01
1.369802210000000131e-01,9.686457469999999459e-01,4.958647753760325738e-01,1.000000000000000048e-04,4.231194321554536941e+01,1.000000000000000056e-01
-7.405109531795863731e-01,5.344760480000000369e-01,5.174008361919797405e-01,1.000000000000000048e-04,4.260583999410835787e+01,1.900000000000000022e-01
-1.986221938179586033e+00,3.858849830000000147e-01,4.912295957622456744e-01,1.000000000000000048e-04,4.212717711973817103e+01,2.600000000000000089e-01
-1.660796187179585992e+00,1.337702168000000080e+00,4.921968314853040205e-01,1.000000000000000048e-04,4.224106039294424875e+01,1.300000000000000044e-01
-1.008319883179586540e+00,9.035811799999999838e-01,4.930853524015654799e-01,1.000000000000000048e-04,4.220949422427523245e+01,1.799999999999999933e-01
-2.859227719179586291e+00,-3.383984709999999785e-01,5.044025368328357573e-01,1.000000000000000048e-04,4.230349451944078965e+01,1.799999999999999933e-01
-3.008470453179586279e+00,-9.028608339999999455e-01,5.134351179150475897e-01,1.000000000000000048e-04,4.248145520837886124e+01,1.300000000000000044e-01
2.720373041999999852e+00,-1.026937239000000002e+00,5.156630873692171768e-01,1.000000000000000048e-04,4.236606267995511388e+01,1.100000000000000006e-01
1.131806215999999976e+00,-1.312634394000000038e+00,5.178591637634515354e-01,1.000000000000000048e-04,4.233104767073380970e+01,1.199999999999999956e-01
2.377785852000000144e+00,-1.071983155000000076e+00,5.104576168815246895e-01,1.000000000000000048e-04,4.221552597788719652e+01,1.000000000000000056e-01
1.262497049000000038e+00,-7.576738640000000302e-01,5.010080443406466078e-01,1.000000000000000048e-04,4.234812329084198268e+01,1.900000000000000022e-01
-2.150308364179585929e+00,9.473204419999999848e-01,5.127008816911264866e-01,1.000000000000000048e-04,4.226111750221181751e+01,1.499999999999999944e-01
-2.672281993179586035e+00,8.065802300000000091e-01,5.157903193656332430e-01,1.000000000000000048e-04,4.240856319339063418e+01,1.400000000000000133e-01
-2.768228307179586345e+00,1.501965110000000048e-01,5.067018406855336998e-01,1.000000000000000048e-04,4.244786097178989337e+01,1.300000000000000044e-01
2.456608391000000058e+00,-6.815239560000000418e-01,5.164025739198978560e-01,1.000000000000000048e-04,4.246459024916464386e+01,2.899999999999999800e-01
-1.538735822179586599e+00,7.895792169999999999e-01,5.030034813189632192e-01,1.000000000000000048e-04,4.226011725315201062e+01,1.600000000000000033e-01
-6.811844061795859773e-01,-7.989239399999999991e-01,5.004772580190768316e-01,1.000000000000000048e-04,4.226703652550995827e+01,2.300000000000000100e-01
-9.881069141795864041e-01,9.266642769999999807e-01,4.983578210921471019e-01,1.000000000000000048e-04,4.219287753130871721e+01,2.500000000000000000e-01
9.533575850000000074e-01,-5.868324440000000086e-01,5.024413298722507637e-01,1.000000000000000048e-04,4.221382158418396102e+01,1.199999999999999956e-01
1.194530383000000029e+00,-8.514353350000000153e-01,5.031708694945404847e-01,1.000000000000000048e-04,4.208050549284448749e+01,1.100000000000000006e-01
-1.550854682179585886e+00,1.341867675000000037e+00,5.183951107087190202e-01,1.000000000000000048e-04,4.207670639501198906e+01,3.599999999999999867e-01
2.328991532999999947e+00,-1.085498080000000032e+00,5.232678491202582549e-01,1.000000000000000048e-04,4.229924659251072683e+01,1.199999999999999956e-01
3.099662444999999877e+00,-8.173274409999999879e-01,4.975373146550485792e-01,1.000000000000000048e-04,4.241766394367403592e+01,1.300000000000000044e-01
1.008677688999999988e+00,-7.224949280000000362e-01,5.065934039669039990e-01,1.000000000000000048e-04,4.249584759741409812e+01,1.199999999999999956e-01
1.116317643999999998e+00,-8.188746820000000204e-01,5.027301496723515228e-01,1.000000000000000048e-04,4.215225280493764615e+01,1.499999999999999944e-01
1.368634144999999913e+00,-9.746537960000000167e-01,5.180343448874993317e-01,1.000000000000000048e-04,4.224512263880057361e+01,2.200000000000000011e-01
1.284766933000000000e+00,-9.049604909999999780e-01,5.100702474969458500e-01,1.000000000000000048e-04,4.201166675756311264e+01,1.300000000000000044e-01
2.840707745000000006e+00,-9.874777999999999611e-01,5.124366513178300053e-01,1.000000000000000048e-04,4.256102794309888537e+01,1.199999999999999956e-01
1.164831654000000105e+00,-8.361433499999999519e-01,5.061323522105141137e-01,1.000000000000000048e-04,4.230165002487058246e+01,1.600000000000000033e-01
9.274529849999999520e-01,-5.648102149999999488e-01,5.140958935108070893e-01,1.000000000000000048e-04,4.250101322628753309e+01,2.200000000000000011e-01
1.803806121999999901e+00,-1.051757271000000049e+00,4.994863146750461169e-01,1.000000000000000048e-04,4.225854180432909857e+01,2.200000000000000011e-01
1.910407339000000038e+00,-1.096340147000000043e+00,5.081356715656950573e-01,1.000000000000000048e-04,4.229585147107155052e+01,1.300000000000000044e-01
-2.994395329179586174e+00,-6.874333790000000111e-01,5.171130827546766007e-01,1.000000000000000048e-04,4.221036075378506069e+01,1.600000000000000033e-01
2.004169926999999962e+00,-1.114377941999999955e+00,5.210408287044403508e-01,1.000000000000000048e-04,4.248884612726656940e+01,2.099999999999999922e-01
2.993884073999999895e+00,-9.067153500000000310e-01,5.191651782347745936e-01,1.000000000000000048e-04,4.237202696651098677e+01,2.000000000000000111e-01
2.896584697999999847e+00,-6.981149509999999836e-01,5.196004459582888035e-01,1.000000000000000048e-04,4.225768760817029346e+01,2.000000000000000111e-01
2.644964143999999795e+00,-1.038456438999999953e+00,5.212797117873728681e-01,1.000000000000000048e-04,4.225556644907635473e+01,2.500000000000000000e-01
1.395029569000000080e+00,-9.673563530000000021e-01,5.212086038535095334e-01,1.000000000000000048e-04,4.211472577759397495e+01,2.200000000000000011e-01
1.133893306999999906e+00,-8.234022290000000410e-01,5.180888339139224641e-01,1.000000000000000048e-04,4.254129356539895923e+01,1.199999999999999956e-01
9.542908199999999841e-01,-6.210129070000000029e-01,5.231499982120424441e-01,1.000000000000000048e-04,4.242552720490860452e+01,1.400000000000000133e-01
1.112357503999999997e+00,-7.717409769999999947e-01,5.186712943444293789e-01,1.000000000000000048e-04,4.246809617915781843e+01,1.400000000000000133e-01
1.392129267000000059e+00,-9.489503049999999940e-01,5.077591253353597178e-01,1.000000000000000048e-04,4.233777763303997688e+01,1.100000000000000006e-01
3.104633763999999907e+00,-8.563587980000000321e-01,5.006179682812814669e-01,1.000000000000000048e-04,4.216046702626898934e+01,1.199999999999999956e-01
-1.581672989179586430e+00,-6.726275419999999672e-01,5.123475123120078134e-01,1.000000000000000048e-04,4.220354353352261967e+01,2.000000000000000111e-01
8.758714749999999549e-01,-5.394949780000000139e-01,5.121188950457891131e-01,1.000000000000000048e-04,4.240479332983747440e+01,1.199999999999999956e-01
1.027821937999999991e+00,-6.897361509999999640e-01,5.009477620862468061e-01,1.000000000000000048e-04,4.215858110259910774e+01,1.499999999999999944e-01
8.011105990000000343e-01,-4.568120419999999737e-01,5.038081661823603508e-01,1.000000000000000048e-04,4.232243587610943791e+01,1.499999999999999944e-01
8.044453879999999835e-01,-4.591503659999999765e-01,5.124155125463831784e-01,1.000000000000000048e-04,4.223871632891893313e+01,1.100000000000000006e-01
8.290542589999999601e-01,-4.498624509999999965e-01,5.011283990741868255e-01,1.000000000000000048e-04,4.218410548338901833e+01,1.199999999999999956e-01
2.306908324000000121e+00,-1.093655438999999951e+00,4.992728452737325018e-01,1.000000000000000048e-04,4.223947245477610579e+01,1.300000000000000044e-01
-3.090495873179586184e+00,-7.974218849999999970e-01,5.114806193548477875e-01,1.000000000000000048e-04,4.234465671361387251e+01,1.300000000000000044e-01
2.850739061000000074e+00,-9.724982730000000242e-01,5.081580974991060096e-01,1.000000000000000048e-04,4.225915647414024079e+01,1.100000000000000006e-01
1.925211972000000049e+00,-1.067349442999999898e+00,5.060101819662512490e-01,1.000000000000000048e-04,4.206625854249407581e+01,1.600000000000000033e-01
3.010706126000000094e+00,-9.149326070000000088e-01,5.184718740092251199e-01,1.000000000000000048e-04,4.252604909298947433e+01,1.199999999999999956e-01
1.754869720000000077e+00,-1.052947148999999971e+00,5.082263486351976667e-01,1.000000000000000048e-04,4.227418456910938005e+01,1.300000000000000044e-01
3.028086770999999899e+00,-8.725603690000000023e-01,5.115791091856256578e-01,1.000000000000000048e-04,4.240152454895017087e+01,1.199999999999999956e-01
2.780301081000000174e+00,-1.010780400000000023e+00,4.963527996466163827e-01,1.000000000000000048e-04,4.214576774633273715e+01,1.700000000000000122e-01
3.096540631999999960e+00,-8.261897350000000362e-01,5.033557121590015448e-01,1.000000000000000048e-04,4.233364865324757886e+01,1.100000000000000006e-01
-3.043596368179586342e+00,-7.656326449999999451e-01,5.015652756850808025e-01,1.000000000000000048e-04,4.245645259606965993e+01,1.100000000000000006e-01
2.593403560000000052e+00,-1.068240442000000012e+00,5.060380233317169907e-01,1.000000000000000048e-04,4.234225868733434339e+01,1.199999999999999956e-01
1.277663320999999907e+00,-8.910532270000000032e-01,5.018118391408088463e-01,1.000000000000000048e-04,4.254323271784879523e+01,1.499999999999999944e-01
8.729576639999999665e-01,-5.017517409999999733e-01,5.123236722829085377e-01,1.000000000000000048e-04,4.222777335054569647e+01,1.199999999999999956e-01
2.323316692000000128e+00,-1.072994334000000105e+00,5.100386192984762701e-01,1.000000000000000048e-04,4.233864935658878181e+01,1.400000000000000133e-01
-3.012222731179586166e+00,-7.219820959999999621e-01,5.124964083856198283e-01,1.000000000000000048e-04,4.237039502629852450e+01,1.199999999999999956e-01
2.306010604999999991e+00,-1.110345181000000014e+00,5.161989159754807321e-01,1.000000000000000048e-04,4.248300414424097227e+01,1.100000000000000006e-01
2.437557496999999795e+00,-1.097151527000000071e+00,5.149797225869461315e-01,1.000000000000000048e-04,4.226216356965927190e+01,1.100000000000000006e-01
1.098420291999999909e+00,-7.444727049999999569e-01,5.080714415445843901e-01,1.000000000000000048e-04,4.231590159541846674e+01,1.300000000000000044e-01
8.241628739999999897e-01,-4.611620249999999754e-01,5.136322078707111771e-01,1.000000000000000048e-04,4.224285060940937342e+01,1.400000000000000133e-01
1.017317494999999905e+00,-7.027905669999999771e-01,5.052704546672832642e-01,1.000000000000000048e-04,4.227434919661059354e+01,1.199999999999999956e-01
2.728679550999999925e+00,-1.007430967999999982e+00,5.134717445673946390e-01,1.000000000000000048e-04,4.229153420568162858e+01,1.100000000000000006e-01
2.848837458999999850e+00,-9.622339979999999793e-01,4.986854633041180040e-01,1.000000000000000048e-04,4.212839920533288307e+01,1.199999999999999956e-01
-3.065525731179586266e+00,-7.207210450000000046e-01,4.988640931261520972e-01,1.000000000000000048e-04,4.229361831967495533e+01,1.199999999999999956e-01
1.103969978000000074e+00,-7.587182380000000448e-01,5.063344596335259684e-01,1.000000000000000048e-04,4.222602126948486045e+01,1.300000000000000044e-01
1.112034854000000017e+00,-7.675460100000000008e-01,5.231574305621604637e-01,1.000000000000000048e-04,4.223848779216360327e+01,1.199999999999999956e-01
2.373162053000000160e+00,-1.072487750000000073e+00,5.076298699082897325e-01,1.000000000000000048e-04,4.227229316437135509e+01,1.100000000000000006e-01
2.221583438000000132e+00,-1.096064289000000080e+00,5.231541115547493348e-01,1.000000000000000048e-04,4.239189544808947829e+01,1.199999999999999956e-01
2.775251189000000007e+00,-1.013244017000000108e+00,4.990030859417591280e-01,1.000000000000000048e-04,4.255371289526407708e+01,1.700000000000000122e-01
1.527128894000000070e+00,-9.963611940000000056e-01,4.997603644709938120e-01,1.000000000000000048e-04,4.240861209039779567e+01,1.400000000000000133e-01
-1.936135624179586401e+00,1.327891944000000102e+00,5.119287808431762787e-01,1.000000000000000048e-04,4.243313949626499237e+01,1.199999999999999956e-01
2.120951332999999828e+00,-1.112975437000000012e+00,5.123681610226198391e-01,1.000000000000000048e-04,4.260152716067909040e+01,1.600000000000000033e-01
2.950704906999999988e+00,-9.277153000000000205e-01,5.152106394028574954e-01,1.000000000000000048e-04,4.256852289797205913e+01,1.700000000000000122e-01
2.461302839000000020e+00,-1.064109841000000056e+00,5.053229089631321447e-01,1.000000000000000048e-04,4.230669132196161542e+01,1.499999999999999944e-01
1.687800213000000049e+00,-1.037844004000000098e+00,5.024366220474694167e-01,1.000000000000000048e-04,4.230007101783614587e+01,1.100000000000000006e-01
-3.069023128179586113e+00,-7.343218900000000327e-01,5.111755669434818738e-01,1.000000000000000048e-04,4.246263714957696322e+01,2.000000000000000111e-01
7.655655390000000171e-01,-3.825025819999999799e-01,5.058502035205012515e-01,1.000000000000000048e-04,4.223475982070583967e+01,1.300000000000000044e-01
-3.051736326179586012e+00,-7.690870560000000467e-01,5.078721809921662445e-01,1.000000000000000048e-04,4.247310694976490453e+01,1.499999999999999944e-01
-3.116938176179586240e+00,-7.920766919999999711e-01,5.124653558608036619e-01,1.000000000000000048e-04,4.214706818473842276e+01,1.100000000000000006e-01
1.020863690000000101e+00,-6.877910739999999468e-01,5.146363782779965756e-01,1.000000000000000048e-04,4.254256819649533128e+01,1.199999999999999956e-01
1.792785233999999894e+00,-1.066474936999999956e+00,5.184105558181859585e-01,1.000000000000000048e-04,4.247790668402519998e+01,1.100000000000000006e-01
1.805689748000000039e+00,-1.066896787999999985e+00,4.972932909742193708e-01,1.000000000000000048e-04,4.235826388459327774e+01,1.100000000000000006e-01
1.773248071000000037e+00,-1.046601056999999946e+00,5.148755898538515119e-01,1.000000000000000048e-04,4.217966599095437630e+01,2.099999999999999922e-01
1.076689889999999927e+00,-7.549444410000000216e-01,5.008577812009769037e-01,1.000000000000000048e-04,4.236846144719364560e+01,1.199999999999999956e-01
2.336456505000000128e+00,-1.089906792000000069e+00,5.219026972576301660e-01,1.000000000000000048e-04,4.243865877847381540e+01,1.199999999999999956e-01
2.522083900000000156e+00,-1.078852812999999911e+00,4.981357359655329553e-01,1.000000000000000048e-04,4.238630332660650168e+01,1.199999999999999956e-01
3.676074389999999803e-01,1.100614297999999991e+00,5.108550893671970350e-01,1.000000000000000048e-04,4.224699690380700190e+01,1.700000000000000122e-01
2.099931574000000190e+00,-1.082223048999999993e+00,5.206552426062653893e-01,1.000000000000000048e-04,4.252584924303318559e+01,1.100000000000000006e-01
8.155488279999999479e-01,-4.642700679999999802e-01,5.053878657172561351e-01,1.000000000000000048e-04,4.243985632789456020e+01,2.099999999999999922e-01
9.861636230000000447e-01,-6.881834650000000497e-01,5.113214407627215685e-01,1.000000000000000048e-04,4.247036561048853542e+01,1.300000000000000044e-01
1.864254864999999928e+00,-1.086684659999999969e+00,5.170376122393414153e-01,1.000000000000000048e-04,4.226108082209817240e+01,1.199999999999999956e-01
2.873066016000000111e+00,-9.753574739999999466e-01,5.164323436189179883e-01,1.000000000000000048e-04,4.258929926547986611e+01,1.300000000000000044e-01
2.270287562000000037e+00,-1.085086717999999895e+00,4.988012664696273024e-01,1.000000000000000048e-04,4.245350409583576123e+01,1.799999999999999933e-01
8.268071609999999572e-01,-4.587794940000000099e-01,5.197319350539546523e-01,1.000000000000000048e-04,4.224988590698717417e+01,1.199999999999999956e-01
-3.050869045179586347e+00,-7.648855789999999821e-01,5.020561721436145319e-01,1.000000000000000048e-04,4.259593499163027275e+01,1.199999999999999956e-01
1.101963728999999947e+00,-7.466317359999999903e-01,5.101080159991804308e-01,1.000000000000000048e-04,4.229595985932471791e+01,1.900000000000000022e-01
1.745116724000000064e+00,-1.056563783000000090e+00,5.249777601613663247e-01,1.000000000000000048e-04,4.228858944877167403e+01,1.300000000000000044e-01
7.889769570000000343e-01,-3.846565690000000037e-01,5.100037030648085778e-01,1.000000000000000048e-04,4.218986722188985539e+01,1.499999999999999944e-01
1.385818830999999918e+00,-9.278259679999999454e-01,5.076469262598857224e-01,1.000000000000000048e-04,4.222837984688109003e+01,1.499999999999999944e-01
1.138484923000000038e+00,-8.197145099999999518e-01,4.994637697236312679e-01,1.000000000000000048e-04,4.193027262391672139e+01,1.400000000000000133e-01
1.783410439000000069e+00,-1.080958507999999929e+00,5.160418163110402912e-01,1.000000000000000048e-04,4.251725649624883374e+01,1.400000000000000133e-01
2.617653461000000181e+00,-1.025884226000000066e+00,5.209067248994028176e-01,1.000000000000000048e-04,4.212477852260788325e+01,1.199999999999999956e-01
8.270197009999999960e-01,-4.157453939999999903e-01,5.093486221052905272e-01,1.000000000000000048e-04,4.214706361797987455e+01,1.199999999999999956e-01
3.128792493000000174e+00,-8.522697870000000009e-01,5.123008586057200553e-01,1.000000000000000048e-04,4.233763587028789033e+01,1.100000000000000006e-01
1.366158207000000013e+00,-9.614226009999999878e-01,5.223480126527957346e-01,1.000000000000000048e-04,4.230476190316475282e+01,1.100000000000000006e-01
2.846286316000000038e+00,-9.688357899999999745e-01,5.111431166359325928e-01,1.000000000000000048e-04,4.235516087653285666e+01,1.400000000000000133e-01
9.208216280000000031e-01,-6.185352929999999860e-01,5.146271506617878799e-01,1.000000000000000048e-04,4.232512438755213680e+01,1.499999999999999944e-01
7.622987450000000553e-01,-3.411912120000000215e-01,5.263897822787759750e-01,1.000000000000000048e-04,4.246350884853055163e+01,1.199999999999999956e-01
9.277931750000000255e-01,-5.813990460000000304e-01,5.200925049177005377e-01,1.000000000000000048e-04,4.280529750088628305e+01,2.099999999999999922e-01
1.010173165000000095e+00,-6.808591280000000356e-01,5.201751116766586414e-01,1.000000000000000048e-04,4.246814210058727213e+01,1.300000000000000044e-01
1.661181446000000062e+00,-1.029160687999999935e+00,4.977930357444404486e-01,1.000000000000000048e-04,4.227727705110392264e+01,1.400000000000000133e-01
2.089878704000000198e+00,-1.077863170999999953e+00,5.141781794678927930e-01,1.000000000000000048e-04,4.226773762068859241e+01,1.199999999999999956e-01
9.321550429999999610e-01,-6.212176799999999943e-01,4.996380610471700123e-01,1.000000000000000048e-04,4.229265485634989830e+01,1.199999999999999956e-01
2.944595597000000176e+00,-9.127602249999999806e-01,4.957915357186983840e-01,1.000000000000000048e-04,4.239090252363551770e+01,1.100000000000000006e-01
1.288081913999999939e+00,-9.113959929999999598e-01,5.025709408705949510e-01,1.000000000000000048e-04,4.210888287602014657e+01,1.300000000000000044e-01
1.398731861999999992e+00,-9.625033109999999725e-01,5.089316027566979095e-01,1.000000000000000048e-04,4.233788652462506974e+01,1.199999999999999956e-01
1.714165549000000066e+00,-1.043104095999999981e+00,5.103148198418396841e-01,1.000000000000000048e-04,4.211327093608737471e+01,1.199999999999999956e-01
1.014018395999999989e+00,-6.788913789999999615e-01,5.099498459745757106e-01,1.000000000000000048e-04,4.249047021409862879e+01,1.300000000000000044e-01
8.887761809999999985e-01,-5.541821719999999729e-01,5.080244679350884862e-01,1.000000000000000048e-04,4.232471585839103057e+01,1.300000000000000044e-01
1.026278256999999972e+00,-6.961882160000000264e-01,5.119666304626100395e-01,1.000000000000000048e-04,4.230680596039379537e+01,1.199999999999999956e-01
1.824970581999999952e+00,-1.080428363000000003e+00,5.115897409339431601e-01,1.000000000000000048e-04,4.226529224907591953e+01,1.199999999999999956e-01
1.839979185000000017e+00,-1.082878103999999952e+00,5.156301361909676473e-01,1.000000000000000048e-04,4.259466941142538587e+01,1.300000000000000044e-01
-3.070118813179586237e+00,-7.641942569999999879e-01,5.025011922454436508e-01,1.000000000000000048e-04,4.217281840075285970e+01,1.199999999999999956e-01
2.250776613000000204e+00,-1.110438553999999911e+00,5.185243840016438011e-01,1.000000000000000048e-04,4.237417812045829635e+01,1.199999999999999956e-01
2.613802471000000072e+00,-1.066258922999999914e+00,5.010036788006961839e-01,1.000000000000000048e-04,4.223962176757430598e+01,1.199999999999999956e-01
8.050150120000000298e-01,-4.193234060000000096e-01,5.165536665763377222e-01,1.000000000000000048e-04,4.190722103859137349e+01,1.499999999999999944e-01
2.809576177999999924e+00,-9.952447749999999704e-01,5.166092169084322006e-01,1.000000000000000048e-04,4.242540688320903541e+01,1.199999999999999956e-01
8.523447290000000232e-01,-4.773689010000000121e-01,5.089166530363851138e-01,1.000000000000000048e-04,4.238619143365896491e+01,2.000000000000000111e-01
2.975142320999999868e+00,-8.986192680000000266e-01,5.051281621697740754e-01,1.000000000000000048e-04,4.234273502413441292e+01,2.000000000000000111e-01
2.960578484000000010e+00,-9.174235720000000205e-01,5.140591504213205543e-01,1.000000000000000048e-04,4.219881532188047402e+01,1.400000000000000133e-01
1.589239559999999996e+00,-1.046132274999999945e+00,5.134474606508567796e-01,1.000000000000000048e-04,4.243615163879010055e+01,1.199999999999999956e-01
1.095136271999999966e+00,-7.909478989999999543e-01,5.237854259283869496e-01,1.000000000000000048e-04,4.255220697634793225e+01,1.300000000000000044e-01
3.045277111999999953e+00,-8.831592660000000539e-01,5.062299820926017269e-01,1.000000000000000048e-04,4.211838999862604993e+01,1.799999999999999933e-01
3.011317304999999944e+00,-8.969173430000000335e-01,5.032703868955825666e-01,1.000000000000000048e-04,4.233426894874390456e+01,1.499999999999999944e-01
1.946036051000000100e+00,-1.101857058000000000e+00,4.993889820945554003e-01,1.000000000000000048e-04,4.233516099894452367e+01,1.100000000000000006e-01
9.659444579999999503e-01,-6.400164339999999674e-01,5.262376308993916840e-01,1.000000000000000048e-04,4.248426026197891048e+01,1.199999999999999956e-01
1.142944595999999979e+00,-8.229314749999999679e-01,4.997305875723030422e-01,1.000000000000000048e-04,4.228899177732289161e+01,1.499999999999999944e-01
1.336859599999999926e+00,-9.462661719999999610e-01,5.149741608188913577e-01,1.000000000000000048e-04,4.208319509930464619e+01,1.900000000000000022e-01
2.386695267999999981e+00,-1.099692616000000012e+00,5.098613934561631034e-01,1.000000000000000048e-04,4.208833557219780630e+01,1.799999999999999933e-01
1.122946417999999946e+00,-7.871106610000000448e-01,5.080202606561672329e-01,1.000000000000000048e-04,4.224205203054580693e+01,1.499999999999999944e-01
1.038511049000000019e+00,-6.836743480000000428e-01,5.263548506769428759e-01,1.000000000000000048e-04,4.243425519093359810e+01,1.499999999999999944e-01
-1.865548755179585960e+00,5.988235499999999822e-01,5.061797459866981264e-01,1.000000000000000048e-04,4.237896743450426129e+01,3.599999999999999867e-01
-1.208774007179585830e+00,1.086301519000000049e+00,5.163927582777720904e-01,1.000000000000000048e-04,4.195219525304469244e+01,3.900000000000000133e-01
-1.451351928179586359e+00,1.047303024999999943e+00,5.155423411760791108e-01,1.000000000000000048e-04,4.239623021717400775e+01,3.900000000000000133e-01
-1.863787002179586594e+00,5.986409590000000280e-01,5.001256582890254432e-01,1.000000000000000048e-04,4.164565861987800588e+01,3.099999999999999978e-01
-2.367107747179586053e+00,3.570653329999999848e-01,5.071778318553432641e-01,1.000000000000000048e-04,4.205000128499787593e+01,3.300000000000000155e-01
3.110012692999999828e+00,-8.816387980000000013e-01,5.192463043232191655e-01,1.000000000000000048e-04,4.296998793389011695e+01,4.000000000000000222e-01
1.208427087000000011e+00,6.391205479999999550e-01,5.098408264094660414e-01,1.000000000000000048e-04,4.231092326609292797e+01,3.200000000000000067e-01
2.195568135999999893e+00,9.530612539999999688e-01,5.202994296701941579e-01,1.000000000000000048e-04,4.269930376421587681e+01,3.200000000000000067e-01
-1.746303855179585973e+00,7.561700099999999480e-01,5.105507826464354970e-01,1.000000000000000048e-04,4.241330207643556349e+01,3.599999999999999867e-01
-2.613733020179586308e+00,3.020363409999999860e-01,4.906560015176983924e-01,1.000000000000000048e-04,4.271115502447710099e+01,2.399999999999999911e-01
3.080075141000000016e+00,6.813462000000000129e-01,5.059253465323332311e-01,1.000000000000000048e-04,4.252363170612981946e+01,2.999999999999999889e-01
3.084152930000000126e+00,6.750201959999999612e-01,5.046325454917137687e-01,1.000000000000000048e-04,4.241927833027265393e+01,2.399999999999999911e-01
-2.831540824179586302e+00,-5.193198470000000011e-01,5.001857591506049250e-01,1.000000000000000048e-04,4.219662100669204108e+01,2.899999999999999800e-01
2.921667255000000019e+00,-9.403574120000000036e-01,5.070966638985969777e-01,1.000000000000000048e-04,4.247535727746276990e+01,2.899999999999999800e-01
2.610543199999999953e+00,9.294079060000000059e-01,4.955482282743339795e-01,1.000000000000000048e-04,4.275866653543129559e+01,2.899999999999999800e-01
2.614058957000000127e+00,9.310355519999999885e-01,4.954919548889928915e-01,1.000000000000000048e-04,4.220857249767899333e+01,3.699999999999999956e-01
-2.614313936179586406e+00,3.105085300000000048e-01,4.998866486297632861e-01,1.000000000000000048e-04,4.226914468260178381e+01,2.300000000000000100e-01
-2.614275993179586255e+00,3.084493819999999942e-01,5.145741131582119987e-01,1.000000000000000048e-04,4.218944865002613653e+01,2.000000000000000111e-01
3.080236718000000096e+00,6.852664600000000217e-01,5.087840257319238280e-01,1.000000000000000048e-04,4.270415089810658316e+01,3.800000000000000044e-01
3.085135451000000195e+00,6.840520260000000352e-01,5.097575096196536037e-01,1.000000000000000048e-04,4.253505201908525635e+01,2.300000000000000100e-01
-2.829361723179586452e+00,-5.190188390000000096e-01,5.126126187250956701e-01,1.000000000000000048e-04,4.259454167651001200e+01,3.900000000000000133e-01
-2.833706243179586082e+00,-5.260186759999999628e-01,5.143121723763055542e-01,1.000000000000000048e-04,4.212960661349254821e+01,2.200000000000000011e-01
1.286414458000000094e+00,-9.076167339999999806e-01,5.075271196024777609e-01,1.000000000000000048e-04,4.214020806334519875e+01,2.399999999999999911e-01
2.295144749999999956e+00,-1.095028292000000070e+00,5.136828737357421737e-01,1.000000000000000048e-04,4.223337318524426109e+01,2.000000000000000111e-01
2.312115046000000174e+00,-1.091482969000000081e+00,5.199976808268385042e-01,1.000000000000000048e-04,4.225918004784706028e+01,1.900000000000000022e-01
2.535381049000000164e+00,-1.063602453999999975e+00,5.032594170480850782e-01,1.000000000000000048e-04,4.229642353999729920e+01,2.600000000000000089e-01
2.549902755000000187e+00,-1.059649137999999935e+00,5.102607733510748922e-01,1.000000000000000048e-04,4.250662112522000058e+01,1.900000000000000022e-01
-2.980466121795863899e-01,1.081935794000000062e+00,5.105807664474240060e-01,1.000000000000000048e-04,4.251304040278223795e+01,1.000000000000000056e-01
-4.562223411795862660e-01,1.078420874000000085e+00,4.992124306691465563e-01,1.000000000000000048e-04,4.218046696348964986e+01,1.400000000000000133e-01
-4.727696341795866175e-01,1.076427226000000070e+00,5.005656025235298845e-01,1.000000000000000048e-04,4.254390809113596816e+01,1.900000000000000022e-01
-4.909850281795860028e-01,1.086050390999999893e+00,5.176218002709014332e-01,1.000000000000000048e-04,4.236035658267348936e+01,1.499999999999999944e-01
-1.809890014179586615e+00,8.554848849999999727e-01,4.925021334902959236e-01,1.000000000000000048e-04,4.220919012151929905e+01,1.900000000000000022e-01
-1.804843805179586091e+00,8.509932909999999850e-01,4.921674031354250634e-01,1.000000000000000048e-04,4.227907968003888328e+01,1.700000000000000122e-01
-1.798315402179586187e+00,8.389159160000000393e-01,5.011658614964504821e-01,1.000000000000000048e-04,4.219238425988596930e+01,1.100000000000000006e-01
-1.820018681179586650e+00,8.404092629999999620e-01,4.988511961875385925e-01,1.000000000000000048e-04,4.238884597095172069e+01,2.000000000000000111e-01
-2.435936564179586039e+00,3.767214549999999829e-01,5.084824104572551740e-01,1.000000000000000048e-04,4.201274126047631796e+01,1.700000000000000122e-01
-2.738532057179586143e+00,-4.670391260000000266e-01,5.165187389146808083e-01,1.000000000000000048e-04,4.230069402782664412e+01,1.100000000000000006e-01
-2.750126147179586145e+00,-4.750163370000000107e-01,5.115705361407851814e-01,1.000000000000000048e-04,4.225537794743108577e+01,1.700000000000000122e-01
6.777063359999999648e-01,-9.284162910000000046e-01,5.220404895746764140e-01,1.000000000000000048e-04,4.220042443503469087e+01,1.600000000000000033e-01
6.755664329999999662e-01,-9.242990760000000527e-01,5.134265958090433735e-01,1.000000000000000048e-04,4.221185618697014519e+01,2.200000000000000011e-01
1.666277256000000095e+00,1.035703752000000089e+00,4.965388679360045465e-01,1.000000000000000048e-04,4.194775554302496090e+01,2.800000000000000266e-01
1.679531192000000006e+00,1.034147155999999956e+00,5.003618779243503845e-01,1.000000000000000048e-04,4.229168026884207165e+01,2.099999999999999922e-01
1.669961188000000041e+00,1.045784459000000055e+00,5.040951214876818742e-01,1.000000000000000048e-04,4.193289005452845686e+01,2.899999999999999800e-01
1.666612017000000057e+00,1.035903760999999923e+00,4.976114494608985250e-01,1.000000000000000048e-04,4.218501968630658894e+01,1.400000000000000133e-01
1.676630470000000095e+00,1.049302589999999924e+00,5.122451609941014450e-01,1.000000000000000048e-04,4.256347833135752978e+01,1.600000000000000033e-01
1.678871634000000057e+00,1.037439988999999896e+00,5.028857406583995271e-01,1.000000000000000048e-04,4.243245409623921205e+01,2.099999999999999922e-01
-2.159653925179585876e+00,7.341517600000000421e-01,5.013413620423659012e-01,1.000000000000000048e-04,4.261703356012013444e+01,2.600000000000000089e-01
-2.155609593179586447e+00,7.327229189999999726e-01,5.166077797975303643e-01,1.000000000000000048e-04,4.195735633148249377e+01,1.400000000000000133e-01
2.989279821999999864e+00,-1.014333855000000062e+00,5.091139541261675561e-01,1.000000000000000048e-04,4.220138082920414746e+01,1.600000000000000033e-01
6.962963009999999509e-01,-9.242906640000000396e-01,5.170459382721044328e-01,1.000000000000000048e-04,4.271775820894451670e+01,2.000000000000000111e-01
6.831622830000000368e-01,-9.295060950000000322e-01,5.233388443672548629e-01,1.000000000000000048e-04,4.225733100420213617e+01,2.099999999999999922e-01
6.813526220000000189e-01,-9.196739680000000083e-01,5.220806270335414112e-01,1.000000000000000048e-04,4.239065244708820757e+01,1.700000000000000122e-01
1.667475545999999920e+00,1.039138789999999979e+00,5.090783757889294492e-01,1.000000000000000048e-04,4.261339851718555849e+01,1.499999999999999944e-01
1.669072946000000002e+00,1.039627206000000026e+00,4.986839698221778860e-01,1.000000000000000048e-04,4.232616242042709587e+01,1.700000000000000122e-01
2.992464221000000091e+00,-1.009427984000000000e+00,4.948714751697589342e-01,1.000000000000000048e-04,4.212587210523336267e+01,1.400000000000000133e-01
3.013377762000000182e+00,-1.015725085999999999e+00,5.053992002373397519e-01,1.000000000000000048e-04,4.222875216218783834e+01,1.499999999999999944e-01
6.857830799999999893e-01,-9.290922369999999875e-01,5.168899563515854112e-01,1.000000000000000048e-04,4.258153213229776668e+01,3.400000000000000244e-01
6.874880420000000214e-01,-9.251381180000000093e-01,5.229880719009121215e-01,1.000000000000000048e-04,4.242089006448284039e+01,1.700000000000000122e-01
1.659686511000000086e+00,1.040101345999999927e+00,5.139608166239617582e-01,1.000000000000000048e-04,4.237245204077415650e+01,1.400000000000000133e-01
1.692629780999999944e+00,1.043637506000000048e+00,5.050338420428841513e-01,1.000000000000000048e-04,4.200672994144478167e+01,1.799999999999999933e-01
1.682450028999999958e+00,1.049226146999999942e+00,4.995841843374224656e-01,1.000000000000000048e-04,4.236449417180873667e+01,1.900000000000000022e-01
1.675255906999999933e+00,1.048468626000000015e+00,5.145773965194935240e-01,1.000000000000000048e-04,4.234101366730575933e+01,1.499999999999999944e-01
1.692145135000000078e+00,1.039981480000000014e+00,4.975562128302348786e-01,1.000000000000000048e-04,4.204742705390263069e+01,1.700000000000000122e-01
-2.139768073179586061e+00,7.360294179999999908e-01,5.007415690708483247e-01,1.000000000000000048e-04,4.233354953391939546e+01,1.600000000000000033e-01
-2.138731675179585956e+00,7.369836659999999817e-01,5.067263524623317750e-01,1.000000000000000048e-04,4.255515092031532021e+01,1.499999999999999944e-01
6.888283630000000546e-01,-9.193630990000000169e-01,5.177143898017875223e-01,1.000000000000000048e-04,4.226487265547477534e+01,1.700000000000000122e-01
6.776433490000000059e-01,-9.225326109999999469e-01,5.077597151399382280e-01,1.000000000000000048e-04,4.213521219438807464e+01,1.600000000000000033e-01
6.820513620000000499e-01,-9.162569579999999547e-01,5.045120571233423501e-01,1.000000000000000048e-04,4.243064748316729151e+01,2.899999999999999800e-01
6.832637360000000104e-01,-9.208365670000000502e-01,5.182292461694339991e-01,1.000000000000000048e-04,4.229198134581231727e+01,1.400000000000000133e-01
1.683256381999999940e+00,1.050427892999999946e+00,5.146428880574378528e-01,1.000000000000000048e-04,4.232587815540790643e+01,1.499999999999999944e-01
2.987248335999999949e+00,-1.011507587000000097e+00,5.128403487313166753e-01,1.000000000000000048e-04,4.237093744369047243e+01,1.900000000000000022e-01
2.994879214000000012e+00,-1.020537374999999969e+00,5.054114825043745096e-01,1.000000000000000048e-04,4.248150221300054596e+01,2.500000000000000000e-01
2.997056848999999801e+00,-1.020797841000000039e+00,5.168031893698727952e-01,1.000000000000000048e-04,4.253910466864242323e+01,1.499999999999999944e-01
6.981827720000000070e-01,-9.201470600000000166e-01,4.987067509147726785e-01,1.000000000000000048e-04,4.226727402099084685e+01,2.099999999999999922e-01
1.675679171999999939e+00,1.042232051000000048e+00,5.115386971870765631e-01,1.000000000000000048e-04,4.207994716392529710e+01,1.900000000000000022e-01
1.682732345000000018e+00,1.051774148000000020e+00,4.947623162736591862e-01,1.000000000000000048e-04,4.214650601307614863e+01,2.099999999999999922e-01
1.655763980999999996e+00,1.041789395999999979e+00,5.039431194113881407e-01,1.000000000000000048e-04,4.228760255909645593e+01,2.099999999999999922e-01
1.658505131999999938e+00,1.042043577999999915e+00,5.007903465041978475e-01,1.000000000000000048e-04,4.224326029133313654e+01,1.499999999999999944e-01
1.679931540999999973e+00,1.044700675999999939e+00,5.061703999815785338e-01,1.000000000000000048e-04,4.225778597059819219e+01,1.400000000000000133e-01
1.681131209999999987e+00,1.046558263000000100e+00,4.987766114273217699e-01,1.000000000000000048e-04,4.257122979506582539e+01,3.800000000000000044e-01
-2.147380102179586636e+00,7.248191320000000326e-01,5.037754201451498659e-01,1.000000000000000048e-04,4.250163605015640655e+01,2.200000000000000011e-01
-2.137481690179586558e+00,7.386978770000000027e-01,4.998107645234703966e-01,1.000000000000000048e-04,4.227298278242540874e+01,1.499999999999999944e-01
3.007533192999999994e+00,-1.006434849999999992e+00,5.028438910611725543e-01,1.000000000000000048e-04,4.216538924151940648e+01,1.700000000000000122e-01
6.766177190000000063e-01,-9.309161569999999664e-01,5.228905691042409210e-01,1.000000000000000048e-04,4.259273465604995579e+01,1.700000000000000122e-01
6.879719020000000240e-01,-9.170357009999999809e-01,5.018225649936558508e-01,1.000000000000000048e-04,4.225817106967551950e+01,2.600000000000000089e-01
6.868192690000000100e-01,-9.190749710000000183e-01,5.162876399770996994e-01,1.000000000000000048e-04,4.225607250470489618e+01,2.800000000000000266e-01
1.680927606000000019e+00,1.043199457999999913e+00,5.013457571189452455e-01,1.000000000000000048e-04,4.241618273020041840e+01,1.799999999999999933e-01
1.680733408999999901e+00,1.046110547000000057e+00,4.983921383845766329e-01,1.000000000000000048e-04,4.232733471642961121e+01,1.499999999999999944e-01
3.003205794999999956e+00,-1.007960921000000010e+00,4.965595735086767437e-01,1.000000000000000048e-04,4.235023906871387567e+01,2.200000000000000011e-01
3.013387552999999830e+00,-1.018013843000000085e+00,5.114062932433649511e-01,1.000000000000000048e-04,4.212902467257396921e+01,2.000000000000000111e-01
2.991633154000000072e+00,-1.018575491000000000e+00,5.036732869790061518e-01,1.000000000000000048e-04,4.230325614540535639e+01,1.600000000000000033e-01
6.810583510000000063e-01,-9.216344210000000370e-01,5.025780043913110617e-01,1.000000000000000048e-04,4.255902443500722399e+01,1.600000000000000033e-01
1.670069762000000013e+00,1.048284639000000018e+00,5.053073209199272497e-01,1.000000000000000048e-04,4.211786685527104623e+01,2.099999999999999922e-01
1.699713636000000028e+00,1.040243690999999915e+00,5.166630106220480023e-01,1.000000000000000048e-04,4.275627163378852202e+01,2.899999999999999800e-01
1.686195045999999920e+00,1.048540513999999924e+00,5.167719830308181717e-01,1.000000000000000048e-04,4.249823074231853326e+01,1.400000000000000133e-01
1.667162669999999958e+00,1.044746053999999980e+00,5.154313506610295192e-01,1.000000000000000048e-04,4.223403620555539106e+01,2.700000000000000178e-01
1.689467040999999892e+00,1.036330184999999959e+00,4.946578484590926639e-01,1.000000000000000048e-04,4.240164870830714960e+01,1.300000000000000044e-01
1.683799076999999977e+00,1.043385784000000038e+00,5.175673478379692050e-01,1.000000000000000048e-04,4.234413317763497986e+01,1.700000000000000122e-01
-2.151455832179586025e+00,7.398983139999999459e-01,5.049293142160222736e-01,1.000000000000000048e-04,4.234374490771768507e+01,2.500000000000000000e-01
-2.141944958179585967e+00,7.302793560000000461e-01,5.155666746310547666e-01,1.000000000000000048e-04,4.210498866148297736e+01,1.400000000000000133e-01
3.012489310999999947e+00,-1.019874449000000016e+00,5.038856210839151029e-01,1.000000000000000048e-04,4.235221908625818088e+01,1.900000000000000022e-01
6.824463880000000149e-01,-9.193269539999999740e-01,5.151966703942245651e-01,1.000000000000000048e-04,4.235575320349722261e+01,1.600000000000000033e-01
6.933168330000000212e-01,-9.307474239999999899e-01,5.187135001535250201e-01,1.000000000000000048e-04,4.251382166060476209e+01,1.600000000000000033e-01
7.005346909999999871e-01,-9.247541049999999929e-01,4.997080059758214343e-01,1.000000000000000048e-04,4.224803137784702045e+01,2.700000000000000178e-01
1.674988617999999985e+00,1.042237757999999959e+00,5.183742282524690381e-01,1.000000000000000048e-04,4.220238158819284990e+01,1.499999999999999944e-01
1.672026148000000045e+00,1.039374368000000048e+00,5.094971321550390009e-01,1.000000000000000048e-04,4.237816380980481767e+01,1.600000000000000033e-01
2.993618983999999816e+00,-1.008517228000000099e+00,5.074239144108332322e-01,1.000000000000000048e-04,4.220374097830086413e+01,1.700000000000000122e-01
2.992837709999999873e+00,-1.014889098000000045e+00,5.009194825789378136e-01,1.000000000000000048e-04,4.204043863906031930e+01,2.800000000000000266e-01
2.980621672999999916e+00,-1.012535224000000067e+00,5.059801189834873814e-01,1.000000000000000048e-04,4.245931231673944950e+01,1.499999999999999944e-01
3.118379398000000080e+00,-1.044341935000000055e+00,4.945616266823145146e-01,1.000000000000000048e-04,4.233202627019756648e+01,3.099999999999999978e-01
3.132904315000000217e+00,-1.046896950999999909e+00,5.043424929947577517e-01,1.000000000000000048e-04,4.289847904653221633e+01,2.200000000000000011e-01
1.248659997999999938e+00,-1.117162079000000086e+00,5.092572736196618877e-01,1.000000000000000048e-04,4.280342660296343382e+01,2.700000000000000178e-01
2.302446713000000145e+00,-1.091359299000000060e+00,5.054103487065162437e-01,1.000000000000000048e-04,4.202626343045422885e+01,2.899999999999999800e-01
3.133486173000000097e+00,-1.061461677999999909e+00,5.053337294990025708e-01,1.000000000000000048e-04,4.241026218955724403e+01,3.099999999999999978e-01
1.251013366000000016e+00,-1.102704651999999896e+00,5.242176285645367972e-01,1.000000000000000048e-04,4.235118676144118410e+01,2.300000000000000100e-01
1.232341668999999973e+00,-1.105349812000000043e+00,5.218273106386466242e-01,1.000000000000000048e-04,4.253320305503864063e+01,2.200000000000000011e-01
2.330538756999999794e+00,-1.086213730999999960e+00,5.063693018798609558e-01,1.000000000000000048e-04,4.257494065216037171e+01,2.300000000000000100e-01
3.104372880000000112e+00,-1.050765708999999992e+00,5.146779225024138427e-01,1.000000000000000048e-04,4.231288629398166989e+01,2.200000000000000011e-01
3.122794933000000217e+00,-1.050942575000000101e+00,5.199673358800234180e-01,1.000000000000000048e-04,4.223943035989789507e+01,2.099999999999999922e-01
3.135928428000000157e+00,-1.044986675000000087e+00,5.171970142320501118e-01,1.000000000000000048e-04,4.255414847669765521e+01,2.300000000000000100e-01
3.135701593999999925e+00,-1.049448040999999998e+00,5.050463048285989132e-01,1.000000000000000048e-04,4.248659874305109696e+01,2.399999999999999911e-01
2.902190216000000156e+00,-1.054666754000000095e+00,5.161379457596455556e-01,1.000000000000000048e-04,4.278129269955380209e+01,2.099999999999999922e-01
1.219278212000000083e+00,-1.102494101000000004e+00,5.201941511859107248e-01,1.000000000000000048e-04,4.199606073971715148e+01,2.399999999999999911e-01
2.314258420999999899e+00,-1.073777474999999981e+00,4.996962962307531786e-01,1.000000000000000048e-04,4.209821748315819434e+01,2.399999999999999911e-01
3.138600745000000192e+00,-1.056209613999999908e+00,5.175740541313633702e-01,1.000000000000000048e-04,4.221764799675486302e+01,2.800000000000000266e-01
2.873014373000000177e+00,-1.047336534999999902e+00,5.122280004506136741e-01,1.000000000000000048e-04,4.237071895913331332e+01,2.000000000000000111e-01
2.890150627000000139e+00,-1.045368942999999939e+00,5.169800745475250370e-01,1.000000000000000048e-04,4.225806449134752540e+01,2.200000000000000011e-01
-3.136513490179586139e+00,-1.038988312000000080e+00,5.101640571505194899e-01,1.000000000000000048e-04,4.226823057139805684e+01,2.800000000000000266e-01
3.120369102000000172e+00,-1.042910143999999928e+00,5.027105191118985683e-01,1.000000000000000048e-04,4.247635750439884106e+01,2.399999999999999911e-01
3.132773262000000170e+00,-1.048570620000000009e+00,5.128318029959799684e-01,1.000000000000000048e-04,4.244617022383106075e+01,2.300000000000000100e-01
3.132934141999999866e+00,-1.046888051000000042e+00,5.022591920077679184e-01,1.000000000000000048e-04,4.237239318797919907e+01,2.200000000000000011e-01
3.134455274000000014e+00,-1.046257098000000108e+00,5.051243244806040700e-01,1.000000000000000048e-04,4.246491355991979333e+01,2.200000000000000011e-01
2.910504301000000016e+00,-1.063930792999999930e+00,5.079999197694320401e-01,1.000000000000000048e-04,4.255045061552429075e+01,2.399999999999999911e-01
2.301930878999999930e+00,-1.084305269999999988e+00,5.024993006885516422e-01,1.000000000000000048e-04,4.248207233860575371e+01,3.099999999999999978e-01
2.314913878000000036e+00,-1.104421796000000011e+00,5.234989840828698782e-01,1.000000000000000048e-04,4.247774746743360907e+01,2.600000000000000089e-01
1.232494258000000009e+00,-1.089556776000000005e+00,5.006829301746489325e-01,1.000000000000000048e-04,4.194764790107566910e+01,3.099999999999999978e-01
-3.138875270179586341e+00,-1.027091259999999950e+00,4.951442822785898645e-01,1.000000000000000048e-04,4.182106711959787049e+01,3.800000000000000044e-01
1.277748142000000087e+00,-1.105660628999999950e+00,5.191229152967267169e-01,1.000000000000000048e-04,4.238295597980592078e+01,2.500000000000000000e-01
2.339694710999999927e+00,-1.083680948999999893e+00,5.111354492038437947e-01,1.000000000000000048e-04,4.234362267631787091e+01,2.300000000000000100e-01
3.085408954000000037e+00,-1.045989441999999991e+00,5.019031880812341306e-01,1.000000000000000048e-04,4.191425105565176779e+01,2.800000000000000266e-01
3.122183823999999941e+00,-1.053540683000000033e+00,4.949017808164004606e-01,1.000000000000000048e-04,4.141024372592088554e+01,3.699999999999999956e-01
1.263417701000000060e+00,-1.099941301000000093e+00,5.166708133095427868e-01,1.000000000000000048e-04,4.216679242302096497e+01,2.200000000000000011e-01
1.238769020999999970e+00,-1.122513239999999968e+00,5.161256553678954528e-01,1.000000000000000048e-04,4.238261293537152596e+01,2.600000000000000089e-01
1.225778744000000087e+00,-1.107856694000000086e+00,5.031163374167602065e-01,1.000000000000000048e-04,4.281339377448881578e+01,2.500000000000000000e-01
2.356185176999999964e+00,-1.090954028000000076e+00,5.050864617225836462e-01,1.000000000000000048e-04,4.226879355865030874e+01,2.700000000000000178e-01
1.231078855000000027e+00,-1.109460918999999990e+00,5.039637461518529093e-01,1.000000000000000048e-04,4.278308870425831856e+01,2.300000000000000100e-01
2.350025410999999842e+00,-1.078254897999999962e+00,5.197644756457515669e-01,1.000000000000000048e-04,4.217125420407159453e+01,2.300000000000000100e-01
2.889344674999999807e+00,-1.054064458000000037e+00,5.185132930503639770e-01,1.000000000000000048e-04,4.269009930918626594e+01,3.200000000000000067e-01
1.260972444000000081e+00,-1.102168519999999985e+00,5.004992434842074900e-01,1.000000000000000048e-04,4.259937570017315522e+01,2.899999999999999800e-01
3.138597202000000141e+00,-1.049455424000000026e+00,4.953509836452667514e-01,1.000000000000000048e-04,4.188541026499107289e+01,2.600000000000000089e-01
1.280173519000000093e+00,-1.106045986000000036e+00,4.998844452738626654e-01,1.000000000000000048e-04,4.205654550982041684e+01,2.899999999999999800e-01
3.140421104000000074e+00,-1.048273016000000002e+00,5.061974677902196795e-01,1.000000000000000048e-04,4.187370290365610970e+01,2.700000000000000178e-01
2.887571490000000018e+00,-1.060290981000000077e+00,5.199619426095887231e-01,1.000000000000000048e-04,4.257226939455211578e+01,2.300000000000000100e-01
3.117377486000000086e+00,-1.048849812999999909e+00,5.198184171582347357e-01,1.000000000000000048e-04,4.135361187145117157e+01,2.800000000000000266e-01
3.139331405000000075e+00,-1.045946368000000071e+00,5.154487918225674203e-01,1.000000000000000048e-04,4.232121398777946553e+01,2.300000000000000100e-01
2.901812189000000153e+00,-1.070407117000000019e+00,5.149510970947417388e-01,1.000000000000000048e-04,4.187192005159673158e+01,2.200000000000000011e-01
2.874698792999999863e+00,-1.069280417999999955e+00,5.201678986178068786e-01,1.000000000000000048e-04,4.258127209533125779e+01,2.200000000000000011e-01
3.126790450000000110e+00,-1.053686536000000062e+00,5.066405214009153113e-01,1.000000000000000048e-04,4.217199673687303374e+01,2.099999999999999922e-01
1.253234667999999941e+00,-1.096167120000000050e+00,5.004347385268512749e-01,1.000000000000000048e-04,4.235135968192508926e+01,2.200000000000000011e-01
1.242189800000000011e+00,-1.095888138000000067e+00,4.997686816082989036e-01,1.000000000000000048e-04,4.255528093299230363e+01,2.899999999999999800e-01
2.358704259000000025e+00,-1.096119858000000002e+00,5.063762944880016992e-01,1.000000000000000048e-04,4.255816432139449290e+01,2.099999999999999922e-01
3.090657074000000115e+00,-1.046905049999999893e+00,5.128166732437469122e-01,1.000000000000000048e-04,4.246160616215289707e+01,2.300000000000000100e-01
2.350320292999999783e+00,-1.077642637000000070e+00,5.200563780788036716e-01,1.000000000000000048e-04,4.267097715269185443e+01,3.300000000000000155e-01
3.120911620999999858e+00,-1.047605429999999949e+00,5.210334760181252189e-01,1.000000000000000048e-04,4.244480091336929206e+01,2.899999999999999800e-01
2.310418793000000193e+00,-1.091478047999999923e+00,4.993796255626010705e-01,1.000000000000000048e-04,4.203597533740058623e+01,3.300000000000000155e-01
2.888242410000000149e+00,-1.055260810999999910e+00,5.134822297285850379e-01,1.000000000000000048e-04,4.239568737913688068e+01,2.999999999999999889e-01
2.313880778000000138e+00,-1.089056457000000089e+00,5.000138322558687065e-01,1.000000000000000048e-04,4.224988342950648246e+01,2.600000000000000089e-01
3.096505394999999883e+00,-1.050897790999999915e+00,5.213120614263337949e-01,1.000000000000000048e-04,4.267718605227688755e+01,3.300000000000000155e-01
1.264206060000000020e+00,-1.108314516000000083e+00,5.176994900479616746e-01,1.000000000000000048e-04,4.241020797872180026e+01,2.500000000000000000e-01
2.317080779999999951e+00,-1.080569537999999996e+00,5.140686543227046545e-01,1.000000000000000048e-04,4.244752512565511182e+01,2.399999999999999911e-01
2.308161032000000112e+00,-1.080284865999999955e+00,5.074161748202048461e-01,1.000000000000000048e-04,4.244806912301815061e+01,3.900000000000000133e-01
1.213089824000000094e+00,-1.095999417000000031e+00,5.004806727406254652e-01,1.000000000000000048e-04,4.240703377884261727e+01,2.700000000000000178e-01
3.095344697999999894e+00,-1.044259242999999948e+00,5.005051186030291532e-01,1.000000000000000048e-04,4.218449165838333670e+01,2.200000000000000011e-01
3.093500166000000107e+00,-1.047656949999999920e+00,5.024619349102867893e-01,1.000000000000000048e-04,4.232565559670248945e+01,2.300000000000000100e-01
2.871266652000000086e+00,-1.064917746999999970e+00,5.090968644122082498e-01,1.000000000000000048e-04,4.190663539242365232e+01,2.500000000000000000e-01
2.872879009000000039e+00,-1.076645507999999918e+00,4.989366745695453798e-01,1.000000000000000048e-04,4.252132711379844920e+01,2.099999999999999922e-01
1.241294699000000001e+00,-1.109043570000000090e+00,5.153559720020457480e-01,1.000000000000000048e-04,4.253982776467853455e+01,2.099999999999999922e-01
1.238788393000000099e+00,-1.083197141000000085e+00,5.031227548567009933e-01,1.000000000000000048e-04,4.243534097679491879e+01,2.999999999999999889e-01
-3.140928712179586135e+00,-1.049943351000000025e+00,4.948491085471817819e-01,1.000000000000000048e-04,4.194935127773685224e+01,2.200000000000000011e-01
2.897074545000000168e+00,-1.050668165000000043e+00,4.982218647977352255e-01,1.000000000000000048e-04,4.253225667837568125e+01,2.099999999999999922e-01
3.133488720999999977e+00,-1.053899826000000095e+00,5.023881806269048234e-01,1.000000000000000048e-04,4.168980045433995940e+01,2.300000000000000100e-01
2.854965548000000020e+00,-1.051119023000000041e+00,5.043762153404498516e-01,1.000000000000000048e-04,4.233425400129918614e+01,3.200000000000000067e-01
2.846666281000000076e+00,-1.061494909000000098e+00,5.017322360320679575e-01,1.000000000000000048e-04,4.242986096515690519e+01,2.600000000000000089e-01
1.477625364000000108e+00,-9.892628350000000070e-01,4.999021972755601784e-01,1.000000000000000048e-04,4.226883504460116825e+01,2.000000000000000111e-01
-2.998301261179586064e+00,-5.567642400000000213e-01,4.970412433431350419e-01,1.000000000000000048e-04,4.241122737464659309e+01,1.799999999999999933e-01
2.915910107000000195e+00,-9.248875840000000403e-01,5.087566036512323198e-01,1.000000000000000048e-04,4.218666705081068358e+01,2.999999999999999889e-01
2.904218159000000021e+00,-9.279150130000000107e-01,5.062563822456427332e-01,1.000000000000000048e-04,4.229671974723613204e+01,2.399999999999999911e-01
2.945746643000000109e+00,-9.241091030000000428e-01,5.087787881208267748e-01,1.000000000000000048e-04,4.228886071586602213e+01,2.300000000000000100e-01
2.195221751000000054e+00,9.567984520000000215e-01,5.085468778704069770e-01,1.000000000000000048e-04,4.195858369840484414e+01,2.200000000000000011e-01
-2.382074272179586227e+00,-9.504311730000000180e-01,5.152293735231268101e-01,1.000000000000000048e-04,4.232735826700606907e+01,2.300000000000000100e-01
2.197803225999999999e+00,9.560313849999999558e-01,5.194466885738620032e-01,1.000000000000000048e-04,4.238554175552326342e+01,2.300000000000000100e-01
-2.380846050179586282e+00,-9.512843520000000552e-01,5.169745169853268152e-01,1.000000000000000048e-04,4.217534562215800520e+01,2.600000000000000089e-01
-2.382960995179586039e+00,-9.501026420000000527e-01,5.158236828141742336e-01,1.000000000000000048e-04,4.240023492968373375e+01,2.099999999999999922e-01
2.192165822000000208e+00,9.554729659999999791e-01,5.068914484630582251e-01,1.000000000000000048e-04,4.237644244588218356e+01,2.899999999999999800e-01
-2.383512939179586176e+00,-9.505219620000000535e-01,5.101010195508675071e-01,1.000000000000000048e-04,4.208325294049487297e+01,2.000000000000000111e-01
2.197044292000000176e+00,9.582492320000000063e-01,5.161904041283795763e-01,1.000000000000000048e-04,4.210667715386818344e+01,2.500000000000000000e-01
2.198013217999999824e+00,9.570721989999999568e-01,4.998982805286162900e-01,1.000000000000000048e-04,4.221497707667514732e+01,2.099999999999999922e-01
2.198391541999999976e+00,9.561199929999999458e-01,5.122794007559483553e-01,1.000000000000000048e-04,4.255441258046906938e+01,2.300000000000000100e-01
2.199218732999999926e+00,9.570277640000000030e-01,5.057091037930152577e-01,1.000000000000000048e-04,4.275859588596938465e+01,2.200000000000000011e-01
2.196667974999999995e+00,9.569524729999999701e-01,4.997667587569749603e-01,1.000000000000000048e-04,4.239849327506426846e+01,2.399999999999999911e-01
2.196400267000000017e+00,9.571105250000000453e-01,4.948885836166958541e-01,1.000000000000000048e-04,4.251116091459061153e+01,2.500000000000000000e-01
2.195980999000000100e+00,9.563170869999999546e-01,5.205947154160235346e-01,1.000000000000000048e-04,4.213105376247431622e+01,2.200000000000000011e-01
2.198886345000000020e+00,9.574225640000000315e-01,5.174984988302588906e-01,1.000000000000000048e-04,4.253998352118689041e+01,3.300000000000000155e-01
-2.382942164179586264e+00,-9.487821469999999646e-01,4.959454774059972593e-01,1.000000000000000048e-04,4.208804236655672781e+01,2.000000000000000111e-01
2.197058621000000045e+00,9.568337070000000333e-01,5.191493345059108311e-01,1.000000000000000048e-04,4.236728770963564727e+01,2.600000000000000089e-01
2.196754174000000059e+00,9.569828230000000380e-01,5.146337878222839723e-01,1.000000000000000048e-04,4.285873530018462674e+01,2.399999999999999911e-01
-2.381905888179586039e+00,-9.494029419999999719e-01,5.070015908161680240e-01,1.000000000000000048e-04,4.276192389763909318e+01,2.399999999999999911e-01
-2.382353656179586388e+00,-9.501919130000000546e-01,5.088581917291845613e-01,1.000000000000000048e-04,4.256741619264481358e+01,2.600000000000000089e-01
-2.385313647179586383e+00,-9.492824659999999914e-01,4.996436476083625511e-01,1.000000000000000048e-04,4.244640376547922500e+01,2.399999999999999911e-01
-2.383308463179586223e+00,-9.502672559999999491e-01,5.056495816472748039e-01,1.000000000000000048e-04,4.252059085880038936e+01,2.000000000000000111e-01
2.194446376000000143e+00,9.548028840000000184e-01,5.053054584458311904e-01,1.000000000000000048e-04,4.161890115592029105e+01,3.699999999999999956e-01
-2.377678389179586294e+00,-9.493284189999999789e-01,4.973146602058347021e-01,1.000000000000000048e-04,4.209157667318893203e+01,3.099999999999999978e-01
2.195048706000000127e+00,9.553664520000000326e-01,4.973587820794083125e-01,1.000000000000000048e-04,4.225002391522173184e+01,2.399999999999999911e-01
2.194988459000000169e+00,9.569281090000000267e-01,5.157119878559492943e-01,1.000000000000000048e-04,4.220654515617531644e+01,2.099999999999999922e-01
2.198773670000000013e+00,9.585742720000000050e-01,5.056692149494199651e-01,1.000000000000000048e-04,4.188901207066223975e+01,2.800000000000000266e-01
2.196007632000000154e+00,9.574002940000000406e-01,5.059939990176174351e-01,1.000000000000000048e-04,4.254430113763472576e+01,2.800000000000000266e-01
2.193610842000000005e+00,9.569156829999999614e-01,5.052424028643591747e-01,1.000000000000000048e-04,4.254350898121276714e+01,2.099999999999999922e-01
2.194846306000000080e+00,9.574700699999999509e-01,5.199544030185134780e-01,1.000000000000000048e-04,4.224336453661735646e+01,2.300000000000000100e-01
-2.901318991795864832e-01,1.086903570000000041e+00,5.041852262564228138e-01,1.000000000000000048e-04,4.233778645044035471e+01,2.000000000000000111e-01
-2.914486071795865385e-01,1.085909494999999891e+00,4.950353704303638303e-01,1.000000000000000048e-04,4.219786017612377549e+01,1.000000000000000056e-01
-2.954610881795858290e-01,1.084462065999999947e+00,5.014289169373422617e-01,1.000000000000000048e-04,4.222410551364556142e+01,1.199999999999999956e-01
-3.403197011795864313e-01,1.090760651000000081e+00,5.050369269358390145e-01,1.000000000000000048e-04,4.241945705888712581e+01,8.999999999999999667e-02
-3.429455761795860980e-01,1.087892671000000089e+00,4.933751817036011733e-01,1.000000000000000048e-04,4.226332655984518993e+01,1.400000000000000133e-01
6.896152909999999636e-01,-9.249195220000000495e-01,5.205907941051723942e-01,1.000000000000000048e-04,4.275789744625178201e+01,2.000000000000000111e-01
1.024453132999999960e+00,1.182715689999999986e+00,5.159324587957045960e-01,1.000000000000000048e-04,4.261014096560856501e+01,1.900000000000000022e-01
1.006083177000000051e+00,1.165244638999999971e+00,5.017345758438844783e-01,1.000000000000000048e-04,4.226512173397550498e+01,1.700000000000000122e-01
9.905969959999999519e-01,1.153001898999999941e+00,5.028182423764249176e-01,1.000000000000000048e-04,4.179864432547361019e+01,3.499999999999999778e-01
2.950804928999999799e+00,-1.010655210999999998e+00,4.979128762977775846e-01,1.000000000000000048e-04,4.193639840288390275e+01,1.700000000000000122e-01
2.951637304000000128e+00,-1.010683065999999908e+00,5.137080922568588726e-01,1.000000000000000048e-04,4.225206084597643041e+01,1.900000000000000022e-01
-2.349248843179586377e+00,-9.322901449999999590e-01,5.021320932894504097e-01,1.000000000000000048e-04,4.241493668939185113e+01,1.900000000000000022e-01
