2.770921285362224928e+00,-4.080724759197453810e-01,7.104537286742698132e-01,1.000000000000000021e-03,4.312916151439694090e+01,1.427273119628688081e-01
2.143577476244331592e-01,-5.310859443106201727e-01,6.047174372678922882e-01,1.000000000000000021e-03,4.285989769616792699e+01,2.515882504356742322e-01
-1.335469851290474796e+00,7.116832771038308358e-01,2.967919974524222404e-01,1.000000000000000021e-03,4.088318965233632696e+01,1.096173333561590302e-01
2.506783680005470138e+00,-6.004432575160597585e-01,1.487442985545366358e-01,1.000000000000000021e-03,3.957637016537125874e+01,2.664806760431573385e-01
1.356465130168680311e+00,-6.681499105085445533e-01,7.301130459844642484e-01,1.000000000000000021e-03,4.329379690686364057e+01,1.519361787062583347e-01
8.709198883205324648e-01,-8.974841818787618886e-01,2.694243528017823408e-01,1.000000000000000021e-03,4.136358603646350929e+01,2.381236814201764806e-01
-1.777588560732759060e+00,-6.533668956289567786e-01,1.877920615001018589e-01,1.000000000000000021e-03,3.977230023181118668e+01,1.596619873559802227e-01
1.877164263426089441e+00,1.042152852062615764e+00,3.455984660964919186e-01,1.000000000000000021e-03,4.113942889267483594e+01,9.802537626301092988e-02
1.080029822584239518e+00,8.585873281990186179e-01,1.454583041901147400e-01,1.000000000000000021e-03,3.931898939285982664e+01,1.407435428751354911e-01
-3.107763698573637878e+00,6.365475819717780759e-01,2.778643692522169140e-01,1.000000000000000021e-03,4.104078857229339405e+01,1.390430798364981069e-01
6.105914220873396303e-01,-5.873871364668182826e-01,7.079299003866952322e-01,1.000000000000000021e-03,4.324178939514424513e+01,2.335921206859045141e-01
-3.135631591007318697e+00,-8.804365325103675755e-01,4.396930364249067580e-01,1.000000000000000021e-03,4.212445645358188528e+01,1.809810709536614770e-01
-1.814451605314588045e+00,-2.875294393912024571e-01,6.008406515090132238e-01,1.000000000000000021e-03,4.262100213616461986e+01,2.130079897579680581e-01
2.618105807799386398e+00,4.896581915712334698e-01,2.424282820157455109e-01,1.000000000000000021e-03,4.062153816131666417e+01,2.619986205536037893e-01
2.385626894438996892e+00,5.305559720220305309e-01,4.610308009089449932e-01,1.000000000000000021e-03,4.194153193337558605e+01,1.721695356501966034e-01
-1.706091261940206882e+00,4.543868649320406128e-01,2.592707622007000001e-01,1.000000000000000021e-03,4.076729990608551191e+01,1.739346359074948611e-01
1.461626797169857106e+00,-3.181205916904912279e-01,3.821281365094741922e-01,1.000000000000000021e-03,4.184747973553253786e+01,1.495577981083653363e-01
8.842401965789967733e-01,-6.616284034706050310e-01,1.738064318759111604e-01,1.000000000000000021e-03,3.967163913639856077e+01,2.727916509743155693e-01
-1.258410333873992704e+00,-3.506480470776449643e-01,1.854486820300889072e-01,1.000000000000000021e-03,3.990807885052382176e+01,1.294015405533688323e-01
-1.915247323424436710e+00,8.759809211094737869e-01,1.950700021422469010e-01,1.000000000000000021e-03,3.985796453653420457e+01,1.777317854150695098e-01
7.088707422652316126e-01,-1.280034318396239490e+00,2.668956571199450067e-01,1.000000000000000021e-03,4.011586947141677229e+01,3.796694116834696819e-01
6.962401581692612140e-01,6.955633353846764066e-01,2.856268115462186064e-01,1.000000000000000021e-03,4.107394933499802647e+01,1.908546110284719544e-01
1.965829045819685206e+00,5.366987714129733966e-01,5.063567831925717133e-01,1.000000000000000021e-03,4.262126448738504791e+01,2.341185460564381426e-01
1.662975327232289580e+00,1.163137832536424554e+00,5.858630209757633711e-01,1.000000000000000021e-03,4.250595584437288466e+01,1.240853371411637929e-01
1.798738817406733581e+00,8.115844380483236975e-01,2.429385383087883099e-01,1.000000000000000021e-03,4.059750536988028813e+01,2.867331493424681299e-01
1.330112245461825715e+00,2.935799481877749972e-01,5.979349778096125778e-01,1.000000000000000021e-03,4.234440268538916285e+01,1.827336499666731839e-01
4.125929057943316103e-01,9.966745978434228270e-01,8.216397483179829209e-01,1.000000000000000021e-03,4.338385306311590028e+01,1.475115396834255077e-01
-3.146830168349534773e-01,6.478932264077408298e-01,5.726599807780874407e-01,1.000000000000000021e-03,4.278408618736975910e+01,9.871973666366710976e-02
-3.130944580943825439e+00,-3.961122672876873363e-01,5.149762588825841370e-01,1.000000000000000021e-03,4.239733731108051984e+01,2.251207383273293172e-01
1.012250584561654954e+00,-8.951113019393311943e-01,1.484670784615267358e-01,1.000000000000000021e-03,3.922844985153479058e+01,1.259957235021345601e-01
1.861890792469006684e+00,4.997382071871139253e-01,1.259039771828241339e+00,1.000000000000000021e-03,4.449033089541681818e+01,1.936196105474179974e-01
2.243384090518571128e+00,9.645561741625048313e-01,1.246742437547535332e+00,1.000000000000000021e-03,4.476641908601816056e+01,1.315839934958753787e-01
7.718975990462215719e-01,4.161056606561470694e-01,4.316801907910499114e-01,1.000000000000000021e-03,4.170258650125795441e+01,2.414683718730757378e-01
-2.633122106881960800e+00,1.203426824203051027e+00,5.748950078277761389e-01,1.000000000000000021e-03,4.265209504357401471e+01,1.130980086668066376e-01
-7.862368681472382548e-01,-6.976472899125497618e-01,4.606061615749872384e-01,1.000000000000000021e-03,4.269384870264752863e+01,3.501882960313328352e-01
-7.070150973820354956e-01,7.228865861103250801e-01,6.686302382893198892e-01,1.000000000000000021e-03,4.285623701033631505e+01,2.425242988233246300e-01
-3.397344916223210554e-01,1.022038733333099803e+00,3.507100206375892704e-01,1.000000000000000021e-03,4.129618036271342874e+01,2.695109432416238349e-01
-2.187282705311190067e+00,-1.428502474687826762e+00,1.000718191023782122e+00,1.000000000000000021e-03,4.400164152428375530e+01,1.999138435179398376e-01
2.409162820695988749e+00,-1.281524423266860113e+00,4.157617020594199797e-01,1.000000000000000021e-03,4.176138301676444797e+01,1.683532060970388544e-01
2.677906913260903465e+00,-4.195223050705263468e-01,7.880718965577653279e-01,1.000000000000000021e-03,4.336264555236960661e+01,1.707705993326002480e-01
-2.562790384742654304e+00,-5.576087218513456900e-01,3.569709194744583591e-01,1.000000000000000021e-03,4.133374637204501312e+01,1.818033699187403540e-01
2.856738327334640282e-01,6.829793720116730249e-01,2.947208346431324788e-01,1.000000000000000021e-03,4.085385237327873398e+01,1.708561332210475070e-01
2.783936376148879788e+00,-1.317405816242673167e+00,3.197123635206895464e-01,1.000000000000000021e-03,4.132203754315298028e+01,1.811469989615074883e-01
-8.963677599681552088e-01,2.991992245616830193e-01,5.240921958235746914e-01,1.000000000000000021e-03,4.228808973024463569e+01,1.468121887064195441e-01
-3.398746895964572801e-01,1.091664301933441994e+00,7.458774200164490775e-01,1.000000000000000021e-03,4.348118755092455245e+01,1.766857718455509541e-01
1.327499756725067925e+00,-9.031461686989877835e-01,2.365439164100615610e-01,1.000000000000000021e-03,4.026788360755043783e+01,1.989615740305998859e-01
2.245319854508747603e+00,-1.225551507344613267e+00,1.018720753112952959e+00,1.000000000000000021e-03,4.388052463063052500e+01,1.898790115204740669e-01
1.533034849363104968e+00,3.248826829261708404e-01,4.446372171140566820e-01,1.000000000000000021e-03,4.235391208356558224e+01,1.520849632529488182e-01
-2.379386609060869517e+00,2.788339960821568653e-01,1.218733971072121225e+00,1.000000000000000021e-03,4.446854915879333703e+01,1.444488980918003096e-01
-2.436063633194435418e+00,3.721859160843434822e-01,5.599965505907289476e-01,1.000000000000000021e-03,4.263159853448129866e+01,1.048669575023651046e-01
2.592696517147884627e+00,-4.681097542711554205e-01,2.523470070238340579e-01,1.000000000000000021e-03,4.003349317266174978e+01,2.240234688958530895e-01
-3.096373100802956024e-01,3.218804625661193519e-01,6.908172165267192355e-01,1.000000000000000021e-03,4.309953537359256615e+01,2.572382212402216095e-01
-1.859778219756890616e+00,-6.210168967166161957e-01,1.706433850149859932e-01,1.000000000000000021e-03,3.968870805080362629e+01,1.926268739173923050e-01
1.946799574357562790e-01,5.189390792541015429e-01,6.622299363834316388e-01,1.000000000000000021e-03,4.301621092590843176e+01,1.245330684279582212e-01
-1.166239936539803956e+00,5.269896639064377553e-01,2.010770213717034682e-01,1.000000000000000021e-03,4.031807169579691674e+01,1.517171590261020830e-01
-1.072580782635879082e+00,9.173287929566744658e-01,2.306145918362059177e-01,1.000000000000000021e-03,4.021824994049634228e+01,1.080933149255493136e-01
-5.144646824620213721e-02,1.091750720778113859e+00,1.093955191526307047e+00,1.000000000000000021e-03,4.450768164940872396e+01,9.955867466445703085e-02
-1.849575082599699494e+00,3.693222240365310327e-01,8.255647610862031360e-01,1.000000000000000021e-03,4.371994970876097852e+01,2.841667616940625196e-01
-1.762884896117210776e+00,-7.605811948244389775e-01,3.335040669569246941e-01,1.000000000000000021e-03,4.117610492450164372e+01,1.419754427202137292e-01
-1.704142219876566555e+00,-9.819145214632649665e-01,2.080101727119028077e-01,1.000000000000000021e-03,3.997889150882618736e+01,1.579095822974238561e-01
-1.113496001579863393e+00,2.990545445368648636e-01,8.139853172693278793e-01,1.000000000000000021e-03,4.352808102414898173e+01,3.423343005554207452e-01
5.454116725868773941e-01,9.105183232237648028e-01,7.436095286931065917e-01,1.000000000000000021e-03,4.329612816159571054e+01,1.698207315633435965e-01
-1.055560580383052116e+00,8.597196673052485139e-01,6.521747198874925378e-01,1.000000000000000021e-03,4.303189920174626337e+01,1.760679896810090350e-01
-7.748265390262982777e-01,4.136315580265457204e-01,7.263131316021387285e-01,1.000000000000000021e-03,4.307619766321516153e+01,2.776423396983582759e-01
-4.856622847116613961e-01,-1.075480226222190527e+00,9.095899864452459127e-01,1.000000000000000021e-03,4.382649480011413345e+01,2.073086957967386068e-01
-1.669674369368960409e+00,1.288818261960352984e+00,4.587608918355303711e-01,1.000000000000000021e-03,4.190895175353690405e+01,1.837882356962102781e-01
-2.789256022936838164e+00,-6.540565004849414610e-01,2.341361098736502999e-01,1.000000000000000021e-03,4.026552947291629181e+01,2.122929746066916368e-01
-1.291461174091211861e+00,-7.829667432732141386e-01,1.531779863110227513e-01,1.000000000000000021e-03,3.934230924209197156e+01,2.022792620329034730e-01
2.561133868985088213e+00,9.142876529565686639e-01,3.882515927000023126e-01,1.000000000000000021e-03,4.166897596155017425e+01,1.295674540142031927e-01
-1.729470089614876915e+00,-5.844277489908795697e-01,2.186925569451059204e-01,1.000000000000000021e-03,4.013705977692492866e+01,1.113093039353938302e-01
-4.796425537240822656e-01,-9.642025977416619487e-01,5.461436890111890374e-01,1.000000000000000021e-03,4.249279968575858391e+01,1.382908507784949559e-01
1.862005162282727611e+00,9.310195158379488412e-01,2.309308681394379725e-01,1.000000000000000021e-03,4.072752031273299878e+01,2.235157079685764214e-01
1.012754943497450100e+00,3.942310408168352431e-01,2.188517845485686841e-01,1.000000000000000021e-03,4.004143206347397665e+01,2.707646027331275240e-01
-2.214320105715630760e+00,5.677320356825648062e-01,6.265027429801768299e-01,1.000000000000000021e-03,4.285186153023876443e+01,2.113858953673749541e-01
2.781575823709965256e+00,-7.823087437926927734e-01,1.826127313293777199e-01,1.000000000000000021e-03,3.979686080767859124e+01,1.575090686625522374e-01
-1.695517044535730600e+00,-3.965844306610513126e-01,2.795342466220860356e-01,1.000000000000000021e-03,4.047191623187482890e+01,1.732812612590481083e-01
3.207641343967377878e-01,3.743497850455677067e-01,1.701192416548162889e-01,1.000000000000000021e-03,3.963493772707179374e+01,1.178210472441505036e-01
-4.334741444966887514e-01,3.303699303627867234e-01,4.782119617168860692e-01,1.000000000000000021e-03,4.208260777986215118e+01,2.772620066825504104e-01
9.869508687716050943e-01,-3.577501034423842263e-01,5.497091318127802495e-01,1.000000000000000021e-03,4.254451586360546145e+01,1.560690459091498838e-01
2.672805477224589055e+00,-6.470488900153000822e-01,2.812994506655408511e-01,1.000000000000000021e-03,4.097155384486659813e+01,2.239487753299625461e-01
1.902397529578867541e+00,-5.291022965766749575e-01,2.307789463014418008e-01,1.000000000000000021e-03,4.043141241676377717e+01,1.936675034807154583e-01
3.412569997304037983e-01,-1.062960809250033112e+00,6.475476247667282248e-01,1.000000000000000021e-03,4.289478552861336880e+01,1.723945663173518383e-01
-2.622242005011806043e+00,-1.156279888631462693e+00,2.422940924632397408e-01,1.000000000000000021e-03,4.057712397454621112e+01,2.071690472109622982e-01
-3.189493138590560051e-02,5.485056566952040136e-01,3.864795461301337998e-01,1.000000000000000021e-03,4.143575776968437907e+01,1.835876038246923858e-01
-9.153398608861431640e-01,-3.276106110696730411e-01,2.506773110437410246e-01,1.000000000000000021e-03,4.069534925930666702e+01,1.436568196711545398e-01
-2.953615527111789874e+00,-2.931372294567651249e-01,3.702728229261649240e-01,1.000000000000000021e-03,4.167897656567275533e+01,2.045259760997202581e-01
1.310043632089311849e+00,5.046653128746649841e-01,4.391146930006153415e-01,1.000000000000000021e-03,4.214530023591134977e+01,1.377522528560349846e-01
-3.117893790771235629e+00,1.057723635085732194e+00,2.427331108263246495e-01,1.000000000000000021e-03,4.050000279346957655e+01,1.253765107017637270e-01
-7.978420563920587405e-01,4.410280354712012851e-01,2.949885262739342373e-01,1.000000000000000021e-03,4.095147234882171006e+01,2.212504772904266559e-01
2.998656368363678659e+00,1.243359026211898755e+00,8.042226900777993404e-01,1.000000000000000021e-03,4.350576258131411578e+01,1.140320891134307818e-01
4.541934901840143368e-01,4.495671540530441490e-01,6.898079569598951633e-01,1.000000000000000021e-03,4.327573862696995377e+01,1.010314342792388298e-01
1.268677200315956100e+00,6.252837467221246115e-01,4.105346670096325923e-01,1.000000000000000021e-03,4.188557112519920622e+01,2.108635124162406282e-01
-9.271019028200999657e-02,2.748489796361421877e-01,1.674266831233439667e-01,1.000000000000000021e-03,3.908727222049345329e+01,2.245549928538494167e-01
1.042513010484626967e-01,-6.933228112170318758e-01,3.910497052945540730e-01,1.000000000000000021e-03,4.160918989579031546e+01,1.755956020444139620e-01
1.304982145479326228e+00,3.880654552143973923e-01,3.333304523101849881e-01,1.000000000000000021e-03,4.133937335070496033e+01,1.350243492887462371e-01
-3.046537247108220381e+00,-1.140629043059785186e+00,7.258486356941091788e-01,1.000000000000000021e-03,4.331625146877940580e+01,1.617606979063074268e-01
-8.351738715304821703e-01,-3.338754933993504093e-01,1.151627128043011261e+00,1.000000000000000021e-03,4.440703533456651542e+01,2.699944432921539961e-01
2.683932224378606790e+00,-7.838882243361512403e-01,3.838437423653087155e-01,1.000000000000000021e-03,4.125764057439934618e+01,2.155093929765085625e-01
1.889777308689433610e+00,-1.157998906847645060e+00,3.243296101011463595e-01,1.000000000000000021e-03,4.114450040282355303e+01,1.652784859926987315e-01
2.199446426002936938e+00,-6.493039684463366434e-01,1.222881887376583876e+00,1.000000000000000021e-03,4.442193778686230843e+01,1.818594017116747230e-01
2.684521636046054205e+00,-6.161769054194891071e-01,1.220791603782645396e+00,1.000000000000000021e-03,4.456354577822593654e+01,1.315310891784655656e-01
2.410887672559432815e+00,2.819969833796558412e-01,2.115276246754995704e-01,1.000000000000000021e-03,4.021824889443357165e+01,1.472751855250734321e-01
2.800387965844638671e+00,6.259797898281220796e-01,2.078042395627377470e-01,1.000000000000000021e-03,4.013607583219889108e+01,1.590504716810952901e-01
2.174737110078151403e+00,-5.154417013180496721e-01,1.680277343125060607e-01,1.000000000000000021e-03,3.975227157846190806e+01,1.859156751772468863e-01
-1.082681103122658417e+00,-5.775974918157342763e-01,3.626446701198593470e-01,1.000000000000000021e-03,4.131413162549673501e+01,2.076392058504326066e-01
3.020108454090043359e+00,-3.004138822216331217e-01,1.183169531766237181e+00,1.000000000000000021e-03,4.473538862310608266e+01,3.596083357271685488e-01
-3.697418432670254163e-01,3.625243745518189620e-01,2.742592934624987766e-01,1.000000000000000021e-03,4.072173685198560378e+01,1.007069092141523042e-01
2.543844592190679599e+00,1.003474354618442366e+00,4.270250427501640633e-01,1.000000000000000021e-03,4.184527258546753359e+01,1.228000422292659100e-01
-2.217367763056034669e+00,9.956335044541688717e-01,3.401821273139642443e-01,1.000000000000000021e-03,4.125295833484022978e+01,9.646182439450637358e-02
3.012315659921658728e+00,-5.531626107355904765e-01,4.169740244677049290e-01,1.000000000000000021e-03,4.186279411997217181e+01,2.647738209864136105e-01
-1.646279545671074374e-01,-9.160973820768719689e-01,2.420810563367945534e-01,1.000000000000000021e-03,4.051003300459491641e+01,2.234093450580285634e-01
-9.925892940874709858e-01,6.689383193530367144e-01,2.249929327453785710e-01,1.000000000000000021e-03,4.027872025588337834e+01,1.763737632328738481e-01
-1.390411645156964804e+00,8.885339005588708261e-01,4.039324575462945877e-01,1.000000000000000021e-03,4.159015267249726122e+01,1.946067081310848823e-01
9.145040519739664475e-01,-7.253562432019071693e-01,3.341983293289647605e-01,1.000000000000000021e-03,4.069084506845444338e+01,3.632041870834827879e-01
2.421576579439019383e+00,3.033914233864791754e-01,1.182779258055153271e+00,1.000000000000000021e-03,4.452519050981273097e+01,1.618364153459505017e-01
-2.349628146672532836e+00,6.979364362304809610e-01,6.134378417592150079e-01,1.000000000000000021e-03,4.249219802910385368e+01,2.476933928298340470e-01
1.331572936256932849e+00,5.451557003125468981e-01,2.503424884747633694e-01,1.000000000000000021e-03,4.017885385268125020e+01,2.607020335615958251e-01
-1.700401547097132982e+00,6.321026528632653907e-01,6.239600935251838898e-01,1.000000000000000021e-03,4.288396015453192689e+01,1.437780087931183337e-01
-2.484559802831011410e+00,-3.939742170756963535e-01,2.709010911283102896e-01,1.000000000000000021e-03,4.053940397453796862e+01,9.940903688037792951e-02
-1.179961126424616813e+00,4.701665196263657975e-01,4.880516172912456874e-01,1.000000000000000021e-03,4.205538138807597193e+01,1.796618868876041497e-01
-1.529698694808763193e-01,-3.371820202421793589e-01,1.145697614858788516e+00,1.000000000000000021e-03,4.427632305942996283e+01,1.299154931014614989e-01
8.697046472832301589e-01,-3.694399499259306552e-01,6.328250698060926549e-01,1.000000000000000021e-03,4.258711338390396151e+01,3.042242954151754830e-01
9.013104761406198762e-01,5.809486093435451970e-01,3.179739262548304524e-01,1.000000000000000021e-03,4.108135947379037134e+01,1.454791035837471047e-01
2.286271229979837116e+00,-6.396765613922086313e-01,5.667761197374860949e-01,1.000000000000000021e-03,4.261849214432223931e+01,1.838386752479436725e-01
1.796248680496060679e+00,9.613815212077412298e-01,1.576278593376894133e-01,1.000000000000000021e-03,3.956897271274291938e+01,1.681983142391982045e-01
2.095267282899722971e+00,2.992455494825174700e-01,3.855250455332659421e-01,1.000000000000000021e-03,4.173739038219862607e+01,1.127924087295310712e-01
-2.457037955039780286e+00,-4.399194797328871420e-01,7.677422599353245225e-01,1.000000000000000021e-03,4.373677164496304925e+01,2.220209964623873766e-01
-4.547540215516119311e-01,-9.085040343242269945e-01,4.193475498343233188e-01,1.000000000000000021e-03,4.225351322990942293e+01,2.210527841640589630e-01
2.141439507859181468e+00,5.016959473983577666e-01,2.322578532275985097e-01,1.000000000000000021e-03,4.058989763552872176e+01,2.694016467963737393e-01
-1.297176964962649892e+00,1.157991938192403314e+00,6.406186178413357801e-01,1.000000000000000021e-03,4.293301375561355826e+01,2.083078697380928157e-01
2.691326720638398839e+00,-6.897689035697395221e-01,6.081723142540367277e-01,1.000000000000000021e-03,4.303760028709040597e+01,2.032720392053310454e-01
2.822938881389654320e+00,7.104971294419764050e-01,7.543638734829152259e-01,1.000000000000000021e-03,4.347523241820778850e+01,1.297993638944811290e-01
-2.144364247968190362e+00,-5.150094914839680182e-01,1.876449920111034064e-01,1.000000000000000021e-03,3.998216443332413661e+01,1.272270732527435444e-01
-4.219987649089773640e-01,6.253726966912998009e-01,1.031946960360530685e+00,1.000000000000000021e-03,4.421475346566725761e+01,1.223255335461102128e-01
-2.962230123222594269e+00,-3.360910338285334475e-01,7.150754252869857552e-01,1.000000000000000021e-03,4.297767420585659437e+01,2.436314556040336810e-01
-2.458208866802755299e+00,-1.040205602859865852e+00,2.704349519649846822e-01,1.000000000000000021e-03,4.109656669379081961e+01,3.422227698087955128e-01
-2.613248572541612802e+00,-8.067996798761108979e-01,3.873307369622953633e-01,1.000000000000000021e-03,4.153344764377386866e+01,2.471426356673374902e-01
1.067675824664437556e+00,8.982068952302224574e-01,6.479497379878573771e-01,1.000000000000000021e-03,4.309135717135602306e+01,1.597184433265690928e-01
-2.111834735595419232e+00,8.856184130249760145e-01,1.670290872110156144e-01,1.000000000000000021e-03,3.929790315200153117e+01,1.957512309459747690e-01
-2.683245137669503677e+00,1.462712277422924867e+00,4.253151437021709391e-01,1.000000000000000021e-03,4.197127880007457179e+01,1.496407019685672135e-01
1.873091101996723573e+00,6.101140452002700165e-01,3.570804363469612941e-01,1.000000000000000021e-03,4.141272020954722421e+01,1.450131467095510385e-01
4.178632182449066867e-01,6.882179051542816062e-01,1.678742778371828948e-01,1.000000000000000021e-03,3.911949482264516575e+01,2.684660119608829887e-01
2.086602979003545855e+00,7.710522698819524123e-01,2.082144846831734952e-01,1.000000000000000021e-03,3.995279521280807700e+01,2.362627769495652952e-01
-1.685456647918849971e+00,4.041529379704260627e-01,4.704212681988859668e-01,1.000000000000000021e-03,4.201451623119451284e+01,2.020062692960334916e-01
1.780741126841358657e-01,6.944934581991941691e-01,3.191723776317514361e-01,1.000000000000000021e-03,4.124277630738044564e+01,2.143952811318597662e-01
2.046698561613588652e+00,7.994667082306841088e-01,1.889710719465969024e-01,1.000000000000000021e-03,3.989682455492331314e+01,1.207763651062210286e-01
7.581468453062423229e-01,3.998802643843031301e-01,6.758552851485475355e-01,1.000000000000000021e-03,4.335071516741285791e+01,2.485468648617462362e-01
1.448858296992338701e+00,5.703866893182709674e-01,2.410335536236574150e-01,1.000000000000000021e-03,4.036446022363049480e+01,2.223842607807417215e-01
-1.997459114028174554e+00,4.108412781376231671e-01,2.723675144592656583e-01,1.000000000000000021e-03,4.076064549859336239e+01,2.206171871645136728e-01
-3.027256612743829400e+00,5.087990325516993373e-01,3.492531839547006189e-01,1.000000000000000021e-03,4.158125358283817974e+01,1.125929669856915449e-01
5.783105607891285693e-01,4.924416671313287530e-01,1.997104770096225224e-01,1.000000000000000021e-03,4.004658381349270968e+01,1.867115242184310409e-01
3.115328610427328115e+00,7.733412999676922972e-01,6.263719622292540645e-01,1.000000000000000021e-03,4.299647420506845918e+01,1.547348528338621798e-01
-5.255918112917643548e-01,-8.159147594445455010e-01,3.614237196114984396e-01,1.000000000000000021e-03,4.153233174963050089e+01,1.704136051939790508e-01
-8.777626095356922953e-01,-5.036441543679635036e-01,1.269790080025237966e+00,1.000000000000000021e-03,4.480905916359079555e+01,9.638198152660817919e-02
-2.598849126622906347e+00,-1.476072959904831894e+00,1.785203359395735045e-01,1.000000000000000021e-03,3.975921752034057022e+01,1.255125985394525412e-01
-1.035762944520976170e+00,3.057431562583416973e-01,6.921658666216174982e-01,1.000000000000000021e-03,4.281900386617940057e+01,3.770755334670369274e-01
-1.615303674629039454e+00,-8.605094440720600923e-01,2.169618872322005565e-01,1.000000000000000021e-03,4.001563909634551663e+01,1.612358569340419101e-01
-2.612551323134433723e+00,-2.833819300585960210e-01,7.935866804278475239e-01,1.000000000000000021e-03,4.337209981729082386e+01,2.554744354458003963e-01
6.380536036822790358e-01,-8.563008460937427957e-01,1.063679771078472225e+00,1.000000000000000021e-03,4.419293904957775965e+01,1.402886777315774658e-01
2.407702959637879836e+00,-6.957900263783857175e-01,6.860550165174492676e-01,1.000000000000000021e-03,4.315500026751343654e+01,1.364914570298180752e-01
2.939427709965745095e-01,3.794354748623485207e-01,4.891969614182776205e-01,1.000000000000000021e-03,4.235297596500660688e+01,2.260691265002612027e-01
7.651227786495504724e-01,-7.590539474007623744e-01,2.240398689256741793e-01,1.000000000000000021e-03,4.017145779071991285e+01,2.129598314819596550e-01
2.363668000622279664e+00,9.818850527153974994e-01,3.101836670859037248e-01,1.000000000000000021e-03,4.106399984973073458e+01,1.330873687696810526e-01
-1.576315985193454949e-01,3.228680148474318834e-01,6.643349932209765552e-01,1.000000000000000021e-03,4.257876370236094488e+01,2.477893466922968524e-01
7.314291967502493108e-01,7.153080861435663351e-01,2.182626696439817771e-01,1.000000000000000021e-03,4.012345454156776015e+01,1.760609949800706064e-01
1.736822976626272386e+00,-5.087798071022764379e-01,2.325190752259134186e-01,1.000000000000000021e-03,4.039612161835817261e+01,2.187639753137756993e-01
1.869492743748402575e+00,-9.111460072047951053e-01,5.127847664866511668e-01,1.000000000000000021e-03,4.244391277996086131e+01,2.469684548660509571e-01
5.263132342502263583e-02,-7.955002547815550606e-01,1.699113823265137047e-01,1.000000000000000021e-03,3.954415463648251006e+01,1.507607184106955489e-01
-9.496592187670263030e-01,9.955485272842805600e-01,1.542017077719612939e-01,1.000000000000000021e-03,3.938654543069703351e+01,1.954877299450399342e-01
-1.391996095538024614e+00,-7.710221457171990700e-01,1.547289906000153259e-01,1.000000000000000021e-03,3.918802923422289552e+01,1.211635485778361498e-01
-2.692107539450791620e+00,-4.991858300752520794e-01,2.525668641345684140e-01,1.000000000000000021e-03,4.045779264138055709e+01,1.707003623923558921e-01
2.053722840311942299e+00,2.629742429537702542e-01,3.232550822070299201e-01,1.000000000000000021e-03,4.120672012720882549e+01,1.230402254446615606e-01
-1.070259006083733588e-01,1.095602038688114011e+00,3.282203930917451107e-01,1.000000000000000021e-03,4.125801717588225870e+01,1.360790163542668352e-01
-9.981586055061244522e-01,6.139302291063692962e-01,3.564482206510681817e-01,1.000000000000000021e-03,4.143536042042241263e+01,1.104457194033696410e-01
2.419877320974079815e+00,4.637483610796500066e-01,5.433542025010795751e-01,1.000000000000000021e-03,4.266449633316091905e+01,1.573776461718937314e-01
1.984963667505177831e+00,1.080149945061407379e+00,7.571959258505280843e-01,1.000000000000000021e-03,4.327657475887928484e+01,2.400467183681215810e-01
-1.433231667226854800e+00,6.664104452417505264e-01,6.867114777676186499e-01,1.000000000000000021e-03,4.324782333662467693e+01,2.028263264548106626e-01
2.162946167957394472e+00,9.363559285352471839e-01,2.205119768786683032e-01,1.000000000000000021e-03,4.020964564202245128e+01,9.634639503994803233e-02
2.327956348953729382e+00,-1.118394475188996484e+00,9.145468086132255703e-01,1.000000000000000021e-03,4.384848313987165369e+01,1.617575424021634456e-01
8.705821242870737109e-02,-6.607338372493921641e-01,6.629600150904566558e-01,1.000000000000000021e-03,4.325656176025100308e+01,2.131774968380762414e-01
3.002897973813199783e+00,1.056081076946230102e+00,6.424582106024412376e-01,1.000000000000000021e-03,4.295085687867418756e+01,1.016894887874239262e-01
-9.060232082736345838e-01,-6.837339892490861271e-01,1.446392825481754851e-01,1.000000000000000021e-03,3.940867805533520141e+01,2.774856196686484311e-01
-2.540400023337322288e+00,3.301757762359898152e-01,2.044138818866454432e-01,1.000000000000000021e-03,4.006070756988700765e+01,2.225177838866894964e-01
1.979560128005806163e+00,-3.646674888320238228e-01,3.054441798211819936e-01,1.000000000000000021e-03,4.107653195942889113e+01,1.861922465593681131e-01
-1.797317819425897856e+00,-6.457002025043433457e-01,9.565133593801862233e-01,1.000000000000000021e-03,4.378914592948385121e+01,1.241853775047025848e-01
-2.218101156794118456e+00,-5.025673783634541092e-01,1.844011445298781027e-01,1.000000000000000021e-03,3.969486713475809836e+01,1.734095834183706220e-01
1.069273026577620023e+00,4.294612608784262875e-01,2.380050031788281117e-01,1.000000000000000021e-03,4.040067102361573603e+01,1.270750416846949948e-01
3.132278407812930432e+00,-4.507845766550948596e-01,5.075815969192560839e-01,1.000000000000000021e-03,4.293080021322553108e+01,3.743245731916958197e-01
-1.477731107758769591e+00,5.447950634541807169e-01,2.662649312417300074e-01,1.000000000000000021e-03,4.060666307662293661e+01,1.449109787394705084e-01
-7.264854468613206606e-01,-2.863247695156765360e-01,2.888837720546710841e-01,1.000000000000000021e-03,4.100701362504392478e+01,1.830465500416040281e-01
2.679907076613879724e+00,-8.393441242611270336e-01,6.178887304766458310e-01,1.000000000000000021e-03,4.272195628326308281e+01,2.058174865259684294e-01
-1.234265461011232246e+00,3.632467880811109939e-01,2.295780822439927871e-01,1.000000000000000021e-03,4.050097932466501760e+01,2.808871952007876427e-01
-1.707493085549178780e-01,3.924136587098578932e-01,3.176377984591614023e-01,1.000000000000000021e-03,4.058012053184982904e+01,2.405931140264454260e-01
1.928100540511092476e+00,1.330468429688453469e+00,4.683595491607166483e-01,1.000000000000000021e-03,4.190511052693543093e+01,1.437937564913140953e-01
-2.718839271238771005e+00,8.176553838671249963e-01,2.317673466115006686e-01,1.000000000000000021e-03,4.074060415473196883e+01,2.295018041802211195e-01
2.058413482732191824e+00,8.566877511891251018e-01,3.204237674952712389e-01,1.000000000000000021e-03,4.129340740582194513e+01,1.240312844292978112e-01
-1.264966835794250954e+00,8.437778794512098557e-01,3.561359669707890863e-01,1.000000000000000021e-03,4.159568481345554147e+01,2.091193344934708098e-01
-2.932005418652070983e+00,-5.570237426215913779e-01,5.868167764240324047e-01,1.000000000000000021e-03,4.240042980003783413e+01,2.804556344054754957e-01
-1.520799951985483345e+00,-6.289766597132208092e-01,4.943596868849320369e-01,1.000000000000000021e-03,4.235827258227332237e+01,1.732280744767550063e-01
2.568609897665672825e+00,-9.789105740454696614e-01,3.039603681671121382e-01,1.000000000000000021e-03,4.089323179632859961e+01,3.174718410629743248e-01
-2.213916905202128582e+00,1.225579294436765831e+00,5.229558602298132186e-01,1.000000000000000021e-03,4.239861524303050544e+01,2.544757691291079094e-01
-2.738551876443127142e+00,1.022498852658642932e+00,4.456994139291858836e-01,1.000000000000000021e-03,4.188873453791597967e+01,2.022242660602611986e-01
-2.532631989946180440e+00,3.853444333871389738e-01,2.660652108613072997e-01,1.000000000000000021e-03,4.108018948017234351e+01,1.789738462822043352e-01
2.823923329646162550e+00,3.559630997846419120e-01,7.393878042015804564e-01,1.000000000000000021e-03,4.315938589802718894e+01,1.323200474632199863e-01
2.056314328834581318e+00,5.507217308519729571e-01,4.992931960198230268e-01,1.000000000000000021e-03,4.248080616061102432e+01,1.077267818914130065e-01
-2.668564420895585876e+00,7.723715280138079287e-01,1.619817742631122215e-01,1.000000000000000021e-03,3.938840650858868742e+01,1.366903114027308852e-01
-9.251127686807638639e-01,-1.335889208460817823e+00,2.598748389990002128e-01,1.000000000000000021e-03,4.095946943248249994e+01,3.262262327320025190e-01
-2.326389041766656618e-01,-4.937182352846407607e-01,2.351031364642615085e-01,1.000000000000000021e-03,4.048461778883296347e+01,1.600169478502659337e-01
1.578112188325929921e+00,2.998746530620768347e-01,1.544523081487683136e-01,1.000000000000000021e-03,3.922461216739107925e+01,1.587479246658517196e-01
-6.335820317758225073e-01,1.131355373799119768e+00,3.606638315414969487e-01,1.000000000000000021e-03,4.145916923632395168e+01,1.970640855725849794e-01
2.063191492623083434e+00,-5.771729574272201901e-01,6.278229542355133752e-01,1.000000000000000021e-03,4.277986242585082977e+01,1.502539078237579429e-01
5.640028933972236480e-01,-6.324448492996164184e-01,7.374413175812584154e-01,1.000000000000000021e-03,4.347203687617919599e+01,1.634373179278575949e-01
6.475640767506174456e-03,-1.217257040263499679e+00,1.005871535600800115e+00,1.000000000000000021e-03,4.424652616097582580e+01,1.002443416801124393e-01
-2.785444040880222794e+00,-5.077636973479251470e-01,3.677969448780606943e-01,1.000000000000000021e-03,4.160367746195634453e+01,2.295449274019244201e-01
-1.282725430227824370e+00,-7.976398054953863781e-01,2.409328314239551627e-01,1.000000000000000021e-03,4.059610424706803400e+01,1.502372277296400438e-01
1.368517777161244453e+00,1.157466872990015716e+00,5.552912628377166815e-01,1.000000000000000021e-03,4.277644279678852257e+01,3.196698211560970448e-01
2.343072326067698441e+00,4.771548755995649316e-01,7.714209606947302067e-01,1.000000000000000021e-03,4.355981441051843461e+01,1.794740891711060771e-01
1.403154975215849198e+00,-3.151772824117289318e-01,3.624592911994766187e-01,1.000000000000000021e-03,4.121225382192211839e+01,3.537588515337469208e-01
-1.029999930356685578e+00,1.019991872826406798e+00,6.926670073806582284e-01,1.000000000000000021e-03,4.299529694884979847e+01,2.152544229125041841e-01
-1.336649164231748843e+00,6.707693984664837572e-01,9.811693092669595551e-01,1.000000000000000021e-03,4.414566795476441996e+01,1.200499428876234537e-01
-1.553872010937764614e+00,3.629248132113374048e-01,2.411489068634804500e-01,1.000000000000000021e-03,4.006340084640012122e+01,3.582021849517122991e-01
-1.763609456182353208e+00,-8.798547801963252368e-01,4.084029228757926067e-01,1.000000000000000021e-03,4.155126392351014886e+01,1.703780845900957075e-01
-2.905215169026872601e+00,-8.412165458595106671e-01,5.268388944248476591e-01,1.000000000000000021e-03,4.216399234957276576e+01,2.017058032486473695e-01
4.967640872898040350e-01,3.697777611454240443e-01,2.865019072049728166e-01,1.000000000000000021e-03,4.048016029444604413e+01,2.156990237426784918e-01
1.252513353459132617e+00,-9.942677643503535778e-01,2.222364270383467844e-01,1.000000000000000021e-03,4.021627931158509028e+01,1.002278779553501808e-01
-2.855328395760942328e+00,1.287824733406349953e+00,5.916521720282794661e-01,1.000000000000000021e-03,4.253765417901401946e+01,1.477745295845156459e-01
3.105464905153204391e+00,-5.104461401145092836e-01,2.375498021840156682e-01,1.000000000000000021e-03,4.019087381448741780e+01,2.653359540597741151e-01
1.988350907623595454e+00,4.199163902930780345e-01,7.218194300356226556e-01,1.000000000000000021e-03,4.296965159708237536e+01,1.922316411556342364e-01
9.101973522074100487e-01,-1.278318691248894634e+00,1.098354639182254733e+00,1.000000000000000021e-03,4.432389070328807890e+01,1.366699026072233647e-01
2.479220732886323830e+00,-4.094316730153435557e-01,8.966446294436702935e-01,1.000000000000000021e-03,4.376610943276998711e+01,2.215252778117350330e-01
2.033370476520186543e+00,-8.312106834866587191e-01,6.071149331900775881e-01,1.000000000000000021e-03,4.268534299585757452e+01,2.561071756117106468e-01
7.556135537399084612e-01,-1.451215926484641372e+00,7.422812603572288559e-01,1.000000000000000021e-03,4.349027192680829046e+01,1.917415290981967502e-01
-2.273203370894340658e+00,3.260529042084892026e-01,2.032060754152562598e-01,1.000000000000000021e-03,3.997111225101559029e+01,2.782291869016244590e-01
-9.335778641142220557e-01,3.900687014141299702e-01,5.277323074815301052e-01,1.000000000000000021e-03,4.235669139722887877e+01,1.537790514553355470e-01
8.020705461649342283e-01,-6.629914646043314486e-01,2.233331662549851160e-01,1.000000000000000021e-03,4.041470012609171647e+01,1.843624594770765235e-01
2.675556179471874074e+00,-1.083617267746682433e+00,4.227937706609128377e-01,1.000000000000000021e-03,4.158561743841267599e+01,2.220739643601345459e-01
1.513722481770769512e+00,6.204987324954074346e-01,7.018694445699620310e-01,1.000000000000000021e-03,4.282501941242970389e+01,2.525415794258263902e-01
7.390891418151501746e-01,-6.677237253007596296e-01,6.132450236342741334e-01,1.000000000000000021e-03,4.311076213292926695e+01,2.128420089825850126e-01
1.946721393987942861e+00,4.971506176197086901e-01,1.931067692733801078e-01,1.000000000000000021e-03,3.982954550379453451e+01,1.489897446234248468e-01
-3.672370584407351757e-01,4.608012872246445291e-01,7.212872820536748719e-01,1.000000000000000021e-03,4.327577566932536257e+01,2.789111182356974750e-01
-1.986647362949283790e+00,-4.628892386226994837e-01,4.494381235386524232e-01,1.000000000000000021e-03,4.200565379134293664e+01,1.631034787619382309e-01
2.572480744696838961e+00,3.454955002724757751e-01,1.796053180993413267e-01,1.000000000000000021e-03,3.967690925690429538e+01,1.005732018243698650e-01
-3.061436577135487447e+00,5.879638913744003048e-01,8.210943096803777763e-01,1.000000000000000021e-03,4.355703078677704809e+01,1.209374387234846832e-01
-2.307748666773674184e+00,8.420117747352247051e-01,4.236242889208687856e-01,1.000000000000000021e-03,4.189790923168047243e+01,2.231577545142355290e-01
-1.292951576965404303e+00,4.457679342480260765e-01,6.032093030194420891e-01,1.000000000000000021e-03,4.256861005872075765e+01,1.572827751890007730e-01
2.940819148676160566e+00,-3.000370224100410432e-01,3.766729401972057634e-01,1.000000000000000021e-03,4.173485694066823015e+01,2.629397206502385731e-01
2.170039486860313005e+00,9.437107970761138276e-01,1.961067475629429957e-01,1.000000000000000021e-03,4.003420171028783869e+01,1.867060126785166640e-01
1.577523957637837704e+00,4.748662238022967053e-01,4.281903721437450017e-01,1.000000000000000021e-03,4.195928953623403856e+01,1.779423215127215185e-01
-2.448062341767162753e+00,-8.981042536019262501e-01,3.357420993953965649e-01,1.000000000000000021e-03,4.123718230721370048e+01,1.010157972408702309e-01
2.537360066609995357e+00,-7.037711932207815213e-01,7.114214894489279128e-01,1.000000000000000021e-03,4.325905651755310544e+01,1.448335711316832697e-01
-1.412205885549091766e+00,-2.684732473947215592e-01,2.079622215395064977e-01,1.000000000000000021e-03,4.008078140366434639e+01,1.657739805465587024e-01
-2.730054923991520610e-01,2.828263737815448486e-01,2.014493535636552313e-01,1.000000000000000021e-03,3.999860127949735045e+01,1.502097897985819608e-01
-2.793722883276579250e+00,3.952471548317264549e-01,2.318373245897227264e-01,1.000000000000000021e-03,4.037496965022641859e+01,1.308448084037545645e-01
-9.382034297834760395e-01,9.103455201214392112e-01,4.161257068103807466e-01,1.000000000000000021e-03,4.174647722504658276e+01,1.240340729312206791e-01
3.075889786975727347e-01,-3.151895483895219563e-01,1.249728335102546772e+00,1.000000000000000021e-03,4.501188141625949157e+01,1.806196483478347548e-01
-3.516547386005060005e-01,-3.905952355874817705e-01,1.523981045073756757e-01,1.000000000000000021e-03,3.890270885434725301e+01,2.308770687999162352e-01
3.649537310475272633e-01,-6.863884506845389089e-01,5.224709417026560665e-01,1.000000000000000021e-03,4.246755969897667171e+01,2.684511140870081136e-01
-2.570967609365129025e+00,8.420119460712958137e-01,4.598486925287947891e-01,1.000000000000000021e-03,4.226872770851473859e+01,2.803557480400110657e-01
-1.834481340959652540e+00,-6.600019429837574725e-01,2.674400826752354465e-01,1.000000000000000021e-03,4.061401501492526478e+01,1.299804292878692646e-01
1.775768023995298428e+00,9.236293129957369175e-01,2.118616983086381023e-01,1.000000000000000021e-03,3.993372799291635289e+01,1.301648379977589365e-01
-2.652213398718342052e+00,-3.801545850143419614e-01,7.027492234112773239e-01,1.000000000000000021e-03,4.306532445605983384e+01,1.450712089469825827e-01
1.054889467319084950e+00,3.454625473980805772e-01,1.494441342440444576e-01,1.000000000000000021e-03,3.917172376128117861e+01,1.392510388103772867e-01
2.245765440381305211e+00,2.962492069052931054e-01,1.263252702823587370e+00,1.000000000000000021e-03,4.490862793703568911e+01,2.052413161261872343e-01
-3.024395998337015001e-01,-8.335715873431612799e-01,5.376216560437905301e-01,1.000000000000000021e-03,4.262781900604148433e+01,1.186225032219747622e-01
1.356465419408293904e+00,4.049964178538394410e-01,9.001995574695114133e-01,1.000000000000000021e-03,4.361206325662323735e+01,2.111850463625886132e-01
1.381590818173408231e-01,-1.062024860979799312e+00,1.591252521072059611e-01,1.000000000000000021e-03,3.949006851871589419e+01,1.568841229140011673e-01
2.892592571774536658e+00,2.780227338862120146e-01,2.322707814568476525e-01,1.000000000000000021e-03,4.067142002190995242e+01,2.508294023211256607e-01
-2.913928258195456422e+00,-8.327513091585252436e-01,2.189228637849240933e-01,1.000000000000000021e-03,3.998316074692714750e+01,2.725117794059302434e-01
-1.395083448217240063e+00,-8.695086645890629518e-01,1.693546199042819111e-01,1.000000000000000021e-03,3.946347323444456379e+01,1.625754478728253238e-01
-5.202324666154525268e-01,7.286206941203827725e-01,1.652406760092353100e-01,1.000000000000000021e-03,3.939428181140676344e+01,1.474638974990988560e-01
-7.900071269032729049e-01,-5.068364321154001928e-01,4.665035302863860256e-01,1.000000000000000021e-03,4.217339124054312549e+01,1.077257585463386597e-01
-2.569720263836136276e+00,6.364356022448784955e-01,4.301472009785423101e-01,1.000000000000000021e-03,4.210602679277562999e+01,2.522814838246454916e-01
2.700575058145922469e+00,4.743684910054568604e-01,4.449904935304744846e-01,1.000000000000000021e-03,4.196457936041428383e+01,1.298493340657962680e-01
-2.564195041327646862e+00,1.003896144633865450e+00,3.069779390544542519e-01,1.000000000000000021e-03,4.094440029503095957e+01,1.508775980827415653e-01
-2.862338695931365695e+00,-4.656223677317095078e-01,4.030374277334811683e-01,1.000000000000000021e-03,4.184489954412290302e+01,1.492221454458628194e-01
1.385617013351987836e+00,-7.906800810206859875e-01,2.272343782614294483e-01,1.000000000000000021e-03,4.051397319510995487e+01,2.117379545708106270e-01
-1.579885806499501832e+00,-5.063606250727574754e-01,4.720937545085610587e-01,1.000000000000000021e-03,4.206698756390388638e+01,1.329864061426623278e-01
-7.509210555853624847e-01,3.593508775047917769e-01,7.696642916336526863e-01,1.000000000000000021e-03,4.330928429512444211e+01,2.974130707491032810e-01
-2.611817896470770783e+00,9.386566518632881717e-01,7.569382094003960226e-01,1.000000000000000021e-03,4.369686633570707102e+01,2.227398559265900413e-01
1.999019611044531963e+00,-6.582724103065876742e-01,4.169354360947357119e-01,1.000000000000000021e-03,4.192995187094241771e+01,1.071307965968473913e-01
-1.517677447313136474e+00,7.629910059687095014e-01,3.532751019202253762e-01,1.000000000000000021e-03,4.122629758365286534e+01,3.610827764922414640e-01
7.721693772429043534e-01,-6.044016267819857235e-01,2.457212530763956959e-01,1.000000000000000021e-03,4.053090587131802636e+01,1.796746049859440642e-01
2.870623433297460281e+00,-2.930453064995250934e-01,2.283003512424863768e-01,1.000000000000000021e-03,4.007510900458126457e+01,2.264585190681528970e-01
-1.979285021838790515e+00,1.498805823879348686e+00,3.561608143152725781e-01,1.000000000000000021e-03,4.135774801012728119e+01,1.408901836801422225e-01
-2.617957012334558353e+00,-1.049500825456648911e+00,7.988793930314648239e-01,1.000000000000000021e-03,4.349680459503164087e+01,1.213207831298341866e-01
-1.335046036523237722e+00,-5.072059138780407039e-01,4.147660036303359998e-01,1.000000000000000021e-03,4.171727100533148302e+01,1.599751811876533314e-01
1.232477045043983921e+00,6.213775010096731499e-01,6.058247821628195418e-01,1.000000000000000021e-03,4.265453873017447961e+01,1.772302806480742787e-01
1.512511619463364987e+00,-8.478779759896251100e-01,1.635615003838040149e-01,1.000000000000000021e-03,3.954868247339418730e+01,2.203802806033017259e-01
-3.867401917020241164e-01,3.586876988042835279e-01,1.244580773477995450e+00,1.000000000000000021e-03,4.462880084098837585e+01,1.369824399055465658e-01
-1.663712380766483978e+00,3.103080679244494267e-01,8.763521561522551462e-01,1.000000000000000021e-03,4.395518969851325153e+01,1.666086778746115882e-01
1.302605684939051045e-02,-5.809085965092504189e-01,2.557885881381884996e-01,1.000000000000000021e-03,4.062081489904477394e+01,2.431747886215360477e-01
7.197937919654160410e-01,1.196092821442792165e+00,2.528830525207146351e-01,1.000000000000000021e-03,4.053503065394268390e+01,2.627649632153984949e-01
1.083086574038023109e+00,3.746074775511689658e-01,5.719753980530426496e-01,1.000000000000000021e-03,4.258925500330032321e+01,1.603021535356303484e-01
2.595217359002419677e+00,-5.503238422987273282e-01,6.742171844520405966e-01,1.000000000000000021e-03,4.328046129277642251e+01,1.845254079178918483e-01
-8.498736926344294673e-01,8.210775761985011911e-01,6.790080706343581962e-01,1.000000000000000021e-03,4.301255343881335591e+01,1.096220133321491458e-01
-4.986693323771747011e-01,1.087634555130302605e+00,7.870778635409496626e-01,1.000000000000000021e-03,4.325849768327435640e+01,1.929745266643343171e-01
1.656198992073178111e+00,-4.752182310713159996e-01,1.575348662593565319e-01,1.000000000000000021e-03,3.941006250071981043e+01,1.349754877296804878e-01
-8.114972143798815374e-01,-1.139632405930752768e+00,3.773471205912948268e-01,1.000000000000000021e-03,4.148327858598758411e+01,2.189386876481140276e-01
-2.635488131048792759e+00,5.953778794238506755e-01,2.165595406627720543e-01,1.000000000000000021e-03,3.991552316088328212e+01,3.581367574605177073e-01
2.857164888187811336e+00,-9.699529499885675143e-01,7.656405171793507769e-01,1.000000000000000021e-03,4.387749360228453810e+01,3.639554668865907505e-01
-1.058785185031003273e+00,-6.383395604634511944e-01,1.721545897663203650e-01,1.000000000000000021e-03,3.967382731786891981e+01,1.607969482070289446e-01
-3.897110186068433180e-01,4.867214966388528907e-01,5.311132425874689478e-01,1.000000000000000021e-03,4.230148482319516745e+01,1.218046983080558615e-01
1.841723709287856892e+00,6.621435121155005987e-01,1.675565917969290552e-01,1.000000000000000021e-03,3.944184756826246741e+01,1.101767748905259914e-01
-2.567692691209758404e+00,8.984367681384868298e-01,9.552805360340252960e-01,1.000000000000000021e-03,4.418534259639179140e+01,2.402983838408502548e-01
-1.491568021151566281e+00,-1.024110876314474172e+00,9.966962829639263166e-01,1.000000000000000021e-03,4.439346681879930401e+01,2.086051630225130293e-01
-3.870500671086096744e-01,-6.808468657196544704e-01,6.414038773099890456e-01,1.000000000000000021e-03,4.272846675396758798e+01,1.313636504161935226e-01
7.812152790714543826e-02,-5.811278638340058311e-01,2.230750825853333730e-01,1.000000000000000021e-03,4.006482802035973378e+01,2.005109165350924261e-01
-9.548568318907260100e-01,-7.333487902163585703e-01,9.434238058340060906e-01,1.000000000000000021e-03,4.398652701044805724e+01,2.143952947328843783e-01
2.785971521070106149e+00,-9.732509402686796429e-01,5.945164089212684466e-01,1.000000000000000021e-03,4.299972334179779665e+01,2.532755647383326258e-01
-2.963903737025427976e+00,3.936902931707517705e-01,7.592582062135926346e-01,1.000000000000000021e-03,4.350968764108396414e+01,2.385325861791481594e-01
2.476133675098171061e-01,-7.070764402282546657e-01,1.423279656691802675e-01,1.000000000000000021e-03,3.888890699830930231e+01,1.239745627227702984e-01
8.938547185155734098e-01,-9.658149591364971753e-01,4.905585156750453812e-01,1.000000000000000021e-03,4.206912835686541285e+01,2.406366396349911285e-01
2.638612600970228428e+00,5.209898527681495750e-01,8.194668658847210629e-01,1.000000000000000021e-03,4.343154862464013632e+01,2.155860933251364520e-01
-1.077704685652498995e+00,5.244386668561591414e-01,2.583078173524915311e-01,1.000000000000000021e-03,4.069046284442535466e+01,1.034738661428150353e-01
1.342685696203403722e+00,-6.491582597053333625e-01,4.014604298114170522e-01,1.000000000000000021e-03,4.202500870854217396e+01,1.566125032792597405e-01
-2.773690208840057903e+00,-9.834813543953311310e-01,2.163877536939067259e-01,1.000000000000000021e-03,4.031508431044332497e+01,1.285052232118714388e-01
-1.514134752373084369e+00,-8.723785445573201125e-01,5.489906205737233869e-01,1.000000000000000021e-03,4.249221628085727787e+01,2.143493499176825079e-01
1.500416580833201508e+00,6.621178013775050886e-01,2.504876762239738319e-01,1.000000000000000021e-03,4.060979399571650816e+01,1.814931643044505050e-01
6.870032435408024440e-02,-1.101471328452083842e+00,6.908727952308730824e-01,1.000000000000000021e-03,4.305642679325585931e+01,1.388168677455129951e-01
-1.741758420228933568e+00,-9.261532091009194723e-01,1.633651392016393089e-01,1.000000000000000021e-03,3.957995685583791357e+01,9.654994732872525243e-02
-2.884327902229347096e+00,-1.211104143049236193e+00,5.238721378809600981e-01,1.000000000000000021e-03,4.255630885967644161e+01,2.432976337461294769e-01
2.875622326543487262e+00,-4.691236532138280957e-01,5.283794550805216428e-01,1.000000000000000021e-03,4.229011796653939825e+01,1.421708703791456641e-01
1.126496845378825107e+00,5.967892700728776312e-01,3.009364815056509990e-01,1.000000000000000021e-03,4.122014352070587506e+01,1.628887861902003908e-01
-1.491157785371155731e+00,5.979366758938167159e-01,1.770933384687589651e-01,1.000000000000000021e-03,3.975963785229831871e+01,1.572014546153606140e-01
2.091144367554731431e+00,-6.811195745110346644e-01,2.395821152104204987e-01,1.000000000000000021e-03,4.029981994429454772e+01,2.117504128856393386e-01
-1.959521363561620433e-01,-7.815178932947525192e-01,3.342060170686123044e-01,1.000000000000000021e-03,4.116841643887967450e+01,1.508183643962271170e-01
2.480120543055306825e+00,-9.872296699122853347e-01,6.255294479603394908e-01,1.000000000000000021e-03,4.293907566841681245e+01,1.952153165303991689e-01
2.409689210457490738e-01,2.760564126448923350e-01,2.746115822503980564e-01,1.000000000000000021e-03,4.061477559170991469e+01,1.517674754574143414e-01
-3.952327329244540444e-01,-7.737308962549085400e-01,6.954042689812824918e-01,1.000000000000000021e-03,4.331658616926708305e+01,3.490730494952664076e-01
-2.480310650064985634e+00,2.689267159628307979e-01,1.697362417898968801e-01,1.000000000000000021e-03,3.973809515347432608e+01,1.869955917229864095e-01
-1.134983851923117459e+00,5.597491670770331496e-01,1.431085149735886741e-01,1.000000000000000021e-03,3.906624965049051923e+01,3.783168135440716506e-01
2.145227377406867753e+00,-3.744567963230214236e-01,3.072798267197645039e-01,1.000000000000000021e-03,4.075180255575117627e+01,2.408120303259485562e-01
1.842444531969995580e-01,-1.219373531399911670e+00,3.547151494717715181e-01,1.000000000000000021e-03,4.164124104599659404e+01,3.787016228010484098e-01
-1.670732388295150805e+00,-7.702396937161014590e-01,7.561817297905497615e-01,1.000000000000000021e-03,4.338647762409068775e+01,1.162098719029825700e-01
-1.504912477784596803e-01,-4.355164078706328379e-01,7.068139048418535797e-01,1.000000000000000021e-03,4.326827856825948260e+01,2.510303388492682308e-01
1.987617119652038689e+00,8.054395586402454121e-01,5.049174863922896161e-01,1.000000000000000021e-03,4.247434170226963346e+01,1.786770440228634960e-01
-2.040924849262609087e+00,-5.116343490285166773e-01,4.491185176776466559e-01,1.000000000000000021e-03,4.243510317944574695e+01,2.475418374913067876e-01
-2.770599784022325096e-01,3.100951565552039213e-01,2.688691520426051973e-01,1.000000000000000021e-03,4.068830741323177591e+01,2.041958990004462959e-01
4.306867357290622422e-01,-8.755504091811135980e-01,8.651464927144254524e-01,1.000000000000000021e-03,4.387109108144369429e+01,9.921564578650861332e-02
-1.912424533049003506e+00,-1.465501337164169415e+00,1.658017299232910080e-01,1.000000000000000021e-03,3.927703290930898561e+01,1.819081686506040796e-01
-1.628544879072043372e+00,8.840554967014391252e-01,7.380488103915325837e-01,1.000000000000000021e-03,4.284188593825499680e+01,2.483378555517189445e-01
3.124064730511483035e+00,1.305287721343846741e+00,1.699267387004776975e-01,1.000000000000000021e-03,3.968692144094183050e+01,1.826275453378550240e-01
-2.596641750011849936e-01,-6.851962765039176784e-01,1.801975259382269101e-01,1.000000000000000021e-03,3.972185038551798186e+01,1.369156495939010398e-01
-5.649560578751877671e-02,3.082672314838239558e-01,1.145134654633434224e+00,1.000000000000000021e-03,4.470633205538297261e+01,1.058309365426599591e-01
-1.654073735721171445e+00,3.027388510569455349e-01,2.751958220552168655e-01,1.000000000000000021e-03,4.088992320222471477e+01,1.048276793076205887e-01
-2.143473533910190465e+00,7.263613889145177360e-01,3.918369425439132137e-01,1.000000000000000021e-03,4.159471596784774050e+01,1.018957654883928393e-01
2.051853876330429927e+00,-1.109784726290926837e+00,1.677114179634562330e-01,1.000000000000000021e-03,3.934179416362074733e+01,1.506765189619779510e-01
2.314537338263942701e+00,-1.067227228653571114e+00,5.018322001089303708e-01,1.000000000000000021e-03,4.219144557066626078e+01,1.499922681064183028e-01
-4.573990103259406581e-01,5.674303277478620622e-01,2.919487380538992038e-01,1.000000000000000021e-03,4.095226753410617704e+01,1.436485628796511926e-01
-1.666642537619494657e+00,3.151409579353248169e-01,7.611857857415431639e-01,1.000000000000000021e-03,4.336314904617564281e+01,9.877347880303993799e-02
2.329999943025844900e+00,3.500504819246603727e-01,6.577198240526063167e-01,1.000000000000000021e-03,4.280356269458124530e+01,1.818323738951992397e-01
-3.082641372388605028e+00,-3.749081947432300055e-01,2.573137972135628448e-01,1.000000000000000021e-03,4.063432465046244602e+01,1.489618624376483624e-01
-1.583428254355553788e+00,-6.600498931749669840e-01,3.729903832874947867e-01,1.000000000000000021e-03,4.122881819589706964e+01,1.737630038387101838e-01
2.732473554869766730e+00,-1.098728497417047478e+00,1.682679403366409421e-01,1.000000000000000021e-03,3.968756249593327823e+01,1.212624780630363747e-01
1.130302612082259905e+00,6.883974249329436468e-01,5.418230317850325495e-01,1.000000000000000021e-03,4.229098556995828773e+01,1.179062220359614332e-01
-8.465049290819677275e-01,5.155504306244873547e-01,2.424877431480552126e-01,1.000000000000000021e-03,4.057346019310931240e+01,2.134622334019111167e-01
2.989922957344220755e+00,-7.843953605884882441e-01,2.350291278169476250e-01,1.000000000000000021e-03,4.074583061648807103e+01,2.366862161598437264e-01
5.758988842082253257e-01,4.557640181883710895e-01,2.424298011499017580e-01,1.000000000000000021e-03,4.060393603918990379e+01,1.641146618671828761e-01
2.951551201380114620e+00,-9.257584087105323878e-01,3.641216884956404165e-01,1.000000000000000021e-03,4.168526615551489556e+01,2.743890270016386412e-01
-1.513039324465419444e+00,5.482647100742061852e-01,4.325551439028547662e-01,1.000000000000000021e-03,4.178035469587862849e+01,1.758040653712737988e-01
3.010500336241756614e+00,-3.566790550187348696e-01,5.905834793027819885e-01,1.000000000000000021e-03,4.292479643506118947e+01,1.494708423786999807e-01
-1.151000771480474416e+00,-7.267598533928220084e-01,2.278170296234784953e-01,1.000000000000000021e-03,3.952422810632393890e+01,2.948679109137233856e-01
-1.656903928957824679e+00,4.577275223357148981e-01,1.440628401598009756e-01,1.000000000000000021e-03,3.954783366022930124e+01,1.178814594641479641e-01
-2.465947529527038995e+00,1.279721524054522774e+00,2.365992785210320193e-01,1.000000000000000021e-03,4.023818816756608641e+01,2.261879774250512287e-01
-2.485938367317181985e-01,-7.879093211537148145e-01,2.630424463262792667e-01,1.000000000000000021e-03,4.030395853516260019e+01,2.402383971121721529e-01
-2.630573356832481835e-01,-1.056842473165542140e+00,6.525633522780835971e-01,1.000000000000000021e-03,4.293284664529087280e+01,2.530009083361740019e-01
1.216872600489121048e+00,1.421412400577855006e+00,2.286910908556261113e-01,1.000000000000000021e-03,4.021406533024972418e+01,2.017407934320425145e-01
-3.270093801944349288e-01,6.765325196318614509e-01,5.604392127005712876e-01,1.000000000000000021e-03,4.248737290373647113e+01,1.447872002222115595e-01
-2.967286558346433623e+00,3.686943857192699348e-01,2.580286397921915942e-01,1.000000000000000021e-03,4.076691955904211540e+01,1.766071910831948921e-01
-2.219623117254239553e+00,1.011546851955722026e+00,1.956236927048482510e-01,1.000000000000000021e-03,3.997790253070088795e+01,1.730277745204698292e-01
-7.755461565609054198e-01,-4.435733567841988467e-01,8.478475457998619902e-01,1.000000000000000021e-03,4.333884251021397205e+01,1.170895629637161567e-01
-2.968468865668225209e+00,-6.159517761068210584e-01,2.837303503097188262e-01,1.000000000000000021e-03,4.104003486604872109e+01,1.772213450336541929e-01
-2.967899247567043819e+00,-6.017326548576121814e-01,2.386611719878315441e-01,1.000000000000000021e-03,4.024285688150712303e+01,1.348166346606918253e-01
2.077534723934460814e+00,-5.289380688496714278e-01,7.247023237793097650e-01,1.000000000000000021e-03,4.329626598289551254e+01,1.078387466906054193e-01
-8.233108821948498246e-03,4.807981535067979983e-01,7.172050980744888449e-01,1.000000000000000021e-03,4.337423984840759772e+01,1.788702226868982281e-01
1.576350739265508061e+00,-4.566812958414729895e-01,8.966103658792801134e-01,1.000000000000000021e-03,4.364472447787175469e+01,1.312628318723543519e-01
-1.942875562840001624e+00,8.848685279526073977e-01,4.895239985771249192e-01,1.000000000000000021e-03,4.210112634999394032e+01,1.005699827358746135e-01
8.841632954800466848e-01,-1.111674158279158720e+00,3.080672669078003967e-01,1.000000000000000021e-03,4.117846891199369708e+01,2.404741706063007745e-01
1.645100785213247541e+00,-5.431377007291529058e-01,4.569851043166988092e-01,1.000000000000000021e-03,4.233105227512444202e+01,1.818103721087864499e-01
-2.839645163433570652e-01,4.998524745464685282e-01,8.172548412907651993e-01,1.000000000000000021e-03,4.377817334127105653e+01,1.116303635876444156e-01
2.712667149517890230e+00,-3.717898944677129336e-01,2.461802058582391872e-01,1.000000000000000021e-03,4.053492441056003059e+01,1.696329227305409248e-01
1.206288368032218727e+00,1.117059755966734791e+00,2.540671456878058621e-01,1.000000000000000021e-03,4.059461069949128387e+01,9.767193101456732307e-02
1.392316862499733965e-01,-5.673038530729168638e-01,2.456984708686338337e-01,1.000000000000000021e-03,4.064028863992238882e+01,1.631417659948710130e-01
-1.244773779512394762e+00,7.762693367316289006e-01,2.623967921606698006e-01,1.000000000000000021e-03,4.085889970050963171e+01,1.804972615052172769e-01
-6.182591686775205098e-01,5.227158607033426385e-01,2.636501623813012340e-01,1.000000000000000021e-03,4.066385577665491979e+01,1.245832785019988925e-01
-3.060900851933128664e+00,-5.176508840415636747e-01,7.866159427542804838e-01,1.000000000000000021e-03,4.300488828879534253e+01,2.180653661362696727e-01
1.826297670168699483e-01,4.470200075213357493e-01,3.384973274110967267e-01,1.000000000000000021e-03,4.153853155541535358e+01,3.166654819476129035e-01
6.382012526103379990e-01,-2.942817866763050016e-01,7.619670039411696738e-01,1.000000000000000021e-03,4.326432227526298391e+01,1.670617432185585727e-01
2.497745551590184299e+00,-1.270669704687205304e+00,1.769209312488746466e-01,1.000000000000000021e-03,3.998796083275134094e+01,1.391245594812821063e-01
8.898641780946388025e-01,-6.921514566002071600e-01,2.384256481552340379e-01,1.000000000000000021e-03,4.052634528762792598e+01,1.981833836013636718e-01
-1.525666618459693868e+00,4.068644313264870860e-01,2.626214663037029773e-01,1.000000000000000021e-03,4.083033256431561142e+01,1.340123795456672207e-01
1.695104764906986361e+00,-1.087975615328320655e+00,5.890179876623065081e-01,1.000000000000000021e-03,4.261895299586580421e+01,1.215895934183834071e-01
-1.642811328817159300e+00,9.818986928388606650e-01,2.679007827180779344e-01,1.000000000000000021e-03,4.074925306725803154e+01,1.471100610961220134e-01
1.773849420699021628e+00,6.019284783449081466e-01,6.052733672693342282e-01,1.000000000000000021e-03,4.270253270496034759e+01,1.150535111883370099e-01
-5.872513576719589068e-01,-3.712851734906881251e-01,3.598254537093357186e-01,1.000000000000000021e-03,4.146680512905788163e+01,1.443780946846102975e-01
-3.065685493976979981e+00,5.907393236255100710e-01,2.637919628125267035e-01,1.000000000000000021e-03,4.054545463712883446e+01,2.091008262070305768e-01
9.116262076023504690e-01,4.324403252266222353e-01,1.248095423769065349e+00,1.000000000000000021e-03,4.474758642975862699e+01,1.838937053564419499e-01
-1.210938518764252958e+00,-6.878686685292932923e-01,8.927226943726249697e-01,1.000000000000000021e-03,4.348230730585184745e+01,2.914517053830588122e-01
2.997405969783301316e+00,-4.225190607089832628e-01,2.406376700977672645e-01,1.000000000000000021e-03,4.035115011058866230e+01,1.231203514267420057e-01
-2.323034483098999736e+00,2.792727526195046828e-01,4.153089212057614610e-01,1.000000000000000021e-03,4.197175273326280376e+01,2.850060560482640115e-01
2.501496593439321181e+00,-3.490344096746615943e-01,1.761815836555222781e-01,1.000000000000000021e-03,3.974605533338989716e+01,1.752624314979643882e-01
-2.239515814291815232e+00,9.336635963145929473e-01,2.268796984461587396e-01,1.000000000000000021e-03,4.035776382416433705e+01,3.685711530087735222e-01
2.810467971246505492e+00,1.256115105685095212e+00,1.243153452821760929e+00,1.000000000000000021e-03,4.474161618397408802e+01,1.820808542268901320e-01
-1.463690340253114508e+00,9.054036046488067591e-01,4.675284962845753789e-01,1.000000000000000021e-03,4.231987422988207470e+01,1.724725791331772062e-01
1.440641325039610621e+00,-8.473232041345205579e-01,6.187815044675315512e-01,1.000000000000000021e-03,4.272711501261648692e+01,1.574820821633224344e-01
-1.009098572065956212e-01,5.736458981218333086e-01,3.198862563939919301e-01,1.000000000000000021e-03,4.106495153976594281e+01,2.539262898316455019e-01
1.175051130710085268e+00,7.776729830234949681e-01,3.526452625688583087e-01,1.000000000000000021e-03,4.108417076035640036e+01,1.618419163909675940e-01
5.971193245765071822e-02,5.597941623363333896e-01,6.043021729283033494e-01,1.000000000000000021e-03,4.283008399567674473e+01,1.867454560965694788e-01
-1.740648464278392815e+00,-9.674745942161495638e-01,6.324854978566807340e-01,1.000000000000000021e-03,4.271328309989208805e+01,1.227693816205856492e-01
2.664752379026042561e+00,1.109358085640142821e+00,7.384760286645064564e-01,1.000000000000000021e-03,4.315708839491171744e+01,1.842126754060084970e-01
-4.644187260995575883e-01,-8.058638017486839944e-01,2.448327569184569619e-01,1.000000000000000021e-03,4.033436200211836820e+01,1.792368192650549696e-01
1.096142357501639353e+00,-9.309142119404482107e-01,5.335549145459526077e-01,1.000000000000000021e-03,4.259230704505862519e+01,1.636787483037136226e-01
-1.239679387875785688e+00,-5.128215109832543472e-01,3.585479585790061208e-01,1.000000000000000021e-03,4.178998194887326179e+01,1.992488286297695033e-01
-2.505434050858002415e+00,-8.783573689800973083e-01,2.364714213357312911e-01,1.000000000000000021e-03,4.023936275768794246e+01,1.590973977265507655e-01
1.726903955120562273e-01,-4.379622680724963857e-01,3.763644380780555299e-01,1.000000000000000021e-03,4.118893511685483588e+01,2.821873714395398691e-01
8.456479240110796880e-01,3.610050735027368063e-01,3.123917758196181893e-01,1.000000000000000021e-03,4.093026217625825325e+01,2.543609790361976986e-01
2.021952720930398684e+00,-1.230605531347522152e+00,1.545951378826020406e-01,1.000000000000000021e-03,3.940695930016806159e+01,1.343492327076122039e-01
5.431007675573726878e-01,-1.274340639184886825e+00,2.480165352461720651e-01,1.000000000000000021e-03,4.034924015041016787e+01,2.052430351845571654e-01
9.388565378047593057e-01,3.332285543023016938e-01,3.612579042051515810e-01,1.000000000000000021e-03,4.131603367835727170e+01,1.946882559058259465e-01
4.042834145284230907e-01,-3.313151611011397879e-01,3.203265726261943502e-01,1.000000000000000021e-03,4.114852094162245777e+01,2.430404862219172901e-01
2.407309442963897261e+00,-1.033529291892972379e+00,2.575832616965376687e-01,1.000000000000000021e-03,4.090725331237863571e+01,2.672735869671356013e-01
-1.923896053370259374e+00,8.374113300625154466e-01,1.784249204633159280e-01,1.000000000000000021e-03,3.966984276223289640e+01,1.729952282271914055e-01
-4.821031636347510307e-01,6.720437049781882166e-01,1.582688011056829769e-01,1.000000000000000021e-03,3.934533831555803829e+01,1.408863274296002499e-01
-2.099916672744033708e+00,3.009127123384880420e-01,2.785329930230584505e-01,1.000000000000000021e-03,4.059601759819582867e+01,2.444207666719903638e-01
-2.636562653698604208e-03,7.591732380553444237e-01,5.224645998673829173e-01,1.000000000000000021e-03,4.235491652289018560e+01,1.224353068157234548e-01
-1.974343406149051905e+00,-7.566816147393230496e-01,4.525191685528904273e-01,1.000000000000000021e-03,4.179032155832830142e+01,2.697594128000585512e-01
-1.671686078883418025e+00,3.867679061317892408e-01,2.031763928948460141e-01,1.000000000000000021e-03,4.009438393668433065e+01,1.483449849628245554e-01
-9.913592999298677100e-01,-1.122006044153300630e+00,1.680609014733855933e-01,1.000000000000000021e-03,3.968825423815621178e+01,1.731093247831854975e-01
-1.428167439527251448e+00,-9.571048086245775854e-01,7.279865728706982342e-01,1.000000000000000021e-03,4.351356142636924318e+01,2.514717621438606332e-01
2.600544236729484204e+00,-7.065911660874066857e-01,3.660436016333101783e-01,1.000000000000000021e-03,4.151408432964378648e+01,1.157480384108097726e-01
6.473222829468370243e-01,1.027929864434511842e+00,5.450138107959066058e-01,1.000000000000000021e-03,4.232547297808693543e+01,2.231743714664342348e-01
-9.240079852430671536e-01,-4.485918513810043251e-01,1.252333409560551392e+00,1.000000000000000021e-03,4.482460493550603076e+01,1.445054499815664195e-01
2.518406047012335947e-01,-1.043459684214683048e+00,2.048675811492135512e-01,1.000000000000000021e-03,3.999831394015270547e+01,1.598929928706638304e-01
-2.114001145417101490e+00,5.379114385272414367e-01,3.664943597104473039e-01,1.000000000000000021e-03,4.132366012924797616e+01,1.668259935077503475e-01
1.710708775172173901e+00,-4.528902862345867142e-01,8.447123443157193989e-01,1.000000000000000021e-03,4.381261742471576071e+01,1.544416580145243634e-01
-1.719734050890802779e+00,-4.808902938468921917e-01,5.476104749258541293e-01,1.000000000000000021e-03,4.289358095392626069e+01,1.909684158104595075e-01
2.532215123783969624e+00,1.105539894733939654e+00,5.873892786399677046e-01,1.000000000000000021e-03,4.261259699804694634e+01,2.532870599525400279e-01
3.026097396738489209e+00,-1.019959835173166018e+00,5.224451108590202342e-01,1.000000000000000021e-03,4.243653999576332581e+01,1.645921248173491114e-01
3.098932185921494664e+00,-2.766576117975581006e-01,3.296010961376774073e-01,1.000000000000000021e-03,4.102744520874450274e+01,2.012157438856451708e-01
-8.538832606760196064e-01,-5.177126405807490617e-01,5.970378941988123689e-01,1.000000000000000021e-03,4.289189143753662137e+01,2.502603091762078402e-01
9.020713604654506668e-01,7.142371705499122037e-01,4.236951375916107043e-01,1.000000000000000021e-03,4.197827271249847314e+01,1.432518143663155386e-01
-1.883624589608279942e+00,1.064719628175628596e+00,3.664427403496646196e-01,1.000000000000000021e-03,4.124041737159258503e+01,2.096826040642487676e-01
1.037177507637192519e-01,6.504052587807795938e-01,4.662985531355818836e-01,1.000000000000000021e-03,4.228584003296396787e+01,1.250989490976744112e-01
-8.135296988429274734e-01,1.280620062140140902e+00,7.428579915185697935e-01,1.000000000000000021e-03,4.342417775748800324e+01,1.923338042192209718e-01
4.699431910403366608e-01,5.430437843151758592e-01,1.837092013853334205e-01,1.000000000000000021e-03,3.994177490007209030e+01,1.139754579047342758e-01
1.854568995522789088e+00,-4.608272804675035417e-01,3.176051449743702015e-01,1.000000000000000021e-03,4.105853658674069351e+01,1.429102951943039546e-01
-2.580166097601624298e+00,1.176219796243228810e+00,1.102694191647295430e+00,1.000000000000000021e-03,4.466462924117519862e+01,2.390803762953925549e-01
1.417003421811469543e+00,-4.399918235275011025e-01,6.919633498332542487e-01,1.000000000000000021e-03,4.322757815170302109e+01,1.730745149595842303e-01
1.163308012584566065e+00,-9.623719386817242150e-01,2.040797080355691850e-01,1.000000000000000021e-03,4.021593270825687938e+01,1.985437018050739133e-01
-1.387413738104431138e+00,-5.822300054075320030e-01,1.830141102519515783e-01,1.000000000000000021e-03,3.967044662469841398e+01,3.117587047237437847e-01
-1.646490107015659676e+00,-1.023650938923000853e+00,3.223363187203669433e-01,1.000000000000000021e-03,4.108568150354044946e+01,2.048567073758142676e-01
1.371305321430885016e+00,-1.128289870154644881e+00,7.453566377143692190e-01,1.000000000000000021e-03,4.378937572278387336e+01,3.041249149987615419e-01
-9.981955824674120237e-01,-3.282436668893624621e-01,9.123120127162978044e-01,1.000000000000000021e-03,4.399685166549716797e+01,1.166761236719879163e-01
-2.132258583012903053e+00,8.669305524757944248e-01,1.188915704341940494e+00,1.000000000000000021e-03,4.439942227548580433e+01,1.653491069639442257e-01
6.164963593102128492e-01,-1.027190772361466387e+00,6.498321284845158807e-01,1.000000000000000021e-03,4.272123710447011291e+01,2.367539473832515617e-01
-1.975045396948968301e+00,7.460404108896310227e-01,1.889021137340343159e-01,1.000000000000000021e-03,3.952609099070942023e+01,1.591384337845055397e-01
-4.298685476640486947e-01,-4.423798395465703415e-01,6.043365135942115884e-01,1.000000000000000021e-03,4.293173905720451700e+01,2.141861844299146889e-01
2.348431039570713530e+00,7.111949759422913075e-01,1.868995127549246682e-01,1.000000000000000021e-03,4.007279079585540416e+01,1.424026662276056399e-01
1.836085176953456966e+00,1.049360332338691304e+00,4.468864325910810731e-01,1.000000000000000021e-03,4.190948182455553450e+01,1.298536285899604126e-01
-1.062887010797499254e+00,-1.152312961274921221e+00,1.064342045720221730e+00,1.000000000000000021e-03,4.401650284583862316e+01,1.652126788986718608e-01
1.760608223887443202e+00,5.854693724213388961e-01,2.207705049666115471e-01,1.000000000000000021e-03,4.057605368360513864e+01,2.696445863636924845e-01
1.973700579329794813e+00,-1.482728940225847447e+00,3.254686821167014354e-01,1.000000000000000021e-03,4.124069394885237472e+01,1.093228178019102770e-01
-6.803991327942977563e-01,-2.982691153820811181e-01,9.957727786114456414e-01,1.000000000000000021e-03,4.426524351340852093e+01,1.524543390895221895e-01
-1.742303728043099298e+00,-5.354650954469448720e-01,1.935088689571247134e-01,1.000000000000000021e-03,3.990707815575424178e+01,2.395232250242235739e-01
-1.895120834583803759e+00,-4.646616786619957029e-01,1.710642576278804672e-01,1.000000000000000021e-03,3.944206405211203048e+01,2.126491061685746031e-01
-1.099990017563414302e+00,-5.702752600720004672e-01,6.036612559290852609e-01,1.000000000000000021e-03,4.276036611129082843e+01,2.065496182405235082e-01
-2.468527229471829454e+00,1.355733249471471780e+00,2.607194675482047419e-01,1.000000000000000021e-03,4.054605494496797036e+01,1.405995178678778879e-01
2.878345221075817584e+00,9.452166565551367583e-01,5.697708861919958956e-01,1.000000000000000021e-03,4.263583155449768469e+01,1.326794461681271575e-01
4.364527135770148725e-01,-2.725255511339064185e-01,3.157099129147853400e-01,1.000000000000000021e-03,4.094695181528386030e+01,2.277286824512032848e-01
1.348110964494285469e+00,-5.925355967080443431e-01,7.419257990971952488e-01,1.000000000000000021e-03,4.323163812492872182e+01,1.941411447272179125e-01
-2.725771813450972303e+00,3.538183063185784683e-01,2.862453479700255432e-01,1.000000000000000021e-03,4.090352949100898172e+01,1.189589466109155086e-01
-2.378161421770132122e+00,-7.216871430827752620e-01,1.948943953207034063e-01,1.000000000000000021e-03,3.971240985918244348e+01,2.544722542009599797e-01
-8.529131610282387754e-01,-5.064265732325010649e-01,2.577091728206775123e-01,1.000000000000000021e-03,4.044676343048839584e+01,1.258890718491568472e-01
-2.956499354942307978e+00,-5.437305403986538721e-01,4.270071376360258242e-01,1.000000000000000021e-03,4.152652940776107471e+01,1.497928542509274485e-01
2.286902951235814996e+00,3.916505799797729281e-01,2.973482052491016603e-01,1.000000000000000021e-03,4.102175325319366550e+01,1.292236188270418085e-01
1.243110210071663779e+00,-3.283831264229406521e-01,9.604570418060387471e-01,1.000000000000000021e-03,4.404041303915766292e+01,1.163439641172545475e-01
1.809023386734376793e+00,3.234883463078790378e-01,6.781706339610920065e-01,1.000000000000000021e-03,4.303795520739010527e+01,3.091308036690324501e-01
9.072338174298497648e-01,1.080147585696728640e+00,1.628324965187020190e-01,1.000000000000000021e-03,3.960324326363789993e+01,1.847157483197774119e-01
2.661716543755598074e+00,2.681830708366417237e-01,1.633218043943578390e-01,1.000000000000000021e-03,3.937674678562136421e+01,1.139920371438438024e-01
-2.490303056123472025e+00,-5.646058960392816850e-01,2.942937579817894722e-01,1.000000000000000021e-03,4.101220072940244421e+01,1.364556782341716790e-01
-1.009588152590328747e+00,5.337517096571442465e-01,5.540571988539590986e-01,1.000000000000000021e-03,4.254628988008143864e+01,1.266522939765107048e-01
9.616638070805381133e-01,8.170470228242656674e-01,2.330939071219384484e-01,1.000000000000000021e-03,4.036580878088252433e+01,1.099291995145756512e-01
6.168977037107605810e-01,6.046159296923976356e-01,2.752135417241106108e-01,1.000000000000000021e-03,4.082048592556724032e+01,1.026017252516041450e-01
-3.032043287842293378e+00,3.017071482320590192e-01,2.869676753161221061e-01,1.000000000000000021e-03,4.098057642831742697e+01,1.708040890522114497e-01
-2.551688228076947063e+00,4.851668769666934722e-01,3.443522465945239031e-01,1.000000000000000021e-03,4.168024894708339190e+01,2.139747358770606456e-01
-1.732723958500325123e+00,-1.163640881118936043e+00,3.816402687054951670e-01,1.000000000000000021e-03,4.146819660547355824e+01,1.978378465639373252e-01
1.916997658325905185e+00,9.073185355832360521e-01,5.911590205919579066e-01,1.000000000000000021e-03,4.274975960782722240e+01,1.075320407686271573e-01
-3.598944824443237600e-01,-5.493872368282743945e-01,3.745660824274128498e-01,1.000000000000000021e-03,4.169264937736624432e+01,1.975131452199449800e-01
-3.264377606429840206e-01,-4.012647455609017477e-01,6.631819362781432581e-01,1.000000000000000021e-03,4.283357781278299115e+01,2.139073784157646818e-01
2.964516218650981472e+00,-1.148811811837697539e+00,6.345244127272477996e-01,1.000000000000000021e-03,4.276136538402364096e+01,1.377702228764242365e-01
-5.551085211516810780e-01,6.305950670513928991e-01,2.308585057864118717e-01,1.000000000000000021e-03,4.016908931171104058e+01,1.929657633346855417e-01
2.581798586687452435e+00,-1.099260635116548812e+00,2.273921904270865824e-01,1.000000000000000021e-03,4.027515499989538483e+01,3.165433347138154607e-01
8.440509109974563273e-01,-4.931307383433041203e-01,5.921976455701418729e-01,1.000000000000000021e-03,4.262244730553207717e+01,2.929168868709182139e-01
1.515900966344470469e+00,-6.706563924226348616e-01,4.797928168424565598e-01,1.000000000000000021e-03,4.184645193900192339e+01,3.135514186316070151e-01
-2.513313501449610410e+00,9.190611533261874300e-01,7.278638775126162752e-01,1.000000000000000021e-03,4.326468917335370890e+01,1.459063413247961016e-01
-3.323310347755650263e-01,-3.715748626893513595e-01,8.815789335337904653e-01,1.000000000000000021e-03,4.389543778426038045e+01,1.833548667954521538e-01
-1.543055287817405974e+00,-1.241588624692070653e+00,1.588604424671475890e-01,1.000000000000000021e-03,3.900102009901276290e+01,2.452797849245741679e-01
9.761835603534319006e-01,6.400639465684347940e-01,2.839392035939400927e-01,1.000000000000000021e-03,4.075914685983385510e+01,1.524320957636646212e-01
-1.722541461883264402e+00,-5.087765822557248629e-01,3.847069422965769814e-01,1.000000000000000021e-03,4.165719038950931008e+01,1.665856738430777084e-01
