-1.598279621179586663e+00,2.779993629999999993e-01,4.924710747369056563e-01,1.000000000000000048e-04,4.227342509264890680e+01,1.700000000000000122e-01
-8.306753881795865269e-01,5.048130450000000158e-01,5.088039405874202892e-01,1.000000000000000048e-04,4.218526798577799752e+01,1.600000000000000033e-01
-1.512887194179586281e+00,3.571169940000000209e-01,4.943011445400955495e-01,1.000000000000000048e-04,4.231986347698629203e+01,1.600000000000000033e-01
-2.094054222179586588e+00,-9.657747650000000350e-01,4.996240639624862645e-01,1.000000000000000048e-04,4.203847134610793290e+01,1.600000000000000033e-01
-1.256550916179586252e+00,-1.037146153999999987e+00,5.173024962578418595e-01,1.000000000000000048e-04,4.272421261854377406e+01,1.900000000000000022e-01
-2.638489419179586015e+00,-8.917870300000000361e-01,5.101690890388128619e-01,1.000000000000000048e-04,4.246506441997174619e+01,1.600000000000000033e-01
-1.710562538179586589e+00,-1.402302595000000096e+00,5.115580316901902069e-01,1.000000000000000048e-04,4.236588962563862992e+01,2.000000000000000111e-01
-2.771840681795865180e-01,-1.115655276000000029e+00,5.260374477656910575e-01,1.000000000000000048e-04,4.249754079951477337e+01,1.700000000000000122e-01
-1.608432286179586335e+00,-6.514894359999999773e-01,5.114644957771594669e-01,1.000000000000000048e-04,4.229848760260900065e+01,1.600000000000000033e-01
-1.490451089179586575e+00,-3.201959389999999850e-01,5.080971508103300227e-01,1.000000000000000048e-04,4.253561128507157463e+01,1.700000000000000122e-01
-1.995144670179586299e+00,-1.040863893000000040e+00,5.060597374086093225e-01,1.000000000000000048e-04,4.221328987791478937e+01,1.799999999999999933e-01
3.095686500000000008e-02,-1.139960520999999893e+00,5.011752015770238877e-01,1.000000000000000048e-04,4.190591654999238358e+01,1.700000000000000122e-01
-2.211919791795864398e-01,-6.717550429999999961e-01,4.996128914228923357e-01,1.000000000000000048e-04,4.231452403791177375e+01,2.200000000000000011e-01
-8.294029241795861651e-01,6.699244909999999553e-01,5.018393257024857945e-01,1.000000000000000048e-04,4.204457459763079896e+01,1.799999999999999933e-01
-4.765590681795863759e-01,-7.328014390000000544e-01,5.086200945143002361e-01,1.000000000000000048e-04,4.195225583513265377e+01,1.600000000000000033e-01
-1.123871723179585835e+00,1.275958498999999913e+00,4.937095782705540614e-01,1.000000000000000048e-04,4.224377061576949188e+01,1.900000000000000022e-01
-5.094723721795864080e-01,-7.371415260000000469e-01,5.109324724764345849e-01,1.000000000000000048e-04,4.241029360968672535e+01,1.600000000000000033e-01
6.571342580000000266e-01,4.949370419999999937e-01,5.023100417502830428e-01,1.000000000000000048e-04,4.251673166681491978e+01,1.700000000000000122e-01
-1.010588552179585875e+00,4.063959939999999826e-01,5.180431351963308284e-01,1.000000000000000048e-04,4.226042404654908324e+01,1.400000000000000133e-01
-5.300352171795861267e-01,-4.198024320000000031e-01,5.005398912033132142e-01,1.000000000000000048e-04,4.221721380344055774e+01,1.499999999999999944e-01
-3.959305511795863097e-01,-4.514385590000000170e-01,4.985688587639123259e-01,1.000000000000000048e-04,4.227608948698976832e+01,1.600000000000000033e-01
-1.302326638179586382e+00,4.891699640000000127e-01,5.086179262102692444e-01,1.000000000000000048e-04,4.228335429578940818e+01,8.999999999999999667e-02
-8.169037861795862554e-01,4.857709299999999897e-01,5.171296041522506215e-01,1.000000000000000048e-04,4.229830627124952258e+01,1.000000000000000056e-01
-1.156602994179586119e+00,7.039336720000000103e-01,5.007135080658433601e-01,1.000000000000000048e-04,4.241750564845285254e+01,1.100000000000000006e-01
2.500120207999999788e+00,-3.403989430000000094e-01,5.059890631783681147e-01,1.000000000000000048e-04,4.230183270126146056e+01,1.100000000000000006e-01
2.397122115999999803e+00,-8.283729720000000407e-01,5.214224358446852836e-01,1.000000000000000048e-04,4.213112482997581765e+01,1.700000000000000122e-01
-4.391142381795862804e-01,9.199097720000000145e-01,4.977397351661108083e-01,1.000000000000000048e-04,4.258816477626071162e+01,2.200000000000000011e-01
-1.356814123179586495e+00,1.335301293999999972e+00,5.094659791287108330e-01,1.000000000000000048e-04,4.229926725839865043e+01,2.600000000000000089e-01
2.612804049999999823e+00,3.003891830000000041e-01,5.102885874695322066e-01,1.000000000000000048e-04,4.214972775263832716e+01,1.700000000000000122e-01
-1.192441121179586005e+00,1.100105410000000061e+00,4.974266379243996727e-01,1.000000000000000048e-04,4.201859755804645147e+01,1.799999999999999933e-01
-3.012917491179586182e+00,1.485957493999999990e+00,5.154599183912735860e-01,1.000000000000000048e-04,4.256617387016451914e+01,2.200000000000000011e-01
-7.329138461795858817e-01,1.044356909000000000e+00,5.050362117693643071e-01,1.000000000000000048e-04,4.230413041527848605e+01,1.700000000000000122e-01
1.024371087000000013e+00,-9.607604419999999923e-01,5.143103105796866803e-01,1.000000000000000048e-04,4.189439488400395106e+01,1.600000000000000033e-01
2.960998206000000188e+00,-8.548671270000000044e-01,5.053909425845244385e-01,1.000000000000000048e-04,4.237583532270747355e+01,1.900000000000000022e-01
-3.017579355179586198e+00,-3.780387199999999948e-01,5.145646271485886381e-01,1.000000000000000048e-04,4.231642067315144828e+01,2.399999999999999911e-01
-2.268575282179586594e+00,6.921453520000000470e-01,5.060097281086026744e-01,1.000000000000000048e-04,4.259826954700080393e+01,3.699999999999999956e-01
2.478186394000000181e+00,5.281495040000000474e-01,5.063452318968566512e-01,1.000000000000000048e-04,4.232598601343756428e+01,2.399999999999999911e-01
7.532392530000000530e-01,9.936355940000000109e-01,5.157206938284930597e-01,1.000000000000000048e-04,4.231998931911822837e+01,1.600000000000000033e-01
1.941716173999999961e+00,9.578325640000000529e-01,4.953254901995038928e-01,1.000000000000000048e-04,4.215177504519878937e+01,3.800000000000000044e-01
2.041827891000000061e+00,-8.953703119999999460e-01,5.245818166691293971e-01,1.000000000000000048e-04,4.239522858075758194e+01,1.700000000000000122e-01
2.521229080999999983e+00,-8.544186950000000058e-01,5.033450352225810054e-01,1.000000000000000048e-04,4.216383256816097713e+01,2.000000000000000111e-01
2.745955969000000163e+00,3.136627880000000257e-01,5.141041617617445603e-01,1.000000000000000048e-04,4.206341281348480265e+01,2.099999999999999922e-01
1.738295793999999894e+00,1.134430556000000090e+00,5.155504458719035732e-01,1.000000000000000048e-04,4.218782547484031653e+01,1.799999999999999933e-01
-8.687814521795864664e-01,6.221710379999999541e-01,4.956056449213885884e-01,1.000000000000000048e-04,4.203641259026588983e+01,3.499999999999999778e-01
-1.857013858179586308e+00,3.937075449999999921e-01,4.926881237872837715e-01,1.000000000000000048e-04,4.252204861966211524e+01,2.999999999999999889e-01
-2.894431473179586156e+00,2.701405689999999971e-01,4.952104923080900001e-01,1.000000000000000048e-04,4.206338341015285920e+01,2.300000000000000100e-01
2.213600608000000136e+00,-5.295933369999999973e-01,5.186917868894591610e-01,1.000000000000000048e-04,4.243466241653994331e+01,2.500000000000000000e-01
9.327636729999999599e-01,4.069681829999999834e-01,5.262969930154961506e-01,1.000000000000000048e-04,4.230095572056481501e+01,2.300000000000000100e-01
1.743234563999999986e+00,7.359057650000000450e-01,5.052293722278164978e-01,1.000000000000000048e-04,4.233508361874006454e+01,2.200000000000000011e-01
-2.812965047179586175e+00,5.929882829999999494e-01,4.885898984396090938e-01,1.000000000000000048e-04,4.260687439491780992e+01,2.399999999999999911e-01
-2.977583888179586413e+00,-1.437144969999999966e-01,5.053968217196798118e-01,1.000000000000000048e-04,4.213475969183458858e+01,2.700000000000000178e-01
2.276564226000000080e+00,-5.051809499999999620e-01,5.148192935070106113e-01,1.000000000000000048e-04,4.243678819174128591e+01,2.800000000000000266e-01
2.667465888000000174e+00,-6.260506340000000502e-01,5.144598781572840007e-01,1.000000000000000048e-04,4.237412131010969318e+01,2.600000000000000089e-01
1.041358068000000081e+00,8.506585119999999778e-01,5.025220849383773558e-01,1.000000000000000048e-04,4.255030182898376978e+01,2.300000000000000100e-01
2.499030525999999863e+00,-9.629979760000000333e-01,5.050485599790903724e-01,1.000000000000000048e-04,4.205089620418711149e+01,3.099999999999999978e-01
1.334501084000000004e+00,-7.340646360000000481e-01,5.113623323009042210e-01,1.000000000000000048e-04,4.240101264001525294e+01,2.300000000000000100e-01
2.196979751999999841e+00,-5.334639439999999677e-01,5.214403076479761090e-01,1.000000000000000048e-04,4.258174658126863932e+01,2.500000000000000000e-01
1.355624495999999901e+00,4.654212710000000253e-01,5.028101833917553165e-01,1.000000000000000048e-04,4.268582041583050568e+01,2.200000000000000011e-01
1.445572062999999963e+00,-8.838676049999999451e-01,5.238989345570768119e-01,1.000000000000000048e-04,4.136105763307837435e+01,3.499999999999999778e-01
7.246286520000000397e-01,-7.843460709999999780e-01,5.139331385986498635e-01,1.000000000000000048e-04,4.267460235102899446e+01,3.099999999999999978e-01
2.179180484000000195e+00,1.312341798999999920e+00,5.128098953572113317e-01,1.000000000000000048e-04,4.241478932853765116e+01,2.200000000000000011e-01
7.669035910000000511e-01,2.329377750000000136e-01,5.121599578543669651e-01,1.000000000000000048e-04,4.207023072393423035e+01,2.500000000000000000e-01
2.984436029999999906e+00,4.410184999999999800e-01,4.896604055570648040e-01,1.000000000000000048e-04,4.212601840935197117e+01,2.999999999999999889e-01
1.808380389999999949e+00,-5.931087419999999666e-01,5.106469165246736441e-01,1.000000000000000048e-04,4.252118352412787772e+01,2.200000000000000011e-01
2.378694356000000010e+00,6.891218140000000547e-01,4.969567387089233179e-01,1.000000000000000048e-04,4.248064704457420504e+01,3.099999999999999978e-01
-1.027171309179585990e+00,8.938185499999999895e-01,4.947370640784134466e-01,1.000000000000000048e-04,4.272730976368487887e+01,3.099999999999999978e-01
2.177629786999999872e+00,1.088514723000000073e+00,5.043063184316975978e-01,1.000000000000000048e-04,4.214188451572059080e+01,2.500000000000000000e-01
2.446904437000000154e+00,4.505237189999999892e-01,5.024588799046803000e-01,1.000000000000000048e-04,4.213790976100207075e+01,2.700000000000000178e-01
-2.745075452179586151e+00,5.290477460000000409e-01,4.950690938408264241e-01,1.000000000000000048e-04,4.245578501062011867e+01,1.600000000000000033e-01
3.470126559999999749e-01,6.971221490000000243e-01,5.244070786548862273e-01,1.000000000000000048e-04,4.238254246663760227e+01,2.399999999999999911e-01
-2.027672372179586624e+00,-3.494576850000000179e-01,5.148217263461365434e-01,1.000000000000000048e-04,4.240175280910109734e+01,8.999999999999999667e-02
-2.243457714179585949e+00,5.735296930000000071e-01,4.962311041032057002e-01,1.000000000000000048e-04,4.232740974779925125e+01,8.000000000000000167e-02
-1.741234469179586242e+00,8.281857209999999858e-01,4.936282253755126526e-01,1.000000000000000048e-04,4.234953970470415641e+01,1.000000000000000056e-01
-1.661352162179586145e+00,7.473004210000000480e-01,5.026875447840493116e-01,1.000000000000000048e-04,4.240758960943026068e+01,1.100000000000000006e-01
-1.046494641179585905e+00,9.839422859999999993e-01,5.006794181045408632e-01,1.000000000000000048e-04,4.219137966029808240e+01,1.600000000000000033e-01
-1.357076630179586019e+00,8.591991679999999576e-01,5.089361214113463650e-01,1.000000000000000048e-04,4.226386187745077194e+01,1.300000000000000044e-01
-1.489161381179585852e+00,8.733460579999999807e-01,4.935961034844411621e-01,1.000000000000000048e-04,4.229692113106066387e+01,8.999999999999999667e-02
2.602874990000000111e+00,9.865781270000000269e-01,4.965834611995667558e-01,1.000000000000000048e-04,4.251403718490167449e+01,2.099999999999999922e-01
6.278667869999999818e-01,1.201237362999999947e+00,4.960164033397755912e-01,1.000000000000000048e-04,4.262825296368619377e+01,1.799999999999999933e-01
1.901542252999999905e+00,5.984822429999999693e-01,5.224941041828012889e-01,1.000000000000000048e-04,4.220312034711153615e+01,1.700000000000000122e-01
9.102462569999999475e-01,3.833152009999999943e-01,5.259610037646482716e-01,1.000000000000000048e-04,4.250883724135540120e+01,2.200000000000000011e-01
4.621894529999999723e-01,4.355896570000000190e-01,5.133814148142750167e-01,1.000000000000000048e-04,4.244592060878389361e+01,2.399999999999999911e-01
1.731299603999999936e+00,-9.087058740000000245e-01,5.156669597263727756e-01,1.000000000000000048e-04,4.244894420395584689e+01,2.200000000000000011e-01
2.307708166999999921e+00,-3.555306579999999994e-01,5.006816630308288385e-01,1.000000000000000048e-04,4.232597520974769623e+01,1.700000000000000122e-01
2.284880370000000216e+00,-4.942566800000000038e-01,5.150556918690309960e-01,1.000000000000000048e-04,4.248770281763358270e+01,2.200000000000000011e-01
-2.729734007179586364e+00,-4.808223520000000084e-01,5.127395353021657609e-01,1.000000000000000048e-04,4.228959836090190549e+01,2.300000000000000100e-01
-2.728058296179586062e+00,8.181749999999999856e-01,4.953404964048206960e-01,1.000000000000000048e-04,4.210066283135716958e+01,2.200000000000000011e-01
1.539636916000000078e+00,-6.652033799999999830e-02,5.271208817639552180e-01,1.000000000000000048e-04,4.256531029618471251e+01,2.999999999999999889e-01
2.937620158000000092e+00,7.383732379999999873e-01,5.141612300038711503e-01,1.000000000000000048e-04,4.223758042474461405e+01,2.200000000000000011e-01
2.624384770999999894e+00,8.339422930000000012e-01,5.172642341877853323e-01,1.000000000000000048e-04,4.247849255210824992e+01,1.799999999999999933e-01
-2.594453966179586235e+00,1.052220571999999965e+00,5.037169714399933884e-01,1.000000000000000048e-04,4.236894975200009128e+01,1.900000000000000022e-01
-2.462277587179586114e+00,1.356652656000000068e+00,5.068404447561667414e-01,1.000000000000000048e-04,4.205360068385991212e+01,2.099999999999999922e-01
2.730654787000000194e+00,8.741146779999999783e-01,5.163054682908536641e-01,1.000000000000000048e-04,4.214221355605280905e+01,1.900000000000000022e-01
1.629450376000000089e+00,2.068732899999999875e-01,5.166141812018529844e-01,1.000000000000000048e-04,4.205198039809901900e+01,2.899999999999999800e-01
1.142160569999999958e-01,6.858846720000000285e-01,5.105410658500659782e-01,1.000000000000000048e-04,4.218714716887956939e+01,1.799999999999999933e-01
-4.383495451795864639e-01,9.198101690000000108e-01,4.973256799339405010e-01,1.000000000000000048e-04,4.205365543248387894e+01,2.600000000000000089e-01
1.001193188000000012e+00,8.013430529999999719e-01,5.206178877320855047e-01,1.000000000000000048e-04,4.252657657953708537e+01,1.799999999999999933e-01
-8.746654461795859703e-01,7.515327899999999506e-01,5.133947222521426657e-01,1.000000000000000048e-04,4.216876840738641619e+01,2.600000000000000089e-01
1.319662558000000097e+00,1.070340469999999933e-01,5.066434872179190751e-01,1.000000000000000048e-04,4.242968557190079082e+01,2.399999999999999911e-01
1.726021762000000015e+00,-6.377623550000000030e-01,5.190464073818947810e-01,1.000000000000000048e-04,4.272302754830143101e+01,2.600000000000000089e-01
-2.754219137179586330e+00,-9.277945709999999568e-01,5.055595991579744375e-01,1.000000000000000048e-04,4.223120544260261511e+01,3.699999999999999956e-01
1.691977534999999921e+00,1.434503057999999998e+00,5.078266044786987621e-01,1.000000000000000048e-04,4.223927747041126679e+01,2.099999999999999922e-01
8.272144390000000236e-01,-4.428667319999999852e-01,5.241421181918934913e-01,1.000000000000000048e-04,4.242778295223553897e+01,2.300000000000000100e-01
-2.185785446179585811e+00,4.040310730000000183e-01,5.143235402372454690e-01,1.000000000000000048e-04,4.261856118593300380e+01,1.799999999999999933e-01
2.680919170000000129e+00,5.929394510000000063e-01,5.013414291277031865e-01,1.000000000000000048e-04,4.250099749696590834e+01,1.799999999999999933e-01
2.468528393999999793e+00,-3.885411739999999892e-01,4.962840389411493636e-01,1.000000000000000048e-04,4.220903837616834409e+01,1.700000000000000122e-01
1.824819092000000031e+00,-9.187566499999999525e-01,5.165764320252761443e-01,1.000000000000000048e-04,4.231956032900809817e+01,2.099999999999999922e-01
2.252174823999999909e+00,-3.842870769999999769e-01,5.094558666889092979e-01,1.000000000000000048e-04,4.235383627946367113e+01,2.000000000000000111e-01
2.889947965000000174e+00,3.184077100000000105e-01,4.947295787361964958e-01,1.000000000000000048e-04,4.241573672008301088e+01,2.000000000000000111e-01
-2.666621499179586241e+00,1.790417820000000104e-01,4.920237059501673116e-01,1.000000000000000048e-04,4.198693539327255309e+01,1.900000000000000022e-01
2.353249148999999818e+00,9.653535600000000549e-01,5.159264316068887801e-01,1.000000000000000048e-04,4.241210645265848456e+01,1.799999999999999933e-01
1.765869402999999949e+00,9.288119630000000182e-01,5.020555565686626309e-01,1.000000000000000048e-04,4.249891619479870286e+01,3.599999999999999867e-01
2.011122450999999867e+00,-1.257182417000000108e+00,5.087519791208603426e-01,1.000000000000000048e-04,4.241384928929681308e+01,1.799999999999999933e-01
1.931340567999999980e+00,-5.991437729999999906e-01,5.054866701061964118e-01,1.000000000000000048e-04,4.212012813188617599e+01,2.000000000000000111e-01
2.835991935000000019e+00,-7.109363199999999550e-01,5.211312878354368294e-01,1.000000000000000048e-04,4.236141370381088933e+01,1.900000000000000022e-01
-2.852520529179586095e+00,8.667541789999999580e-01,4.926340840239509244e-01,1.000000000000000048e-04,4.187659011710979939e+01,1.799999999999999933e-01
-2.458251249179586040e+00,-2.796002539999999925e-01,4.978019118350636152e-01,1.000000000000000048e-04,4.274002277364629521e+01,3.300000000000000155e-01
1.596378985000000084e+00,5.944120290000000084e-01,5.092878620993528394e-01,1.000000000000000048e-04,4.232699954410087884e+01,1.900000000000000022e-01
-2.484014184179586415e+00,8.016642189999999557e-01,4.916110524930332737e-01,1.000000000000000048e-04,4.222961467025775306e+01,1.900000000000000022e-01
-2.431723812179586108e+00,1.223750555999999934e+00,5.022045584328500567e-01,1.000000000000000048e-04,4.229051418378860205e+01,1.700000000000000122e-01
-2.378598255179586118e+00,1.197731727999999940e+00,4.924905909202412779e-01,1.000000000000000048e-04,4.212494468458407937e+01,1.900000000000000022e-01
1.739429998000000088e+00,2.494783479999999887e-01,5.175483341616415878e-01,1.000000000000000048e-04,4.219935233848848810e+01,3.099999999999999978e-01
-2.377494960179586059e+00,9.562939099999999693e-01,5.110517128282374699e-01,1.000000000000000048e-04,4.231042889279599706e+01,1.799999999999999933e-01
-9.021677017958662503e-02,6.959221140000000361e-01,5.111719633363083215e-01,1.000000000000000048e-04,4.234951840285455660e+01,3.499999999999999778e-01
2.021336933000000169e+00,8.510789659999999923e-01,5.123562693277246005e-01,1.000000000000000048e-04,4.203603615620340150e+01,2.800000000000000266e-01
2.573899695999999793e+00,-5.247218830000000001e-01,5.042797050289191674e-01,1.000000000000000048e-04,4.231853675910592472e+01,1.700000000000000122e-01
2.346925623000000183e+00,-7.496726200000000118e-01,5.121855975422879848e-01,1.000000000000000048e-04,4.270755941118616050e+01,1.700000000000000122e-01
2.487812089999999809e+00,-1.095252646999999913e+00,5.091502967121326328e-01,1.000000000000000048e-04,4.232931850153170927e+01,1.600000000000000033e-01
2.543651012999999850e+00,-2.555195920000000176e-01,5.035042553912865149e-01,1.000000000000000048e-04,4.220307881926041915e+01,1.900000000000000022e-01
2.457771880000000131e+00,-4.383329890000000062e-01,5.077710305411227143e-01,1.000000000000000048e-04,4.241658156257030754e+01,1.700000000000000122e-01
-2.749033603179586116e+00,5.277091179999999770e-01,4.915872036708137660e-01,1.000000000000000048e-04,4.224254706329227105e+01,1.799999999999999933e-01
-3.021446786179586397e+00,6.716344440000000526e-01,4.995845357498638339e-01,1.000000000000000048e-04,4.248620309515696647e+01,1.799999999999999933e-01
2.390319493999999878e+00,1.427533710000000067e+00,4.960422089439953108e-01,1.000000000000000048e-04,4.240153066228341316e+01,1.799999999999999933e-01
-2.060955814179585843e+00,9.020563839999999889e-01,4.951820076664139592e-01,1.000000000000000048e-04,4.239203452298032460e+01,1.799999999999999933e-01
-1.552222439179586466e+00,1.270289940999999923e+00,4.996500590726329349e-01,1.000000000000000048e-04,4.253195901149537406e+01,1.600000000000000033e-01
2.491619029000000207e+00,8.136863199999999630e-01,5.029051249143752234e-01,1.000000000000000048e-04,4.225102292630378997e+01,1.900000000000000022e-01
2.336721559999999975e+00,1.049041915000000103e+00,5.098743521370341369e-01,1.000000000000000048e-04,4.257533187401541142e+01,1.700000000000000122e-01
1.201678150000000000e+00,3.331923239999999842e-01,5.249675717609088021e-01,1.000000000000000048e-04,4.232361358700448761e+01,1.900000000000000022e-01
-3.811893421795859993e-01,1.284308205000000092e+00,4.951165483900770159e-01,1.000000000000000048e-04,4.263627163761810834e+01,2.000000000000000111e-01
5.879284790000000038e-01,8.245620540000000442e-01,5.124511977914503191e-01,1.000000000000000048e-04,4.267462945617287318e+01,1.700000000000000122e-01
-3.584264691795864266e-01,1.112498557000000110e+00,4.955675645593744516e-01,1.000000000000000048e-04,4.229609394027723113e+01,2.000000000000000111e-01
-1.085925731795862603e-01,9.806715139999999664e-01,5.045007245414270258e-01,1.000000000000000048e-04,4.237731159040866658e+01,1.799999999999999933e-01
1.189812670000000017e+00,8.219376269999999485e-01,5.205320646320035216e-01,1.000000000000000048e-04,4.235976770254941215e+01,1.700000000000000122e-01
2.896526737999999934e+00,1.048685354999999930e+00,4.939443691307057183e-01,1.000000000000000048e-04,4.237243471514428705e+01,1.700000000000000122e-01
1.187793541000000008e+00,1.533334508000000040e+00,5.016897960229220743e-01,1.000000000000000048e-04,4.195992245059875358e+01,1.700000000000000122e-01
8.784667550000000436e-01,-5.840451829999999678e-01,5.043366687489549971e-01,1.000000000000000048e-04,4.214944240460707192e+01,2.099999999999999922e-01
-2.025603206179586557e+00,1.419180792999999996e+00,5.040505685511704748e-01,1.000000000000000048e-04,4.225584491038598856e+01,1.799999999999999933e-01
1.097118803000000087e+00,1.428367445999999985e+00,4.936371248902937658e-01,1.000000000000000048e-04,4.247221670556296402e+01,1.799999999999999933e-01
-1.923054671795858539e-01,8.268694330000000425e-01,5.036760747205233368e-01,1.000000000000000048e-04,4.227999242465170937e+01,2.000000000000000111e-01
1.974446608000000047e+00,-1.250497374000000050e+00,5.015447229144012198e-01,1.000000000000000048e-04,4.205001620994299572e+01,2.000000000000000111e-01
1.714471547999999901e+00,-4.841846819999999774e-01,5.184199776078846078e-01,1.000000000000000048e-04,4.217675246656695975e+01,1.700000000000000122e-01
1.635209042000000057e+00,-1.499680316999999929e+00,4.977245139944217467e-01,1.000000000000000048e-04,4.246870470957117050e+01,1.900000000000000022e-01
-3.085878636179586021e+00,-8.156760069999999807e-01,5.139482558822128233e-01,1.000000000000000048e-04,4.189031699749828874e+01,1.799999999999999933e-01
1.583648911999999909e+00,-4.051170720000000225e-01,5.133718349103442158e-01,1.000000000000000048e-04,4.224813701946474254e+01,1.700000000000000122e-01
3.116144028999999982e+00,-6.233618589999999626e-01,4.955186713719543778e-01,1.000000000000000048e-04,4.207962940857101586e+01,2.000000000000000111e-01
2.580853791000000008e+00,2.126606490000000071e-01,4.981264261256015402e-01,1.000000000000000048e-04,4.267644158740884563e+01,2.200000000000000011e-01
2.791070910999999821e+00,-3.375241600000000036e-02,5.094878302553660365e-01,1.000000000000000048e-04,4.275901485790134871e+01,2.999999999999999889e-01
2.126664376999999995e+00,-4.630033630000000011e-01,5.043477796639048716e-01,1.000000000000000048e-04,4.231908257292488429e+01,1.799999999999999933e-01
1.264160699999999915e+00,6.289837299999999631e-01,5.116919138581752513e-01,1.000000000000000048e-04,4.221682656765783292e+01,1.900000000000000022e-01
2.608192676999999904e+00,3.485897410000000085e-01,5.128203685962862135e-01,1.000000000000000048e-04,4.232674088301885007e+01,2.200000000000000011e-01
9.029304540000000490e-01,-5.888661819999999603e-01,5.139174230561036616e-01,1.000000000000000048e-04,4.199188408499613701e+01,1.700000000000000122e-01
2.675488564000000125e+00,-1.029758079000000048e+00,5.061952592427010345e-01,1.000000000000000048e-04,4.225287371599701913e+01,1.700000000000000122e-01
9.979371630000000160e-01,-7.076351440000000492e-01,5.273205995322884920e-01,1.000000000000000048e-04,4.236174885773493770e+01,2.000000000000000111e-01
2.816578843999999915e+00,-6.539336449999999523e-01,5.095974191444965218e-01,1.000000000000000048e-04,4.240168367719311249e+01,1.799999999999999933e-01
-2.809922836179586270e+00,-1.219770695000000016e+00,5.057729802127015617e-01,1.000000000000000048e-04,4.263523704256571278e+01,1.900000000000000022e-01
2.816545334000000178e+00,5.529564630000000092e-01,5.097273902407131185e-01,1.000000000000000048e-04,4.223231170794449696e+01,1.700000000000000122e-01
2.293480610000000031e+00,1.430186356999999964e+00,5.005734486641899572e-01,1.000000000000000048e-04,4.250429077208682571e+01,1.700000000000000122e-01
1.900048696999999898e+00,-6.695785770000000081e-01,5.035645266852248891e-01,1.000000000000000048e-04,4.201013151716270499e+01,1.900000000000000022e-01
2.402973735999999860e+00,-4.293495210000000117e-01,5.026890495573341777e-01,1.000000000000000048e-04,4.286478512923379469e+01,2.200000000000000011e-01
3.123677135999999965e+00,5.597831170000000522e-01,4.944246514394836645e-01,1.000000000000000048e-04,4.220938162372592473e+01,1.700000000000000122e-01
1.945616433999999950e+00,5.533621010000000506e-01,4.981377606118699841e-01,1.000000000000000048e-04,4.239094820437607325e+01,1.700000000000000122e-01
-2.603733431795864917e-01,9.574212720000000454e-01,5.075303443784524582e-01,1.000000000000000048e-04,4.289763214593566687e+01,3.800000000000000044e-01
-1.216980031795857897e-01,3.678993019999999836e-01,5.048957444855270982e-01,1.000000000000000048e-04,4.232325564623808134e+01,1.900000000000000022e-01
2.921580513999999962e+00,4.108407450000000072e-01,4.965884352599225782e-01,1.000000000000000048e-04,4.202211340269886364e+01,1.900000000000000022e-01
-2.362072097179586105e+00,1.187667234999999932e+00,4.908503707907667657e-01,1.000000000000000048e-04,4.229724058432420009e+01,1.900000000000000022e-01
-2.337569846179586186e+00,3.756736769999999837e-01,5.105670594884659241e-01,1.000000000000000048e-04,4.239652285605568238e+01,1.700000000000000122e-01
-1.563533060179586265e+00,8.298117619999999528e-01,5.034851826970832001e-01,1.000000000000000048e-04,4.232559976927814205e+01,3.300000000000000155e-01
-7.514201781795861734e-01,8.148208550000000105e-01,5.165599197456776093e-01,1.000000000000000048e-04,4.261539961818516531e+01,2.099999999999999922e-01
-2.172991007179586376e+00,1.278564443000000050e+00,5.029146956593464335e-01,1.000000000000000048e-04,4.219207406555435114e+01,2.000000000000000111e-01
1.004972830999999900e+00,3.284388160000000223e-01,5.023606833686971029e-01,1.000000000000000048e-04,4.247920125044134920e+01,1.799999999999999933e-01
-1.050913719179586536e+00,7.925907810000000220e-01,5.060803647208849121e-01,1.000000000000000048e-04,4.228710953632065639e+01,2.899999999999999800e-01
1.174967896000000067e+00,-7.032179160000000540e-01,5.123353372840560027e-01,1.000000000000000048e-04,4.215632625111702936e+01,1.799999999999999933e-01
2.063754460999999818e+00,1.158898511999999936e+00,5.184182387544429282e-01,1.000000000000000048e-04,4.230241496195913697e+01,1.799999999999999933e-01
1.355273345999999934e+00,1.034050206000000083e+00,5.035161044976845801e-01,1.000000000000000048e-04,4.197498568991458257e+01,1.700000000000000122e-01
1.878516419999999965e+00,-5.891517790000000421e-01,5.152982956361946698e-01,1.000000000000000048e-04,4.241899438005422951e+01,1.799999999999999933e-01
3.042909537999999969e+00,4.914006550000000195e-01,5.147711324406383238e-01,1.000000000000000048e-04,4.207639264011854152e+01,1.700000000000000122e-01
-2.192876876179585821e+00,7.571444160000000423e-01,4.950827154902883720e-01,1.000000000000000048e-04,4.198994753893171605e+01,2.099999999999999922e-01
-1.274335216179586006e+00,7.393028099999999769e-01,5.098148430353577343e-01,1.000000000000000048e-04,4.253689584922155831e+01,3.599999999999999867e-01
3.513372269999999742e-01,1.023017258000000096e+00,5.011432893600067384e-01,1.000000000000000048e-04,4.241105168391035818e+01,1.799999999999999933e-01
-2.045215730179585911e+00,1.346705497999999945e+00,4.948101162896745286e-01,1.000000000000000048e-04,4.199121841929368770e+01,1.799999999999999933e-01
2.622131355000000053e+00,-2.378520580000000051e-01,5.027459743193496422e-01,1.000000000000000048e-04,4.224613277483500440e+01,2.099999999999999922e-01
1.499565373000000035e+00,-5.833961840000000398e-01,5.111443418354575385e-01,1.000000000000000048e-04,4.242635632264919110e+01,1.199999999999999956e-01
9.453780529999999960e-01,-3.014802610000000271e-01,5.258114618462332857e-01,1.000000000000000048e-04,4.223167554275163837e+01,1.799999999999999933e-01
1.003030738000000088e+00,-6.679498139999999751e-01,5.270608770974625212e-01,1.000000000000000048e-04,4.232710950141088091e+01,1.799999999999999933e-01
-2.858957567179586157e+00,-2.878047879999999781e-01,5.106245952122274723e-01,1.000000000000000048e-04,4.246284413622435494e+01,1.300000000000000044e-01
-2.653655062179586022e+00,5.464710109999999510e-01,5.086962737859843653e-01,1.000000000000000048e-04,4.230905877241965385e+01,1.300000000000000044e-01
-1.077960778179586576e+00,1.305029642999999906e+00,5.069752398688445183e-01,1.000000000000000048e-04,4.225440866763813830e+01,1.100000000000000006e-01
2.996279555000000094e+00,-9.792432829999999644e-01,5.071596412082981509e-01,1.000000000000000048e-04,4.216911117337863857e+01,1.600000000000000033e-01
1.369802210000000131e-01,9.686457469999999459e-01,5.186185330882666644e-01,1.000000000000000048e-04,4.231577363931727120e+01,1.000000000000000056e-01
-7.405109531795863731e-01,5.344760480000000369e-01,5.187900054690863794e-01,1.000000000000000048e-04,4.263661091277775483e+01,1.900000000000000022e-01
-1.986221938179586033e+00,3.858849830000000147e-01,4.941959179170478667e-01,1.000000000000000048e-04,4.203892580933183609e+01,2.600000000000000089e-01
-1.660796187179585992e+00,1.337702168000000080e+00,5.076809769857366650e-01,1.000000000000000048e-04,4.241096717334627186e+01,1.300000000000000044e-01
-1.008319883179586540e+00,9.035811799999999838e-01,4.991419874071962859e-01,1.000000000000000048e-04,4.240921599618589255e+01,1.799999999999999933e-01
-2.859227719179586291e+00,-3.383984709999999785e-01,4.950478062143708335e-01,1.000000000000000048e-04,4.214902628174682064e+01,1.799999999999999933e-01
-3.008470453179586279e+00,-9.028608339999999455e-01,5.077977994911568871e-01,1.000000000000000048e-04,4.224786318416215636e+01,1.300000000000000044e-01
2.720373041999999852e+00,-1.026937239000000002e+00,5.132895027019053202e-01,1.000000000000000048e-04,4.240209782385283432e+01,1.100000000000000006e-01
1.131806215999999976e+00,-1.312634394000000038e+00,5.186989028438819815e-01,1.000000000000000048e-04,4.218186143048425407e+01,1.199999999999999956e-01
2.377785852000000144e+00,-1.071983155000000076e+00,5.161843584062988377e-01,1.000000000000000048e-04,4.232926079489271842e+01,1.000000000000000056e-01
1.262497049000000038e+00,-7.576738640000000302e-01,5.130833538345584977e-01,1.000000000000000048e-04,4.221758584798190128e+01,1.900000000000000022e-01
-2.150308364179585929e+00,9.473204419999999848e-01,4.944786766922493193e-01,1.000000000000000048e-04,4.216727513165041330e+01,1.499999999999999944e-01
-2.672281993179586035e+00,8.065802300000000091e-01,5.052986338124476617e-01,1.000000000000000048e-04,4.227589027466257221e+01,1.400000000000000133e-01
-2.768228307179586345e+00,1.501965110000000048e-01,5.130065197626998419e-01,1.000000000000000048e-04,4.232227251644180654e+01,1.300000000000000044e-01
2.456608391000000058e+00,-6.815239560000000418e-01,5.127542535030662485e-01,1.000000000000000048e-04,4.263709135231176361e+01,2.899999999999999800e-01
-1.538735822179586599e+00,7.895792169999999999e-01,4.997593321440980674e-01,1.000000000000000048e-04,4.226594742677362859e+01,1.600000000000000033e-01
-6.811844061795859773e-01,-7.989239399999999991e-01,5.205209845794733781e-01,1.000000000000000048e-04,4.266137960244966365e+01,2.300000000000000100e-01
-9.881069141795864041e-01,9.266642769999999807e-01,4.997990911402925285e-01,1.000000000000000048e-04,4.246814787817498882e+01,2.500000000000000000e-01
9.533575850000000074e-01,-5.868324440000000086e-01,5.272974458606127790e-01,1.000000000000000048e-04,4.255512480256781060e+01,1.199999999999999956e-01
1.194530383000000029e+00,-8.514353350000000153e-01,5.206096092215557469e-01,1.000000000000000048e-04,4.214825576693552023e+01,1.100000000000000006e-01
-1.550854682179585886e+00,1.341867675000000037e+00,5.099538509770114025e-01,1.000000000000000048e-04,4.192218023876392152e+01,3.599999999999999867e-01
2.328991532999999947e+00,-1.085498080000000032e+00,5.148984852852696026e-01,1.000000000000000048e-04,4.214111813822018604e+01,1.199999999999999956e-01
3.099662444999999877e+00,-8.173274409999999879e-01,4.983023768172998302e-01,1.000000000000000048e-04,4.234897344881646575e+01,1.300000000000000044e-01
1.008677688999999988e+00,-7.224949280000000362e-01,5.254256963409666970e-01,1.000000000000000048e-04,4.263944554776193030e+01,1.199999999999999956e-01
1.116317643999999998e+00,-8.188746820000000204e-01,5.229070332629046636e-01,1.000000000000000048e-04,4.223254909905667631e+01,1.499999999999999944e-01
1.368634144999999913e+00,-9.746537960000000167e-01,5.114433590754305925e-01,1.000000000000000048e-04,4.223455210255594494e+01,2.200000000000000011e-01
1.284766933000000000e+00,-9.049604909999999780e-01,5.218958058355329666e-01,1.000000000000000048e-04,4.253661343613828905e+01,1.300000000000000044e-01
2.840707745000000006e+00,-9.874777999999999611e-01,4.958417635965994830e-01,1.000000000000000048e-04,4.232657317873029257e+01,1.199999999999999956e-01
1.164831654000000105e+00,-8.361433499999999519e-01,5.120033824085166163e-01,1.000000000000000048e-04,4.213447591349890331e+01,1.600000000000000033e-01
9.274529849999999520e-01,-5.648102149999999488e-01,5.274066837481858894e-01,1.000000000000000048e-04,4.210973729862277537e+01,2.200000000000000011e-01
1.803806121999999901e+00,-1.051757271000000049e+00,5.256895095377580596e-01,1.000000000000000048e-04,4.229015538727581003e+01,2.200000000000000011e-01
1.910407339000000038e+00,-1.096340147000000043e+00,5.115253397998786866e-01,1.000000000000000048e-04,4.222068477388310725e+01,1.300000000000000044e-01
-2.994395329179586174e+00,-6.874333790000000111e-01,4.933840507858477942e-01,1.000000000000000048e-04,4.212962138188215988e+01,1.600000000000000033e-01
2.004169926999999962e+00,-1.114377941999999955e+00,5.250309978577964998e-01,1.000000000000000048e-04,4.271898735529980229e+01,2.099999999999999922e-01
2.993884073999999895e+00,-9.067153500000000310e-01,5.097933498634525940e-01,1.000000000000000048e-04,4.237899714631179648e+01,2.000000000000000111e-01
2.896584697999999847e+00,-6.981149509999999836e-01,5.134883735419450979e-01,1.000000000000000048e-04,4.202792305356307168e+01,2.000000000000000111e-01
2.644964143999999795e+00,-1.038456438999999953e+00,4.967174804364893337e-01,1.000000000000000048e-04,4.230163175177683854e+01,2.500000000000000000e-01
1.395029569000000080e+00,-9.673563530000000021e-01,5.201632463395287065e-01,1.000000000000000048e-04,4.236560274244459379e+01,2.200000000000000011e-01
1.133893306999999906e+00,-8.234022290000000410e-01,5.220441088816241137e-01,1.000000000000000048e-04,4.229333542348149422e+01,1.199999999999999956e-01
9.542908199999999841e-01,-6.210129070000000029e-01,5.198928992690716733e-01,1.000000000000000048e-04,4.244452656652966738e+01,1.400000000000000133e-01
1.112357503999999997e+00,-7.717409769999999947e-01,5.165166863233403571e-01,1.000000000000000048e-04,4.274330302901198309e+01,1.400000000000000133e-01
1.392129267000000059e+00,-9.489503049999999940e-01,5.011657075891127189e-01,1.000000000000000048e-04,4.206441963739649026e+01,1.100000000000000006e-01
3.104633763999999907e+00,-8.563587980000000321e-01,5.021941929014948069e-01,1.000000000000000048e-04,4.251892587847711269e+01,1.199999999999999956e-01
-1.581672989179586430e+00,-6.726275419999999672e-01,4.964970384140534598e-01,1.000000000000000048e-04,4.226586486067316883e+01,2.000000000000000111e-01
8.758714749999999549e-01,-5.394949780000000139e-01,5.264698267430205636e-01,1.000000000000000048e-04,4.232050264090251090e+01,1.199999999999999956e-01
1.027821937999999991e+00,-6.897361509999999640e-01,5.044303235772362726e-01,1.000000000000000048e-04,4.197498337516469746e+01,1.499999999999999944e-01
8.011105990000000343e-01,-4.568120419999999737e-01,5.146379562896956639e-01,1.000000000000000048e-04,4.215926698923161808e+01,1.499999999999999944e-01
8.044453879999999835e-01,-4.591503659999999765e-01,5.118481926290412432e-01,1.000000000000000048e-04,4.243548773695420806e+01,1.100000000000000006e-01
8.290542589999999601e-01,-4.498624509999999965e-01,5.137668152950292111e-01,1.000000000000000048e-04,4.227303111148466286e+01,1.199999999999999956e-01
2.306908324000000121e+00,-1.093655438999999951e+00,5.230033315858066967e-01,1.000000000000000048e-04,4.240798254785094912e+01,1.300000000000000044e-01
-3.090495873179586184e+00,-7.974218849999999970e-01,5.082631971055593390e-01,1.000000000000000048e-04,4.223181788767113432e+01,1.300000000000000044e-01
2.850739061000000074e+00,-9.724982730000000242e-01,4.963139159114056120e-01,1.000000000000000048e-04,4.218516822483135797e+01,1.100000000000000006e-01
1.925211972000000049e+00,-1.067349442999999898e+00,5.030088329486863685e-01,1.000000000000000048e-04,4.230090514321556583e+01,1.600000000000000033e-01
3.010706126000000094e+00,-9.149326070000000088e-01,5.094719801953253580e-01,1.000000000000000048e-04,4.211771191210682019e+01,1.199999999999999956e-01
1.754869720000000077e+00,-1.052947148999999971e+00,5.074680571877918656e-01,1.000000000000000048e-04,4.254231380790904637e+01,1.300000000000000044e-01
3.028086770999999899e+00,-8.725603690000000023e-01,5.183785455589149382e-01,1.000000000000000048e-04,4.243762920236654423e+01,1.199999999999999956e-01
2.780301081000000174e+00,-1.010780400000000023e+00,5.015130744185842815e-01,1.000000000000000048e-04,4.212129469071192744e+01,1.700000000000000122e-01
3.096540631999999960e+00,-8.261897350000000362e-01,5.164972191534800139e-01,1.000000000000000048e-04,4.226052915400237708e+01,1.100000000000000006e-01
-3.043596368179586342e+00,-7.656326449999999451e-01,4.963974330688423198e-01,1.000000000000000048e-04,4.227660403753466056e+01,1.100000000000000006e-01
2.593403560000000052e+00,-1.068240442000000012e+00,5.222153723560496452e-01,1.000000000000000048e-04,4.229620891158880625e+01,1.199999999999999956e-01
1.277663320999999907e+00,-8.910532270000000032e-01,5.097604162608728728e-01,1.000000000000000048e-04,4.230808055864937245e+01,1.499999999999999944e-01
8.729576639999999665e-01,-5.017517409999999733e-01,5.046879363434333410e-01,1.000000000000000048e-04,4.220573522998093097e+01,1.199999999999999956e-01
2.323316692000000128e+00,-1.072994334000000105e+00,5.181005198395072231e-01,1.000000000000000048e-04,4.238152502954987000e+01,1.400000000000000133e-01
-3.012222731179586166e+00,-7.219820959999999621e-01,4.944967246483396028e-01,1.000000000000000048e-04,4.222929365579501848e+01,1.199999999999999956e-01
2.306010604999999991e+00,-1.110345181000000014e+00,5.057962953576222720e-01,1.000000000000000048e-04,4.223418470027224458e+01,1.100000000000000006e-01
2.437557496999999795e+00,-1.097151527000000071e+00,5.124506241147035457e-01,1.000000000000000048e-04,4.228400775953233648e+01,1.100000000000000006e-01
1.098420291999999909e+00,-7.444727049999999569e-01,5.152586093236615206e-01,1.000000000000000048e-04,4.259666367836057788e+01,1.300000000000000044e-01
8.241628739999999897e-01,-4.611620249999999754e-01,5.196915494467266861e-01,1.000000000000000048e-04,4.241014277661076903e+01,1.400000000000000133e-01
1.017317494999999905e+00,-7.027905669999999771e-01,5.103141600158322966e-01,1.000000000000000048e-04,4.229022072775352825e+01,1.199999999999999956e-01
2.728679550999999925e+00,-1.007430967999999982e+00,5.228540164447856853e-01,1.000000000000000048e-04,4.250153754740640721e+01,1.100000000000000006e-01
2.848837458999999850e+00,-9.622339979999999793e-01,4.981735570351990550e-01,1.000000000000000048e-04,4.234929908237860019e+01,1.199999999999999956e-01
-3.065525731179586266e+00,-7.207210450000000046e-01,4.970549815359845969e-01,1.000000000000000048e-04,4.226461303025698157e+01,1.199999999999999956e-01
1.103969978000000074e+00,-7.587182380000000448e-01,5.021070108724750014e-01,1.000000000000000048e-04,4.216882803388833878e+01,1.300000000000000044e-01
1.112034854000000017e+00,-7.675460100000000008e-01,5.144681682580536375e-01,1.000000000000000048e-04,4.235543226346598544e+01,1.199999999999999956e-01
2.373162053000000160e+00,-1.072487750000000073e+00,4.984622031889935911e-01,1.000000000000000048e-04,4.239358232504143587e+01,1.100000000000000006e-01
2.221583438000000132e+00,-1.096064289000000080e+00,5.084236729119551157e-01,1.000000000000000048e-04,4.245570437065776304e+01,1.199999999999999956e-01
2.775251189000000007e+00,-1.013244017000000108e+00,5.105579548661856037e-01,1.000000000000000048e-04,4.241670132952867789e+01,1.700000000000000122e-01
1.527128894000000070e+00,-9.963611940000000056e-01,5.175651712656064163e-01,1.000000000000000048e-04,4.233915639066361081e+01,1.400000000000000133e-01
-1.936135624179586401e+00,1.327891944000000102e+00,4.951715662731765999e-01,1.000000000000000048e-04,4.248503169529284662e+01,1.199999999999999956e-01
2.120951332999999828e+00,-1.112975437000000012e+00,5.215470712451713009e-01,1.000000000000000048e-04,4.220459007485504799e+01,1.600000000000000033e-01
2.950704906999999988e+00,-9.277153000000000205e-01,5.154633939241684004e-01,1.000000000000000048e-04,4.221049660612364107e+01,1.700000000000000122e-01
2.461302839000000020e+00,-1.064109841000000056e+00,4.999144753199316060e-01,1.000000000000000048e-04,4.216113437158379895e+01,1.499999999999999944e-01
1.687800213000000049e+00,-1.037844004000000098e+00,5.033223658209631246e-01,1.000000000000000048e-04,4.231146558523046508e+01,1.100000000000000006e-01
-3.069023128179586113e+00,-7.343218900000000327e-01,5.019088335894883457e-01,1.000000000000000048e-04,4.236998195983854743e+01,2.000000000000000111e-01
7.655655390000000171e-01,-3.825025819999999799e-01,5.018130447258748461e-01,1.000000000000000048e-04,4.222582778894959432e+01,1.300000000000000044e-01
-3.051736326179586012e+00,-7.690870560000000467e-01,5.122807882467914631e-01,1.000000000000000048e-04,4.221804058989006592e+01,1.499999999999999944e-01
-3.116938176179586240e+00,-7.920766919999999711e-01,5.140208580888916412e-01,1.000000000000000048e-04,4.237646677207172274e+01,1.100000000000000006e-01
1.020863690000000101e+00,-6.877910739999999468e-01,5.105578032538806710e-01,1.000000000000000048e-04,4.216313508875747829e+01,1.199999999999999956e-01
1.792785233999999894e+00,-1.066474936999999956e+00,5.128526677329972028e-01,1.000000000000000048e-04,4.221862924518701021e+01,1.100000000000000006e-01
1.805689748000000039e+00,-1.066896787999999985e+00,5.138692948838790020e-01,1.000000000000000048e-04,4.237904523503245713e+01,1.100000000000000006e-01
1.773248071000000037e+00,-1.046601056999999946e+00,5.242195613189095660e-01,1.000000000000000048e-04,4.235351316306110192e+01,2.099999999999999922e-01
1.076689889999999927e+00,-7.549444410000000216e-01,5.229621792929359803e-01,1.000000000000000048e-04,4.239307510156046277e+01,1.199999999999999956e-01
2.336456505000000128e+00,-1.089906792000000069e+00,5.156439931602221360e-01,1.000000000000000048e-04,4.241334504616487777e+01,1.199999999999999956e-01
2.522083900000000156e+00,-1.078852812999999911e+00,5.205394775623770620e-01,1.000000000000000048e-04,4.244327189645904497e+01,1.199999999999999956e-01
3.676074389999999803e-01,1.100614297999999991e+00,5.053842867835705022e-01,1.000000000000000048e-04,4.274996640406067883e+01,1.700000000000000122e-01
2.099931574000000190e+00,-1.082223048999999993e+00,5.105992042671507747e-01,1.000000000000000048e-04,4.221860150132550871e+01,1.100000000000000006e-01
8.155488279999999479e-01,-4.642700679999999802e-01,5.234831611641173055e-01,1.000000000000000048e-04,4.250950528579306109e+01,2.099999999999999922e-01
9.861636230000000447e-01,-6.881834650000000497e-01,5.096997720254263786e-01,1.000000000000000048e-04,4.220751369552429821e+01,1.300000000000000044e-01
1.864254864999999928e+00,-1.086684659999999969e+00,5.154074040584517569e-01,1.000000000000000048e-04,4.226622473982631334e+01,1.199999999999999956e-01
2.873066016000000111e+00,-9.753574739999999466e-01,5.140515562213896494e-01,1.000000000000000048e-04,4.235944306146524241e+01,1.300000000000000044e-01
2.270287562000000037e+00,-1.085086717999999895e+00,5.138441421577362167e-01,1.000000000000000048e-04,4.223233934188040450e+01,1.799999999999999933e-01
8.268071609999999572e-01,-4.587794940000000099e-01,5.185815985510180415e-01,1.000000000000000048e-04,4.232876731035732831e+01,1.199999999999999956e-01
-3.050869045179586347e+00,-7.648855789999999821e-01,4.926410878482105904e-01,1.000000000000000048e-04,4.236630423148946534e+01,1.199999999999999956e-01
1.101963728999999947e+00,-7.466317359999999903e-01,5.099449589593425536e-01,1.000000000000000048e-04,4.209858824602209637e+01,1.900000000000000022e-01
1.745116724000000064e+00,-1.056563783000000090e+00,4.993686336650557944e-01,1.000000000000000048e-04,4.211453797746420946e+01,1.300000000000000044e-01
7.889769570000000343e-01,-3.846565690000000037e-01,5.108897021614153822e-01,1.000000000000000048e-04,4.249815269075154589e+01,1.499999999999999944e-01
1.385818830999999918e+00,-9.278259679999999454e-01,5.273254534683244898e-01,1.000000000000000048e-04,4.204818675596207811e+01,1.499999999999999944e-01
1.138484923000000038e+00,-8.197145099999999518e-01,5.232102690981614845e-01,1.000000000000000048e-04,4.246029382311815681e+01,1.400000000000000133e-01
1.783410439000000069e+00,-1.080958507999999929e+00,5.088476548879556915e-01,1.000000000000000048e-04,4.216821275457137119e+01,1.400000000000000133e-01
2.617653461000000181e+00,-1.025884226000000066e+00,5.091690652074483125e-01,1.000000000000000048e-04,4.239620120516142521e+01,1.199999999999999956e-01
8.270197009999999960e-01,-4.157453939999999903e-01,5.215623838635494725e-01,1.000000000000000048e-04,4.230149816096473359e+01,1.199999999999999956e-01
3.128792493000000174e+00,-8.522697870000000009e-01,5.020783891761402273e-01,1.000000000000000048e-04,4.218350971066880817e+01,1.100000000000000006e-01
1.366158207000000013e+00,-9.614226009999999878e-01,5.162964517797377084e-01,1.000000000000000048e-04,4.236464509301819703e+01,1.100000000000000006e-01
2.846286316000000038e+00,-9.688357899999999745e-01,5.213544751356304907e-01,1.000000000000000048e-04,4.245223323712032482e+01,1.400000000000000133e-01
9.208216280000000031e-01,-6.185352929999999860e-01,5.076508051398984644e-01,1.000000000000000048e-04,4.231204504737199557e+01,1.499999999999999944e-01
7.622987450000000553e-01,-3.411912120000000215e-01,5.122558558697187792e-01,1.000000000000000048e-04,4.215479017013251450e+01,1.199999999999999956e-01
9.277931750000000255e-01,-5.813990460000000304e-01,5.101913506690034517e-01,1.000000000000000048e-04,4.230679994081300066e+01,2.099999999999999922e-01
1.010173165000000095e+00,-6.808591280000000356e-01,5.012272032547120393e-01,1.000000000000000048e-04,4.208467277134248263e+01,1.300000000000000044e-01
1.661181446000000062e+00,-1.029160687999999935e+00,5.217473809386052874e-01,1.000000000000000048e-04,4.243668617375752916e+01,1.400000000000000133e-01
2.089878704000000198e+00,-1.077863170999999953e+00,5.182448062263456112e-01,1.000000000000000048e-04,4.247647935327424307e+01,1.199999999999999956e-01
9.321550429999999610e-01,-6.212176799999999943e-01,5.244321200066957012e-01,1.000000000000000048e-04,4.241929635068645155e+01,1.199999999999999956e-01
2.944595597000000176e+00,-9.127602249999999806e-01,5.189642660628781545e-01,1.000000000000000048e-04,4.251969147672301119e+01,1.100000000000000006e-01
1.288081913999999939e+00,-9.113959929999999598e-01,5.242287546923063424e-01,1.000000000000000048e-04,4.228326298297448460e+01,1.300000000000000044e-01
1.398731861999999992e+00,-9.625033109999999725e-01,5.158436943421442766e-01,1.000000000000000048e-04,4.218175308420843805e+01,1.199999999999999956e-01
1.714165549000000066e+00,-1.043104095999999981e+00,5.199518666352525020e-01,1.000000000000000048e-04,4.248539931907537692e+01,1.199999999999999956e-01
1.014018395999999989e+00,-6.788913789999999615e-01,5.255562725766615984e-01,1.000000000000000048e-04,4.214841342376402622e+01,1.300000000000000044e-01
8.887761809999999985e-01,-5.541821719999999729e-01,5.053706685701953027e-01,1.000000000000000048e-04,4.215944186042860764e+01,1.300000000000000044e-01
1.026278256999999972e+00,-6.961882160000000264e-01,5.050284280561283534e-01,1.000000000000000048e-04,4.247304208825313054e+01,1.199999999999999956e-01
1.824970581999999952e+00,-1.080428363000000003e+00,5.100209016598820089e-01,1.000000000000000048e-04,4.243728198139596941e+01,1.199999999999999956e-01
1.839979185000000017e+00,-1.082878103999999952e+00,5.241774652425759129e-01,1.000000000000000048e-04,4.222375481947069886e+01,1.300000000000000044e-01
-3.070118813179586237e+00,-7.641942569999999879e-01,4.932177859880393367e-01,1.000000000000000048e-04,4.224931006100609920e+01,1.199999999999999956e-01
2.250776613000000204e+00,-1.110438553999999911e+00,5.135935612814637174e-01,1.000000000000000048e-04,4.250875294831233475e+01,1.199999999999999956e-01
2.613802471000000072e+00,-1.066258922999999914e+00,5.051830768612350919e-01,1.000000000000000048e-04,4.255871912966187409e+01,1.199999999999999956e-01
8.050150120000000298e-01,-4.193234060000000096e-01,5.047017509754780917e-01,1.000000000000000048e-04,4.216616883831561324e+01,1.499999999999999944e-01
2.809576177999999924e+00,-9.952447749999999704e-01,5.095033004953835043e-01,1.000000000000000048e-04,4.242558634990223965e+01,1.199999999999999956e-01
8.523447290000000232e-01,-4.773689010000000121e-01,5.194773182695564540e-01,1.000000000000000048e-04,4.266858887690101199e+01,2.000000000000000111e-01
2.975142320999999868e+00,-8.986192680000000266e-01,4.956623019363084470e-01,1.000000000000000048e-04,4.243004946506197683e+01,2.000000000000000111e-01
2.960578484000000010e+00,-9.174235720000000205e-01,5.184839111802470590e-01,1.000000000000000048e-04,4.239282498289226453e+01,1.400000000000000133e-01
1.589239559999999996e+00,-1.046132274999999945e+00,5.221006150435885118e-01,1.000000000000000048e-04,4.232570407313453131e+01,1.199999999999999956e-01
1.095136271999999966e+00,-7.909478989999999543e-01,5.188256777769371109e-01,1.000000000000000048e-04,4.220789431003374403e+01,1.300000000000000044e-01
3.045277111999999953e+00,-8.831592660000000539e-01,5.102308281563285863e-01,1.000000000000000048e-04,4.234218916377345465e+01,1.799999999999999933e-01
3.011317304999999944e+00,-8.969173430000000335e-01,5.129214478107146924e-01,1.000000000000000048e-04,4.215444540693879816e+01,1.499999999999999944e-01
1.946036051000000100e+00,-1.101857058000000000e+00,5.063670692259498729e-01,1.000000000000000048e-04,4.242189705651932030e+01,1.100000000000000006e-01
9.659444579999999503e-01,-6.400164339999999674e-01,5.271908111920498019e-01,1.000000000000000048e-04,4.235037187982938889e+01,1.199999999999999956e-01
1.142944595999999979e+00,-8.229314749999999679e-01,5.181410943407578351e-01,1.000000000000000048e-04,4.211245081312608818e+01,1.499999999999999944e-01
1.336859599999999926e+00,-9.462661719999999610e-01,5.180181111625346002e-01,1.000000000000000048e-04,4.250825044180406564e+01,1.900000000000000022e-01
2.386695267999999981e+00,-1.099692616000000012e+00,5.060701497786677105e-01,1.000000000000000048e-04,4.240635536872276390e+01,1.799999999999999933e-01
1.122946417999999946e+00,-7.871106610000000448e-01,5.060818503204804752e-01,1.000000000000000048e-04,4.242889972497292916e+01,1.499999999999999944e-01
1.038511049000000019e+00,-6.836743480000000428e-01,5.113559152083582138e-01,1.000000000000000048e-04,4.215249617416957051e+01,1.499999999999999944e-01
-1.865548755179585960e+00,5.988235499999999822e-01,5.131172662536851448e-01,1.000000000000000048e-04,4.239638452758141085e+01,3.599999999999999867e-01
-1.208774007179585830e+00,1.086301519000000049e+00,5.079837705890342114e-01,1.000000000000000048e-04,4.208555843285877529e+01,3.900000000000000133e-01
-1.451351928179586359e+00,1.047303024999999943e+00,4.905854715129505106e-01,1.000000000000000048e-04,4.186458606667781623e+01,3.900000000000000133e-01
-1.863787002179586594e+00,5.986409590000000280e-01,5.144505345728245249e-01,1.000000000000000048e-04,4.217356323962842168e+01,3.099999999999999978e-01
-2.367107747179586053e+00,3.570653329999999848e-01,5.084459139215844470e-01,1.000000000000000048e-04,4.240642464475136109e+01,3.300000000000000155e-01
3.110012692999999828e+00,-8.816387980000000013e-01,4.938277229813865521e-01,1.000000000000000048e-04,4.241423091441369309e+01,4.000000000000000222e-01
1.208427087000000011e+00,6.391205479999999550e-01,5.013735967666914650e-01,1.000000000000000048e-04,4.307722742961728812e+01,3.200000000000000067e-01
2.195568135999999893e+00,9.530612539999999688e-01,5.015176653339827872e-01,1.000000000000000048e-04,4.200403420499169727e+01,3.200000000000000067e-01
-1.746303855179585973e+00,7.561700099999999480e-01,4.922925231509438504e-01,1.000000000000000048e-04,4.229882527186884289e+01,3.599999999999999867e-01
-2.613733020179586308e+00,3.020363409999999860e-01,5.108776264964127733e-01,1.000000000000000048e-04,4.249572726223961183e+01,2.399999999999999911e-01
3.080075141000000016e+00,6.813462000000000129e-01,5.141264762396251520e-01,1.000000000000000048e-04,4.216833420937471999e+01,2.999999999999999889e-01
3.084152930000000126e+00,6.750201959999999612e-01,5.011804822639145396e-01,1.000000000000000048e-04,4.237348310156617259e+01,2.399999999999999911e-01
-2.831540824179586302e+00,-5.193198470000000011e-01,5.079168313674276014e-01,1.000000000000000048e-04,4.232456797043481345e+01,2.899999999999999800e-01
2.921667255000000019e+00,-9.403574120000000036e-01,5.188756769922160395e-01,1.000000000000000048e-04,4.197465655539060947e+01,2.899999999999999800e-01
2.610543199999999953e+00,9.294079060000000059e-01,4.912057172368189395e-01,1.000000000000000048e-04,4.254579884262746248e+01,2.899999999999999800e-01
2.614058957000000127e+00,9.310355519999999885e-01,5.012298594369419824e-01,1.000000000000000048e-04,4.173670745354772293e+01,3.699999999999999956e-01
-2.614313936179586406e+00,3.105085300000000048e-01,4.918231014613410057e-01,1.000000000000000048e-04,4.211972672733051581e+01,2.300000000000000100e-01
-2.614275993179586255e+00,3.084493819999999942e-01,5.113074200309859485e-01,1.000000000000000048e-04,4.242000698611804665e+01,2.000000000000000111e-01
3.080236718000000096e+00,6.852664600000000217e-01,5.066238883417168992e-01,1.000000000000000048e-04,4.285513892771186306e+01,3.800000000000000044e-01
3.085135451000000195e+00,6.840520260000000352e-01,5.082537333000460844e-01,1.000000000000000048e-04,4.250016651727676020e+01,2.300000000000000100e-01
-2.829361723179586452e+00,-5.190188390000000096e-01,5.025118146433449340e-01,1.000000000000000048e-04,4.278664463630136794e+01,3.900000000000000133e-01
-2.833706243179586082e+00,-5.260186759999999628e-01,5.150190765103630497e-01,1.000000000000000048e-04,4.236092151078735668e+01,2.200000000000000011e-01
1.286414458000000094e+00,-9.076167339999999806e-01,5.037065792042139112e-01,1.000000000000000048e-04,4.218797533520424281e+01,2.399999999999999911e-01
2.295144749999999956e+00,-1.095028292000000070e+00,5.167106102195548889e-01,1.000000000000000048e-04,4.212705669791741769e+01,2.000000000000000111e-01
2.312115046000000174e+00,-1.091482969000000081e+00,5.170791604199291847e-01,1.000000000000000048e-04,4.253572429819548972e+01,1.900000000000000022e-01
2.535381049000000164e+00,-1.063602453999999975e+00,5.138178260993917501e-01,1.000000000000000048e-04,4.180746338148392027e+01,2.600000000000000089e-01
2.549902755000000187e+00,-1.059649137999999935e+00,4.995665034805134574e-01,1.000000000000000048e-04,4.219671053532585603e+01,1.900000000000000022e-01
-2.980466121795863899e-01,1.081935794000000062e+00,5.078093764687354739e-01,1.000000000000000048e-04,4.241442463752053271e+01,1.000000000000000056e-01
-4.562223411795862660e-01,1.078420874000000085e+00,5.180998555123295102e-01,1.000000000000000048e-04,4.249059409887872363e+01,1.400000000000000133e-01
-4.727696341795866175e-01,1.076427226000000070e+00,5.179586927341233160e-01,1.000000000000000048e-04,4.251366052707102483e+01,1.900000000000000022e-01
-4.909850281795860028e-01,1.086050390999999893e+00,5.096831496461355915e-01,1.000000000000000048e-04,4.227274121803154117e+01,1.499999999999999944e-01
-1.809890014179586615e+00,8.554848849999999727e-01,5.007012246658324450e-01,1.000000000000000048e-04,4.217984929357509571e+01,1.900000000000000022e-01
-1.804843805179586091e+00,8.509932909999999850e-01,4.966172478175385763e-01,1.000000000000000048e-04,4.206685074752161313e+01,1.700000000000000122e-01
-1.798315402179586187e+00,8.389159160000000393e-01,5.013546162523134786e-01,1.000000000000000048e-04,4.211050833239746538e+01,1.100000000000000006e-01
-1.820018681179586650e+00,8.404092629999999620e-01,5.048085942671012294e-01,1.000000000000000048e-04,4.202727679033468178e+01,2.000000000000000111e-01
-2.435936564179586039e+00,3.767214549999999829e-01,5.110571037291411489e-01,1.000000000000000048e-04,4.264524386021377467e+01,1.700000000000000122e-01
-2.738532057179586143e+00,-4.670391260000000266e-01,5.173630931123271992e-01,1.000000000000000048e-04,4.222275816416279071e+01,1.100000000000000006e-01
-2.750126147179586145e+00,-4.750163370000000107e-01,5.149286039675680104e-01,1.000000000000000048e-04,4.281329631899744470e+01,1.700000000000000122e-01
6.777063359999999648e-01,-9.284162910000000046e-01,5.069192319898079280e-01,1.000000000000000048e-04,4.207607849677501832e+01,1.600000000000000033e-01
6.755664329999999662e-01,-9.242990760000000527e-01,5.241609142949277267e-01,1.000000000000000048e-04,4.220132571769556762e+01,2.200000000000000011e-01
1.666277256000000095e+00,1.035703752000000089e+00,5.146400334438463453e-01,1.000000000000000048e-04,4.246910831619420179e+01,2.800000000000000266e-01
1.679531192000000006e+00,1.034147155999999956e+00,5.159830760031696162e-01,1.000000000000000048e-04,4.240144756007933324e+01,2.099999999999999922e-01
1.669961188000000041e+00,1.045784459000000055e+00,5.196983916711961360e-01,1.000000000000000048e-04,4.223588804560394294e+01,2.899999999999999800e-01
1.666612017000000057e+00,1.035903760999999923e+00,5.063164002844620093e-01,1.000000000000000048e-04,4.198630037878754706e+01,1.400000000000000133e-01
1.676630470000000095e+00,1.049302589999999924e+00,5.000933891674437248e-01,1.000000000000000048e-04,4.242739606659967677e+01,1.600000000000000033e-01
1.678871634000000057e+00,1.037439988999999896e+00,4.958170577058311768e-01,1.000000000000000048e-04,4.258867961767114707e+01,2.099999999999999922e-01
-2.159653925179585876e+00,7.341517600000000421e-01,5.070881535402156359e-01,1.000000000000000048e-04,4.217862626787618296e+01,2.600000000000000089e-01
-2.155609593179586447e+00,7.327229189999999726e-01,5.019106609195087554e-01,1.000000000000000048e-04,4.262485843357704596e+01,1.400000000000000133e-01
2.989279821999999864e+00,-1.014333855000000062e+00,5.075303791344354387e-01,1.000000000000000048e-04,4.238477030719562322e+01,1.600000000000000033e-01
6.962963009999999509e-01,-9.242906640000000396e-01,5.102445809244589014e-01,1.000000000000000048e-04,4.241858280036084494e+01,2.000000000000000111e-01
6.831622830000000368e-01,-9.295060950000000322e-01,5.233489917934579516e-01,1.000000000000000048e-04,4.245082599385533229e+01,2.099999999999999922e-01
6.813526220000000189e-01,-9.196739680000000083e-01,5.093525572630470677e-01,1.000000000000000048e-04,4.204101984296555372e+01,1.700000000000000122e-01
1.667475545999999920e+00,1.039138789999999979e+00,4.951748697161075796e-01,1.000000000000000048e-04,4.221184677874476421e+01,1.499999999999999944e-01
1.669072946000000002e+00,1.039627206000000026e+00,4.958448159662351973e-01,1.000000000000000048e-04,4.227624974219069287e+01,1.700000000000000122e-01
2.992464221000000091e+00,-1.009427984000000000e+00,5.083384101149983625e-01,1.000000000000000048e-04,4.250578565650681639e+01,1.400000000000000133e-01
3.013377762000000182e+00,-1.015725085999999999e+00,5.172191558849399406e-01,1.000000000000000048e-04,4.227596250234653041e+01,1.499999999999999944e-01
6.857830799999999893e-01,-9.290922369999999875e-01,5.214225534428320596e-01,1.000000000000000048e-04,4.233849169454107653e+01,3.400000000000000244e-01
6.874880420000000214e-01,-9.251381180000000093e-01,5.034863501699142763e-01,1.000000000000000048e-04,4.219694849872184506e+01,1.700000000000000122e-01
1.659686511000000086e+00,1.040101345999999927e+00,5.202573832207721960e-01,1.000000000000000048e-04,4.252034134597298021e+01,1.400000000000000133e-01
1.692629780999999944e+00,1.043637506000000048e+00,5.036159159218105419e-01,1.000000000000000048e-04,4.231419475078843817e+01,1.799999999999999933e-01
1.682450028999999958e+00,1.049226146999999942e+00,5.133233131435175345e-01,1.000000000000000048e-04,4.233875575989559081e+01,1.900000000000000022e-01
1.675255906999999933e+00,1.048468626000000015e+00,5.149206475141046013e-01,1.000000000000000048e-04,4.208902303446210880e+01,1.499999999999999944e-01
1.692145135000000078e+00,1.039981480000000014e+00,5.186569097366759973e-01,1.000000000000000048e-04,4.230631372692299408e+01,1.700000000000000122e-01
-2.139768073179586061e+00,7.360294179999999908e-01,4.954973440538879004e-01,1.000000000000000048e-04,4.220697880411662339e+01,1.600000000000000033e-01
-2.138731675179585956e+00,7.369836659999999817e-01,5.136593303729020121e-01,1.000000000000000048e-04,4.258124673738745258e+01,1.499999999999999944e-01
6.888283630000000546e-01,-9.193630990000000169e-01,5.254839362581975593e-01,1.000000000000000048e-04,4.235442126619637548e+01,1.700000000000000122e-01
6.776433490000000059e-01,-9.225326109999999469e-01,5.070618531975976673e-01,1.000000000000000048e-04,4.237582145207785089e+01,1.600000000000000033e-01
6.820513620000000499e-01,-9.162569579999999547e-01,5.154031453497998072e-01,1.000000000000000048e-04,4.206154725272622841e+01,2.899999999999999800e-01
6.832637360000000104e-01,-9.208365670000000502e-01,5.068676616756842002e-01,1.000000000000000048e-04,4.234439089642110332e+01,1.400000000000000133e-01
1.683256381999999940e+00,1.050427892999999946e+00,5.011032675701128092e-01,1.000000000000000048e-04,4.244079759861225654e+01,1.499999999999999944e-01
2.987248335999999949e+00,-1.011507587000000097e+00,5.003538123085369271e-01,1.000000000000000048e-04,4.220321924173731531e+01,1.900000000000000022e-01
2.994879214000000012e+00,-1.020537374999999969e+00,5.186762692228716887e-01,1.000000000000000048e-04,4.230299880580876959e+01,2.500000000000000000e-01
2.997056848999999801e+00,-1.020797841000000039e+00,5.193503389419664718e-01,1.000000000000000048e-04,4.259954673695555982e+01,1.499999999999999944e-01
6.981827720000000070e-01,-9.201470600000000166e-01,5.056541780928429652e-01,1.000000000000000048e-04,4.230563361286240820e+01,2.099999999999999922e-01
1.675679171999999939e+00,1.042232051000000048e+00,5.113082658307259720e-01,1.000000000000000048e-04,4.240109160138396049e+01,1.900000000000000022e-01
1.682732345000000018e+00,1.051774148000000020e+00,5.156371720246675228e-01,1.000000000000000048e-04,4.204255114767334334e+01,2.099999999999999922e-01
1.655763980999999996e+00,1.041789395999999979e+00,4.959666895253027619e-01,1.000000000000000048e-04,4.175903856078844001e+01,2.099999999999999922e-01
1.658505131999999938e+00,1.042043577999999915e+00,4.948655226944678187e-01,1.000000000000000048e-04,4.229386718258446365e+01,1.499999999999999944e-01
1.679931540999999973e+00,1.044700675999999939e+00,5.203964214827716539e-01,1.000000000000000048e-04,4.234667466698049054e+01,1.400000000000000133e-01
1.681131209999999987e+00,1.046558263000000100e+00,5.157065885325693433e-01,1.000000000000000048e-04,4.215784302760343394e+01,3.800000000000000044e-01
-2.147380102179586636e+00,7.248191320000000326e-01,4.926652783356844090e-01,1.000000000000000048e-04,4.226426393212542365e+01,2.200000000000000011e-01
-2.137481690179586558e+00,7.386978770000000027e-01,4.904044732811678742e-01,1.000000000000000048e-04,4.240996603768393669e+01,1.499999999999999944e-01
3.007533192999999994e+00,-1.006434849999999992e+00,5.105151695703387116e-01,1.000000000000000048e-04,4.246433346916118268e+01,1.700000000000000122e-01
6.766177190000000063e-01,-9.309161569999999664e-01,5.188905491821507177e-01,1.000000000000000048e-04,4.249851161662555654e+01,1.700000000000000122e-01
6.879719020000000240e-01,-9.170357009999999809e-01,5.096218593931542973e-01,1.000000000000000048e-04,4.192130365102288891e+01,2.600000000000000089e-01
6.868192690000000100e-01,-9.190749710000000183e-01,5.035071830647894764e-01,1.000000000000000048e-04,4.173507311576008760e+01,2.800000000000000266e-01
1.680927606000000019e+00,1.043199457999999913e+00,5.129986557527386193e-01,1.000000000000000048e-04,4.218484495912943544e+01,1.799999999999999933e-01
1.680733408999999901e+00,1.046110547000000057e+00,5.021585844961036216e-01,1.000000000000000048e-04,4.244458649823675955e+01,1.499999999999999944e-01
3.003205794999999956e+00,-1.007960921000000010e+00,5.057068585914068493e-01,1.000000000000000048e-04,4.207372947675681019e+01,2.200000000000000011e-01
3.013387552999999830e+00,-1.018013843000000085e+00,4.951972331758043300e-01,1.000000000000000048e-04,4.178674770838686925e+01,2.000000000000000111e-01
2.991633154000000072e+00,-1.018575491000000000e+00,5.158357833777988954e-01,1.000000000000000048e-04,4.249389110186144336e+01,1.600000000000000033e-01
6.810583510000000063e-01,-9.216344210000000370e-01,5.247106399639231977e-01,1.000000000000000048e-04,4.272732106438770927e+01,1.600000000000000033e-01
1.670069762000000013e+00,1.048284639000000018e+00,5.061947482649218344e-01,1.000000000000000048e-04,4.216926937509239082e+01,2.099999999999999922e-01
1.699713636000000028e+00,1.040243690999999915e+00,5.206876634785613245e-01,1.000000000000000048e-04,4.177861668428172237e+01,2.899999999999999800e-01
1.686195045999999920e+00,1.048540513999999924e+00,5.009688922178443526e-01,1.000000000000000048e-04,4.226018251941463433e+01,1.400000000000000133e-01
1.667162669999999958e+00,1.044746053999999980e+00,5.061493013114801709e-01,1.000000000000000048e-04,4.190259324408224018e+01,2.700000000000000178e-01
1.689467040999999892e+00,1.036330184999999959e+00,5.177965462688070009e-01,1.000000000000000048e-04,4.223246084438576275e+01,1.300000000000000044e-01
1.683799076999999977e+00,1.043385784000000038e+00,4.969908937031430884e-01,1.000000000000000048e-04,4.220846415140219676e+01,1.700000000000000122e-01
-2.151455832179586025e+00,7.398983139999999459e-01,4.935471109487847841e-01,1.000000000000000048e-04,4.240089070075141109e+01,2.500000000000000000e-01
-2.141944958179585967e+00,7.302793560000000461e-01,5.026210878740093868e-01,1.000000000000000048e-04,4.232614673654607174e+01,1.400000000000000133e-01
3.012489310999999947e+00,-1.019874449000000016e+00,5.111811066962275163e-01,1.000000000000000048e-04,4.242471452779945906e+01,1.900000000000000022e-01
6.824463880000000149e-01,-9.193269539999999740e-01,5.127225980291121310e-01,1.000000000000000048e-04,4.240506600816704719e+01,1.600000000000000033e-01
6.933168330000000212e-01,-9.307474239999999899e-01,5.079240462957956836e-01,1.000000000000000048e-04,4.223083770589337860e+01,1.600000000000000033e-01
7.005346909999999871e-01,-9.247541049999999929e-01,5.164614763904027406e-01,1.000000000000000048e-04,4.224497926192129427e+01,2.700000000000000178e-01
1.674988617999999985e+00,1.042237757999999959e+00,5.096178167763301126e-01,1.000000000000000048e-04,4.234767215461774725e+01,1.499999999999999944e-01
1.672026148000000045e+00,1.039374368000000048e+00,5.003704649743823119e-01,1.000000000000000048e-04,4.242372522091685738e+01,1.600000000000000033e-01
2.993618983999999816e+00,-1.008517228000000099e+00,5.048623096147308864e-01,1.000000000000000048e-04,4.216076724979308210e+01,1.700000000000000122e-01
2.992837709999999873e+00,-1.014889098000000045e+00,5.220398949705118419e-01,1.000000000000000048e-04,4.275825898325601315e+01,2.800000000000000266e-01
2.980621672999999916e+00,-1.012535224000000067e+00,5.182985427316104676e-01,1.000000000000000048e-04,4.238321248496129812e+01,1.499999999999999944e-01
3.118379398000000080e+00,-1.044341935000000055e+00,4.999801468185891551e-01,1.000000000000000048e-04,4.224216111382315120e+01,3.099999999999999978e-01
3.132904315000000217e+00,-1.046896950999999909e+00,4.951124610980155438e-01,1.000000000000000048e-04,4.245431921757779037e+01,2.200000000000000011e-01
1.248659997999999938e+00,-1.117162079000000086e+00,5.107530738401375725e-01,1.000000000000000048e-04,4.232465994358270223e+01,2.700000000000000178e-01
2.302446713000000145e+00,-1.091359299000000060e+00,5.173187090984703307e-01,1.000000000000000048e-04,4.244026191632509892e+01,2.899999999999999800e-01
3.133486173000000097e+00,-1.061461677999999909e+00,5.112165611895462813e-01,1.000000000000000048e-04,4.230124793826846030e+01,3.099999999999999978e-01
1.251013366000000016e+00,-1.102704651999999896e+00,5.084216968602139897e-01,1.000000000000000048e-04,4.241140600559049290e+01,2.300000000000000100e-01
1.232341668999999973e+00,-1.105349812000000043e+00,5.234489783088396297e-01,1.000000000000000048e-04,4.221530597572628807e+01,2.200000000000000011e-01
2.330538756999999794e+00,-1.086213730999999960e+00,5.193565975708911431e-01,1.000000000000000048e-04,4.199155060211839441e+01,2.300000000000000100e-01
3.104372880000000112e+00,-1.050765708999999992e+00,5.064345981360749427e-01,1.000000000000000048e-04,4.227326204517165564e+01,2.200000000000000011e-01
3.122794933000000217e+00,-1.050942575000000101e+00,5.117636252227752980e-01,1.000000000000000048e-04,4.240455256278249152e+01,2.099999999999999922e-01
3.135928428000000157e+00,-1.044986675000000087e+00,5.219778412215885233e-01,1.000000000000000048e-04,4.241469292395794355e+01,2.300000000000000100e-01
3.135701593999999925e+00,-1.049448040999999998e+00,5.036452614018629426e-01,1.000000000000000048e-04,4.228470266035201064e+01,2.399999999999999911e-01
2.902190216000000156e+00,-1.054666754000000095e+00,5.205845955238457279e-01,1.000000000000000048e-04,4.236425271785181224e+01,2.099999999999999922e-01
1.219278212000000083e+00,-1.102494101000000004e+00,5.210694513333673505e-01,1.000000000000000048e-04,4.269330379939815145e+01,2.399999999999999911e-01
2.314258420999999899e+00,-1.073777474999999981e+00,5.142235607244938222e-01,1.000000000000000048e-04,4.218670393474670988e+01,2.399999999999999911e-01
3.138600745000000192e+00,-1.056209613999999908e+00,4.971786162269486997e-01,1.000000000000000048e-04,4.239178097123198086e+01,2.800000000000000266e-01
2.873014373000000177e+00,-1.047336534999999902e+00,5.201598377174865284e-01,1.000000000000000048e-04,4.293210932636174704e+01,2.000000000000000111e-01
2.890150627000000139e+00,-1.045368942999999939e+00,5.024498551038700800e-01,1.000000000000000048e-04,4.230287513234592467e+01,2.200000000000000011e-01
-3.136513490179586139e+00,-1.038988312000000080e+00,5.049494580687798884e-01,1.000000000000000048e-04,4.196253763221012179e+01,2.800000000000000266e-01
3.120369102000000172e+00,-1.042910143999999928e+00,5.114873787339868638e-01,1.000000000000000048e-04,4.258113253890230965e+01,2.399999999999999911e-01
3.132773262000000170e+00,-1.048570620000000009e+00,5.204714504685403753e-01,1.000000000000000048e-04,4.228271236239373110e+01,2.300000000000000100e-01
3.132934141999999866e+00,-1.046888051000000042e+00,5.163573909365564152e-01,1.000000000000000048e-04,4.220193248943001407e+01,2.200000000000000011e-01
3.134455274000000014e+00,-1.046257098000000108e+00,5.159521807583709041e-01,1.000000000000000048e-04,4.215349740321915561e+01,2.200000000000000011e-01
2.910504301000000016e+00,-1.063930792999999930e+00,5.006285499658014171e-01,1.000000000000000048e-04,4.252293180074627088e+01,2.399999999999999911e-01
2.301930878999999930e+00,-1.084305269999999988e+00,4.990672477284310293e-01,1.000000000000000048e-04,4.219041072916285628e+01,3.099999999999999978e-01
2.314913878000000036e+00,-1.104421796000000011e+00,5.172796026582460183e-01,1.000000000000000048e-04,4.234101759786708641e+01,2.600000000000000089e-01
1.232494258000000009e+00,-1.089556776000000005e+00,5.115381650440966599e-01,1.000000000000000048e-04,4.198632408230771773e+01,3.099999999999999978e-01
-3.138875270179586341e+00,-1.027091259999999950e+00,5.028897173534130349e-01,1.000000000000000048e-04,4.177558975433362320e+01,3.800000000000000044e-01
1.277748142000000087e+00,-1.105660628999999950e+00,5.207973102172549495e-01,1.000000000000000048e-04,4.240798150920407750e+01,2.500000000000000000e-01
2.339694710999999927e+00,-1.083680948999999893e+00,5.239878685158634308e-01,1.000000000000000048e-04,4.254796714497474142e+01,2.300000000000000100e-01
3.085408954000000037e+00,-1.045989441999999991e+00,5.098256964255085677e-01,1.000000000000000048e-04,4.270027396234900152e+01,2.800000000000000266e-01
3.122183823999999941e+00,-1.053540683000000033e+00,5.067205186347967238e-01,1.000000000000000048e-04,4.218652279277063144e+01,3.699999999999999956e-01
1.263417701000000060e+00,-1.099941301000000093e+00,5.145642440006725771e-01,1.000000000000000048e-04,4.214073297110862626e+01,2.200000000000000011e-01
1.238769020999999970e+00,-1.122513239999999968e+00,4.998130215696932055e-01,1.000000000000000048e-04,4.211890801934097794e+01,2.600000000000000089e-01
1.225778744000000087e+00,-1.107856694000000086e+00,5.187211159674971483e-01,1.000000000000000048e-04,4.257947863905058483e+01,2.500000000000000000e-01
2.356185176999999964e+00,-1.090954028000000076e+00,5.017454129824032716e-01,1.000000000000000048e-04,4.232346872655035952e+01,2.700000000000000178e-01
1.231078855000000027e+00,-1.109460918999999990e+00,5.177227741070931089e-01,1.000000000000000048e-04,4.256959262174044056e+01,2.300000000000000100e-01
2.350025410999999842e+00,-1.078254897999999962e+00,5.052791241482952334e-01,1.000000000000000048e-04,4.227206271772845270e+01,2.300000000000000100e-01
2.889344674999999807e+00,-1.054064458000000037e+00,5.064609426869337572e-01,1.000000000000000048e-04,4.187265935553789831e+01,3.200000000000000067e-01
1.260972444000000081e+00,-1.102168519999999985e+00,5.036538908621108757e-01,1.000000000000000048e-04,4.218883855764415358e+01,2.899999999999999800e-01
3.138597202000000141e+00,-1.049455424000000026e+00,5.138159743435934956e-01,1.000000000000000048e-04,4.152208903415183272e+01,2.600000000000000089e-01
1.280173519000000093e+00,-1.106045986000000036e+00,5.267354152300089964e-01,1.000000000000000048e-04,4.238160073477835965e+01,2.899999999999999800e-01
3.140421104000000074e+00,-1.048273016000000002e+00,5.134032215711408220e-01,1.000000000000000048e-04,4.231340892145898636e+01,2.700000000000000178e-01
2.887571490000000018e+00,-1.060290981000000077e+00,5.006240111216480049e-01,1.000000000000000048e-04,4.244346536820579274e+01,2.300000000000000100e-01
3.117377486000000086e+00,-1.048849812999999909e+00,5.116684063118106529e-01,1.000000000000000048e-04,4.230142222087651049e+01,2.800000000000000266e-01
3.139331405000000075e+00,-1.045946368000000071e+00,4.984857302794984957e-01,1.000000000000000048e-04,4.249799280707240001e+01,2.300000000000000100e-01
2.901812189000000153e+00,-1.070407117000000019e+00,5.041010487350212621e-01,1.000000000000000048e-04,4.233022744435273665e+01,2.200000000000000011e-01
2.874698792999999863e+00,-1.069280417999999955e+00,5.059227955187606263e-01,1.000000000000000048e-04,4.270773812535965419e+01,2.200000000000000011e-01
3.126790450000000110e+00,-1.053686536000000062e+00,4.982366014044414815e-01,1.000000000000000048e-04,4.211827779037083275e+01,2.099999999999999922e-01
1.253234667999999941e+00,-1.096167120000000050e+00,5.240118450965582930e-01,1.000000000000000048e-04,4.222943719685546426e+01,2.200000000000000011e-01
1.242189800000000011e+00,-1.095888138000000067e+00,5.132182652294461356e-01,1.000000000000000048e-04,4.212111352868550540e+01,2.899999999999999800e-01
2.358704259000000025e+00,-1.096119858000000002e+00,5.010291919801901361e-01,1.000000000000000048e-04,4.216618551550700289e+01,2.099999999999999922e-01
3.090657074000000115e+00,-1.046905049999999893e+00,5.034648824998493311e-01,1.000000000000000048e-04,4.252020818942921210e+01,2.300000000000000100e-01
2.350320292999999783e+00,-1.077642637000000070e+00,5.082663463075212107e-01,1.000000000000000048e-04,4.213358713628020524e+01,3.300000000000000155e-01
3.120911620999999858e+00,-1.047605429999999949e+00,5.100161300543630816e-01,1.000000000000000048e-04,4.226908776579227123e+01,2.899999999999999800e-01
2.310418793000000193e+00,-1.091478047999999923e+00,5.051364677101457534e-01,1.000000000000000048e-04,4.208323870870289340e+01,3.300000000000000155e-01
2.888242410000000149e+00,-1.055260810999999910e+00,5.015668789048126630e-01,1.000000000000000048e-04,4.235628075396463288e+01,2.999999999999999889e-01
2.313880778000000138e+00,-1.089056457000000089e+00,5.012537513631378783e-01,1.000000000000000048e-04,4.243100241409851492e+01,2.600000000000000089e-01
3.096505394999999883e+00,-1.050897790999999915e+00,4.956388219007483720e-01,1.000000000000000048e-04,4.266794307801004038e+01,3.300000000000000155e-01
1.264206060000000020e+00,-1.108314516000000083e+00,5.155872171246582703e-01,1.000000000000000048e-04,4.205617581744551359e+01,2.500000000000000000e-01
2.317080779999999951e+00,-1.080569537999999996e+00,5.067775359625226184e-01,1.000000000000000048e-04,4.191399243301934519e+01,2.399999999999999911e-01
2.308161032000000112e+00,-1.080284865999999955e+00,5.090847457468430370e-01,1.000000000000000048e-04,4.229804525013051375e+01,3.900000000000000133e-01
1.213089824000000094e+00,-1.095999417000000031e+00,5.020146099090414538e-01,1.000000000000000048e-04,4.210725551284889434e+01,2.700000000000000178e-01
3.095344697999999894e+00,-1.044259242999999948e+00,5.061109048952940892e-01,1.000000000000000048e-04,4.234601069307201726e+01,2.200000000000000011e-01
3.093500166000000107e+00,-1.047656949999999920e+00,5.036508445637144504e-01,1.000000000000000048e-04,4.204119956118337598e+01,2.300000000000000100e-01
2.871266652000000086e+00,-1.064917746999999970e+00,5.136640218212711329e-01,1.000000000000000048e-04,4.248386877473575396e+01,2.500000000000000000e-01
2.872879009000000039e+00,-1.076645507999999918e+00,5.127172669663564442e-01,1.000000000000000048e-04,4.248429648544074411e+01,2.099999999999999922e-01
1.241294699000000001e+00,-1.109043570000000090e+00,5.027692926325084688e-01,1.000000000000000048e-04,4.248104198260240594e+01,2.099999999999999922e-01
1.238788393000000099e+00,-1.083197141000000085e+00,5.270931058971002336e-01,1.000000000000000048e-04,4.263188284012480267e+01,2.999999999999999889e-01
-3.140928712179586135e+00,-1.049943351000000025e+00,5.024113664553344627e-01,1.000000000000000048e-04,4.193420277010145014e+01,2.200000000000000011e-01
2.897074545000000168e+00,-1.050668165000000043e+00,5.110837397667746806e-01,1.000000000000000048e-04,4.250226520091852933e+01,2.099999999999999922e-01
3.133488720999999977e+00,-1.053899826000000095e+00,5.078625323193481922e-01,1.000000000000000048e-04,4.235782884772523005e+01,2.300000000000000100e-01
2.854965548000000020e+00,-1.051119023000000041e+00,5.165223481336529421e-01,1.000000000000000048e-04,4.205897726079273014e+01,3.200000000000000067e-01
2.846666281000000076e+00,-1.061494909000000098e+00,5.207633975375998148e-01,1.000000000000000048e-04,4.220586527760990236e+01,2.600000000000000089e-01
1.477625364000000108e+00,-9.892628350000000070e-01,5.206674205024355295e-01,1.000000000000000048e-04,4.193169647445052561e+01,2.000000000000000111e-01
-2.998301261179586064e+00,-5.567642400000000213e-01,5.178811632341668858e-01,1.000000000000000048e-04,4.216554986093493795e+01,1.799999999999999933e-01
2.915910107000000195e+00,-9.248875840000000403e-01,4.947628147249696351e-01,1.000000000000000048e-04,4.262667580164681880e+01,2.999999999999999889e-01
2.904218159000000021e+00,-9.279150130000000107e-01,5.098985103868991509e-01,1.000000000000000048e-04,4.212623969890734799e+01,2.399999999999999911e-01
2.945746643000000109e+00,-9.241091030000000428e-01,4.994923656665297695e-01,1.000000000000000048e-04,4.232605090392039671e+01,2.300000000000000100e-01
2.195221751000000054e+00,9.567984520000000215e-01,5.093401225948754885e-01,1.000000000000000048e-04,4.199761843133507710e+01,2.200000000000000011e-01
-2.382074272179586227e+00,-9.504311730000000180e-01,5.136118077330726894e-01,1.000000000000000048e-04,4.269572649742854509e+01,2.300000000000000100e-01
2.197803225999999999e+00,9.560313849999999558e-01,5.056308548293142469e-01,1.000000000000000048e-04,4.236666835295645228e+01,2.300000000000000100e-01
-2.380846050179586282e+00,-9.512843520000000552e-01,5.045789271514387053e-01,1.000000000000000048e-04,4.188551050014748256e+01,2.600000000000000089e-01
-2.382960995179586039e+00,-9.501026420000000527e-01,5.079240298496265904e-01,1.000000000000000048e-04,4.221444921920855364e+01,2.099999999999999922e-01
2.192165822000000208e+00,9.554729659999999791e-01,4.939245842696173838e-01,1.000000000000000048e-04,4.197892303195970953e+01,2.899999999999999800e-01
-2.383512939179586176e+00,-9.505219620000000535e-01,5.145537192200870802e-01,1.000000000000000048e-04,4.226769305559798084e+01,2.000000000000000111e-01
2.197044292000000176e+00,9.582492320000000063e-01,5.109993397705412388e-01,1.000000000000000048e-04,4.207166289379627244e+01,2.500000000000000000e-01
2.198013217999999824e+00,9.570721989999999568e-01,5.103518275076805999e-01,1.000000000000000048e-04,4.218058934818040484e+01,2.099999999999999922e-01
2.198391541999999976e+00,9.561199929999999458e-01,5.112400176237386074e-01,1.000000000000000048e-04,4.231215569510110441e+01,2.300000000000000100e-01
2.199218732999999926e+00,9.570277640000000030e-01,4.926085425375077431e-01,1.000000000000000048e-04,4.232488411665377015e+01,2.200000000000000011e-01
2.196667974999999995e+00,9.569524729999999701e-01,5.158527346870134256e-01,1.000000000000000048e-04,4.259211324160925471e+01,2.399999999999999911e-01
2.196400267000000017e+00,9.571105250000000453e-01,4.981880116451751217e-01,1.000000000000000048e-04,4.237141006567415502e+01,2.500000000000000000e-01
2.195980999000000100e+00,9.563170869999999546e-01,5.126716254284773289e-01,1.000000000000000048e-04,4.254033892819609974e+01,2.200000000000000011e-01
2.198886345000000020e+00,9.574225640000000315e-01,5.162543688254435104e-01,1.000000000000000048e-04,4.217815797662923671e+01,3.300000000000000155e-01
-2.382942164179586264e+00,-9.487821469999999646e-01,5.036908324622872968e-01,1.000000000000000048e-04,4.229877487518237444e+01,2.000000000000000111e-01
2.197058621000000045e+00,9.568337070000000333e-01,5.164433867615945140e-01,1.000000000000000048e-04,4.264324795141484969e+01,2.600000000000000089e-01
2.196754174000000059e+00,9.569828230000000380e-01,5.149888554195241053e-01,1.000000000000000048e-04,4.257073461040013740e+01,2.399999999999999911e-01
-2.381905888179586039e+00,-9.494029419999999719e-01,5.019337001379253760e-01,1.000000000000000048e-04,4.245053092582997323e+01,2.399999999999999911e-01
-2.382353656179586388e+00,-9.501919130000000546e-01,5.046725393434976503e-01,1.000000000000000048e-04,4.223527275571485973e+01,2.600000000000000089e-01
-2.385313647179586383e+00,-9.492824659999999914e-01,4.976554767543532876e-01,1.000000000000000048e-04,4.199521586512733506e+01,2.399999999999999911e-01
-2.383308463179586223e+00,-9.502672559999999491e-01,5.085578165976525344e-01,1.000000000000000048e-04,4.203326472784087997e+01,2.000000000000000111e-01
2.194446376000000143e+00,9.548028840000000184e-01,4.976164050592581933e-01,1.000000000000000048e-04,4.205892387312388792e+01,3.699999999999999956e-01
-2.377678389179586294e+00,-9.493284189999999789e-01,5.188466080424185556e-01,1.000000000000000048e-04,4.294047532764849961e+01,3.099999999999999978e-01
2.195048706000000127e+00,9.553664520000000326e-01,5.050770409477347567e-01,1.000000000000000048e-04,4.228719148255123628e+01,2.399999999999999911e-01
2.194988459000000169e+00,9.569281090000000267e-01,5.105605360847655927e-01,1.000000000000000048e-04,4.251068590942829672e+01,2.099999999999999922e-01
2.198773670000000013e+00,9.585742720000000050e-01,5.028115225760483309e-01,1.000000000000000048e-04,4.210417730888432430e+01,2.800000000000000266e-01
2.196007632000000154e+00,9.574002940000000406e-01,5.159156005214091678e-01,1.000000000000000048e-04,4.254467576493736658e+01,2.800000000000000266e-01
2.193610842000000005e+00,9.569156829999999614e-01,4.960649455484760217e-01,1.000000000000000048e-04,4.236299533310828735e+01,2.099999999999999922e-01
2.194846306000000080e+00,9.574700699999999509e-01,4.985670815085587737e-01,1.000000000000000048e-04,4.210327010732404318e+01,2.300000000000000100e-01
-2.901318991795864832e-01,1.086903570000000041e+00,5.056303490785361010e-01,1.000000000000000048e-04,4.215868411071228650e+01,2.000000000000000111e-01
-2.914486071795865385e-01,1.085909494999999891e+00,4.980853858708982340e-01,1.000000000000000048e-04,4.214221727308554932e+01,1.000000000000000056e-01
-2.954610881795858290e-01,1.084462065999999947e+00,4.985885896733759370e-01,1.000000000000000048e-04,4.220139822017850406e+01,1.199999999999999956e-01
-3.403197011795864313e-01,1.090760651000000081e+00,5.173156784249621776e-01,1.000000000000000048e-04,4.227460528687741714e+01,8.999999999999999667e-02
-3.429455761795860980e-01,1.087892671000000089e+00,5.186837279193599048e-01,1.000000000000000048e-04,4.227892396052121171e+01,1.400000000000000133e-01
6.896152909999999636e-01,-9.249195220000000495e-01,5.213090758680005710e-01,1.000000000000000048e-04,4.273830172376130321e+01,2.000000000000000111e-01
1.024453132999999960e+00,1.182715689999999986e+00,5.145868711495189540e-01,1.000000000000000048e-04,4.248466229792467885e+01,1.900000000000000022e-01
1.006083177000000051e+00,1.165244638999999971e+00,5.040035765929025136e-01,1.000000000000000048e-04,4.265293273017972808e+01,1.700000000000000122e-01
9.905969959999999519e-01,1.153001898999999941e+00,5.144324328252465328e-01,1.000000000000000048e-04,4.263272194560877892e+01,3.499999999999999778e-01
2.950804928999999799e+00,-1.010655210999999998e+00,5.210886303996118407e-01,1.000000000000000048e-04,4.219926365843488725e+01,1.700000000000000122e-01
2.951637304000000128e+00,-1.010683065999999908e+00,5.196487486991603344e-01,1.000000000000000048e-04,4.247693633693014448e+01,1.900000000000000022e-01
-2.349248843179586377e+00,-9.322901449999999590e-01,4.989778008282610422e-01,1.000000000000000048e-04,4.240427050017091659e+01,1.900000000000000022e-01
