-1.598279621179586663e+00,2.779993629999999993e-01,4.883008400684978323e-01,1.000000000000000048e-04,4.204590003431364664e+01,1.700000000000000122e-01
-8.306753881795865269e-01,5.048130450000000158e-01,8.001040979711464551e-01,1.000000000000000048e-04,4.330423556743021152e+01,1.600000000000000033e-01
-1.512887194179586281e+00,3.571169940000000209e-01,6.709480113804613399e-01,1.000000000000000048e-04,4.302002218123651289e+01,1.600000000000000033e-01
-2.094054222179586588e+00,-9.657747650000000350e-01,4.921808772735765114e-01,1.000000000000000048e-04,4.233884968824204265e+01,1.600000000000000033e-01
-1.256550916179586252e+00,-1.037146153999999987e+00,5.136439915877000217e-01,1.000000000000000048e-04,4.234954220828572602e+01,1.900000000000000022e-01
-2.638489419179586015e+00,-8.917870300000000361e-01,1.613726165467221918e-01,1.000000000000000048e-04,3.938702175328826627e+01,1.600000000000000033e-01
3.095686500000000008e-02,-1.139960520999999893e+00,7.323359564778602060e-01,1.000000000000000048e-04,4.329016679995256567e+01,1.700000000000000122e-01
-4.765590681795863759e-01,-7.328014390000000544e-01,1.943065447996203954e-01,1.000000000000000048e-04,3.980437344326074367e+01,1.600000000000000033e-01
7.532392530000000530e-01,9.936355940000000109e-01,1.360901391231783553e-01,1.000000000000000048e-04,3.933949905545168235e+01,1.600000000000000033e-01
1.355624495999999901e+00,4.654212710000000253e-01,2.272199715765330641e-01,1.000000000000000048e-04,4.048353671771189255e+01,2.200000000000000011e-01
-2.027672372179586624e+00,-3.494576850000000179e-01,2.672972798100750058e-01,1.000000000000000048e-04,4.062570048893013563e+01,8.999999999999999667e-02
-2.243457714179585949e+00,5.735296930000000071e-01,8.990042281256727108e-01,1.000000000000000048e-04,4.388761550075563633e+01,8.000000000000000167e-02
-1.661352162179586145e+00,7.473004210000000480e-01,4.415844929627692483e-01,1.000000000000000048e-04,4.201853936937853007e+01,1.100000000000000006e-01
-1.046494641179585905e+00,9.839422859999999993e-01,5.637130982121536515e-01,1.000000000000000048e-04,4.251905015969516910e+01,1.600000000000000033e-01
-1.357076630179586019e+00,8.591991679999999576e-01,2.876358788181543336e-01,1.000000000000000048e-04,4.076430428472001921e+01,1.300000000000000044e-01
-1.489161381179585852e+00,8.733460579999999807e-01,6.017055571717433438e-01,1.000000000000000048e-04,4.267860863762823698e+01,8.999999999999999667e-02
2.602874990000000111e+00,9.865781270000000269e-01,3.824060158549447141e-01,1.000000000000000048e-04,4.146052675018029277e+01,2.099999999999999922e-01
2.011122450999999867e+00,-1.257182417000000108e+00,8.030347643124866597e-01,1.000000000000000048e-04,4.345774800360166523e+01,1.799999999999999933e-01
2.487812089999999809e+00,-1.095252646999999913e+00,3.359198180442413140e-01,1.000000000000000048e-04,4.103255444664220875e+01,1.600000000000000033e-01
-2.060955814179585843e+00,9.020563839999999889e-01,2.623388328759477250e-01,1.000000000000000048e-04,4.016261560771308581e+01,1.799999999999999933e-01
-1.552222439179586466e+00,1.270289940999999923e+00,1.045908279019741371e+00,1.000000000000000048e-04,4.427090596144398660e+01,1.600000000000000033e-01
-3.584264691795864266e-01,1.112498557000000110e+00,4.443065152567324816e-01,1.000000000000000048e-04,4.174541815713390491e+01,2.000000000000000111e-01
1.187793541000000008e+00,1.533334508000000040e+00,1.873889598711013793e-01,1.000000000000000048e-04,3.977841236797306834e+01,1.700000000000000122e-01
9.029304540000000490e-01,-5.888661819999999603e-01,3.439660776413304699e-01,1.000000000000000048e-04,4.125101869747404493e+01,1.700000000000000122e-01
2.675488564000000125e+00,-1.029758079000000048e+00,2.598599850418650270e-01,1.000000000000000048e-04,4.053274896152921514e+01,1.700000000000000122e-01
9.979371630000000160e-01,-7.076351440000000492e-01,2.250962011405013286e-01,1.000000000000000048e-04,4.031743811382612108e+01,2.000000000000000111e-01
-2.809922836179586270e+00,-1.219770695000000016e+00,2.455845106481400197e-01,1.000000000000000048e-04,4.027944301857433373e+01,1.900000000000000022e-01
1.945616433999999950e+00,5.533621010000000506e-01,4.505764640568681312e-01,1.000000000000000048e-04,4.209566361305798665e+01,1.700000000000000122e-01
1.369802210000000131e-01,9.686457469999999459e-01,2.102501590284244770e-01,1.000000000000000048e-04,4.013867130197245814e+01,1.000000000000000056e-01
2.377785852000000144e+00,-1.071983155000000076e+00,2.538345082022461785e-01,1.000000000000000048e-04,4.056020419874146654e+01,1.000000000000000056e-01
1.194530383000000029e+00,-8.514353350000000153e-01,9.311196640923307122e-01,1.000000000000000048e-04,4.380357168480976071e+01,1.100000000000000006e-01
2.328991532999999947e+00,-1.085498080000000032e+00,2.398302699516370318e-01,1.000000000000000048e-04,4.036497452109523465e+01,1.199999999999999956e-01
3.099662444999999877e+00,-8.173274409999999879e-01,2.950121850071802942e-01,1.000000000000000048e-04,4.095407678991276157e+01,1.300000000000000044e-01
1.008677688999999988e+00,-7.224949280000000362e-01,2.500295243786054833e-01,1.000000000000000048e-04,4.051553320607900588e+01,1.199999999999999956e-01
1.116317643999999998e+00,-8.188746820000000204e-01,9.848636179706569127e-01,1.000000000000000048e-04,4.401556002273736823e+01,1.499999999999999944e-01
1.368634144999999913e+00,-9.746537960000000167e-01,2.649182734763830815e-01,1.000000000000000048e-04,4.064152691225476843e+01,2.200000000000000011e-01
2.840707745000000006e+00,-9.874777999999999611e-01,2.125379054664393585e-01,1.000000000000000048e-04,4.021047704649681265e+01,1.199999999999999956e-01
1.164831654000000105e+00,-8.361433499999999519e-01,1.405628653136283823e-01,1.000000000000000048e-04,3.924795189406103901e+01,1.600000000000000033e-01
9.274529849999999520e-01,-5.648102149999999488e-01,2.395442209924392163e-01,1.000000000000000048e-04,4.021927393173150733e+01,2.200000000000000011e-01
1.803806121999999901e+00,-1.051757271000000049e+00,1.576724017013573231e-01,1.000000000000000048e-04,3.934609692870792230e+01,2.200000000000000011e-01
1.910407339000000038e+00,-1.096340147000000043e+00,3.333225461112627741e-01,1.000000000000000048e-04,4.110705294304380431e+01,1.300000000000000044e-01
-2.994395329179586174e+00,-6.874333790000000111e-01,4.508683833725417589e-01,1.000000000000000048e-04,4.215258649684715664e+01,1.600000000000000033e-01
2.004169926999999962e+00,-1.114377941999999955e+00,9.450179861706460294e-01,1.000000000000000048e-04,4.427901946823205037e+01,2.099999999999999922e-01
2.993884073999999895e+00,-9.067153500000000310e-01,5.608169360003192327e-01,1.000000000000000048e-04,4.268073593904367868e+01,2.000000000000000111e-01
2.896584697999999847e+00,-6.981149509999999836e-01,7.170374544406890038e-01,1.000000000000000048e-04,4.275874116575516126e+01,2.000000000000000111e-01
2.644964143999999795e+00,-1.038456438999999953e+00,4.357813267579782046e-01,1.000000000000000048e-04,4.201580845084043148e+01,2.500000000000000000e-01
1.395029569000000080e+00,-9.673563530000000021e-01,1.866801833955666901e-01,1.000000000000000048e-04,3.987038303878954082e+01,2.200000000000000011e-01
1.133893306999999906e+00,-8.234022290000000410e-01,6.598153006099398699e-01,1.000000000000000048e-04,4.307916642440967792e+01,1.199999999999999956e-01
9.542908199999999841e-01,-6.210129070000000029e-01,2.891631190344403635e-01,1.000000000000000048e-04,4.096419951231737144e+01,1.400000000000000133e-01
1.112357503999999997e+00,-7.717409769999999947e-01,8.569819320388660788e-01,1.000000000000000048e-04,4.365343102306492540e+01,1.400000000000000133e-01
1.392129267000000059e+00,-9.489503049999999940e-01,1.302733811919352114e+00,1.000000000000000048e-04,4.475175958989053981e+01,1.100000000000000006e-01
3.104633763999999907e+00,-8.563587980000000321e-01,5.863506153967636969e-01,1.000000000000000048e-04,4.269150252431483494e+01,1.199999999999999956e-01
-1.581672989179586430e+00,-6.726275419999999672e-01,2.616300270590259380e-01,1.000000000000000048e-04,4.090750394433496240e+01,2.000000000000000111e-01
8.758714749999999549e-01,-5.394949780000000139e-01,4.671780725503709153e-01,1.000000000000000048e-04,4.230730503374473983e+01,1.199999999999999956e-01
1.027821937999999991e+00,-6.897361509999999640e-01,2.031460714272332879e-01,1.000000000000000048e-04,3.996666044468619816e+01,1.499999999999999944e-01
8.011105990000000343e-01,-4.568120419999999737e-01,2.457324299449932248e-01,1.000000000000000048e-04,4.056172324958478725e+01,1.499999999999999944e-01
8.044453879999999835e-01,-4.591503659999999765e-01,6.716136477746716960e-01,1.000000000000000048e-04,4.305559225692891800e+01,1.100000000000000006e-01
8.290542589999999601e-01,-4.498624509999999965e-01,2.270086559926907110e-01,1.000000000000000048e-04,4.031258303885103800e+01,1.199999999999999956e-01
2.306908324000000121e+00,-1.093655438999999951e+00,2.395586398327691491e-01,1.000000000000000048e-04,4.032839283078605774e+01,1.300000000000000044e-01
-3.090495873179586184e+00,-7.974218849999999970e-01,2.493439783732558368e-01,1.000000000000000048e-04,4.046784423085768623e+01,1.300000000000000044e-01
2.850739061000000074e+00,-9.724982730000000242e-01,1.915177436141848322e-01,1.000000000000000048e-04,3.986848623650565315e+01,1.100000000000000006e-01
1.925211972000000049e+00,-1.067349442999999898e+00,3.248626476884988179e-01,1.000000000000000048e-04,4.127356404176642712e+01,1.600000000000000033e-01
3.010706126000000094e+00,-9.149326070000000088e-01,7.463084820574681366e-01,1.000000000000000048e-04,4.333497594065054415e+01,1.199999999999999956e-01
1.754869720000000077e+00,-1.052947148999999971e+00,4.200971173511647283e-01,1.000000000000000048e-04,4.221328200858070545e+01,1.300000000000000044e-01
3.028086770999999899e+00,-8.725603690000000023e-01,2.873995855542101907e-01,1.000000000000000048e-04,4.098091924024600985e+01,1.199999999999999956e-01
2.780301081000000174e+00,-1.010780400000000023e+00,5.171479420829410145e-01,1.000000000000000048e-04,4.202997844772778535e+01,1.700000000000000122e-01
3.096540631999999960e+00,-8.261897350000000362e-01,1.544798092589165783e-01,1.000000000000000048e-04,3.926314266402657438e+01,1.100000000000000006e-01
-3.043596368179586342e+00,-7.656326449999999451e-01,7.936584039165495152e-01,1.000000000000000048e-04,4.351712488583403626e+01,1.100000000000000006e-01
2.593403560000000052e+00,-1.068240442000000012e+00,3.323048802403514301e-01,1.000000000000000048e-04,4.128582069422275680e+01,1.199999999999999956e-01
1.277663320999999907e+00,-8.910532270000000032e-01,6.525682633399785271e-01,1.000000000000000048e-04,4.288638576148080972e+01,1.499999999999999944e-01
8.729576639999999665e-01,-5.017517409999999733e-01,1.045169623044426732e+00,1.000000000000000048e-04,4.446123757165193524e+01,1.199999999999999956e-01
2.323316692000000128e+00,-1.072994334000000105e+00,7.669820848462454155e-01,1.000000000000000048e-04,4.344363783026276593e+01,1.400000000000000133e-01
-3.012222731179586166e+00,-7.219820959999999621e-01,1.491999594265562834e-01,1.000000000000000048e-04,3.957811027762720357e+01,1.199999999999999956e-01
2.306010604999999991e+00,-1.110345181000000014e+00,3.065681148034231640e-01,1.000000000000000048e-04,4.096747133464275947e+01,1.100000000000000006e-01
2.437557496999999795e+00,-1.097151527000000071e+00,2.676632809344809960e-01,1.000000000000000048e-04,4.086138951963419430e+01,1.100000000000000006e-01
1.098420291999999909e+00,-7.444727049999999569e-01,5.255399724571525599e-01,1.000000000000000048e-04,4.263254948958265089e+01,1.300000000000000044e-01
8.241628739999999897e-01,-4.611620249999999754e-01,3.571340394690174502e-01,1.000000000000000048e-04,4.142996414226374213e+01,1.400000000000000133e-01
1.017317494999999905e+00,-7.027905669999999771e-01,3.998481263638553607e-01,1.000000000000000048e-04,4.161301546350481573e+01,1.199999999999999956e-01
2.728679550999999925e+00,-1.007430967999999982e+00,3.488355782627354795e-01,1.000000000000000048e-04,4.131237583113607315e+01,1.100000000000000006e-01
2.848837458999999850e+00,-9.622339979999999793e-01,4.014257478506393362e-01,1.000000000000000048e-04,4.177802445083699467e+01,1.199999999999999956e-01
-3.065525731179586266e+00,-7.207210450000000046e-01,7.464101536260505654e-01,1.000000000000000048e-04,4.354622539570902973e+01,1.199999999999999956e-01
1.103969978000000074e+00,-7.587182380000000448e-01,5.971236958094787717e-01,1.000000000000000048e-04,4.258064852484243090e+01,1.300000000000000044e-01
1.112034854000000017e+00,-7.675460100000000008e-01,5.133881203302423923e-01,1.000000000000000048e-04,4.230810276709349438e+01,1.199999999999999956e-01
2.373162053000000160e+00,-1.072487750000000073e+00,1.939398887727949994e-01,1.000000000000000048e-04,4.007037938406995181e+01,1.100000000000000006e-01
2.221583438000000132e+00,-1.096064289000000080e+00,1.190671885048013579e-01,1.000000000000000048e-04,3.882165508339070925e+01,1.199999999999999956e-01
2.775251189000000007e+00,-1.013244017000000108e+00,2.084799428622046147e-01,1.000000000000000048e-04,4.018059703782047620e+01,1.700000000000000122e-01
1.527128894000000070e+00,-9.963611940000000056e-01,3.000693401157739082e-01,1.000000000000000048e-04,4.119263073880290449e+01,1.400000000000000133e-01
-1.936135624179586401e+00,1.327891944000000102e+00,2.453805881969288727e-01,1.000000000000000048e-04,4.051953383793618713e+01,1.199999999999999956e-01
2.120951332999999828e+00,-1.112975437000000012e+00,1.270033940430657537e+00,1.000000000000000048e-04,4.483353161744523163e+01,1.600000000000000033e-01
2.950704906999999988e+00,-9.277153000000000205e-01,3.347441179759083063e-01,1.000000000000000048e-04,4.106139657773318419e+01,1.700000000000000122e-01
2.461302839000000020e+00,-1.064109841000000056e+00,3.016919012560503877e-01,1.000000000000000048e-04,4.098945516213009199e+01,1.499999999999999944e-01
1.687800213000000049e+00,-1.037844004000000098e+00,4.856214855085787541e-01,1.000000000000000048e-04,4.206485377130317715e+01,1.100000000000000006e-01
-3.069023128179586113e+00,-7.343218900000000327e-01,3.528541961450277764e-01,1.000000000000000048e-04,4.125427104774736620e+01,2.000000000000000111e-01
7.655655390000000171e-01,-3.825025819999999799e-01,8.774829102667167646e-01,1.000000000000000048e-04,4.372188420387124808e+01,1.300000000000000044e-01
-3.051736326179586012e+00,-7.690870560000000467e-01,6.240831340352530621e-01,1.000000000000000048e-04,4.298013003010667887e+01,1.499999999999999944e-01
-3.116938176179586240e+00,-7.920766919999999711e-01,5.905706323983590522e-01,1.000000000000000048e-04,4.272123717312609870e+01,1.100000000000000006e-01
1.020863690000000101e+00,-6.877910739999999468e-01,1.212578826313455149e-01,1.000000000000000048e-04,3.878278011730394326e+01,1.199999999999999956e-01
1.792785233999999894e+00,-1.066474936999999956e+00,4.940804485996628248e-01,1.000000000000000048e-04,4.226611294531803509e+01,1.100000000000000006e-01
1.805689748000000039e+00,-1.066896787999999985e+00,3.115906334832347913e-01,1.000000000000000048e-04,4.112777447279065512e+01,1.100000000000000006e-01
1.773248071000000037e+00,-1.046601056999999946e+00,5.807974485345790416e-01,1.000000000000000048e-04,4.239143712076582204e+01,2.099999999999999922e-01
1.076689889999999927e+00,-7.549444410000000216e-01,3.601514553262032958e-01,1.000000000000000048e-04,4.143105780305539554e+01,1.199999999999999956e-01
2.336456505000000128e+00,-1.089906792000000069e+00,3.351109482917420390e-01,1.000000000000000048e-04,4.149035659352138339e+01,1.199999999999999956e-01
2.522083900000000156e+00,-1.078852812999999911e+00,4.144630355815983602e-01,1.000000000000000048e-04,4.184048843386406702e+01,1.199999999999999956e-01
3.676074389999999803e-01,1.100614297999999991e+00,1.818162030277481467e-01,1.000000000000000048e-04,3.943586292546704897e+01,1.700000000000000122e-01
2.099931574000000190e+00,-1.082223048999999993e+00,2.001359519690308897e-01,1.000000000000000048e-04,3.999558653461580349e+01,1.100000000000000006e-01
8.155488279999999479e-01,-4.642700679999999802e-01,1.272283825584938910e+00,1.000000000000000048e-04,4.477152144027268577e+01,2.099999999999999922e-01
9.861636230000000447e-01,-6.881834650000000497e-01,5.557835625544687019e-01,1.000000000000000048e-04,4.275188314688947600e+01,1.300000000000000044e-01
1.864254864999999928e+00,-1.086684659999999969e+00,2.233815814320265769e-01,1.000000000000000048e-04,4.051007636712940752e+01,1.199999999999999956e-01
2.873066016000000111e+00,-9.753574739999999466e-01,5.843907703091153483e-01,1.000000000000000048e-04,4.260915221522991203e+01,1.300000000000000044e-01
2.270287562000000037e+00,-1.085086717999999895e+00,1.013774097372269534e+00,1.000000000000000048e-04,4.451028025593068094e+01,1.799999999999999933e-01
8.268071609999999572e-01,-4.587794940000000099e-01,1.573445378162796615e-01,1.000000000000000048e-04,3.956503162904793669e+01,1.199999999999999956e-01
-3.050869045179586347e+00,-7.648855789999999821e-01,5.267200557777624859e-01,1.000000000000000048e-04,4.228855728629315536e+01,1.199999999999999956e-01
1.101963728999999947e+00,-7.466317359999999903e-01,1.731751251379511913e-01,1.000000000000000048e-04,3.970369885047578862e+01,1.900000000000000022e-01
1.745116724000000064e+00,-1.056563783000000090e+00,5.000293028388265171e-01,1.000000000000000048e-04,4.231507992469614265e+01,1.300000000000000044e-01
7.889769570000000343e-01,-3.846565690000000037e-01,4.590030296292608725e-01,1.000000000000000048e-04,4.176565920111961816e+01,1.499999999999999944e-01
1.385818830999999918e+00,-9.278259679999999454e-01,5.696473908217103421e-01,1.000000000000000048e-04,4.267210238359823649e+01,1.499999999999999944e-01
1.138484923000000038e+00,-8.197145099999999518e-01,5.442149293921971775e-01,1.000000000000000048e-04,4.247708456291429258e+01,1.400000000000000133e-01
1.783410439000000069e+00,-1.080958507999999929e+00,6.276408294716546710e-01,1.000000000000000048e-04,4.268957700153534063e+01,1.400000000000000133e-01
2.617653461000000181e+00,-1.025884226000000066e+00,1.168608468303179215e+00,1.000000000000000048e-04,4.441067746256207727e+01,1.199999999999999956e-01
8.270197009999999960e-01,-4.157453939999999903e-01,4.883569521999666652e-01,1.000000000000000048e-04,4.238415170637841811e+01,1.199999999999999956e-01
3.128792493000000174e+00,-8.522697870000000009e-01,4.683345667208349550e-01,1.000000000000000048e-04,4.206287426957788256e+01,1.100000000000000006e-01
1.366158207000000013e+00,-9.614226009999999878e-01,3.181109176923644366e-01,1.000000000000000048e-04,4.116615592953593250e+01,1.100000000000000006e-01
2.846286316000000038e+00,-9.688357899999999745e-01,1.278639944983226417e-01,1.000000000000000048e-04,3.891214761352234319e+01,1.400000000000000133e-01
9.208216280000000031e-01,-6.185352929999999860e-01,3.870181548945981209e-01,1.000000000000000048e-04,4.163688472717647926e+01,1.499999999999999944e-01
7.622987450000000553e-01,-3.411912120000000215e-01,1.348055488636683563e-01,1.000000000000000048e-04,3.901519443611046256e+01,1.199999999999999956e-01
9.277931750000000255e-01,-5.813990460000000304e-01,3.859440884956588658e-01,1.000000000000000048e-04,4.156633304048073541e+01,2.099999999999999922e-01
1.010173165000000095e+00,-6.808591280000000356e-01,2.783215982320828008e-01,1.000000000000000048e-04,4.072091684026913327e+01,1.300000000000000044e-01
1.661181446000000062e+00,-1.029160687999999935e+00,5.455723376590355667e-01,1.000000000000000048e-04,4.253601383453847262e+01,1.400000000000000133e-01
2.089878704000000198e+00,-1.077863170999999953e+00,1.157792038650974575e+00,1.000000000000000048e-04,4.472467044232769950e+01,1.199999999999999956e-01
9.321550429999999610e-01,-6.212176799999999943e-01,5.136979758179358591e-01,1.000000000000000048e-04,4.243037343700540021e+01,1.199999999999999956e-01
2.944595597000000176e+00,-9.127602249999999806e-01,4.686539551541375470e-01,1.000000000000000048e-04,4.208691506006495331e+01,1.100000000000000006e-01
1.288081913999999939e+00,-9.113959929999999598e-01,1.247186538578707982e+00,1.000000000000000048e-04,4.481020820815600558e+01,1.300000000000000044e-01
1.398731861999999992e+00,-9.625033109999999725e-01,9.339890392720571199e-01,1.000000000000000048e-04,4.396346328561288175e+01,1.199999999999999956e-01
1.714165549000000066e+00,-1.043104095999999981e+00,7.706326503524096871e-01,1.000000000000000048e-04,4.355389972025166401e+01,1.199999999999999956e-01
1.014018395999999989e+00,-6.788913789999999615e-01,4.489383631352086290e-01,1.000000000000000048e-04,4.207867485331149737e+01,1.300000000000000044e-01
8.887761809999999985e-01,-5.541821719999999729e-01,2.013776581038697611e-01,1.000000000000000048e-04,4.007103437951801794e+01,1.300000000000000044e-01
1.026278256999999972e+00,-6.961882160000000264e-01,5.865209240648063815e-01,1.000000000000000048e-04,4.277547167686992680e+01,1.199999999999999956e-01
1.824970581999999952e+00,-1.080428363000000003e+00,4.329757818314892148e-01,1.000000000000000048e-04,4.186173946097773779e+01,1.199999999999999956e-01
1.839979185000000017e+00,-1.082878103999999952e+00,7.559305006145840000e-01,1.000000000000000048e-04,4.328061122676881922e+01,1.300000000000000044e-01
-3.070118813179586237e+00,-7.641942569999999879e-01,1.247319894739316037e+00,1.000000000000000048e-04,4.459750085580679269e+01,1.199999999999999956e-01
2.250776613000000204e+00,-1.110438553999999911e+00,2.329819787418723198e-01,1.000000000000000048e-04,4.045959577334011925e+01,1.199999999999999956e-01
2.613802471000000072e+00,-1.066258922999999914e+00,4.083933591376176508e-01,1.000000000000000048e-04,4.190499563536630490e+01,1.199999999999999956e-01
8.050150120000000298e-01,-4.193234060000000096e-01,1.343902425317216043e-01,1.000000000000000048e-04,3.913447922681316982e+01,1.499999999999999944e-01
2.809576177999999924e+00,-9.952447749999999704e-01,2.515870092261578428e-01,1.000000000000000048e-04,4.053443040852300072e+01,1.199999999999999956e-01
8.523447290000000232e-01,-4.773689010000000121e-01,7.307407106421410781e-01,1.000000000000000048e-04,4.317444119959830573e+01,2.000000000000000111e-01
2.975142320999999868e+00,-8.986192680000000266e-01,3.381537265428711247e-01,1.000000000000000048e-04,4.109893474892966481e+01,2.000000000000000111e-01
2.960578484000000010e+00,-9.174235720000000205e-01,7.809891396766699412e-01,1.000000000000000048e-04,4.320113501536130229e+01,1.400000000000000133e-01
1.589239559999999996e+00,-1.046132274999999945e+00,3.013666598214277403e-01,1.000000000000000048e-04,4.100575197102455149e+01,1.199999999999999956e-01
1.095136271999999966e+00,-7.909478989999999543e-01,3.731218440464614261e-01,1.000000000000000048e-04,4.148557064339677680e+01,1.300000000000000044e-01
3.045277111999999953e+00,-8.831592660000000539e-01,5.193944525808114054e-01,1.000000000000000048e-04,4.264798303781077493e+01,1.799999999999999933e-01
3.011317304999999944e+00,-8.969173430000000335e-01,3.336942398882971617e-01,1.000000000000000048e-04,4.109885329621166505e+01,1.499999999999999944e-01
1.946036051000000100e+00,-1.101857058000000000e+00,7.105559099297535930e-01,1.000000000000000048e-04,4.322788089338989437e+01,1.100000000000000006e-01
9.659444579999999503e-01,-6.400164339999999674e-01,4.897360126927219337e-01,1.000000000000000048e-04,4.227437782887239592e+01,1.199999999999999956e-01
1.142944595999999979e+00,-8.229314749999999679e-01,1.570070244675441096e-01,1.000000000000000048e-04,3.971345497432596972e+01,1.499999999999999944e-01
1.336859599999999926e+00,-9.462661719999999610e-01,1.359633113167848517e-01,1.000000000000000048e-04,3.891105495507065370e+01,1.900000000000000022e-01
2.386695267999999981e+00,-1.099692616000000012e+00,2.593103326977106438e-01,1.000000000000000048e-04,4.042796658583612412e+01,1.799999999999999933e-01
1.122946417999999946e+00,-7.871106610000000448e-01,2.287652372872612805e-01,1.000000000000000048e-04,4.045158300327403822e+01,1.499999999999999944e-01
1.038511049000000019e+00,-6.836743480000000428e-01,6.150294027395177832e-01,1.000000000000000048e-04,4.289792451415595309e+01,1.499999999999999944e-01
-1.865548755179585960e+00,5.988235499999999822e-01,6.180754006730262429e-01,1.000000000000000048e-04,4.262872969499048281e+01,3.599999999999999867e-01
-1.208774007179585830e+00,1.086301519000000049e+00,1.887307742887316397e-01,1.000000000000000048e-04,3.965617055805947899e+01,3.900000000000000133e-01
-1.451351928179586359e+00,1.047303024999999943e+00,1.016577471357824614e+00,1.000000000000000048e-04,4.383717577204971150e+01,3.900000000000000133e-01
-1.863787002179586594e+00,5.986409590000000280e-01,4.670537537175125653e-01,1.000000000000000048e-04,4.204141976738473829e+01,3.099999999999999978e-01
-2.367107747179586053e+00,3.570653329999999848e-01,1.231411783343598021e+00,1.000000000000000048e-04,4.503154848294500567e+01,3.300000000000000155e-01
3.110012692999999828e+00,-8.816387980000000013e-01,5.107719636685741360e-01,1.000000000000000048e-04,4.172965466872696538e+01,4.000000000000000222e-01
1.208427087000000011e+00,6.391205479999999550e-01,6.646626694647577160e-01,1.000000000000000048e-04,4.319820058131994500e+01,3.200000000000000067e-01
2.195568135999999893e+00,9.530612539999999688e-01,2.408239651306822715e-01,1.000000000000000048e-04,3.997071865773521893e+01,3.200000000000000067e-01
-1.746303855179585973e+00,7.561700099999999480e-01,1.309071185323567033e-01,1.000000000000000048e-04,3.922219445308714825e+01,3.599999999999999867e-01
-2.613733020179586308e+00,3.020363409999999860e-01,7.898775663591153240e-01,1.000000000000000048e-04,4.348804666615244940e+01,2.399999999999999911e-01
3.080075141000000016e+00,6.813462000000000129e-01,6.555830854160786814e-01,1.000000000000000048e-04,4.283325073126639637e+01,2.999999999999999889e-01
3.084152930000000126e+00,6.750201959999999612e-01,1.299232092728124233e-01,1.000000000000000048e-04,3.886297222129312701e+01,2.399999999999999911e-01
-2.831540824179586302e+00,-5.193198470000000011e-01,2.807083576278877057e-01,1.000000000000000048e-04,4.116293035350259544e+01,2.899999999999999800e-01
2.921667255000000019e+00,-9.403574120000000036e-01,6.214540222459459251e-01,1.000000000000000048e-04,4.328720061784316187e+01,2.899999999999999800e-01
2.610543199999999953e+00,9.294079060000000059e-01,5.060607829940610980e-01,1.000000000000000048e-04,4.215140585868245182e+01,2.899999999999999800e-01
2.614058957000000127e+00,9.310355519999999885e-01,5.609135916713501313e-01,1.000000000000000048e-04,4.315542928909031417e+01,3.699999999999999956e-01
-2.614313936179586406e+00,3.105085300000000048e-01,6.892821683370584651e-01,1.000000000000000048e-04,4.303526031233367632e+01,2.300000000000000100e-01
-2.614275993179586255e+00,3.084493819999999942e-01,3.099920632764419093e-01,1.000000000000000048e-04,4.098750395338327479e+01,2.000000000000000111e-01
3.080236718000000096e+00,6.852664600000000217e-01,5.894122082996604561e-01,1.000000000000000048e-04,4.289357056688867686e+01,3.800000000000000044e-01
3.085135451000000195e+00,6.840520260000000352e-01,6.118209525611020272e-01,1.000000000000000048e-04,4.279335900195371067e+01,2.300000000000000100e-01
-2.829361723179586452e+00,-5.190188390000000096e-01,3.036697890332922256e-01,1.000000000000000048e-04,4.076820389592683824e+01,3.900000000000000133e-01
-2.833706243179586082e+00,-5.260186759999999628e-01,7.891244384735933703e-01,1.000000000000000048e-04,4.367146672894153170e+01,2.200000000000000011e-01
1.286414458000000094e+00,-9.076167339999999806e-01,6.653815690679285577e-01,1.000000000000000048e-04,4.319520755494858122e+01,2.399999999999999911e-01
2.295144749999999956e+00,-1.095028292000000070e+00,3.827450403308079174e-01,1.000000000000000048e-04,4.146847872353399111e+01,2.000000000000000111e-01
2.312115046000000174e+00,-1.091482969000000081e+00,5.697562136479481509e-01,1.000000000000000048e-04,4.265906406075445290e+01,1.900000000000000022e-01
2.535381049000000164e+00,-1.063602453999999975e+00,2.243601745311631923e-01,1.000000000000000048e-04,4.021146804225758586e+01,2.600000000000000089e-01
2.549902755000000187e+00,-1.059649137999999935e+00,9.583905065696358694e-01,1.000000000000000048e-04,4.413663555350856882e+01,1.900000000000000022e-01
-2.980466121795863899e-01,1.081935794000000062e+00,4.131479701784186442e-01,1.000000000000000048e-04,4.182152914780763808e+01,1.000000000000000056e-01
-4.562223411795862660e-01,1.078420874000000085e+00,1.317682740564879662e+00,1.000000000000000048e-04,4.495711413028673320e+01,1.400000000000000133e-01
-4.727696341795866175e-01,1.076427226000000070e+00,8.461385789353002007e-01,1.000000000000000048e-04,4.350720984872145891e+01,1.900000000000000022e-01
-4.909850281795860028e-01,1.086050390999999893e+00,5.077498707792003074e-01,1.000000000000000048e-04,4.229722938337985738e+01,1.499999999999999944e-01
-1.809890014179586615e+00,8.554848849999999727e-01,3.194500360247787274e-01,1.000000000000000048e-04,4.098860436223383630e+01,1.900000000000000022e-01
-1.804843805179586091e+00,8.509932909999999850e-01,6.815161955365154345e-01,1.000000000000000048e-04,4.303245627853270605e+01,1.700000000000000122e-01
-1.798315402179586187e+00,8.389159160000000393e-01,8.588506711261671978e-01,1.000000000000000048e-04,4.368665903777310433e+01,1.100000000000000006e-01
-1.820018681179586650e+00,8.404092629999999620e-01,3.823389478587861934e-01,1.000000000000000048e-04,4.148749654457784430e+01,2.000000000000000111e-01
-2.435936564179586039e+00,3.767214549999999829e-01,2.734679143246339095e-01,1.000000000000000048e-04,4.045915768999944362e+01,1.700000000000000122e-01
-2.738532057179586143e+00,-4.670391260000000266e-01,1.267249237902033254e+00,1.000000000000000048e-04,4.484507790695332119e+01,1.100000000000000006e-01
-2.750126147179586145e+00,-4.750163370000000107e-01,2.955538024428037147e-01,1.000000000000000048e-04,4.087914781369219241e+01,1.700000000000000122e-01
6.777063359999999648e-01,-9.284162910000000046e-01,2.212833256739579202e-01,1.000000000000000048e-04,4.038783760476743367e+01,1.600000000000000033e-01
6.755664329999999662e-01,-9.242990760000000527e-01,4.258385681362550912e-01,1.000000000000000048e-04,4.175268664409917818e+01,2.200000000000000011e-01
1.666277256000000095e+00,1.035703752000000089e+00,1.534799610192161268e-01,1.000000000000000048e-04,3.950126565096955744e+01,2.800000000000000266e-01
1.679531192000000006e+00,1.034147155999999956e+00,1.139745582346248565e+00,1.000000000000000048e-04,4.435414867782961323e+01,2.099999999999999922e-01
1.669961188000000041e+00,1.045784459000000055e+00,2.761471985010968133e-01,1.000000000000000048e-04,4.126882095766622882e+01,2.899999999999999800e-01
1.666612017000000057e+00,1.035903760999999923e+00,5.596896430315605464e-01,1.000000000000000048e-04,4.241574124696985848e+01,1.400000000000000133e-01
1.676630470000000095e+00,1.049302589999999924e+00,4.348829033754950668e-01,1.000000000000000048e-04,4.187477411116235970e+01,1.600000000000000033e-01
1.678871634000000057e+00,1.037439988999999896e+00,4.051094347485515446e-01,1.000000000000000048e-04,4.149895210530844736e+01,2.099999999999999922e-01
-2.159653925179585876e+00,7.341517600000000421e-01,4.611904541826352677e-01,1.000000000000000048e-04,4.243849642577113457e+01,2.600000000000000089e-01
-2.155609593179586447e+00,7.327229189999999726e-01,3.573803675550761838e-01,1.000000000000000048e-04,4.118203895957861249e+01,1.400000000000000133e-01
2.989279821999999864e+00,-1.014333855000000062e+00,7.548375651439442890e-01,1.000000000000000048e-04,4.339006090339344723e+01,1.600000000000000033e-01
6.962963009999999509e-01,-9.242906640000000396e-01,7.729205034960353604e-01,1.000000000000000048e-04,4.324413022837556042e+01,2.000000000000000111e-01
6.831622830000000368e-01,-9.295060950000000322e-01,6.805911109015165827e-01,1.000000000000000048e-04,4.266826742166556841e+01,2.099999999999999922e-01
6.813526220000000189e-01,-9.196739680000000083e-01,7.766246826369409550e-01,1.000000000000000048e-04,4.358308382966816197e+01,1.700000000000000122e-01
1.667475545999999920e+00,1.039138789999999979e+00,7.247769482499504257e-01,1.000000000000000048e-04,4.309371323649244090e+01,1.499999999999999944e-01
1.669072946000000002e+00,1.039627206000000026e+00,7.910684231509614861e-01,1.000000000000000048e-04,4.327574149668531334e+01,1.700000000000000122e-01
2.992464221000000091e+00,-1.009427984000000000e+00,1.323742596204235067e+00,1.000000000000000048e-04,4.494119999923846365e+01,1.400000000000000133e-01
3.013377762000000182e+00,-1.015725085999999999e+00,1.881607264384312916e-01,1.000000000000000048e-04,3.991994948534451026e+01,1.499999999999999944e-01
6.857830799999999893e-01,-9.290922369999999875e-01,8.063649782857609249e-01,1.000000000000000048e-04,4.387925551696773141e+01,3.400000000000000244e-01
6.874880420000000214e-01,-9.251381180000000093e-01,1.756944298598177578e-01,1.000000000000000048e-04,3.974733408297739601e+01,1.700000000000000122e-01
1.659686511000000086e+00,1.040101345999999927e+00,5.171976468814927230e-01,1.000000000000000048e-04,4.261025566977601642e+01,1.400000000000000133e-01
1.692629780999999944e+00,1.043637506000000048e+00,1.024332055942619224e+00,1.000000000000000048e-04,4.429091148080335216e+01,1.799999999999999933e-01
1.682450028999999958e+00,1.049226146999999942e+00,1.304201648960392479e-01,1.000000000000000048e-04,3.912225055066456036e+01,1.900000000000000022e-01
1.675255906999999933e+00,1.048468626000000015e+00,4.745597432614758748e-01,1.000000000000000048e-04,4.224479998002148307e+01,1.499999999999999944e-01
1.692145135000000078e+00,1.039981480000000014e+00,1.175799013849794239e+00,1.000000000000000048e-04,4.472725516234452670e+01,1.700000000000000122e-01
-2.139768073179586061e+00,7.360294179999999908e-01,4.648561648865769946e-01,1.000000000000000048e-04,4.207018366721602831e+01,1.600000000000000033e-01
-2.138731675179585956e+00,7.369836659999999817e-01,8.394787930608729187e-01,1.000000000000000048e-04,4.356517017947112436e+01,1.499999999999999944e-01
6.888283630000000546e-01,-9.193630990000000169e-01,2.023606718223707190e-01,1.000000000000000048e-04,4.003954212940908519e+01,1.700000000000000122e-01
6.776433490000000059e-01,-9.225326109999999469e-01,1.551423010750263565e-01,1.000000000000000048e-04,3.917282081812764716e+01,1.600000000000000033e-01
6.820513620000000499e-01,-9.162569579999999547e-01,2.264261332376205083e-01,1.000000000000000048e-04,4.012745930892385360e+01,2.899999999999999800e-01
6.832637360000000104e-01,-9.208365670000000502e-01,1.784043744345606974e-01,1.000000000000000048e-04,3.984989533941672590e+01,1.400000000000000133e-01
1.683256381999999940e+00,1.050427892999999946e+00,4.488242064801739595e-01,1.000000000000000048e-04,4.191619090578922879e+01,1.499999999999999944e-01
2.987248335999999949e+00,-1.011507587000000097e+00,3.882549453210515367e-01,1.000000000000000048e-04,4.152542084303671999e+01,1.900000000000000022e-01
2.994879214000000012e+00,-1.020537374999999969e+00,1.061424985593816039e+00,1.000000000000000048e-04,4.422732360775084715e+01,2.500000000000000000e-01
2.997056848999999801e+00,-1.020797841000000039e+00,6.141422916206091820e-01,1.000000000000000048e-04,4.286262486945747696e+01,1.499999999999999944e-01
6.981827720000000070e-01,-9.201470600000000166e-01,9.167059404575526038e-01,1.000000000000000048e-04,4.400388686057281262e+01,2.099999999999999922e-01
1.675679171999999939e+00,1.042232051000000048e+00,2.083525775053174378e-01,1.000000000000000048e-04,4.000451741751217583e+01,1.900000000000000022e-01
1.682732345000000018e+00,1.051774148000000020e+00,1.259779067017133602e+00,1.000000000000000048e-04,4.440995807430590503e+01,2.099999999999999922e-01
1.655763980999999996e+00,1.041789395999999979e+00,5.326006348737699625e-01,1.000000000000000048e-04,4.219653092164016783e+01,2.099999999999999922e-01
1.658505131999999938e+00,1.042043577999999915e+00,8.038083958199135903e-01,1.000000000000000048e-04,4.350991347618720084e+01,1.499999999999999944e-01
1.679931540999999973e+00,1.044700675999999939e+00,4.703581825017633111e-01,1.000000000000000048e-04,4.188258198396525245e+01,1.400000000000000133e-01
1.681131209999999987e+00,1.046558263000000100e+00,4.050322346798616024e-01,1.000000000000000048e-04,4.187216150225759748e+01,3.800000000000000044e-01
-2.147380102179586636e+00,7.248191320000000326e-01,5.310897905969194088e-01,1.000000000000000048e-04,4.293229840113657758e+01,2.200000000000000011e-01
-2.137481690179586558e+00,7.386978770000000027e-01,1.901483215944650418e-01,1.000000000000000048e-04,3.977189164313398351e+01,1.499999999999999944e-01
3.007533192999999994e+00,-1.006434849999999992e+00,2.181337264984877233e-01,1.000000000000000048e-04,4.023789628566022003e+01,1.700000000000000122e-01
6.766177190000000063e-01,-9.309161569999999664e-01,2.117086985171252600e-01,1.000000000000000048e-04,4.025777043375825315e+01,1.700000000000000122e-01
6.879719020000000240e-01,-9.170357009999999809e-01,3.208793222219215036e-01,1.000000000000000048e-04,4.103123107604457687e+01,2.600000000000000089e-01
6.868192690000000100e-01,-9.190749710000000183e-01,1.008508418932352324e+00,1.000000000000000048e-04,4.416494830289556006e+01,2.800000000000000266e-01
1.680927606000000019e+00,1.043199457999999913e+00,3.939443754697018463e-01,1.000000000000000048e-04,4.135152828521547264e+01,1.799999999999999933e-01
1.680733408999999901e+00,1.046110547000000057e+00,8.772033638375305031e-01,1.000000000000000048e-04,4.378284123667280880e+01,1.499999999999999944e-01
3.003205794999999956e+00,-1.007960921000000010e+00,1.649399551284072007e-01,1.000000000000000048e-04,3.975538980835721503e+01,2.200000000000000011e-01
3.013387552999999830e+00,-1.018013843000000085e+00,7.399608931609671370e-01,1.000000000000000048e-04,4.321428816578781351e+01,2.000000000000000111e-01
2.991633154000000072e+00,-1.018575491000000000e+00,1.534139447911422316e-01,1.000000000000000048e-04,3.921466975829844159e+01,1.600000000000000033e-01
6.810583510000000063e-01,-9.216344210000000370e-01,5.513864615712731343e-01,1.000000000000000048e-04,4.263958710025918464e+01,1.600000000000000033e-01
1.670069762000000013e+00,1.048284639000000018e+00,5.332507954736653843e-01,1.000000000000000048e-04,4.264813170832268696e+01,2.099999999999999922e-01
1.699713636000000028e+00,1.040243690999999915e+00,4.235337544637596263e-01,1.000000000000000048e-04,4.193205815282659898e+01,2.899999999999999800e-01
1.686195045999999920e+00,1.048540513999999924e+00,8.469641098451932137e-01,1.000000000000000048e-04,4.367305747514912184e+01,1.400000000000000133e-01
1.667162669999999958e+00,1.044746053999999980e+00,1.209597400713839921e-01,1.000000000000000048e-04,3.879882380576842849e+01,2.700000000000000178e-01
1.689467040999999892e+00,1.036330184999999959e+00,4.847505262494684608e-01,1.000000000000000048e-04,4.247700147563448780e+01,1.300000000000000044e-01
1.683799076999999977e+00,1.043385784000000038e+00,5.587817538963564257e-01,1.000000000000000048e-04,4.233063464776235207e+01,1.700000000000000122e-01
-2.151455832179586025e+00,7.398983139999999459e-01,2.998867878029827239e-01,1.000000000000000048e-04,4.073423000424720186e+01,2.500000000000000000e-01
-2.141944958179585967e+00,7.302793560000000461e-01,3.878682015989645127e-01,1.000000000000000048e-04,4.146615228716765955e+01,1.400000000000000133e-01
3.012489310999999947e+00,-1.019874449000000016e+00,4.374260108584229201e-01,1.000000000000000048e-04,4.214229164499655411e+01,1.900000000000000022e-01
6.824463880000000149e-01,-9.193269539999999740e-01,2.305081739590406631e-01,1.000000000000000048e-04,4.005642111273233041e+01,1.600000000000000033e-01
6.933168330000000212e-01,-9.307474239999999899e-01,6.843092070782883507e-01,1.000000000000000048e-04,4.286643555874851330e+01,1.600000000000000033e-01
7.005346909999999871e-01,-9.247541049999999929e-01,3.016349799285191757e-01,1.000000000000000048e-04,4.117881762274689095e+01,2.700000000000000178e-01
1.674988617999999985e+00,1.042237757999999959e+00,3.804054640196670167e-01,1.000000000000000048e-04,4.161581187242559565e+01,1.499999999999999944e-01
1.672026148000000045e+00,1.039374368000000048e+00,4.158444199942117336e-01,1.000000000000000048e-04,4.177655465600192031e+01,1.600000000000000033e-01
2.993618983999999816e+00,-1.008517228000000099e+00,1.029438793426329379e+00,1.000000000000000048e-04,4.448714434876748669e+01,1.700000000000000122e-01
2.992837709999999873e+00,-1.014889098000000045e+00,6.140479393364395300e-01,1.000000000000000048e-04,4.304441568829135889e+01,2.800000000000000266e-01
2.980621672999999916e+00,-1.012535224000000067e+00,6.033191714362524660e-01,1.000000000000000048e-04,4.306621050020619634e+01,1.499999999999999944e-01
3.118379398000000080e+00,-1.044341935000000055e+00,8.590580755674663838e-01,1.000000000000000048e-04,4.327093346619047054e+01,3.099999999999999978e-01
3.132904315000000217e+00,-1.046896950999999909e+00,1.762050184092984750e-01,1.000000000000000048e-04,3.958079163392216770e+01,2.200000000000000011e-01
1.248659997999999938e+00,-1.117162079000000086e+00,2.428465104957564513e-01,1.000000000000000048e-04,4.104404898594640372e+01,2.700000000000000178e-01
2.302446713000000145e+00,-1.091359299000000060e+00,2.189069677071182607e-01,1.000000000000000048e-04,4.066914717725784101e+01,2.899999999999999800e-01
3.133486173000000097e+00,-1.061461677999999909e+00,4.505615146076911159e-01,1.000000000000000048e-04,4.172847427354489724e+01,3.099999999999999978e-01
1.251013366000000016e+00,-1.102704651999999896e+00,7.831002768841566208e-01,1.000000000000000048e-04,4.340403379057038791e+01,2.300000000000000100e-01
1.232341668999999973e+00,-1.105349812000000043e+00,8.056189139473568517e-01,1.000000000000000048e-04,4.331740490354300732e+01,2.200000000000000011e-01
2.330538756999999794e+00,-1.086213730999999960e+00,3.125531853211875877e-01,1.000000000000000048e-04,4.116452750581729703e+01,2.300000000000000100e-01
3.104372880000000112e+00,-1.050765708999999992e+00,1.702310246762961388e-01,1.000000000000000048e-04,3.991700030005529953e+01,2.200000000000000011e-01
3.122794933000000217e+00,-1.050942575000000101e+00,1.147980349761841268e-01,1.000000000000000048e-04,3.848954280779619097e+01,2.099999999999999922e-01
3.135928428000000157e+00,-1.044986675000000087e+00,6.166692031534517504e-01,1.000000000000000048e-04,4.266653881079713528e+01,2.300000000000000100e-01
3.135701593999999925e+00,-1.049448040999999998e+00,1.136102540571423347e+00,1.000000000000000048e-04,4.488324831984157726e+01,2.399999999999999911e-01
2.902190216000000156e+00,-1.054666754000000095e+00,2.629491560544678919e-01,1.000000000000000048e-04,4.077756101196681016e+01,2.099999999999999922e-01
1.219278212000000083e+00,-1.102494101000000004e+00,4.554037493511200463e-01,1.000000000000000048e-04,4.203111358124414210e+01,2.399999999999999911e-01
2.314258420999999899e+00,-1.073777474999999981e+00,2.373005211992518237e-01,1.000000000000000048e-04,4.005031078211597872e+01,2.399999999999999911e-01
3.138600745000000192e+00,-1.056209613999999908e+00,7.816459882219943811e-01,1.000000000000000048e-04,4.339126051516293359e+01,2.800000000000000266e-01
2.873014373000000177e+00,-1.047336534999999902e+00,6.863339775361829709e-01,1.000000000000000048e-04,4.340834369595200570e+01,2.000000000000000111e-01
2.890150627000000139e+00,-1.045368942999999939e+00,2.025436132794995459e-01,1.000000000000000048e-04,4.033194201142018187e+01,2.200000000000000011e-01
-3.136513490179586139e+00,-1.038988312000000080e+00,7.365240431107129560e-01,1.000000000000000048e-04,4.317193413947313729e+01,2.800000000000000266e-01
3.120369102000000172e+00,-1.042910143999999928e+00,6.679459433853907058e-01,1.000000000000000048e-04,4.267553875907067606e+01,2.399999999999999911e-01
3.132773262000000170e+00,-1.048570620000000009e+00,3.369565883754679358e-01,1.000000000000000048e-04,4.158478910267108120e+01,2.300000000000000100e-01
3.132934141999999866e+00,-1.046888051000000042e+00,1.136064752268979294e-01,1.000000000000000048e-04,3.856981737392263909e+01,2.200000000000000011e-01
3.134455274000000014e+00,-1.046257098000000108e+00,1.310755092230623031e+00,1.000000000000000048e-04,4.463277491875037128e+01,2.200000000000000011e-01
2.910504301000000016e+00,-1.063930792999999930e+00,8.981823724716113677e-01,1.000000000000000048e-04,4.401512613749792280e+01,2.399999999999999911e-01
2.301930878999999930e+00,-1.084305269999999988e+00,4.731473822133342999e-01,1.000000000000000048e-04,4.224886343457595217e+01,3.099999999999999978e-01
2.314913878000000036e+00,-1.104421796000000011e+00,6.424810182198588127e-01,1.000000000000000048e-04,4.348042088043728626e+01,2.600000000000000089e-01
1.232494258000000009e+00,-1.089556776000000005e+00,1.372743279494985646e-01,1.000000000000000048e-04,3.943384821410925412e+01,3.099999999999999978e-01
-3.138875270179586341e+00,-1.027091259999999950e+00,2.967482759609170184e-01,1.000000000000000048e-04,4.088963893671134286e+01,3.800000000000000044e-01
1.277748142000000087e+00,-1.105660628999999950e+00,5.254813918078284907e-01,1.000000000000000048e-04,4.230274306169603449e+01,2.500000000000000000e-01
2.339694710999999927e+00,-1.083680948999999893e+00,6.431296917573743332e-01,1.000000000000000048e-04,4.281035892997677905e+01,2.300000000000000100e-01
3.085408954000000037e+00,-1.045989441999999991e+00,6.288068209840833589e-01,1.000000000000000048e-04,4.324005471251242483e+01,2.800000000000000266e-01
3.122183823999999941e+00,-1.053540683000000033e+00,5.149609066170497407e-01,1.000000000000000048e-04,4.217736525658293800e+01,3.699999999999999956e-01
1.263417701000000060e+00,-1.099941301000000093e+00,1.720553922919707546e-01,1.000000000000000048e-04,3.963606349676943097e+01,2.200000000000000011e-01
1.238769020999999970e+00,-1.122513239999999968e+00,2.159131408450416512e-01,1.000000000000000048e-04,4.030372259781025690e+01,2.600000000000000089e-01
1.225778744000000087e+00,-1.107856694000000086e+00,2.201916686070479745e-01,1.000000000000000048e-04,4.028568919374525592e+01,2.500000000000000000e-01
2.356185176999999964e+00,-1.090954028000000076e+00,2.080421512162107245e-01,1.000000000000000048e-04,3.955968648535008469e+01,2.700000000000000178e-01
1.231078855000000027e+00,-1.109460918999999990e+00,1.432105422178142629e-01,1.000000000000000048e-04,3.906792452391840698e+01,2.300000000000000100e-01
2.350025410999999842e+00,-1.078254897999999962e+00,3.084623758504125846e-01,1.000000000000000048e-04,4.124281127437861016e+01,2.300000000000000100e-01
2.889344674999999807e+00,-1.054064458000000037e+00,2.459038331719314296e-01,1.000000000000000048e-04,4.050313226697378610e+01,3.200000000000000067e-01
1.260972444000000081e+00,-1.102168519999999985e+00,1.096528195785666959e+00,1.000000000000000048e-04,4.421999826420048407e+01,2.899999999999999800e-01
3.138597202000000141e+00,-1.049455424000000026e+00,1.124156705620666052e+00,1.000000000000000048e-04,4.429383187539201572e+01,2.600000000000000089e-01
1.280173519000000093e+00,-1.106045986000000036e+00,6.468607785402160637e-01,1.000000000000000048e-04,4.292407063163624770e+01,2.899999999999999800e-01
3.140421104000000074e+00,-1.048273016000000002e+00,1.050160379404723621e+00,1.000000000000000048e-04,4.418075503443778018e+01,2.700000000000000178e-01
2.887571490000000018e+00,-1.060290981000000077e+00,2.485879261241230598e-01,1.000000000000000048e-04,4.069874012203150215e+01,2.300000000000000100e-01
3.117377486000000086e+00,-1.048849812999999909e+00,1.866021281280334509e-01,1.000000000000000048e-04,4.009797611669930717e+01,2.800000000000000266e-01
3.139331405000000075e+00,-1.045946368000000071e+00,5.458252424517617829e-01,1.000000000000000048e-04,4.279215089674250549e+01,2.300000000000000100e-01
2.901812189000000153e+00,-1.070407117000000019e+00,4.812229541521726439e-01,1.000000000000000048e-04,4.226373317649394323e+01,2.200000000000000011e-01
2.874698792999999863e+00,-1.069280417999999955e+00,3.309608342928078706e-01,1.000000000000000048e-04,4.148452174075423216e+01,2.200000000000000011e-01
3.126790450000000110e+00,-1.053686536000000062e+00,1.255040234566152435e+00,1.000000000000000048e-04,4.448072706633337958e+01,2.099999999999999922e-01
1.253234667999999941e+00,-1.096167120000000050e+00,7.441636242349076724e-01,1.000000000000000048e-04,4.309378252003418908e+01,2.200000000000000011e-01
1.242189800000000011e+00,-1.095888138000000067e+00,7.441382945480738975e-01,1.000000000000000048e-04,4.298948268328968680e+01,2.899999999999999800e-01
2.358704259000000025e+00,-1.096119858000000002e+00,4.367600305097647517e-01,1.000000000000000048e-04,4.183287443417376750e+01,2.099999999999999922e-01
3.090657074000000115e+00,-1.046905049999999893e+00,1.614227844309839011e-01,1.000000000000000048e-04,3.948474600680435032e+01,2.300000000000000100e-01
2.350320292999999783e+00,-1.077642637000000070e+00,7.169034057341625576e-01,1.000000000000000048e-04,4.374653582272871688e+01,3.300000000000000155e-01
3.120911620999999858e+00,-1.047605429999999949e+00,1.111917168164730185e+00,1.000000000000000048e-04,4.483404734446843065e+01,2.899999999999999800e-01
2.310418793000000193e+00,-1.091478047999999923e+00,3.355425416785033921e-01,1.000000000000000048e-04,4.075819566718816844e+01,3.300000000000000155e-01
2.888242410000000149e+00,-1.055260810999999910e+00,1.391114220657427847e-01,1.000000000000000048e-04,3.885982319712955046e+01,2.999999999999999889e-01
2.313880778000000138e+00,-1.089056457000000089e+00,3.444574926706256424e-01,1.000000000000000048e-04,4.188858034505059891e+01,2.600000000000000089e-01
3.096505394999999883e+00,-1.050897790999999915e+00,1.479503415284368906e-01,1.000000000000000048e-04,3.929660148987701973e+01,3.300000000000000155e-01
1.264206060000000020e+00,-1.108314516000000083e+00,3.301834743496454561e-01,1.000000000000000048e-04,4.071864526351128433e+01,2.500000000000000000e-01
2.317080779999999951e+00,-1.080569537999999996e+00,8.856851079736545174e-01,1.000000000000000048e-04,4.398340586792556905e+01,2.399999999999999911e-01
2.308161032000000112e+00,-1.080284865999999955e+00,1.468158858401000799e-01,1.000000000000000048e-04,3.886858553326415944e+01,3.900000000000000133e-01
1.213089824000000094e+00,-1.095999417000000031e+00,1.162208866320269873e+00,1.000000000000000048e-04,4.385032288236245535e+01,2.700000000000000178e-01
3.095344697999999894e+00,-1.044259242999999948e+00,6.520282190927650934e-01,1.000000000000000048e-04,4.299627012816090854e+01,2.200000000000000011e-01
3.093500166000000107e+00,-1.047656949999999920e+00,6.465350861508771807e-01,1.000000000000000048e-04,4.297227121984263221e+01,2.300000000000000100e-01
2.871266652000000086e+00,-1.064917746999999970e+00,1.838610366547530628e-01,1.000000000000000048e-04,4.010775566951222970e+01,2.500000000000000000e-01
2.872879009000000039e+00,-1.076645507999999918e+00,6.518813564250192094e-01,1.000000000000000048e-04,4.287948177816555528e+01,2.099999999999999922e-01
1.241294699000000001e+00,-1.109043570000000090e+00,2.992692269039729513e-01,1.000000000000000048e-04,4.105542747329821651e+01,2.099999999999999922e-01
1.238788393000000099e+00,-1.083197141000000085e+00,2.522876085344158970e-01,1.000000000000000048e-04,4.091482804753441371e+01,2.999999999999999889e-01
-3.140928712179586135e+00,-1.049943351000000025e+00,2.285862509549638766e-01,1.000000000000000048e-04,4.059401062191812315e+01,2.200000000000000011e-01
2.897074545000000168e+00,-1.050668165000000043e+00,3.130492206675776767e-01,1.000000000000000048e-04,4.077015133335304853e+01,2.099999999999999922e-01
3.133488720999999977e+00,-1.053899826000000095e+00,4.398282362522920597e-01,1.000000000000000048e-04,4.203688352994026189e+01,2.300000000000000100e-01
2.854965548000000020e+00,-1.051119023000000041e+00,1.816593701208339962e-01,1.000000000000000048e-04,4.002796829910202092e+01,3.200000000000000067e-01
2.846666281000000076e+00,-1.061494909000000098e+00,1.793497625358799752e-01,1.000000000000000048e-04,3.940514607321694029e+01,2.600000000000000089e-01
1.477625364000000108e+00,-9.892628350000000070e-01,5.410482433496428545e-01,1.000000000000000048e-04,4.276811239586424307e+01,2.000000000000000111e-01
-2.998301261179586064e+00,-5.567642400000000213e-01,3.136349006503764691e-01,1.000000000000000048e-04,4.111430860736124515e+01,1.799999999999999933e-01
2.915910107000000195e+00,-9.248875840000000403e-01,5.282568716707416456e-01,1.000000000000000048e-04,4.301107994248456379e+01,2.999999999999999889e-01
2.904218159000000021e+00,-9.279150130000000107e-01,7.307033657130097559e-01,1.000000000000000048e-04,4.324000224819018001e+01,2.399999999999999911e-01
2.945746643000000109e+00,-9.241091030000000428e-01,8.281867803508180526e-01,1.000000000000000048e-04,4.350270448300026516e+01,2.300000000000000100e-01
2.195221751000000054e+00,9.567984520000000215e-01,3.228365824856354038e-01,1.000000000000000048e-04,4.165282990915164874e+01,2.200000000000000011e-01
-2.382074272179586227e+00,-9.504311730000000180e-01,1.793683173535873809e-01,1.000000000000000048e-04,3.975655554582475304e+01,2.300000000000000100e-01
2.197803225999999999e+00,9.560313849999999558e-01,3.219245589135777408e-01,1.000000000000000048e-04,4.095991383224183835e+01,2.300000000000000100e-01
-2.380846050179586282e+00,-9.512843520000000552e-01,1.169292799870040866e-01,1.000000000000000048e-04,3.867280737783775635e+01,2.600000000000000089e-01
-2.382960995179586039e+00,-9.501026420000000527e-01,5.443388390168546476e-01,1.000000000000000048e-04,4.284986614363002388e+01,2.099999999999999922e-01
2.192165822000000208e+00,9.554729659999999791e-01,6.491295410682886846e-01,1.000000000000000048e-04,4.264100891164041229e+01,2.899999999999999800e-01
-2.383512939179586176e+00,-9.505219620000000535e-01,4.838562032086632936e-01,1.000000000000000048e-04,4.234647407164478494e+01,2.000000000000000111e-01
2.197044292000000176e+00,9.582492320000000063e-01,1.339006932610224965e+00,1.000000000000000048e-04,4.439386855621597050e+01,2.500000000000000000e-01
2.198013217999999824e+00,9.570721989999999568e-01,4.494431390653088609e-01,1.000000000000000048e-04,4.191845226319769324e+01,2.099999999999999922e-01
2.198391541999999976e+00,9.561199929999999458e-01,2.264578310199476530e-01,1.000000000000000048e-04,4.016367335059658217e+01,2.300000000000000100e-01
2.199218732999999926e+00,9.570277640000000030e-01,1.305827549742033966e+00,1.000000000000000048e-04,4.482281510624130050e+01,2.200000000000000011e-01
2.196667974999999995e+00,9.569524729999999701e-01,5.116890251232821818e-01,1.000000000000000048e-04,4.201963876175299362e+01,2.399999999999999911e-01
2.196400267000000017e+00,9.571105250000000453e-01,2.133578784216556556e-01,1.000000000000000048e-04,4.010988711074929824e+01,2.500000000000000000e-01
2.195980999000000100e+00,9.563170869999999546e-01,1.242258401771489940e-01,1.000000000000000048e-04,3.855972312527326551e+01,2.200000000000000011e-01
2.198886345000000020e+00,9.574225640000000315e-01,2.929690382779503999e-01,1.000000000000000048e-04,4.095674620454101955e+01,3.300000000000000155e-01
-2.382942164179586264e+00,-9.487821469999999646e-01,4.711710978444521025e-01,1.000000000000000048e-04,4.244450588523701384e+01,2.000000000000000111e-01
2.197058621000000045e+00,9.568337070000000333e-01,2.190384249842391995e-01,1.000000000000000048e-04,4.031121900013963710e+01,2.600000000000000089e-01
2.196754174000000059e+00,9.569828230000000380e-01,3.068437947076894101e-01,1.000000000000000048e-04,4.074566327984222625e+01,2.399999999999999911e-01
-2.381905888179586039e+00,-9.494029419999999719e-01,4.357915211446981019e-01,1.000000000000000048e-04,4.148302484219749431e+01,2.399999999999999911e-01
-2.382353656179586388e+00,-9.501919130000000546e-01,5.732629298979237120e-01,1.000000000000000048e-04,4.265439231687749810e+01,2.600000000000000089e-01
-2.385313647179586383e+00,-9.492824659999999914e-01,3.338909212701919316e-01,1.000000000000000048e-04,4.135549131975378856e+01,2.399999999999999911e-01
-2.383308463179586223e+00,-9.502672559999999491e-01,5.472850509252247253e-01,1.000000000000000048e-04,4.269969707932239800e+01,2.000000000000000111e-01
2.194446376000000143e+00,9.548028840000000184e-01,3.938441527203331294e-01,1.000000000000000048e-04,4.260963564117714952e+01,3.699999999999999956e-01
-2.377678389179586294e+00,-9.493284189999999789e-01,1.790968271212414198e-01,1.000000000000000048e-04,3.962175078576067477e+01,3.099999999999999978e-01
2.195048706000000127e+00,9.553664520000000326e-01,4.895857020064537934e-01,1.000000000000000048e-04,4.172179520900616723e+01,2.399999999999999911e-01
2.194988459000000169e+00,9.569281090000000267e-01,5.775355700148745441e-01,1.000000000000000048e-04,4.271520794481637040e+01,2.099999999999999922e-01
2.198773670000000013e+00,9.585742720000000050e-01,8.726033790491394271e-01,1.000000000000000048e-04,4.356835419744657401e+01,2.800000000000000266e-01
2.196007632000000154e+00,9.574002940000000406e-01,2.884839903122431437e-01,1.000000000000000048e-04,4.071881169912605003e+01,2.800000000000000266e-01
2.193610842000000005e+00,9.569156829999999614e-01,2.127815582049192855e-01,1.000000000000000048e-04,4.012677889596672287e+01,2.099999999999999922e-01
2.194846306000000080e+00,9.574700699999999509e-01,1.250893987649934314e+00,1.000000000000000048e-04,4.490429734717599786e+01,2.300000000000000100e-01
-2.901318991795864832e-01,1.086903570000000041e+00,8.881341412752108422e-01,1.000000000000000048e-04,4.323705708252830249e+01,2.000000000000000111e-01
-2.914486071795865385e-01,1.085909494999999891e+00,1.325611244228706909e+00,1.000000000000000048e-04,4.503681787526603841e+01,1.000000000000000056e-01
-2.954610881795858290e-01,1.084462065999999947e+00,7.637091495033450084e-01,1.000000000000000048e-04,4.332787145514330263e+01,1.199999999999999956e-01
-3.403197011795864313e-01,1.090760651000000081e+00,2.284722485225261224e-01,1.000000000000000048e-04,4.031974819373002106e+01,8.999999999999999667e-02
-3.429455761795860980e-01,1.087892671000000089e+00,2.143499290649391043e-01,1.000000000000000048e-04,3.994022180667632682e+01,1.400000000000000133e-01
6.896152909999999636e-01,-9.249195220000000495e-01,1.245683936989506524e+00,1.000000000000000048e-04,4.498508405121328479e+01,2.000000000000000111e-01
1.024453132999999960e+00,1.182715689999999986e+00,8.340050605584774512e-01,1.000000000000000048e-04,4.369641320505832738e+01,1.900000000000000022e-01
1.006083177000000051e+00,1.165244638999999971e+00,1.048728820890792335e+00,1.000000000000000048e-04,4.432022095997346867e+01,1.700000000000000122e-01
9.905969959999999519e-01,1.153001898999999941e+00,7.153314015657359359e-01,1.000000000000000048e-04,4.315274077978085643e+01,3.499999999999999778e-01
2.950804928999999799e+00,-1.010655210999999998e+00,5.224088267007236386e-01,1.000000000000000048e-04,4.249454990935826970e+01,1.700000000000000122e-01
2.951637304000000128e+00,-1.010683065999999908e+00,1.702962479976437571e-01,1.000000000000000048e-04,3.970997540341132748e+01,1.900000000000000022e-01
-2.349248843179586377e+00,-9.322901449999999590e-01,2.651650814385244637e-01,1.000000000000000048e-04,4.057670624316615715e+01,1.900000000000000022e-01
