-1.598279621179586663e+00,2.779993629999999993e-01,6.273856769876808848e-01,1.000000000000000048e-04,4.267880945842622253e+01,1.700000000000000122e-01
-8.306753881795865269e-01,5.048130450000000158e-01,1.075360263799721938e+00,1.000000000000000048e-04,4.433156113672161780e+01,1.600000000000000033e-01
-1.512887194179586281e+00,3.571169940000000209e-01,9.509672073249146873e-01,1.000000000000000048e-04,4.389159301210155917e+01,1.600000000000000033e-01
-2.094054222179586588e+00,-9.657747650000000350e-01,2.782208910639392130e-01,1.000000000000000048e-04,4.072710930960907660e+01,1.600000000000000033e-01
-1.256550916179586252e+00,-1.037146153999999987e+00,3.719191570929221147e-01,1.000000000000000048e-04,4.180980342666236993e+01,1.900000000000000022e-01
-2.638489419179586015e+00,-8.917870300000000361e-01,4.511953876765482097e-01,1.000000000000000048e-04,4.228422067751274938e+01,1.600000000000000033e-01
3.095686500000000008e-02,-1.139960520999999893e+00,1.886290132049497359e-01,1.000000000000000048e-04,4.037043135776058733e+01,1.700000000000000122e-01
-4.765590681795863759e-01,-7.328014390000000544e-01,3.468922386036128458e-01,1.000000000000000048e-04,4.127060582005154288e+01,1.600000000000000033e-01
7.532392530000000530e-01,9.936355940000000109e-01,4.841294237590827443e-01,1.000000000000000048e-04,4.210317717274896410e+01,1.600000000000000033e-01
1.355624495999999901e+00,4.654212710000000253e-01,2.284968308162358408e-01,1.000000000000000048e-04,4.016763880190706715e+01,2.200000000000000011e-01
-2.027672372179586624e+00,-3.494576850000000179e-01,2.650589644415095592e-01,1.000000000000000048e-04,4.043714298001550134e+01,8.999999999999999667e-02
-2.243457714179585949e+00,5.735296930000000071e-01,3.486243514329534499e-01,1.000000000000000048e-04,4.122316921667175649e+01,8.000000000000000167e-02
-1.661352162179586145e+00,7.473004210000000480e-01,3.865571197461823427e-01,1.000000000000000048e-04,4.137035234755542490e+01,1.100000000000000006e-01
-1.046494641179585905e+00,9.839422859999999993e-01,1.459740230991390941e-01,1.000000000000000048e-04,3.868047076858480438e+01,1.600000000000000033e-01
-1.357076630179586019e+00,8.591991679999999576e-01,3.587881415608729085e-01,1.000000000000000048e-04,4.119771257879288129e+01,1.300000000000000044e-01
-1.489161381179585852e+00,8.733460579999999807e-01,2.598106219749716228e-01,1.000000000000000048e-04,4.043462304736792845e+01,8.999999999999999667e-02
2.602874990000000111e+00,9.865781270000000269e-01,2.143453867373308341e-01,1.000000000000000048e-04,4.008244669339738664e+01,2.099999999999999922e-01
2.011122450999999867e+00,-1.257182417000000108e+00,4.521408109623510363e-01,1.000000000000000048e-04,4.208077173869769894e+01,1.799999999999999933e-01
2.487812089999999809e+00,-1.095252646999999913e+00,4.904757496559293273e-01,1.000000000000000048e-04,4.240871364618412542e+01,1.600000000000000033e-01
-2.060955814179585843e+00,9.020563839999999889e-01,4.022892293703328459e-01,1.000000000000000048e-04,4.190188822423940707e+01,1.799999999999999933e-01
-1.552222439179586466e+00,1.270289940999999923e+00,3.889427873237336630e-01,1.000000000000000048e-04,4.172582339382434213e+01,1.600000000000000033e-01
-3.584264691795864266e-01,1.112498557000000110e+00,8.142565914984971620e-01,1.000000000000000048e-04,4.362614537952944005e+01,2.000000000000000111e-01
1.187793541000000008e+00,1.533334508000000040e+00,1.609348522161668793e-01,1.000000000000000048e-04,3.939167807563828205e+01,1.700000000000000122e-01
9.029304540000000490e-01,-5.888661819999999603e-01,5.386792076435220622e-01,1.000000000000000048e-04,4.232878719176066085e+01,1.700000000000000122e-01
2.675488564000000125e+00,-1.029758079000000048e+00,8.602484615907100007e-01,1.000000000000000048e-04,4.365615454218804103e+01,1.700000000000000122e-01
9.979371630000000160e-01,-7.076351440000000492e-01,2.138472485955018598e-01,1.000000000000000048e-04,4.047797181228534669e+01,2.000000000000000111e-01
-2.809922836179586270e+00,-1.219770695000000016e+00,5.063672223952602192e-01,1.000000000000000048e-04,4.234109900402056326e+01,1.900000000000000022e-01
1.945616433999999950e+00,5.533621010000000506e-01,3.394927119626309775e-01,1.000000000000000048e-04,4.114171149045102283e+01,1.700000000000000122e-01
1.369802210000000131e-01,9.686457469999999459e-01,1.979873007922268169e-01,1.000000000000000048e-04,3.994306842073554975e+01,1.000000000000000056e-01
2.377785852000000144e+00,-1.071983155000000076e+00,6.648805804429163135e-01,1.000000000000000048e-04,4.304263662508280675e+01,1.000000000000000056e-01
1.194530383000000029e+00,-8.514353350000000153e-01,5.617830048166410073e-01,1.000000000000000048e-04,4.265654554736961757e+01,1.100000000000000006e-01
2.328991532999999947e+00,-1.085498080000000032e+00,7.011996660833470507e-01,1.000000000000000048e-04,4.333159480120135498e+01,1.199999999999999956e-01
3.099662444999999877e+00,-8.173274409999999879e-01,7.724477313974194015e-01,1.000000000000000048e-04,4.338096035976426634e+01,1.300000000000000044e-01
1.008677688999999988e+00,-7.224949280000000362e-01,4.716599225111981486e-01,1.000000000000000048e-04,4.235053023234490865e+01,1.199999999999999956e-01
1.116317643999999998e+00,-8.188746820000000204e-01,4.794402286473999908e-01,1.000000000000000048e-04,4.246365387074511943e+01,1.499999999999999944e-01
1.368634144999999913e+00,-9.746537960000000167e-01,9.358099824787267096e-01,1.000000000000000048e-04,4.405059046194560324e+01,2.200000000000000011e-01
2.840707745000000006e+00,-9.874777999999999611e-01,1.632569151315101941e-01,1.000000000000000048e-04,3.967236822898625093e+01,1.199999999999999956e-01
1.164831654000000105e+00,-8.361433499999999519e-01,2.420722105488997133e-01,1.000000000000000048e-04,4.033831427253421964e+01,1.600000000000000033e-01
9.274529849999999520e-01,-5.648102149999999488e-01,1.917298895086156918e-01,1.000000000000000048e-04,3.955385873956126375e+01,2.200000000000000011e-01
1.803806121999999901e+00,-1.051757271000000049e+00,2.528864949089710823e-01,1.000000000000000048e-04,4.100379946373221429e+01,2.200000000000000011e-01
1.910407339000000038e+00,-1.096340147000000043e+00,2.378486632130625278e-01,1.000000000000000048e-04,4.064119249100412645e+01,1.300000000000000044e-01
-2.994395329179586174e+00,-6.874333790000000111e-01,3.161800417037217148e-01,1.000000000000000048e-04,4.102212331823886871e+01,1.600000000000000033e-01
2.004169926999999962e+00,-1.114377941999999955e+00,3.457482186953797498e-01,1.000000000000000048e-04,4.145930837410032410e+01,2.099999999999999922e-01
2.993884073999999895e+00,-9.067153500000000310e-01,1.989443489379687513e-01,1.000000000000000048e-04,3.998778487464371523e+01,2.000000000000000111e-01
2.896584697999999847e+00,-6.981149509999999836e-01,3.776015428677335084e-01,1.000000000000000048e-04,4.184413306643268982e+01,2.000000000000000111e-01
2.644964143999999795e+00,-1.038456438999999953e+00,6.266318141302535949e-01,1.000000000000000048e-04,4.302460587410241288e+01,2.500000000000000000e-01
1.395029569000000080e+00,-9.673563530000000021e-01,3.603695194137119806e-01,1.000000000000000048e-04,4.150380968079321065e+01,2.200000000000000011e-01
1.133893306999999906e+00,-8.234022290000000410e-01,6.401004767916835814e-01,1.000000000000000048e-04,4.320190872255661674e+01,1.199999999999999956e-01
9.542908199999999841e-01,-6.210129070000000029e-01,2.865457739647350177e-01,1.000000000000000048e-04,4.116717279321908052e+01,1.400000000000000133e-01
1.112357503999999997e+00,-7.717409769999999947e-01,1.189596652015869171e+00,1.000000000000000048e-04,4.461111858201667246e+01,1.400000000000000133e-01
1.392129267000000059e+00,-9.489503049999999940e-01,3.843411991174690012e-01,1.000000000000000048e-04,4.163310471488120612e+01,1.100000000000000006e-01
3.104633763999999907e+00,-8.563587980000000321e-01,3.158357692645434867e-01,1.000000000000000048e-04,4.127047146843705860e+01,1.199999999999999956e-01
-1.581672989179586430e+00,-6.726275419999999672e-01,1.304833558433862173e-01,1.000000000000000048e-04,3.903412462117548642e+01,2.000000000000000111e-01
8.758714749999999549e-01,-5.394949780000000139e-01,2.539981692585042694e-01,1.000000000000000048e-04,4.057828445382919114e+01,1.199999999999999956e-01
1.027821937999999991e+00,-6.897361509999999640e-01,6.267220348757609472e-01,1.000000000000000048e-04,4.287172632803984129e+01,1.499999999999999944e-01
8.011105990000000343e-01,-4.568120419999999737e-01,1.192400133284607922e-01,1.000000000000000048e-04,3.916529460034470134e+01,1.499999999999999944e-01
8.044453879999999835e-01,-4.591503659999999765e-01,4.192131983603919476e-01,1.000000000000000048e-04,4.165909542139397814e+01,1.100000000000000006e-01
8.290542589999999601e-01,-4.498624509999999965e-01,9.199828634868028043e-01,1.000000000000000048e-04,4.399623335980401606e+01,1.199999999999999956e-01
2.306908324000000121e+00,-1.093655438999999951e+00,4.267648931192922213e-01,1.000000000000000048e-04,4.205954882713153609e+01,1.300000000000000044e-01
-3.090495873179586184e+00,-7.974218849999999970e-01,2.275251369509463384e-01,1.000000000000000048e-04,4.042340963602962489e+01,1.300000000000000044e-01
2.850739061000000074e+00,-9.724982730000000242e-01,5.111895383815543425e-01,1.000000000000000048e-04,4.236270490879454798e+01,1.100000000000000006e-01
1.925211972000000049e+00,-1.067349442999999898e+00,3.373944167827229723e-01,1.000000000000000048e-04,4.136638033541240844e+01,1.600000000000000033e-01
3.010706126000000094e+00,-9.149326070000000088e-01,4.189552631631949797e-01,1.000000000000000048e-04,4.174972665666733462e+01,1.199999999999999956e-01
1.754869720000000077e+00,-1.052947148999999971e+00,1.895148409031572889e-01,1.000000000000000048e-04,4.011452319276521195e+01,1.300000000000000044e-01
3.028086770999999899e+00,-8.725603690000000023e-01,1.607682380142345657e-01,1.000000000000000048e-04,3.962627223293206669e+01,1.199999999999999956e-01
2.780301081000000174e+00,-1.010780400000000023e+00,2.487088085967028572e-01,1.000000000000000048e-04,4.082157102099830581e+01,1.700000000000000122e-01
3.096540631999999960e+00,-8.261897350000000362e-01,1.350883432321776656e-01,1.000000000000000048e-04,3.924362528725379207e+01,1.100000000000000006e-01
-3.043596368179586342e+00,-7.656326449999999451e-01,1.201149890549132238e+00,1.000000000000000048e-04,4.450027667488362937e+01,1.100000000000000006e-01
2.593403560000000052e+00,-1.068240442000000012e+00,2.859152396942938879e-01,1.000000000000000048e-04,4.085881501329697585e+01,1.199999999999999956e-01
1.277663320999999907e+00,-8.910532270000000032e-01,1.762770015593868589e-01,1.000000000000000048e-04,3.976881886250817644e+01,1.499999999999999944e-01
8.729576639999999665e-01,-5.017517409999999733e-01,6.287146217541159654e-01,1.000000000000000048e-04,4.290503635019806694e+01,1.199999999999999956e-01
2.323316692000000128e+00,-1.072994334000000105e+00,3.971161314900570893e-01,1.000000000000000048e-04,4.148184199340764877e+01,1.400000000000000133e-01
-3.012222731179586166e+00,-7.219820959999999621e-01,1.140825898161537122e-01,1.000000000000000048e-04,3.873227584674830837e+01,1.199999999999999956e-01
2.306010604999999991e+00,-1.110345181000000014e+00,2.904219163984218532e-01,1.000000000000000048e-04,4.089809864533678763e+01,1.100000000000000006e-01
2.437557496999999795e+00,-1.097151527000000071e+00,1.194786950862238850e-01,1.000000000000000048e-04,3.890283216306349345e+01,1.100000000000000006e-01
1.098420291999999909e+00,-7.444727049999999569e-01,1.768098428783888565e-01,1.000000000000000048e-04,3.982269312843075681e+01,1.300000000000000044e-01
8.241628739999999897e-01,-4.611620249999999754e-01,3.611079597736459590e-01,1.000000000000000048e-04,4.137382700551270887e+01,1.400000000000000133e-01
1.017317494999999905e+00,-7.027905669999999771e-01,1.383698863174871452e-01,1.000000000000000048e-04,3.947278752086489817e+01,1.199999999999999956e-01
2.728679550999999925e+00,-1.007430967999999982e+00,2.849119622047833200e-01,1.000000000000000048e-04,4.099327176554964325e+01,1.100000000000000006e-01
2.848837458999999850e+00,-9.622339979999999793e-01,1.670458724290599939e-01,1.000000000000000048e-04,3.942926029613241923e+01,1.199999999999999956e-01
-3.065525731179586266e+00,-7.207210450000000046e-01,3.018868266275229750e-01,1.000000000000000048e-04,4.082051162556238921e+01,1.199999999999999956e-01
1.103969978000000074e+00,-7.587182380000000448e-01,5.734371519129488615e-01,1.000000000000000048e-04,4.275655885008689694e+01,1.300000000000000044e-01
1.112034854000000017e+00,-7.675460100000000008e-01,1.161821953412085495e-01,1.000000000000000048e-04,3.897952497475662881e+01,1.199999999999999956e-01
2.373162053000000160e+00,-1.072487750000000073e+00,5.950313896106036449e-01,1.000000000000000048e-04,4.282477267961821354e+01,1.100000000000000006e-01
2.221583438000000132e+00,-1.096064289000000080e+00,1.981296899289139990e-01,1.000000000000000048e-04,4.031177518996411635e+01,1.199999999999999956e-01
2.775251189000000007e+00,-1.013244017000000108e+00,3.884007260440878184e-01,1.000000000000000048e-04,4.184918663078948953e+01,1.700000000000000122e-01
1.527128894000000070e+00,-9.963611940000000056e-01,4.178139713026527424e-01,1.000000000000000048e-04,4.193710730394176522e+01,1.400000000000000133e-01
-1.936135624179586401e+00,1.327891944000000102e+00,7.972141145386575367e-01,1.000000000000000048e-04,4.342008710969466279e+01,1.199999999999999956e-01
2.120951332999999828e+00,-1.112975437000000012e+00,3.242147435090003693e-01,1.000000000000000048e-04,4.133453596655562023e+01,1.600000000000000033e-01
2.950704906999999988e+00,-9.277153000000000205e-01,3.150515189985041431e-01,1.000000000000000048e-04,4.119756278091499979e+01,1.700000000000000122e-01
2.461302839000000020e+00,-1.064109841000000056e+00,5.865894579570536393e-01,1.000000000000000048e-04,4.278921112006621286e+01,1.499999999999999944e-01
1.687800213000000049e+00,-1.037844004000000098e+00,3.782436803341426845e-01,1.000000000000000048e-04,4.157643166169918203e+01,1.100000000000000006e-01
-3.069023128179586113e+00,-7.343218900000000327e-01,2.445042857057397878e-01,1.000000000000000048e-04,4.057900169650631739e+01,2.000000000000000111e-01
7.655655390000000171e-01,-3.825025819999999799e-01,1.613587808210596997e-01,1.000000000000000048e-04,3.975662483301749717e+01,1.300000000000000044e-01
-3.051736326179586012e+00,-7.690870560000000467e-01,6.300254410993724186e-01,1.000000000000000048e-04,4.274764641169221591e+01,1.499999999999999944e-01
-3.116938176179586240e+00,-7.920766919999999711e-01,5.433080480212300056e-01,1.000000000000000048e-04,4.245309806743341596e+01,1.100000000000000006e-01
1.020863690000000101e+00,-6.877910739999999468e-01,5.634447891832636834e-01,1.000000000000000048e-04,4.253992745558748823e+01,1.199999999999999956e-01
1.792785233999999894e+00,-1.066474936999999956e+00,5.443144783356284044e-01,1.000000000000000048e-04,4.241414279950699040e+01,1.100000000000000006e-01
1.805689748000000039e+00,-1.066896787999999985e+00,4.908741972224577310e-01,1.000000000000000048e-04,4.225461274341513018e+01,1.100000000000000006e-01
1.773248071000000037e+00,-1.046601056999999946e+00,1.268980659189836047e+00,1.000000000000000048e-04,4.518751964688789968e+01,2.099999999999999922e-01
1.076689889999999927e+00,-7.549444410000000216e-01,8.742749944834129483e-01,1.000000000000000048e-04,4.378744616973210668e+01,1.199999999999999956e-01
2.336456505000000128e+00,-1.089906792000000069e+00,2.046003156837661319e-01,1.000000000000000048e-04,4.023346108348999906e+01,1.199999999999999956e-01
2.522083900000000156e+00,-1.078852812999999911e+00,1.751824602731764102e-01,1.000000000000000048e-04,3.985139497286629506e+01,1.199999999999999956e-01
3.676074389999999803e-01,1.100614297999999991e+00,5.401669039884859913e-01,1.000000000000000048e-04,4.232471644308767367e+01,1.700000000000000122e-01
2.099931574000000190e+00,-1.082223048999999993e+00,6.283140984488193581e-01,1.000000000000000048e-04,4.311066890963952147e+01,1.100000000000000006e-01
8.155488279999999479e-01,-4.642700679999999802e-01,4.488313346528907122e-01,1.000000000000000048e-04,4.222947905507287203e+01,2.099999999999999922e-01
9.861636230000000447e-01,-6.881834650000000497e-01,2.628495924981328891e-01,1.000000000000000048e-04,4.074747970209603665e+01,1.300000000000000044e-01
1.864254864999999928e+00,-1.086684659999999969e+00,3.117324454244718712e-01,1.000000000000000048e-04,4.114801075519138607e+01,1.199999999999999956e-01
2.873066016000000111e+00,-9.753574739999999466e-01,5.755247003855268328e-01,1.000000000000000048e-04,4.241564146570782157e+01,1.300000000000000044e-01
2.270287562000000037e+00,-1.085086717999999895e+00,3.408680626370261812e-01,1.000000000000000048e-04,4.140475970669009342e+01,1.799999999999999933e-01
8.268071609999999572e-01,-4.587794940000000099e-01,2.268685019548497550e-01,1.000000000000000048e-04,4.043257344369762052e+01,1.199999999999999956e-01
-3.050869045179586347e+00,-7.648855789999999821e-01,4.453286920402659277e-01,1.000000000000000048e-04,4.193682629691581099e+01,1.199999999999999956e-01
1.101963728999999947e+00,-7.466317359999999903e-01,3.398304900527429062e-01,1.000000000000000048e-04,4.115094406654596781e+01,1.900000000000000022e-01
1.745116724000000064e+00,-1.056563783000000090e+00,1.497232268434796065e-01,1.000000000000000048e-04,3.949946427829176088e+01,1.300000000000000044e-01
7.889769570000000343e-01,-3.846565690000000037e-01,4.120965415972785983e-01,1.000000000000000048e-04,4.201000330637338465e+01,1.499999999999999944e-01
1.385818830999999918e+00,-9.278259679999999454e-01,3.065727610856041618e-01,1.000000000000000048e-04,4.148611849771190663e+01,1.499999999999999944e-01
1.138484923000000038e+00,-8.197145099999999518e-01,9.239883851956538496e-01,1.000000000000000048e-04,4.405080493788575779e+01,1.400000000000000133e-01
1.783410439000000069e+00,-1.080958507999999929e+00,1.049372294544717921e+00,1.000000000000000048e-04,4.429957241573166726e+01,1.400000000000000133e-01
2.617653461000000181e+00,-1.025884226000000066e+00,7.402208212432803691e-01,1.000000000000000048e-04,4.319318086189715444e+01,1.199999999999999956e-01
8.270197009999999960e-01,-4.157453939999999903e-01,1.338447787003587131e-01,1.000000000000000048e-04,3.916981729643102739e+01,1.199999999999999956e-01
3.128792493000000174e+00,-8.522697870000000009e-01,7.790568689699566285e-01,1.000000000000000048e-04,4.362750149551897749e+01,1.100000000000000006e-01
1.366158207000000013e+00,-9.614226009999999878e-01,7.688884082006337550e-01,1.000000000000000048e-04,4.339777863673852920e+01,1.100000000000000006e-01
2.846286316000000038e+00,-9.688357899999999745e-01,2.320522062109018346e-01,1.000000000000000048e-04,4.062904635006149334e+01,1.400000000000000133e-01
9.208216280000000031e-01,-6.185352929999999860e-01,6.187342812104292822e-01,1.000000000000000048e-04,4.284950194024023062e+01,1.499999999999999944e-01
7.622987450000000553e-01,-3.411912120000000215e-01,1.887299987808048751e-01,1.000000000000000048e-04,3.988422941021099888e+01,1.199999999999999956e-01
9.277931750000000255e-01,-5.813990460000000304e-01,1.209189473205625642e+00,1.000000000000000048e-04,4.478425595447530583e+01,2.099999999999999922e-01
1.010173165000000095e+00,-6.808591280000000356e-01,6.266937517185686701e-01,1.000000000000000048e-04,4.299983027848820427e+01,1.300000000000000044e-01
1.661181446000000062e+00,-1.029160687999999935e+00,4.505639302120068024e-01,1.000000000000000048e-04,4.200203798886128936e+01,1.400000000000000133e-01
2.089878704000000198e+00,-1.077863170999999953e+00,7.387214826076065055e-01,1.000000000000000048e-04,4.308718329301218120e+01,1.199999999999999956e-01
9.321550429999999610e-01,-6.212176799999999943e-01,4.840182384577906838e-01,1.000000000000000048e-04,4.248845892760012077e+01,1.199999999999999956e-01
2.944595597000000176e+00,-9.127602249999999806e-01,2.894775384201151436e-01,1.000000000000000048e-04,4.090885970413620498e+01,1.100000000000000006e-01
1.288081913999999939e+00,-9.113959929999999598e-01,1.286352436639512931e-01,1.000000000000000048e-04,3.924825612797996399e+01,1.300000000000000044e-01
1.398731861999999992e+00,-9.625033109999999725e-01,3.811375326335824099e-01,1.000000000000000048e-04,4.181387977115016241e+01,1.199999999999999956e-01
1.714165549000000066e+00,-1.043104095999999981e+00,5.462812593057750910e-01,1.000000000000000048e-04,4.259494141693462410e+01,1.199999999999999956e-01
1.014018395999999989e+00,-6.788913789999999615e-01,2.251006358466769441e-01,1.000000000000000048e-04,4.055334148380807591e+01,1.300000000000000044e-01
8.887761809999999985e-01,-5.541821719999999729e-01,1.072129401080753830e+00,1.000000000000000048e-04,4.438523083213100051e+01,1.300000000000000044e-01
1.026278256999999972e+00,-6.961882160000000264e-01,4.988517924664221947e-01,1.000000000000000048e-04,4.220574565310764825e+01,1.199999999999999956e-01
1.824970581999999952e+00,-1.080428363000000003e+00,4.456139680773141265e-01,1.000000000000000048e-04,4.204490591346772277e+01,1.199999999999999956e-01
1.839979185000000017e+00,-1.082878103999999952e+00,1.025905118989558495e-01,1.000000000000000048e-04,3.893148770938825720e+01,1.300000000000000044e-01
-3.070118813179586237e+00,-7.641942569999999879e-01,4.170847255967549128e-01,1.000000000000000048e-04,4.191410396980466402e+01,1.199999999999999956e-01
2.250776613000000204e+00,-1.110438553999999911e+00,3.473796569004468093e-01,1.000000000000000048e-04,4.147835847704848788e+01,1.199999999999999956e-01
2.613802471000000072e+00,-1.066258922999999914e+00,2.200337752025274263e-01,1.000000000000000048e-04,4.033824538923724390e+01,1.199999999999999956e-01
8.050150120000000298e-01,-4.193234060000000096e-01,2.088177411430531816e-01,1.000000000000000048e-04,4.031899671613847147e+01,1.499999999999999944e-01
2.809576177999999924e+00,-9.952447749999999704e-01,2.083464080842543087e-01,1.000000000000000048e-04,4.018913524228680956e+01,1.199999999999999956e-01
8.523447290000000232e-01,-4.773689010000000121e-01,1.740264425614603816e-01,1.000000000000000048e-04,3.971172741579001553e+01,2.000000000000000111e-01
2.975142320999999868e+00,-8.986192680000000266e-01,7.584185148110493824e-01,1.000000000000000048e-04,4.350905359511784098e+01,2.000000000000000111e-01
2.960578484000000010e+00,-9.174235720000000205e-01,6.834635388140990475e-01,1.000000000000000048e-04,4.303649745349560618e+01,1.400000000000000133e-01
1.589239559999999996e+00,-1.046132274999999945e+00,8.015891507396071258e-01,1.000000000000000048e-04,4.362971101508393446e+01,1.199999999999999956e-01
1.095136271999999966e+00,-7.909478989999999543e-01,1.928182351586538168e-01,1.000000000000000048e-04,4.022595183075922165e+01,1.300000000000000044e-01
3.045277111999999953e+00,-8.831592660000000539e-01,3.571674159422260075e-01,1.000000000000000048e-04,4.114433045353339935e+01,1.799999999999999933e-01
3.011317304999999944e+00,-8.969173430000000335e-01,5.148224706079955748e-01,1.000000000000000048e-04,4.255332358955854488e+01,1.499999999999999944e-01
1.946036051000000100e+00,-1.101857058000000000e+00,1.029690903556833792e+00,1.000000000000000048e-04,4.425909719490622507e+01,1.100000000000000006e-01
9.659444579999999503e-01,-6.400164339999999674e-01,4.716692013305487929e-01,1.000000000000000048e-04,4.222533747564948925e+01,1.199999999999999956e-01
1.142944595999999979e+00,-8.229314749999999679e-01,5.607406346418033483e-01,1.000000000000000048e-04,4.255724090030047790e+01,1.499999999999999944e-01
1.336859599999999926e+00,-9.462661719999999610e-01,6.237193986437798987e-01,1.000000000000000048e-04,4.299305524203897733e+01,1.900000000000000022e-01
2.386695267999999981e+00,-1.099692616000000012e+00,2.855266929944570986e-01,1.000000000000000048e-04,4.123909630425168871e+01,1.799999999999999933e-01
1.122946417999999946e+00,-7.871106610000000448e-01,3.017567278777106843e-01,1.000000000000000048e-04,4.105030042362567855e+01,1.499999999999999944e-01
1.038511049000000019e+00,-6.836743480000000428e-01,1.497363181046620362e-01,1.000000000000000048e-04,3.969145163214934513e+01,1.499999999999999944e-01
-1.865548755179585960e+00,5.988235499999999822e-01,2.505066375234645815e-01,1.000000000000000048e-04,4.021757176973325443e+01,3.599999999999999867e-01
-1.208774007179585830e+00,1.086301519000000049e+00,2.619899882612237718e-01,1.000000000000000048e-04,4.006966846613222799e+01,3.900000000000000133e-01
-1.451351928179586359e+00,1.047303024999999943e+00,1.467158684154734605e-01,1.000000000000000048e-04,3.884843663759170340e+01,3.900000000000000133e-01
-1.863787002179586594e+00,5.986409590000000280e-01,5.840427039137294773e-01,1.000000000000000048e-04,4.242907408636851585e+01,3.099999999999999978e-01
-2.367107747179586053e+00,3.570653329999999848e-01,5.464734164143005835e-01,1.000000000000000048e-04,4.247787357500113359e+01,3.300000000000000155e-01
3.110012692999999828e+00,-8.816387980000000013e-01,2.147036405409989968e-01,1.000000000000000048e-04,4.024987232521428382e+01,4.000000000000000222e-01
1.208427087000000011e+00,6.391205479999999550e-01,3.292317618686455560e-01,1.000000000000000048e-04,4.117486230226927546e+01,3.200000000000000067e-01
2.195568135999999893e+00,9.530612539999999688e-01,4.025806312987680879e-01,1.000000000000000048e-04,4.136565859111031074e+01,3.200000000000000067e-01
-1.746303855179585973e+00,7.561700099999999480e-01,5.082034123962639871e-01,1.000000000000000048e-04,4.227139150108787646e+01,3.599999999999999867e-01
-2.613733020179586308e+00,3.020363409999999860e-01,1.218238550634419770e+00,1.000000000000000048e-04,4.465332031750925523e+01,2.399999999999999911e-01
3.080075141000000016e+00,6.813462000000000129e-01,5.246884819196464544e-01,1.000000000000000048e-04,4.262783322023213373e+01,2.999999999999999889e-01
3.084152930000000126e+00,6.750201959999999612e-01,1.567181950589802142e-01,1.000000000000000048e-04,3.901096214513372473e+01,2.399999999999999911e-01
-2.831540824179586302e+00,-5.193198470000000011e-01,9.003195476444698642e-01,1.000000000000000048e-04,4.411550905437882619e+01,2.899999999999999800e-01
2.921667255000000019e+00,-9.403574120000000036e-01,2.239541672166087682e-01,1.000000000000000048e-04,3.987560322629669685e+01,2.899999999999999800e-01
2.610543199999999953e+00,9.294079060000000059e-01,1.250045244707029823e-01,1.000000000000000048e-04,3.914198731906618178e+01,2.899999999999999800e-01
2.614058957000000127e+00,9.310355519999999885e-01,4.489546870710576787e-01,1.000000000000000048e-04,4.242248337148197379e+01,3.699999999999999956e-01
-2.614313936179586406e+00,3.105085300000000048e-01,4.174247669140040973e-01,1.000000000000000048e-04,4.180961658741490083e+01,2.300000000000000100e-01
-2.614275993179586255e+00,3.084493819999999942e-01,2.204232695175805112e-01,1.000000000000000048e-04,3.995964760644290692e+01,2.000000000000000111e-01
3.080236718000000096e+00,6.852664600000000217e-01,1.726250380718019617e-01,1.000000000000000048e-04,3.965124886600209919e+01,3.800000000000000044e-01
3.085135451000000195e+00,6.840520260000000352e-01,3.908553342249669882e-01,1.000000000000000048e-04,4.109970563800579413e+01,2.300000000000000100e-01
-2.829361723179586452e+00,-5.190188390000000096e-01,1.609674532815268400e-01,1.000000000000000048e-04,3.957604145822430297e+01,3.900000000000000133e-01
-2.833706243179586082e+00,-5.260186759999999628e-01,9.252978736313901553e-01,1.000000000000000048e-04,4.391449985657195754e+01,2.200000000000000011e-01
1.286414458000000094e+00,-9.076167339999999806e-01,2.794287299385447287e-01,1.000000000000000048e-04,4.082352188484788513e+01,2.399999999999999911e-01
2.295144749999999956e+00,-1.095028292000000070e+00,1.605976258765930975e-01,1.000000000000000048e-04,3.946082897771793085e+01,2.000000000000000111e-01
2.312115046000000174e+00,-1.091482969000000081e+00,1.172552508795106085e-01,1.000000000000000048e-04,3.876417610018300053e+01,1.900000000000000022e-01
2.535381049000000164e+00,-1.063602453999999975e+00,7.306295467367187602e-01,1.000000000000000048e-04,4.346213709542066539e+01,2.600000000000000089e-01
2.549902755000000187e+00,-1.059649137999999935e+00,6.123974951255390931e-01,1.000000000000000048e-04,4.284956139590806856e+01,1.900000000000000022e-01
-2.980466121795863899e-01,1.081935794000000062e+00,6.234807873330794337e-01,1.000000000000000048e-04,4.298322071234413499e+01,1.000000000000000056e-01
-4.562223411795862660e-01,1.078420874000000085e+00,2.831363911910413922e-01,1.000000000000000048e-04,4.089661840038711915e+01,1.400000000000000133e-01
-4.727696341795866175e-01,1.076427226000000070e+00,4.293613176263124664e-01,1.000000000000000048e-04,4.186347551024650926e+01,1.900000000000000022e-01
-4.909850281795860028e-01,1.086050390999999893e+00,8.343117027941455710e-01,1.000000000000000048e-04,4.345891770942597532e+01,1.499999999999999944e-01
-1.809890014179586615e+00,8.554848849999999727e-01,1.365850598484199541e+00,1.000000000000000048e-04,4.488373281553452898e+01,1.900000000000000022e-01
-1.804843805179586091e+00,8.509932909999999850e-01,4.780728641458154016e-01,1.000000000000000048e-04,4.196192469295972671e+01,1.700000000000000122e-01
-1.798315402179586187e+00,8.389159160000000393e-01,7.709532300224770651e-01,1.000000000000000048e-04,4.347484522813007857e+01,1.100000000000000006e-01
-1.820018681179586650e+00,8.404092629999999620e-01,4.023263451757930209e-01,1.000000000000000048e-04,4.160418969731101413e+01,2.000000000000000111e-01
-2.435936564179586039e+00,3.767214549999999829e-01,4.722097458765288636e-01,1.000000000000000048e-04,4.219053375099601766e+01,1.700000000000000122e-01
-2.738532057179586143e+00,-4.670391260000000266e-01,1.831493439818034918e-01,1.000000000000000048e-04,3.984789957752112599e+01,1.100000000000000006e-01
-2.750126147179586145e+00,-4.750163370000000107e-01,7.864258643596304665e-01,1.000000000000000048e-04,4.341144397127692400e+01,1.700000000000000122e-01
6.777063359999999648e-01,-9.284162910000000046e-01,4.304979248597553543e-01,1.000000000000000048e-04,4.157193963078689336e+01,1.600000000000000033e-01
6.755664329999999662e-01,-9.242990760000000527e-01,5.365214441917600663e-01,1.000000000000000048e-04,4.265154154575182588e+01,2.200000000000000011e-01
1.666277256000000095e+00,1.035703752000000089e+00,1.615253808066443586e-01,1.000000000000000048e-04,3.960835817409754611e+01,2.800000000000000266e-01
1.679531192000000006e+00,1.034147155999999956e+00,7.148461774236367638e-01,1.000000000000000048e-04,4.338762601588000933e+01,2.099999999999999922e-01
1.669961188000000041e+00,1.045784459000000055e+00,9.323977345879710388e-01,1.000000000000000048e-04,4.371852107084522743e+01,2.899999999999999800e-01
1.666612017000000057e+00,1.035903760999999923e+00,4.483326510216003591e-01,1.000000000000000048e-04,4.200458957172290297e+01,1.400000000000000133e-01
1.676630470000000095e+00,1.049302589999999924e+00,1.723107072339595813e-01,1.000000000000000048e-04,3.947732243595229562e+01,1.600000000000000033e-01
1.678871634000000057e+00,1.037439988999999896e+00,1.976152691393446847e-01,1.000000000000000048e-04,3.980439395398485658e+01,2.099999999999999922e-01
-2.159653925179585876e+00,7.341517600000000421e-01,4.952168829123952953e-01,1.000000000000000048e-04,4.256220048892399177e+01,2.600000000000000089e-01
-2.155609593179586447e+00,7.327229189999999726e-01,2.997854548977543221e-01,1.000000000000000048e-04,4.070511435027299996e+01,1.400000000000000133e-01
2.989279821999999864e+00,-1.014333855000000062e+00,2.597687161937201061e-01,1.000000000000000048e-04,4.067909839665144744e+01,1.600000000000000033e-01
6.962963009999999509e-01,-9.242906640000000396e-01,3.436071999080752004e-01,1.000000000000000048e-04,4.118002348419778968e+01,2.000000000000000111e-01
6.831622830000000368e-01,-9.295060950000000322e-01,2.497529548016659273e-01,1.000000000000000048e-04,4.103860354548832845e+01,2.099999999999999922e-01
6.813526220000000189e-01,-9.196739680000000083e-01,3.597177881718043313e-01,1.000000000000000048e-04,4.165971406721743620e+01,1.700000000000000122e-01
1.667475545999999920e+00,1.039138789999999979e+00,6.980847735892428130e-01,1.000000000000000048e-04,4.315559313050678725e+01,1.499999999999999944e-01
1.669072946000000002e+00,1.039627206000000026e+00,3.588945409213897264e-01,1.000000000000000048e-04,4.131149530852617602e+01,1.700000000000000122e-01
2.992464221000000091e+00,-1.009427984000000000e+00,3.254511136678785999e-01,1.000000000000000048e-04,4.112057933619713879e+01,1.400000000000000133e-01
3.013377762000000182e+00,-1.015725085999999999e+00,1.661714464159282922e-01,1.000000000000000048e-04,3.956620665705668216e+01,1.499999999999999944e-01
6.857830799999999893e-01,-9.290922369999999875e-01,2.034738932559614355e-01,1.000000000000000048e-04,3.986667738753719448e+01,3.400000000000000244e-01
6.874880420000000214e-01,-9.251381180000000093e-01,7.155525223411838276e-01,1.000000000000000048e-04,4.340982726718132767e+01,1.700000000000000122e-01
1.659686511000000086e+00,1.040101345999999927e+00,4.592458932450358411e-01,1.000000000000000048e-04,4.217593272233102653e+01,1.400000000000000133e-01
1.692629780999999944e+00,1.043637506000000048e+00,3.000867611480104724e-01,1.000000000000000048e-04,4.066865610278026821e+01,1.799999999999999933e-01
1.682450028999999958e+00,1.049226146999999942e+00,1.301066379101162962e+00,1.000000000000000048e-04,4.489454712533756719e+01,1.900000000000000022e-01
1.675255906999999933e+00,1.048468626000000015e+00,3.725388154904334392e-01,1.000000000000000048e-04,4.119352577327113352e+01,1.499999999999999944e-01
1.692145135000000078e+00,1.039981480000000014e+00,4.251797419123830579e-01,1.000000000000000048e-04,4.172066458048833226e+01,1.700000000000000122e-01
-2.139768073179586061e+00,7.360294179999999908e-01,3.257332832701189673e-01,1.000000000000000048e-04,4.090590941780271805e+01,1.600000000000000033e-01
-2.138731675179585956e+00,7.369836659999999817e-01,3.677497239072033963e-01,1.000000000000000048e-04,4.140451249659246713e+01,1.499999999999999944e-01
6.888283630000000546e-01,-9.193630990000000169e-01,1.227370287655118908e+00,1.000000000000000048e-04,4.472793831586857038e+01,1.700000000000000122e-01
6.776433490000000059e-01,-9.225326109999999469e-01,2.567856797305627659e-01,1.000000000000000048e-04,4.047286485761372887e+01,1.600000000000000033e-01
6.820513620000000499e-01,-9.162569579999999547e-01,4.023898126107208206e-01,1.000000000000000048e-04,4.197438615750705537e+01,2.899999999999999800e-01
6.832637360000000104e-01,-9.208365670000000502e-01,6.097376526941804542e-01,1.000000000000000048e-04,4.280893548731167897e+01,1.400000000000000133e-01
1.683256381999999940e+00,1.050427892999999946e+00,5.892634557521705396e-01,1.000000000000000048e-04,4.297220262443232031e+01,1.499999999999999944e-01
2.987248335999999949e+00,-1.011507587000000097e+00,3.073105948824121914e-01,1.000000000000000048e-04,4.128271812557836995e+01,1.900000000000000022e-01
2.994879214000000012e+00,-1.020537374999999969e+00,9.718486827505505854e-01,1.000000000000000048e-04,4.417966302407985069e+01,2.500000000000000000e-01
2.997056848999999801e+00,-1.020797841000000039e+00,3.561949455587296587e-01,1.000000000000000048e-04,4.157399751035261914e+01,1.499999999999999944e-01
6.981827720000000070e-01,-9.201470600000000166e-01,2.306562802328371298e-01,1.000000000000000048e-04,4.050724224558856434e+01,2.099999999999999922e-01
1.675679171999999939e+00,1.042232051000000048e+00,2.418992802927923957e-01,1.000000000000000048e-04,4.060414498168520936e+01,1.900000000000000022e-01
1.682732345000000018e+00,1.051774148000000020e+00,3.516320575139302296e-01,1.000000000000000048e-04,4.128855669232067527e+01,2.099999999999999922e-01
1.655763980999999996e+00,1.041789395999999979e+00,2.054730623202238871e-01,1.000000000000000048e-04,4.011694657097437755e+01,2.099999999999999922e-01
1.658505131999999938e+00,1.042043577999999915e+00,5.913520180143219118e-01,1.000000000000000048e-04,4.274718313068832742e+01,1.499999999999999944e-01
1.679931540999999973e+00,1.044700675999999939e+00,2.238864739441099871e-01,1.000000000000000048e-04,4.032776767641354354e+01,1.400000000000000133e-01
1.681131209999999987e+00,1.046558263000000100e+00,1.714733317305416893e-01,1.000000000000000048e-04,3.970517700270389128e+01,3.800000000000000044e-01
-2.147380102179586636e+00,7.248191320000000326e-01,2.809640574439284944e-01,1.000000000000000048e-04,4.071396455699136396e+01,2.200000000000000011e-01
-2.137481690179586558e+00,7.386978770000000027e-01,1.739811481024566842e-01,1.000000000000000048e-04,3.939562076383317901e+01,1.499999999999999944e-01
3.007533192999999994e+00,-1.006434849999999992e+00,2.264578833902368693e-01,1.000000000000000048e-04,4.039310752303860852e+01,1.700000000000000122e-01
6.766177190000000063e-01,-9.309161569999999664e-01,6.478985146310820564e-01,1.000000000000000048e-04,4.305821014443844064e+01,1.700000000000000122e-01
6.879719020000000240e-01,-9.170357009999999809e-01,4.145975488130950737e-01,1.000000000000000048e-04,4.192663966687253208e+01,2.600000000000000089e-01
6.868192690000000100e-01,-9.190749710000000183e-01,2.142585596762442979e-01,1.000000000000000048e-04,4.054251598066575468e+01,2.800000000000000266e-01
1.680927606000000019e+00,1.043199457999999913e+00,1.490269504754158092e-01,1.000000000000000048e-04,3.935876192928363793e+01,1.799999999999999933e-01
1.680733408999999901e+00,1.046110547000000057e+00,3.950357683843290779e-01,1.000000000000000048e-04,4.172917895546392231e+01,1.499999999999999944e-01
3.003205794999999956e+00,-1.007960921000000010e+00,1.246378000008721010e-01,1.000000000000000048e-04,3.910587497523008693e+01,2.200000000000000011e-01
3.013387552999999830e+00,-1.018013843000000085e+00,1.228918058520080958e+00,1.000000000000000048e-04,4.453590637989106682e+01,2.000000000000000111e-01
2.991633154000000072e+00,-1.018575491000000000e+00,9.052889886898314309e-01,1.000000000000000048e-04,4.389469705108194120e+01,1.600000000000000033e-01
6.810583510000000063e-01,-9.216344210000000370e-01,5.599744851538133172e-01,1.000000000000000048e-04,4.277061462387613489e+01,1.600000000000000033e-01
1.670069762000000013e+00,1.048284639000000018e+00,2.054705720828715609e-01,1.000000000000000048e-04,4.023158326694007059e+01,2.099999999999999922e-01
1.699713636000000028e+00,1.040243690999999915e+00,1.335067509595790902e+00,1.000000000000000048e-04,4.440211612831664212e+01,2.899999999999999800e-01
1.686195045999999920e+00,1.048540513999999924e+00,2.214603890464266200e-01,1.000000000000000048e-04,4.033753019538863782e+01,1.400000000000000133e-01
1.667162669999999958e+00,1.044746053999999980e+00,3.549613580453874206e-01,1.000000000000000048e-04,4.119965975059723462e+01,2.700000000000000178e-01
1.689467040999999892e+00,1.036330184999999959e+00,2.517197176073886489e-01,1.000000000000000048e-04,4.033968725492513130e+01,1.300000000000000044e-01
1.683799076999999977e+00,1.043385784000000038e+00,4.856061479364093270e-01,1.000000000000000048e-04,4.237499378756714208e+01,1.700000000000000122e-01
-2.151455832179586025e+00,7.398983139999999459e-01,3.747046798372677401e-01,1.000000000000000048e-04,4.128263855642796187e+01,2.500000000000000000e-01
-2.141944958179585967e+00,7.302793560000000461e-01,2.119555730744386857e-01,1.000000000000000048e-04,3.978421715236017064e+01,1.400000000000000133e-01
3.012489310999999947e+00,-1.019874449000000016e+00,4.125743546564102360e-01,1.000000000000000048e-04,4.187764074276881132e+01,1.900000000000000022e-01
6.824463880000000149e-01,-9.193269539999999740e-01,1.040815935711751905e-01,1.000000000000000048e-04,3.864406683356775574e+01,1.600000000000000033e-01
6.933168330000000212e-01,-9.307474239999999899e-01,1.686329199162734938e-01,1.000000000000000048e-04,3.975413839660369320e+01,1.600000000000000033e-01
7.005346909999999871e-01,-9.247541049999999929e-01,2.127548149739817429e-01,1.000000000000000048e-04,4.060003022171117948e+01,2.700000000000000178e-01
1.674988617999999985e+00,1.042237757999999959e+00,3.413718033873209823e-01,1.000000000000000048e-04,4.132345010286601195e+01,1.499999999999999944e-01
1.672026148000000045e+00,1.039374368000000048e+00,2.778243497345880275e-01,1.000000000000000048e-04,4.067749444845691897e+01,1.600000000000000033e-01
2.993618983999999816e+00,-1.008517228000000099e+00,3.268775610368745976e-01,1.000000000000000048e-04,4.116015987470348136e+01,1.700000000000000122e-01
2.992837709999999873e+00,-1.014889098000000045e+00,3.276787881048142115e-01,1.000000000000000048e-04,4.109707278772113170e+01,2.800000000000000266e-01
2.980621672999999916e+00,-1.012535224000000067e+00,2.826304049421599629e-01,1.000000000000000048e-04,4.082271511169433609e+01,1.499999999999999944e-01
3.118379398000000080e+00,-1.044341935000000055e+00,3.212393337375898383e-01,1.000000000000000048e-04,4.180144212447893182e+01,3.099999999999999978e-01
3.132904315000000217e+00,-1.046896950999999909e+00,2.457750723063798493e-01,1.000000000000000048e-04,4.055311807408285318e+01,2.200000000000000011e-01
1.248659997999999938e+00,-1.117162079000000086e+00,3.056052087519365301e-01,1.000000000000000048e-04,4.139114175988751754e+01,2.700000000000000178e-01
2.302446713000000145e+00,-1.091359299000000060e+00,5.043284101129992258e-01,1.000000000000000048e-04,4.212907073997818941e+01,2.899999999999999800e-01
3.133486173000000097e+00,-1.061461677999999909e+00,3.982637131592876578e-01,1.000000000000000048e-04,4.176284061074964171e+01,3.099999999999999978e-01
1.251013366000000016e+00,-1.102704651999999896e+00,7.088342785553103376e-01,1.000000000000000048e-04,4.319191153182381271e+01,2.300000000000000100e-01
1.232341668999999973e+00,-1.105349812000000043e+00,6.713497640739698458e-01,1.000000000000000048e-04,4.300751139031255121e+01,2.200000000000000011e-01
2.330538756999999794e+00,-1.086213730999999960e+00,3.449253895153661098e-01,1.000000000000000048e-04,4.131225806951177759e+01,2.300000000000000100e-01
3.104372880000000112e+00,-1.050765708999999992e+00,9.146522870739022260e-01,1.000000000000000048e-04,4.388127783518765312e+01,2.200000000000000011e-01
3.122794933000000217e+00,-1.050942575000000101e+00,1.282647928021154460e-01,1.000000000000000048e-04,3.939009244314924985e+01,2.099999999999999922e-01
3.135928428000000157e+00,-1.044986675000000087e+00,1.161077899825238013e-01,1.000000000000000048e-04,3.903000382923060840e+01,2.300000000000000100e-01
3.135701593999999925e+00,-1.049448040999999998e+00,3.370928985757846164e-01,1.000000000000000048e-04,4.151343719343274330e+01,2.399999999999999911e-01
2.902190216000000156e+00,-1.054666754000000095e+00,6.223779484476974488e-01,1.000000000000000048e-04,4.260349891291611613e+01,2.099999999999999922e-01
1.219278212000000083e+00,-1.102494101000000004e+00,1.579152326101387338e-01,1.000000000000000048e-04,3.996770167211684566e+01,2.399999999999999911e-01
2.314258420999999899e+00,-1.073777474999999981e+00,1.052413152818220787e+00,1.000000000000000048e-04,4.423911482481597091e+01,2.399999999999999911e-01
3.138600745000000192e+00,-1.056209613999999908e+00,4.644848495455686788e-01,1.000000000000000048e-04,4.242248946530786213e+01,2.800000000000000266e-01
2.873014373000000177e+00,-1.047336534999999902e+00,2.091865797503369429e-01,1.000000000000000048e-04,4.012566799859813926e+01,2.000000000000000111e-01
2.890150627000000139e+00,-1.045368942999999939e+00,1.199490374366307677e-01,1.000000000000000048e-04,3.905234670766118654e+01,2.200000000000000011e-01
-3.136513490179586139e+00,-1.038988312000000080e+00,2.181496949778127803e-01,1.000000000000000048e-04,3.980374904439003103e+01,2.800000000000000266e-01
3.120369102000000172e+00,-1.042910143999999928e+00,2.834247770463866889e-01,1.000000000000000048e-04,4.108559498210958338e+01,2.399999999999999911e-01
3.132773262000000170e+00,-1.048570620000000009e+00,4.852906017160865115e-01,1.000000000000000048e-04,4.261604539695361638e+01,2.300000000000000100e-01
3.132934141999999866e+00,-1.046888051000000042e+00,5.879451143229719179e-01,1.000000000000000048e-04,4.252768234502575240e+01,2.200000000000000011e-01
3.134455274000000014e+00,-1.046257098000000108e+00,1.082793940653386855e+00,1.000000000000000048e-04,4.458710494453883655e+01,2.200000000000000011e-01
2.910504301000000016e+00,-1.063930792999999930e+00,5.499219373107433473e-01,1.000000000000000048e-04,4.236098563962490005e+01,2.399999999999999911e-01
2.301930878999999930e+00,-1.084305269999999988e+00,1.720525208138807827e-01,1.000000000000000048e-04,3.991989036668140045e+01,3.099999999999999978e-01
2.314913878000000036e+00,-1.104421796000000011e+00,2.896005723969108381e-01,1.000000000000000048e-04,4.084279707808070725e+01,2.600000000000000089e-01
1.232494258000000009e+00,-1.089556776000000005e+00,1.660142542628926243e-01,1.000000000000000048e-04,3.980723959967444614e+01,3.099999999999999978e-01
-3.138875270179586341e+00,-1.027091259999999950e+00,2.621230483148202506e-01,1.000000000000000048e-04,4.053278268594484501e+01,3.800000000000000044e-01
1.277748142000000087e+00,-1.105660628999999950e+00,1.138304120336306458e-01,1.000000000000000048e-04,3.869979842357493993e+01,2.500000000000000000e-01
2.339694710999999927e+00,-1.083680948999999893e+00,1.878993863851969870e-01,1.000000000000000048e-04,4.000989080005242471e+01,2.300000000000000100e-01
3.085408954000000037e+00,-1.045989441999999991e+00,6.992573380454796261e-01,1.000000000000000048e-04,4.336741882382158764e+01,2.800000000000000266e-01
3.122183823999999941e+00,-1.053540683000000033e+00,5.666737722308721192e-01,1.000000000000000048e-04,4.244258406206460421e+01,3.699999999999999956e-01
1.263417701000000060e+00,-1.099941301000000093e+00,8.628948296643097482e-01,1.000000000000000048e-04,4.368222394741481907e+01,2.200000000000000011e-01
1.238769020999999970e+00,-1.122513239999999968e+00,1.877485057606977925e-01,1.000000000000000048e-04,4.028232955004221338e+01,2.600000000000000089e-01
1.225778744000000087e+00,-1.107856694000000086e+00,8.835341790710165011e-01,1.000000000000000048e-04,4.371301872253133070e+01,2.500000000000000000e-01
2.356185176999999964e+00,-1.090954028000000076e+00,6.757857465234953231e-01,1.000000000000000048e-04,4.310835450008869429e+01,2.700000000000000178e-01
1.231078855000000027e+00,-1.109460918999999990e+00,4.967716611154042727e-01,1.000000000000000048e-04,4.252093310456643849e+01,2.300000000000000100e-01
2.350025410999999842e+00,-1.078254897999999962e+00,3.877644461538560794e-01,1.000000000000000048e-04,4.138913361645374778e+01,2.300000000000000100e-01
2.889344674999999807e+00,-1.054064458000000037e+00,4.868333252969283542e-01,1.000000000000000048e-04,4.216064489971699203e+01,3.200000000000000067e-01
1.260972444000000081e+00,-1.102168519999999985e+00,1.403206889823136461e-01,1.000000000000000048e-04,3.993855028752614089e+01,2.899999999999999800e-01
3.138597202000000141e+00,-1.049455424000000026e+00,1.168461959167307551e+00,1.000000000000000048e-04,4.449785454284381814e+01,2.600000000000000089e-01
1.280173519000000093e+00,-1.106045986000000036e+00,1.023930595920198527e+00,1.000000000000000048e-04,4.421281226158097155e+01,2.899999999999999800e-01
3.140421104000000074e+00,-1.048273016000000002e+00,8.814856308754228653e-01,1.000000000000000048e-04,4.337815480424188763e+01,2.700000000000000178e-01
2.887571490000000018e+00,-1.060290981000000077e+00,2.293992485890861133e-01,1.000000000000000048e-04,4.043751864343365554e+01,2.300000000000000100e-01
3.117377486000000086e+00,-1.048849812999999909e+00,7.217032793275726110e-01,1.000000000000000048e-04,4.316208587303421496e+01,2.800000000000000266e-01
3.139331405000000075e+00,-1.045946368000000071e+00,3.254377688239225019e-01,1.000000000000000048e-04,4.125902605438507464e+01,2.300000000000000100e-01
2.901812189000000153e+00,-1.070407117000000019e+00,1.862437099816569575e-01,1.000000000000000048e-04,3.986257683143379182e+01,2.200000000000000011e-01
2.874698792999999863e+00,-1.069280417999999955e+00,3.402397665807901372e-01,1.000000000000000048e-04,4.163138125940023571e+01,2.200000000000000011e-01
3.126790450000000110e+00,-1.053686536000000062e+00,1.103347002153778345e-01,1.000000000000000048e-04,3.869401046431512725e+01,2.099999999999999922e-01
1.253234667999999941e+00,-1.096167120000000050e+00,5.680074175704219464e-01,1.000000000000000048e-04,4.262346494496623706e+01,2.200000000000000011e-01
1.242189800000000011e+00,-1.095888138000000067e+00,1.056403385067352652e-01,1.000000000000000048e-04,3.902793450530852226e+01,2.899999999999999800e-01
2.358704259000000025e+00,-1.096119858000000002e+00,5.990351274645742130e-01,1.000000000000000048e-04,4.278113256387099739e+01,2.099999999999999922e-01
3.090657074000000115e+00,-1.046905049999999893e+00,7.669198659798528439e-01,1.000000000000000048e-04,4.336301605717644492e+01,2.300000000000000100e-01
2.350320292999999783e+00,-1.077642637000000070e+00,3.313469772703365734e-01,1.000000000000000048e-04,4.173369092116107737e+01,3.300000000000000155e-01
3.120911620999999858e+00,-1.047605429999999949e+00,1.214692691557340609e+00,1.000000000000000048e-04,4.444855188844605465e+01,2.899999999999999800e-01
2.310418793000000193e+00,-1.091478047999999923e+00,4.782552450794488319e-01,1.000000000000000048e-04,4.306048983006292019e+01,3.300000000000000155e-01
2.888242410000000149e+00,-1.055260810999999910e+00,4.333095000864073398e-01,1.000000000000000048e-04,4.237386633741571984e+01,2.999999999999999889e-01
2.313880778000000138e+00,-1.089056457000000089e+00,3.018941482411190425e-01,1.000000000000000048e-04,4.100131922043644295e+01,2.600000000000000089e-01
3.096505394999999883e+00,-1.050897790999999915e+00,4.706672001373783942e-01,1.000000000000000048e-04,4.226046588888017652e+01,3.300000000000000155e-01
1.264206060000000020e+00,-1.108314516000000083e+00,6.416761943708830795e-01,1.000000000000000048e-04,4.269912837758323576e+01,2.500000000000000000e-01
2.317080779999999951e+00,-1.080569537999999996e+00,2.299691136212980158e-01,1.000000000000000048e-04,4.051735297196277941e+01,2.399999999999999911e-01
2.308161032000000112e+00,-1.080284865999999955e+00,1.681667578905907678e-01,1.000000000000000048e-04,4.044062840246901658e+01,3.900000000000000133e-01
1.213089824000000094e+00,-1.095999417000000031e+00,2.962744573866002984e-01,1.000000000000000048e-04,4.084106231210309801e+01,2.700000000000000178e-01
3.095344697999999894e+00,-1.044259242999999948e+00,1.189510924532402925e+00,1.000000000000000048e-04,4.433588964170913727e+01,2.200000000000000011e-01
3.093500166000000107e+00,-1.047656949999999920e+00,1.625906836953168177e-01,1.000000000000000048e-04,3.971560831858224816e+01,2.300000000000000100e-01
2.871266652000000086e+00,-1.064917746999999970e+00,2.966100930380775047e-01,1.000000000000000048e-04,4.091329129680185872e+01,2.500000000000000000e-01
2.872879009000000039e+00,-1.076645507999999918e+00,2.421967131144286967e-01,1.000000000000000048e-04,4.093036194037441788e+01,2.099999999999999922e-01
1.241294699000000001e+00,-1.109043570000000090e+00,5.993527826288793658e-01,1.000000000000000048e-04,4.225430175741605154e+01,2.099999999999999922e-01
1.238788393000000099e+00,-1.083197141000000085e+00,6.632337396106258165e-01,1.000000000000000048e-04,4.298604824555184933e+01,2.999999999999999889e-01
-3.140928712179586135e+00,-1.049943351000000025e+00,1.984416882041430963e-01,1.000000000000000048e-04,3.997755548902942024e+01,2.200000000000000011e-01
2.897074545000000168e+00,-1.050668165000000043e+00,3.662986330205342256e-01,1.000000000000000048e-04,4.153259237649499624e+01,2.099999999999999922e-01
3.133488720999999977e+00,-1.053899826000000095e+00,5.808846699111800405e-01,1.000000000000000048e-04,4.294113250027729123e+01,2.300000000000000100e-01
2.854965548000000020e+00,-1.051119023000000041e+00,2.817139475242107505e-01,1.000000000000000048e-04,4.047309160086700786e+01,3.200000000000000067e-01
2.846666281000000076e+00,-1.061494909000000098e+00,2.832430813016291182e-01,1.000000000000000048e-04,4.055039430612151108e+01,2.600000000000000089e-01
1.477625364000000108e+00,-9.892628350000000070e-01,3.262211788511675259e-01,1.000000000000000048e-04,4.174952527918991763e+01,2.000000000000000111e-01
-2.998301261179586064e+00,-5.567642400000000213e-01,3.196758169347841960e-01,1.000000000000000048e-04,4.112777597791093598e+01,1.799999999999999933e-01
2.915910107000000195e+00,-9.248875840000000403e-01,1.100259668239456090e-01,1.000000000000000048e-04,3.864274222471011200e+01,2.999999999999999889e-01
2.904218159000000021e+00,-9.279150130000000107e-01,4.050361754437321604e-01,1.000000000000000048e-04,4.182653329373721363e+01,2.399999999999999911e-01
2.945746643000000109e+00,-9.241091030000000428e-01,3.297848905481752801e-01,1.000000000000000048e-04,4.085959810495246103e+01,2.300000000000000100e-01
2.195221751000000054e+00,9.567984520000000215e-01,5.707035161111022603e-01,1.000000000000000048e-04,4.240053645627077117e+01,2.200000000000000011e-01
-2.382074272179586227e+00,-9.504311730000000180e-01,3.607657444978153993e-01,1.000000000000000048e-04,4.171039242467765717e+01,2.300000000000000100e-01
2.197803225999999999e+00,9.560313849999999558e-01,3.519883537012740149e-01,1.000000000000000048e-04,4.143585119932485128e+01,2.300000000000000100e-01
-2.380846050179586282e+00,-9.512843520000000552e-01,4.069116334311675409e-01,1.000000000000000048e-04,4.199752344342009280e+01,2.600000000000000089e-01
-2.382960995179586039e+00,-9.501026420000000527e-01,7.393175495055099855e-01,1.000000000000000048e-04,4.343624118857258054e+01,2.099999999999999922e-01
2.192165822000000208e+00,9.554729659999999791e-01,7.678316851799356080e-01,1.000000000000000048e-04,4.272578079305829135e+01,2.899999999999999800e-01
-2.383512939179586176e+00,-9.505219620000000535e-01,2.343228025951908933e-01,1.000000000000000048e-04,4.058337662320538897e+01,2.000000000000000111e-01
2.197044292000000176e+00,9.582492320000000063e-01,1.561557083403752877e-01,1.000000000000000048e-04,3.931196384339768457e+01,2.500000000000000000e-01
2.198013217999999824e+00,9.570721989999999568e-01,2.657769761279866749e-01,1.000000000000000048e-04,4.043437121209153418e+01,2.099999999999999922e-01
2.198391541999999976e+00,9.561199929999999458e-01,7.153936324623861864e-01,1.000000000000000048e-04,4.349689593109824415e+01,2.300000000000000100e-01
2.199218732999999926e+00,9.570277640000000030e-01,6.459839711617099134e-01,1.000000000000000048e-04,4.282815387451928757e+01,2.200000000000000011e-01
2.196667974999999995e+00,9.569524729999999701e-01,2.107178514169609773e-01,1.000000000000000048e-04,4.074375813581796280e+01,2.399999999999999911e-01
2.196400267000000017e+00,9.571105250000000453e-01,2.700100241473248897e-01,1.000000000000000048e-04,4.023426956323049097e+01,2.500000000000000000e-01
2.195980999000000100e+00,9.563170869999999546e-01,2.064809601019159668e-01,1.000000000000000048e-04,4.003423005056562545e+01,2.200000000000000011e-01
2.198886345000000020e+00,9.574225640000000315e-01,5.198977533699471465e-01,1.000000000000000048e-04,4.222859467037464754e+01,3.300000000000000155e-01
-2.382942164179586264e+00,-9.487821469999999646e-01,2.125841350141057795e-01,1.000000000000000048e-04,3.976531427238321470e+01,2.000000000000000111e-01
2.197058621000000045e+00,9.568337070000000333e-01,3.382957640380546138e-01,1.000000000000000048e-04,4.101981250686251457e+01,2.600000000000000089e-01
2.196754174000000059e+00,9.569828230000000380e-01,3.338518878971725723e-01,1.000000000000000048e-04,4.082436405437891125e+01,2.399999999999999911e-01
-2.381905888179586039e+00,-9.494029419999999719e-01,1.976475199337388577e-01,1.000000000000000048e-04,4.063443129932660014e+01,2.399999999999999911e-01
-2.382353656179586388e+00,-9.501919130000000546e-01,2.893059356788174608e-01,1.000000000000000048e-04,4.064824545149109980e+01,2.600000000000000089e-01
-2.385313647179586383e+00,-9.492824659999999914e-01,2.792377237741789919e-01,1.000000000000000048e-04,4.092960379627805168e+01,2.399999999999999911e-01
-2.383308463179586223e+00,-9.502672559999999491e-01,3.496287800594417572e-01,1.000000000000000048e-04,4.125404662344083562e+01,2.000000000000000111e-01
2.194446376000000143e+00,9.548028840000000184e-01,4.637548931842194744e-01,1.000000000000000048e-04,4.217828936645405946e+01,3.699999999999999956e-01
-2.377678389179586294e+00,-9.493284189999999789e-01,1.611243072317383174e-01,1.000000000000000048e-04,3.928642729261763122e+01,3.099999999999999978e-01
2.195048706000000127e+00,9.553664520000000326e-01,6.247322668541155366e-01,1.000000000000000048e-04,4.247666784905280934e+01,2.399999999999999911e-01
2.194988459000000169e+00,9.569281090000000267e-01,8.981238562091309330e-01,1.000000000000000048e-04,4.364554085945626838e+01,2.099999999999999922e-01
2.198773670000000013e+00,9.585742720000000050e-01,2.303623536113756920e-01,1.000000000000000048e-04,4.064448784028774497e+01,2.800000000000000266e-01
2.196007632000000154e+00,9.574002940000000406e-01,2.328233516271276393e-01,1.000000000000000048e-04,4.052308376833873638e+01,2.800000000000000266e-01
2.193610842000000005e+00,9.569156829999999614e-01,3.643062006543138498e-01,1.000000000000000048e-04,4.151998283850128502e+01,2.099999999999999922e-01
2.194846306000000080e+00,9.574700699999999509e-01,3.657214231149310546e-01,1.000000000000000048e-04,4.145012801159762006e+01,2.300000000000000100e-01
-2.901318991795864832e-01,1.086903570000000041e+00,2.684837181824253349e-01,1.000000000000000048e-04,4.050701240696552929e+01,2.000000000000000111e-01
-2.914486071795865385e-01,1.085909494999999891e+00,3.211321262469111204e-01,1.000000000000000048e-04,4.110717428641230953e+01,1.000000000000000056e-01
-2.954610881795858290e-01,1.084462065999999947e+00,2.650998205456980283e-01,1.000000000000000048e-04,4.064315402586520065e+01,1.199999999999999956e-01
-3.403197011795864313e-01,1.090760651000000081e+00,4.674414998014955192e-01,1.000000000000000048e-04,4.207982144730259222e+01,8.999999999999999667e-02
-3.429455761795860980e-01,1.087892671000000089e+00,6.234526403056799282e-01,1.000000000000000048e-04,4.282556028479803700e+01,1.400000000000000133e-01
6.896152909999999636e-01,-9.249195220000000495e-01,7.559254132580814911e-01,1.000000000000000048e-04,4.323085742718850355e+01,2.000000000000000111e-01
1.024453132999999960e+00,1.182715689999999986e+00,3.221550506277159887e-01,1.000000000000000048e-04,4.097224046205319326e+01,1.900000000000000022e-01
1.006083177000000051e+00,1.165244638999999971e+00,4.013171496699867724e-01,1.000000000000000048e-04,4.142464716830651383e+01,1.700000000000000122e-01
9.905969959999999519e-01,1.153001898999999941e+00,1.133565868978651192e+00,1.000000000000000048e-04,4.444197781008075765e+01,3.499999999999999778e-01
2.950804928999999799e+00,-1.010655210999999998e+00,1.287019711580825732e-01,1.000000000000000048e-04,3.944068130290474272e+01,1.700000000000000122e-01
2.951637304000000128e+00,-1.010683065999999908e+00,2.853332617532218229e-01,1.000000000000000048e-04,4.044934605226386992e+01,1.900000000000000022e-01
-2.349248843179586377e+00,-9.322901449999999590e-01,7.508781495506418047e-01,1.000000000000000048e-04,4.347123540931825403e+01,1.900000000000000022e-01
