-1.598279621179586663e+00,2.779993629999999993e-01,4.033846727894645490e-01,1.000000000000000048e-04,4.153350979936965359e+01,1.700000000000000122e-01
-8.306753881795865269e-01,5.048130450000000158e-01,2.531364547008840837e-01,1.000000000000000048e-04,4.048024671433703503e+01,1.600000000000000033e-01
-1.512887194179586281e+00,3.571169940000000209e-01,5.020210443438963832e-01,1.000000000000000048e-04,4.224309880705092013e+01,1.600000000000000033e-01
-2.094054222179586588e+00,-9.657747650000000350e-01,2.251089715488698850e-01,1.000000000000000048e-04,4.004837676613079367e+01,1.600000000000000033e-01
-1.256550916179586252e+00,-1.037146153999999987e+00,3.824893463823582085e-01,1.000000000000000048e-04,4.156575976277093076e+01,1.900000000000000022e-01
-2.638489419179586015e+00,-8.917870300000000361e-01,3.304222828447955784e-01,1.000000000000000048e-04,4.115539006741744288e+01,1.600000000000000033e-01
3.095686500000000008e-02,-1.139960520999999893e+00,1.308587996390380148e-01,1.000000000000000048e-04,3.892314514535676295e+01,1.700000000000000122e-01
-4.765590681795863759e-01,-7.328014390000000544e-01,1.669155363977914419e-01,1.000000000000000048e-04,3.959105963036314790e+01,1.600000000000000033e-01
7.532392530000000530e-01,9.936355940000000109e-01,1.374533129810449061e-01,1.000000000000000048e-04,3.911187355441978752e+01,1.600000000000000033e-01
1.355624495999999901e+00,4.654212710000000253e-01,2.010135746832919512e-01,1.000000000000000048e-04,4.001880143030746950e+01,2.200000000000000011e-01
-2.027672372179586624e+00,-3.494576850000000179e-01,8.691387408401261006e-01,1.000000000000000048e-04,4.363885576999586391e+01,8.999999999999999667e-02
-2.243457714179585949e+00,5.735296930000000071e-01,1.218177427011077452e+00,1.000000000000000048e-04,4.454821477814839881e+01,8.000000000000000167e-02
-1.661352162179586145e+00,7.473004210000000480e-01,1.748645951307528090e-01,1.000000000000000048e-04,3.937501516483026620e+01,1.100000000000000006e-01
-1.046494641179585905e+00,9.839422859999999993e-01,4.743614933921387333e-01,1.000000000000000048e-04,4.193566031245472914e+01,1.600000000000000033e-01
-1.357076630179586019e+00,8.591991679999999576e-01,4.349626963847486039e-01,1.000000000000000048e-04,4.206977681455264673e+01,1.300000000000000044e-01
-1.489161381179585852e+00,8.733460579999999807e-01,1.968224647547265338e-01,1.000000000000000048e-04,3.980653059378353475e+01,8.999999999999999667e-02
2.602874990000000111e+00,9.865781270000000269e-01,1.317045304461648580e+00,1.000000000000000048e-04,4.510871606717807936e+01,2.099999999999999922e-01
2.011122450999999867e+00,-1.257182417000000108e+00,2.487497409566410411e-01,1.000000000000000048e-04,4.064772594506806058e+01,1.799999999999999933e-01
2.487812089999999809e+00,-1.095252646999999913e+00,9.023654779582372942e-01,1.000000000000000048e-04,4.387544796639295441e+01,1.600000000000000033e-01
-2.060955814179585843e+00,9.020563839999999889e-01,1.281186539135961144e-01,1.000000000000000048e-04,3.886372574148940373e+01,1.799999999999999933e-01
-1.552222439179586466e+00,1.270289940999999923e+00,4.140589151990310413e-01,1.000000000000000048e-04,4.178200938838411105e+01,1.600000000000000033e-01
-3.584264691795864266e-01,1.112498557000000110e+00,6.966984417590740275e-01,1.000000000000000048e-04,4.325295901681776201e+01,2.000000000000000111e-01
1.187793541000000008e+00,1.533334508000000040e+00,5.361864086873475710e-01,1.000000000000000048e-04,4.261874895002518571e+01,1.700000000000000122e-01
9.029304540000000490e-01,-5.888661819999999603e-01,2.474522322629537641e-01,1.000000000000000048e-04,4.070391406429797598e+01,1.700000000000000122e-01
2.675488564000000125e+00,-1.029758079000000048e+00,2.866661193953765618e-01,1.000000000000000048e-04,4.113265255329419290e+01,1.700000000000000122e-01
9.979371630000000160e-01,-7.076351440000000492e-01,4.978365094526771006e-01,1.000000000000000048e-04,4.204727203210308772e+01,2.000000000000000111e-01
-2.809922836179586270e+00,-1.219770695000000016e+00,3.962044422900139473e-01,1.000000000000000048e-04,4.188631177550750806e+01,1.900000000000000022e-01
1.945616433999999950e+00,5.533621010000000506e-01,4.219319200397817493e-01,1.000000000000000048e-04,4.175846561674806168e+01,1.700000000000000122e-01
1.369802210000000131e-01,9.686457469999999459e-01,6.475486987781038373e-01,1.000000000000000048e-04,4.292835847651171122e+01,1.000000000000000056e-01
2.377785852000000144e+00,-1.071983155000000076e+00,1.993704053067080206e-01,1.000000000000000048e-04,3.999043452798267850e+01,1.000000000000000056e-01
1.194530383000000029e+00,-8.514353350000000153e-01,3.574455728066900928e-01,1.000000000000000048e-04,4.150839700126426379e+01,1.100000000000000006e-01
2.328991532999999947e+00,-1.085498080000000032e+00,1.216330826630229289e+00,1.000000000000000048e-04,4.473737490309469678e+01,1.199999999999999956e-01
3.099662444999999877e+00,-8.173274409999999879e-01,6.270880831560243784e-01,1.000000000000000048e-04,4.270624116767656631e+01,1.300000000000000044e-01
1.008677688999999988e+00,-7.224949280000000362e-01,1.232270426987416290e-01,1.000000000000000048e-04,3.872068369185235781e+01,1.199999999999999956e-01
1.116317643999999998e+00,-8.188746820000000204e-01,1.918505083659374222e-01,1.000000000000000048e-04,3.966367119723874168e+01,1.499999999999999944e-01
1.368634144999999913e+00,-9.746537960000000167e-01,4.209590862818111123e-01,1.000000000000000048e-04,4.150329593013773888e+01,2.200000000000000011e-01
2.840707745000000006e+00,-9.874777999999999611e-01,2.107826855750378758e-01,1.000000000000000048e-04,4.036721107862857139e+01,1.199999999999999956e-01
1.164831654000000105e+00,-8.361433499999999519e-01,4.998774328318156268e-01,1.000000000000000048e-04,4.209031060977031302e+01,1.600000000000000033e-01
9.274529849999999520e-01,-5.648102149999999488e-01,9.471168131026392878e-01,1.000000000000000048e-04,4.397774860802289965e+01,2.200000000000000011e-01
1.803806121999999901e+00,-1.051757271000000049e+00,2.665562219784534115e-01,1.000000000000000048e-04,4.046535939115735658e+01,2.200000000000000011e-01
1.910407339000000038e+00,-1.096340147000000043e+00,1.620782511688292349e-01,1.000000000000000048e-04,3.951776738178016757e+01,1.300000000000000044e-01
-2.994395329179586174e+00,-6.874333790000000111e-01,1.309496871693907050e+00,1.000000000000000048e-04,4.474019554855594549e+01,1.600000000000000033e-01
2.004169926999999962e+00,-1.114377941999999955e+00,3.627736754309125455e-01,1.000000000000000048e-04,4.156109342322288569e+01,2.099999999999999922e-01
2.993884073999999895e+00,-9.067153500000000310e-01,2.883866737250408985e-01,1.000000000000000048e-04,4.088187034396224107e+01,2.000000000000000111e-01
2.896584697999999847e+00,-6.981149509999999836e-01,1.667318152655106189e-01,1.000000000000000048e-04,3.956579686197579093e+01,2.000000000000000111e-01
2.644964143999999795e+00,-1.038456438999999953e+00,1.483536668527987157e-01,1.000000000000000048e-04,3.919967666670417117e+01,2.500000000000000000e-01
1.395029569000000080e+00,-9.673563530000000021e-01,2.457403960651038943e-01,1.000000000000000048e-04,4.012722015628025929e+01,2.200000000000000011e-01
1.133893306999999906e+00,-8.234022290000000410e-01,2.483011479042509517e-01,1.000000000000000048e-04,4.051523934289617301e+01,1.199999999999999956e-01
9.542908199999999841e-01,-6.210129070000000029e-01,1.937150429781480110e-01,1.000000000000000048e-04,3.970670048051372447e+01,1.400000000000000133e-01
1.112357503999999997e+00,-7.717409769999999947e-01,2.272795288720508289e-01,1.000000000000000048e-04,4.013599225923308467e+01,1.400000000000000133e-01
1.392129267000000059e+00,-9.489503049999999940e-01,1.032950113704043105e+00,1.000000000000000048e-04,4.419638165514218997e+01,1.100000000000000006e-01
3.104633763999999907e+00,-8.563587980000000321e-01,4.631920864814937921e-01,1.000000000000000048e-04,4.225243660615532804e+01,1.199999999999999956e-01
-1.581672989179586430e+00,-6.726275419999999672e-01,2.382664479554892356e-01,1.000000000000000048e-04,4.050103369716789103e+01,2.000000000000000111e-01
8.758714749999999549e-01,-5.394949780000000139e-01,2.808134990576127699e-01,1.000000000000000048e-04,4.078945460672304080e+01,1.199999999999999956e-01
1.027821937999999991e+00,-6.897361509999999640e-01,3.990304025746074235e-01,1.000000000000000048e-04,4.190410355992342772e+01,1.499999999999999944e-01
8.011105990000000343e-01,-4.568120419999999737e-01,1.286224935665814417e+00,1.000000000000000048e-04,4.466614295063122597e+01,1.499999999999999944e-01
8.044453879999999835e-01,-4.591503659999999765e-01,1.941841916897029119e-01,1.000000000000000048e-04,4.000352490658712412e+01,1.100000000000000006e-01
8.290542589999999601e-01,-4.498624509999999965e-01,6.101195438942046412e-01,1.000000000000000048e-04,4.284102715174470433e+01,1.199999999999999956e-01
2.306908324000000121e+00,-1.093655438999999951e+00,7.148465714077774091e-01,1.000000000000000048e-04,4.337097349284436376e+01,1.300000000000000044e-01
-3.090495873179586184e+00,-7.974218849999999970e-01,1.052195243197503238e+00,1.000000000000000048e-04,4.434509199550787173e+01,1.300000000000000044e-01
2.850739061000000074e+00,-9.724982730000000242e-01,6.689202923389754307e-01,1.000000000000000048e-04,4.294712038136460563e+01,1.100000000000000006e-01
1.925211972000000049e+00,-1.067349442999999898e+00,3.169982494064178535e-01,1.000000000000000048e-04,4.109296090014699843e+01,1.600000000000000033e-01
3.010706126000000094e+00,-9.149326070000000088e-01,2.833400064176541111e-01,1.000000000000000048e-04,4.067665779540411819e+01,1.199999999999999956e-01
1.754869720000000077e+00,-1.052947148999999971e+00,2.196874877720622621e-01,1.000000000000000048e-04,4.011119527273280028e+01,1.300000000000000044e-01
3.028086770999999899e+00,-8.725603690000000023e-01,5.885609185507445495e-01,1.000000000000000048e-04,4.276573289419594204e+01,1.199999999999999956e-01
2.780301081000000174e+00,-1.010780400000000023e+00,1.156138198101726910e+00,1.000000000000000048e-04,4.435278350496020039e+01,1.700000000000000122e-01
3.096540631999999960e+00,-8.261897350000000362e-01,1.189770222736073357e+00,1.000000000000000048e-04,4.453674021850710574e+01,1.100000000000000006e-01
-3.043596368179586342e+00,-7.656326449999999451e-01,1.338540521784898907e-01,1.000000000000000048e-04,3.920638046551345468e+01,1.100000000000000006e-01
2.593403560000000052e+00,-1.068240442000000012e+00,5.353571275376443062e-01,1.000000000000000048e-04,4.222888378491954597e+01,1.199999999999999956e-01
1.277663320999999907e+00,-8.910532270000000032e-01,5.923809911992972133e-01,1.000000000000000048e-04,4.259126586582791418e+01,1.499999999999999944e-01
8.729576639999999665e-01,-5.017517409999999733e-01,2.869379637018585338e-01,1.000000000000000048e-04,4.091711184930705514e+01,1.199999999999999956e-01
2.323316692000000128e+00,-1.072994334000000105e+00,4.154833407108515786e-01,1.000000000000000048e-04,4.177825758325978711e+01,1.400000000000000133e-01
-3.012222731179586166e+00,-7.219820959999999621e-01,8.760817187437539566e-01,1.000000000000000048e-04,4.379362417888410164e+01,1.199999999999999956e-01
2.306010604999999991e+00,-1.110345181000000014e+00,8.822591589921362498e-01,1.000000000000000048e-04,4.372189089524586336e+01,1.100000000000000006e-01
2.437557496999999795e+00,-1.097151527000000071e+00,6.604449352589367717e-01,1.000000000000000048e-04,4.315306247452703303e+01,1.100000000000000006e-01
1.098420291999999909e+00,-7.444727049999999569e-01,4.769510997061643387e-01,1.000000000000000048e-04,4.212513855467908286e+01,1.300000000000000044e-01
8.241628739999999897e-01,-4.611620249999999754e-01,4.025519514389543918e-01,1.000000000000000048e-04,4.162979831014175147e+01,1.400000000000000133e-01
1.017317494999999905e+00,-7.027905669999999771e-01,4.269539698623143753e-01,1.000000000000000048e-04,4.183734446672544749e+01,1.199999999999999956e-01
2.728679550999999925e+00,-1.007430967999999982e+00,1.535261117044699475e-01,1.000000000000000048e-04,3.958045658704684655e+01,1.100000000000000006e-01
2.848837458999999850e+00,-9.622339979999999793e-01,2.218372163102291239e-01,1.000000000000000048e-04,4.023174678369449708e+01,1.199999999999999956e-01
-3.065525731179586266e+00,-7.207210450000000046e-01,3.968015049699507024e-01,1.000000000000000048e-04,4.174175871828222029e+01,1.199999999999999956e-01
1.103969978000000074e+00,-7.587182380000000448e-01,2.657301607856450421e-01,1.000000000000000048e-04,4.083086482308979015e+01,1.300000000000000044e-01
1.112034854000000017e+00,-7.675460100000000008e-01,1.935877451634511193e-01,1.000000000000000048e-04,3.970345980813623044e+01,1.199999999999999956e-01
2.373162053000000160e+00,-1.072487750000000073e+00,7.414998430741090996e-01,1.000000000000000048e-04,4.331596182279400864e+01,1.100000000000000006e-01
2.221583438000000132e+00,-1.096064289000000080e+00,4.870321380557400825e-01,1.000000000000000048e-04,4.213794549326845384e+01,1.199999999999999956e-01
2.775251189000000007e+00,-1.013244017000000108e+00,3.071352029834806263e-01,1.000000000000000048e-04,4.115759756717478268e+01,1.700000000000000122e-01
1.527128894000000070e+00,-9.963611940000000056e-01,7.551776939058592042e-01,1.000000000000000048e-04,4.340396154830525433e+01,1.400000000000000133e-01
-1.936135624179586401e+00,1.327891944000000102e+00,2.730184431649744781e-01,1.000000000000000048e-04,4.074330665788184547e+01,1.199999999999999956e-01
2.120951332999999828e+00,-1.112975437000000012e+00,2.281154757765466723e-01,1.000000000000000048e-04,4.042178447097479932e+01,1.600000000000000033e-01
2.950704906999999988e+00,-9.277153000000000205e-01,3.512591260767909951e-01,1.000000000000000048e-04,4.124254013990039880e+01,1.700000000000000122e-01
2.461302839000000020e+00,-1.064109841000000056e+00,1.839629750580482614e-01,1.000000000000000048e-04,3.969317247503422408e+01,1.499999999999999944e-01
1.687800213000000049e+00,-1.037844004000000098e+00,3.478597943365768774e-01,1.000000000000000048e-04,4.143665767889620355e+01,1.100000000000000006e-01
-3.069023128179586113e+00,-7.343218900000000327e-01,2.764956988416369388e-01,1.000000000000000048e-04,4.079687080187968462e+01,2.000000000000000111e-01
7.655655390000000171e-01,-3.825025819999999799e-01,3.514827327632992215e-01,1.000000000000000048e-04,4.151041823275573961e+01,1.300000000000000044e-01
-3.051736326179586012e+00,-7.690870560000000467e-01,7.526839004556467039e-01,1.000000000000000048e-04,4.345664131260367924e+01,1.499999999999999944e-01
-3.116938176179586240e+00,-7.920766919999999711e-01,2.313740664125492064e-01,1.000000000000000048e-04,4.030061220434890856e+01,1.100000000000000006e-01
1.020863690000000101e+00,-6.877910739999999468e-01,3.257227639048263512e-01,1.000000000000000048e-04,4.127276676611104733e+01,1.199999999999999956e-01
1.792785233999999894e+00,-1.066474936999999956e+00,7.809275136434832287e-01,1.000000000000000048e-04,4.325508023052067585e+01,1.100000000000000006e-01
1.805689748000000039e+00,-1.066896787999999985e+00,6.716395503062539962e-01,1.000000000000000048e-04,4.319261775455341024e+01,1.100000000000000006e-01
1.773248071000000037e+00,-1.046601056999999946e+00,5.772477185162721014e-01,1.000000000000000048e-04,4.261779055294751117e+01,2.099999999999999922e-01
1.076689889999999927e+00,-7.549444410000000216e-01,4.177307492840074410e-01,1.000000000000000048e-04,4.193725376020356066e+01,1.199999999999999956e-01
2.336456505000000128e+00,-1.089906792000000069e+00,2.940463126778602998e-01,1.000000000000000048e-04,4.106784422868142315e+01,1.199999999999999956e-01
2.522083900000000156e+00,-1.078852812999999911e+00,3.482377799455529388e-01,1.000000000000000048e-04,4.150028707143047058e+01,1.199999999999999956e-01
3.676074389999999803e-01,1.100614297999999991e+00,6.162348237637778059e-01,1.000000000000000048e-04,4.287385638286861678e+01,1.700000000000000122e-01
2.099931574000000190e+00,-1.082223048999999993e+00,4.237934559355862607e-01,1.000000000000000048e-04,4.202540378742221350e+01,1.100000000000000006e-01
8.155488279999999479e-01,-4.642700679999999802e-01,2.320675924628832210e-01,1.000000000000000048e-04,4.009692767540344960e+01,2.099999999999999922e-01
9.861636230000000447e-01,-6.881834650000000497e-01,1.754942137837971483e-01,1.000000000000000048e-04,3.965440192297511857e+01,1.300000000000000044e-01
1.864254864999999928e+00,-1.086684659999999969e+00,1.205147842830445182e-01,1.000000000000000048e-04,3.880038978806990002e+01,1.199999999999999956e-01
2.873066016000000111e+00,-9.753574739999999466e-01,3.198830255455760163e-01,1.000000000000000048e-04,4.112973413973103476e+01,1.300000000000000044e-01
2.270287562000000037e+00,-1.085086717999999895e+00,3.586922923336639535e-01,1.000000000000000048e-04,4.137676237079704578e+01,1.799999999999999933e-01
8.268071609999999572e-01,-4.587794940000000099e-01,7.290268878614512005e-01,1.000000000000000048e-04,4.335379487149126732e+01,1.199999999999999956e-01
-3.050869045179586347e+00,-7.648855789999999821e-01,2.372314402294311009e-01,1.000000000000000048e-04,4.048316782307446715e+01,1.199999999999999956e-01
1.101963728999999947e+00,-7.466317359999999903e-01,2.740094925818179483e-01,1.000000000000000048e-04,4.072583251045281116e+01,1.900000000000000022e-01
1.745116724000000064e+00,-1.056563783000000090e+00,6.866372440077836981e-01,1.000000000000000048e-04,4.296191650671589457e+01,1.300000000000000044e-01
7.889769570000000343e-01,-3.846565690000000037e-01,4.756117426532944226e-01,1.000000000000000048e-04,4.201073172145872547e+01,1.499999999999999944e-01
1.385818830999999918e+00,-9.278259679999999454e-01,1.289198097819363120e+00,1.000000000000000048e-04,4.476452119144862962e+01,1.499999999999999944e-01
1.138484923000000038e+00,-8.197145099999999518e-01,3.807964200643920716e-01,1.000000000000000048e-04,4.144302996191921551e+01,1.400000000000000133e-01
1.783410439000000069e+00,-1.080958507999999929e+00,2.847486393352196554e-01,1.000000000000000048e-04,4.076331273393356014e+01,1.400000000000000133e-01
2.617653461000000181e+00,-1.025884226000000066e+00,1.871945921051569872e-01,1.000000000000000048e-04,3.973967566180983368e+01,1.199999999999999956e-01
8.270197009999999960e-01,-4.157453939999999903e-01,4.122817294857743509e-01,1.000000000000000048e-04,4.168346978966901872e+01,1.199999999999999956e-01
3.128792493000000174e+00,-8.522697870000000009e-01,5.140642170141547229e-01,1.000000000000000048e-04,4.257038276783203656e+01,1.100000000000000006e-01
1.366158207000000013e+00,-9.614226009999999878e-01,1.264173749228810095e+00,1.000000000000000048e-04,4.463264778023905421e+01,1.100000000000000006e-01
2.846286316000000038e+00,-9.688357899999999745e-01,2.778053657967944901e-01,1.000000000000000048e-04,4.084439153403984335e+01,1.400000000000000133e-01
9.208216280000000031e-01,-6.185352929999999860e-01,5.464165736982782295e-01,1.000000000000000048e-04,4.227873789735620846e+01,1.499999999999999944e-01
7.622987450000000553e-01,-3.411912120000000215e-01,2.430837951683120224e-01,1.000000000000000048e-04,4.056866753292921146e+01,1.199999999999999956e-01
9.277931750000000255e-01,-5.813990460000000304e-01,2.612092538026500321e-01,1.000000000000000048e-04,4.052599806945858774e+01,2.099999999999999922e-01
1.010173165000000095e+00,-6.808591280000000356e-01,3.009016174275902511e-01,1.000000000000000048e-04,4.102777253173739069e+01,1.300000000000000044e-01
1.661181446000000062e+00,-1.029160687999999935e+00,2.210530464091207126e-01,1.000000000000000048e-04,4.022118288779116568e+01,1.400000000000000133e-01
2.089878704000000198e+00,-1.077863170999999953e+00,2.420892227031976596e-01,1.000000000000000048e-04,4.042647912100787266e+01,1.199999999999999956e-01
9.321550429999999610e-01,-6.212176799999999943e-01,2.944826309898598282e-01,1.000000000000000048e-04,4.092833836264982494e+01,1.199999999999999956e-01
2.944595597000000176e+00,-9.127602249999999806e-01,8.413333281866759439e-01,1.000000000000000048e-04,4.362339762945829591e+01,1.100000000000000006e-01
1.288081913999999939e+00,-9.113959929999999598e-01,3.464953141733262409e-01,1.000000000000000048e-04,4.131746679335283545e+01,1.300000000000000044e-01
1.398731861999999992e+00,-9.625033109999999725e-01,2.638246492084361794e-01,1.000000000000000048e-04,4.077426963573915231e+01,1.199999999999999956e-01
1.714165549000000066e+00,-1.043104095999999981e+00,6.818346294365471572e-01,1.000000000000000048e-04,4.313251688937278772e+01,1.199999999999999956e-01
1.014018395999999989e+00,-6.788913789999999615e-01,5.450959056677111558e-01,1.000000000000000048e-04,4.236124616357518136e+01,1.300000000000000044e-01
8.887761809999999985e-01,-5.541821719999999729e-01,6.106801771186713967e-01,1.000000000000000048e-04,4.274038343453302247e+01,1.300000000000000044e-01
1.026278256999999972e+00,-6.961882160000000264e-01,1.321077079793085307e+00,1.000000000000000048e-04,4.504462062363237607e+01,1.199999999999999956e-01
1.824970581999999952e+00,-1.080428363000000003e+00,1.500146718335508833e-01,1.000000000000000048e-04,3.922480510835968204e+01,1.199999999999999956e-01
1.839979185000000017e+00,-1.082878103999999952e+00,3.768419290654665410e-01,1.000000000000000048e-04,4.156006111666761882e+01,1.300000000000000044e-01
-3.070118813179586237e+00,-7.641942569999999879e-01,1.472238162983305898e-01,1.000000000000000048e-04,3.937052319666093325e+01,1.199999999999999956e-01
2.250776613000000204e+00,-1.110438553999999911e+00,3.636153036204066158e-01,1.000000000000000048e-04,4.156992995154372750e+01,1.199999999999999956e-01
2.613802471000000072e+00,-1.066258922999999914e+00,6.106625469639228587e-01,1.000000000000000048e-04,4.284611389039238105e+01,1.199999999999999956e-01
8.050150120000000298e-01,-4.193234060000000096e-01,6.021256163516708337e-01,1.000000000000000048e-04,4.287430887183354855e+01,1.499999999999999944e-01
2.809576177999999924e+00,-9.952447749999999704e-01,7.241009980733545959e-01,1.000000000000000048e-04,4.300302883505571572e+01,1.199999999999999956e-01
8.523447290000000232e-01,-4.773689010000000121e-01,4.978227810598438996e-01,1.000000000000000048e-04,4.232453252065986504e+01,2.000000000000000111e-01
2.975142320999999868e+00,-8.986192680000000266e-01,1.343356709246967373e+00,1.000000000000000048e-04,4.460244308347525788e+01,2.000000000000000111e-01
2.960578484000000010e+00,-9.174235720000000205e-01,6.823845112564346227e-01,1.000000000000000048e-04,4.309760148281941383e+01,1.400000000000000133e-01
1.589239559999999996e+00,-1.046132274999999945e+00,5.383160840338303554e-01,1.000000000000000048e-04,4.254951569612705242e+01,1.199999999999999956e-01
1.095136271999999966e+00,-7.909478989999999543e-01,3.303438102632796358e-01,1.000000000000000048e-04,4.121459363641621820e+01,1.300000000000000044e-01
3.045277111999999953e+00,-8.831592660000000539e-01,5.060104220427368293e-01,1.000000000000000048e-04,4.260317370067983944e+01,1.799999999999999933e-01
3.011317304999999944e+00,-8.969173430000000335e-01,5.346172065918737282e-01,1.000000000000000048e-04,4.259555035534501144e+01,1.499999999999999944e-01
1.946036051000000100e+00,-1.101857058000000000e+00,7.210126964933778471e-01,1.000000000000000048e-04,4.345850593564958331e+01,1.100000000000000006e-01
9.659444579999999503e-01,-6.400164339999999674e-01,4.545459189396285904e-01,1.000000000000000048e-04,4.176478233981078603e+01,1.199999999999999956e-01
1.142944595999999979e+00,-8.229314749999999679e-01,6.194234212930769257e-01,1.000000000000000048e-04,4.280429902176226875e+01,1.499999999999999944e-01
1.336859599999999926e+00,-9.462661719999999610e-01,7.427801097377479955e-01,1.000000000000000048e-04,4.303672097016543319e+01,1.900000000000000022e-01
2.386695267999999981e+00,-1.099692616000000012e+00,3.281772724624898441e-01,1.000000000000000048e-04,4.135156401175794372e+01,1.799999999999999933e-01
1.122946417999999946e+00,-7.871106610000000448e-01,8.195983832182489603e-01,1.000000000000000048e-04,4.363838214370642987e+01,1.499999999999999944e-01
1.038511049000000019e+00,-6.836743480000000428e-01,6.428240923070551727e-01,1.000000000000000048e-04,4.285095928339560345e+01,1.499999999999999944e-01
-1.865548755179585960e+00,5.988235499999999822e-01,5.561209010868297664e-01,1.000000000000000048e-04,4.225689916110857069e+01,3.599999999999999867e-01
-1.208774007179585830e+00,1.086301519000000049e+00,1.301487394846014389e+00,1.000000000000000048e-04,4.467258045356656027e+01,3.900000000000000133e-01
-1.451351928179586359e+00,1.047303024999999943e+00,5.176555841942227509e-01,1.000000000000000048e-04,4.208099851819299886e+01,3.900000000000000133e-01
-1.863787002179586594e+00,5.986409590000000280e-01,3.736008051497166083e-01,1.000000000000000048e-04,4.157631203336962500e+01,3.099999999999999978e-01
-2.367107747179586053e+00,3.570653329999999848e-01,2.932779010422328358e-01,1.000000000000000048e-04,4.118723387126438951e+01,3.300000000000000155e-01
3.110012692999999828e+00,-8.816387980000000013e-01,6.175050745124563978e-01,1.000000000000000048e-04,4.302482257649344177e+01,4.000000000000000222e-01
1.208427087000000011e+00,6.391205479999999550e-01,1.648268133926078516e-01,1.000000000000000048e-04,3.957635464872041098e+01,3.200000000000000067e-01
2.195568135999999893e+00,9.530612539999999688e-01,3.543986931416813757e-01,1.000000000000000048e-04,4.172741684449133004e+01,3.200000000000000067e-01
-1.746303855179585973e+00,7.561700099999999480e-01,4.446440517453504881e-01,1.000000000000000048e-04,4.191252189943509876e+01,3.599999999999999867e-01
-2.613733020179586308e+00,3.020363409999999860e-01,7.956577709077061744e-01,1.000000000000000048e-04,4.364529601437990891e+01,2.399999999999999911e-01
3.080075141000000016e+00,6.813462000000000129e-01,1.441975136107340738e-01,1.000000000000000048e-04,3.932808153613022029e+01,2.999999999999999889e-01
3.084152930000000126e+00,6.750201959999999612e-01,4.797699426141133205e-01,1.000000000000000048e-04,4.203126205058019593e+01,2.399999999999999911e-01
-2.831540824179586302e+00,-5.193198470000000011e-01,9.565454927581404920e-01,1.000000000000000048e-04,4.343598183417419278e+01,2.899999999999999800e-01
2.921667255000000019e+00,-9.403574120000000036e-01,5.161800363129083191e-01,1.000000000000000048e-04,4.249862066274699401e+01,2.899999999999999800e-01
2.610543199999999953e+00,9.294079060000000059e-01,6.167450654433428436e-01,1.000000000000000048e-04,4.284060010866478052e+01,2.899999999999999800e-01
2.614058957000000127e+00,9.310355519999999885e-01,2.190637653804237139e-01,1.000000000000000048e-04,4.050441030718101132e+01,3.699999999999999956e-01
-2.614313936179586406e+00,3.105085300000000048e-01,3.957512113423216071e-01,1.000000000000000048e-04,4.162619054842023303e+01,2.300000000000000100e-01
-2.614275993179586255e+00,3.084493819999999942e-01,8.603448174938321813e-01,1.000000000000000048e-04,4.377819419131344603e+01,2.000000000000000111e-01
3.080236718000000096e+00,6.852664600000000217e-01,3.524326461142017752e-01,1.000000000000000048e-04,4.166665191593187956e+01,3.800000000000000044e-01
3.085135451000000195e+00,6.840520260000000352e-01,4.334585829937074308e-01,1.000000000000000048e-04,4.198642112562039586e+01,2.300000000000000100e-01
-2.829361723179586452e+00,-5.190188390000000096e-01,3.047973300107684747e-01,1.000000000000000048e-04,4.084639431289115663e+01,3.900000000000000133e-01
-2.833706243179586082e+00,-5.260186759999999628e-01,3.100037097496906036e-01,1.000000000000000048e-04,4.109819434061292753e+01,2.200000000000000011e-01
1.286414458000000094e+00,-9.076167339999999806e-01,2.324873224491181833e-01,1.000000000000000048e-04,4.025041512055024384e+01,2.399999999999999911e-01
2.295144749999999956e+00,-1.095028292000000070e+00,4.452880028157837344e-01,1.000000000000000048e-04,4.200199523886323050e+01,2.000000000000000111e-01
2.312115046000000174e+00,-1.091482969000000081e+00,6.462559732938111257e-01,1.000000000000000048e-04,4.296883298191929157e+01,1.900000000000000022e-01
2.535381049000000164e+00,-1.063602453999999975e+00,1.695694687647988363e-01,1.000000000000000048e-04,3.938446082663291747e+01,2.600000000000000089e-01
2.549902755000000187e+00,-1.059649137999999935e+00,3.845934503311645436e-01,1.000000000000000048e-04,4.180879943218980799e+01,1.900000000000000022e-01
-2.980466121795863899e-01,1.081935794000000062e+00,4.054059948293358140e-01,1.000000000000000048e-04,4.173555645407019199e+01,1.000000000000000056e-01
-4.562223411795862660e-01,1.078420874000000085e+00,3.321890650220045149e-01,1.000000000000000048e-04,4.113162403948802393e+01,1.400000000000000133e-01
-4.727696341795866175e-01,1.076427226000000070e+00,1.013595387537732151e+00,1.000000000000000048e-04,4.412816911571503908e+01,1.900000000000000022e-01
-4.909850281795860028e-01,1.086050390999999893e+00,5.573577029432255081e-01,1.000000000000000048e-04,4.261288944411182200e+01,1.499999999999999944e-01
-1.809890014179586615e+00,8.554848849999999727e-01,1.699698201641222095e-01,1.000000000000000048e-04,3.961658608642772350e+01,1.900000000000000022e-01
-1.804843805179586091e+00,8.509932909999999850e-01,9.278408067689452032e-01,1.000000000000000048e-04,4.387202501909032293e+01,1.700000000000000122e-01
-1.798315402179586187e+00,8.389159160000000393e-01,2.975571679857906826e-01,1.000000000000000048e-04,4.067677431934648524e+01,1.100000000000000006e-01
-1.820018681179586650e+00,8.404092629999999620e-01,2.253821994449656252e-01,1.000000000000000048e-04,4.007806785668885396e+01,2.000000000000000111e-01
-2.435936564179586039e+00,3.767214549999999829e-01,1.369566038960756682e-01,1.000000000000000048e-04,3.930619469052744819e+01,1.700000000000000122e-01
-2.738532057179586143e+00,-4.670391260000000266e-01,8.661964916170346029e-01,1.000000000000000048e-04,4.383271349919469628e+01,1.100000000000000006e-01
-2.750126147179586145e+00,-4.750163370000000107e-01,5.791495137918241110e-01,1.000000000000000048e-04,4.260688957657691134e+01,1.700000000000000122e-01
6.777063359999999648e-01,-9.284162910000000046e-01,4.334304100974266660e-01,1.000000000000000048e-04,4.181119663622332894e+01,1.600000000000000033e-01
6.755664329999999662e-01,-9.242990760000000527e-01,2.981384553022825568e-01,1.000000000000000048e-04,4.127599988771763861e+01,2.200000000000000011e-01
1.666277256000000095e+00,1.035703752000000089e+00,4.111946154522019281e-01,1.000000000000000048e-04,4.163981973489565291e+01,2.800000000000000266e-01
1.679531192000000006e+00,1.034147155999999956e+00,3.990560416542943134e-01,1.000000000000000048e-04,4.159355310806964212e+01,2.099999999999999922e-01
1.669961188000000041e+00,1.045784459000000055e+00,1.714615873170768356e-01,1.000000000000000048e-04,3.952892562431500778e+01,2.899999999999999800e-01
1.666612017000000057e+00,1.035903760999999923e+00,2.053988878752612823e-01,1.000000000000000048e-04,4.023998709903867876e+01,1.400000000000000133e-01
1.676630470000000095e+00,1.049302589999999924e+00,4.322215134365177125e-01,1.000000000000000048e-04,4.176847999202217920e+01,1.600000000000000033e-01
1.678871634000000057e+00,1.037439988999999896e+00,4.229219415995679743e-01,1.000000000000000048e-04,4.221578073557030564e+01,2.099999999999999922e-01
-2.159653925179585876e+00,7.341517600000000421e-01,4.171949043733842455e-01,1.000000000000000048e-04,4.164420101167377908e+01,2.600000000000000089e-01
-2.155609593179586447e+00,7.327229189999999726e-01,4.385748506483830855e-01,1.000000000000000048e-04,4.166763348222117003e+01,1.400000000000000133e-01
2.989279821999999864e+00,-1.014333855000000062e+00,1.831519629492515122e-01,1.000000000000000048e-04,3.971172439953868150e+01,1.600000000000000033e-01
6.962963009999999509e-01,-9.242906640000000396e-01,2.497161988066645133e-01,1.000000000000000048e-04,4.049385405607080202e+01,2.000000000000000111e-01
6.831622830000000368e-01,-9.295060950000000322e-01,1.753741861896409571e-01,1.000000000000000048e-04,3.946291490258898449e+01,2.099999999999999922e-01
6.813526220000000189e-01,-9.196739680000000083e-01,2.247077366486720518e-01,1.000000000000000048e-04,4.019816023124217708e+01,1.700000000000000122e-01
1.667475545999999920e+00,1.039138789999999979e+00,4.623549136109290636e-01,1.000000000000000048e-04,4.201995738905410605e+01,1.499999999999999944e-01
1.669072946000000002e+00,1.039627206000000026e+00,2.044193768890945062e-01,1.000000000000000048e-04,3.972434617105427179e+01,1.700000000000000122e-01
2.992464221000000091e+00,-1.009427984000000000e+00,5.050982821431138081e-01,1.000000000000000048e-04,4.207293047184038670e+01,1.400000000000000133e-01
3.013377762000000182e+00,-1.015725085999999999e+00,5.312496049890436112e-01,1.000000000000000048e-04,4.254817672129252060e+01,1.499999999999999944e-01
6.857830799999999893e-01,-9.290922369999999875e-01,1.402252392044003315e-01,1.000000000000000048e-04,3.911386849660875242e+01,3.400000000000000244e-01
6.874880420000000214e-01,-9.251381180000000093e-01,1.418078204621882055e-01,1.000000000000000048e-04,3.889999628102236784e+01,1.700000000000000122e-01
1.659686511000000086e+00,1.040101345999999927e+00,5.983674451707108322e-01,1.000000000000000048e-04,4.290345722976697829e+01,1.400000000000000133e-01
1.692629780999999944e+00,1.043637506000000048e+00,1.805372529917332880e-01,1.000000000000000048e-04,3.965847749377225284e+01,1.799999999999999933e-01
1.682450028999999958e+00,1.049226146999999942e+00,4.493886543078688955e-01,1.000000000000000048e-04,4.231299897861626391e+01,1.900000000000000022e-01
1.675255906999999933e+00,1.048468626000000015e+00,5.122355731037528948e-01,1.000000000000000048e-04,4.244532879680004811e+01,1.499999999999999944e-01
1.692145135000000078e+00,1.039981480000000014e+00,2.483366472529000557e-01,1.000000000000000048e-04,4.024592691438872549e+01,1.700000000000000122e-01
-2.139768073179586061e+00,7.360294179999999908e-01,1.979324797768002853e-01,1.000000000000000048e-04,3.969405476941174982e+01,1.600000000000000033e-01
-2.138731675179585956e+00,7.369836659999999817e-01,2.606271195251390616e-01,1.000000000000000048e-04,4.070259470858206896e+01,1.499999999999999944e-01
6.888283630000000546e-01,-9.193630990000000169e-01,4.856786716442980101e-01,1.000000000000000048e-04,4.220387739067570010e+01,1.700000000000000122e-01
6.776433490000000059e-01,-9.225326109999999469e-01,2.855785029273434361e-01,1.000000000000000048e-04,4.091837053906433397e+01,1.600000000000000033e-01
6.820513620000000499e-01,-9.162569579999999547e-01,2.314092410614043693e-01,1.000000000000000048e-04,4.035493262564936146e+01,2.899999999999999800e-01
6.832637360000000104e-01,-9.208365670000000502e-01,2.645786610227289781e-01,1.000000000000000048e-04,4.061873088270039034e+01,1.400000000000000133e-01
1.683256381999999940e+00,1.050427892999999946e+00,1.233011917484775122e+00,1.000000000000000048e-04,4.459803614530947868e+01,1.499999999999999944e-01
2.987248335999999949e+00,-1.011507587000000097e+00,8.279437537232376965e-01,1.000000000000000048e-04,4.379590980292218916e+01,1.900000000000000022e-01
2.994879214000000012e+00,-1.020537374999999969e+00,2.542001880414399562e-01,1.000000000000000048e-04,4.046069103822691915e+01,2.500000000000000000e-01
2.997056848999999801e+00,-1.020797841000000039e+00,4.748268338765271324e-01,1.000000000000000048e-04,4.203062989276760675e+01,1.499999999999999944e-01
6.981827720000000070e-01,-9.201470600000000166e-01,2.894202635521534450e-01,1.000000000000000048e-04,4.071876392939114453e+01,2.099999999999999922e-01
1.675679171999999939e+00,1.042232051000000048e+00,4.312111538515062126e-01,1.000000000000000048e-04,4.213614020979533592e+01,1.900000000000000022e-01
1.682732345000000018e+00,1.051774148000000020e+00,5.393625024020589631e-01,1.000000000000000048e-04,4.246510922383954068e+01,2.099999999999999922e-01
1.655763980999999996e+00,1.041789395999999979e+00,5.685548376921889524e-01,1.000000000000000048e-04,4.298810258540524387e+01,2.099999999999999922e-01
1.658505131999999938e+00,1.042043577999999915e+00,4.094106001586670374e-01,1.000000000000000048e-04,4.185322580473641807e+01,1.499999999999999944e-01
1.679931540999999973e+00,1.044700675999999939e+00,4.084891035420894490e-01,1.000000000000000048e-04,4.187827416085688981e+01,1.400000000000000133e-01
1.681131209999999987e+00,1.046558263000000100e+00,4.172967250355501534e-01,1.000000000000000048e-04,4.208824996290739762e+01,3.800000000000000044e-01
-2.147380102179586636e+00,7.248191320000000326e-01,1.542664702847558189e-01,1.000000000000000048e-04,3.929902459147707106e+01,2.200000000000000011e-01
-2.137481690179586558e+00,7.386978770000000027e-01,7.182834230381294205e-01,1.000000000000000048e-04,4.343112741868390714e+01,1.499999999999999944e-01
3.007533192999999994e+00,-1.006434849999999992e+00,5.799243030031031587e-01,1.000000000000000048e-04,4.296537133943947140e+01,1.700000000000000122e-01
6.766177190000000063e-01,-9.309161569999999664e-01,4.838114801263690978e-01,1.000000000000000048e-04,4.218648679604707752e+01,1.700000000000000122e-01
6.879719020000000240e-01,-9.170357009999999809e-01,8.539301436337169982e-01,1.000000000000000048e-04,4.375224876868296775e+01,2.600000000000000089e-01
6.868192690000000100e-01,-9.190749710000000183e-01,6.916172271242306824e-01,1.000000000000000048e-04,4.262199933892470227e+01,2.800000000000000266e-01
1.680927606000000019e+00,1.043199457999999913e+00,1.834303865651321086e-01,1.000000000000000048e-04,3.983326669593932934e+01,1.799999999999999933e-01
1.680733408999999901e+00,1.046110547000000057e+00,1.203874536854013133e+00,1.000000000000000048e-04,4.451987142330435177e+01,1.499999999999999944e-01
3.003205794999999956e+00,-1.007960921000000010e+00,4.919997010195551468e-01,1.000000000000000048e-04,4.221553416753133092e+01,2.200000000000000011e-01
3.013387552999999830e+00,-1.018013843000000085e+00,1.977281026626316329e-01,1.000000000000000048e-04,3.975516697387995890e+01,2.000000000000000111e-01
2.991633154000000072e+00,-1.018575491000000000e+00,8.360694476133421205e-01,1.000000000000000048e-04,4.336278164719010420e+01,1.600000000000000033e-01
6.810583510000000063e-01,-9.216344210000000370e-01,1.263238149898970875e-01,1.000000000000000048e-04,3.876853143415937808e+01,1.600000000000000033e-01
1.670069762000000013e+00,1.048284639000000018e+00,5.791562370607745702e-01,1.000000000000000048e-04,4.273352352059340120e+01,2.099999999999999922e-01
1.699713636000000028e+00,1.040243690999999915e+00,2.096016326133109953e-01,1.000000000000000048e-04,4.033714118540196125e+01,2.899999999999999800e-01
1.686195045999999920e+00,1.048540513999999924e+00,1.833710942343194095e-01,1.000000000000000048e-04,3.956298750991056323e+01,1.400000000000000133e-01
1.667162669999999958e+00,1.044746053999999980e+00,1.509150944036892206e-01,1.000000000000000048e-04,3.917021990088417027e+01,2.700000000000000178e-01
1.689467040999999892e+00,1.036330184999999959e+00,3.840348461195655094e-01,1.000000000000000048e-04,4.157051370912898847e+01,1.300000000000000044e-01
1.683799076999999977e+00,1.043385784000000038e+00,6.030474871076931809e-01,1.000000000000000048e-04,4.281302244112919908e+01,1.700000000000000122e-01
-2.151455832179586025e+00,7.398983139999999459e-01,7.355115657590223233e-01,1.000000000000000048e-04,4.303605378176293073e+01,2.500000000000000000e-01
-2.141944958179585967e+00,7.302793560000000461e-01,3.486432332767055442e-01,1.000000000000000048e-04,4.131587889896441368e+01,1.400000000000000133e-01
3.012489310999999947e+00,-1.019874449000000016e+00,5.660146024852814595e-01,1.000000000000000048e-04,4.278275638191230001e+01,1.900000000000000022e-01
6.824463880000000149e-01,-9.193269539999999740e-01,1.375786291740985767e-01,1.000000000000000048e-04,3.910972845136475229e+01,1.600000000000000033e-01
6.933168330000000212e-01,-9.307474239999999899e-01,2.028070698108233039e-01,1.000000000000000048e-04,3.972338481692630552e+01,1.600000000000000033e-01
7.005346909999999871e-01,-9.247541049999999929e-01,2.164556075368719856e-01,1.000000000000000048e-04,3.987146737195703849e+01,2.700000000000000178e-01
1.674988617999999985e+00,1.042237757999999959e+00,6.762666754707189476e-01,1.000000000000000048e-04,4.284192892379758177e+01,1.499999999999999944e-01
1.672026148000000045e+00,1.039374368000000048e+00,1.316449276859510409e+00,1.000000000000000048e-04,4.467862786466895386e+01,1.600000000000000033e-01
2.993618983999999816e+00,-1.008517228000000099e+00,6.334275560505873148e-01,1.000000000000000048e-04,4.297788918520625145e+01,1.700000000000000122e-01
2.992837709999999873e+00,-1.014889098000000045e+00,1.276296437559490293e+00,1.000000000000000048e-04,4.496883216146449058e+01,2.800000000000000266e-01
2.980621672999999916e+00,-1.012535224000000067e+00,6.582522374523547271e-01,1.000000000000000048e-04,4.310385551622714218e+01,1.499999999999999944e-01
3.118379398000000080e+00,-1.044341935000000055e+00,6.574763990834819882e-01,1.000000000000000048e-04,4.277602204505369343e+01,3.099999999999999978e-01
3.132904315000000217e+00,-1.046896950999999909e+00,4.363046993365051751e-01,1.000000000000000048e-04,4.169249077838411210e+01,2.200000000000000011e-01
1.248659997999999938e+00,-1.117162079000000086e+00,4.505891899473124518e-01,1.000000000000000048e-04,4.208525181345392241e+01,2.700000000000000178e-01
2.302446713000000145e+00,-1.091359299000000060e+00,6.235466399545706029e-01,1.000000000000000048e-04,4.326377852326513107e+01,2.899999999999999800e-01
3.133486173000000097e+00,-1.061461677999999909e+00,1.627328080093823903e-01,1.000000000000000048e-04,3.925643699349674165e+01,3.099999999999999978e-01
1.251013366000000016e+00,-1.102704651999999896e+00,3.044920227752558883e-01,1.000000000000000048e-04,4.117536941136278728e+01,2.300000000000000100e-01
1.232341668999999973e+00,-1.105349812000000043e+00,9.555850626777171453e-01,1.000000000000000048e-04,4.413292128566195771e+01,2.200000000000000011e-01
2.330538756999999794e+00,-1.086213730999999960e+00,1.068277129209499687e+00,1.000000000000000048e-04,4.414492584463400959e+01,2.300000000000000100e-01
3.104372880000000112e+00,-1.050765708999999992e+00,2.630765961548757748e-01,1.000000000000000048e-04,4.072071381644978061e+01,2.200000000000000011e-01
3.122794933000000217e+00,-1.050942575000000101e+00,3.838409529866677605e-01,1.000000000000000048e-04,4.149475819395222942e+01,2.099999999999999922e-01
3.135928428000000157e+00,-1.044986675000000087e+00,3.832828372956504914e-01,1.000000000000000048e-04,4.153942077634702201e+01,2.300000000000000100e-01
3.135701593999999925e+00,-1.049448040999999998e+00,7.024297467433677777e-01,1.000000000000000048e-04,4.274237036737118700e+01,2.399999999999999911e-01
2.902190216000000156e+00,-1.054666754000000095e+00,8.708024141972756649e-01,1.000000000000000048e-04,4.350912412915239713e+01,2.099999999999999922e-01
1.219278212000000083e+00,-1.102494101000000004e+00,9.345281423316373903e-01,1.000000000000000048e-04,4.391518809894678554e+01,2.399999999999999911e-01
2.314258420999999899e+00,-1.073777474999999981e+00,1.889944073461591323e-01,1.000000000000000048e-04,3.934002735404703088e+01,2.399999999999999911e-01
3.138600745000000192e+00,-1.056209613999999908e+00,1.221549829454371405e+00,1.000000000000000048e-04,4.406867342192478532e+01,2.800000000000000266e-01
2.873014373000000177e+00,-1.047336534999999902e+00,1.353426476515311450e-01,1.000000000000000048e-04,3.889762884490868089e+01,2.000000000000000111e-01
2.890150627000000139e+00,-1.045368942999999939e+00,2.452888200855052325e-01,1.000000000000000048e-04,4.058191916001297983e+01,2.200000000000000011e-01
-3.136513490179586139e+00,-1.038988312000000080e+00,2.793114462942685172e-01,1.000000000000000048e-04,4.081835760877856245e+01,2.800000000000000266e-01
3.120369102000000172e+00,-1.042910143999999928e+00,1.926093239998754036e-01,1.000000000000000048e-04,4.039647674366251806e+01,2.399999999999999911e-01
3.132773262000000170e+00,-1.048570620000000009e+00,2.342837866389722024e-01,1.000000000000000048e-04,4.043849671193329698e+01,2.300000000000000100e-01
3.132934141999999866e+00,-1.046888051000000042e+00,2.379467637264480739e-01,1.000000000000000048e-04,4.036607051458413054e+01,2.200000000000000011e-01
3.134455274000000014e+00,-1.046257098000000108e+00,1.598046964376562684e-01,1.000000000000000048e-04,3.970170139805610887e+01,2.200000000000000011e-01
2.910504301000000016e+00,-1.063930792999999930e+00,8.044309035432721799e-01,1.000000000000000048e-04,4.354061910527709500e+01,2.399999999999999911e-01
2.301930878999999930e+00,-1.084305269999999988e+00,7.177015013141287980e-01,1.000000000000000048e-04,4.291439638318034611e+01,3.099999999999999978e-01
2.314913878000000036e+00,-1.104421796000000011e+00,2.092674623637063025e-01,1.000000000000000048e-04,4.007032610728743549e+01,2.600000000000000089e-01
1.232494258000000009e+00,-1.089556776000000005e+00,3.549764700701194542e-01,1.000000000000000048e-04,4.147461427751718333e+01,3.099999999999999978e-01
-3.138875270179586341e+00,-1.027091259999999950e+00,3.405005253051711644e-01,1.000000000000000048e-04,4.210335960310550973e+01,3.800000000000000044e-01
1.277748142000000087e+00,-1.105660628999999950e+00,2.845869632812816352e-01,1.000000000000000048e-04,4.089744496479473668e+01,2.500000000000000000e-01
2.339694710999999927e+00,-1.083680948999999893e+00,2.045405593411935286e-01,1.000000000000000048e-04,3.997219479451202773e+01,2.300000000000000100e-01
3.085408954000000037e+00,-1.045989441999999991e+00,4.304176875364518207e-01,1.000000000000000048e-04,4.183238545998203506e+01,2.800000000000000266e-01
3.122183823999999941e+00,-1.053540683000000033e+00,2.265237807485307453e-01,1.000000000000000048e-04,4.030827901226290066e+01,3.699999999999999956e-01
1.263417701000000060e+00,-1.099941301000000093e+00,5.231219980083736676e-01,1.000000000000000048e-04,4.298067955617182179e+01,2.200000000000000011e-01
1.238769020999999970e+00,-1.122513239999999968e+00,5.522314932954903721e-01,1.000000000000000048e-04,4.252795198562341739e+01,2.600000000000000089e-01
1.225778744000000087e+00,-1.107856694000000086e+00,3.875205436696718131e-01,1.000000000000000048e-04,4.146643142193790510e+01,2.500000000000000000e-01
2.356185176999999964e+00,-1.090954028000000076e+00,7.067046281275282116e-01,1.000000000000000048e-04,4.271186152336991881e+01,2.700000000000000178e-01
1.231078855000000027e+00,-1.109460918999999990e+00,6.198753526784881451e-01,1.000000000000000048e-04,4.320053982808273219e+01,2.300000000000000100e-01
2.350025410999999842e+00,-1.078254897999999962e+00,2.117289193892801791e-01,1.000000000000000048e-04,4.000713722273020068e+01,2.300000000000000100e-01
2.889344674999999807e+00,-1.054064458000000037e+00,1.280214580478178377e+00,1.000000000000000048e-04,4.503492800586205647e+01,3.200000000000000067e-01
1.260972444000000081e+00,-1.102168519999999985e+00,8.254179869062754360e-01,1.000000000000000048e-04,4.362865927474675232e+01,2.899999999999999800e-01
3.138597202000000141e+00,-1.049455424000000026e+00,3.042654473434172058e-01,1.000000000000000048e-04,4.071469243409362093e+01,2.600000000000000089e-01
1.280173519000000093e+00,-1.106045986000000036e+00,6.653116266405465495e-01,1.000000000000000048e-04,4.326377896713135129e+01,2.899999999999999800e-01
3.140421104000000074e+00,-1.048273016000000002e+00,1.239429498097794902e-01,1.000000000000000048e-04,3.858769102016275809e+01,2.700000000000000178e-01
2.887571490000000018e+00,-1.060290981000000077e+00,1.392220674545132653e-01,1.000000000000000048e-04,3.895120576093214737e+01,2.300000000000000100e-01
3.117377486000000086e+00,-1.048849812999999909e+00,8.923490984424671257e-01,1.000000000000000048e-04,4.419162511637266277e+01,2.800000000000000266e-01
3.139331405000000075e+00,-1.045946368000000071e+00,2.366097860702076616e-01,1.000000000000000048e-04,4.049167248301488087e+01,2.300000000000000100e-01
2.901812189000000153e+00,-1.070407117000000019e+00,1.043929622188367823e+00,1.000000000000000048e-04,4.435005255413631176e+01,2.200000000000000011e-01
2.874698792999999863e+00,-1.069280417999999955e+00,5.321804770696385578e-01,1.000000000000000048e-04,4.190359900376881086e+01,2.200000000000000011e-01
3.126790450000000110e+00,-1.053686536000000062e+00,3.063730484882336569e-01,1.000000000000000048e-04,4.107510823673352007e+01,2.099999999999999922e-01
1.253234667999999941e+00,-1.096167120000000050e+00,3.193768084338055591e-01,1.000000000000000048e-04,4.121854838167274693e+01,2.200000000000000011e-01
1.242189800000000011e+00,-1.095888138000000067e+00,7.282492390309296404e-01,1.000000000000000048e-04,4.348601393018965666e+01,2.899999999999999800e-01
2.358704259000000025e+00,-1.096119858000000002e+00,2.131964331719724548e-01,1.000000000000000048e-04,3.983595271891234546e+01,2.099999999999999922e-01
3.090657074000000115e+00,-1.046905049999999893e+00,3.729717081943966228e-01,1.000000000000000048e-04,4.168328372723092201e+01,2.300000000000000100e-01
2.350320292999999783e+00,-1.077642637000000070e+00,5.468423553164865059e-01,1.000000000000000048e-04,4.213690568748835119e+01,3.300000000000000155e-01
3.120911620999999858e+00,-1.047605429999999949e+00,3.699470783479361646e-01,1.000000000000000048e-04,4.175875806871232498e+01,2.899999999999999800e-01
2.310418793000000193e+00,-1.091478047999999923e+00,4.513625279754771569e-01,1.000000000000000048e-04,4.199202217746842791e+01,3.300000000000000155e-01
2.888242410000000149e+00,-1.055260810999999910e+00,5.721569250988665090e-01,1.000000000000000048e-04,4.301918871181827342e+01,2.999999999999999889e-01
2.313880778000000138e+00,-1.089056457000000089e+00,1.199374030144694903e+00,1.000000000000000048e-04,4.468856058092009675e+01,2.600000000000000089e-01
3.096505394999999883e+00,-1.050897790999999915e+00,3.495710109356011674e-01,1.000000000000000048e-04,4.150929667959814395e+01,3.300000000000000155e-01
1.264206060000000020e+00,-1.108314516000000083e+00,4.941924275978206715e-01,1.000000000000000048e-04,4.226111107218765284e+01,2.500000000000000000e-01
2.317080779999999951e+00,-1.080569537999999996e+00,3.786987878951322273e-01,1.000000000000000048e-04,4.162364586733158234e+01,2.399999999999999911e-01
2.308161032000000112e+00,-1.080284865999999955e+00,8.061208789607223757e-01,1.000000000000000048e-04,4.341420813144355861e+01,3.900000000000000133e-01
1.213089824000000094e+00,-1.095999417000000031e+00,6.984971134036972451e-01,1.000000000000000048e-04,4.357731269788484241e+01,2.700000000000000178e-01
3.095344697999999894e+00,-1.044259242999999948e+00,3.629590280967303073e-01,1.000000000000000048e-04,4.153035979161133184e+01,2.200000000000000011e-01
3.093500166000000107e+00,-1.047656949999999920e+00,1.317204803548426284e-01,1.000000000000000048e-04,3.898394044297409522e+01,2.300000000000000100e-01
2.871266652000000086e+00,-1.064917746999999970e+00,3.219315208250199678e-01,1.000000000000000048e-04,4.109309968285420922e+01,2.500000000000000000e-01
2.872879009000000039e+00,-1.076645507999999918e+00,4.207955810149990317e-01,1.000000000000000048e-04,4.207901766924726417e+01,2.099999999999999922e-01
1.241294699000000001e+00,-1.109043570000000090e+00,4.574579469392248132e-01,1.000000000000000048e-04,4.220136432181714525e+01,2.099999999999999922e-01
1.238788393000000099e+00,-1.083197141000000085e+00,1.591187358277985631e-01,1.000000000000000048e-04,3.991595739901416096e+01,2.999999999999999889e-01
-3.140928712179586135e+00,-1.049943351000000025e+00,7.481280024807277496e-01,1.000000000000000048e-04,4.351869211770998902e+01,2.200000000000000011e-01
2.897074545000000168e+00,-1.050668165000000043e+00,4.691785832627326513e-01,1.000000000000000048e-04,4.234781602633304942e+01,2.099999999999999922e-01
3.133488720999999977e+00,-1.053899826000000095e+00,1.706680409859744341e-01,1.000000000000000048e-04,3.950974957066700455e+01,2.300000000000000100e-01
2.854965548000000020e+00,-1.051119023000000041e+00,1.518776147524447673e-01,1.000000000000000048e-04,3.896036840264059720e+01,3.200000000000000067e-01
2.846666281000000076e+00,-1.061494909000000098e+00,4.553715349577429627e-01,1.000000000000000048e-04,4.229151548506615654e+01,2.600000000000000089e-01
1.477625364000000108e+00,-9.892628350000000070e-01,3.529800316201929800e-01,1.000000000000000048e-04,4.135661386337952905e+01,2.000000000000000111e-01
-2.998301261179586064e+00,-5.567642400000000213e-01,6.568912675418037139e-01,1.000000000000000048e-04,4.290535207805303486e+01,1.799999999999999933e-01
2.915910107000000195e+00,-9.248875840000000403e-01,2.466616781218635701e-01,1.000000000000000048e-04,4.081986440072723354e+01,2.999999999999999889e-01
2.904218159000000021e+00,-9.279150130000000107e-01,8.499173268061410713e-01,1.000000000000000048e-04,4.407497687599855851e+01,2.399999999999999911e-01
2.945746643000000109e+00,-9.241091030000000428e-01,1.501019677651154183e-01,1.000000000000000048e-04,3.921954415641661029e+01,2.300000000000000100e-01
2.195221751000000054e+00,9.567984520000000215e-01,9.619358707104406214e-01,1.000000000000000048e-04,4.376541171990159995e+01,2.200000000000000011e-01
-2.382074272179586227e+00,-9.504311730000000180e-01,8.140171266763760460e-01,1.000000000000000048e-04,4.351037665337573657e+01,2.300000000000000100e-01
2.197803225999999999e+00,9.560313849999999558e-01,2.400090702567774237e-01,1.000000000000000048e-04,4.056602147537181935e+01,2.300000000000000100e-01
-2.380846050179586282e+00,-9.512843520000000552e-01,1.291649291641154829e-01,1.000000000000000048e-04,3.914251496855631984e+01,2.600000000000000089e-01
-2.382960995179586039e+00,-9.501026420000000527e-01,2.089201540718512717e-01,1.000000000000000048e-04,4.017332517831244587e+01,2.099999999999999922e-01
2.192165822000000208e+00,9.554729659999999791e-01,1.859262044533143143e-01,1.000000000000000048e-04,4.002615500481775968e+01,2.899999999999999800e-01
-2.383512939179586176e+00,-9.505219620000000535e-01,1.645610136485551322e-01,1.000000000000000048e-04,3.926117854321772427e+01,2.000000000000000111e-01
2.197044292000000176e+00,9.582492320000000063e-01,5.992956338388801818e-01,1.000000000000000048e-04,4.243757560692512243e+01,2.500000000000000000e-01
2.198013217999999824e+00,9.570721989999999568e-01,1.318205814730846193e-01,1.000000000000000048e-04,3.880083654764350598e+01,2.099999999999999922e-01
2.198391541999999976e+00,9.561199929999999458e-01,2.720174352400250850e-01,1.000000000000000048e-04,4.069661252289684938e+01,2.300000000000000100e-01
2.199218732999999926e+00,9.570277640000000030e-01,7.343545654838696812e-01,1.000000000000000048e-04,4.347185694357584396e+01,2.200000000000000011e-01
2.196667974999999995e+00,9.569524729999999701e-01,2.302475286096845597e-01,1.000000000000000048e-04,4.069568310578193149e+01,2.399999999999999911e-01
2.196400267000000017e+00,9.571105250000000453e-01,1.880289819607090518e-01,1.000000000000000048e-04,3.991826601984105594e+01,2.500000000000000000e-01
2.195980999000000100e+00,9.563170869999999546e-01,9.009015603417671603e-01,1.000000000000000048e-04,4.407337520530943209e+01,2.200000000000000011e-01
2.198886345000000020e+00,9.574225640000000315e-01,3.783255629348787341e-01,1.000000000000000048e-04,4.165610337593604129e+01,3.300000000000000155e-01
-2.382942164179586264e+00,-9.487821469999999646e-01,7.661083104452492964e-01,1.000000000000000048e-04,4.326038265610240785e+01,2.000000000000000111e-01
2.197058621000000045e+00,9.568337070000000333e-01,1.498281081783230384e-01,1.000000000000000048e-04,3.906313790519627815e+01,2.600000000000000089e-01
2.196754174000000059e+00,9.569828230000000380e-01,1.227386240104917814e+00,1.000000000000000048e-04,4.446777451116430058e+01,2.399999999999999911e-01
-2.381905888179586039e+00,-9.494029419999999719e-01,9.443658784373905046e-01,1.000000000000000048e-04,4.364524742271908764e+01,2.399999999999999911e-01
-2.382353656179586388e+00,-9.501919130000000546e-01,1.807907292465453786e-01,1.000000000000000048e-04,3.950797820306566877e+01,2.600000000000000089e-01
-2.385313647179586383e+00,-9.492824659999999914e-01,2.974911461773732668e-01,1.000000000000000048e-04,4.094976030896344099e+01,2.399999999999999911e-01
-2.383308463179586223e+00,-9.502672559999999491e-01,6.112048753926953015e-01,1.000000000000000048e-04,4.300201653801175183e+01,2.000000000000000111e-01
2.194446376000000143e+00,9.548028840000000184e-01,4.427468784876813501e-01,1.000000000000000048e-04,4.205739104140617712e+01,3.699999999999999956e-01
-2.377678389179586294e+00,-9.493284189999999789e-01,2.006281741572626398e-01,1.000000000000000048e-04,3.993040266628552359e+01,3.099999999999999978e-01
2.195048706000000127e+00,9.553664520000000326e-01,1.756488742532535952e-01,1.000000000000000048e-04,3.946700751151526987e+01,2.399999999999999911e-01
2.194988459000000169e+00,9.569281090000000267e-01,2.615879106650083052e-01,1.000000000000000048e-04,4.038604272244834448e+01,2.099999999999999922e-01
2.198773670000000013e+00,9.585742720000000050e-01,6.170036847453590489e-01,1.000000000000000048e-04,4.219443608061489215e+01,2.800000000000000266e-01
2.196007632000000154e+00,9.574002940000000406e-01,1.280454121780825183e-01,1.000000000000000048e-04,3.915173373367139931e+01,2.800000000000000266e-01
2.193610842000000005e+00,9.569156829999999614e-01,6.094075391358058091e-01,1.000000000000000048e-04,4.324609000956565552e+01,2.099999999999999922e-01
2.194846306000000080e+00,9.574700699999999509e-01,3.741434474188636283e-01,1.000000000000000048e-04,4.175957767819874533e+01,2.300000000000000100e-01
-2.901318991795864832e-01,1.086903570000000041e+00,4.703767173735591278e-01,1.000000000000000048e-04,4.214891719858594143e+01,2.000000000000000111e-01
-2.914486071795865385e-01,1.085909494999999891e+00,1.177483660836401214e+00,1.000000000000000048e-04,4.464201895856204771e+01,1.000000000000000056e-01
-2.954610881795858290e-01,1.084462065999999947e+00,5.303095398120203363e-01,1.000000000000000048e-04,4.230773711082863286e+01,1.199999999999999956e-01
-3.403197011795864313e-01,1.090760651000000081e+00,1.212865623556282912e-01,1.000000000000000048e-04,3.873647209914140888e+01,8.999999999999999667e-02
-3.429455761795860980e-01,1.087892671000000089e+00,8.941667273599229748e-01,1.000000000000000048e-04,4.380598826343719310e+01,1.400000000000000133e-01
6.896152909999999636e-01,-9.249195220000000495e-01,6.223959375802687877e-01,1.000000000000000048e-04,4.281401384310002101e+01,2.000000000000000111e-01
1.024453132999999960e+00,1.182715689999999986e+00,5.282451876105418442e-01,1.000000000000000048e-04,4.254869894582689938e+01,1.900000000000000022e-01
1.006083177000000051e+00,1.165244638999999971e+00,4.823749290875809503e-01,1.000000000000000048e-04,4.212169517962789911e+01,1.700000000000000122e-01
9.905969959999999519e-01,1.153001898999999941e+00,9.106166400257504900e-01,1.000000000000000048e-04,4.369701407235926638e+01,3.499999999999999778e-01
2.950804928999999799e+00,-1.010655210999999998e+00,4.076244640459454338e-01,1.000000000000000048e-04,4.202481736418484104e+01,1.700000000000000122e-01
2.951637304000000128e+00,-1.010683065999999908e+00,2.658734378561036227e-01,1.000000000000000048e-04,4.065631227567236294e+01,1.900000000000000022e-01
-2.349248843179586377e+00,-9.322901449999999590e-01,9.245485354296427705e-01,1.000000000000000048e-04,4.399139097288373534e+01,1.900000000000000022e-01
