-1.598279621179586663e+00,2.779993629999999993e-01,2.821851559278978350e-01,1.000000000000000048e-04,4.073733423918493202e+01,1.700000000000000122e-01
-8.306753881795865269e-01,5.048130450000000158e-01,8.971104262737779056e-01,1.000000000000000048e-04,4.360823366682360813e+01,1.600000000000000033e-01
-1.512887194179586281e+00,3.571169940000000209e-01,8.323823351461825393e-01,1.000000000000000048e-04,4.368770269550326191e+01,1.600000000000000033e-01
-2.094054222179586588e+00,-9.657747650000000350e-01,4.709884498818812659e-01,1.000000000000000048e-04,4.195101872380229935e+01,1.600000000000000033e-01
-1.256550916179586252e+00,-1.037146153999999987e+00,2.941607193760220618e-01,1.000000000000000048e-04,4.069473855935789430e+01,1.900000000000000022e-01
-2.638489419179586015e+00,-8.917870300000000361e-01,1.477765512460491593e-01,1.000000000000000048e-04,3.925650432512203025e+01,1.600000000000000033e-01
-1.710562538179586589e+00,-1.402302595000000096e+00,5.326603931874276388e-01,1.000000000000000048e-04,4.200896261574568058e+01,2.000000000000000111e-01
-2.771840681795865180e-01,-1.115655276000000029e+00,2.040241077595033037e-01,1.000000000000000048e-04,3.999658105132994734e+01,1.700000000000000122e-01
-1.608432286179586335e+00,-6.514894359999999773e-01,2.843700140072580318e-01,1.000000000000000048e-04,4.049919811591318819e+01,1.600000000000000033e-01
-1.490451089179586575e+00,-3.201959389999999850e-01,1.730022106223574330e-01,1.000000000000000048e-04,3.934624457150317767e+01,1.700000000000000122e-01
-1.995144670179586299e+00,-1.040863893000000040e+00,7.768292647149599439e-02,1.000000000000000048e-04,3.801992466799171666e+01,1.799999999999999933e-01
3.095686500000000008e-02,-1.139960520999999893e+00,1.814297748841839919e-01,1.000000000000000048e-04,3.991430603045639458e+01,1.700000000000000122e-01
-2.211919791795864398e-01,-6.717550429999999961e-01,2.278660821940485803e-01,1.000000000000000048e-04,4.062640900100159769e+01,2.200000000000000011e-01
-8.294029241795861651e-01,6.699244909999999553e-01,1.297158849143007497e+00,1.000000000000000048e-04,4.493701326847455135e+01,1.799999999999999933e-01
-4.765590681795863759e-01,-7.328014390000000544e-01,2.001331160701180778e-01,1.000000000000000048e-04,3.988363413913687339e+01,1.600000000000000033e-01
-1.123871723179585835e+00,1.275958498999999913e+00,5.927388167353944137e-01,1.000000000000000048e-04,4.254733028354694824e+01,1.900000000000000022e-01
-5.094723721795864080e-01,-7.371415260000000469e-01,8.628338928399141849e-01,1.000000000000000048e-04,4.375623020808907171e+01,1.600000000000000033e-01
6.571342580000000266e-01,4.949370419999999937e-01,5.937745712658308861e-01,1.000000000000000048e-04,4.270531397286282527e+01,1.700000000000000122e-01
-1.010588552179585875e+00,4.063959939999999826e-01,2.193583958640981102e-01,1.000000000000000048e-04,4.028338256396843775e+01,1.400000000000000133e-01
-5.300352171795861267e-01,-4.198024320000000031e-01,1.719047561278737035e-01,1.000000000000000048e-04,3.964739094248930229e+01,1.499999999999999944e-01
-3.959305511795863097e-01,-4.514385590000000170e-01,4.582950078013607875e-01,1.000000000000000048e-04,4.199016417789204780e+01,1.600000000000000033e-01
-1.302326638179586382e+00,4.891699640000000127e-01,5.542721121473153101e-01,1.000000000000000048e-04,4.260747726676978431e+01,8.999999999999999667e-02
-8.169037861795862554e-01,4.857709299999999897e-01,2.613311797933395297e-01,1.000000000000000048e-04,4.058904285058640937e+01,1.000000000000000056e-01
-1.156602994179586119e+00,7.039336720000000103e-01,1.865538694802273412e-01,1.000000000000000048e-04,3.945221146290898417e+01,1.100000000000000006e-01
2.500120207999999788e+00,-3.403989430000000094e-01,5.169820241320877141e-01,1.000000000000000048e-04,4.232002805887379537e+01,1.100000000000000006e-01
2.397122115999999803e+00,-8.283729720000000407e-01,2.725417781453340904e-01,1.000000000000000048e-04,4.079465884552845978e+01,1.700000000000000122e-01
-4.391142381795862804e-01,9.199097720000000145e-01,1.353703517441256388e+00,1.000000000000000048e-04,4.481752827181830412e+01,2.200000000000000011e-01
-1.356814123179586495e+00,1.335301293999999972e+00,1.069220234723131657e-01,1.000000000000000048e-04,3.830029134410566627e+01,2.600000000000000089e-01
2.612804049999999823e+00,3.003891830000000041e-01,4.399653748345377924e-01,1.000000000000000048e-04,4.205910639375831295e+01,1.700000000000000122e-01
-1.192441121179586005e+00,1.100105410000000061e+00,4.737886294837518886e-01,1.000000000000000048e-04,4.206471104851365084e+01,1.799999999999999933e-01
-3.012917491179586182e+00,1.485957493999999990e+00,2.459366500753163987e-01,1.000000000000000048e-04,4.083246457973432086e+01,2.200000000000000011e-01
-7.329138461795858817e-01,1.044356909000000000e+00,1.997617298981824163e-01,1.000000000000000048e-04,3.987468072108407569e+01,1.700000000000000122e-01
1.024371087000000013e+00,-9.607604419999999923e-01,6.756535446030342840e-02,1.000000000000000048e-04,3.795344063708166971e+01,1.600000000000000033e-01
2.960998206000000188e+00,-8.548671270000000044e-01,4.478186870124589714e-01,1.000000000000000048e-04,4.222973193767673905e+01,1.900000000000000022e-01
-3.017579355179586198e+00,-3.780387199999999948e-01,1.193600841197899332e-01,1.000000000000000048e-04,3.910194054673819153e+01,2.399999999999999911e-01
-2.268575282179586594e+00,6.921453520000000470e-01,3.652626958406837154e-01,1.000000000000000048e-04,4.142637178180810054e+01,3.699999999999999956e-01
2.478186394000000181e+00,5.281495040000000474e-01,2.507377154646828199e-01,1.000000000000000048e-04,4.063025345218161988e+01,2.399999999999999911e-01
7.532392530000000530e-01,9.936355940000000109e-01,5.674104065198850577e-01,1.000000000000000048e-04,4.245947863337946870e+01,1.600000000000000033e-01
1.941716173999999961e+00,9.578325640000000529e-01,1.086447402535748452e-01,1.000000000000000048e-04,3.881894398631323639e+01,3.800000000000000044e-01
2.041827891000000061e+00,-8.953703119999999460e-01,1.901201436373416431e-01,1.000000000000000048e-04,3.980431164549146672e+01,1.700000000000000122e-01
2.521229080999999983e+00,-8.544186950000000058e-01,3.305289469626162546e-01,1.000000000000000048e-04,4.126938070687433679e+01,2.000000000000000111e-01
2.745955969000000163e+00,3.136627880000000257e-01,3.464811522692432533e-01,1.000000000000000048e-04,4.145214827130629232e+01,2.099999999999999922e-01
1.738295793999999894e+00,1.134430556000000090e+00,5.228313247380538265e-01,1.000000000000000048e-04,4.236938911394553742e+01,1.799999999999999933e-01
-8.687814521795864664e-01,6.221710379999999541e-01,8.713399378931296901e-02,1.000000000000000048e-04,3.761083422454944980e+01,3.499999999999999778e-01
-1.857013858179586308e+00,3.937075449999999921e-01,5.761467634825210293e-01,1.000000000000000048e-04,4.276990900797679984e+01,2.999999999999999889e-01
-2.894431473179586156e+00,2.701405689999999971e-01,2.245331435087980498e-01,1.000000000000000048e-04,4.063675184591097178e+01,2.300000000000000100e-01
2.213600608000000136e+00,-5.295933369999999973e-01,8.647183185910654046e-01,1.000000000000000048e-04,4.333316898308112286e+01,2.500000000000000000e-01
9.327636729999999599e-01,4.069681829999999834e-01,4.172442222227894515e-01,1.000000000000000048e-04,4.207239572008911210e+01,2.300000000000000100e-01
1.743234563999999986e+00,7.359057650000000450e-01,8.765449796640956137e-02,1.000000000000000048e-04,3.823836271324363167e+01,2.200000000000000011e-01
-2.812965047179586175e+00,5.929882829999999494e-01,4.175963271186824421e-01,1.000000000000000048e-04,4.172218194928806412e+01,2.399999999999999911e-01
-2.977583888179586413e+00,-1.437144969999999966e-01,3.089269196438557685e-01,1.000000000000000048e-04,4.115249932293827584e+01,2.700000000000000178e-01
2.276564226000000080e+00,-5.051809499999999620e-01,4.409885817967720278e-01,1.000000000000000048e-04,4.190225402750797201e+01,2.800000000000000266e-01
2.667465888000000174e+00,-6.260506340000000502e-01,9.781856718047743371e-01,1.000000000000000048e-04,4.376010138163633911e+01,2.600000000000000089e-01
1.041358068000000081e+00,8.506585119999999778e-01,9.714873566602633126e-02,1.000000000000000048e-04,3.844473088331307764e+01,2.300000000000000100e-01
2.499030525999999863e+00,-9.629979760000000333e-01,7.020333422599622786e-02,1.000000000000000048e-04,3.776684402002445751e+01,3.099999999999999978e-01
1.334501084000000004e+00,-7.340646360000000481e-01,8.767118120075731991e-01,1.000000000000000048e-04,4.388652784179824096e+01,2.300000000000000100e-01
2.196979751999999841e+00,-5.334639439999999677e-01,3.051382401394062693e-01,1.000000000000000048e-04,4.066529088060341479e+01,2.500000000000000000e-01
1.355624495999999901e+00,4.654212710000000253e-01,5.996224265622549510e-01,1.000000000000000048e-04,4.297857565216751397e+01,2.200000000000000011e-01
1.445572062999999963e+00,-8.838676049999999451e-01,3.056988419510908717e-01,1.000000000000000048e-04,4.152056023100268334e+01,3.499999999999999778e-01
7.246286520000000397e-01,-7.843460709999999780e-01,3.062154758506847596e-01,1.000000000000000048e-04,4.075638015987666307e+01,3.099999999999999978e-01
2.179180484000000195e+00,1.312341798999999920e+00,3.417629201221321633e-01,1.000000000000000048e-04,4.141193044574949766e+01,2.200000000000000011e-01
7.669035910000000511e-01,2.329377750000000136e-01,3.679505055417728876e-01,1.000000000000000048e-04,4.194839964073995020e+01,2.500000000000000000e-01
2.984436029999999906e+00,4.410184999999999800e-01,5.430778000484921542e-01,1.000000000000000048e-04,4.226447851320477866e+01,2.999999999999999889e-01
1.808380389999999949e+00,-5.931087419999999666e-01,9.897158140326638431e-01,1.000000000000000048e-04,4.417685381642787945e+01,2.200000000000000011e-01
2.378694356000000010e+00,6.891218140000000547e-01,7.915976179903743137e-01,1.000000000000000048e-04,4.351576501146243459e+01,3.099999999999999978e-01
-1.027171309179585990e+00,8.938185499999999895e-01,3.956542951067003600e-01,1.000000000000000048e-04,4.131858496285730098e+01,3.099999999999999978e-01
2.177629786999999872e+00,1.088514723000000073e+00,1.648524578041483668e-01,1.000000000000000048e-04,3.951911480684467648e+01,2.500000000000000000e-01
2.446904437000000154e+00,4.505237189999999892e-01,7.292599060805935451e-01,1.000000000000000048e-04,4.307532478292704781e+01,2.700000000000000178e-01
-2.745075452179586151e+00,5.290477460000000409e-01,7.712961224335395105e-01,1.000000000000000048e-04,4.344277114500070525e+01,1.600000000000000033e-01
3.470126559999999749e-01,6.971221490000000243e-01,3.028422485944182174e-01,1.000000000000000048e-04,4.129351602464747373e+01,2.399999999999999911e-01
-2.027672372179586624e+00,-3.494576850000000179e-01,2.434082240268791164e-01,1.000000000000000048e-04,4.034618538163270784e+01,8.999999999999999667e-02
-2.243457714179585949e+00,5.735296930000000071e-01,2.019279265641447108e-01,1.000000000000000048e-04,3.979120613805062590e+01,8.000000000000000167e-02
-1.741234469179586242e+00,8.281857209999999858e-01,5.080420780177488105e-01,1.000000000000000048e-04,4.222629127707773478e+01,1.000000000000000056e-01
-1.661352162179586145e+00,7.473004210000000480e-01,7.418569711776654696e-01,1.000000000000000048e-04,4.330667893968571036e+01,1.100000000000000006e-01
-1.046494641179585905e+00,9.839422859999999993e-01,2.086114307043938076e-01,1.000000000000000048e-04,3.990472448345209244e+01,1.600000000000000033e-01
-1.357076630179586019e+00,8.591991679999999576e-01,2.096631006856675139e-01,1.000000000000000048e-04,3.980463623046465926e+01,1.300000000000000044e-01
-1.489161381179585852e+00,8.733460579999999807e-01,3.901124197128176263e-01,1.000000000000000048e-04,4.162291890551094298e+01,8.999999999999999667e-02
2.602874990000000111e+00,9.865781270000000269e-01,7.081032142709082766e-01,1.000000000000000048e-04,4.316101125492394175e+01,2.099999999999999922e-01
6.278667869999999818e-01,1.201237362999999947e+00,3.672078822923772190e-01,1.000000000000000048e-04,4.158273855612094394e+01,1.799999999999999933e-01
1.901542252999999905e+00,5.984822429999999693e-01,1.014213503184004495e+00,1.000000000000000048e-04,4.426609724759966724e+01,1.700000000000000122e-01
9.102462569999999475e-01,3.833152009999999943e-01,8.634881920566250812e-02,1.000000000000000048e-04,3.773923046160803096e+01,2.200000000000000011e-01
4.621894529999999723e-01,4.355896570000000190e-01,9.446620931906759555e-01,1.000000000000000048e-04,4.430417294503256898e+01,2.399999999999999911e-01
1.731299603999999936e+00,-9.087058740000000245e-01,1.135334297260512937e+00,1.000000000000000048e-04,4.444198551161409227e+01,2.200000000000000011e-01
2.307708166999999921e+00,-3.555306579999999994e-01,7.650370434067756964e-01,1.000000000000000048e-04,4.334004178499520776e+01,1.700000000000000122e-01
2.284880370000000216e+00,-4.942566800000000038e-01,2.608034293136218817e-01,1.000000000000000048e-04,4.064061924166806961e+01,2.200000000000000011e-01
-2.729734007179586364e+00,-4.808223520000000084e-01,6.744751392815537816e-01,1.000000000000000048e-04,4.294910103980856064e+01,2.300000000000000100e-01
-2.728058296179586062e+00,8.181749999999999856e-01,2.870520310342703496e-01,1.000000000000000048e-04,4.099483123892677838e+01,2.200000000000000011e-01
1.539636916000000078e+00,-6.652033799999999830e-02,6.123504671983031056e-01,1.000000000000000048e-04,4.258082909604357980e+01,2.999999999999999889e-01
2.937620158000000092e+00,7.383732379999999873e-01,2.784712388618193479e-01,1.000000000000000048e-04,4.092391845826603713e+01,2.200000000000000011e-01
2.624384770999999894e+00,8.339422930000000012e-01,8.339281929266828541e-01,1.000000000000000048e-04,4.341460436569273895e+01,1.799999999999999933e-01
-2.594453966179586235e+00,1.052220571999999965e+00,1.281619459311851283e-01,1.000000000000000048e-04,3.896403459505580003e+01,1.900000000000000022e-01
-2.462277587179586114e+00,1.356652656000000068e+00,8.841822370417817822e-02,1.000000000000000048e-04,3.744478194222237732e+01,2.099999999999999922e-01
2.730654787000000194e+00,8.741146779999999783e-01,1.110420895657944218e-01,1.000000000000000048e-04,3.851378052153039988e+01,1.900000000000000022e-01
1.629450376000000089e+00,2.068732899999999875e-01,2.002064131060252716e-01,1.000000000000000048e-04,4.000992987652111310e+01,2.899999999999999800e-01
1.142160569999999958e-01,6.858846720000000285e-01,9.421082821784954042e-01,1.000000000000000048e-04,4.381267490892349770e+01,1.799999999999999933e-01
-4.383495451795864639e-01,9.198101690000000108e-01,3.222679595166999533e-01,1.000000000000000048e-04,4.142928957354891395e+01,2.600000000000000089e-01
1.001193188000000012e+00,8.013430529999999719e-01,3.068511701210816511e-01,1.000000000000000048e-04,4.073748751196423967e+01,1.799999999999999933e-01
-8.746654461795859703e-01,7.515327899999999506e-01,2.668482045445221829e-01,1.000000000000000048e-04,4.056788921729631170e+01,2.600000000000000089e-01
1.319662558000000097e+00,1.070340469999999933e-01,3.860958599403840896e-01,1.000000000000000048e-04,4.167926485296371908e+01,2.399999999999999911e-01
1.726021762000000015e+00,-6.377623550000000030e-01,5.327860850641865653e-01,1.000000000000000048e-04,4.252570780782544091e+01,2.600000000000000089e-01
-2.754219137179586330e+00,-9.277945709999999568e-01,5.915436829263283069e-01,1.000000000000000048e-04,4.230126118090042553e+01,3.699999999999999956e-01
1.691977534999999921e+00,1.434503057999999998e+00,7.215746748237186203e-01,1.000000000000000048e-04,4.315585940489648209e+01,2.099999999999999922e-01
8.272144390000000236e-01,-4.428667319999999852e-01,2.084694203038486293e-01,1.000000000000000048e-04,3.994574750260660778e+01,2.300000000000000100e-01
-2.185785446179585811e+00,4.040310730000000183e-01,7.557730285091377453e-01,1.000000000000000048e-04,4.347157136159563606e+01,1.799999999999999933e-01
2.680919170000000129e+00,5.929394510000000063e-01,3.562358297964911547e-01,1.000000000000000048e-04,4.138841288349857450e+01,1.799999999999999933e-01
2.468528393999999793e+00,-3.885411739999999892e-01,7.603798836070474465e-01,1.000000000000000048e-04,4.338083890805030762e+01,1.700000000000000122e-01
1.824819092000000031e+00,-9.187566499999999525e-01,3.221741614470465809e-01,1.000000000000000048e-04,4.109388543460102028e+01,2.099999999999999922e-01
2.252174823999999909e+00,-3.842870769999999769e-01,7.790716053896526994e-01,1.000000000000000048e-04,4.322921172554521263e+01,2.000000000000000111e-01
2.889947965000000174e+00,3.184077100000000105e-01,1.697633150455883921e-01,1.000000000000000048e-04,3.970352611564386791e+01,2.000000000000000111e-01
-2.666621499179586241e+00,1.790417820000000104e-01,1.156767031204511298e+00,1.000000000000000048e-04,4.435784676524904313e+01,1.900000000000000022e-01
2.353249148999999818e+00,9.653535600000000549e-01,8.674473464396521560e-01,1.000000000000000048e-04,4.369959044320316366e+01,1.799999999999999933e-01
1.765869402999999949e+00,9.288119630000000182e-01,1.626655615178826952e-01,1.000000000000000048e-04,3.951041877382824197e+01,3.599999999999999867e-01
2.011122450999999867e+00,-1.257182417000000108e+00,4.414109382652924296e-01,1.000000000000000048e-04,4.213073459347092609e+01,1.799999999999999933e-01
1.931340567999999980e+00,-5.991437729999999906e-01,1.164446521655277955e-01,1.000000000000000048e-04,3.904602268021073286e+01,2.000000000000000111e-01
2.835991935000000019e+00,-7.109363199999999550e-01,1.517533048006192153e-01,1.000000000000000048e-04,3.941864981623673714e+01,1.900000000000000022e-01
-2.852520529179586095e+00,8.667541789999999580e-01,4.883268142282692903e-01,1.000000000000000048e-04,4.241226769923253670e+01,1.799999999999999933e-01
-2.458251249179586040e+00,-2.796002539999999925e-01,2.639879144915411313e-01,1.000000000000000048e-04,4.030747290616771039e+01,3.300000000000000155e-01
1.596378985000000084e+00,5.944120290000000084e-01,2.086957929884896146e-01,1.000000000000000048e-04,4.019055904998868556e+01,1.900000000000000022e-01
-2.484014184179586415e+00,8.016642189999999557e-01,7.660548571491305747e-01,1.000000000000000048e-04,4.351722973692677954e+01,1.900000000000000022e-01
-2.431723812179586108e+00,1.223750555999999934e+00,1.095433323083856436e-01,1.000000000000000048e-04,3.834189323725311027e+01,1.700000000000000122e-01
-2.378598255179586118e+00,1.197731727999999940e+00,4.747162520651004858e-01,1.000000000000000048e-04,4.207450400869688423e+01,1.900000000000000022e-01
1.739429998000000088e+00,2.494783479999999887e-01,2.128285390680781930e-01,1.000000000000000048e-04,4.029299150210079006e+01,3.099999999999999978e-01
-2.377494960179586059e+00,9.562939099999999693e-01,9.059714565043166523e-01,1.000000000000000048e-04,4.369260334220604136e+01,1.799999999999999933e-01
-9.021677017958662503e-02,6.959221140000000361e-01,9.151606440299842049e-02,1.000000000000000048e-04,3.829570175721662650e+01,3.499999999999999778e-01
2.021336933000000169e+00,8.510789659999999923e-01,3.541675182564540947e-01,1.000000000000000048e-04,4.196258973844867768e+01,2.800000000000000266e-01
2.573899695999999793e+00,-5.247218830000000001e-01,9.527888371911865661e-01,1.000000000000000048e-04,4.412160746093901054e+01,1.700000000000000122e-01
2.346925623000000183e+00,-7.496726200000000118e-01,1.656770564341012442e-01,1.000000000000000048e-04,4.008156855800258000e+01,1.700000000000000122e-01
2.487812089999999809e+00,-1.095252646999999913e+00,4.149420956635607727e-01,1.000000000000000048e-04,4.183240123003277233e+01,1.600000000000000033e-01
2.543651012999999850e+00,-2.555195920000000176e-01,5.154378970840169938e-01,1.000000000000000048e-04,4.217077051257675890e+01,1.900000000000000022e-01
2.457771880000000131e+00,-4.383329890000000062e-01,3.838376829134553248e-01,1.000000000000000048e-04,4.171496766354102448e+01,1.700000000000000122e-01
-2.749033603179586116e+00,5.277091179999999770e-01,1.614217836529536765e-01,1.000000000000000048e-04,3.964808306129526727e+01,1.799999999999999933e-01
-3.021446786179586397e+00,6.716344440000000526e-01,1.753518700576344180e-01,1.000000000000000048e-04,3.954123188236673769e+01,1.799999999999999933e-01
2.390319493999999878e+00,1.427533710000000067e+00,2.698273099220225291e-01,1.000000000000000048e-04,4.059249605432614771e+01,1.799999999999999933e-01
-2.060955814179585843e+00,9.020563839999999889e-01,4.437275830952407407e-01,1.000000000000000048e-04,4.213746282336017401e+01,1.799999999999999933e-01
-1.552222439179586466e+00,1.270289940999999923e+00,6.246737498443848402e-01,1.000000000000000048e-04,4.281217900796054465e+01,1.600000000000000033e-01
2.491619029000000207e+00,8.136863199999999630e-01,2.838718300674178963e-01,1.000000000000000048e-04,4.099995450781093353e+01,1.900000000000000022e-01
2.336721559999999975e+00,1.049041915000000103e+00,3.123648884806680126e-01,1.000000000000000048e-04,4.108307041064522025e+01,1.700000000000000122e-01
1.201678150000000000e+00,3.331923239999999842e-01,6.863102376551430961e-01,1.000000000000000048e-04,4.318328539830166335e+01,1.900000000000000022e-01
-3.811893421795859993e-01,1.284308205000000092e+00,6.800538087652912012e-01,1.000000000000000048e-04,4.328294396798750654e+01,2.000000000000000111e-01
5.879284790000000038e-01,8.245620540000000442e-01,3.193343598065425670e-01,1.000000000000000048e-04,4.102630939863325210e+01,1.700000000000000122e-01
-3.584264691795864266e-01,1.112498557000000110e+00,7.591416873938992005e-01,1.000000000000000048e-04,4.327577299359291629e+01,2.000000000000000111e-01
-1.085925731795862603e-01,9.806715139999999664e-01,4.771400912153875851e-01,1.000000000000000048e-04,4.211686117149930197e+01,1.799999999999999933e-01
1.189812670000000017e+00,8.219376269999999485e-01,1.120897651200709610e-01,1.000000000000000048e-04,3.839369604479237807e+01,1.700000000000000122e-01
2.896526737999999934e+00,1.048685354999999930e+00,4.233856080083107098e-01,1.000000000000000048e-04,4.189719403766926575e+01,1.700000000000000122e-01
1.187793541000000008e+00,1.533334508000000040e+00,6.525995813736777951e-01,1.000000000000000048e-04,4.324127679368069721e+01,1.700000000000000122e-01
8.784667550000000436e-01,-5.840451829999999678e-01,8.468609420656822984e-01,1.000000000000000048e-04,4.367070342517242665e+01,2.099999999999999922e-01
-2.025603206179586557e+00,1.419180792999999996e+00,1.966555712089814723e-01,1.000000000000000048e-04,4.014801543460782085e+01,1.799999999999999933e-01
1.097118803000000087e+00,1.428367445999999985e+00,3.427950401285142501e-01,1.000000000000000048e-04,4.097748484692927207e+01,1.799999999999999933e-01
-1.923054671795858539e-01,8.268694330000000425e-01,2.683192566982148808e-01,1.000000000000000048e-04,4.057266448214994625e+01,2.000000000000000111e-01
1.974446608000000047e+00,-1.250497374000000050e+00,4.712785159399119905e-01,1.000000000000000048e-04,4.189470120166880207e+01,2.000000000000000111e-01
1.714471547999999901e+00,-4.841846819999999774e-01,4.725013410168061867e-01,1.000000000000000048e-04,4.201727468200419935e+01,1.700000000000000122e-01
1.635209042000000057e+00,-1.499680316999999929e+00,8.749425398611476723e-02,1.000000000000000048e-04,3.811505340857022617e+01,1.900000000000000022e-01
-3.085878636179586021e+00,-8.156760069999999807e-01,4.305143383094740539e-01,1.000000000000000048e-04,4.165813236239463180e+01,1.799999999999999933e-01
1.583648911999999909e+00,-4.051170720000000225e-01,3.343499094971937868e-01,1.000000000000000048e-04,4.111803104069581138e+01,1.700000000000000122e-01
3.116144028999999982e+00,-6.233618589999999626e-01,9.314460478179169556e-01,1.000000000000000048e-04,4.375174738318232670e+01,2.000000000000000111e-01
2.580853791000000008e+00,2.126606490000000071e-01,5.137477457241597101e-01,1.000000000000000048e-04,4.255685531578281200e+01,2.200000000000000011e-01
2.791070910999999821e+00,-3.375241600000000036e-02,7.241104019069568576e-01,1.000000000000000048e-04,4.374115872484026113e+01,2.999999999999999889e-01
2.126664376999999995e+00,-4.630033630000000011e-01,8.072888651457550413e-01,1.000000000000000048e-04,4.348869818160331135e+01,1.799999999999999933e-01
1.264160699999999915e+00,6.289837299999999631e-01,3.439962779455256747e-01,1.000000000000000048e-04,4.134534308320524332e+01,1.900000000000000022e-01
2.608192676999999904e+00,3.485897410000000085e-01,8.009373253706382201e-01,1.000000000000000048e-04,4.340207836822083465e+01,2.200000000000000011e-01
9.029304540000000490e-01,-5.888661819999999603e-01,3.223210755597993860e-01,1.000000000000000048e-04,4.126941921422054094e+01,1.700000000000000122e-01
2.675488564000000125e+00,-1.029758079000000048e+00,1.544925331087310116e-01,1.000000000000000048e-04,3.946753937501150489e+01,1.700000000000000122e-01
9.979371630000000160e-01,-7.076351440000000492e-01,3.790996854724499876e-01,1.000000000000000048e-04,4.158582278051835601e+01,2.000000000000000111e-01
2.816578843999999915e+00,-6.539336449999999523e-01,3.139864860689631776e-01,1.000000000000000048e-04,4.089271511827255523e+01,1.799999999999999933e-01
-2.809922836179586270e+00,-1.219770695000000016e+00,2.498129764974215128e-01,1.000000000000000048e-04,4.053759507805838780e+01,1.900000000000000022e-01
2.816545334000000178e+00,5.529564630000000092e-01,6.991136695522592870e-01,1.000000000000000048e-04,4.300472184406717702e+01,1.700000000000000122e-01
2.293480610000000031e+00,1.430186356999999964e+00,1.322145851593701682e+00,1.000000000000000048e-04,4.486650085052986725e+01,1.700000000000000122e-01
1.900048696999999898e+00,-6.695785770000000081e-01,7.104794387110506815e-01,1.000000000000000048e-04,4.338327257275282989e+01,1.900000000000000022e-01
2.402973735999999860e+00,-4.293495210000000117e-01,2.942580959246405836e-01,1.000000000000000048e-04,4.090078064223048671e+01,2.200000000000000011e-01
3.123677135999999965e+00,5.597831170000000522e-01,2.509668540999514530e-01,1.000000000000000048e-04,4.051254505293685781e+01,1.700000000000000122e-01
1.945616433999999950e+00,5.533621010000000506e-01,1.617016097683363629e-01,1.000000000000000048e-04,3.933317762443552823e+01,1.700000000000000122e-01
-2.603733431795864917e-01,9.574212720000000454e-01,1.958842308354309392e-01,1.000000000000000048e-04,3.959600274260411368e+01,3.800000000000000044e-01
-1.216980031795857897e-01,3.678993019999999836e-01,4.540455587052585340e-01,1.000000000000000048e-04,4.206710886216708190e+01,1.900000000000000022e-01
2.921580513999999962e+00,4.108407450000000072e-01,9.617092824524120509e-02,1.000000000000000048e-04,3.781012116058423800e+01,1.900000000000000022e-01
-2.362072097179586105e+00,1.187667234999999932e+00,2.629268279487493309e-01,1.000000000000000048e-04,4.070500843817482917e+01,1.900000000000000022e-01
-2.337569846179586186e+00,3.756736769999999837e-01,4.796326125249792405e-01,1.000000000000000048e-04,4.210488814002863478e+01,1.700000000000000122e-01
-1.563533060179586265e+00,8.298117619999999528e-01,7.502892521376061108e-01,1.000000000000000048e-04,4.348495984604814879e+01,3.300000000000000155e-01
-7.514201781795861734e-01,8.148208550000000105e-01,5.583201623013624992e-01,1.000000000000000048e-04,4.252298070874500269e+01,2.099999999999999922e-01
-2.172991007179586376e+00,1.278564443000000050e+00,2.470380221072479010e-01,1.000000000000000048e-04,4.082823642145052645e+01,2.000000000000000111e-01
1.004972830999999900e+00,3.284388160000000223e-01,4.773182402540812053e-01,1.000000000000000048e-04,4.194331535045352410e+01,1.799999999999999933e-01
-1.050913719179586536e+00,7.925907810000000220e-01,1.328162910073114489e+00,1.000000000000000048e-04,4.486111755391886646e+01,2.899999999999999800e-01
1.174967896000000067e+00,-7.032179160000000540e-01,2.373316590818197458e-01,1.000000000000000048e-04,4.048078487565344830e+01,1.799999999999999933e-01
2.063754460999999818e+00,1.158898511999999936e+00,3.302075438687301912e-01,1.000000000000000048e-04,4.128488113995574338e+01,1.799999999999999933e-01
1.355273345999999934e+00,1.034050206000000083e+00,3.365202092680086299e-01,1.000000000000000048e-04,4.144660057726148494e+01,1.700000000000000122e-01
1.878516419999999965e+00,-5.891517790000000421e-01,7.967461905102073416e-01,1.000000000000000048e-04,4.336621866693995031e+01,1.799999999999999933e-01
3.042909537999999969e+00,4.914006550000000195e-01,1.288168249299864510e+00,1.000000000000000048e-04,4.467176210438494621e+01,1.700000000000000122e-01
-2.192876876179585821e+00,7.571444160000000423e-01,1.664009146776816994e-01,1.000000000000000048e-04,3.958212259645827658e+01,2.099999999999999922e-01
-1.274335216179586006e+00,7.393028099999999769e-01,3.499725476018122894e-01,1.000000000000000048e-04,4.095432050132034618e+01,3.599999999999999867e-01
3.513372269999999742e-01,1.023017258000000096e+00,1.666093827523031923e-01,1.000000000000000048e-04,3.953403359607393242e+01,1.799999999999999933e-01
-2.045215730179585911e+00,1.346705497999999945e+00,3.189915685889563868e-01,1.000000000000000048e-04,4.128267228207727868e+01,1.799999999999999933e-01
2.622131355000000053e+00,-2.378520580000000051e-01,5.837274062509540951e-01,1.000000000000000048e-04,4.295428500478519851e+01,2.099999999999999922e-01
1.499565373000000035e+00,-5.833961840000000398e-01,1.672255471081189881e-01,1.000000000000000048e-04,3.948674046865600928e+01,1.199999999999999956e-01
9.453780529999999960e-01,-3.014802610000000271e-01,7.486560910076740516e-01,1.000000000000000048e-04,4.338928142691740675e+01,1.799999999999999933e-01
1.003030738000000088e+00,-6.679498139999999751e-01,1.714925312791888423e-01,1.000000000000000048e-04,3.956263919975445731e+01,1.799999999999999933e-01
-2.858957567179586157e+00,-2.878047879999999781e-01,6.207826533313067774e-01,1.000000000000000048e-04,4.292956203217554645e+01,1.300000000000000044e-01
-2.653655062179586022e+00,5.464710109999999510e-01,6.798535996904806478e-01,1.000000000000000048e-04,4.296811285658155555e+01,1.300000000000000044e-01
-1.077960778179586576e+00,1.305029642999999906e+00,3.111592148181820949e-01,1.000000000000000048e-04,4.086418812030385084e+01,1.100000000000000006e-01
2.996279555000000094e+00,-9.792432829999999644e-01,1.120670988842769056e-01,1.000000000000000048e-04,3.857734179382701001e+01,1.600000000000000033e-01
1.369802210000000131e-01,9.686457469999999459e-01,1.958722960344143615e-01,1.000000000000000048e-04,3.984256198486531986e+01,1.000000000000000056e-01
-7.405109531795863731e-01,5.344760480000000369e-01,3.266830143123393704e-01,1.000000000000000048e-04,4.105938747432179525e+01,1.900000000000000022e-01
-1.986221938179586033e+00,3.858849830000000147e-01,1.378085204093462135e-01,1.000000000000000048e-04,3.931345369501425324e+01,2.600000000000000089e-01
-1.660796187179585992e+00,1.337702168000000080e+00,3.245190389099215089e-01,1.000000000000000048e-04,4.114059917787523801e+01,1.300000000000000044e-01
-1.008319883179586540e+00,9.035811799999999838e-01,7.472428652472753452e-01,1.000000000000000048e-04,4.335423342436344996e+01,1.799999999999999933e-01
-2.859227719179586291e+00,-3.383984709999999785e-01,2.221976415260236148e-01,1.000000000000000048e-04,4.025050675812850187e+01,1.799999999999999933e-01
-3.008470453179586279e+00,-9.028608339999999455e-01,4.562627527122899984e-01,1.000000000000000048e-04,4.193613144929145164e+01,1.300000000000000044e-01
2.720373041999999852e+00,-1.026937239000000002e+00,2.099434199344432095e-01,1.000000000000000048e-04,4.023405121563606457e+01,1.100000000000000006e-01
1.131806215999999976e+00,-1.312634394000000038e+00,1.651370109930467844e-01,1.000000000000000048e-04,3.964924573189056645e+01,1.199999999999999956e-01
2.377785852000000144e+00,-1.071983155000000076e+00,9.478629253114223552e-02,1.000000000000000048e-04,3.826022778995238127e+01,1.000000000000000056e-01
1.262497049000000038e+00,-7.576738640000000302e-01,8.956175019032073248e-01,1.000000000000000048e-04,4.395068068411806195e+01,1.900000000000000022e-01
-2.150308364179585929e+00,9.473204419999999848e-01,2.252662556473148392e-01,1.000000000000000048e-04,4.038770592479445298e+01,1.499999999999999944e-01
-2.672281993179586035e+00,8.065802300000000091e-01,5.939075771892088351e-01,1.000000000000000048e-04,4.249443455264191982e+01,1.400000000000000133e-01
-2.768228307179586345e+00,1.501965110000000048e-01,7.082351746421688965e-01,1.000000000000000048e-04,4.346740241951383865e+01,1.300000000000000044e-01
2.456608391000000058e+00,-6.815239560000000418e-01,5.190007395240390231e-01,1.000000000000000048e-04,4.219472722010490884e+01,2.899999999999999800e-01
-1.538735822179586599e+00,7.895792169999999999e-01,1.990004885300671322e-01,1.000000000000000048e-04,3.997192022091019226e+01,1.600000000000000033e-01
-6.811844061795859773e-01,-7.989239399999999991e-01,1.262091045060980132e-01,1.000000000000000048e-04,3.861278147426931895e+01,2.300000000000000100e-01
-9.881069141795864041e-01,9.266642769999999807e-01,4.289174410827252260e-01,1.000000000000000048e-04,4.133248381275907235e+01,2.500000000000000000e-01
9.533575850000000074e-01,-5.868324440000000086e-01,2.168586905613771876e-01,1.000000000000000048e-04,4.019636038993062499e+01,1.199999999999999956e-01
1.194530383000000029e+00,-8.514353350000000153e-01,7.123664395029802865e-01,1.000000000000000048e-04,4.322816431133848170e+01,1.100000000000000006e-01
-1.550854682179585886e+00,1.341867675000000037e+00,5.177141007914765058e-01,1.000000000000000048e-04,4.225498951714757112e+01,3.599999999999999867e-01
2.328991532999999947e+00,-1.085498080000000032e+00,3.443996296242866073e-01,1.000000000000000048e-04,4.137634721479088995e+01,1.199999999999999956e-01
3.099662444999999877e+00,-8.173274409999999879e-01,5.939613354134041234e-01,1.000000000000000048e-04,4.287029554169711076e+01,1.300000000000000044e-01
1.008677688999999988e+00,-7.224949280000000362e-01,5.876388053005892065e-01,1.000000000000000048e-04,4.279678690068364943e+01,1.199999999999999956e-01
1.116317643999999998e+00,-8.188746820000000204e-01,3.038785766433571567e-01,1.000000000000000048e-04,4.081471361844707957e+01,1.499999999999999944e-01
1.368634144999999913e+00,-9.746537960000000167e-01,3.698713510330831067e-01,1.000000000000000048e-04,4.168335849094629708e+01,2.200000000000000011e-01
1.284766933000000000e+00,-9.049604909999999780e-01,3.782687532692070587e-01,1.000000000000000048e-04,4.147565696282797632e+01,1.300000000000000044e-01
2.840707745000000006e+00,-9.874777999999999611e-01,1.916125058897528710e-01,1.000000000000000048e-04,3.985881033323079947e+01,1.199999999999999956e-01
1.164831654000000105e+00,-8.361433499999999519e-01,8.079792103400662562e-01,1.000000000000000048e-04,4.368256092694038983e+01,1.600000000000000033e-01
9.274529849999999520e-01,-5.648102149999999488e-01,5.186352801971234605e-01,1.000000000000000048e-04,4.242104299291383995e+01,2.200000000000000011e-01
1.803806121999999901e+00,-1.051757271000000049e+00,6.450127884626311037e-01,1.000000000000000048e-04,4.324357878697005475e+01,2.200000000000000011e-01
1.910407339000000038e+00,-1.096340147000000043e+00,6.064205166001375158e-01,1.000000000000000048e-04,4.290997725346117164e+01,1.300000000000000044e-01
-2.994395329179586174e+00,-6.874333790000000111e-01,1.282692940488979971e+00,1.000000000000000048e-04,4.484021849352370737e+01,1.600000000000000033e-01
2.004169926999999962e+00,-1.114377941999999955e+00,1.138225666650398704e+00,1.000000000000000048e-04,4.444071687287839723e+01,2.099999999999999922e-01
2.993884073999999895e+00,-9.067153500000000310e-01,1.143804789814739653e-01,1.000000000000000048e-04,3.860435047246942020e+01,2.000000000000000111e-01
2.896584697999999847e+00,-6.981149509999999836e-01,2.269878174981918573e-01,1.000000000000000048e-04,4.022345181576972095e+01,2.000000000000000111e-01
2.644964143999999795e+00,-1.038456438999999953e+00,2.079378727657616999e-01,1.000000000000000048e-04,4.057096578452576097e+01,2.500000000000000000e-01
1.395029569000000080e+00,-9.673563530000000021e-01,1.069140547300227340e+00,1.000000000000000048e-04,4.395135927362626660e+01,2.200000000000000011e-01
1.133893306999999906e+00,-8.234022290000000410e-01,1.928995747134998329e-01,1.000000000000000048e-04,3.986020869913500064e+01,1.199999999999999956e-01
9.542908199999999841e-01,-6.210129070000000029e-01,4.381950408548918041e-01,1.000000000000000048e-04,4.177664366970903842e+01,1.400000000000000133e-01
1.112357503999999997e+00,-7.717409769999999947e-01,1.408535193700457544e-01,1.000000000000000048e-04,3.902921965666773474e+01,1.400000000000000133e-01
1.392129267000000059e+00,-9.489503049999999940e-01,9.727275606926677476e-02,1.000000000000000048e-04,3.831674304047429302e+01,1.100000000000000006e-01
3.104633763999999907e+00,-8.563587980000000321e-01,1.715746206576955757e-01,1.000000000000000048e-04,3.961994058903114535e+01,1.199999999999999956e-01
-1.581672989179586430e+00,-6.726275419999999672e-01,5.046289030801043296e-01,1.000000000000000048e-04,4.226216808250972434e+01,2.000000000000000111e-01
8.758714749999999549e-01,-5.394949780000000139e-01,2.747014860899446020e-01,1.000000000000000048e-04,4.061152224883074524e+01,1.199999999999999956e-01
1.027821937999999991e+00,-6.897361509999999640e-01,3.141146545993656058e-01,1.000000000000000048e-04,4.134924207149280306e+01,1.499999999999999944e-01
8.011105990000000343e-01,-4.568120419999999737e-01,5.238150849215015281e-01,1.000000000000000048e-04,4.260082188848722495e+01,1.499999999999999944e-01
8.044453879999999835e-01,-4.591503659999999765e-01,7.357621158444691556e-01,1.000000000000000048e-04,4.352992043917309672e+01,1.100000000000000006e-01
8.290542589999999601e-01,-4.498624509999999965e-01,3.781417244145510725e-01,1.000000000000000048e-04,4.165163209273420364e+01,1.199999999999999956e-01
2.306908324000000121e+00,-1.093655438999999951e+00,8.909106442876799647e-01,1.000000000000000048e-04,4.383953048335464331e+01,1.300000000000000044e-01
-3.090495873179586184e+00,-7.974218849999999970e-01,5.797051818089025144e-01,1.000000000000000048e-04,4.271854595883657879e+01,1.300000000000000044e-01
2.850739061000000074e+00,-9.724982730000000242e-01,2.504578753218482667e-01,1.000000000000000048e-04,4.053321634109423144e+01,1.100000000000000006e-01
1.925211972000000049e+00,-1.067349442999999898e+00,5.061110512412951845e-01,1.000000000000000048e-04,4.218338831663410105e+01,1.600000000000000033e-01
3.010706126000000094e+00,-9.149326070000000088e-01,4.740097744022928605e-01,1.000000000000000048e-04,4.218306608194817642e+01,1.199999999999999956e-01
1.754869720000000077e+00,-1.052947148999999971e+00,2.556454448783191946e-01,1.000000000000000048e-04,4.061982803865951297e+01,1.300000000000000044e-01
3.028086770999999899e+00,-8.725603690000000023e-01,1.558904157414151559e-01,1.000000000000000048e-04,3.934160545031149070e+01,1.199999999999999956e-01
2.780301081000000174e+00,-1.010780400000000023e+00,4.967550105726548093e-01,1.000000000000000048e-04,4.205427696214987066e+01,1.700000000000000122e-01
3.096540631999999960e+00,-8.261897350000000362e-01,4.831407500793354348e-01,1.000000000000000048e-04,4.224291658327771160e+01,1.100000000000000006e-01
-3.043596368179586342e+00,-7.656326449999999451e-01,3.065319005515541040e-01,1.000000000000000048e-04,4.111215213610098829e+01,1.100000000000000006e-01
2.593403560000000052e+00,-1.068240442000000012e+00,1.322946695792220684e+00,1.000000000000000048e-04,4.473021192874644214e+01,1.199999999999999956e-01
1.277663320999999907e+00,-8.910532270000000032e-01,2.231211435032773860e-01,1.000000000000000048e-04,4.034989601644939228e+01,1.499999999999999944e-01
8.729576639999999665e-01,-5.017517409999999733e-01,2.849384685701303876e-01,1.000000000000000048e-04,4.082562553505730563e+01,1.199999999999999956e-01
2.323316692000000128e+00,-1.072994334000000105e+00,2.369973315312550177e-01,1.000000000000000048e-04,4.039660690533920473e+01,1.400000000000000133e-01
-3.012222731179586166e+00,-7.219820959999999621e-01,2.216232218910272334e-01,1.000000000000000048e-04,4.034108323561004283e+01,1.199999999999999956e-01
2.306010604999999991e+00,-1.110345181000000014e+00,3.229044908535927405e-01,1.000000000000000048e-04,4.120102779041929608e+01,1.100000000000000006e-01
2.437557496999999795e+00,-1.097151527000000071e+00,5.258885558844492714e-01,1.000000000000000048e-04,4.249372995353950699e+01,1.100000000000000006e-01
1.098420291999999909e+00,-7.444727049999999569e-01,1.000988537072811102e+00,1.000000000000000048e-04,4.392364987105815999e+01,1.300000000000000044e-01
8.241628739999999897e-01,-4.611620249999999754e-01,7.629132293613900551e-01,1.000000000000000048e-04,4.345652552009707392e+01,1.400000000000000133e-01
1.017317494999999905e+00,-7.027905669999999771e-01,5.222215070018816352e-01,1.000000000000000048e-04,4.233812831722322301e+01,1.199999999999999956e-01
2.728679550999999925e+00,-1.007430967999999982e+00,1.216810803854341039e+00,1.000000000000000048e-04,4.456419662021818340e+01,1.100000000000000006e-01
2.848837458999999850e+00,-9.622339979999999793e-01,3.286469006144243643e-01,1.000000000000000048e-04,4.115970041968605386e+01,1.199999999999999956e-01
-3.065525731179586266e+00,-7.207210450000000046e-01,1.176952316671890930e-01,1.000000000000000048e-04,3.885731996358607176e+01,1.199999999999999956e-01
1.103969978000000074e+00,-7.587182380000000448e-01,6.359949396376627373e-01,1.000000000000000048e-04,4.310069841717500339e+01,1.300000000000000044e-01
1.112034854000000017e+00,-7.675460100000000008e-01,6.076777188718178735e-01,1.000000000000000048e-04,4.275965521142835968e+01,1.199999999999999956e-01
2.373162053000000160e+00,-1.072487750000000073e+00,3.725551512739297966e-01,1.000000000000000048e-04,4.140906367771050611e+01,1.100000000000000006e-01
2.221583438000000132e+00,-1.096064289000000080e+00,4.772210945455930275e-01,1.000000000000000048e-04,4.217127373062399442e+01,1.199999999999999956e-01
2.775251189000000007e+00,-1.013244017000000108e+00,3.655658509669932332e-01,1.000000000000000048e-04,4.131699915042919713e+01,1.700000000000000122e-01
1.527128894000000070e+00,-9.963611940000000056e-01,3.496946445624460331e-01,1.000000000000000048e-04,4.142565193029112436e+01,1.400000000000000133e-01
-1.936135624179586401e+00,1.327891944000000102e+00,9.995155770025707653e-01,1.000000000000000048e-04,4.414451104748905408e+01,1.199999999999999956e-01
2.120951332999999828e+00,-1.112975437000000012e+00,1.635100799336892674e-01,1.000000000000000048e-04,3.945742343333345303e+01,1.600000000000000033e-01
2.950704906999999988e+00,-9.277153000000000205e-01,7.975347930288636533e-01,1.000000000000000048e-04,4.350581088428211274e+01,1.700000000000000122e-01
2.461302839000000020e+00,-1.064109841000000056e+00,2.566853082508810946e-01,1.000000000000000048e-04,4.039079777898343337e+01,1.499999999999999944e-01
1.687800213000000049e+00,-1.037844004000000098e+00,3.151413703833996216e-01,1.000000000000000048e-04,4.121059544767430083e+01,1.100000000000000006e-01
-3.069023128179586113e+00,-7.343218900000000327e-01,3.245409221211845718e-01,1.000000000000000048e-04,4.116358920553745548e+01,2.000000000000000111e-01
7.655655390000000171e-01,-3.825025819999999799e-01,7.289105907913875360e-01,1.000000000000000048e-04,4.338654100689549864e+01,1.300000000000000044e-01
-3.051736326179586012e+00,-7.690870560000000467e-01,1.798455968572707508e-01,1.000000000000000048e-04,3.933453763053100971e+01,1.499999999999999944e-01
-3.116938176179586240e+00,-7.920766919999999711e-01,1.044598093722790555e+00,1.000000000000000048e-04,4.422480322538562092e+01,1.100000000000000006e-01
1.020863690000000101e+00,-6.877910739999999468e-01,1.361071905970911988e-01,1.000000000000000048e-04,3.905430508764272446e+01,1.199999999999999956e-01
1.792785233999999894e+00,-1.066474936999999956e+00,2.775413580009014058e-01,1.000000000000000048e-04,4.077823968405486710e+01,1.100000000000000006e-01
1.805689748000000039e+00,-1.066896787999999985e+00,3.082873225363336189e-01,1.000000000000000048e-04,4.091444435754726783e+01,1.100000000000000006e-01
1.773248071000000037e+00,-1.046601056999999946e+00,2.765818868752054627e-01,1.000000000000000048e-04,4.102925005279443837e+01,2.099999999999999922e-01
1.076689889999999927e+00,-7.549444410000000216e-01,1.567964489743465251e-01,1.000000000000000048e-04,3.950397096214013715e+01,1.199999999999999956e-01
2.336456505000000128e+00,-1.089906792000000069e+00,6.704779789575610049e-01,1.000000000000000048e-04,4.291962953320525997e+01,1.199999999999999956e-01
2.522083900000000156e+00,-1.078852812999999911e+00,3.672293753120030591e-01,1.000000000000000048e-04,4.112790511743402533e+01,1.199999999999999956e-01
3.676074389999999803e-01,1.100614297999999991e+00,3.305417136117738686e-01,1.000000000000000048e-04,4.112953576148367318e+01,1.700000000000000122e-01
2.099931574000000190e+00,-1.082223048999999993e+00,3.009387059796280184e-01,1.000000000000000048e-04,4.117720709181199368e+01,1.100000000000000006e-01
8.155488279999999479e-01,-4.642700679999999802e-01,6.066204410130160429e-01,1.000000000000000048e-04,4.260820811726617308e+01,2.099999999999999922e-01
9.861636230000000447e-01,-6.881834650000000497e-01,6.073940323791944262e-01,1.000000000000000048e-04,4.262967184634300821e+01,1.300000000000000044e-01
1.864254864999999928e+00,-1.086684659999999969e+00,1.748500935922310262e-01,1.000000000000000048e-04,3.970460357976647003e+01,1.199999999999999956e-01
2.873066016000000111e+00,-9.753574739999999466e-01,5.417923489906570911e-01,1.000000000000000048e-04,4.225456308347565937e+01,1.300000000000000044e-01
2.270287562000000037e+00,-1.085086717999999895e+00,7.784444820331739567e-01,1.000000000000000048e-04,4.365064484900300101e+01,1.799999999999999933e-01
8.268071609999999572e-01,-4.587794940000000099e-01,7.130861091709059796e-01,1.000000000000000048e-04,4.322069556342956531e+01,1.199999999999999956e-01
-3.050869045179586347e+00,-7.648855789999999821e-01,3.365862213151102900e-01,1.000000000000000048e-04,4.126361959263547874e+01,1.199999999999999956e-01
1.101963728999999947e+00,-7.466317359999999903e-01,2.269582241713832271e-01,1.000000000000000048e-04,4.034364394076791172e+01,1.900000000000000022e-01
1.745116724000000064e+00,-1.056563783000000090e+00,1.223290909885328404e-01,1.000000000000000048e-04,3.900760768638590292e+01,1.300000000000000044e-01
7.889769570000000343e-01,-3.846565690000000037e-01,3.137986497469000824e-01,1.000000000000000048e-04,4.113270670250913241e+01,1.499999999999999944e-01
1.385818830999999918e+00,-9.278259679999999454e-01,1.194344401959809066e+00,1.000000000000000048e-04,4.470346092913577962e+01,1.499999999999999944e-01
1.138484923000000038e+00,-8.197145099999999518e-01,8.357126681091271436e-01,1.000000000000000048e-04,4.363320785810894620e+01,1.400000000000000133e-01
1.783410439000000069e+00,-1.080958507999999929e+00,1.374912663976566307e-01,1.000000000000000048e-04,3.900083797165822119e+01,1.400000000000000133e-01
2.617653461000000181e+00,-1.025884226000000066e+00,4.077480630532552830e-01,1.000000000000000048e-04,4.187053007384000125e+01,1.199999999999999956e-01
8.270197009999999960e-01,-4.157453939999999903e-01,8.681627798978237553e-01,1.000000000000000048e-04,4.390509356783550743e+01,1.199999999999999956e-01
3.128792493000000174e+00,-8.522697870000000009e-01,7.687643064114795255e-01,1.000000000000000048e-04,4.340845549277594273e+01,1.100000000000000006e-01
1.366158207000000013e+00,-9.614226009999999878e-01,2.570521819632014537e-01,1.000000000000000048e-04,4.074548521990199390e+01,1.100000000000000006e-01
2.846286316000000038e+00,-9.688357899999999745e-01,2.494490890841267738e-01,1.000000000000000048e-04,4.068153835536840290e+01,1.400000000000000133e-01
9.208216280000000031e-01,-6.185352929999999860e-01,4.648672278127330415e-01,1.000000000000000048e-04,4.215518843979219099e+01,1.499999999999999944e-01
7.622987450000000553e-01,-3.411912120000000215e-01,1.205837265628401767e+00,1.000000000000000048e-04,4.467353937081094273e+01,1.199999999999999956e-01
9.277931750000000255e-01,-5.813990460000000304e-01,1.122084416886281577e+00,1.000000000000000048e-04,4.474995737645971161e+01,2.099999999999999922e-01
1.010173165000000095e+00,-6.808591280000000356e-01,1.277976192103613684e-01,1.000000000000000048e-04,3.900058051620384703e+01,1.300000000000000044e-01
1.661181446000000062e+00,-1.029160687999999935e+00,7.515721304823972382e-01,1.000000000000000048e-04,4.319990511786974707e+01,1.400000000000000133e-01
2.089878704000000198e+00,-1.077863170999999953e+00,9.996916998166560653e-02,1.000000000000000048e-04,3.856312514792301016e+01,1.199999999999999956e-01
9.321550429999999610e-01,-6.212176799999999943e-01,7.061894051923056637e-02,1.000000000000000048e-04,3.784058841049189681e+01,1.199999999999999956e-01
2.944595597000000176e+00,-9.127602249999999806e-01,8.042589475155637047e-02,1.000000000000000048e-04,3.797640638506646127e+01,1.100000000000000006e-01
1.288081913999999939e+00,-9.113959929999999598e-01,3.547058264670841510e-01,1.000000000000000048e-04,4.134724128801963161e+01,1.300000000000000044e-01
1.398731861999999992e+00,-9.625033109999999725e-01,1.289372966330097903e-01,1.000000000000000048e-04,3.910053046050910552e+01,1.199999999999999956e-01
1.714165549000000066e+00,-1.043104095999999981e+00,2.383766976700087969e-01,1.000000000000000048e-04,4.037720891377951915e+01,1.199999999999999956e-01
1.014018395999999989e+00,-6.788913789999999615e-01,1.395547629969566827e-01,1.000000000000000048e-04,3.929193352579436294e+01,1.300000000000000044e-01
8.887761809999999985e-01,-5.541821719999999729e-01,1.385668725506898902e-01,1.000000000000000048e-04,3.930095849364153082e+01,1.300000000000000044e-01
1.026278256999999972e+00,-6.961882160000000264e-01,2.190510223548705060e-01,1.000000000000000048e-04,4.036634377884675473e+01,1.199999999999999956e-01
1.824970581999999952e+00,-1.080428363000000003e+00,5.913058936574018265e-01,1.000000000000000048e-04,4.273870581942856006e+01,1.199999999999999956e-01
1.839979185000000017e+00,-1.082878103999999952e+00,8.374357329200066147e-02,1.000000000000000048e-04,3.821527380054853751e+01,1.300000000000000044e-01
-3.070118813179586237e+00,-7.641942569999999879e-01,9.534439081987695630e-01,1.000000000000000048e-04,4.399685233607693391e+01,1.199999999999999956e-01
2.250776613000000204e+00,-1.110438553999999911e+00,4.516389846159076793e-01,1.000000000000000048e-04,4.204844520337625369e+01,1.199999999999999956e-01
2.613802471000000072e+00,-1.066258922999999914e+00,1.294163861481472111e-01,1.000000000000000048e-04,3.893371250022777019e+01,1.199999999999999956e-01
8.050150120000000298e-01,-4.193234060000000096e-01,8.723455354655746952e-01,1.000000000000000048e-04,4.374410534608908563e+01,1.499999999999999944e-01
2.809576177999999924e+00,-9.952447749999999704e-01,5.601821594390881121e-01,1.000000000000000048e-04,4.269109919964611777e+01,1.199999999999999956e-01
8.523447290000000232e-01,-4.773689010000000121e-01,5.871969692077183556e-01,1.000000000000000048e-04,4.294738743484641930e+01,2.000000000000000111e-01
2.975142320999999868e+00,-8.986192680000000266e-01,2.015841188051965549e-01,1.000000000000000048e-04,3.986500326265687022e+01,2.000000000000000111e-01
2.960578484000000010e+00,-9.174235720000000205e-01,2.528146651582623416e-01,1.000000000000000048e-04,4.070479957365274259e+01,1.400000000000000133e-01
1.589239559999999996e+00,-1.046132274999999945e+00,5.091698189264981522e-01,1.000000000000000048e-04,4.231591798933487780e+01,1.199999999999999956e-01
1.095136271999999966e+00,-7.909478989999999543e-01,3.913619408670967470e-01,1.000000000000000048e-04,4.160565413590596506e+01,1.300000000000000044e-01
3.045277111999999953e+00,-8.831592660000000539e-01,6.474432228431989955e-01,1.000000000000000048e-04,4.295268759627624888e+01,1.799999999999999933e-01
3.011317304999999944e+00,-8.969173430000000335e-01,1.515439828945996936e-01,1.000000000000000048e-04,3.942209955881079964e+01,1.499999999999999944e-01
1.946036051000000100e+00,-1.101857058000000000e+00,1.492757268122524295e-01,1.000000000000000048e-04,3.932736730363265565e+01,1.100000000000000006e-01
9.659444579999999503e-01,-6.400164339999999674e-01,1.990384628258357047e-01,1.000000000000000048e-04,3.993890381329250516e+01,1.199999999999999956e-01
1.142944595999999979e+00,-8.229314749999999679e-01,1.505100067717470846e-01,1.000000000000000048e-04,3.953201355897141411e+01,1.499999999999999944e-01
1.336859599999999926e+00,-9.462661719999999610e-01,3.284361928244021733e-01,1.000000000000000048e-04,4.118152916500877581e+01,1.900000000000000022e-01
2.386695267999999981e+00,-1.099692616000000012e+00,1.411597819324315051e-01,1.000000000000000048e-04,3.898665537113249258e+01,1.799999999999999933e-01
1.122946417999999946e+00,-7.871106610000000448e-01,5.831121204344569264e-01,1.000000000000000048e-04,4.245770598926345230e+01,1.499999999999999944e-01
1.038511049000000019e+00,-6.836743480000000428e-01,5.405209743124070876e-01,1.000000000000000048e-04,4.284898981518038141e+01,1.499999999999999944e-01
-1.865548755179585960e+00,5.988235499999999822e-01,3.894806812435811505e-01,1.000000000000000048e-04,4.135315579313740386e+01,3.599999999999999867e-01
-1.208774007179585830e+00,1.086301519000000049e+00,5.880548873524427123e-01,1.000000000000000048e-04,4.264656028013490641e+01,3.900000000000000133e-01
-1.451351928179586359e+00,1.047303024999999943e+00,2.131823871944618087e-01,1.000000000000000048e-04,4.079071595732713718e+01,3.900000000000000133e-01
-1.863787002179586594e+00,5.986409590000000280e-01,4.648274559031466691e-01,1.000000000000000048e-04,4.183579086260288449e+01,3.099999999999999978e-01
-2.367107747179586053e+00,3.570653329999999848e-01,2.293172051865757233e-01,1.000000000000000048e-04,4.055868907083836206e+01,3.300000000000000155e-01
3.110012692999999828e+00,-8.816387980000000013e-01,9.054915149110853712e-01,1.000000000000000048e-04,4.411001397031325411e+01,4.000000000000000222e-01
1.208427087000000011e+00,6.391205479999999550e-01,6.204408919284221113e-01,1.000000000000000048e-04,4.280050449663682599e+01,3.200000000000000067e-01
2.195568135999999893e+00,9.530612539999999688e-01,3.851019013364316290e-01,1.000000000000000048e-04,4.148742365781248509e+01,3.200000000000000067e-01
-1.746303855179585973e+00,7.561700099999999480e-01,2.631193723515248273e-01,1.000000000000000048e-04,3.997839512654589811e+01,3.599999999999999867e-01
-2.613733020179586308e+00,3.020363409999999860e-01,1.710703467695349200e-01,1.000000000000000048e-04,3.939379223029050792e+01,2.399999999999999911e-01
3.080075141000000016e+00,6.813462000000000129e-01,1.620564363095424731e-01,1.000000000000000048e-04,3.953920749689573455e+01,2.999999999999999889e-01
3.084152930000000126e+00,6.750201959999999612e-01,1.240796654711792346e+00,1.000000000000000048e-04,4.454784036259562896e+01,2.399999999999999911e-01
-2.831540824179586302e+00,-5.193198470000000011e-01,2.515780157491915858e-01,1.000000000000000048e-04,4.040541569849521863e+01,2.899999999999999800e-01
2.921667255000000019e+00,-9.403574120000000036e-01,8.620366860670669595e-02,1.000000000000000048e-04,3.783486975143780739e+01,2.899999999999999800e-01
2.610543199999999953e+00,9.294079060000000059e-01,8.944029835936073702e-01,1.000000000000000048e-04,4.317485076132708599e+01,2.899999999999999800e-01
2.614058957000000127e+00,9.310355519999999885e-01,8.776363982619674875e-01,1.000000000000000048e-04,4.395420483477361984e+01,3.699999999999999956e-01
-2.614313936179586406e+00,3.105085300000000048e-01,7.790107637252638995e-01,1.000000000000000048e-04,4.312598093727384452e+01,2.300000000000000100e-01
-2.614275993179586255e+00,3.084493819999999942e-01,8.898450685847294483e-01,1.000000000000000048e-04,4.372183661770212382e+01,2.000000000000000111e-01
3.080236718000000096e+00,6.852664600000000217e-01,3.867832370425687838e-01,1.000000000000000048e-04,4.239331529029444567e+01,3.800000000000000044e-01
3.085135451000000195e+00,6.840520260000000352e-01,4.663419381493494331e-01,1.000000000000000048e-04,4.189158524088342972e+01,2.300000000000000100e-01
-2.829361723179586452e+00,-5.190188390000000096e-01,3.738690081339428595e-01,1.000000000000000048e-04,4.182806358608753072e+01,3.900000000000000133e-01
-2.833706243179586082e+00,-5.260186759999999628e-01,6.938287487307102097e-01,1.000000000000000048e-04,4.330348710004122381e+01,2.200000000000000011e-01
1.286414458000000094e+00,-9.076167339999999806e-01,7.609191420580947440e-01,1.000000000000000048e-04,4.341771480910633585e+01,2.399999999999999911e-01
2.295144749999999956e+00,-1.095028292000000070e+00,1.865755669937085859e-01,1.000000000000000048e-04,4.020924450974785458e+01,2.000000000000000111e-01
2.312115046000000174e+00,-1.091482969000000081e+00,1.810160869487038582e-01,1.000000000000000048e-04,3.958604070298191147e+01,1.900000000000000022e-01
2.535381049000000164e+00,-1.063602453999999975e+00,3.302975733294784000e-01,1.000000000000000048e-04,4.123556377866948708e+01,2.600000000000000089e-01
2.549902755000000187e+00,-1.059649137999999935e+00,2.396187408553276388e-01,1.000000000000000048e-04,4.069585958827195071e+01,1.900000000000000022e-01
-2.980466121795863899e-01,1.081935794000000062e+00,7.739148781116542697e-01,1.000000000000000048e-04,4.352969202914535884e+01,1.000000000000000056e-01
-4.562223411795862660e-01,1.078420874000000085e+00,1.062451666474246714e-01,1.000000000000000048e-04,3.821031949895583324e+01,1.400000000000000133e-01
-4.727696341795866175e-01,1.076427226000000070e+00,5.798306423090608952e-01,1.000000000000000048e-04,4.256536379139076587e+01,1.900000000000000022e-01
-4.909850281795860028e-01,1.086050390999999893e+00,2.690648120886991457e-01,1.000000000000000048e-04,4.050389815025557994e+01,1.499999999999999944e-01
-1.809890014179586615e+00,8.554848849999999727e-01,1.957053384891271897e-01,1.000000000000000048e-04,4.001744144129926894e+01,1.900000000000000022e-01
-1.804843805179586091e+00,8.509932909999999850e-01,1.985484027080932634e-01,1.000000000000000048e-04,3.990518919566883227e+01,1.700000000000000122e-01
-1.798315402179586187e+00,8.389159160000000393e-01,1.745421571116514414e-01,1.000000000000000048e-04,3.953476693536961761e+01,1.100000000000000006e-01
-1.820018681179586650e+00,8.404092629999999620e-01,3.027823861883121026e-01,1.000000000000000048e-04,4.087356159632135189e+01,2.000000000000000111e-01
-2.435936564179586039e+00,3.767214549999999829e-01,6.116410285033724303e-01,1.000000000000000048e-04,4.274198964168417092e+01,1.700000000000000122e-01
-2.738532057179586143e+00,-4.670391260000000266e-01,2.236054937576756885e-01,1.000000000000000048e-04,4.035903514340914455e+01,1.100000000000000006e-01
-2.750126147179586145e+00,-4.750163370000000107e-01,8.071792408519629092e-02,1.000000000000000048e-04,3.776395225367316044e+01,1.700000000000000122e-01
6.777063359999999648e-01,-9.284162910000000046e-01,1.953131373821350714e-01,1.000000000000000048e-04,3.987931581502375167e+01,1.600000000000000033e-01
6.755664329999999662e-01,-9.242990760000000527e-01,4.360041770705922470e-01,1.000000000000000048e-04,4.205656090768035682e+01,2.200000000000000011e-01
1.666277256000000095e+00,1.035703752000000089e+00,1.423103387749551363e-01,1.000000000000000048e-04,3.880843102523568433e+01,2.800000000000000266e-01
1.679531192000000006e+00,1.034147155999999956e+00,2.574196675418674030e-01,1.000000000000000048e-04,4.070560673350215097e+01,2.099999999999999922e-01
1.669961188000000041e+00,1.045784459000000055e+00,1.760122321480517282e-01,1.000000000000000048e-04,3.951230714083487072e+01,2.899999999999999800e-01
1.666612017000000057e+00,1.035903760999999923e+00,1.081752004257034994e-01,1.000000000000000048e-04,3.865355255723272165e+01,1.400000000000000133e-01
1.676630470000000095e+00,1.049302589999999924e+00,1.287675194732288642e+00,1.000000000000000048e-04,4.485203019893530296e+01,1.600000000000000033e-01
1.678871634000000057e+00,1.037439988999999896e+00,2.433873490992923827e-01,1.000000000000000048e-04,4.033180893558001401e+01,2.099999999999999922e-01
-2.159653925179585876e+00,7.341517600000000421e-01,2.725953903685571778e-01,1.000000000000000048e-04,4.045743751912051778e+01,2.600000000000000089e-01
-2.155609593179586447e+00,7.327229189999999726e-01,9.697347198856709483e-02,1.000000000000000048e-04,3.806141717416233661e+01,1.400000000000000133e-01
2.989279821999999864e+00,-1.014333855000000062e+00,1.887235329285388286e-01,1.000000000000000048e-04,3.988218771280576647e+01,1.600000000000000033e-01
6.962963009999999509e-01,-9.242906640000000396e-01,2.883696693844022274e-01,1.000000000000000048e-04,4.095920945670354740e+01,2.000000000000000111e-01
6.831622830000000368e-01,-9.295060950000000322e-01,9.577519526584477028e-02,1.000000000000000048e-04,3.840765726264085345e+01,2.099999999999999922e-01
6.813526220000000189e-01,-9.196739680000000083e-01,1.671114582611821220e-01,1.000000000000000048e-04,3.951653769012832385e+01,1.700000000000000122e-01
1.667475545999999920e+00,1.039138789999999979e+00,1.023383207113802040e+00,1.000000000000000048e-04,4.404668727519115379e+01,1.499999999999999944e-01
1.669072946000000002e+00,1.039627206000000026e+00,5.879337148030621130e-01,1.000000000000000048e-04,4.271460524662516889e+01,1.700000000000000122e-01
2.992464221000000091e+00,-1.009427984000000000e+00,3.460696955898903138e-01,1.000000000000000048e-04,4.132924011887750027e+01,1.400000000000000133e-01
3.013377762000000182e+00,-1.015725085999999999e+00,9.686465009606477494e-01,1.000000000000000048e-04,4.390412845584961588e+01,1.499999999999999944e-01
6.857830799999999893e-01,-9.290922369999999875e-01,3.204363902752849214e-01,1.000000000000000048e-04,4.073132706811797732e+01,3.400000000000000244e-01
6.874880420000000214e-01,-9.251381180000000093e-01,6.069230964671104012e-01,1.000000000000000048e-04,4.287657494551165627e+01,1.700000000000000122e-01
1.659686511000000086e+00,1.040101345999999927e+00,2.845084394875196931e-01,1.000000000000000048e-04,4.084925648765809569e+01,1.400000000000000133e-01
1.692629780999999944e+00,1.043637506000000048e+00,4.854719544452168467e-01,1.000000000000000048e-04,4.223067148684235406e+01,1.799999999999999933e-01
1.682450028999999958e+00,1.049226146999999942e+00,2.677634122925498517e-01,1.000000000000000048e-04,4.067862314009570213e+01,1.900000000000000022e-01
1.675255906999999933e+00,1.048468626000000015e+00,8.730636745366866514e-01,1.000000000000000048e-04,4.373233670363950409e+01,1.499999999999999944e-01
1.692145135000000078e+00,1.039981480000000014e+00,1.876889373538286332e-01,1.000000000000000048e-04,3.981007271967542493e+01,1.700000000000000122e-01
-2.139768073179586061e+00,7.360294179999999908e-01,4.290056661390873050e-01,1.000000000000000048e-04,4.188330177771444340e+01,1.600000000000000033e-01
-2.138731675179585956e+00,7.369836659999999817e-01,7.551712932980685355e-01,1.000000000000000048e-04,4.302704812160897063e+01,1.499999999999999944e-01
6.888283630000000546e-01,-9.193630990000000169e-01,9.391797738536271645e-01,1.000000000000000048e-04,4.437938208049968836e+01,1.700000000000000122e-01
6.776433490000000059e-01,-9.225326109999999469e-01,1.099136957899848444e+00,1.000000000000000048e-04,4.445356443541827929e+01,1.600000000000000033e-01
6.820513620000000499e-01,-9.162569579999999547e-01,3.089667676148717401e-01,1.000000000000000048e-04,4.109656731141370756e+01,2.899999999999999800e-01
6.832637360000000104e-01,-9.208365670000000502e-01,4.356234201045638965e-01,1.000000000000000048e-04,4.210408179159056630e+01,1.400000000000000133e-01
1.683256381999999940e+00,1.050427892999999946e+00,3.921683390832293448e-01,1.000000000000000048e-04,4.155458753736902366e+01,1.499999999999999944e-01
2.987248335999999949e+00,-1.011507587000000097e+00,4.962760064197084819e-01,1.000000000000000048e-04,4.221488212981222432e+01,1.900000000000000022e-01
2.994879214000000012e+00,-1.020537374999999969e+00,1.492711484793209920e-01,1.000000000000000048e-04,3.923489425205107750e+01,2.500000000000000000e-01
2.997056848999999801e+00,-1.020797841000000039e+00,1.225411145121251266e-01,1.000000000000000048e-04,3.914163713174664849e+01,1.499999999999999944e-01
6.981827720000000070e-01,-9.201470600000000166e-01,1.928618701102926547e-01,1.000000000000000048e-04,3.989015473541495993e+01,2.099999999999999922e-01
1.675679171999999939e+00,1.042232051000000048e+00,9.058129992510439710e-01,1.000000000000000048e-04,4.393979856341167078e+01,1.900000000000000022e-01
1.682732345000000018e+00,1.051774148000000020e+00,4.967826215596993222e-01,1.000000000000000048e-04,4.195007679980388104e+01,2.099999999999999922e-01
1.655763980999999996e+00,1.041789395999999979e+00,7.091197277871661431e-01,1.000000000000000048e-04,4.270612175958478218e+01,2.099999999999999922e-01
1.658505131999999938e+00,1.042043577999999915e+00,9.194439089696653244e-01,1.000000000000000048e-04,4.397898409799019959e+01,1.499999999999999944e-01
1.679931540999999973e+00,1.044700675999999939e+00,1.787943293864693306e-01,1.000000000000000048e-04,3.979478414649376816e+01,1.400000000000000133e-01
1.681131209999999987e+00,1.046558263000000100e+00,6.339069980148708261e-01,1.000000000000000048e-04,4.266633104186665548e+01,3.800000000000000044e-01
-2.147380102179586636e+00,7.248191320000000326e-01,2.466019966940564689e-01,1.000000000000000048e-04,4.065540130932046026e+01,2.200000000000000011e-01
-2.137481690179586558e+00,7.386978770000000027e-01,2.815525238693701304e-01,1.000000000000000048e-04,4.086173717571804076e+01,1.499999999999999944e-01
3.007533192999999994e+00,-1.006434849999999992e+00,3.302036192379695922e-01,1.000000000000000048e-04,4.103748695588224393e+01,1.700000000000000122e-01
6.766177190000000063e-01,-9.309161569999999664e-01,5.988028731949954775e-01,1.000000000000000048e-04,4.261271000706150858e+01,1.700000000000000122e-01
6.879719020000000240e-01,-9.170357009999999809e-01,8.975948790595369431e-01,1.000000000000000048e-04,4.398999331268144886e+01,2.600000000000000089e-01
6.868192690000000100e-01,-9.190749710000000183e-01,2.298551371083172867e-01,1.000000000000000048e-04,4.037572291516428180e+01,2.800000000000000266e-01
1.680927606000000019e+00,1.043199457999999913e+00,2.612107728781249971e-01,1.000000000000000048e-04,4.060395863029516050e+01,1.799999999999999933e-01
1.680733408999999901e+00,1.046110547000000057e+00,1.421845411139512905e-01,1.000000000000000048e-04,3.924565266572738409e+01,1.499999999999999944e-01
3.003205794999999956e+00,-1.007960921000000010e+00,1.621699029704699591e-01,1.000000000000000048e-04,3.921875551748526334e+01,2.200000000000000011e-01
3.013387552999999830e+00,-1.018013843000000085e+00,1.277363482168325959e+00,1.000000000000000048e-04,4.472905245173299704e+01,2.000000000000000111e-01
2.991633154000000072e+00,-1.018575491000000000e+00,6.083781431375601123e-01,1.000000000000000048e-04,4.289306664055441587e+01,1.600000000000000033e-01
6.810583510000000063e-01,-9.216344210000000370e-01,2.955306394804844139e-01,1.000000000000000048e-04,4.125592861426100200e+01,1.600000000000000033e-01
1.670069762000000013e+00,1.048284639000000018e+00,5.260735731662460335e-01,1.000000000000000048e-04,4.201960994246826431e+01,2.099999999999999922e-01
1.699713636000000028e+00,1.040243690999999915e+00,2.596032740011302575e-01,1.000000000000000048e-04,4.097151207763450032e+01,2.899999999999999800e-01
1.686195045999999920e+00,1.048540513999999924e+00,3.549875237775801384e-01,1.000000000000000048e-04,4.147237661455748992e+01,1.400000000000000133e-01
1.667162669999999958e+00,1.044746053999999980e+00,2.743527862695367414e-01,1.000000000000000048e-04,4.061753466899971698e+01,2.700000000000000178e-01
1.689467040999999892e+00,1.036330184999999959e+00,4.769266946926495887e-01,1.000000000000000048e-04,4.210618938911090936e+01,1.300000000000000044e-01
1.683799076999999977e+00,1.043385784000000038e+00,3.352392199585851884e-01,1.000000000000000048e-04,4.133068295054644636e+01,1.700000000000000122e-01
-2.151455832179586025e+00,7.398983139999999459e-01,5.588836682873912221e-01,1.000000000000000048e-04,4.254039152463461448e+01,2.500000000000000000e-01
-2.141944958179585967e+00,7.302793560000000461e-01,2.576630133336856865e-01,1.000000000000000048e-04,4.058902306016641148e+01,1.400000000000000133e-01
3.012489310999999947e+00,-1.019874449000000016e+00,5.949175133222617262e-01,1.000000000000000048e-04,4.285473738979440128e+01,1.900000000000000022e-01
6.824463880000000149e-01,-9.193269539999999740e-01,9.991743383950968393e-02,1.000000000000000048e-04,3.859825417803232028e+01,1.600000000000000033e-01
6.933168330000000212e-01,-9.307474239999999899e-01,3.756794292362743981e-01,1.000000000000000048e-04,4.183481164991559353e+01,1.600000000000000033e-01
7.005346909999999871e-01,-9.247541049999999929e-01,7.223527674017367062e-01,1.000000000000000048e-04,4.330688595028615140e+01,2.700000000000000178e-01
1.674988617999999985e+00,1.042237757999999959e+00,1.364499919425927743e-01,1.000000000000000048e-04,3.903067459144585172e+01,1.499999999999999944e-01
1.672026148000000045e+00,1.039374368000000048e+00,1.491078977443824893e-01,1.000000000000000048e-04,3.932345738085636810e+01,1.600000000000000033e-01
2.993618983999999816e+00,-1.008517228000000099e+00,6.575007642511272454e-01,1.000000000000000048e-04,4.316291111051535978e+01,1.700000000000000122e-01
2.992837709999999873e+00,-1.014889098000000045e+00,8.541601748587492882e-01,1.000000000000000048e-04,4.336028933600342583e+01,2.800000000000000266e-01
2.980621672999999916e+00,-1.012535224000000067e+00,4.286563281471222897e-01,1.000000000000000048e-04,4.182092594284266340e+01,1.499999999999999944e-01
3.118379398000000080e+00,-1.044341935000000055e+00,8.738430426546148766e-01,1.000000000000000048e-04,4.359004279556656769e+01,3.099999999999999978e-01
3.132904315000000217e+00,-1.046896950999999909e+00,6.420156834789041422e-01,1.000000000000000048e-04,4.285252671864125062e+01,2.200000000000000011e-01
1.248659997999999938e+00,-1.117162079000000086e+00,2.850664203428385779e-01,1.000000000000000048e-04,4.077697035673116233e+01,2.700000000000000178e-01
2.302446713000000145e+00,-1.091359299000000060e+00,1.924859410489307976e-01,1.000000000000000048e-04,3.995540309200915630e+01,2.899999999999999800e-01
3.133486173000000097e+00,-1.061461677999999909e+00,1.244497507164165295e+00,1.000000000000000048e-04,4.483811203186217398e+01,3.099999999999999978e-01
1.251013366000000016e+00,-1.102704651999999896e+00,3.270215761656192210e-01,1.000000000000000048e-04,4.142116270975147074e+01,2.300000000000000100e-01
1.232341668999999973e+00,-1.105349812000000043e+00,8.271235038359230352e-01,1.000000000000000048e-04,4.361740941264103810e+01,2.200000000000000011e-01
2.330538756999999794e+00,-1.086213730999999960e+00,2.236143004980457594e-01,1.000000000000000048e-04,4.023106906079854639e+01,2.300000000000000100e-01
3.104372880000000112e+00,-1.050765708999999992e+00,1.020613617870210099e+00,1.000000000000000048e-04,4.410020574198748733e+01,2.200000000000000011e-01
3.122794933000000217e+00,-1.050942575000000101e+00,3.645424434451225437e-01,1.000000000000000048e-04,4.153569762096235962e+01,2.099999999999999922e-01
3.135928428000000157e+00,-1.044986675000000087e+00,4.784000153427236945e-01,1.000000000000000048e-04,4.212576866194317660e+01,2.300000000000000100e-01
3.135701593999999925e+00,-1.049448040999999998e+00,9.027915502683192539e-01,1.000000000000000048e-04,4.447468552939268704e+01,2.399999999999999911e-01
2.902190216000000156e+00,-1.054666754000000095e+00,1.208210008976298155e-01,1.000000000000000048e-04,3.883465892992026625e+01,2.099999999999999922e-01
1.219278212000000083e+00,-1.102494101000000004e+00,3.804301499967566169e-01,1.000000000000000048e-04,4.155918961547094881e+01,2.399999999999999911e-01
2.314258420999999899e+00,-1.073777474999999981e+00,9.452924674446716580e-02,1.000000000000000048e-04,3.842094479833316711e+01,2.399999999999999911e-01
3.138600745000000192e+00,-1.056209613999999908e+00,6.485299147475878101e-01,1.000000000000000048e-04,4.318629390458259820e+01,2.800000000000000266e-01
2.873014373000000177e+00,-1.047336534999999902e+00,3.193811412265237237e-01,1.000000000000000048e-04,4.123789017703642656e+01,2.000000000000000111e-01
2.890150627000000139e+00,-1.045368942999999939e+00,2.252590499139297542e-01,1.000000000000000048e-04,4.066320022060722295e+01,2.200000000000000011e-01
-3.136513490179586139e+00,-1.038988312000000080e+00,6.483369807909535876e-01,1.000000000000000048e-04,4.330195209571688508e+01,2.800000000000000266e-01
3.120369102000000172e+00,-1.042910143999999928e+00,2.533542812271121214e-01,1.000000000000000048e-04,4.074064852526147718e+01,2.399999999999999911e-01
3.132773262000000170e+00,-1.048570620000000009e+00,8.674276605292043918e-01,1.000000000000000048e-04,4.380760540750885923e+01,2.300000000000000100e-01
3.132934141999999866e+00,-1.046888051000000042e+00,8.292046010473161921e-01,1.000000000000000048e-04,4.341706329265962694e+01,2.200000000000000011e-01
3.134455274000000014e+00,-1.046257098000000108e+00,8.903930153072647791e-01,1.000000000000000048e-04,4.349183532547549902e+01,2.200000000000000011e-01
2.910504301000000016e+00,-1.063930792999999930e+00,9.891776545224728601e-02,1.000000000000000048e-04,3.826689060422927469e+01,2.399999999999999911e-01
2.301930878999999930e+00,-1.084305269999999988e+00,3.465832812500184712e-01,1.000000000000000048e-04,4.124904204781172012e+01,3.099999999999999978e-01
2.314913878000000036e+00,-1.104421796000000011e+00,9.395905537789976947e-01,1.000000000000000048e-04,4.395694767409160164e+01,2.600000000000000089e-01
1.232494258000000009e+00,-1.089556776000000005e+00,1.842861256841317186e-01,1.000000000000000048e-04,3.991422317714715717e+01,3.099999999999999978e-01
-3.138875270179586341e+00,-1.027091259999999950e+00,5.741203405354056155e-01,1.000000000000000048e-04,4.299186569609000230e+01,3.800000000000000044e-01
1.277748142000000087e+00,-1.105660628999999950e+00,2.326358472289176138e-01,1.000000000000000048e-04,3.993692856308835104e+01,2.500000000000000000e-01
2.339694710999999927e+00,-1.083680948999999893e+00,1.689453285754143330e-01,1.000000000000000048e-04,3.929964138017023600e+01,2.300000000000000100e-01
3.085408954000000037e+00,-1.045989441999999991e+00,4.751106145250443280e-01,1.000000000000000048e-04,4.252963510758114296e+01,2.800000000000000266e-01
3.122183823999999941e+00,-1.053540683000000033e+00,4.631758208817264855e-01,1.000000000000000048e-04,4.213339313652359408e+01,3.699999999999999956e-01
1.263417701000000060e+00,-1.099941301000000093e+00,4.829744135196225585e-01,1.000000000000000048e-04,4.239332856326394250e+01,2.200000000000000011e-01
1.238769020999999970e+00,-1.122513239999999968e+00,4.864649168545325253e-01,1.000000000000000048e-04,4.229513665363248975e+01,2.600000000000000089e-01
1.225778744000000087e+00,-1.107856694000000086e+00,1.195900832678600256e+00,1.000000000000000048e-04,4.449863698403833467e+01,2.500000000000000000e-01
2.356185176999999964e+00,-1.090954028000000076e+00,4.524332880766637199e-01,1.000000000000000048e-04,4.197567354364986869e+01,2.700000000000000178e-01
1.231078855000000027e+00,-1.109460918999999990e+00,1.267403612714068650e+00,1.000000000000000048e-04,4.536168098913261559e+01,2.300000000000000100e-01
2.350025410999999842e+00,-1.078254897999999962e+00,2.625173078233515866e-01,1.000000000000000048e-04,4.047425383241815666e+01,2.300000000000000100e-01
2.889344674999999807e+00,-1.054064458000000037e+00,1.588169564176802329e-01,1.000000000000000048e-04,3.914522475174083382e+01,3.200000000000000067e-01
1.260972444000000081e+00,-1.102168519999999985e+00,1.760357088236930156e-01,1.000000000000000048e-04,3.968738000955270451e+01,2.899999999999999800e-01
3.138597202000000141e+00,-1.049455424000000026e+00,4.328185100349031256e-01,1.000000000000000048e-04,4.193153223506843119e+01,2.600000000000000089e-01
1.280173519000000093e+00,-1.106045986000000036e+00,4.169847191760467364e-01,1.000000000000000048e-04,4.159588954715107434e+01,2.899999999999999800e-01
3.140421104000000074e+00,-1.048273016000000002e+00,8.230636188031303924e-02,1.000000000000000048e-04,3.824796956772576095e+01,2.700000000000000178e-01
2.887571490000000018e+00,-1.060290981000000077e+00,3.279876131798593608e-01,1.000000000000000048e-04,4.126708312370256948e+01,2.300000000000000100e-01
3.117377486000000086e+00,-1.048849812999999909e+00,4.934845540310841550e-01,1.000000000000000048e-04,4.262153175506643521e+01,2.800000000000000266e-01
3.139331405000000075e+00,-1.045946368000000071e+00,1.326032514787575334e+00,1.000000000000000048e-04,4.468050462256742605e+01,2.300000000000000100e-01
2.901812189000000153e+00,-1.070407117000000019e+00,1.787500445932452831e-01,1.000000000000000048e-04,4.001182616349706933e+01,2.200000000000000011e-01
2.874698792999999863e+00,-1.069280417999999955e+00,1.369024731399621775e-01,1.000000000000000048e-04,3.908034944200732497e+01,2.200000000000000011e-01
3.126790450000000110e+00,-1.053686536000000062e+00,8.703205968219933641e-01,1.000000000000000048e-04,4.381223163705876544e+01,2.099999999999999922e-01
1.253234667999999941e+00,-1.096167120000000050e+00,4.422054468948997119e-01,1.000000000000000048e-04,4.222190625124509467e+01,2.200000000000000011e-01
1.242189800000000011e+00,-1.095888138000000067e+00,5.230110408838948288e-01,1.000000000000000048e-04,4.194284033195662431e+01,2.899999999999999800e-01
2.358704259000000025e+00,-1.096119858000000002e+00,5.745398304005631118e-01,1.000000000000000048e-04,4.261895702951351694e+01,2.099999999999999922e-01
3.090657074000000115e+00,-1.046905049999999893e+00,1.145640098593934120e-01,1.000000000000000048e-04,3.867053885441801953e+01,2.300000000000000100e-01
2.350320292999999783e+00,-1.077642637000000070e+00,2.795833655712807175e-01,1.000000000000000048e-04,4.049189687222234824e+01,3.300000000000000155e-01
3.120911620999999858e+00,-1.047605429999999949e+00,1.005399527018048023e+00,1.000000000000000048e-04,4.420080481716137655e+01,2.899999999999999800e-01
2.310418793000000193e+00,-1.091478047999999923e+00,4.100453079594590378e-01,1.000000000000000048e-04,4.216702220735297146e+01,3.300000000000000155e-01
2.888242410000000149e+00,-1.055260810999999910e+00,2.374706080789170670e-01,1.000000000000000048e-04,4.050858305620212008e+01,2.999999999999999889e-01
2.313880778000000138e+00,-1.089056457000000089e+00,8.859860602331572910e-01,1.000000000000000048e-04,4.412654671459016953e+01,2.600000000000000089e-01
3.096505394999999883e+00,-1.050897790999999915e+00,2.095213279232148729e-01,1.000000000000000048e-04,4.017087788959769057e+01,3.300000000000000155e-01
1.264206060000000020e+00,-1.108314516000000083e+00,6.218348124551584810e-01,1.000000000000000048e-04,4.280121768203110122e+01,2.500000000000000000e-01
2.317080779999999951e+00,-1.080569537999999996e+00,4.168674452952521037e-01,1.000000000000000048e-04,4.171962099183233619e+01,2.399999999999999911e-01
2.308161032000000112e+00,-1.080284865999999955e+00,2.928350697424262350e-01,1.000000000000000048e-04,4.109691627610306597e+01,3.900000000000000133e-01
1.213089824000000094e+00,-1.095999417000000031e+00,4.461591542993623705e-01,1.000000000000000048e-04,4.232935557716194097e+01,2.700000000000000178e-01
3.095344697999999894e+00,-1.044259242999999948e+00,2.153419574712314155e-01,1.000000000000000048e-04,3.985547951903821229e+01,2.200000000000000011e-01
3.093500166000000107e+00,-1.047656949999999920e+00,6.708497889817301996e-01,1.000000000000000048e-04,4.308647765833327981e+01,2.300000000000000100e-01
2.871266652000000086e+00,-1.064917746999999970e+00,9.889655929835130532e-01,1.000000000000000048e-04,4.400272524809550134e+01,2.500000000000000000e-01
2.872879009000000039e+00,-1.076645507999999918e+00,6.134800697825086857e-01,1.000000000000000048e-04,4.276271210871615835e+01,2.099999999999999922e-01
1.241294699000000001e+00,-1.109043570000000090e+00,3.614564530920805208e-01,1.000000000000000048e-04,4.106003816478705915e+01,2.099999999999999922e-01
1.238788393000000099e+00,-1.083197141000000085e+00,5.002999207403489024e-01,1.000000000000000048e-04,4.222459433146555341e+01,2.999999999999999889e-01
-3.140928712179586135e+00,-1.049943351000000025e+00,4.990410892466865533e-01,1.000000000000000048e-04,4.234847003713734637e+01,2.200000000000000011e-01
2.897074545000000168e+00,-1.050668165000000043e+00,4.726372085565062608e-01,1.000000000000000048e-04,4.186582712634987047e+01,2.099999999999999922e-01
3.133488720999999977e+00,-1.053899826000000095e+00,1.341798396395583737e-01,1.000000000000000048e-04,3.932669921241735977e+01,2.300000000000000100e-01
2.854965548000000020e+00,-1.051119023000000041e+00,2.434367211690622312e-01,1.000000000000000048e-04,4.026487078909070050e+01,3.200000000000000067e-01
2.846666281000000076e+00,-1.061494909000000098e+00,5.438372243568445619e-01,1.000000000000000048e-04,4.279394894758731027e+01,2.600000000000000089e-01
1.477625364000000108e+00,-9.892628350000000070e-01,4.158980762632953354e-01,1.000000000000000048e-04,4.188538029719113354e+01,2.000000000000000111e-01
-2.998301261179586064e+00,-5.567642400000000213e-01,5.419407685047066270e-01,1.000000000000000048e-04,4.261211888437328810e+01,1.799999999999999933e-01
2.915910107000000195e+00,-9.248875840000000403e-01,6.367470153061853821e-01,1.000000000000000048e-04,4.279433971673564230e+01,2.999999999999999889e-01
2.904218159000000021e+00,-9.279150130000000107e-01,7.163063600687460397e-01,1.000000000000000048e-04,4.363464183540685326e+01,2.399999999999999911e-01
2.945746643000000109e+00,-9.241091030000000428e-01,7.598356005962558779e-01,1.000000000000000048e-04,4.321886083299778392e+01,2.300000000000000100e-01
2.195221751000000054e+00,9.567984520000000215e-01,6.351120232448119740e-01,1.000000000000000048e-04,4.293923513186648222e+01,2.200000000000000011e-01
-2.382074272179586227e+00,-9.504311730000000180e-01,8.908250933868311350e-02,1.000000000000000048e-04,3.792615847254596417e+01,2.300000000000000100e-01
2.197803225999999999e+00,9.560313849999999558e-01,6.970196910889043806e-01,1.000000000000000048e-04,4.321334116791600621e+01,2.300000000000000100e-01
-2.380846050179586282e+00,-9.512843520000000552e-01,6.812072844735903576e-01,1.000000000000000048e-04,4.323901382458493003e+01,2.600000000000000089e-01
-2.382960995179586039e+00,-9.501026420000000527e-01,5.202475553953547216e-01,1.000000000000000048e-04,4.241202763908862039e+01,2.099999999999999922e-01
2.192165822000000208e+00,9.554729659999999791e-01,1.174810382630939287e+00,1.000000000000000048e-04,4.458311066053875038e+01,2.899999999999999800e-01
-2.383512939179586176e+00,-9.505219620000000535e-01,1.321944862878500881e+00,1.000000000000000048e-04,4.465163497969352591e+01,2.000000000000000111e-01
2.197044292000000176e+00,9.582492320000000063e-01,6.748197578698944543e-01,1.000000000000000048e-04,4.318735886606194896e+01,2.500000000000000000e-01
2.198013217999999824e+00,9.570721989999999568e-01,4.294283071580404787e-01,1.000000000000000048e-04,4.159530834267147270e+01,2.099999999999999922e-01
2.198391541999999976e+00,9.561199929999999458e-01,7.190682746124033020e-01,1.000000000000000048e-04,4.319191994375109545e+01,2.300000000000000100e-01
2.199218732999999926e+00,9.570277640000000030e-01,1.997432282729023623e-01,1.000000000000000048e-04,3.987662823634907028e+01,2.200000000000000011e-01
2.196667974999999995e+00,9.569524729999999701e-01,5.877301480556629265e-01,1.000000000000000048e-04,4.250756449390547687e+01,2.399999999999999911e-01
2.196400267000000017e+00,9.571105250000000453e-01,4.369367786853928237e-01,1.000000000000000048e-04,4.187443274487803535e+01,2.500000000000000000e-01
2.195980999000000100e+00,9.563170869999999546e-01,2.782902136745706301e-01,1.000000000000000048e-04,4.097306089207643964e+01,2.200000000000000011e-01
2.198886345000000020e+00,9.574225640000000315e-01,6.156091364180469316e-01,1.000000000000000048e-04,4.264456137568203786e+01,3.300000000000000155e-01
-2.382942164179586264e+00,-9.487821469999999646e-01,1.041726874270856307e-01,1.000000000000000048e-04,3.851087356339351686e+01,2.000000000000000111e-01
2.197058621000000045e+00,9.568337070000000333e-01,2.123803079383494996e-01,1.000000000000000048e-04,4.057772785310724117e+01,2.600000000000000089e-01
2.196754174000000059e+00,9.569828230000000380e-01,4.102182760802617345e-01,1.000000000000000048e-04,4.139065709419497097e+01,2.399999999999999911e-01
-2.381905888179586039e+00,-9.494029419999999719e-01,4.667084386225470727e-01,1.000000000000000048e-04,4.190866541195180872e+01,2.399999999999999911e-01
-2.382353656179586388e+00,-9.501919130000000546e-01,5.320247852356774221e-01,1.000000000000000048e-04,4.156870281827799829e+01,2.600000000000000089e-01
-2.385313647179586383e+00,-9.492824659999999914e-01,8.040817637314452426e-01,1.000000000000000048e-04,4.363734485795554718e+01,2.399999999999999911e-01
-2.383308463179586223e+00,-9.502672559999999491e-01,4.407134805635550823e-01,1.000000000000000048e-04,4.166875669133378324e+01,2.000000000000000111e-01
2.194446376000000143e+00,9.548028840000000184e-01,2.804656020995117682e-01,1.000000000000000048e-04,4.076743496864526151e+01,3.699999999999999956e-01
-2.377678389179586294e+00,-9.493284189999999789e-01,1.035968953767376632e-01,1.000000000000000048e-04,3.842709747739232284e+01,3.099999999999999978e-01
2.195048706000000127e+00,9.553664520000000326e-01,1.128855555761596463e-01,1.000000000000000048e-04,3.865404718440360199e+01,2.399999999999999911e-01
2.194988459000000169e+00,9.569281090000000267e-01,2.952469508357309369e-01,1.000000000000000048e-04,4.095105303028699240e+01,2.099999999999999922e-01
2.198773670000000013e+00,9.585742720000000050e-01,3.566182543006835015e-01,1.000000000000000048e-04,4.106260203413704346e+01,2.800000000000000266e-01
2.196007632000000154e+00,9.574002940000000406e-01,1.206670523425777741e+00,1.000000000000000048e-04,4.453804794928354482e+01,2.800000000000000266e-01
2.193610842000000005e+00,9.569156829999999614e-01,3.296885569896366164e-01,1.000000000000000048e-04,4.087568143227215955e+01,2.099999999999999922e-01
2.194846306000000080e+00,9.574700699999999509e-01,3.554418486598327487e-01,1.000000000000000048e-04,4.109850984367906790e+01,2.300000000000000100e-01
-2.901318991795864832e-01,1.086903570000000041e+00,5.137869814379187883e-01,1.000000000000000048e-04,4.200378368587720246e+01,2.000000000000000111e-01
-2.914486071795865385e-01,1.085909494999999891e+00,2.460705653252930336e-01,1.000000000000000048e-04,4.039700850009829480e+01,1.000000000000000056e-01
-2.954610881795858290e-01,1.084462065999999947e+00,3.688186443184784391e-01,1.000000000000000048e-04,4.139419857199133901e+01,1.199999999999999956e-01
-3.403197011795864313e-01,1.090760651000000081e+00,2.273723633978423919e-01,1.000000000000000048e-04,4.037110133503841070e+01,8.999999999999999667e-02
-3.429455761795860980e-01,1.087892671000000089e+00,2.187812394938819516e-01,1.000000000000000048e-04,4.018999212780014574e+01,1.400000000000000133e-01
6.896152909999999636e-01,-9.249195220000000495e-01,6.092319513812058940e-01,1.000000000000000048e-04,4.261283247608258051e+01,2.000000000000000111e-01
1.024453132999999960e+00,1.182715689999999986e+00,1.000139163242268481e-01,1.000000000000000048e-04,3.811699006661977052e+01,1.900000000000000022e-01
1.006083177000000051e+00,1.165244638999999971e+00,1.183723901551737789e+00,1.000000000000000048e-04,4.470229168612370074e+01,1.700000000000000122e-01
9.905969959999999519e-01,1.153001898999999941e+00,1.291407851677532026e+00,1.000000000000000048e-04,4.417099840429296620e+01,3.499999999999999778e-01
2.950804928999999799e+00,-1.010655210999999998e+00,8.070145765821459261e-01,1.000000000000000048e-04,4.373183076043294903e+01,1.700000000000000122e-01
2.951637304000000128e+00,-1.010683065999999908e+00,4.232989859064519855e-01,1.000000000000000048e-04,4.191410265796763923e+01,1.900000000000000022e-01
-2.349248843179586377e+00,-9.322901449999999590e-01,1.557626400670559796e-01,1.000000000000000048e-04,3.926290798439173102e+01,1.900000000000000022e-01
