-1.598279621179586663e+00,2.779993629999999993e-01,1.189818324343727696e-02,1.000000000000000048e-04,3.346723492311027570e+01,1.700000000000000122e-01
-1.710562538179586589e+00,-1.402302595000000096e+00,2.990104026777995472e-02,1.000000000000000048e-04,3.528919224583401615e+01,2.000000000000000111e-01
-2.771840681795865180e-01,-1.115655276000000029e+00,1.829012804493079791e-02,1.000000000000000048e-04,3.440031064519186543e+01,1.700000000000000122e-01
-1.608432286179586335e+00,-6.514894359999999773e-01,2.735521357713999180e-02,1.000000000000000048e-04,3.512897580655053531e+01,1.600000000000000033e-01
-1.490451089179586575e+00,-3.201959389999999850e-01,1.789967338720255263e-02,1.000000000000000048e-04,3.452459454939933181e+01,1.700000000000000122e-01
-1.995144670179586299e+00,-1.040863893000000040e+00,2.315567282659780624e-02,1.000000000000000048e-04,3.479396736293865899e+01,1.799999999999999933e-01
-2.211919791795864398e-01,-6.717550429999999961e-01,1.016884579298271696e-02,1.000000000000000048e-04,3.339490233006009845e+01,2.200000000000000011e-01
-8.294029241795861651e-01,6.699244909999999553e-01,3.572981847560274815e-02,1.000000000000000048e-04,3.627450551665491219e+01,1.799999999999999933e-01
-1.123871723179585835e+00,1.275958498999999913e+00,9.090021962347316631e-03,1.000000000000000048e-04,3.280960317299713580e+01,1.900000000000000022e-01
-5.094723721795864080e-01,-7.371415260000000469e-01,4.697147817522551172e-02,1.000000000000000048e-04,3.681064993668387331e+01,1.600000000000000033e-01
6.571342580000000266e-01,4.949370419999999937e-01,1.566157237906162791e-02,1.000000000000000048e-04,3.403245170776528994e+01,1.700000000000000122e-01
-1.010588552179585875e+00,4.063959939999999826e-01,2.025082470347072672e-02,1.000000000000000048e-04,3.475254307771088946e+01,1.400000000000000133e-01
-5.300352171795861267e-01,-4.198024320000000031e-01,1.496799093813594439e-02,1.000000000000000048e-04,3.403855908786548667e+01,1.499999999999999944e-01
-3.959305511795863097e-01,-4.514385590000000170e-01,1.968919373185729071e-02,1.000000000000000048e-04,3.462990577656255198e+01,1.600000000000000033e-01
-1.302326638179586382e+00,4.891699640000000127e-01,3.205914924340769190e-02,1.000000000000000048e-04,3.581192731902913806e+01,8.999999999999999667e-02
-8.169037861795862554e-01,4.857709299999999897e-01,4.447051336202090255e-02,1.000000000000000048e-04,3.664045899280664287e+01,1.000000000000000056e-01
-1.156602994179586119e+00,7.039336720000000103e-01,3.226217736818171034e-02,1.000000000000000048e-04,3.567434395953094395e+01,1.100000000000000006e-01
2.500120207999999788e+00,-3.403989430000000094e-01,3.295766544361367067e-02,1.000000000000000048e-04,3.592281639817807104e+01,1.100000000000000006e-01
2.397122115999999803e+00,-8.283729720000000407e-01,2.017471079285582114e-02,1.000000000000000048e-04,3.486508931388896571e+01,1.700000000000000122e-01
-4.391142381795862804e-01,9.199097720000000145e-01,1.828474892772447014e-02,1.000000000000000048e-04,3.463267805852838421e+01,2.200000000000000011e-01
-1.356814123179586495e+00,1.335301293999999972e+00,2.326843295303970827e-02,1.000000000000000048e-04,3.489149685105655152e+01,2.600000000000000089e-01
2.612804049999999823e+00,3.003891830000000041e-01,1.505996382100804887e-02,1.000000000000000048e-04,3.431661685892130720e+01,1.700000000000000122e-01
-1.192441121179586005e+00,1.100105410000000061e+00,2.462755272227790115e-02,1.000000000000000048e-04,3.509045589091634554e+01,1.799999999999999933e-01
-3.012917491179586182e+00,1.485957493999999990e+00,3.435665866718351502e-02,1.000000000000000048e-04,3.576365539801881965e+01,2.200000000000000011e-01
-7.329138461795858817e-01,1.044356909000000000e+00,2.764655963259388116e-02,1.000000000000000048e-04,3.541006283498605711e+01,1.700000000000000122e-01
1.024371087000000013e+00,-9.607604419999999923e-01,3.077174698321671897e-02,1.000000000000000048e-04,3.564198169828424767e+01,1.600000000000000033e-01
2.960998206000000188e+00,-8.548671270000000044e-01,2.266814409846662492e-02,1.000000000000000048e-04,3.480464410011555287e+01,1.900000000000000022e-01
-3.017579355179586198e+00,-3.780387199999999948e-01,3.304091866771274866e-02,1.000000000000000048e-04,3.538090182400225103e+01,2.399999999999999911e-01
-2.268575282179586594e+00,6.921453520000000470e-01,1.677191871812944157e-02,1.000000000000000048e-04,3.480140892196211411e+01,3.699999999999999956e-01
2.478186394000000181e+00,5.281495040000000474e-01,1.237327390388487380e-02,1.000000000000000048e-04,3.378606294007627753e+01,2.399999999999999911e-01
1.941716173999999961e+00,9.578325640000000529e-01,1.168294833401195554e-02,1.000000000000000048e-04,3.338350862542142750e+01,3.800000000000000044e-01
2.041827891000000061e+00,-8.953703119999999460e-01,1.927479149941113690e-02,1.000000000000000048e-04,3.439068570464638697e+01,1.700000000000000122e-01
2.521229080999999983e+00,-8.544186950000000058e-01,2.338464347828539402e-02,1.000000000000000048e-04,3.495230781888584914e+01,2.000000000000000111e-01
2.745955969000000163e+00,3.136627880000000257e-01,2.447391570882162526e-02,1.000000000000000048e-04,3.500388094405746386e+01,2.099999999999999922e-01
1.738295793999999894e+00,1.134430556000000090e+00,1.115641953934942698e-02,1.000000000000000048e-04,3.347899297294310372e+01,1.799999999999999933e-01
-8.687814521795864664e-01,6.221710379999999541e-01,2.394271716544849049e-02,1.000000000000000048e-04,3.444144639987255374e+01,3.499999999999999778e-01
-1.857013858179586308e+00,3.937075449999999921e-01,2.599610007140884527e-02,1.000000000000000048e-04,3.514352897690217503e+01,2.999999999999999889e-01
-2.894431473179586156e+00,2.701405689999999971e-01,4.290008765863362328e-02,1.000000000000000048e-04,3.639281623761876006e+01,2.300000000000000100e-01
2.213600608000000136e+00,-5.295933369999999973e-01,9.824777178808474787e-03,1.000000000000000048e-04,3.307974142445044663e+01,2.500000000000000000e-01
9.327636729999999599e-01,4.069681829999999834e-01,4.377592468060731434e-02,1.000000000000000048e-04,3.632210716407880824e+01,2.300000000000000100e-01
1.743234563999999986e+00,7.359057650000000450e-01,1.269705327541026385e-02,1.000000000000000048e-04,3.374456915203832352e+01,2.200000000000000011e-01
-2.812965047179586175e+00,5.929882829999999494e-01,9.900585118293614428e-03,1.000000000000000048e-04,3.322615290046903169e+01,2.399999999999999911e-01
-2.977583888179586413e+00,-1.437144969999999966e-01,3.068009040829244860e-02,1.000000000000000048e-04,3.626746958239152008e+01,2.700000000000000178e-01
2.276564226000000080e+00,-5.051809499999999620e-01,3.275674961402907925e-02,1.000000000000000048e-04,3.605270475699428800e+01,2.800000000000000266e-01
2.667465888000000174e+00,-6.260506340000000502e-01,1.479898149928726703e-02,1.000000000000000048e-04,3.386551924281116754e+01,2.600000000000000089e-01
1.041358068000000081e+00,8.506585119999999778e-01,3.431326208032969838e-02,1.000000000000000048e-04,3.563027287693616785e+01,2.300000000000000100e-01
2.499030525999999863e+00,-9.629979760000000333e-01,3.439475835965644102e-02,1.000000000000000048e-04,3.630559613042301947e+01,3.099999999999999978e-01
1.334501084000000004e+00,-7.340646360000000481e-01,1.600084528723821897e-02,1.000000000000000048e-04,3.417405871280703877e+01,2.300000000000000100e-01
2.196979751999999841e+00,-5.334639439999999677e-01,1.019403523389361688e-02,1.000000000000000048e-04,3.327103031892185925e+01,2.500000000000000000e-01
1.445572062999999963e+00,-8.838676049999999451e-01,2.375317465076332013e-02,1.000000000000000048e-04,3.537898232751355465e+01,3.499999999999999778e-01
7.246286520000000397e-01,-7.843460709999999780e-01,1.797770965970357793e-02,1.000000000000000048e-04,3.461119488387795684e+01,3.099999999999999978e-01
2.179180484000000195e+00,1.312341798999999920e+00,9.336476240149993444e-03,1.000000000000000048e-04,3.263470494255948751e+01,2.200000000000000011e-01
7.669035910000000511e-01,2.329377750000000136e-01,2.171853060075012998e-02,1.000000000000000048e-04,3.480620193026106080e+01,2.500000000000000000e-01
2.984436029999999906e+00,4.410184999999999800e-01,2.747035618838600257e-02,1.000000000000000048e-04,3.509888673852101704e+01,2.999999999999999889e-01
1.808380389999999949e+00,-5.931087419999999666e-01,2.925419464605205633e-02,1.000000000000000048e-04,3.519475550233089933e+01,2.200000000000000011e-01
2.378694356000000010e+00,6.891218140000000547e-01,3.204306097723752522e-02,1.000000000000000048e-04,3.593945224957847273e+01,3.099999999999999978e-01
-1.027171309179585990e+00,8.938185499999999895e-01,4.660493955922140330e-02,1.000000000000000048e-04,3.677020638784770767e+01,3.099999999999999978e-01
2.177629786999999872e+00,1.088514723000000073e+00,2.513336553456690936e-02,1.000000000000000048e-04,3.519524950028071686e+01,2.500000000000000000e-01
2.446904437000000154e+00,4.505237189999999892e-01,2.220429198225137846e-02,1.000000000000000048e-04,3.458607326439108931e+01,2.700000000000000178e-01
-2.745075452179586151e+00,5.290477460000000409e-01,2.827774290827722581e-02,1.000000000000000048e-04,3.552248005868111846e+01,1.600000000000000033e-01
3.470126559999999749e-01,6.971221490000000243e-01,3.062169277156212566e-02,1.000000000000000048e-04,3.572543196398518717e+01,2.399999999999999911e-01
-1.741234469179586242e+00,8.281857209999999858e-01,2.323354833702007127e-02,1.000000000000000048e-04,3.498740605264680426e+01,1.000000000000000056e-01
6.278667869999999818e-01,1.201237362999999947e+00,2.173651094155792940e-02,1.000000000000000048e-04,3.505428298935471787e+01,1.799999999999999933e-01
1.901542252999999905e+00,5.984822429999999693e-01,2.651108063372986656e-02,1.000000000000000048e-04,3.543582503643387582e+01,1.700000000000000122e-01
9.102462569999999475e-01,3.833152009999999943e-01,1.942148237267216082e-02,1.000000000000000048e-04,3.471217991611728593e+01,2.200000000000000011e-01
4.621894529999999723e-01,4.355896570000000190e-01,2.592858985095869429e-02,1.000000000000000048e-04,3.492116603347461279e+01,2.399999999999999911e-01
1.731299603999999936e+00,-9.087058740000000245e-01,2.386950485424499391e-02,1.000000000000000048e-04,3.554287767559175393e+01,2.200000000000000011e-01
2.307708166999999921e+00,-3.555306579999999994e-01,2.516388582653705797e-02,1.000000000000000048e-04,3.535397382143514733e+01,1.700000000000000122e-01
2.284880370000000216e+00,-4.942566800000000038e-01,1.511390849162963512e-02,1.000000000000000048e-04,3.439099475802375139e+01,2.200000000000000011e-01
-2.729734007179586364e+00,-4.808223520000000084e-01,1.393348521401560625e-02,1.000000000000000048e-04,3.390031220928035793e+01,2.300000000000000100e-01
-2.728058296179586062e+00,8.181749999999999856e-01,2.188719599328625698e-02,1.000000000000000048e-04,3.522567852993198301e+01,2.200000000000000011e-01
1.539636916000000078e+00,-6.652033799999999830e-02,2.012300724612536840e-02,1.000000000000000048e-04,3.522165108697504365e+01,2.999999999999999889e-01
2.937620158000000092e+00,7.383732379999999873e-01,4.443376080082228619e-02,1.000000000000000048e-04,3.674632008413374251e+01,2.200000000000000011e-01
2.624384770999999894e+00,8.339422930000000012e-01,3.344338922077261245e-02,1.000000000000000048e-04,3.593243481019574403e+01,1.799999999999999933e-01
-2.594453966179586235e+00,1.052220571999999965e+00,3.444282922502650557e-02,1.000000000000000048e-04,3.603826468543972794e+01,1.900000000000000022e-01
-2.462277587179586114e+00,1.356652656000000068e+00,1.669123423406992934e-02,1.000000000000000048e-04,3.389385938812737464e+01,2.099999999999999922e-01
2.730654787000000194e+00,8.741146779999999783e-01,2.048178424997715297e-02,1.000000000000000048e-04,3.477667376418440170e+01,1.900000000000000022e-01
1.629450376000000089e+00,2.068732899999999875e-01,1.394741181252556750e-02,1.000000000000000048e-04,3.391797930867218724e+01,2.899999999999999800e-01
1.142160569999999958e-01,6.858846720000000285e-01,1.166934127386509701e-02,1.000000000000000048e-04,3.382031198301243080e+01,1.799999999999999933e-01
-4.383495451795864639e-01,9.198101690000000108e-01,1.026698189113406379e-02,1.000000000000000048e-04,3.349021227346304386e+01,2.600000000000000089e-01
1.001193188000000012e+00,8.013430529999999719e-01,2.445993976634652789e-02,1.000000000000000048e-04,3.523275381976252874e+01,1.799999999999999933e-01
-8.746654461795859703e-01,7.515327899999999506e-01,2.066627989287495026e-02,1.000000000000000048e-04,3.504083175066239164e+01,2.600000000000000089e-01
1.319662558000000097e+00,1.070340469999999933e-01,1.117103820749099086e-02,1.000000000000000048e-04,3.395800596762582302e+01,2.399999999999999911e-01
1.726021762000000015e+00,-6.377623550000000030e-01,1.037257841551242343e-02,1.000000000000000048e-04,3.320507978841528285e+01,2.600000000000000089e-01
-2.754219137179586330e+00,-9.277945709999999568e-01,1.770857189784091901e-02,1.000000000000000048e-04,3.416888137037825146e+01,3.699999999999999956e-01
1.691977534999999921e+00,1.434503057999999998e+00,3.366451834530015397e-02,1.000000000000000048e-04,3.579092052836622173e+01,2.099999999999999922e-01
8.272144390000000236e-01,-4.428667319999999852e-01,3.134443068555192724e-02,1.000000000000000048e-04,3.582904494353614666e+01,2.300000000000000100e-01
-2.185785446179585811e+00,4.040310730000000183e-01,2.730246860264484710e-02,1.000000000000000048e-04,3.501314920036579537e+01,1.799999999999999933e-01
2.680919170000000129e+00,5.929394510000000063e-01,3.213388319144327987e-02,1.000000000000000048e-04,3.564448635703252677e+01,1.799999999999999933e-01
2.468528393999999793e+00,-3.885411739999999892e-01,3.054364689524602383e-02,1.000000000000000048e-04,3.539959447009215410e+01,1.700000000000000122e-01
1.824819092000000031e+00,-9.187566499999999525e-01,2.518367664137599604e-02,1.000000000000000048e-04,3.490954842971840577e+01,2.099999999999999922e-01
2.252174823999999909e+00,-3.842870769999999769e-01,4.706564625185705175e-02,1.000000000000000048e-04,3.641689778119851439e+01,2.000000000000000111e-01
2.889947965000000174e+00,3.184077100000000105e-01,1.304120449340229193e-02,1.000000000000000048e-04,3.371296008772443287e+01,2.000000000000000111e-01
-2.666621499179586241e+00,1.790417820000000104e-01,1.813711187205613307e-02,1.000000000000000048e-04,3.449920488146613451e+01,1.900000000000000022e-01
2.353249148999999818e+00,9.653535600000000549e-01,2.788017421717725597e-02,1.000000000000000048e-04,3.540829814527116071e+01,1.799999999999999933e-01
1.765869402999999949e+00,9.288119630000000182e-01,2.388673425590548405e-02,1.000000000000000048e-04,3.488198629691672181e+01,3.599999999999999867e-01
1.931340567999999980e+00,-5.991437729999999906e-01,2.449062262140988544e-02,1.000000000000000048e-04,3.467522425625354288e+01,2.000000000000000111e-01
2.835991935000000019e+00,-7.109363199999999550e-01,1.490282170622436730e-02,1.000000000000000048e-04,3.419743526617546792e+01,1.900000000000000022e-01
-2.852520529179586095e+00,8.667541789999999580e-01,2.053919536606518825e-02,1.000000000000000048e-04,3.453690012594899628e+01,1.799999999999999933e-01
-2.458251249179586040e+00,-2.796002539999999925e-01,1.846531775706217182e-02,1.000000000000000048e-04,3.473150191270945442e+01,3.300000000000000155e-01
1.596378985000000084e+00,5.944120290000000084e-01,1.291604653105493661e-02,1.000000000000000048e-04,3.353874615180878749e+01,1.900000000000000022e-01
-2.484014184179586415e+00,8.016642189999999557e-01,3.847482226473464273e-02,1.000000000000000048e-04,3.642251218167329085e+01,1.900000000000000022e-01
-2.431723812179586108e+00,1.223750555999999934e+00,2.893205456873282344e-02,1.000000000000000048e-04,3.541542474528823448e+01,1.700000000000000122e-01
-2.378598255179586118e+00,1.197731727999999940e+00,3.688980979649514325e-02,1.000000000000000048e-04,3.593649469510295802e+01,1.900000000000000022e-01
1.739429998000000088e+00,2.494783479999999887e-01,1.430660664251282022e-02,1.000000000000000048e-04,3.337262092677332959e+01,3.099999999999999978e-01
-2.377494960179586059e+00,9.562939099999999693e-01,2.436876665358589378e-02,1.000000000000000048e-04,3.530788383244635043e+01,1.799999999999999933e-01
-9.021677017958662503e-02,6.959221140000000361e-01,2.246916329121240175e-02,1.000000000000000048e-04,3.542225239536833215e+01,3.499999999999999778e-01
2.021336933000000169e+00,8.510789659999999923e-01,1.740196717687836347e-02,1.000000000000000048e-04,3.456233483141117802e+01,2.800000000000000266e-01
2.573899695999999793e+00,-5.247218830000000001e-01,3.005549586842204413e-02,1.000000000000000048e-04,3.577337476549000428e+01,1.700000000000000122e-01
2.346925623000000183e+00,-7.496726200000000118e-01,2.232375419960863638e-02,1.000000000000000048e-04,3.499439526300530900e+01,1.700000000000000122e-01
2.543651012999999850e+00,-2.555195920000000176e-01,4.035043973701335496e-02,1.000000000000000048e-04,3.621298137072690793e+01,1.900000000000000022e-01
2.457771880000000131e+00,-4.383329890000000062e-01,1.281641438152636425e-02,1.000000000000000048e-04,3.395433234175737880e+01,1.700000000000000122e-01
-2.749033603179586116e+00,5.277091179999999770e-01,1.763465466940949966e-02,1.000000000000000048e-04,3.412444708816467909e+01,1.799999999999999933e-01
-3.021446786179586397e+00,6.716344440000000526e-01,1.571598411837249465e-02,1.000000000000000048e-04,3.423995152671986375e+01,1.799999999999999933e-01
2.390319493999999878e+00,1.427533710000000067e+00,9.532360963256936159e-03,1.000000000000000048e-04,3.307872463260602558e+01,1.799999999999999933e-01
2.491619029000000207e+00,8.136863199999999630e-01,4.199104694002087079e-02,1.000000000000000048e-04,3.634755570970427385e+01,1.900000000000000022e-01
2.336721559999999975e+00,1.049041915000000103e+00,2.656892101176500098e-02,1.000000000000000048e-04,3.526979419792866111e+01,1.700000000000000122e-01
1.201678150000000000e+00,3.331923239999999842e-01,2.292358864644605809e-02,1.000000000000000048e-04,3.505690080034213452e+01,1.900000000000000022e-01
-3.811893421795859993e-01,1.284308205000000092e+00,3.580285135527683238e-02,1.000000000000000048e-04,3.590534090799241795e+01,2.000000000000000111e-01
5.879284790000000038e-01,8.245620540000000442e-01,1.479129990786010040e-02,1.000000000000000048e-04,3.431875246833268989e+01,1.700000000000000122e-01
-1.085925731795862603e-01,9.806715139999999664e-01,3.386673301456899488e-02,1.000000000000000048e-04,3.588851849348741041e+01,1.799999999999999933e-01
1.189812670000000017e+00,8.219376269999999485e-01,1.611156292646875876e-02,1.000000000000000048e-04,3.403454926049474949e+01,1.700000000000000122e-01
2.896526737999999934e+00,1.048685354999999930e+00,1.582336287349517256e-02,1.000000000000000048e-04,3.453720216456098058e+01,1.700000000000000122e-01
8.784667550000000436e-01,-5.840451829999999678e-01,1.244966126218605140e-02,1.000000000000000048e-04,3.411294268139511132e+01,2.099999999999999922e-01
-2.025603206179586557e+00,1.419180792999999996e+00,2.664897555875889168e-02,1.000000000000000048e-04,3.500124917355437049e+01,1.799999999999999933e-01
1.097118803000000087e+00,1.428367445999999985e+00,2.493039389099016567e-02,1.000000000000000048e-04,3.493526314000090593e+01,1.799999999999999933e-01
-1.923054671795858539e-01,8.268694330000000425e-01,1.708836429381532795e-02,1.000000000000000048e-04,3.449009337673616216e+01,2.000000000000000111e-01
1.974446608000000047e+00,-1.250497374000000050e+00,8.864247088100629668e-03,1.000000000000000048e-04,3.299444087543172799e+01,2.000000000000000111e-01
1.714471547999999901e+00,-4.841846819999999774e-01,3.225051282027413535e-02,1.000000000000000048e-04,3.613950016393903297e+01,1.700000000000000122e-01
1.635209042000000057e+00,-1.499680316999999929e+00,2.862159405983244476e-02,1.000000000000000048e-04,3.559833905673927745e+01,1.900000000000000022e-01
-3.085878636179586021e+00,-8.156760069999999807e-01,4.502353334991449074e-02,1.000000000000000048e-04,3.649976564977486504e+01,1.799999999999999933e-01
1.583648911999999909e+00,-4.051170720000000225e-01,2.258134697991542872e-02,1.000000000000000048e-04,3.494312121522543180e+01,1.700000000000000122e-01
3.116144028999999982e+00,-6.233618589999999626e-01,4.416471867320614919e-02,1.000000000000000048e-04,3.675148079673472523e+01,2.000000000000000111e-01
2.580853791000000008e+00,2.126606490000000071e-01,1.708917634420714649e-02,1.000000000000000048e-04,3.437456344416140297e+01,2.200000000000000011e-01
2.791070910999999821e+00,-3.375241600000000036e-02,9.528787841143859794e-03,1.000000000000000048e-04,3.291322502703138753e+01,2.999999999999999889e-01
2.126664376999999995e+00,-4.630033630000000011e-01,1.424877915977207365e-02,1.000000000000000048e-04,3.410715219090723593e+01,1.799999999999999933e-01
1.264160699999999915e+00,6.289837299999999631e-01,1.789893693167154964e-02,1.000000000000000048e-04,3.463119984383222771e+01,1.900000000000000022e-01
2.608192676999999904e+00,3.485897410000000085e-01,1.789426544552008558e-02,1.000000000000000048e-04,3.384145605582405381e+01,2.200000000000000011e-01
2.816578843999999915e+00,-6.539336449999999523e-01,4.204206730663195835e-02,1.000000000000000048e-04,3.631649162375973106e+01,1.799999999999999933e-01
2.816545334000000178e+00,5.529564630000000092e-01,3.202865621773298699e-02,1.000000000000000048e-04,3.551654188048465954e+01,1.700000000000000122e-01
2.293480610000000031e+00,1.430186356999999964e+00,1.142002986659607089e-02,1.000000000000000048e-04,3.347890693579802956e+01,1.700000000000000122e-01
1.900048696999999898e+00,-6.695785770000000081e-01,3.223269483949597891e-02,1.000000000000000048e-04,3.582844046701030294e+01,1.900000000000000022e-01
2.402973735999999860e+00,-4.293495210000000117e-01,2.629193508927429868e-02,1.000000000000000048e-04,3.514701558008645321e+01,2.200000000000000011e-01
3.123677135999999965e+00,5.597831170000000522e-01,1.652557496549333926e-02,1.000000000000000048e-04,3.411232162222059117e+01,1.700000000000000122e-01
-2.603733431795864917e-01,9.574212720000000454e-01,2.648590072357914771e-02,1.000000000000000048e-04,3.466424284073420381e+01,3.800000000000000044e-01
-1.216980031795857897e-01,3.678993019999999836e-01,2.690054811069297891e-02,1.000000000000000048e-04,3.534275014070610155e+01,1.900000000000000022e-01
2.921580513999999962e+00,4.108407450000000072e-01,1.785326856220614822e-02,1.000000000000000048e-04,3.450791336133076470e+01,1.900000000000000022e-01
-2.362072097179586105e+00,1.187667234999999932e+00,9.756714666917520873e-03,1.000000000000000048e-04,3.276047519900934901e+01,1.900000000000000022e-01
-2.337569846179586186e+00,3.756736769999999837e-01,1.557626694729141725e-02,1.000000000000000048e-04,3.383718847290013798e+01,1.700000000000000122e-01
-1.563533060179586265e+00,8.298117619999999528e-01,3.198476619683066069e-02,1.000000000000000048e-04,3.561728946269981577e+01,3.300000000000000155e-01
-7.514201781795861734e-01,8.148208550000000105e-01,3.365941126769111946e-02,1.000000000000000048e-04,3.552544118380332350e+01,2.099999999999999922e-01
-2.172991007179586376e+00,1.278564443000000050e+00,2.424747620869327491e-02,1.000000000000000048e-04,3.521058184954241455e+01,2.000000000000000111e-01
1.004972830999999900e+00,3.284388160000000223e-01,3.910981111176625724e-02,1.000000000000000048e-04,3.647051536136576289e+01,1.799999999999999933e-01
-1.050913719179586536e+00,7.925907810000000220e-01,2.996275366400391604e-02,1.000000000000000048e-04,3.564816059739269605e+01,2.899999999999999800e-01
1.174967896000000067e+00,-7.032179160000000540e-01,1.692065284729427077e-02,1.000000000000000048e-04,3.450458872481781469e+01,1.799999999999999933e-01
2.063754460999999818e+00,1.158898511999999936e+00,1.668580607440883767e-02,1.000000000000000048e-04,3.420635848528137046e+01,1.799999999999999933e-01
1.355273345999999934e+00,1.034050206000000083e+00,1.108811396588804676e-02,1.000000000000000048e-04,3.327756987777468112e+01,1.700000000000000122e-01
1.878516419999999965e+00,-5.891517790000000421e-01,1.868503205504912223e-02,1.000000000000000048e-04,3.447385716482646956e+01,1.799999999999999933e-01
3.042909537999999969e+00,4.914006550000000195e-01,1.999913677918230270e-02,1.000000000000000048e-04,3.445551431728203795e+01,1.700000000000000122e-01
-2.192876876179585821e+00,7.571444160000000423e-01,2.616042802425910807e-02,1.000000000000000048e-04,3.546493474868460538e+01,2.099999999999999922e-01
-1.274335216179586006e+00,7.393028099999999769e-01,2.093949815858708874e-02,1.000000000000000048e-04,3.486165578895239037e+01,3.599999999999999867e-01
3.513372269999999742e-01,1.023017258000000096e+00,1.878312051899055923e-02,1.000000000000000048e-04,3.479976699376968696e+01,1.799999999999999933e-01
-2.045215730179585911e+00,1.346705497999999945e+00,2.341770348757155062e-02,1.000000000000000048e-04,3.486011093431380203e+01,1.799999999999999933e-01
2.622131355000000053e+00,-2.378520580000000051e-01,3.003755258272033934e-02,1.000000000000000048e-04,3.568395519318158193e+01,2.099999999999999922e-01
1.499565373000000035e+00,-5.833961840000000398e-01,2.654840839068706160e-02,1.000000000000000048e-04,3.532051401846037209e+01,1.199999999999999956e-01
9.453780529999999960e-01,-3.014802610000000271e-01,2.162294081828375347e-02,1.000000000000000048e-04,3.480600458507134931e+01,1.799999999999999933e-01
1.003030738000000088e+00,-6.679498139999999751e-01,1.245983579084519732e-02,1.000000000000000048e-04,3.366601316987880921e+01,1.799999999999999933e-01
-2.858957567179586157e+00,-2.878047879999999781e-01,2.115570695570490045e-02,1.000000000000000048e-04,3.491519218971691174e+01,1.300000000000000044e-01
-2.653655062179586022e+00,5.464710109999999510e-01,1.734903819497390920e-02,1.000000000000000048e-04,3.449022151606025943e+01,1.300000000000000044e-01
-1.077960778179586576e+00,1.305029642999999906e+00,1.814856343042037246e-02,1.000000000000000048e-04,3.447192390724686106e+01,1.100000000000000006e-01
2.996279555000000094e+00,-9.792432829999999644e-01,2.027345705077721050e-02,1.000000000000000048e-04,3.448803717314297046e+01,1.600000000000000033e-01
-7.405109531795863731e-01,5.344760480000000369e-01,1.507824697123960611e-02,1.000000000000000048e-04,3.407562582520941419e+01,1.900000000000000022e-01
-1.986221938179586033e+00,3.858849830000000147e-01,1.570026984304417894e-02,1.000000000000000048e-04,3.400052370781044431e+01,2.600000000000000089e-01
-1.660796187179585992e+00,1.337702168000000080e+00,1.648839523166278909e-02,1.000000000000000048e-04,3.440273124184645326e+01,1.300000000000000044e-01
-1.008319883179586540e+00,9.035811799999999838e-01,1.341866344986519799e-02,1.000000000000000048e-04,3.355028633843896557e+01,1.799999999999999933e-01
-2.859227719179586291e+00,-3.383984709999999785e-01,2.887830166266103227e-02,1.000000000000000048e-04,3.547537863777311173e+01,1.799999999999999933e-01
-3.008470453179586279e+00,-9.028608339999999455e-01,4.206073993913017617e-02,1.000000000000000048e-04,3.639793522200876197e+01,1.300000000000000044e-01
2.720373041999999852e+00,-1.026937239000000002e+00,2.581316796251287293e-02,1.000000000000000048e-04,3.527248212448636622e+01,1.100000000000000006e-01
1.131806215999999976e+00,-1.312634394000000038e+00,3.088998439598178436e-02,1.000000000000000048e-04,3.558048880129665292e+01,1.199999999999999956e-01
1.262497049000000038e+00,-7.576738640000000302e-01,1.447106536919706699e-02,1.000000000000000048e-04,3.398971458452768246e+01,1.900000000000000022e-01
-2.150308364179585929e+00,9.473204419999999848e-01,2.948679096116313403e-02,1.000000000000000048e-04,3.547315436927429744e+01,1.499999999999999944e-01
-2.672281993179586035e+00,8.065802300000000091e-01,3.178277430079123889e-02,1.000000000000000048e-04,3.563646610184548535e+01,1.400000000000000133e-01
-2.768228307179586345e+00,1.501965110000000048e-01,9.598061838020477410e-03,1.000000000000000048e-04,3.304722769781930936e+01,1.300000000000000044e-01
2.456608391000000058e+00,-6.815239560000000418e-01,8.487634958097123317e-03,1.000000000000000048e-04,3.328218291178701094e+01,2.899999999999999800e-01
-1.538735822179586599e+00,7.895792169999999999e-01,3.198843061338907390e-02,1.000000000000000048e-04,3.572956075972285817e+01,1.600000000000000033e-01
-6.811844061795859773e-01,-7.989239399999999991e-01,4.054177529858526974e-02,1.000000000000000048e-04,3.628870386312590313e+01,2.300000000000000100e-01
-9.881069141795864041e-01,9.266642769999999807e-01,2.975660696941151429e-02,1.000000000000000048e-04,3.562484571912844444e+01,2.500000000000000000e-01
9.533575850000000074e-01,-5.868324440000000086e-01,1.498755694642839309e-02,1.000000000000000048e-04,3.383495915786100738e+01,1.199999999999999956e-01
-1.550854682179585886e+00,1.341867675000000037e+00,2.894682693386974037e-02,1.000000000000000048e-04,3.591288791969466843e+01,3.599999999999999867e-01
1.284766933000000000e+00,-9.049604909999999780e-01,1.208982355366527983e-02,1.000000000000000048e-04,3.338323809469548564e+01,1.300000000000000044e-01
