-1.598279621179586663e+00,2.779993629999999993e-01,3.907723698730580786e-01,1.000000000000000048e-04,4.160597408826057375e+01,1.700000000000000122e-01
-8.306753881795865269e-01,5.048130450000000158e-01,4.970485294850317537e-01,1.000000000000000048e-04,4.211916527686862111e+01,1.600000000000000033e-01
-1.512887194179586281e+00,3.571169940000000209e-01,2.275590584015325657e-01,1.000000000000000048e-04,3.999425601291738985e+01,1.600000000000000033e-01
-2.094054222179586588e+00,-9.657747650000000350e-01,1.433867657731362488e-01,1.000000000000000048e-04,3.931502025511729670e+01,1.600000000000000033e-01
-1.256550916179586252e+00,-1.037146153999999987e+00,7.613665133480775893e-01,1.000000000000000048e-04,4.324290090493784788e+01,1.900000000000000022e-01
-2.638489419179586015e+00,-8.917870300000000361e-01,2.977649401921731442e-01,1.000000000000000048e-04,4.069626425610867670e+01,1.600000000000000033e-01
3.095686500000000008e-02,-1.139960520999999893e+00,8.468279796259021719e-01,1.000000000000000048e-04,4.354090854523653320e+01,1.700000000000000122e-01
-4.765590681795863759e-01,-7.328014390000000544e-01,2.646198644378801035e-01,1.000000000000000048e-04,4.073004414990023747e+01,1.600000000000000033e-01
7.532392530000000530e-01,9.936355940000000109e-01,8.851493945619979264e-01,1.000000000000000048e-04,4.369411378515955136e+01,1.600000000000000033e-01
1.355624495999999901e+00,4.654212710000000253e-01,8.390509717055336658e-01,1.000000000000000048e-04,4.343276604186939949e+01,2.200000000000000011e-01
-2.027672372179586624e+00,-3.494576850000000179e-01,3.990022865868028124e-01,1.000000000000000048e-04,4.159779325492907276e+01,8.999999999999999667e-02
-2.243457714179585949e+00,5.735296930000000071e-01,2.600392965383566679e-01,1.000000000000000048e-04,4.062519174399250232e+01,8.000000000000000167e-02
-1.661352162179586145e+00,7.473004210000000480e-01,7.664436929061375636e-01,1.000000000000000048e-04,4.354189873542615175e+01,1.100000000000000006e-01
-1.046494641179585905e+00,9.839422859999999993e-01,2.335218190826593432e-01,1.000000000000000048e-04,4.037160539331065934e+01,1.600000000000000033e-01
-1.357076630179586019e+00,8.591991679999999576e-01,1.947251075952014521e-01,1.000000000000000048e-04,3.959963307962897971e+01,1.300000000000000044e-01
-1.489161381179585852e+00,8.733460579999999807e-01,4.074086151373030873e-01,1.000000000000000048e-04,4.179044527549373811e+01,8.999999999999999667e-02
2.602874990000000111e+00,9.865781270000000269e-01,2.983778309768274628e-01,1.000000000000000048e-04,4.095329421747606347e+01,2.099999999999999922e-01
2.011122450999999867e+00,-1.257182417000000108e+00,3.119950581050332516e-01,1.000000000000000048e-04,4.130250851892517261e+01,1.799999999999999933e-01
2.487812089999999809e+00,-1.095252646999999913e+00,6.197130716263101746e-01,1.000000000000000048e-04,4.317614151757220498e+01,1.600000000000000033e-01
-2.060955814179585843e+00,9.020563839999999889e-01,7.316750619765692853e-01,1.000000000000000048e-04,4.334257251247210974e+01,1.799999999999999933e-01
-1.552222439179586466e+00,1.270289940999999923e+00,1.021275418504219434e+00,1.000000000000000048e-04,4.436430468449709963e+01,1.600000000000000033e-01
-3.584264691795864266e-01,1.112498557000000110e+00,9.511921211868186177e-01,1.000000000000000048e-04,4.402528433668479835e+01,2.000000000000000111e-01
1.187793541000000008e+00,1.533334508000000040e+00,2.534431724620354043e-01,1.000000000000000048e-04,4.040306143320722754e+01,1.700000000000000122e-01
9.029304540000000490e-01,-5.888661819999999603e-01,1.228908823722534294e-01,1.000000000000000048e-04,3.911454902990598725e+01,1.700000000000000122e-01
2.675488564000000125e+00,-1.029758079000000048e+00,6.704210350564492327e-01,1.000000000000000048e-04,4.274387824813502590e+01,1.700000000000000122e-01
9.979371630000000160e-01,-7.076351440000000492e-01,2.446813373585345897e-01,1.000000000000000048e-04,4.046982858298078156e+01,2.000000000000000111e-01
-2.809922836179586270e+00,-1.219770695000000016e+00,6.288918835071246605e-01,1.000000000000000048e-04,4.281766479121780122e+01,1.900000000000000022e-01
1.945616433999999950e+00,5.533621010000000506e-01,5.087743403001001585e-01,1.000000000000000048e-04,4.230151165397811042e+01,1.700000000000000122e-01
1.369802210000000131e-01,9.686457469999999459e-01,7.745478787623467642e-01,1.000000000000000048e-04,4.336397537470230645e+01,1.000000000000000056e-01
2.377785852000000144e+00,-1.071983155000000076e+00,6.140835538595601495e-01,1.000000000000000048e-04,4.274768619067788222e+01,1.000000000000000056e-01
1.194530383000000029e+00,-8.514353350000000153e-01,3.741844140996233303e-01,1.000000000000000048e-04,4.151575875146402694e+01,1.100000000000000006e-01
2.328991532999999947e+00,-1.085498080000000032e+00,4.934806521807819646e-01,1.000000000000000048e-04,4.219082662577131515e+01,1.199999999999999956e-01
3.099662444999999877e+00,-8.173274409999999879e-01,6.107249939144843154e-01,1.000000000000000048e-04,4.291916153486101848e+01,1.300000000000000044e-01
1.008677688999999988e+00,-7.224949280000000362e-01,1.732176309373432144e-01,1.000000000000000048e-04,3.965777202743381480e+01,1.199999999999999956e-01
1.116317643999999998e+00,-8.188746820000000204e-01,4.205279501240464235e-01,1.000000000000000048e-04,4.173047955405803577e+01,1.499999999999999944e-01
1.368634144999999913e+00,-9.746537960000000167e-01,7.324747571650602751e-01,1.000000000000000048e-04,4.346247197866003376e+01,2.200000000000000011e-01
2.840707745000000006e+00,-9.874777999999999611e-01,7.524671344225897229e-01,1.000000000000000048e-04,4.328192259624392335e+01,1.199999999999999956e-01
1.164831654000000105e+00,-8.361433499999999519e-01,2.739889380546034481e-01,1.000000000000000048e-04,4.082816528944015744e+01,1.600000000000000033e-01
9.274529849999999520e-01,-5.648102149999999488e-01,3.424931344011623580e-01,1.000000000000000048e-04,4.104894060864680227e+01,2.200000000000000011e-01
1.803806121999999901e+00,-1.051757271000000049e+00,2.807357987608167793e-01,1.000000000000000048e-04,4.060665446214028407e+01,2.200000000000000011e-01
1.910407339000000038e+00,-1.096340147000000043e+00,1.363473489295961016e-01,1.000000000000000048e-04,3.930968155950605336e+01,1.300000000000000044e-01
-2.994395329179586174e+00,-6.874333790000000111e-01,2.368284489024481410e-01,1.000000000000000048e-04,4.002409494136293944e+01,1.600000000000000033e-01
2.004169926999999962e+00,-1.114377941999999955e+00,2.501309674729343957e-01,1.000000000000000048e-04,4.068647223285638859e+01,2.099999999999999922e-01
2.993884073999999895e+00,-9.067153500000000310e-01,3.757164260085459340e-01,1.000000000000000048e-04,4.172285223368890428e+01,2.000000000000000111e-01
2.896584697999999847e+00,-6.981149509999999836e-01,3.017050695740635113e-01,1.000000000000000048e-04,4.110398606657065557e+01,2.000000000000000111e-01
2.644964143999999795e+00,-1.038456438999999953e+00,7.938240759356460785e-01,1.000000000000000048e-04,4.344941999385560649e+01,2.500000000000000000e-01
1.395029569000000080e+00,-9.673563530000000021e-01,8.885327213755520592e-01,1.000000000000000048e-04,4.374755641628627245e+01,2.200000000000000011e-01
1.133893306999999906e+00,-8.234022290000000410e-01,1.765569470237220440e-01,1.000000000000000048e-04,3.971960963928550825e+01,1.199999999999999956e-01
9.542908199999999841e-01,-6.210129070000000029e-01,3.835011852163603407e-01,1.000000000000000048e-04,4.155666801264588628e+01,1.400000000000000133e-01
1.112357503999999997e+00,-7.717409769999999947e-01,1.539699669576788388e-01,1.000000000000000048e-04,3.931997913572244840e+01,1.400000000000000133e-01
1.392129267000000059e+00,-9.489503049999999940e-01,1.207487751650735852e+00,1.000000000000000048e-04,4.472053637924422986e+01,1.100000000000000006e-01
3.104633763999999907e+00,-8.563587980000000321e-01,5.931975299344507402e-01,1.000000000000000048e-04,4.272582198820225585e+01,1.199999999999999956e-01
-1.581672989179586430e+00,-6.726275419999999672e-01,5.380487393642325866e-01,1.000000000000000048e-04,4.260874168995420064e+01,2.000000000000000111e-01
8.758714749999999549e-01,-5.394949780000000139e-01,8.798530734715468427e-01,1.000000000000000048e-04,4.379417495857333620e+01,1.199999999999999956e-01
1.027821937999999991e+00,-6.897361509999999640e-01,4.669999999176042138e-01,1.000000000000000048e-04,4.218358194389401206e+01,1.499999999999999944e-01
8.011105990000000343e-01,-4.568120419999999737e-01,8.316032724822910449e-01,1.000000000000000048e-04,4.373579167175169857e+01,1.499999999999999944e-01
8.044453879999999835e-01,-4.591503659999999765e-01,1.466860685161703870e-01,1.000000000000000048e-04,3.927394285079826375e+01,1.100000000000000006e-01
8.290542589999999601e-01,-4.498624509999999965e-01,1.941207247905838429e-01,1.000000000000000048e-04,4.006164988938338922e+01,1.199999999999999956e-01
2.306908324000000121e+00,-1.093655438999999951e+00,4.029370239737219972e-01,1.000000000000000048e-04,4.163641388974967583e+01,1.300000000000000044e-01
-3.090495873179586184e+00,-7.974218849999999970e-01,5.203562379950905648e-01,1.000000000000000048e-04,4.210903616066178046e+01,1.300000000000000044e-01
2.850739061000000074e+00,-9.724982730000000242e-01,7.629076501444669312e-01,1.000000000000000048e-04,4.347195544520067045e+01,1.100000000000000006e-01
1.925211972000000049e+00,-1.067349442999999898e+00,3.422494641856985709e-01,1.000000000000000048e-04,4.131284270732942332e+01,1.600000000000000033e-01
3.010706126000000094e+00,-9.149326070000000088e-01,1.418186348790120288e-01,1.000000000000000048e-04,3.924615006159766040e+01,1.199999999999999956e-01
1.754869720000000077e+00,-1.052947148999999971e+00,3.498340573840315049e-01,1.000000000000000048e-04,4.152913600050926135e+01,1.300000000000000044e-01
3.028086770999999899e+00,-8.725603690000000023e-01,4.540336422467634581e-01,1.000000000000000048e-04,4.208774069054607736e+01,1.199999999999999956e-01
2.780301081000000174e+00,-1.010780400000000023e+00,3.491428479324512058e-01,1.000000000000000048e-04,4.125570773513982203e+01,1.700000000000000122e-01
3.096540631999999960e+00,-8.261897350000000362e-01,1.222718306432289292e+00,1.000000000000000048e-04,4.469905304218859499e+01,1.100000000000000006e-01
-3.043596368179586342e+00,-7.656326449999999451e-01,1.897059078481917460e-01,1.000000000000000048e-04,3.989873276929674972e+01,1.100000000000000006e-01
2.593403560000000052e+00,-1.068240442000000012e+00,2.794917976961968087e-01,1.000000000000000048e-04,4.075030144482703776e+01,1.199999999999999956e-01
1.277663320999999907e+00,-8.910532270000000032e-01,9.705567130288106359e-01,1.000000000000000048e-04,4.358574097899823840e+01,1.499999999999999944e-01
8.729576639999999665e-01,-5.017517409999999733e-01,2.007437803071125959e-01,1.000000000000000048e-04,4.001088486216874429e+01,1.199999999999999956e-01
2.323316692000000128e+00,-1.072994334000000105e+00,4.523602458978805974e-01,1.000000000000000048e-04,4.192636529471253226e+01,1.400000000000000133e-01
-3.012222731179586166e+00,-7.219820959999999621e-01,3.852867587472752486e-01,1.000000000000000048e-04,4.144921521197718306e+01,1.199999999999999956e-01
2.306010604999999991e+00,-1.110345181000000014e+00,2.953113424232580719e-01,1.000000000000000048e-04,4.109217246232802978e+01,1.100000000000000006e-01
2.437557496999999795e+00,-1.097151527000000071e+00,9.909436053021105639e-01,1.000000000000000048e-04,4.397247890217497002e+01,1.100000000000000006e-01
1.098420291999999909e+00,-7.444727049999999569e-01,1.913995586790397940e-01,1.000000000000000048e-04,4.004495991042600878e+01,1.300000000000000044e-01
8.241628739999999897e-01,-4.611620249999999754e-01,2.672078015361956105e-01,1.000000000000000048e-04,4.083873269490992186e+01,1.400000000000000133e-01
1.017317494999999905e+00,-7.027905669999999771e-01,5.995814086741970694e-01,1.000000000000000048e-04,4.292980257663320742e+01,1.199999999999999956e-01
2.728679550999999925e+00,-1.007430967999999982e+00,9.163445453949969899e-01,1.000000000000000048e-04,4.389890217767169389e+01,1.100000000000000006e-01
2.848837458999999850e+00,-9.622339979999999793e-01,6.220510260904403843e-01,1.000000000000000048e-04,4.283447968762477842e+01,1.199999999999999956e-01
-3.065525731179586266e+00,-7.207210450000000046e-01,1.403374920701891959e-01,1.000000000000000048e-04,3.929955758476424421e+01,1.199999999999999956e-01
1.103969978000000074e+00,-7.587182380000000448e-01,3.321349601060981094e-01,1.000000000000000048e-04,4.114412826182439886e+01,1.300000000000000044e-01
1.112034854000000017e+00,-7.675460100000000008e-01,3.576499788728049190e-01,1.000000000000000048e-04,4.145607030664829296e+01,1.199999999999999956e-01
2.373162053000000160e+00,-1.072487750000000073e+00,3.251458215235074611e-01,1.000000000000000048e-04,4.119388131665490249e+01,1.100000000000000006e-01
2.221583438000000132e+00,-1.096064289000000080e+00,8.667054982901543081e-01,1.000000000000000048e-04,4.378221105443766703e+01,1.199999999999999956e-01
2.775251189000000007e+00,-1.013244017000000108e+00,4.978640930057485203e-01,1.000000000000000048e-04,4.215332602603096745e+01,1.700000000000000122e-01
1.527128894000000070e+00,-9.963611940000000056e-01,3.759306189747386728e-01,1.000000000000000048e-04,4.169141494798936520e+01,1.400000000000000133e-01
-1.936135624179586401e+00,1.327891944000000102e+00,1.200512797314401414e+00,1.000000000000000048e-04,4.452753596264199132e+01,1.199999999999999956e-01
2.120951332999999828e+00,-1.112975437000000012e+00,2.058550594735970574e-01,1.000000000000000048e-04,4.016792030728925766e+01,1.600000000000000033e-01
2.950704906999999988e+00,-9.277153000000000205e-01,2.910367780682938665e-01,1.000000000000000048e-04,4.097514979857747619e+01,1.700000000000000122e-01
2.461302839000000020e+00,-1.064109841000000056e+00,5.638137562513718670e-01,1.000000000000000048e-04,4.266953189839789928e+01,1.499999999999999944e-01
1.687800213000000049e+00,-1.037844004000000098e+00,1.353647903630352811e-01,1.000000000000000048e-04,3.910336609733960955e+01,1.100000000000000006e-01
-3.069023128179586113e+00,-7.343218900000000327e-01,4.460204802048803874e-01,1.000000000000000048e-04,4.222378137665216258e+01,2.000000000000000111e-01
7.655655390000000171e-01,-3.825025819999999799e-01,3.228611828068002065e-01,1.000000000000000048e-04,4.102816719281566549e+01,1.300000000000000044e-01
-3.051736326179586012e+00,-7.690870560000000467e-01,2.871172931628696023e-01,1.000000000000000048e-04,4.067330237811253824e+01,1.499999999999999944e-01
-3.116938176179586240e+00,-7.920766919999999711e-01,1.025825634833004596e+00,1.000000000000000048e-04,4.405464888541680324e+01,1.100000000000000006e-01
1.020863690000000101e+00,-6.877910739999999468e-01,1.271451432280473970e+00,1.000000000000000048e-04,4.452227072299200472e+01,1.199999999999999956e-01
1.792785233999999894e+00,-1.066474936999999956e+00,1.051242078708484406e+00,1.000000000000000048e-04,4.435812468529739760e+01,1.100000000000000006e-01
1.805689748000000039e+00,-1.066896787999999985e+00,7.124256961018140544e-01,1.000000000000000048e-04,4.306066995240674800e+01,1.100000000000000006e-01
1.773248071000000037e+00,-1.046601056999999946e+00,1.299868726622237514e-01,1.000000000000000048e-04,3.885021525228304995e+01,2.099999999999999922e-01
1.076689889999999927e+00,-7.549444410000000216e-01,6.224781414780964361e-01,1.000000000000000048e-04,4.277969604626080269e+01,1.199999999999999956e-01
2.336456505000000128e+00,-1.089906792000000069e+00,1.386214765804312243e-01,1.000000000000000048e-04,3.923708640811504722e+01,1.199999999999999956e-01
2.522083900000000156e+00,-1.078852812999999911e+00,1.604554823929724705e-01,1.000000000000000048e-04,3.964671162869404242e+01,1.199999999999999956e-01
3.676074389999999803e-01,1.100614297999999991e+00,1.349299220481092743e+00,1.000000000000000048e-04,4.494259391113480007e+01,1.700000000000000122e-01
2.099931574000000190e+00,-1.082223048999999993e+00,3.239180657198379443e-01,1.000000000000000048e-04,4.127743043878733431e+01,1.100000000000000006e-01
8.155488279999999479e-01,-4.642700679999999802e-01,4.569723505043687961e-01,1.000000000000000048e-04,4.210051053426719392e+01,2.099999999999999922e-01
9.861636230000000447e-01,-6.881834650000000497e-01,9.069180440390522957e-01,1.000000000000000048e-04,4.370954596881845333e+01,1.300000000000000044e-01
1.864254864999999928e+00,-1.086684659999999969e+00,1.025888587446167843e+00,1.000000000000000048e-04,4.413085800052184737e+01,1.199999999999999956e-01
2.873066016000000111e+00,-9.753574739999999466e-01,8.044239127785703936e-01,1.000000000000000048e-04,4.354034107099028006e+01,1.300000000000000044e-01
2.270287562000000037e+00,-1.085086717999999895e+00,2.439498731445766122e-01,1.000000000000000048e-04,4.009722834601195274e+01,1.799999999999999933e-01
8.268071609999999572e-01,-4.587794940000000099e-01,3.962646503068882886e-01,1.000000000000000048e-04,4.175560507935044541e+01,1.199999999999999956e-01
-3.050869045179586347e+00,-7.648855789999999821e-01,3.293080389134721564e-01,1.000000000000000048e-04,4.114702055260321600e+01,1.199999999999999956e-01
1.101963728999999947e+00,-7.466317359999999903e-01,1.977030981575973456e-01,1.000000000000000048e-04,4.019476153426201392e+01,1.900000000000000022e-01
1.745116724000000064e+00,-1.056563783000000090e+00,9.402552233639800416e-01,1.000000000000000048e-04,4.391844141474419416e+01,1.300000000000000044e-01
7.889769570000000343e-01,-3.846565690000000037e-01,7.321695366963394402e-01,1.000000000000000048e-04,4.338103501713611365e+01,1.499999999999999944e-01
1.385818830999999918e+00,-9.278259679999999454e-01,3.140006975691354008e-01,1.000000000000000048e-04,4.092168809380357430e+01,1.499999999999999944e-01
1.138484923000000038e+00,-8.197145099999999518e-01,1.627146787319366794e-01,1.000000000000000048e-04,3.940717877180252771e+01,1.400000000000000133e-01
1.783410439000000069e+00,-1.080958507999999929e+00,4.783690781830853833e-01,1.000000000000000048e-04,4.220009967072507351e+01,1.400000000000000133e-01
2.617653461000000181e+00,-1.025884226000000066e+00,2.422174854413368106e-01,1.000000000000000048e-04,4.075456677965314611e+01,1.199999999999999956e-01
8.270197009999999960e-01,-4.157453939999999903e-01,1.024781889462433426e+00,1.000000000000000048e-04,4.430976667347704989e+01,1.199999999999999956e-01
3.128792493000000174e+00,-8.522697870000000009e-01,3.797797985389157471e-01,1.000000000000000048e-04,4.138696154956072348e+01,1.100000000000000006e-01
1.366158207000000013e+00,-9.614226009999999878e-01,1.742991653834857768e-01,1.000000000000000048e-04,3.975005218974891363e+01,1.100000000000000006e-01
2.846286316000000038e+00,-9.688357899999999745e-01,1.197753600986584122e-01,1.000000000000000048e-04,3.898850452428748525e+01,1.400000000000000133e-01
9.208216280000000031e-01,-6.185352929999999860e-01,4.506992444371900053e-01,1.000000000000000048e-04,4.214609733996942253e+01,1.499999999999999944e-01
7.622987450000000553e-01,-3.411912120000000215e-01,2.695546186684167900e-01,1.000000000000000048e-04,4.104215897758439269e+01,1.199999999999999956e-01
9.277931750000000255e-01,-5.813990460000000304e-01,4.724588149567872097e-01,1.000000000000000048e-04,4.176293830582930866e+01,2.099999999999999922e-01
1.010173165000000095e+00,-6.808591280000000356e-01,1.412893669094710258e-01,1.000000000000000048e-04,3.922289062225720357e+01,1.300000000000000044e-01
1.661181446000000062e+00,-1.029160687999999935e+00,5.316814603687884944e-01,1.000000000000000048e-04,4.235528258426423065e+01,1.400000000000000133e-01
2.089878704000000198e+00,-1.077863170999999953e+00,4.915224233446788826e-01,1.000000000000000048e-04,4.236170277632591308e+01,1.199999999999999956e-01
9.321550429999999610e-01,-6.212176799999999943e-01,6.691661889789348727e-01,1.000000000000000048e-04,4.307906614511362164e+01,1.199999999999999956e-01
2.944595597000000176e+00,-9.127602249999999806e-01,3.168816311073028302e-01,1.000000000000000048e-04,4.114849254930399525e+01,1.100000000000000006e-01
1.288081913999999939e+00,-9.113959929999999598e-01,2.612251531467835175e-01,1.000000000000000048e-04,4.060467950521285729e+01,1.300000000000000044e-01
1.398731861999999992e+00,-9.625033109999999725e-01,1.525167215324605419e-01,1.000000000000000048e-04,3.930915948815329841e+01,1.199999999999999956e-01
1.714165549000000066e+00,-1.043104095999999981e+00,3.189474989493683577e-01,1.000000000000000048e-04,4.110858854555645081e+01,1.199999999999999956e-01
1.014018395999999989e+00,-6.788913789999999615e-01,4.956051726009438330e-01,1.000000000000000048e-04,4.235499586931797467e+01,1.300000000000000044e-01
8.887761809999999985e-01,-5.541821719999999729e-01,6.138798043647553104e-01,1.000000000000000048e-04,4.307854713905607724e+01,1.300000000000000044e-01
1.026278256999999972e+00,-6.961882160000000264e-01,5.082794004807316135e-01,1.000000000000000048e-04,4.235463147753045376e+01,1.199999999999999956e-01
1.824970581999999952e+00,-1.080428363000000003e+00,1.752823440178570280e-01,1.000000000000000048e-04,3.966524464555739371e+01,1.199999999999999956e-01
1.839979185000000017e+00,-1.082878103999999952e+00,4.108844972100933468e-01,1.000000000000000048e-04,4.171028771800109780e+01,1.300000000000000044e-01
-3.070118813179586237e+00,-7.641942569999999879e-01,4.697193695511288070e-01,1.000000000000000048e-04,4.229359457570004821e+01,1.199999999999999956e-01
2.250776613000000204e+00,-1.110438553999999911e+00,3.228859188990418350e-01,1.000000000000000048e-04,4.129237715067883840e+01,1.199999999999999956e-01
2.613802471000000072e+00,-1.066258922999999914e+00,2.550794545740586727e-01,1.000000000000000048e-04,4.078261499971534931e+01,1.199999999999999956e-01
8.050150120000000298e-01,-4.193234060000000096e-01,3.820932761890465379e-01,1.000000000000000048e-04,4.163978017677529664e+01,1.499999999999999944e-01
2.809576177999999924e+00,-9.952447749999999704e-01,1.708382305906377407e-01,1.000000000000000048e-04,3.959692635560768537e+01,1.199999999999999956e-01
8.523447290000000232e-01,-4.773689010000000121e-01,1.448704051555880223e-01,1.000000000000000048e-04,3.911439930118633157e+01,2.000000000000000111e-01
2.975142320999999868e+00,-8.986192680000000266e-01,6.850700374388072333e-01,1.000000000000000048e-04,4.305029789175692656e+01,2.000000000000000111e-01
2.960578484000000010e+00,-9.174235720000000205e-01,2.596528087530447504e-01,1.000000000000000048e-04,4.068956921386574521e+01,1.400000000000000133e-01
1.589239559999999996e+00,-1.046132274999999945e+00,3.407555885076170021e-01,1.000000000000000048e-04,4.140068540518672791e+01,1.199999999999999956e-01
1.095136271999999966e+00,-7.909478989999999543e-01,7.159701138263925291e-01,1.000000000000000048e-04,4.301686342770611304e+01,1.300000000000000044e-01
3.045277111999999953e+00,-8.831592660000000539e-01,3.826964643528489862e-01,1.000000000000000048e-04,4.173799639006006146e+01,1.799999999999999933e-01
3.011317304999999944e+00,-8.969173430000000335e-01,5.150119654558700244e-01,1.000000000000000048e-04,4.227512525760777606e+01,1.499999999999999944e-01
1.946036051000000100e+00,-1.101857058000000000e+00,6.886172874354441475e-01,1.000000000000000048e-04,4.305757641270524516e+01,1.100000000000000006e-01
9.659444579999999503e-01,-6.400164339999999674e-01,4.779585184307562074e-01,1.000000000000000048e-04,4.224325577481360483e+01,1.199999999999999956e-01
1.142944595999999979e+00,-8.229314749999999679e-01,2.845181745217417735e-01,1.000000000000000048e-04,4.082663957633068463e+01,1.499999999999999944e-01
1.336859599999999926e+00,-9.462661719999999610e-01,8.969937013118409741e-01,1.000000000000000048e-04,4.375612908806784418e+01,1.900000000000000022e-01
2.386695267999999981e+00,-1.099692616000000012e+00,1.577123711816259544e-01,1.000000000000000048e-04,3.957745872326908909e+01,1.799999999999999933e-01
1.122946417999999946e+00,-7.871106610000000448e-01,5.098246810853934718e-01,1.000000000000000048e-04,4.231885089569866665e+01,1.499999999999999944e-01
1.038511049000000019e+00,-6.836743480000000428e-01,5.080316946168228487e-01,1.000000000000000048e-04,4.206757900201751710e+01,1.499999999999999944e-01
-1.865548755179585960e+00,5.988235499999999822e-01,1.380666174110689592e-01,1.000000000000000048e-04,3.823232155288917511e+01,3.599999999999999867e-01
-1.208774007179585830e+00,1.086301519000000049e+00,2.150160763392152674e-01,1.000000000000000048e-04,3.990167390651006230e+01,3.900000000000000133e-01
-1.451351928179586359e+00,1.047303024999999943e+00,3.695180730789757728e-01,1.000000000000000048e-04,4.174607556434347799e+01,3.900000000000000133e-01
-1.863787002179586594e+00,5.986409590000000280e-01,2.372706774018624731e-01,1.000000000000000048e-04,4.053434128487276666e+01,3.099999999999999978e-01
-2.367107747179586053e+00,3.570653329999999848e-01,2.848195412028333706e-01,1.000000000000000048e-04,4.029367137939317445e+01,3.300000000000000155e-01
3.110012692999999828e+00,-8.816387980000000013e-01,1.991762102172096593e-01,1.000000000000000048e-04,3.998164690208916738e+01,4.000000000000000222e-01
1.208427087000000011e+00,6.391205479999999550e-01,2.104070724713043017e-01,1.000000000000000048e-04,4.053494400714353674e+01,3.200000000000000067e-01
2.195568135999999893e+00,9.530612539999999688e-01,2.047491560641192532e-01,1.000000000000000048e-04,3.946392065356489809e+01,3.200000000000000067e-01
-1.746303855179585973e+00,7.561700099999999480e-01,2.156026912717838862e-01,1.000000000000000048e-04,4.040763051943248030e+01,3.599999999999999867e-01
-2.613733020179586308e+00,3.020363409999999860e-01,5.886588310024896131e-01,1.000000000000000048e-04,4.308160388993168510e+01,2.399999999999999911e-01
3.080075141000000016e+00,6.813462000000000129e-01,1.928476721546250605e-01,1.000000000000000048e-04,3.996425640551384362e+01,2.999999999999999889e-01
3.084152930000000126e+00,6.750201959999999612e-01,8.212710392883293409e-01,1.000000000000000048e-04,4.324894093180097343e+01,2.399999999999999911e-01
-2.831540824179586302e+00,-5.193198470000000011e-01,1.683619498136841308e-01,1.000000000000000048e-04,3.925406901501767010e+01,2.899999999999999800e-01
2.921667255000000019e+00,-9.403574120000000036e-01,7.783388152854011643e-01,1.000000000000000048e-04,4.377608782010148758e+01,2.899999999999999800e-01
2.610543199999999953e+00,9.294079060000000059e-01,8.073697817060176973e-01,1.000000000000000048e-04,4.320159156165711067e+01,2.899999999999999800e-01
2.614058957000000127e+00,9.310355519999999885e-01,7.782100441949151293e-01,1.000000000000000048e-04,4.287028107262872112e+01,3.699999999999999956e-01
-2.614313936179586406e+00,3.105085300000000048e-01,3.919772324603330027e-01,1.000000000000000048e-04,4.167063596771232170e+01,2.300000000000000100e-01
-2.614275993179586255e+00,3.084493819999999942e-01,3.317824193066967187e-01,1.000000000000000048e-04,4.130288491903940695e+01,2.000000000000000111e-01
3.080236718000000096e+00,6.852664600000000217e-01,2.580855877658272401e-01,1.000000000000000048e-04,4.050249423731884235e+01,3.800000000000000044e-01
3.085135451000000195e+00,6.840520260000000352e-01,1.895924884575974634e-01,1.000000000000000048e-04,3.993568755256443126e+01,2.300000000000000100e-01
-2.829361723179586452e+00,-5.190188390000000096e-01,1.448754289868916523e-01,1.000000000000000048e-04,3.912205382441825918e+01,3.900000000000000133e-01
-2.833706243179586082e+00,-5.260186759999999628e-01,5.091313407683857317e-01,1.000000000000000048e-04,4.228941731088755063e+01,2.200000000000000011e-01
1.286414458000000094e+00,-9.076167339999999806e-01,3.476781157054822380e-01,1.000000000000000048e-04,4.126452225311530242e+01,2.399999999999999911e-01
2.295144749999999956e+00,-1.095028292000000070e+00,1.278358649967324734e+00,1.000000000000000048e-04,4.461908227381764647e+01,2.000000000000000111e-01
2.312115046000000174e+00,-1.091482969000000081e+00,2.108086868591139140e-01,1.000000000000000048e-04,4.011001979648243321e+01,1.900000000000000022e-01
2.535381049000000164e+00,-1.063602453999999975e+00,2.517293852962749767e-01,1.000000000000000048e-04,4.037526092127575339e+01,2.600000000000000089e-01
2.549902755000000187e+00,-1.059649137999999935e+00,1.576593563205066495e-01,1.000000000000000048e-04,3.935474493046766753e+01,1.900000000000000022e-01
-2.980466121795863899e-01,1.081935794000000062e+00,3.265161728863470447e-01,1.000000000000000048e-04,4.112815872935040318e+01,1.000000000000000056e-01
-4.562223411795862660e-01,1.078420874000000085e+00,2.353383784628622077e-01,1.000000000000000048e-04,4.020951010059935982e+01,1.400000000000000133e-01
-4.727696341795866175e-01,1.076427226000000070e+00,1.532549214041527552e-01,1.000000000000000048e-04,3.891993435671001578e+01,1.900000000000000022e-01
-4.909850281795860028e-01,1.086050390999999893e+00,1.356909415744029790e-01,1.000000000000000048e-04,3.893607142611835314e+01,1.499999999999999944e-01
-1.809890014179586615e+00,8.554848849999999727e-01,5.818562808430927102e-01,1.000000000000000048e-04,4.236747979756916749e+01,1.900000000000000022e-01
-1.804843805179586091e+00,8.509932909999999850e-01,2.428537533040844298e-01,1.000000000000000048e-04,4.051566905844706667e+01,1.700000000000000122e-01
-1.798315402179586187e+00,8.389159160000000393e-01,5.219273400049015965e-01,1.000000000000000048e-04,4.222950596443111948e+01,1.100000000000000006e-01
-1.820018681179586650e+00,8.404092629999999620e-01,4.656282095364889795e-01,1.000000000000000048e-04,4.225412206470903698e+01,2.000000000000000111e-01
-2.435936564179586039e+00,3.767214549999999829e-01,4.991825245609904371e-01,1.000000000000000048e-04,4.264213767765925667e+01,1.700000000000000122e-01
-2.738532057179586143e+00,-4.670391260000000266e-01,2.459499942130698447e-01,1.000000000000000048e-04,4.028443203810330431e+01,1.100000000000000006e-01
-2.750126147179586145e+00,-4.750163370000000107e-01,4.642781482375388791e-01,1.000000000000000048e-04,4.190366070897415796e+01,1.700000000000000122e-01
6.777063359999999648e-01,-9.284162910000000046e-01,1.301364158464639598e-01,1.000000000000000048e-04,3.913216451858256306e+01,1.600000000000000033e-01
6.755664329999999662e-01,-9.242990760000000527e-01,6.132105324257322021e-01,1.000000000000000048e-04,4.270023754332407151e+01,2.200000000000000011e-01
1.666277256000000095e+00,1.035703752000000089e+00,2.649087923340460726e-01,1.000000000000000048e-04,4.090193975475396115e+01,2.800000000000000266e-01
1.679531192000000006e+00,1.034147155999999956e+00,7.274819169668882424e-01,1.000000000000000048e-04,4.344079468540674327e+01,2.099999999999999922e-01
1.669961188000000041e+00,1.045784459000000055e+00,8.050598708371685674e-01,1.000000000000000048e-04,4.365124983903346134e+01,2.899999999999999800e-01
1.666612017000000057e+00,1.035903760999999923e+00,3.867996070053962843e-01,1.000000000000000048e-04,4.164238602770469555e+01,1.400000000000000133e-01
1.676630470000000095e+00,1.049302589999999924e+00,4.365135642252280235e-01,1.000000000000000048e-04,4.191607512890153231e+01,1.600000000000000033e-01
1.678871634000000057e+00,1.037439988999999896e+00,3.604394126528789322e-01,1.000000000000000048e-04,4.145411552941306610e+01,2.099999999999999922e-01
-2.159653925179585876e+00,7.341517600000000421e-01,7.300187215906608351e-01,1.000000000000000048e-04,4.344665517069117300e+01,2.600000000000000089e-01
-2.155609593179586447e+00,7.327229189999999726e-01,1.999881171442370320e-01,1.000000000000000048e-04,3.998765857530973733e+01,1.400000000000000133e-01
2.989279821999999864e+00,-1.014333855000000062e+00,1.490655645145173569e-01,1.000000000000000048e-04,3.904077106328704616e+01,1.600000000000000033e-01
6.962963009999999509e-01,-9.242906640000000396e-01,7.471843500517807435e-01,1.000000000000000048e-04,4.376434443128758289e+01,2.000000000000000111e-01
6.831622830000000368e-01,-9.295060950000000322e-01,2.034455571568551946e-01,1.000000000000000048e-04,4.003519175596580482e+01,2.099999999999999922e-01
6.813526220000000189e-01,-9.196739680000000083e-01,5.821999973945286566e-01,1.000000000000000048e-04,4.290695012294006006e+01,1.700000000000000122e-01
1.667475545999999920e+00,1.039138789999999979e+00,2.364079919957791098e-01,1.000000000000000048e-04,4.020897641942661949e+01,1.499999999999999944e-01
1.669072946000000002e+00,1.039627206000000026e+00,3.974090974056301295e-01,1.000000000000000048e-04,4.175133002853738162e+01,1.700000000000000122e-01
2.992464221000000091e+00,-1.009427984000000000e+00,4.956303188534354476e-01,1.000000000000000048e-04,4.216614828329834097e+01,1.400000000000000133e-01
3.013377762000000182e+00,-1.015725085999999999e+00,2.205093976936609579e-01,1.000000000000000048e-04,3.992655882520115540e+01,1.499999999999999944e-01
6.857830799999999893e-01,-9.290922369999999875e-01,2.653794315497131073e-01,1.000000000000000048e-04,4.053651150854235397e+01,3.400000000000000244e-01
6.874880420000000214e-01,-9.251381180000000093e-01,2.078294808639944424e-01,1.000000000000000048e-04,4.032235841187024761e+01,1.700000000000000122e-01
1.659686511000000086e+00,1.040101345999999927e+00,7.034209765565588857e-01,1.000000000000000048e-04,4.330177267537164454e+01,1.400000000000000133e-01
1.692629780999999944e+00,1.043637506000000048e+00,1.520344561826734164e-01,1.000000000000000048e-04,3.924890224148857243e+01,1.799999999999999933e-01
1.682450028999999958e+00,1.049226146999999942e+00,3.452577352158683333e-01,1.000000000000000048e-04,4.143510875461237219e+01,1.900000000000000022e-01
1.675255906999999933e+00,1.048468626000000015e+00,3.833193107977428404e-01,1.000000000000000048e-04,4.163265596612374253e+01,1.499999999999999944e-01
1.692145135000000078e+00,1.039981480000000014e+00,4.034753998977316236e-01,1.000000000000000048e-04,4.209137486281863971e+01,1.700000000000000122e-01
-2.139768073179586061e+00,7.360294179999999908e-01,2.513917559029954507e-01,1.000000000000000048e-04,4.059672851186793707e+01,1.600000000000000033e-01
-2.138731675179585956e+00,7.369836659999999817e-01,5.043586922044371867e-01,1.000000000000000048e-04,4.228681271510690465e+01,1.499999999999999944e-01
6.888283630000000546e-01,-9.193630990000000169e-01,1.418717769493149650e-01,1.000000000000000048e-04,3.929470476428063819e+01,1.700000000000000122e-01
6.776433490000000059e-01,-9.225326109999999469e-01,8.491543584786558352e-01,1.000000000000000048e-04,4.368430734042359376e+01,1.600000000000000033e-01
6.820513620000000499e-01,-9.162569579999999547e-01,1.902629499451844453e-01,1.000000000000000048e-04,3.969104505501977087e+01,2.899999999999999800e-01
6.832637360000000104e-01,-9.208365670000000502e-01,2.935399442915498369e-01,1.000000000000000048e-04,4.087580760753824904e+01,1.400000000000000133e-01
1.683256381999999940e+00,1.050427892999999946e+00,1.341255687826432563e-01,1.000000000000000048e-04,3.870387180690294571e+01,1.499999999999999944e-01
2.987248335999999949e+00,-1.011507587000000097e+00,2.303633383786449773e-01,1.000000000000000048e-04,4.056550178735849954e+01,1.900000000000000022e-01
2.994879214000000012e+00,-1.020537374999999969e+00,2.474167592501246293e-01,1.000000000000000048e-04,4.080723794014514993e+01,2.500000000000000000e-01
2.997056848999999801e+00,-1.020797841000000039e+00,2.027132295713767185e-01,1.000000000000000048e-04,4.025067230834886800e+01,1.499999999999999944e-01
6.981827720000000070e-01,-9.201470600000000166e-01,2.168444979067789546e-01,1.000000000000000048e-04,4.017064493312332019e+01,2.099999999999999922e-01
1.675679171999999939e+00,1.042232051000000048e+00,5.122662464125640192e-01,1.000000000000000048e-04,4.205647266692244557e+01,1.900000000000000022e-01
1.682732345000000018e+00,1.051774148000000020e+00,4.255870321552261970e-01,1.000000000000000048e-04,4.184764736268488150e+01,2.099999999999999922e-01
1.655763980999999996e+00,1.041789395999999979e+00,6.054314762305683661e-01,1.000000000000000048e-04,4.307466104971643261e+01,2.099999999999999922e-01
1.658505131999999938e+00,1.042043577999999915e+00,4.144155685631103481e-01,1.000000000000000048e-04,4.210971111074259454e+01,1.499999999999999944e-01
1.679931540999999973e+00,1.044700675999999939e+00,4.773710017378423043e-01,1.000000000000000048e-04,4.217252625512720954e+01,1.400000000000000133e-01
1.681131209999999987e+00,1.046558263000000100e+00,2.043020213412516384e-01,1.000000000000000048e-04,3.985694871784982496e+01,3.800000000000000044e-01
-2.147380102179586636e+00,7.248191320000000326e-01,6.848902759134363194e-01,1.000000000000000048e-04,4.311101367156613406e+01,2.200000000000000011e-01
-2.137481690179586558e+00,7.386978770000000027e-01,6.447246803405712878e-01,1.000000000000000048e-04,4.308797172498175598e+01,1.499999999999999944e-01
3.007533192999999994e+00,-1.006434849999999992e+00,9.877390152587695038e-01,1.000000000000000048e-04,4.389285103818866673e+01,1.700000000000000122e-01
6.766177190000000063e-01,-9.309161569999999664e-01,5.049196276624488000e-01,1.000000000000000048e-04,4.247783466265057939e+01,1.700000000000000122e-01
6.879719020000000240e-01,-9.170357009999999809e-01,1.370777886173955018e-01,1.000000000000000048e-04,3.951395917945190916e+01,2.600000000000000089e-01
6.868192690000000100e-01,-9.190749710000000183e-01,2.535189494974106061e-01,1.000000000000000048e-04,4.074926849135395912e+01,2.800000000000000266e-01
1.680927606000000019e+00,1.043199457999999913e+00,2.292181790073466452e-01,1.000000000000000048e-04,4.023738695467474002e+01,1.799999999999999933e-01
1.680733408999999901e+00,1.046110547000000057e+00,6.517055263651290176e-01,1.000000000000000048e-04,4.321285556684851059e+01,1.499999999999999944e-01
3.003205794999999956e+00,-1.007960921000000010e+00,5.837555482755614200e-01,1.000000000000000048e-04,4.215322760692590265e+01,2.200000000000000011e-01
3.013387552999999830e+00,-1.018013843000000085e+00,3.050114617584371857e-01,1.000000000000000048e-04,4.079508418510213374e+01,2.000000000000000111e-01
2.991633154000000072e+00,-1.018575491000000000e+00,4.760180534877676006e-01,1.000000000000000048e-04,4.208049489723978098e+01,1.600000000000000033e-01
6.810583510000000063e-01,-9.216344210000000370e-01,5.187117736798125822e-01,1.000000000000000048e-04,4.242212365242836114e+01,1.600000000000000033e-01
1.670069762000000013e+00,1.048284639000000018e+00,8.921918681820841801e-01,1.000000000000000048e-04,4.375941628136688166e+01,2.099999999999999922e-01
1.699713636000000028e+00,1.040243690999999915e+00,1.687359745769958508e-01,1.000000000000000048e-04,3.960196774261845576e+01,2.899999999999999800e-01
1.686195045999999920e+00,1.048540513999999924e+00,1.073432648908227982e+00,1.000000000000000048e-04,4.440071074890368408e+01,1.400000000000000133e-01
1.667162669999999958e+00,1.044746053999999980e+00,5.271820115027152642e-01,1.000000000000000048e-04,4.278312005169586740e+01,2.700000000000000178e-01
1.689467040999999892e+00,1.036330184999999959e+00,2.913744877110391318e-01,1.000000000000000048e-04,4.100798978325059352e+01,1.300000000000000044e-01
1.683799076999999977e+00,1.043385784000000038e+00,1.392214347774398675e-01,1.000000000000000048e-04,3.905207528644388759e+01,1.700000000000000122e-01
-2.151455832179586025e+00,7.398983139999999459e-01,5.323159966195172288e-01,1.000000000000000048e-04,4.220671153649702489e+01,2.500000000000000000e-01
-2.141944958179585967e+00,7.302793560000000461e-01,2.396807971499312906e-01,1.000000000000000048e-04,4.046368308257557089e+01,1.400000000000000133e-01
3.012489310999999947e+00,-1.019874449000000016e+00,6.221391249124428313e-01,1.000000000000000048e-04,4.269049720817059779e+01,1.900000000000000022e-01
6.824463880000000149e-01,-9.193269539999999740e-01,6.126603668583985307e-01,1.000000000000000048e-04,4.284308045728255365e+01,1.600000000000000033e-01
6.933168330000000212e-01,-9.307474239999999899e-01,9.707564523936762502e-01,1.000000000000000048e-04,4.399844855585281067e+01,1.600000000000000033e-01
7.005346909999999871e-01,-9.247541049999999929e-01,6.214532975546580573e-01,1.000000000000000048e-04,4.269733119182049563e+01,2.700000000000000178e-01
1.674988617999999985e+00,1.042237757999999959e+00,6.763782342855741980e-01,1.000000000000000048e-04,4.292968780009631757e+01,1.499999999999999944e-01
1.672026148000000045e+00,1.039374368000000048e+00,4.797197042786858212e-01,1.000000000000000048e-04,4.200719708482856163e+01,1.600000000000000033e-01
2.993618983999999816e+00,-1.008517228000000099e+00,7.576688892619292126e-01,1.000000000000000048e-04,4.320907179052213820e+01,1.700000000000000122e-01
2.992837709999999873e+00,-1.014889098000000045e+00,2.740319268418869303e-01,1.000000000000000048e-04,4.048449984456544826e+01,2.800000000000000266e-01
2.980621672999999916e+00,-1.012535224000000067e+00,1.989402129514903361e-01,1.000000000000000048e-04,4.035239104658317189e+01,1.499999999999999944e-01
3.118379398000000080e+00,-1.044341935000000055e+00,3.315104483665551882e-01,1.000000000000000048e-04,4.175462993077442064e+01,3.099999999999999978e-01
3.132904315000000217e+00,-1.046896950999999909e+00,1.221035219412001105e-01,1.000000000000000048e-04,3.902525941924717756e+01,2.200000000000000011e-01
1.248659997999999938e+00,-1.117162079000000086e+00,2.202612618459851568e-01,1.000000000000000048e-04,4.041664822799734935e+01,2.700000000000000178e-01
2.302446713000000145e+00,-1.091359299000000060e+00,3.497142695305079929e-01,1.000000000000000048e-04,4.196801598830510471e+01,2.899999999999999800e-01
3.133486173000000097e+00,-1.061461677999999909e+00,7.303284529143156956e-01,1.000000000000000048e-04,4.353880614526594428e+01,3.099999999999999978e-01
1.251013366000000016e+00,-1.102704651999999896e+00,6.125398403349622267e-01,1.000000000000000048e-04,4.269261706803365541e+01,2.300000000000000100e-01
1.232341668999999973e+00,-1.105349812000000043e+00,1.290329553267354434e+00,1.000000000000000048e-04,4.467401581952635325e+01,2.200000000000000011e-01
2.330538756999999794e+00,-1.086213730999999960e+00,4.287515788145119799e-01,1.000000000000000048e-04,4.184770736785431922e+01,2.300000000000000100e-01
3.104372880000000112e+00,-1.050765708999999992e+00,3.749467870238272216e-01,1.000000000000000048e-04,4.185986167516814049e+01,2.200000000000000011e-01
3.122794933000000217e+00,-1.050942575000000101e+00,1.688299514097402199e-01,1.000000000000000048e-04,3.952226746264936708e+01,2.099999999999999922e-01
3.135928428000000157e+00,-1.044986675000000087e+00,1.048424778750065123e+00,1.000000000000000048e-04,4.416084528935906661e+01,2.300000000000000100e-01
3.135701593999999925e+00,-1.049448040999999998e+00,3.589713921354897863e-01,1.000000000000000048e-04,4.128176897637496268e+01,2.399999999999999911e-01
2.902190216000000156e+00,-1.054666754000000095e+00,3.170565145085304515e-01,1.000000000000000048e-04,4.129000512576081405e+01,2.099999999999999922e-01
1.219278212000000083e+00,-1.102494101000000004e+00,1.790469242483281320e-01,1.000000000000000048e-04,3.979479597941764979e+01,2.399999999999999911e-01
2.314258420999999899e+00,-1.073777474999999981e+00,6.257185871526205201e-01,1.000000000000000048e-04,4.282014472174524400e+01,2.399999999999999911e-01
3.138600745000000192e+00,-1.056209613999999908e+00,1.033930055164225426e+00,1.000000000000000048e-04,4.411099002209311948e+01,2.800000000000000266e-01
2.873014373000000177e+00,-1.047336534999999902e+00,8.311317703168599191e-01,1.000000000000000048e-04,4.372898727281521758e+01,2.000000000000000111e-01
2.890150627000000139e+00,-1.045368942999999939e+00,1.222217786811143903e-01,1.000000000000000048e-04,3.922744844312635593e+01,2.200000000000000011e-01
-3.136513490179586139e+00,-1.038988312000000080e+00,9.662303404520016237e-01,1.000000000000000048e-04,4.378920368484480008e+01,2.800000000000000266e-01
3.120369102000000172e+00,-1.042910143999999928e+00,1.776923866656023865e-01,1.000000000000000048e-04,3.939520500610538534e+01,2.399999999999999911e-01
3.132773262000000170e+00,-1.048570620000000009e+00,2.372196917327111798e-01,1.000000000000000048e-04,4.001668588775746827e+01,2.300000000000000100e-01
3.132934141999999866e+00,-1.046888051000000042e+00,1.051602815496768262e+00,1.000000000000000048e-04,4.402926469877100146e+01,2.200000000000000011e-01
3.134455274000000014e+00,-1.046257098000000108e+00,2.276472080093596695e-01,1.000000000000000048e-04,4.033831304478804469e+01,2.200000000000000011e-01
2.910504301000000016e+00,-1.063930792999999930e+00,3.601880869423521592e-01,1.000000000000000048e-04,4.182320947448135939e+01,2.399999999999999911e-01
2.301930878999999930e+00,-1.084305269999999988e+00,1.271698708463710137e+00,1.000000000000000048e-04,4.440225403355987055e+01,3.099999999999999978e-01
2.314913878000000036e+00,-1.104421796000000011e+00,1.694437835473261433e-01,1.000000000000000048e-04,3.958447251433105407e+01,2.600000000000000089e-01
1.232494258000000009e+00,-1.089556776000000005e+00,5.470805764559922846e-01,1.000000000000000048e-04,4.291850717111692148e+01,3.099999999999999978e-01
-3.138875270179586341e+00,-1.027091259999999950e+00,3.931792398640889807e-01,1.000000000000000048e-04,4.177869004996900770e+01,3.800000000000000044e-01
1.277748142000000087e+00,-1.105660628999999950e+00,5.935082671995395298e-01,1.000000000000000048e-04,4.257375959236540552e+01,2.500000000000000000e-01
2.339694710999999927e+00,-1.083680948999999893e+00,1.249096509051442982e+00,1.000000000000000048e-04,4.474215712508478759e+01,2.300000000000000100e-01
3.085408954000000037e+00,-1.045989441999999991e+00,5.118716028737562151e-01,1.000000000000000048e-04,4.231571214255814795e+01,2.800000000000000266e-01
3.122183823999999941e+00,-1.053540683000000033e+00,1.636020985437505182e-01,1.000000000000000048e-04,3.874022570481243832e+01,3.699999999999999956e-01
1.263417701000000060e+00,-1.099941301000000093e+00,9.607232457467713704e-01,1.000000000000000048e-04,4.432564172019286275e+01,2.200000000000000011e-01
1.238769020999999970e+00,-1.122513239999999968e+00,4.236275646221230318e-01,1.000000000000000048e-04,4.192534911176844048e+01,2.600000000000000089e-01
1.225778744000000087e+00,-1.107856694000000086e+00,2.074896923995226405e-01,1.000000000000000048e-04,4.024585163433386725e+01,2.500000000000000000e-01
2.356185176999999964e+00,-1.090954028000000076e+00,6.875720324695446806e-01,1.000000000000000048e-04,4.288318971783245104e+01,2.700000000000000178e-01
1.231078855000000027e+00,-1.109460918999999990e+00,3.666513878274579863e-01,1.000000000000000048e-04,4.171578768682979899e+01,2.300000000000000100e-01
2.350025410999999842e+00,-1.078254897999999962e+00,2.628095718483096643e-01,1.000000000000000048e-04,4.036386481462595555e+01,2.300000000000000100e-01
2.889344674999999807e+00,-1.054064458000000037e+00,4.249275026376779785e-01,1.000000000000000048e-04,4.159657072055289007e+01,3.200000000000000067e-01
1.260972444000000081e+00,-1.102168519999999985e+00,1.155076029171508978e-01,1.000000000000000048e-04,3.893388555863948852e+01,2.899999999999999800e-01
3.138597202000000141e+00,-1.049455424000000026e+00,3.440117988164606011e-01,1.000000000000000048e-04,4.120134618219821476e+01,2.600000000000000089e-01
1.280173519000000093e+00,-1.106045986000000036e+00,2.247384585237390819e-01,1.000000000000000048e-04,4.022629885196239741e+01,2.899999999999999800e-01
3.140421104000000074e+00,-1.048273016000000002e+00,6.237317354455738094e-01,1.000000000000000048e-04,4.254308416100038670e+01,2.700000000000000178e-01
2.887571490000000018e+00,-1.060290981000000077e+00,5.276622550966891811e-01,1.000000000000000048e-04,4.269831203607368053e+01,2.300000000000000100e-01
3.117377486000000086e+00,-1.048849812999999909e+00,7.874447033359972536e-01,1.000000000000000048e-04,4.326084097791136429e+01,2.800000000000000266e-01
3.139331405000000075e+00,-1.045946368000000071e+00,3.576733576206330145e-01,1.000000000000000048e-04,4.141781540266378414e+01,2.300000000000000100e-01
2.901812189000000153e+00,-1.070407117000000019e+00,1.882961152630975299e-01,1.000000000000000048e-04,3.967227292589980436e+01,2.200000000000000011e-01
2.874698792999999863e+00,-1.069280417999999955e+00,4.359634618318071198e-01,1.000000000000000048e-04,4.223104078367711622e+01,2.200000000000000011e-01
3.126790450000000110e+00,-1.053686536000000062e+00,5.112914062523619130e-01,1.000000000000000048e-04,4.219239941498641855e+01,2.099999999999999922e-01
1.253234667999999941e+00,-1.096167120000000050e+00,2.084208672635294857e-01,1.000000000000000048e-04,3.991653165927957048e+01,2.200000000000000011e-01
1.242189800000000011e+00,-1.095888138000000067e+00,1.847782993445583610e-01,1.000000000000000048e-04,3.990230245186442204e+01,2.899999999999999800e-01
2.358704259000000025e+00,-1.096119858000000002e+00,3.602097507893948780e-01,1.000000000000000048e-04,4.178799274890411652e+01,2.099999999999999922e-01
3.090657074000000115e+00,-1.046905049999999893e+00,1.879247786790938513e-01,1.000000000000000048e-04,3.994543003813204507e+01,2.300000000000000100e-01
2.350320292999999783e+00,-1.077642637000000070e+00,8.787024125709179678e-01,1.000000000000000048e-04,4.363099038467678525e+01,3.300000000000000155e-01
3.120911620999999858e+00,-1.047605429999999949e+00,7.699370279576218667e-01,1.000000000000000048e-04,4.328826080327208103e+01,2.899999999999999800e-01
2.310418793000000193e+00,-1.091478047999999923e+00,1.031066168741360034e+00,1.000000000000000048e-04,4.413553741182845158e+01,3.300000000000000155e-01
2.888242410000000149e+00,-1.055260810999999910e+00,2.509218853967729590e-01,1.000000000000000048e-04,4.068638116883607125e+01,2.999999999999999889e-01
2.313880778000000138e+00,-1.089056457000000089e+00,7.574575532993115257e-01,1.000000000000000048e-04,4.324045012237674257e+01,2.600000000000000089e-01
3.096505394999999883e+00,-1.050897790999999915e+00,4.925610210944717515e-01,1.000000000000000048e-04,4.252739335358904782e+01,3.300000000000000155e-01
1.264206060000000020e+00,-1.108314516000000083e+00,3.057393440593421108e-01,1.000000000000000048e-04,4.113767152809863603e+01,2.500000000000000000e-01
2.317080779999999951e+00,-1.080569537999999996e+00,3.301487009630601488e-01,1.000000000000000048e-04,4.183256788126173120e+01,2.399999999999999911e-01
2.308161032000000112e+00,-1.080284865999999955e+00,4.933261481332475995e-01,1.000000000000000048e-04,4.208584343350381118e+01,3.900000000000000133e-01
1.213089824000000094e+00,-1.095999417000000031e+00,2.232404846439863810e-01,1.000000000000000048e-04,4.040017574250947519e+01,2.700000000000000178e-01
3.095344697999999894e+00,-1.044259242999999948e+00,1.551307053613719678e-01,1.000000000000000048e-04,3.944375373205700441e+01,2.200000000000000011e-01
3.093500166000000107e+00,-1.047656949999999920e+00,2.004594959528263054e-01,1.000000000000000048e-04,4.025696237909013320e+01,2.300000000000000100e-01
2.871266652000000086e+00,-1.064917746999999970e+00,7.422504885658631757e-01,1.000000000000000048e-04,4.333566398448066082e+01,2.500000000000000000e-01
2.872879009000000039e+00,-1.076645507999999918e+00,5.405618218198193770e-01,1.000000000000000048e-04,4.233287124384456490e+01,2.099999999999999922e-01
1.241294699000000001e+00,-1.109043570000000090e+00,5.112142847426872638e-01,1.000000000000000048e-04,4.247128451322727472e+01,2.099999999999999922e-01
1.238788393000000099e+00,-1.083197141000000085e+00,2.104805167229935048e-01,1.000000000000000048e-04,4.063124754377274428e+01,2.999999999999999889e-01
-3.140928712179586135e+00,-1.049943351000000025e+00,1.728928123988870968e-01,1.000000000000000048e-04,3.976003209062670862e+01,2.200000000000000011e-01
2.897074545000000168e+00,-1.050668165000000043e+00,2.135409177969493921e-01,1.000000000000000048e-04,4.036192405053782295e+01,2.099999999999999922e-01
3.133488720999999977e+00,-1.053899826000000095e+00,2.924706587654413159e-01,1.000000000000000048e-04,4.131268531588589354e+01,2.300000000000000100e-01
2.854965548000000020e+00,-1.051119023000000041e+00,1.208127857383780146e+00,1.000000000000000048e-04,4.473971430521810078e+01,3.200000000000000067e-01
2.846666281000000076e+00,-1.061494909000000098e+00,3.853462954593138701e-01,1.000000000000000048e-04,4.157099560362572532e+01,2.600000000000000089e-01
1.477625364000000108e+00,-9.892628350000000070e-01,4.894357034942722340e-01,1.000000000000000048e-04,4.240528921726719602e+01,2.000000000000000111e-01
-2.998301261179586064e+00,-5.567642400000000213e-01,2.527693106099540010e-01,1.000000000000000048e-04,4.048312570984795400e+01,1.799999999999999933e-01
2.915910107000000195e+00,-9.248875840000000403e-01,2.553492696129235906e-01,1.000000000000000048e-04,4.041746954265491354e+01,2.999999999999999889e-01
2.904218159000000021e+00,-9.279150130000000107e-01,1.165546134757207142e-01,1.000000000000000048e-04,3.855151663624172897e+01,2.399999999999999911e-01
2.945746643000000109e+00,-9.241091030000000428e-01,1.004525159865055084e+00,1.000000000000000048e-04,4.398550704258377664e+01,2.300000000000000100e-01
2.195221751000000054e+00,9.567984520000000215e-01,3.661157627123599045e-01,1.000000000000000048e-04,4.128036671659160817e+01,2.200000000000000011e-01
-2.382074272179586227e+00,-9.504311730000000180e-01,5.399570587942110755e-01,1.000000000000000048e-04,4.196748378778785593e+01,2.300000000000000100e-01
2.197803225999999999e+00,9.560313849999999558e-01,1.490484472960640350e-01,1.000000000000000048e-04,3.952968160212115833e+01,2.300000000000000100e-01
-2.380846050179586282e+00,-9.512843520000000552e-01,2.850418810145676218e-01,1.000000000000000048e-04,4.069061355810726610e+01,2.600000000000000089e-01
-2.382960995179586039e+00,-9.501026420000000527e-01,8.549103162731828132e-01,1.000000000000000048e-04,4.359338186672000148e+01,2.099999999999999922e-01
2.192165822000000208e+00,9.554729659999999791e-01,2.144651337956524628e-01,1.000000000000000048e-04,3.969086151627140424e+01,2.899999999999999800e-01
-2.383512939179586176e+00,-9.505219620000000535e-01,1.224828714650481043e-01,1.000000000000000048e-04,3.912043106109747015e+01,2.000000000000000111e-01
2.197044292000000176e+00,9.582492320000000063e-01,1.588194165895493448e-01,1.000000000000000048e-04,3.964731009312527732e+01,2.500000000000000000e-01
2.198013217999999824e+00,9.570721989999999568e-01,6.607533301200005926e-01,1.000000000000000048e-04,4.315682058811364641e+01,2.099999999999999922e-01
2.198391541999999976e+00,9.561199929999999458e-01,5.293741175171537972e-01,1.000000000000000048e-04,4.268659675778120288e+01,2.300000000000000100e-01
2.199218732999999926e+00,9.570277640000000030e-01,5.868913522962475593e-01,1.000000000000000048e-04,4.294912700357222946e+01,2.200000000000000011e-01
2.196667974999999995e+00,9.569524729999999701e-01,1.394959949724676740e-01,1.000000000000000048e-04,3.935674911998711423e+01,2.399999999999999911e-01
2.196400267000000017e+00,9.571105250000000453e-01,7.021289008830102762e-01,1.000000000000000048e-04,4.348877118497137673e+01,2.500000000000000000e-01
2.195980999000000100e+00,9.563170869999999546e-01,7.711299754484195468e-01,1.000000000000000048e-04,4.357283487089116392e+01,2.200000000000000011e-01
2.198886345000000020e+00,9.574225640000000315e-01,2.759745992680968651e-01,1.000000000000000048e-04,4.055933467435013284e+01,3.300000000000000155e-01
-2.382942164179586264e+00,-9.487821469999999646e-01,3.888648233968678980e-01,1.000000000000000048e-04,4.143832914246618060e+01,2.000000000000000111e-01
2.197058621000000045e+00,9.568337070000000333e-01,7.882846704930688286e-01,1.000000000000000048e-04,4.332573437527926785e+01,2.600000000000000089e-01
2.196754174000000059e+00,9.569828230000000380e-01,2.896360526377739220e-01,1.000000000000000048e-04,4.074790282417939125e+01,2.399999999999999911e-01
-2.381905888179586039e+00,-9.494029419999999719e-01,1.503248664569636350e-01,1.000000000000000048e-04,3.912187101221061170e+01,2.399999999999999911e-01
-2.382353656179586388e+00,-9.501919130000000546e-01,2.931502023756487052e-01,1.000000000000000048e-04,4.112011413399648774e+01,2.600000000000000089e-01
-2.385313647179586383e+00,-9.492824659999999914e-01,2.072075841888523229e-01,1.000000000000000048e-04,4.010248106533571644e+01,2.399999999999999911e-01
-2.383308463179586223e+00,-9.502672559999999491e-01,1.445320362931097335e-01,1.000000000000000048e-04,3.896910088051411236e+01,2.000000000000000111e-01
2.194446376000000143e+00,9.548028840000000184e-01,1.513793850157363341e-01,1.000000000000000048e-04,3.971672160768655857e+01,3.699999999999999956e-01
-2.377678389179586294e+00,-9.493284189999999789e-01,9.639601496442677941e-01,1.000000000000000048e-04,4.407880851504899766e+01,3.099999999999999978e-01
2.195048706000000127e+00,9.553664520000000326e-01,5.593945441943652952e-01,1.000000000000000048e-04,4.255953287241276684e+01,2.399999999999999911e-01
2.194988459000000169e+00,9.569281090000000267e-01,8.714891227332843826e-01,1.000000000000000048e-04,4.399410079350952429e+01,2.099999999999999922e-01
2.198773670000000013e+00,9.585742720000000050e-01,2.605967361871233123e-01,1.000000000000000048e-04,4.049976943486650072e+01,2.800000000000000266e-01
2.196007632000000154e+00,9.574002940000000406e-01,4.508069482443546327e-01,1.000000000000000048e-04,4.180575917514286033e+01,2.800000000000000266e-01
2.193610842000000005e+00,9.569156829999999614e-01,2.355415250157293361e-01,1.000000000000000048e-04,4.050049946722567995e+01,2.099999999999999922e-01
2.194846306000000080e+00,9.574700699999999509e-01,4.294565369905003482e-01,1.000000000000000048e-04,4.161154434224989274e+01,2.300000000000000100e-01
-2.901318991795864832e-01,1.086903570000000041e+00,9.160976111204817141e-01,1.000000000000000048e-04,4.370545978766645590e+01,2.000000000000000111e-01
-2.914486071795865385e-01,1.085909494999999891e+00,8.315171029676529102e-01,1.000000000000000048e-04,4.383539175418960099e+01,1.000000000000000056e-01
-2.954610881795858290e-01,1.084462065999999947e+00,1.562107759411237584e-01,1.000000000000000048e-04,3.912322379728827570e+01,1.199999999999999956e-01
-3.403197011795864313e-01,1.090760651000000081e+00,4.808859674617225188e-01,1.000000000000000048e-04,4.222719639595442231e+01,8.999999999999999667e-02
-3.429455761795860980e-01,1.087892671000000089e+00,6.113523939255767203e-01,1.000000000000000048e-04,4.278722446375277144e+01,1.400000000000000133e-01
6.896152909999999636e-01,-9.249195220000000495e-01,1.311175416967074181e-01,1.000000000000000048e-04,3.892432085623337201e+01,2.000000000000000111e-01
1.024453132999999960e+00,1.182715689999999986e+00,1.171791025423078558e+00,1.000000000000000048e-04,4.429334166605839584e+01,1.900000000000000022e-01
1.006083177000000051e+00,1.165244638999999971e+00,1.283446257445570726e-01,1.000000000000000048e-04,3.908913709324705366e+01,1.700000000000000122e-01
9.905969959999999519e-01,1.153001898999999941e+00,8.303835063774409608e-01,1.000000000000000048e-04,4.369863779664555636e+01,3.499999999999999778e-01
2.950804928999999799e+00,-1.010655210999999998e+00,6.319221383847231088e-01,1.000000000000000048e-04,4.274888198800784522e+01,1.700000000000000122e-01
2.951637304000000128e+00,-1.010683065999999908e+00,1.648812586790868728e-01,1.000000000000000048e-04,3.960488940587433149e+01,1.900000000000000022e-01
-2.349248843179586377e+00,-9.322901449999999590e-01,6.805905157124494398e-01,1.000000000000000048e-04,4.297170325815220338e+01,1.900000000000000022e-01
