-1.598279621179586663e+00,2.779993629999999993e-01,4.304965718654589768e-01,1.000000000000000048e-04,4.184974107734545612e+01,1.700000000000000122e-01
-8.306753881795865269e-01,5.048130450000000158e-01,7.951745893669714960e-01,1.000000000000000048e-04,4.334024710067939878e+01,1.600000000000000033e-01
-1.512887194179586281e+00,3.571169940000000209e-01,5.742601824642141750e-01,1.000000000000000048e-04,4.268501843553345765e+01,1.600000000000000033e-01
-2.094054222179586588e+00,-9.657747650000000350e-01,5.634808549771832542e-01,1.000000000000000048e-04,4.235068842464432493e+01,1.600000000000000033e-01
-1.256550916179586252e+00,-1.037146153999999987e+00,3.088279314036170842e-01,1.000000000000000048e-04,4.082634481144006600e+01,1.900000000000000022e-01
-2.638489419179586015e+00,-8.917870300000000361e-01,6.212585061150530663e-01,1.000000000000000048e-04,4.310349992376583117e+01,1.600000000000000033e-01
3.095686500000000008e-02,-1.139960520999999893e+00,6.317042818924583081e-01,1.000000000000000048e-04,4.290637495077999120e+01,1.700000000000000122e-01
-4.765590681795863759e-01,-7.328014390000000544e-01,1.214316361262050226e+00,1.000000000000000048e-04,4.441319366445117822e+01,1.600000000000000033e-01
7.532392530000000530e-01,9.936355940000000109e-01,2.253155184314397097e-01,1.000000000000000048e-04,4.030454372890018533e+01,1.600000000000000033e-01
1.355624495999999901e+00,4.654212710000000253e-01,3.039684593122353728e-01,1.000000000000000048e-04,4.136454561948019659e+01,2.200000000000000011e-01
-2.027672372179586624e+00,-3.494576850000000179e-01,1.525844322893423755e-01,1.000000000000000048e-04,3.917989858361377031e+01,8.999999999999999667e-02
-2.243457714179585949e+00,5.735296930000000071e-01,2.142736953037496228e-01,1.000000000000000048e-04,3.989452399208813205e+01,8.000000000000000167e-02
-1.661352162179586145e+00,7.473004210000000480e-01,5.022304638005810062e-01,1.000000000000000048e-04,4.225019219585570340e+01,1.100000000000000006e-01
-1.046494641179585905e+00,9.839422859999999993e-01,7.353432758459641505e-01,1.000000000000000048e-04,4.331045484552320346e+01,1.600000000000000033e-01
-1.357076630179586019e+00,8.591991679999999576e-01,5.617898228538755756e-01,1.000000000000000048e-04,4.256780191723471773e+01,1.300000000000000044e-01
-1.489161381179585852e+00,8.733460579999999807e-01,1.567024417995983576e-01,1.000000000000000048e-04,3.897914350125143557e+01,8.999999999999999667e-02
2.602874990000000111e+00,9.865781270000000269e-01,9.765087103171656846e-01,1.000000000000000048e-04,4.396162007814907469e+01,2.099999999999999922e-01
2.011122450999999867e+00,-1.257182417000000108e+00,2.787740510415894768e-01,1.000000000000000048e-04,4.054525948282650205e+01,1.799999999999999933e-01
2.487812089999999809e+00,-1.095252646999999913e+00,4.048665326278029220e-01,1.000000000000000048e-04,4.200768512766001805e+01,1.600000000000000033e-01
-2.060955814179585843e+00,9.020563839999999889e-01,1.785188705438263135e-01,1.000000000000000048e-04,3.991182251126861757e+01,1.799999999999999933e-01
-1.552222439179586466e+00,1.270289940999999923e+00,4.761171084612969562e-01,1.000000000000000048e-04,4.216057101588743450e+01,1.600000000000000033e-01
-3.584264691795864266e-01,1.112498557000000110e+00,3.819905053634142789e-01,1.000000000000000048e-04,4.163992656718104968e+01,2.000000000000000111e-01
1.187793541000000008e+00,1.533334508000000040e+00,2.301124349411640679e-01,1.000000000000000048e-04,4.013159632766220142e+01,1.700000000000000122e-01
9.029304540000000490e-01,-5.888661819999999603e-01,4.260609571837326026e-01,1.000000000000000048e-04,4.212574194295459762e+01,1.700000000000000122e-01
2.675488564000000125e+00,-1.029758079000000048e+00,7.472321921612525841e-01,1.000000000000000048e-04,4.310823759186273207e+01,1.700000000000000122e-01
9.979371630000000160e-01,-7.076351440000000492e-01,3.439328384036459685e-01,1.000000000000000048e-04,4.136474675216497587e+01,2.000000000000000111e-01
-2.809922836179586270e+00,-1.219770695000000016e+00,4.188734335980819345e-01,1.000000000000000048e-04,4.196457149712412615e+01,1.900000000000000022e-01
1.945616433999999950e+00,5.533621010000000506e-01,8.556285356951351950e-01,1.000000000000000048e-04,4.421512353078984603e+01,1.700000000000000122e-01
1.369802210000000131e-01,9.686457469999999459e-01,1.899286374775199793e-01,1.000000000000000048e-04,3.986219253307000088e+01,1.000000000000000056e-01
2.377785852000000144e+00,-1.071983155000000076e+00,9.499740291163794037e-01,1.000000000000000048e-04,4.393276119783261180e+01,1.000000000000000056e-01
1.194530383000000029e+00,-8.514353350000000153e-01,3.135101091949947794e-01,1.000000000000000048e-04,4.118474873452411344e+01,1.100000000000000006e-01
2.328991532999999947e+00,-1.085498080000000032e+00,6.848131001816177843e-01,1.000000000000000048e-04,4.300705888701530455e+01,1.199999999999999956e-01
3.099662444999999877e+00,-8.173274409999999879e-01,4.703616970608865966e-01,1.000000000000000048e-04,4.226865115066743073e+01,1.300000000000000044e-01
1.008677688999999988e+00,-7.224949280000000362e-01,1.390034326339673054e-01,1.000000000000000048e-04,3.930267294491704178e+01,1.199999999999999956e-01
1.116317643999999998e+00,-8.188746820000000204e-01,4.853765720238272241e-01,1.000000000000000048e-04,4.242432119124175216e+01,1.499999999999999944e-01
1.368634144999999913e+00,-9.746537960000000167e-01,3.122429266650401658e-01,1.000000000000000048e-04,4.131041045563074476e+01,2.200000000000000011e-01
2.840707745000000006e+00,-9.874777999999999611e-01,2.507004604011924265e-01,1.000000000000000048e-04,4.035189533951883334e+01,1.199999999999999956e-01
1.164831654000000105e+00,-8.361433499999999519e-01,3.126786115716737591e-01,1.000000000000000048e-04,4.108246387605214522e+01,1.600000000000000033e-01
9.274529849999999520e-01,-5.648102149999999488e-01,1.150110757527568417e+00,1.000000000000000048e-04,4.456397166807580845e+01,2.200000000000000011e-01
1.803806121999999901e+00,-1.051757271000000049e+00,1.719406223883173102e-01,1.000000000000000048e-04,3.946615819074018106e+01,2.200000000000000011e-01
1.910407339000000038e+00,-1.096340147000000043e+00,2.060281892396573777e-01,1.000000000000000048e-04,3.998663382202146721e+01,1.300000000000000044e-01
-2.994395329179586174e+00,-6.874333790000000111e-01,2.481459031837554008e-01,1.000000000000000048e-04,4.040821816221273366e+01,1.600000000000000033e-01
2.004169926999999962e+00,-1.114377941999999955e+00,4.937735814391142064e-01,1.000000000000000048e-04,4.236624693062157831e+01,2.099999999999999922e-01
2.993884073999999895e+00,-9.067153500000000310e-01,7.620236585801452023e-01,1.000000000000000048e-04,4.361469000432432352e+01,2.000000000000000111e-01
2.896584697999999847e+00,-6.981149509999999836e-01,5.562520172289073805e-01,1.000000000000000048e-04,4.273797527370909677e+01,2.000000000000000111e-01
2.644964143999999795e+00,-1.038456438999999953e+00,1.221299738206240715e-01,1.000000000000000048e-04,3.892020179500873667e+01,2.500000000000000000e-01
1.395029569000000080e+00,-9.673563530000000021e-01,1.399165540962756804e-01,1.000000000000000048e-04,3.930779640582159118e+01,2.200000000000000011e-01
1.133893306999999906e+00,-8.234022290000000410e-01,3.818988613830394119e-01,1.000000000000000048e-04,4.164485390560668066e+01,1.199999999999999956e-01
9.542908199999999841e-01,-6.210129070000000029e-01,1.184047071174987309e-01,1.000000000000000048e-04,3.899032155214771223e+01,1.400000000000000133e-01
1.112357503999999997e+00,-7.717409769999999947e-01,9.108887118115707171e-01,1.000000000000000048e-04,4.399207200954914043e+01,1.400000000000000133e-01
1.392129267000000059e+00,-9.489503049999999940e-01,4.441845433361617523e-01,1.000000000000000048e-04,4.207084983283709789e+01,1.100000000000000006e-01
3.104633763999999907e+00,-8.563587980000000321e-01,9.948902803919392746e-01,1.000000000000000048e-04,4.413999752007737243e+01,1.199999999999999956e-01
-1.581672989179586430e+00,-6.726275419999999672e-01,2.584782109576786446e-01,1.000000000000000048e-04,4.073226354366019564e+01,2.000000000000000111e-01
8.758714749999999549e-01,-5.394949780000000139e-01,2.271967792608293735e-01,1.000000000000000048e-04,4.046005648332761950e+01,1.199999999999999956e-01
1.027821937999999991e+00,-6.897361509999999640e-01,2.734243476547191243e-01,1.000000000000000048e-04,4.090357965935911011e+01,1.499999999999999944e-01
8.011105990000000343e-01,-4.568120419999999737e-01,1.400516150338779742e-01,1.000000000000000048e-04,3.937254309689556209e+01,1.499999999999999944e-01
8.044453879999999835e-01,-4.591503659999999765e-01,6.530070065704061122e-01,1.000000000000000048e-04,4.285319517493267227e+01,1.100000000000000006e-01
8.290542589999999601e-01,-4.498624509999999965e-01,4.865175458366108874e-01,1.000000000000000048e-04,4.230591007415657145e+01,1.199999999999999956e-01
2.306908324000000121e+00,-1.093655438999999951e+00,1.560720475287593612e-01,1.000000000000000048e-04,3.925584124124402763e+01,1.300000000000000044e-01
-3.090495873179586184e+00,-7.974218849999999970e-01,1.394096276613037144e-01,1.000000000000000048e-04,3.942572694683548207e+01,1.300000000000000044e-01
2.850739061000000074e+00,-9.724982730000000242e-01,1.929426458752914186e-01,1.000000000000000048e-04,4.012884749842525167e+01,1.100000000000000006e-01
1.925211972000000049e+00,-1.067349442999999898e+00,1.956741766061027565e-01,1.000000000000000048e-04,3.998532008437982199e+01,1.600000000000000033e-01
3.010706126000000094e+00,-9.149326070000000088e-01,4.833615847669932020e-01,1.000000000000000048e-04,4.233576206365676597e+01,1.199999999999999956e-01
1.754869720000000077e+00,-1.052947148999999971e+00,1.317401300487324178e-01,1.000000000000000048e-04,3.923410925346962586e+01,1.300000000000000044e-01
3.028086770999999899e+00,-8.725603690000000023e-01,1.336694604206594139e-01,1.000000000000000048e-04,3.912992745937535943e+01,1.199999999999999956e-01
2.780301081000000174e+00,-1.010780400000000023e+00,1.490308104226718555e-01,1.000000000000000048e-04,3.954566726048696523e+01,1.700000000000000122e-01
3.096540631999999960e+00,-8.261897350000000362e-01,6.800570639690002306e-01,1.000000000000000048e-04,4.313152737567456541e+01,1.100000000000000006e-01
-3.043596368179586342e+00,-7.656326449999999451e-01,2.982807665393270025e-01,1.000000000000000048e-04,4.088472618218524701e+01,1.100000000000000006e-01
2.593403560000000052e+00,-1.068240442000000012e+00,7.655205408232546027e-01,1.000000000000000048e-04,4.349670805089091630e+01,1.199999999999999956e-01
1.277663320999999907e+00,-8.910532270000000032e-01,1.929657851682196057e-01,1.000000000000000048e-04,3.992184657795639424e+01,1.499999999999999944e-01
8.729576639999999665e-01,-5.017517409999999733e-01,9.270528931376018633e-01,1.000000000000000048e-04,4.382610820539138530e+01,1.199999999999999956e-01
2.323316692000000128e+00,-1.072994334000000105e+00,4.987943935254648409e-01,1.000000000000000048e-04,4.224987592539281422e+01,1.400000000000000133e-01
-3.012222731179586166e+00,-7.219820959999999621e-01,7.009138765266356152e-01,1.000000000000000048e-04,4.303200979850119268e+01,1.199999999999999956e-01
2.306010604999999991e+00,-1.110345181000000014e+00,1.593603348641567941e-01,1.000000000000000048e-04,3.964670597657686102e+01,1.100000000000000006e-01
2.437557496999999795e+00,-1.097151527000000071e+00,4.404897928151225717e-01,1.000000000000000048e-04,4.201963169081292904e+01,1.100000000000000006e-01
1.098420291999999909e+00,-7.444727049999999569e-01,1.783756315824118754e-01,1.000000000000000048e-04,3.978501741326814312e+01,1.300000000000000044e-01
8.241628739999999897e-01,-4.611620249999999754e-01,1.259708974010459226e+00,1.000000000000000048e-04,4.443198563520598299e+01,1.400000000000000133e-01
1.017317494999999905e+00,-7.027905669999999771e-01,1.113268674420608839e-01,1.000000000000000048e-04,3.863574733731086752e+01,1.199999999999999956e-01
2.728679550999999925e+00,-1.007430967999999982e+00,1.856459678339557051e-01,1.000000000000000048e-04,3.967291281005996240e+01,1.100000000000000006e-01
2.848837458999999850e+00,-9.622339979999999793e-01,3.104374476331379640e-01,1.000000000000000048e-04,4.130527415318228890e+01,1.199999999999999956e-01
-3.065525731179586266e+00,-7.207210450000000046e-01,1.727686470515761297e-01,1.000000000000000048e-04,3.957256304417370529e+01,1.199999999999999956e-01
1.103969978000000074e+00,-7.587182380000000448e-01,5.191480165497339705e-01,1.000000000000000048e-04,4.260805675653418234e+01,1.300000000000000044e-01
1.112034854000000017e+00,-7.675460100000000008e-01,8.022156948007996835e-01,1.000000000000000048e-04,4.353140355319809629e+01,1.199999999999999956e-01
2.373162053000000160e+00,-1.072487750000000073e+00,2.355220446447434668e-01,1.000000000000000048e-04,4.055696362084524509e+01,1.100000000000000006e-01
2.221583438000000132e+00,-1.096064289000000080e+00,1.217060686339541231e+00,1.000000000000000048e-04,4.474420972172279676e+01,1.199999999999999956e-01
2.775251189000000007e+00,-1.013244017000000108e+00,4.897114187280404707e-01,1.000000000000000048e-04,4.225512061077403558e+01,1.700000000000000122e-01
1.527128894000000070e+00,-9.963611940000000056e-01,7.154266692246262771e-01,1.000000000000000048e-04,4.322498351799925587e+01,1.400000000000000133e-01
-1.936135624179586401e+00,1.327891944000000102e+00,2.238056485186195044e-01,1.000000000000000048e-04,3.995324133347658346e+01,1.199999999999999956e-01
2.120951332999999828e+00,-1.112975437000000012e+00,2.136136353749249484e-01,1.000000000000000048e-04,4.024861255173100716e+01,1.600000000000000033e-01
2.950704906999999988e+00,-9.277153000000000205e-01,1.093349205949821989e+00,1.000000000000000048e-04,4.438891266261227742e+01,1.700000000000000122e-01
2.461302839000000020e+00,-1.064109841000000056e+00,2.235492724067951187e-01,1.000000000000000048e-04,4.037192329507421107e+01,1.499999999999999944e-01
1.687800213000000049e+00,-1.037844004000000098e+00,1.181695955619335159e-01,1.000000000000000048e-04,3.877746733382966937e+01,1.100000000000000006e-01
-3.069023128179586113e+00,-7.343218900000000327e-01,3.289022836214874346e-01,1.000000000000000048e-04,4.096165698618624873e+01,2.000000000000000111e-01
7.655655390000000171e-01,-3.825025819999999799e-01,2.876453559836489315e-01,1.000000000000000048e-04,4.100965964865250868e+01,1.300000000000000044e-01
-3.051736326179586012e+00,-7.690870560000000467e-01,1.911059528274363650e-01,1.000000000000000048e-04,3.995170580175835084e+01,1.499999999999999944e-01
-3.116938176179586240e+00,-7.920766919999999711e-01,2.345642386686130898e-01,1.000000000000000048e-04,4.059627155281356892e+01,1.100000000000000006e-01
1.020863690000000101e+00,-6.877910739999999468e-01,3.233886278738202780e-01,1.000000000000000048e-04,4.115820839031393064e+01,1.199999999999999956e-01
1.792785233999999894e+00,-1.066474936999999956e+00,8.885326888028011183e-01,1.000000000000000048e-04,4.373072074191478009e+01,1.100000000000000006e-01
1.805689748000000039e+00,-1.066896787999999985e+00,8.178822885601133574e-01,1.000000000000000048e-04,4.349562819521021595e+01,1.100000000000000006e-01
1.773248071000000037e+00,-1.046601056999999946e+00,5.267823878389004122e-01,1.000000000000000048e-04,4.221082063536499618e+01,2.099999999999999922e-01
1.076689889999999927e+00,-7.549444410000000216e-01,2.774277220092522533e-01,1.000000000000000048e-04,4.090934834559239164e+01,1.199999999999999956e-01
2.336456505000000128e+00,-1.089906792000000069e+00,2.321408959076720624e-01,1.000000000000000048e-04,4.044998829385715311e+01,1.199999999999999956e-01
2.522083900000000156e+00,-1.078852812999999911e+00,3.991558293879893249e-01,1.000000000000000048e-04,4.157452197975614894e+01,1.199999999999999956e-01
3.676074389999999803e-01,1.100614297999999991e+00,3.944851880867803473e-01,1.000000000000000048e-04,4.152338043570031090e+01,1.700000000000000122e-01
2.099931574000000190e+00,-1.082223048999999993e+00,3.528982602925283540e-01,1.000000000000000048e-04,4.155237207537723521e+01,1.100000000000000006e-01
8.155488279999999479e-01,-4.642700679999999802e-01,3.607722572390021920e-01,1.000000000000000048e-04,4.169288188828916475e+01,2.099999999999999922e-01
9.861636230000000447e-01,-6.881834650000000497e-01,2.973453240132288844e-01,1.000000000000000048e-04,4.097931595827836304e+01,1.300000000000000044e-01
1.864254864999999928e+00,-1.086684659999999969e+00,4.399519576119981235e-01,1.000000000000000048e-04,4.186987014827263920e+01,1.199999999999999956e-01
2.873066016000000111e+00,-9.753574739999999466e-01,1.400613246221125152e-01,1.000000000000000048e-04,3.921375860026014237e+01,1.300000000000000044e-01
2.270287562000000037e+00,-1.085086717999999895e+00,4.469244518722124138e-01,1.000000000000000048e-04,4.204249008717245317e+01,1.799999999999999933e-01
8.268071609999999572e-01,-4.587794940000000099e-01,4.818315979307243868e-01,1.000000000000000048e-04,4.212743045339306747e+01,1.199999999999999956e-01
-3.050869045179586347e+00,-7.648855789999999821e-01,1.851966571838674636e-01,1.000000000000000048e-04,3.985347361630156371e+01,1.199999999999999956e-01
1.101963728999999947e+00,-7.466317359999999903e-01,3.585508858970913870e-01,1.000000000000000048e-04,4.181173860105192830e+01,1.900000000000000022e-01
1.745116724000000064e+00,-1.056563783000000090e+00,1.417282853057824088e-01,1.000000000000000048e-04,3.942372004449971001e+01,1.300000000000000044e-01
7.889769570000000343e-01,-3.846565690000000037e-01,3.464881791970202407e-01,1.000000000000000048e-04,4.162942855726624458e+01,1.499999999999999944e-01
1.385818830999999918e+00,-9.278259679999999454e-01,1.338547441837427687e-01,1.000000000000000048e-04,3.927459498570848240e+01,1.499999999999999944e-01
1.138484923000000038e+00,-8.197145099999999518e-01,6.857088453152595520e-01,1.000000000000000048e-04,4.330917154607482900e+01,1.400000000000000133e-01
1.783410439000000069e+00,-1.080958507999999929e+00,3.265903212865415295e-01,1.000000000000000048e-04,4.140917489842257027e+01,1.400000000000000133e-01
2.617653461000000181e+00,-1.025884226000000066e+00,6.934782750497883175e-01,1.000000000000000048e-04,4.312489704970026594e+01,1.199999999999999956e-01
8.270197009999999960e-01,-4.157453939999999903e-01,2.541589318474297698e-01,1.000000000000000048e-04,4.063377935720404821e+01,1.199999999999999956e-01
3.128792493000000174e+00,-8.522697870000000009e-01,1.124106877185642173e-01,1.000000000000000048e-04,3.870519729936461317e+01,1.100000000000000006e-01
1.366158207000000013e+00,-9.614226009999999878e-01,1.154589217749728558e-01,1.000000000000000048e-04,3.898320099271323613e+01,1.100000000000000006e-01
2.846286316000000038e+00,-9.688357899999999745e-01,2.081886367015588490e-01,1.000000000000000048e-04,4.042182749487835025e+01,1.400000000000000133e-01
9.208216280000000031e-01,-6.185352929999999860e-01,1.562645699182911851e-01,1.000000000000000048e-04,3.969826983954314414e+01,1.499999999999999944e-01
7.622987450000000553e-01,-3.411912120000000215e-01,6.324150741874920989e-01,1.000000000000000048e-04,4.313281944540003110e+01,1.199999999999999956e-01
9.277931750000000255e-01,-5.813990460000000304e-01,9.848843276472167840e-01,1.000000000000000048e-04,4.378651068274668745e+01,2.099999999999999922e-01
1.010173165000000095e+00,-6.808591280000000356e-01,5.286249435979704092e-01,1.000000000000000048e-04,4.244586526675352189e+01,1.300000000000000044e-01
1.661181446000000062e+00,-1.029160687999999935e+00,1.132632316299890807e-01,1.000000000000000048e-04,3.919396600783865381e+01,1.400000000000000133e-01
2.089878704000000198e+00,-1.077863170999999953e+00,1.999475296097665833e-01,1.000000000000000048e-04,3.998801600341008822e+01,1.199999999999999956e-01
9.321550429999999610e-01,-6.212176799999999943e-01,1.727976079087805150e-01,1.000000000000000048e-04,3.966949302948611233e+01,1.199999999999999956e-01
2.944595597000000176e+00,-9.127602249999999806e-01,2.787920898541824677e-01,1.000000000000000048e-04,4.083226847601311249e+01,1.100000000000000006e-01
1.288081913999999939e+00,-9.113959929999999598e-01,4.264522645871238193e-01,1.000000000000000048e-04,4.196593653698010229e+01,1.300000000000000044e-01
1.398731861999999992e+00,-9.625033109999999725e-01,2.110179188148686436e-01,1.000000000000000048e-04,4.042979753043272240e+01,1.199999999999999956e-01
1.714165549000000066e+00,-1.043104095999999981e+00,5.319705327072039580e-01,1.000000000000000048e-04,4.232213255959027975e+01,1.199999999999999956e-01
1.014018395999999989e+00,-6.788913789999999615e-01,1.531989200214418645e-01,1.000000000000000048e-04,3.938809890870544450e+01,1.300000000000000044e-01
8.887761809999999985e-01,-5.541821719999999729e-01,4.213497821607583571e-01,1.000000000000000048e-04,4.173343689199067086e+01,1.300000000000000044e-01
1.026278256999999972e+00,-6.961882160000000264e-01,5.412406225595220999e-01,1.000000000000000048e-04,4.245394366056216029e+01,1.199999999999999956e-01
1.824970581999999952e+00,-1.080428363000000003e+00,7.102592411110708603e-01,1.000000000000000048e-04,4.319473344057200848e+01,1.199999999999999956e-01
1.839979185000000017e+00,-1.082878103999999952e+00,3.785138009148427685e-01,1.000000000000000048e-04,4.154001532283307085e+01,1.300000000000000044e-01
-3.070118813179586237e+00,-7.641942569999999879e-01,3.450931658586229300e-01,1.000000000000000048e-04,4.126651799287117228e+01,1.199999999999999956e-01
2.250776613000000204e+00,-1.110438553999999911e+00,3.902864813151065704e-01,1.000000000000000048e-04,4.179216510217131031e+01,1.199999999999999956e-01
2.613802471000000072e+00,-1.066258922999999914e+00,1.152051168916072843e-01,1.000000000000000048e-04,3.905864614557077630e+01,1.199999999999999956e-01
8.050150120000000298e-01,-4.193234060000000096e-01,2.457343525707438303e-01,1.000000000000000048e-04,4.057466319491103235e+01,1.499999999999999944e-01
2.809576177999999924e+00,-9.952447749999999704e-01,1.512327529118393521e-01,1.000000000000000048e-04,3.932687677782832480e+01,1.199999999999999956e-01
8.523447290000000232e-01,-4.773689010000000121e-01,4.172920148719485578e-01,1.000000000000000048e-04,4.208552781124069497e+01,2.000000000000000111e-01
2.975142320999999868e+00,-8.986192680000000266e-01,9.853526244270423007e-01,1.000000000000000048e-04,4.435277633763849536e+01,2.000000000000000111e-01
2.960578484000000010e+00,-9.174235720000000205e-01,3.620995766860597431e-01,1.000000000000000048e-04,4.127283461026206624e+01,1.400000000000000133e-01
1.589239559999999996e+00,-1.046132274999999945e+00,2.505789524578934113e-01,1.000000000000000048e-04,4.073662383306314183e+01,1.199999999999999956e-01
1.095136271999999966e+00,-7.909478989999999543e-01,2.323348737786210538e-01,1.000000000000000048e-04,4.023559005357809326e+01,1.300000000000000044e-01
3.045277111999999953e+00,-8.831592660000000539e-01,2.127134519220403863e-01,1.000000000000000048e-04,3.980949326699730761e+01,1.799999999999999933e-01
3.011317304999999944e+00,-8.969173430000000335e-01,4.607624040186859560e-01,1.000000000000000048e-04,4.199056049736373808e+01,1.499999999999999944e-01
1.946036051000000100e+00,-1.101857058000000000e+00,2.337220157275450294e-01,1.000000000000000048e-04,4.042493055269563484e+01,1.100000000000000006e-01
9.659444579999999503e-01,-6.400164339999999674e-01,1.316796583948971477e-01,1.000000000000000048e-04,3.916346844886670908e+01,1.199999999999999956e-01
1.142944595999999979e+00,-8.229314749999999679e-01,1.025153708527156926e+00,1.000000000000000048e-04,4.412357096604471707e+01,1.499999999999999944e-01
1.336859599999999926e+00,-9.462661719999999610e-01,1.214604350316671244e+00,1.000000000000000048e-04,4.449407293482499171e+01,1.900000000000000022e-01
2.386695267999999981e+00,-1.099692616000000012e+00,2.024801983699544561e-01,1.000000000000000048e-04,3.996736521850754542e+01,1.799999999999999933e-01
1.122946417999999946e+00,-7.871106610000000448e-01,6.600814689645750910e-01,1.000000000000000048e-04,4.270476006307922745e+01,1.499999999999999944e-01
1.038511049000000019e+00,-6.836743480000000428e-01,2.628288430519722940e-01,1.000000000000000048e-04,4.077106371327085554e+01,1.499999999999999944e-01
-1.865548755179585960e+00,5.988235499999999822e-01,2.162622366178945654e-01,1.000000000000000048e-04,3.979622118135827691e+01,3.599999999999999867e-01
-1.208774007179585830e+00,1.086301519000000049e+00,8.649351255504313940e-01,1.000000000000000048e-04,4.412422673763732917e+01,3.900000000000000133e-01
-1.451351928179586359e+00,1.047303024999999943e+00,5.596372935541398252e-01,1.000000000000000048e-04,4.248407187385568307e+01,3.900000000000000133e-01
-1.863787002179586594e+00,5.986409590000000280e-01,3.394021210323971971e-01,1.000000000000000048e-04,4.069000836068973115e+01,3.099999999999999978e-01
-2.367107747179586053e+00,3.570653329999999848e-01,2.481731349700972977e-01,1.000000000000000048e-04,4.077529887662885244e+01,3.300000000000000155e-01
3.110012692999999828e+00,-8.816387980000000013e-01,4.212235155796730801e-01,1.000000000000000048e-04,4.261625230357750382e+01,4.000000000000000222e-01
1.208427087000000011e+00,6.391205479999999550e-01,1.543560200128255566e-01,1.000000000000000048e-04,3.948145112933524103e+01,3.200000000000000067e-01
2.195568135999999893e+00,9.530612539999999688e-01,6.323172898786031393e-01,1.000000000000000048e-04,4.293685922748701955e+01,3.200000000000000067e-01
-1.746303855179585973e+00,7.561700099999999480e-01,4.409413511356479187e-01,1.000000000000000048e-04,4.147889709462683072e+01,3.599999999999999867e-01
-2.613733020179586308e+00,3.020363409999999860e-01,1.630494954689596376e-01,1.000000000000000048e-04,3.929315890289221613e+01,2.399999999999999911e-01
3.080075141000000016e+00,6.813462000000000129e-01,1.429901463181226795e-01,1.000000000000000048e-04,3.937832769994651017e+01,2.999999999999999889e-01
3.084152930000000126e+00,6.750201959999999612e-01,4.566589089146164682e-01,1.000000000000000048e-04,4.185698991259603474e+01,2.399999999999999911e-01
-2.831540824179586302e+00,-5.193198470000000011e-01,2.117598122504633640e-01,1.000000000000000048e-04,4.023282499435768500e+01,2.899999999999999800e-01
2.921667255000000019e+00,-9.403574120000000036e-01,4.902106571651720923e-01,1.000000000000000048e-04,4.207626502019200387e+01,2.899999999999999800e-01
2.610543199999999953e+00,9.294079060000000059e-01,3.074482491172327858e-01,1.000000000000000048e-04,4.115397857124252567e+01,2.899999999999999800e-01
2.614058957000000127e+00,9.310355519999999885e-01,4.108283751415935381e-01,1.000000000000000048e-04,4.129176293571904210e+01,3.699999999999999956e-01
-2.614313936179586406e+00,3.105085300000000048e-01,6.323017896973157637e-01,1.000000000000000048e-04,4.308106265230041032e+01,2.300000000000000100e-01
-2.614275993179586255e+00,3.084493819999999942e-01,1.852195710319202160e-01,1.000000000000000048e-04,3.955336846788112126e+01,2.000000000000000111e-01
3.080236718000000096e+00,6.852664600000000217e-01,6.437798499052056478e-01,1.000000000000000048e-04,4.277801260018495810e+01,3.800000000000000044e-01
3.085135451000000195e+00,6.840520260000000352e-01,1.768301213677743178e-01,1.000000000000000048e-04,3.980915257003726992e+01,2.300000000000000100e-01
-2.829361723179586452e+00,-5.190188390000000096e-01,1.299324547571578670e-01,1.000000000000000048e-04,3.913922296788572197e+01,3.900000000000000133e-01
-2.833706243179586082e+00,-5.260186759999999628e-01,1.666797065296521385e-01,1.000000000000000048e-04,3.958851267865973966e+01,2.200000000000000011e-01
1.286414458000000094e+00,-9.076167339999999806e-01,4.046055129829249086e-01,1.000000000000000048e-04,4.201822313862998470e+01,2.399999999999999911e-01
2.295144749999999956e+00,-1.095028292000000070e+00,2.205084316156151747e-01,1.000000000000000048e-04,4.001057408797731796e+01,2.000000000000000111e-01
2.312115046000000174e+00,-1.091482969000000081e+00,4.703804462372709327e-01,1.000000000000000048e-04,4.194904593218686273e+01,1.900000000000000022e-01
2.535381049000000164e+00,-1.063602453999999975e+00,8.576489786396375159e-01,1.000000000000000048e-04,4.365921392438926318e+01,2.600000000000000089e-01
2.549902755000000187e+00,-1.059649137999999935e+00,1.311696034694012081e-01,1.000000000000000048e-04,3.900843549269031030e+01,1.900000000000000022e-01
-2.980466121795863899e-01,1.081935794000000062e+00,1.816133977112457387e-01,1.000000000000000048e-04,3.968063034191296623e+01,1.000000000000000056e-01
-4.562223411795862660e-01,1.078420874000000085e+00,3.479231091586501012e-01,1.000000000000000048e-04,4.140478176656409914e+01,1.400000000000000133e-01
-4.727696341795866175e-01,1.076427226000000070e+00,7.088866170123302446e-01,1.000000000000000048e-04,4.312416459557905313e+01,1.900000000000000022e-01
-4.909850281795860028e-01,1.086050390999999893e+00,4.586713176053864860e-01,1.000000000000000048e-04,4.220385594227154513e+01,1.499999999999999944e-01
-1.809890014179586615e+00,8.554848849999999727e-01,4.540406723358982877e-01,1.000000000000000048e-04,4.213950066681619688e+01,1.900000000000000022e-01
-1.804843805179586091e+00,8.509932909999999850e-01,1.688686744462633005e-01,1.000000000000000048e-04,3.919398176747120033e+01,1.700000000000000122e-01
-1.798315402179586187e+00,8.389159160000000393e-01,3.620959351249197766e-01,1.000000000000000048e-04,4.158261551526300082e+01,1.100000000000000006e-01
-1.820018681179586650e+00,8.404092629999999620e-01,1.424112465738520683e-01,1.000000000000000048e-04,3.873831064116782130e+01,2.000000000000000111e-01
-2.435936564179586039e+00,3.767214549999999829e-01,1.641975006611633425e-01,1.000000000000000048e-04,3.955268887161319213e+01,1.700000000000000122e-01
-2.738532057179586143e+00,-4.670391260000000266e-01,6.906883157327232681e-01,1.000000000000000048e-04,4.323495071098449216e+01,1.100000000000000006e-01
-2.750126147179586145e+00,-4.750163370000000107e-01,1.854406207980279220e-01,1.000000000000000048e-04,3.954173170002167836e+01,1.700000000000000122e-01
6.777063359999999648e-01,-9.284162910000000046e-01,1.110272525606674776e-01,1.000000000000000048e-04,3.891404745959181355e+01,1.600000000000000033e-01
6.755664329999999662e-01,-9.242990760000000527e-01,2.641576594961476676e-01,1.000000000000000048e-04,4.072674433563761909e+01,2.200000000000000011e-01
1.666277256000000095e+00,1.035703752000000089e+00,3.448415515781597662e-01,1.000000000000000048e-04,4.121119355288828956e+01,2.800000000000000266e-01
1.679531192000000006e+00,1.034147155999999956e+00,8.291128066604482871e-01,1.000000000000000048e-04,4.349169779088332177e+01,2.099999999999999922e-01
1.669961188000000041e+00,1.045784459000000055e+00,3.366849234456801288e-01,1.000000000000000048e-04,4.138122832791714245e+01,2.899999999999999800e-01
1.666612017000000057e+00,1.035903760999999923e+00,3.776651243293924765e-01,1.000000000000000048e-04,4.141300318940112390e+01,1.400000000000000133e-01
1.676630470000000095e+00,1.049302589999999924e+00,3.359171510384044712e-01,1.000000000000000048e-04,4.115470312216459092e+01,1.600000000000000033e-01
1.678871634000000057e+00,1.037439988999999896e+00,3.024112858492435940e-01,1.000000000000000048e-04,4.094332560808856414e+01,2.099999999999999922e-01
-2.159653925179585876e+00,7.341517600000000421e-01,3.786988131177309036e-01,1.000000000000000048e-04,4.115666540463151790e+01,2.600000000000000089e-01
-2.155609593179586447e+00,7.327229189999999726e-01,4.149481532916403648e-01,1.000000000000000048e-04,4.173253361882724732e+01,1.400000000000000133e-01
2.989279821999999864e+00,-1.014333855000000062e+00,6.636239758913218267e-01,1.000000000000000048e-04,4.265392713835369420e+01,1.600000000000000033e-01
6.962963009999999509e-01,-9.242906640000000396e-01,6.573162477961262962e-01,1.000000000000000048e-04,4.303345342788765748e+01,2.000000000000000111e-01
6.831622830000000368e-01,-9.295060950000000322e-01,5.880897796861128679e-01,1.000000000000000048e-04,4.240332343546231897e+01,2.099999999999999922e-01
6.813526220000000189e-01,-9.196739680000000083e-01,3.733265410495003600e-01,1.000000000000000048e-04,4.165237623219806551e+01,1.700000000000000122e-01
1.667475545999999920e+00,1.039138789999999979e+00,9.300797725844809349e-01,1.000000000000000048e-04,4.403096932164498867e+01,1.499999999999999944e-01
1.669072946000000002e+00,1.039627206000000026e+00,7.241940864686522428e-01,1.000000000000000048e-04,4.324404828856480520e+01,1.700000000000000122e-01
2.992464221000000091e+00,-1.009427984000000000e+00,1.722935706794357369e-01,1.000000000000000048e-04,3.973839076968110362e+01,1.400000000000000133e-01
3.013377762000000182e+00,-1.015725085999999999e+00,3.394889982552671270e-01,1.000000000000000048e-04,4.159760590745245423e+01,1.499999999999999944e-01
6.857830799999999893e-01,-9.290922369999999875e-01,2.531340631432730248e-01,1.000000000000000048e-04,4.048895911658597413e+01,3.400000000000000244e-01
6.874880420000000214e-01,-9.251381180000000093e-01,1.852211175892091166e-01,1.000000000000000048e-04,3.957724070427167362e+01,1.700000000000000122e-01
1.659686511000000086e+00,1.040101345999999927e+00,2.389510589260250839e-01,1.000000000000000048e-04,4.028353845947294332e+01,1.400000000000000133e-01
1.692629780999999944e+00,1.043637506000000048e+00,1.263772915410394937e-01,1.000000000000000048e-04,3.864928681379467434e+01,1.799999999999999933e-01
1.682450028999999958e+00,1.049226146999999942e+00,3.052509986052871493e-01,1.000000000000000048e-04,4.108891800399634775e+01,1.900000000000000022e-01
1.675255906999999933e+00,1.048468626000000015e+00,1.471217092316712272e-01,1.000000000000000048e-04,3.926022927073542945e+01,1.499999999999999944e-01
1.692145135000000078e+00,1.039981480000000014e+00,8.251090511474317157e-01,1.000000000000000048e-04,4.379572712576884186e+01,1.700000000000000122e-01
-2.139768073179586061e+00,7.360294179999999908e-01,2.399206451829516418e-01,1.000000000000000048e-04,4.036710162449033845e+01,1.600000000000000033e-01
-2.138731675179585956e+00,7.369836659999999817e-01,7.071553616628323269e-01,1.000000000000000048e-04,4.350845770497773657e+01,1.499999999999999944e-01
6.888283630000000546e-01,-9.193630990000000169e-01,1.669077782751600125e-01,1.000000000000000048e-04,3.953628874489315592e+01,1.700000000000000122e-01
6.776433490000000059e-01,-9.225326109999999469e-01,2.136708304704919570e-01,1.000000000000000048e-04,4.018697210297570166e+01,1.600000000000000033e-01
6.820513620000000499e-01,-9.162569579999999547e-01,2.951738179033238652e-01,1.000000000000000048e-04,4.049817430634497839e+01,2.899999999999999800e-01
6.832637360000000104e-01,-9.208365670000000502e-01,6.924100580211269840e-01,1.000000000000000048e-04,4.316129660810224777e+01,1.400000000000000133e-01
1.683256381999999940e+00,1.050427892999999946e+00,8.800914781987851931e-01,1.000000000000000048e-04,4.364706401833475979e+01,1.499999999999999944e-01
2.987248335999999949e+00,-1.011507587000000097e+00,3.326866641986629958e-01,1.000000000000000048e-04,4.123934926282188229e+01,1.900000000000000022e-01
2.994879214000000012e+00,-1.020537374999999969e+00,2.318881822785776592e-01,1.000000000000000048e-04,3.990860271480788413e+01,2.500000000000000000e-01
2.997056848999999801e+00,-1.020797841000000039e+00,4.884526587649173912e-01,1.000000000000000048e-04,4.217340581537551003e+01,1.499999999999999944e-01
6.981827720000000070e-01,-9.201470600000000166e-01,3.405305343588949096e-01,1.000000000000000048e-04,4.125568560522388850e+01,2.099999999999999922e-01
1.675679171999999939e+00,1.042232051000000048e+00,8.638441695770402440e-01,1.000000000000000048e-04,4.360217587479701251e+01,1.900000000000000022e-01
1.682732345000000018e+00,1.051774148000000020e+00,2.228548218148349580e-01,1.000000000000000048e-04,4.045084151980807263e+01,2.099999999999999922e-01
1.655763980999999996e+00,1.041789395999999979e+00,4.928487702765760314e-01,1.000000000000000048e-04,4.206859383919277207e+01,2.099999999999999922e-01
1.658505131999999938e+00,1.042043577999999915e+00,9.012779547971101479e-01,1.000000000000000048e-04,4.379615409996401354e+01,1.499999999999999944e-01
1.679931540999999973e+00,1.044700675999999939e+00,1.573720159418323661e-01,1.000000000000000048e-04,3.926407078359910940e+01,1.400000000000000133e-01
1.681131209999999987e+00,1.046558263000000100e+00,7.754387455326936518e-01,1.000000000000000048e-04,4.381720478589127055e+01,3.800000000000000044e-01
-2.147380102179586636e+00,7.248191320000000326e-01,4.796762082370136238e-01,1.000000000000000048e-04,4.181775147982850172e+01,2.200000000000000011e-01
-2.137481690179586558e+00,7.386978770000000027e-01,2.169268886182738054e-01,1.000000000000000048e-04,4.026302010858361058e+01,1.499999999999999944e-01
3.007533192999999994e+00,-1.006434849999999992e+00,2.615932620428480515e-01,1.000000000000000048e-04,4.075852454806631187e+01,1.700000000000000122e-01
6.766177190000000063e-01,-9.309161569999999664e-01,6.237883419604044466e-01,1.000000000000000048e-04,4.288569645983368872e+01,1.700000000000000122e-01
6.879719020000000240e-01,-9.170357009999999809e-01,1.318971259478882718e-01,1.000000000000000048e-04,3.926268974076299401e+01,2.600000000000000089e-01
6.868192690000000100e-01,-9.190749710000000183e-01,3.413669135801296051e-01,1.000000000000000048e-04,4.115150412010061842e+01,2.800000000000000266e-01
1.680927606000000019e+00,1.043199457999999913e+00,1.033954700775230773e+00,1.000000000000000048e-04,4.430830574676111411e+01,1.799999999999999933e-01
1.680733408999999901e+00,1.046110547000000057e+00,2.122071504858247248e-01,1.000000000000000048e-04,3.994797739709513706e+01,1.499999999999999944e-01
3.003205794999999956e+00,-1.007960921000000010e+00,6.332273614771275483e-01,1.000000000000000048e-04,4.267152038715195062e+01,2.200000000000000011e-01
3.013387552999999830e+00,-1.018013843000000085e+00,4.520867540008703944e-01,1.000000000000000048e-04,4.220511427012514361e+01,2.000000000000000111e-01
2.991633154000000072e+00,-1.018575491000000000e+00,9.135831859291216883e-01,1.000000000000000048e-04,4.385954591477931075e+01,1.600000000000000033e-01
6.810583510000000063e-01,-9.216344210000000370e-01,3.319254881628188603e-01,1.000000000000000048e-04,4.130666916099281849e+01,1.600000000000000033e-01
1.670069762000000013e+00,1.048284639000000018e+00,8.054604102030653578e-01,1.000000000000000048e-04,4.348838711916522470e+01,2.099999999999999922e-01
1.699713636000000028e+00,1.040243690999999915e+00,2.500521019533734624e-01,1.000000000000000048e-04,4.087488208432486658e+01,2.899999999999999800e-01
1.686195045999999920e+00,1.048540513999999924e+00,1.622029795791712914e-01,1.000000000000000048e-04,3.946470828572894618e+01,1.400000000000000133e-01
1.667162669999999958e+00,1.044746053999999980e+00,7.958690811196542647e-01,1.000000000000000048e-04,4.339526278882583910e+01,2.700000000000000178e-01
1.689467040999999892e+00,1.036330184999999959e+00,2.170074217545929773e-01,1.000000000000000048e-04,4.015225261134680323e+01,1.300000000000000044e-01
1.683799076999999977e+00,1.043385784000000038e+00,1.621111951818052788e-01,1.000000000000000048e-04,3.954638723205765416e+01,1.700000000000000122e-01
-2.151455832179586025e+00,7.398983139999999459e-01,3.552453359327525373e-01,1.000000000000000048e-04,4.148146549129229044e+01,2.500000000000000000e-01
-2.141944958179585967e+00,7.302793560000000461e-01,3.588231492024132052e-01,1.000000000000000048e-04,4.127277535147779020e+01,1.400000000000000133e-01
3.012489310999999947e+00,-1.019874449000000016e+00,7.426226657067005466e-01,1.000000000000000048e-04,4.313080717721140900e+01,1.900000000000000022e-01
6.824463880000000149e-01,-9.193269539999999740e-01,5.410129811264092758e-01,1.000000000000000048e-04,4.254825564661822312e+01,1.600000000000000033e-01
6.933168330000000212e-01,-9.307474239999999899e-01,5.439780668154228227e-01,1.000000000000000048e-04,4.249294948052244791e+01,1.600000000000000033e-01
7.005346909999999871e-01,-9.247541049999999929e-01,1.844796584035528486e-01,1.000000000000000048e-04,4.023510893253305198e+01,2.700000000000000178e-01
1.674988617999999985e+00,1.042237757999999959e+00,1.970943828506135365e-01,1.000000000000000048e-04,4.004406485143199745e+01,1.499999999999999944e-01
1.672026148000000045e+00,1.039374368000000048e+00,1.076038780916778403e+00,1.000000000000000048e-04,4.433736169136505367e+01,1.600000000000000033e-01
2.993618983999999816e+00,-1.008517228000000099e+00,3.882030334651906944e-01,1.000000000000000048e-04,4.166590625875780773e+01,1.700000000000000122e-01
2.992837709999999873e+00,-1.014889098000000045e+00,3.365081940631680091e-01,1.000000000000000048e-04,4.072810878507834076e+01,2.800000000000000266e-01
2.980621672999999916e+00,-1.012535224000000067e+00,2.176753124859287514e-01,1.000000000000000048e-04,4.018304078390065115e+01,1.499999999999999944e-01
3.118379398000000080e+00,-1.044341935000000055e+00,7.037564679893055786e-01,1.000000000000000048e-04,4.319547042495641875e+01,3.099999999999999978e-01
3.132904315000000217e+00,-1.046896950999999909e+00,4.320980488413674880e-01,1.000000000000000048e-04,4.219741543538590633e+01,2.200000000000000011e-01
1.248659997999999938e+00,-1.117162079000000086e+00,8.034693033043440735e-01,1.000000000000000048e-04,4.368721143826879683e+01,2.700000000000000178e-01
2.302446713000000145e+00,-1.091359299000000060e+00,4.836934843109177429e-01,1.000000000000000048e-04,4.231404133056455663e+01,2.899999999999999800e-01
3.133486173000000097e+00,-1.061461677999999909e+00,1.285601111936729435e-01,1.000000000000000048e-04,3.952973122632338487e+01,3.099999999999999978e-01
1.251013366000000016e+00,-1.102704651999999896e+00,2.403867882421737434e-01,1.000000000000000048e-04,4.036566117701269718e+01,2.300000000000000100e-01
1.232341668999999973e+00,-1.105349812000000043e+00,1.371689908567483851e-01,1.000000000000000048e-04,3.921382888534363786e+01,2.200000000000000011e-01
2.330538756999999794e+00,-1.086213730999999960e+00,1.963339479866061943e-01,1.000000000000000048e-04,3.969488633559073776e+01,2.300000000000000100e-01
3.104372880000000112e+00,-1.050765708999999992e+00,7.714778357626483896e-01,1.000000000000000048e-04,4.326827359359987213e+01,2.200000000000000011e-01
3.122794933000000217e+00,-1.050942575000000101e+00,5.125513183857590693e-01,1.000000000000000048e-04,4.222115450188967856e+01,2.099999999999999922e-01
3.135928428000000157e+00,-1.044986675000000087e+00,7.837050670291947352e-01,1.000000000000000048e-04,4.340561180602857405e+01,2.300000000000000100e-01
3.135701593999999925e+00,-1.049448040999999998e+00,4.823390317181741604e-01,1.000000000000000048e-04,4.240058123732936224e+01,2.399999999999999911e-01
2.902190216000000156e+00,-1.054666754000000095e+00,1.651336004125545376e-01,1.000000000000000048e-04,3.941309889961317481e+01,2.099999999999999922e-01
1.219278212000000083e+00,-1.102494101000000004e+00,1.196921636528183175e-01,1.000000000000000048e-04,3.883227178820008874e+01,2.399999999999999911e-01
2.314258420999999899e+00,-1.073777474999999981e+00,6.466061583451128136e-01,1.000000000000000048e-04,4.299596610728809765e+01,2.399999999999999911e-01
3.138600745000000192e+00,-1.056209613999999908e+00,6.770707962861084450e-01,1.000000000000000048e-04,4.298313561087920931e+01,2.800000000000000266e-01
2.873014373000000177e+00,-1.047336534999999902e+00,1.579601282675093810e-01,1.000000000000000048e-04,3.974437681016816271e+01,2.000000000000000111e-01
2.890150627000000139e+00,-1.045368942999999939e+00,4.877097185124268375e-01,1.000000000000000048e-04,4.250918401550282510e+01,2.200000000000000011e-01
-3.136513490179586139e+00,-1.038988312000000080e+00,4.538576939855738512e-01,1.000000000000000048e-04,4.170281462328506450e+01,2.800000000000000266e-01
3.120369102000000172e+00,-1.042910143999999928e+00,1.573090814421407302e-01,1.000000000000000048e-04,3.965833878407250523e+01,2.399999999999999911e-01
3.132773262000000170e+00,-1.048570620000000009e+00,4.083697537002415334e-01,1.000000000000000048e-04,4.177700157179371843e+01,2.300000000000000100e-01
3.132934141999999866e+00,-1.046888051000000042e+00,7.572669439707775396e-01,1.000000000000000048e-04,4.344573745166721324e+01,2.200000000000000011e-01
3.134455274000000014e+00,-1.046257098000000108e+00,1.948401030917876753e-01,1.000000000000000048e-04,3.965622085054265966e+01,2.200000000000000011e-01
2.910504301000000016e+00,-1.063930792999999930e+00,4.590651185550314040e-01,1.000000000000000048e-04,4.242918075293716385e+01,2.399999999999999911e-01
2.301930878999999930e+00,-1.084305269999999988e+00,5.055687840760203500e-01,1.000000000000000048e-04,4.260503099282612993e+01,3.099999999999999978e-01
2.314913878000000036e+00,-1.104421796000000011e+00,3.439620335283473107e-01,1.000000000000000048e-04,4.154051056563999111e+01,2.600000000000000089e-01
1.232494258000000009e+00,-1.089556776000000005e+00,5.585688838151894320e-01,1.000000000000000048e-04,4.295386083059648286e+01,3.099999999999999978e-01
-3.138875270179586341e+00,-1.027091259999999950e+00,1.260078202089429222e+00,1.000000000000000048e-04,4.443088708495005079e+01,3.800000000000000044e-01
1.277748142000000087e+00,-1.105660628999999950e+00,8.404563078808258147e-01,1.000000000000000048e-04,4.383690202345007236e+01,2.500000000000000000e-01
2.339694710999999927e+00,-1.083680948999999893e+00,1.606055942134889669e-01,1.000000000000000048e-04,3.964478213850429000e+01,2.300000000000000100e-01
3.085408954000000037e+00,-1.045989441999999991e+00,9.759196658227167198e-01,1.000000000000000048e-04,4.392710256529000645e+01,2.800000000000000266e-01
3.122183823999999941e+00,-1.053540683000000033e+00,1.429040885744725653e-01,1.000000000000000048e-04,3.955945278160681511e+01,3.699999999999999956e-01
1.263417701000000060e+00,-1.099941301000000093e+00,2.290581761016596829e-01,1.000000000000000048e-04,4.042107103909594912e+01,2.200000000000000011e-01
1.238769020999999970e+00,-1.122513239999999968e+00,6.634814855429309599e-01,1.000000000000000048e-04,4.323280398792712731e+01,2.600000000000000089e-01
1.225778744000000087e+00,-1.107856694000000086e+00,2.810676565516769809e-01,1.000000000000000048e-04,4.083967608047340292e+01,2.500000000000000000e-01
2.356185176999999964e+00,-1.090954028000000076e+00,7.174930870844544728e-01,1.000000000000000048e-04,4.352133243908578919e+01,2.700000000000000178e-01
1.231078855000000027e+00,-1.109460918999999990e+00,1.997070355811105813e-01,1.000000000000000048e-04,3.986552229830854799e+01,2.300000000000000100e-01
2.350025410999999842e+00,-1.078254897999999962e+00,1.535360380082444465e-01,1.000000000000000048e-04,3.967906907501707536e+01,2.300000000000000100e-01
2.889344674999999807e+00,-1.054064458000000037e+00,6.979255830826500695e-01,1.000000000000000048e-04,4.355756349065588751e+01,3.200000000000000067e-01
1.260972444000000081e+00,-1.102168519999999985e+00,2.814463285589170471e-01,1.000000000000000048e-04,4.074093362677599828e+01,2.899999999999999800e-01
3.138597202000000141e+00,-1.049455424000000026e+00,2.947961744312828092e-01,1.000000000000000048e-04,4.079937620336824011e+01,2.600000000000000089e-01
1.280173519000000093e+00,-1.106045986000000036e+00,1.495673196862148391e-01,1.000000000000000048e-04,3.934610435143913065e+01,2.899999999999999800e-01
3.140421104000000074e+00,-1.048273016000000002e+00,9.233039221919014938e-01,1.000000000000000048e-04,4.397228919074888864e+01,2.700000000000000178e-01
2.887571490000000018e+00,-1.060290981000000077e+00,3.294622542969927181e-01,1.000000000000000048e-04,4.126150370715102156e+01,2.300000000000000100e-01
3.117377486000000086e+00,-1.048849812999999909e+00,5.069724033489990678e-01,1.000000000000000048e-04,4.274719088464942018e+01,2.800000000000000266e-01
3.139331405000000075e+00,-1.045946368000000071e+00,3.339418933299882486e-01,1.000000000000000048e-04,4.119339735522073909e+01,2.300000000000000100e-01
2.901812189000000153e+00,-1.070407117000000019e+00,1.546805346257953406e-01,1.000000000000000048e-04,4.015085777826816127e+01,2.200000000000000011e-01
2.874698792999999863e+00,-1.069280417999999955e+00,1.531483788838536864e-01,1.000000000000000048e-04,3.909032931816832246e+01,2.200000000000000011e-01
3.126790450000000110e+00,-1.053686536000000062e+00,4.575945247796537885e-01,1.000000000000000048e-04,4.211695487745408428e+01,2.099999999999999922e-01
1.253234667999999941e+00,-1.096167120000000050e+00,4.592511340860585545e-01,1.000000000000000048e-04,4.198373785925130619e+01,2.200000000000000011e-01
1.242189800000000011e+00,-1.095888138000000067e+00,1.856048883706729047e-01,1.000000000000000048e-04,3.995755542158891416e+01,2.899999999999999800e-01
2.358704259000000025e+00,-1.096119858000000002e+00,3.217269399703397426e-01,1.000000000000000048e-04,4.075175801501336537e+01,2.099999999999999922e-01
3.090657074000000115e+00,-1.046905049999999893e+00,3.009073666900488053e-01,1.000000000000000048e-04,4.098314927607390956e+01,2.300000000000000100e-01
2.350320292999999783e+00,-1.077642637000000070e+00,7.486150975090575255e-01,1.000000000000000048e-04,4.391764268947326144e+01,3.300000000000000155e-01
3.120911620999999858e+00,-1.047605429999999949e+00,2.696109172669085563e-01,1.000000000000000048e-04,4.091598597486487421e+01,2.899999999999999800e-01
2.310418793000000193e+00,-1.091478047999999923e+00,1.680337959764568456e-01,1.000000000000000048e-04,3.988876142587308493e+01,3.300000000000000155e-01
2.888242410000000149e+00,-1.055260810999999910e+00,1.784486883477278685e-01,1.000000000000000048e-04,4.018061252758128887e+01,2.999999999999999889e-01
2.313880778000000138e+00,-1.089056457000000089e+00,1.144777155318035256e-01,1.000000000000000048e-04,3.921376349254770588e+01,2.600000000000000089e-01
3.096505394999999883e+00,-1.050897790999999915e+00,2.021092415690923794e-01,1.000000000000000048e-04,3.966560911591634664e+01,3.300000000000000155e-01
1.264206060000000020e+00,-1.108314516000000083e+00,1.140020359603368671e-01,1.000000000000000048e-04,3.899161946820290581e+01,2.500000000000000000e-01
2.317080779999999951e+00,-1.080569537999999996e+00,1.924306747659196848e-01,1.000000000000000048e-04,3.982378608474280668e+01,2.399999999999999911e-01
2.308161032000000112e+00,-1.080284865999999955e+00,5.831923120840711849e-01,1.000000000000000048e-04,4.229199360704593147e+01,3.900000000000000133e-01
1.213089824000000094e+00,-1.095999417000000031e+00,7.351579300673194428e-01,1.000000000000000048e-04,4.321889784806973012e+01,2.700000000000000178e-01
3.095344697999999894e+00,-1.044259242999999948e+00,3.486936048703357383e-01,1.000000000000000048e-04,4.155114012755134922e+01,2.200000000000000011e-01
3.093500166000000107e+00,-1.047656949999999920e+00,2.907276800787115256e-01,1.000000000000000048e-04,4.070645241064275410e+01,2.300000000000000100e-01
2.871266652000000086e+00,-1.064917746999999970e+00,3.774997575029572783e-01,1.000000000000000048e-04,4.178923303220200580e+01,2.500000000000000000e-01
2.872879009000000039e+00,-1.076645507999999918e+00,1.485142730985702375e-01,1.000000000000000048e-04,3.931001223900565122e+01,2.099999999999999922e-01
1.241294699000000001e+00,-1.109043570000000090e+00,4.744801484538292424e-01,1.000000000000000048e-04,4.238765624304321733e+01,2.099999999999999922e-01
1.238788393000000099e+00,-1.083197141000000085e+00,1.236729634815971757e-01,1.000000000000000048e-04,3.892524431337423607e+01,2.999999999999999889e-01
-3.140928712179586135e+00,-1.049943351000000025e+00,7.404553349620011105e-01,1.000000000000000048e-04,4.326331339174790003e+01,2.200000000000000011e-01
2.897074545000000168e+00,-1.050668165000000043e+00,5.682197598287470619e-01,1.000000000000000048e-04,4.248641845155530916e+01,2.099999999999999922e-01
3.133488720999999977e+00,-1.053899826000000095e+00,1.788807776201908339e-01,1.000000000000000048e-04,4.014744495989120310e+01,2.300000000000000100e-01
2.854965548000000020e+00,-1.051119023000000041e+00,7.510020117426201569e-01,1.000000000000000048e-04,4.330157347888597741e+01,3.200000000000000067e-01
2.846666281000000076e+00,-1.061494909000000098e+00,5.214811177622229454e-01,1.000000000000000048e-04,4.248495178455723220e+01,2.600000000000000089e-01
1.477625364000000108e+00,-9.892628350000000070e-01,3.293181892133723032e-01,1.000000000000000048e-04,4.118233771118218556e+01,2.000000000000000111e-01
-2.998301261179586064e+00,-5.567642400000000213e-01,1.752701889677379388e-01,1.000000000000000048e-04,3.984542483863179285e+01,1.799999999999999933e-01
2.915910107000000195e+00,-9.248875840000000403e-01,8.503663324414576508e-01,1.000000000000000048e-04,4.412562576015549354e+01,2.999999999999999889e-01
2.904218159000000021e+00,-9.279150130000000107e-01,5.141429476648455843e-01,1.000000000000000048e-04,4.238149033866496040e+01,2.399999999999999911e-01
2.945746643000000109e+00,-9.241091030000000428e-01,9.450761606781981072e-01,1.000000000000000048e-04,4.360908068705435880e+01,2.300000000000000100e-01
2.195221751000000054e+00,9.567984520000000215e-01,3.039055909552632606e-01,1.000000000000000048e-04,4.092041051396871865e+01,2.200000000000000011e-01
-2.382074272179586227e+00,-9.504311730000000180e-01,1.783165427487836130e-01,1.000000000000000048e-04,3.973227927748310861e+01,2.300000000000000100e-01
2.197803225999999999e+00,9.560313849999999558e-01,6.163781593841615170e-01,1.000000000000000048e-04,4.271153722495529337e+01,2.300000000000000100e-01
-2.380846050179586282e+00,-9.512843520000000552e-01,1.523014336004460123e-01,1.000000000000000048e-04,3.939218926276509336e+01,2.600000000000000089e-01
-2.382960995179586039e+00,-9.501026420000000527e-01,1.280971118558340560e-01,1.000000000000000048e-04,3.914589115950483489e+01,2.099999999999999922e-01
2.192165822000000208e+00,9.554729659999999791e-01,3.224005636655973284e-01,1.000000000000000048e-04,4.077891379068552880e+01,2.899999999999999800e-01
-2.383512939179586176e+00,-9.505219620000000535e-01,1.322812324293136665e-01,1.000000000000000048e-04,3.905022888235126288e+01,2.000000000000000111e-01
2.197044292000000176e+00,9.582492320000000063e-01,3.167880316462041712e-01,1.000000000000000048e-04,4.054734232065074195e+01,2.500000000000000000e-01
2.198013217999999824e+00,9.570721989999999568e-01,5.922604093469208131e-01,1.000000000000000048e-04,4.275473208062769714e+01,2.099999999999999922e-01
2.198391541999999976e+00,9.561199929999999458e-01,4.724829902181255648e-01,1.000000000000000048e-04,4.206545738026400727e+01,2.300000000000000100e-01
2.199218732999999926e+00,9.570277640000000030e-01,3.078585168742873357e-01,1.000000000000000048e-04,4.101030451911513808e+01,2.200000000000000011e-01
2.196667974999999995e+00,9.569524729999999701e-01,5.208386930574084861e-01,1.000000000000000048e-04,4.227408301323870177e+01,2.399999999999999911e-01
2.196400267000000017e+00,9.571105250000000453e-01,8.578323208647626874e-01,1.000000000000000048e-04,4.391929624883390204e+01,2.500000000000000000e-01
2.195980999000000100e+00,9.563170869999999546e-01,7.235716421280433686e-01,1.000000000000000048e-04,4.337659432149749250e+01,2.200000000000000011e-01
2.198886345000000020e+00,9.574225640000000315e-01,5.106668846689481622e-01,1.000000000000000048e-04,4.254670870274944861e+01,3.300000000000000155e-01
-2.382942164179586264e+00,-9.487821469999999646e-01,4.597893208071608395e-01,1.000000000000000048e-04,4.180228278582052326e+01,2.000000000000000111e-01
2.197058621000000045e+00,9.568337070000000333e-01,6.760079581352387290e-01,1.000000000000000048e-04,4.305436679615650775e+01,2.600000000000000089e-01
2.196754174000000059e+00,9.569828230000000380e-01,6.922113741662661024e-01,1.000000000000000048e-04,4.306895355991022001e+01,2.399999999999999911e-01
-2.381905888179586039e+00,-9.494029419999999719e-01,4.645267203896725761e-01,1.000000000000000048e-04,4.202156528422209902e+01,2.399999999999999911e-01
-2.382353656179586388e+00,-9.501919130000000546e-01,2.183074479546678326e-01,1.000000000000000048e-04,4.004004784240280657e+01,2.600000000000000089e-01
-2.385313647179586383e+00,-9.492824659999999914e-01,1.566959977490203215e-01,1.000000000000000048e-04,3.962176689170135546e+01,2.399999999999999911e-01
-2.383308463179586223e+00,-9.502672559999999491e-01,2.481261176780349409e-01,1.000000000000000048e-04,4.076883592239870069e+01,2.000000000000000111e-01
2.194446376000000143e+00,9.548028840000000184e-01,5.185429277432842543e-01,1.000000000000000048e-04,4.230341251865791463e+01,3.699999999999999956e-01
-2.377678389179586294e+00,-9.493284189999999789e-01,3.061255701144094399e-01,1.000000000000000048e-04,4.088000468496616691e+01,3.099999999999999978e-01
2.195048706000000127e+00,9.553664520000000326e-01,1.287582729111435231e+00,1.000000000000000048e-04,4.500635369496378502e+01,2.399999999999999911e-01
2.194988459000000169e+00,9.569281090000000267e-01,3.292596352185579445e-01,1.000000000000000048e-04,4.131611283541082003e+01,2.099999999999999922e-01
2.198773670000000013e+00,9.585742720000000050e-01,2.985607700040258106e-01,1.000000000000000048e-04,4.108535281435759146e+01,2.800000000000000266e-01
2.196007632000000154e+00,9.574002940000000406e-01,2.553617555428024932e-01,1.000000000000000048e-04,4.088972942233463925e+01,2.800000000000000266e-01
2.193610842000000005e+00,9.569156829999999614e-01,3.712045970320645427e-01,1.000000000000000048e-04,4.172252759233896313e+01,2.099999999999999922e-01
2.194846306000000080e+00,9.574700699999999509e-01,1.522283542431221992e-01,1.000000000000000048e-04,3.950940398623105665e+01,2.300000000000000100e-01
-2.901318991795864832e-01,1.086903570000000041e+00,1.780739705358067582e-01,1.000000000000000048e-04,3.983341443099288171e+01,2.000000000000000111e-01
-2.914486071795865385e-01,1.085909494999999891e+00,2.288091667305076626e-01,1.000000000000000048e-04,4.033837566320106305e+01,1.000000000000000056e-01
-2.954610881795858290e-01,1.084462065999999947e+00,2.894028481073482872e-01,1.000000000000000048e-04,4.075791979581831015e+01,1.199999999999999956e-01
-3.403197011795864313e-01,1.090760651000000081e+00,9.707990566662132448e-01,1.000000000000000048e-04,4.384080847490735522e+01,8.999999999999999667e-02
-3.429455761795860980e-01,1.087892671000000089e+00,1.893969347444153239e-01,1.000000000000000048e-04,3.963783543640398221e+01,1.400000000000000133e-01
6.896152909999999636e-01,-9.249195220000000495e-01,2.185162373787812307e-01,1.000000000000000048e-04,4.065425213827398210e+01,2.000000000000000111e-01
1.024453132999999960e+00,1.182715689999999986e+00,6.509711188656888137e-01,1.000000000000000048e-04,4.279431260912699742e+01,1.900000000000000022e-01
1.006083177000000051e+00,1.165244638999999971e+00,4.171274126742425814e-01,1.000000000000000048e-04,4.191323811037183589e+01,1.700000000000000122e-01
9.905969959999999519e-01,1.153001898999999941e+00,6.977171729327413807e-01,1.000000000000000048e-04,4.298795247634787842e+01,3.499999999999999778e-01
2.950804928999999799e+00,-1.010655210999999998e+00,3.334846640128774631e-01,1.000000000000000048e-04,4.135300748064186394e+01,1.700000000000000122e-01
2.951637304000000128e+00,-1.010683065999999908e+00,1.869790458216775697e-01,1.000000000000000048e-04,4.011523607094211030e+01,1.900000000000000022e-01
-2.349248843179586377e+00,-9.322901449999999590e-01,6.464413465667764314e-01,1.000000000000000048e-04,4.277056630173370166e+01,1.900000000000000022e-01
