-1.598279621179586663e+00,2.779993629999999993e-01,2.456486565294766500e-01,1.000000000000000048e-04,4.042583360756641042e+01,1.700000000000000122e-01
-8.306753881795865269e-01,5.048130450000000158e-01,7.591383491491587865e-01,1.000000000000000048e-04,4.376870901702309880e+01,1.600000000000000033e-01
-1.512887194179586281e+00,3.571169940000000209e-01,2.686855163537484881e-01,1.000000000000000048e-04,4.056307200972704408e+01,1.600000000000000033e-01
-2.094054222179586588e+00,-9.657747650000000350e-01,1.679389988041324333e-01,1.000000000000000048e-04,3.940565811310808897e+01,1.600000000000000033e-01
-1.256550916179586252e+00,-1.037146153999999987e+00,8.534959942180699866e-01,1.000000000000000048e-04,4.399940043106372656e+01,1.900000000000000022e-01
-2.638489419179586015e+00,-8.917870300000000361e-01,2.747774364553896564e-01,1.000000000000000048e-04,4.089875427316356848e+01,1.600000000000000033e-01
3.095686500000000008e-02,-1.139960520999999893e+00,1.113876177433534842e-01,1.000000000000000048e-04,3.855956225345336463e+01,1.700000000000000122e-01
-4.765590681795863759e-01,-7.328014390000000544e-01,5.842402098359307239e-01,1.000000000000000048e-04,4.285671957129872567e+01,1.600000000000000033e-01
7.532392530000000530e-01,9.936355940000000109e-01,1.267439491528455253e+00,1.000000000000000048e-04,4.487305047978599504e+01,1.600000000000000033e-01
1.355624495999999901e+00,4.654212710000000253e-01,3.354527112472962536e-01,1.000000000000000048e-04,4.140812770650692443e+01,2.200000000000000011e-01
-2.027672372179586624e+00,-3.494576850000000179e-01,3.047792001112745730e-01,1.000000000000000048e-04,4.091430090900756511e+01,8.999999999999999667e-02
-2.243457714179585949e+00,5.735296930000000071e-01,2.354358629756718724e-01,1.000000000000000048e-04,4.012690506782954003e+01,8.000000000000000167e-02
-1.661352162179586145e+00,7.473004210000000480e-01,6.212772183917347757e-01,1.000000000000000048e-04,4.292618238780491424e+01,1.100000000000000006e-01
-1.046494641179585905e+00,9.839422859999999993e-01,6.932043261255920186e-01,1.000000000000000048e-04,4.303644928683421966e+01,1.600000000000000033e-01
-1.357076630179586019e+00,8.591991679999999576e-01,3.790209334705008093e-01,1.000000000000000048e-04,4.140026390734751516e+01,1.300000000000000044e-01
-1.489161381179585852e+00,8.733460579999999807e-01,1.303788056220529512e+00,1.000000000000000048e-04,4.476751012017076192e+01,8.999999999999999667e-02
2.602874990000000111e+00,9.865781270000000269e-01,1.613500145011101949e-01,1.000000000000000048e-04,3.931603800463402365e+01,2.099999999999999922e-01
2.011122450999999867e+00,-1.257182417000000108e+00,5.402745524938656896e-01,1.000000000000000048e-04,4.284496600956674683e+01,1.799999999999999933e-01
2.487812089999999809e+00,-1.095252646999999913e+00,3.120577754702018591e-01,1.000000000000000048e-04,4.098450369478065625e+01,1.600000000000000033e-01
-2.060955814179585843e+00,9.020563839999999889e-01,5.771199323939764092e-01,1.000000000000000048e-04,4.270216425749090661e+01,1.799999999999999933e-01
-1.552222439179586466e+00,1.270289940999999923e+00,4.672580447172645091e-01,1.000000000000000048e-04,4.172530123099168975e+01,1.600000000000000033e-01
-3.584264691795864266e-01,1.112498557000000110e+00,6.801279153590520377e-01,1.000000000000000048e-04,4.288291558134271497e+01,2.000000000000000111e-01
1.187793541000000008e+00,1.533334508000000040e+00,7.239143910208161170e-01,1.000000000000000048e-04,4.282136157915252994e+01,1.700000000000000122e-01
9.029304540000000490e-01,-5.888661819999999603e-01,7.051709648890986948e-01,1.000000000000000048e-04,4.308076851963150489e+01,1.700000000000000122e-01
2.675488564000000125e+00,-1.029758079000000048e+00,4.278487528262426842e-01,1.000000000000000048e-04,4.203591933480350207e+01,1.700000000000000122e-01
9.979371630000000160e-01,-7.076351440000000492e-01,1.605157017531460006e-01,1.000000000000000048e-04,3.984131766625006321e+01,2.000000000000000111e-01
-2.809922836179586270e+00,-1.219770695000000016e+00,1.979358566925462082e-01,1.000000000000000048e-04,4.014796486189153768e+01,1.900000000000000022e-01
1.945616433999999950e+00,5.533621010000000506e-01,3.172318032257483988e-01,1.000000000000000048e-04,4.135721870020178415e+01,1.700000000000000122e-01
1.369802210000000131e-01,9.686457469999999459e-01,3.660479419796340839e-01,1.000000000000000048e-04,4.147601869779540351e+01,1.000000000000000056e-01
2.377785852000000144e+00,-1.071983155000000076e+00,2.027020052264196792e-01,1.000000000000000048e-04,4.014873770476121706e+01,1.000000000000000056e-01
1.194530383000000029e+00,-8.514353350000000153e-01,5.007736645424853972e-01,1.000000000000000048e-04,4.242885136666014745e+01,1.100000000000000006e-01
2.328991532999999947e+00,-1.085498080000000032e+00,1.919589401019297092e-01,1.000000000000000048e-04,4.038460451316885980e+01,1.199999999999999956e-01
3.099662444999999877e+00,-8.173274409999999879e-01,1.431342346712209945e-01,1.000000000000000048e-04,3.926096745138627142e+01,1.300000000000000044e-01
1.008677688999999988e+00,-7.224949280000000362e-01,7.165392276677156058e-01,1.000000000000000048e-04,4.318537843245345442e+01,1.199999999999999956e-01
1.116317643999999998e+00,-8.188746820000000204e-01,8.685274919674721428e-01,1.000000000000000048e-04,4.384613005762005145e+01,1.499999999999999944e-01
1.368634144999999913e+00,-9.746537960000000167e-01,1.587628431121799188e-01,1.000000000000000048e-04,3.995320221150927154e+01,2.200000000000000011e-01
2.840707745000000006e+00,-9.874777999999999611e-01,5.427364063453943288e-01,1.000000000000000048e-04,4.249026957220568335e+01,1.199999999999999956e-01
1.164831654000000105e+00,-8.361433499999999519e-01,2.475396519664589956e-01,1.000000000000000048e-04,4.050787103249768251e+01,1.600000000000000033e-01
9.274529849999999520e-01,-5.648102149999999488e-01,6.223916107503317807e-01,1.000000000000000048e-04,4.329068844851680353e+01,2.200000000000000011e-01
1.803806121999999901e+00,-1.051757271000000049e+00,4.991353002274936390e-01,1.000000000000000048e-04,4.204195941547217075e+01,2.200000000000000011e-01
1.910407339000000038e+00,-1.096340147000000043e+00,3.007789627506809449e-01,1.000000000000000048e-04,4.106099143739138668e+01,1.300000000000000044e-01
-2.994395329179586174e+00,-6.874333790000000111e-01,7.644772720512718056e-01,1.000000000000000048e-04,4.347928624570928235e+01,1.600000000000000033e-01
2.004169926999999962e+00,-1.114377941999999955e+00,1.052264270475868901e-01,1.000000000000000048e-04,3.904331356566695632e+01,2.099999999999999922e-01
2.993884073999999895e+00,-9.067153500000000310e-01,8.943543972249281548e-01,1.000000000000000048e-04,4.377968924754732427e+01,2.000000000000000111e-01
2.896584697999999847e+00,-6.981149509999999836e-01,5.594375967359725976e-01,1.000000000000000048e-04,4.262709289729190232e+01,2.000000000000000111e-01
2.644964143999999795e+00,-1.038456438999999953e+00,2.855395115832604080e-01,1.000000000000000048e-04,4.105528261053179762e+01,2.500000000000000000e-01
1.395029569000000080e+00,-9.673563530000000021e-01,7.772617985070544577e-01,1.000000000000000048e-04,4.383594552991567639e+01,2.200000000000000011e-01
1.133893306999999906e+00,-8.234022290000000410e-01,2.406163958466445152e-01,1.000000000000000048e-04,4.053066853990802088e+01,1.199999999999999956e-01
9.542908199999999841e-01,-6.210129070000000029e-01,1.371244940155780245e-01,1.000000000000000048e-04,3.927697855941723049e+01,1.400000000000000133e-01
1.112357503999999997e+00,-7.717409769999999947e-01,4.469596163191065230e-01,1.000000000000000048e-04,4.235432245222128245e+01,1.400000000000000133e-01
1.392129267000000059e+00,-9.489503049999999940e-01,2.813121046578128670e-01,1.000000000000000048e-04,4.088303359703949269e+01,1.100000000000000006e-01
3.104633763999999907e+00,-8.563587980000000321e-01,4.055221465124276836e-01,1.000000000000000048e-04,4.178739761918486550e+01,1.199999999999999956e-01
-1.581672989179586430e+00,-6.726275419999999672e-01,1.000139211808174444e+00,1.000000000000000048e-04,4.425330028761754875e+01,2.000000000000000111e-01
8.758714749999999549e-01,-5.394949780000000139e-01,9.355764803886978953e-02,1.000000000000000048e-04,3.859181000375961190e+01,1.199999999999999956e-01
1.027821937999999991e+00,-6.897361509999999640e-01,2.382810470622178656e-01,1.000000000000000048e-04,4.085772467849030676e+01,1.499999999999999944e-01
8.011105990000000343e-01,-4.568120419999999737e-01,1.493158190749133141e-01,1.000000000000000048e-04,3.974183566768776643e+01,1.499999999999999944e-01
8.044453879999999835e-01,-4.591503659999999765e-01,2.212517338644108822e-01,1.000000000000000048e-04,4.045451094524607072e+01,1.100000000000000006e-01
8.290542589999999601e-01,-4.498624509999999965e-01,6.886107239329291030e-01,1.000000000000000048e-04,4.314424467127674490e+01,1.199999999999999956e-01
2.306908324000000121e+00,-1.093655438999999951e+00,5.571533454593387003e-01,1.000000000000000048e-04,4.235597047512543867e+01,1.300000000000000044e-01
-3.090495873179586184e+00,-7.974218849999999970e-01,3.594262726110348805e-01,1.000000000000000048e-04,4.136310105595812558e+01,1.300000000000000044e-01
2.850739061000000074e+00,-9.724982730000000242e-01,5.031380210735030278e-01,1.000000000000000048e-04,4.228441144169695320e+01,1.100000000000000006e-01
1.925211972000000049e+00,-1.067349442999999898e+00,3.135280887089739732e-01,1.000000000000000048e-04,4.131244678206520859e+01,1.600000000000000033e-01
3.010706126000000094e+00,-9.149326070000000088e-01,3.533090351823591213e-01,1.000000000000000048e-04,4.146536637235693945e+01,1.199999999999999956e-01
1.754869720000000077e+00,-1.052947148999999971e+00,2.375876709861763914e-01,1.000000000000000048e-04,4.061005365193834393e+01,1.300000000000000044e-01
3.028086770999999899e+00,-8.725603690000000023e-01,4.572208596802205260e-01,1.000000000000000048e-04,4.205154390087636074e+01,1.199999999999999956e-01
2.780301081000000174e+00,-1.010780400000000023e+00,1.185579246989562296e+00,1.000000000000000048e-04,4.476121360847340469e+01,1.700000000000000122e-01
3.096540631999999960e+00,-8.261897350000000362e-01,2.437697238531453259e-01,1.000000000000000048e-04,4.046831587845945677e+01,1.100000000000000006e-01
-3.043596368179586342e+00,-7.656326449999999451e-01,7.268057278994304315e-01,1.000000000000000048e-04,4.329688574738814566e+01,1.100000000000000006e-01
2.593403560000000052e+00,-1.068240442000000012e+00,9.277148058716344625e-01,1.000000000000000048e-04,4.397709844748989383e+01,1.199999999999999956e-01
1.277663320999999907e+00,-8.910532270000000032e-01,3.186654391902394856e-01,1.000000000000000048e-04,4.133029302564834495e+01,1.499999999999999944e-01
8.729576639999999665e-01,-5.017517409999999733e-01,1.047900906956062972e+00,1.000000000000000048e-04,4.413908231561745055e+01,1.199999999999999956e-01
2.323316692000000128e+00,-1.072994334000000105e+00,2.356696497356505215e-01,1.000000000000000048e-04,4.049038519545401726e+01,1.400000000000000133e-01
-3.012222731179586166e+00,-7.219820959999999621e-01,8.059056185623161284e-01,1.000000000000000048e-04,4.349488748593257981e+01,1.199999999999999956e-01
2.306010604999999991e+00,-1.110345181000000014e+00,2.638857493011970146e-01,1.000000000000000048e-04,4.078688063857609336e+01,1.100000000000000006e-01
2.437557496999999795e+00,-1.097151527000000071e+00,1.892801505869710077e-01,1.000000000000000048e-04,4.020769419552925683e+01,1.100000000000000006e-01
1.098420291999999909e+00,-7.444727049999999569e-01,9.355638284892879852e-01,1.000000000000000048e-04,4.390883265309321359e+01,1.300000000000000044e-01
8.241628739999999897e-01,-4.611620249999999754e-01,8.022108468713600171e-01,1.000000000000000048e-04,4.352161368172497191e+01,1.400000000000000133e-01
1.017317494999999905e+00,-7.027905669999999771e-01,2.287841762419842162e-01,1.000000000000000048e-04,4.070552906789372827e+01,1.199999999999999956e-01
2.728679550999999925e+00,-1.007430967999999982e+00,1.846103547233062248e-01,1.000000000000000048e-04,3.992716758189300208e+01,1.100000000000000006e-01
2.848837458999999850e+00,-9.622339979999999793e-01,2.007790789701020540e-01,1.000000000000000048e-04,4.001918813034539113e+01,1.199999999999999956e-01
-3.065525731179586266e+00,-7.207210450000000046e-01,2.518685718669491092e-01,1.000000000000000048e-04,4.057369216286569724e+01,1.199999999999999956e-01
1.103969978000000074e+00,-7.587182380000000448e-01,6.497650005460426925e-01,1.000000000000000048e-04,4.293846159021313724e+01,1.300000000000000044e-01
1.112034854000000017e+00,-7.675460100000000008e-01,3.239916276262382322e-01,1.000000000000000048e-04,4.135352223852264331e+01,1.199999999999999956e-01
2.373162053000000160e+00,-1.072487750000000073e+00,6.150928427061042036e-01,1.000000000000000048e-04,4.289080987395459488e+01,1.100000000000000006e-01
2.221583438000000132e+00,-1.096064289000000080e+00,3.655805945193746354e-01,1.000000000000000048e-04,4.168026525872751620e+01,1.199999999999999956e-01
2.775251189000000007e+00,-1.013244017000000108e+00,4.378919767562070575e-01,1.000000000000000048e-04,4.203252575421204540e+01,1.700000000000000122e-01
1.527128894000000070e+00,-9.963611940000000056e-01,7.627736057575442707e-01,1.000000000000000048e-04,4.369194157578033355e+01,1.400000000000000133e-01
-1.936135624179586401e+00,1.327891944000000102e+00,1.044980683995481385e+00,1.000000000000000048e-04,4.432167255619516055e+01,1.199999999999999956e-01
2.120951332999999828e+00,-1.112975437000000012e+00,9.947864831722608159e-02,1.000000000000000048e-04,3.887509532149147873e+01,1.600000000000000033e-01
2.950704906999999988e+00,-9.277153000000000205e-01,4.331738122234729538e-01,1.000000000000000048e-04,4.205841302817972149e+01,1.700000000000000122e-01
2.461302839000000020e+00,-1.064109841000000056e+00,2.516505177766437118e-01,1.000000000000000048e-04,4.067052389752249297e+01,1.499999999999999944e-01
1.687800213000000049e+00,-1.037844004000000098e+00,9.757953268784775869e-01,1.000000000000000048e-04,4.400496751043818477e+01,1.100000000000000006e-01
-3.069023128179586113e+00,-7.343218900000000327e-01,1.243168248006103482e+00,1.000000000000000048e-04,4.464525779023409058e+01,2.000000000000000111e-01
7.655655390000000171e-01,-3.825025819999999799e-01,1.578832995351013846e-01,1.000000000000000048e-04,3.974642526802055897e+01,1.300000000000000044e-01
-3.051736326179586012e+00,-7.690870560000000467e-01,1.478043729910767379e-01,1.000000000000000048e-04,3.946252542957652309e+01,1.499999999999999944e-01
-3.116938176179586240e+00,-7.920766919999999711e-01,8.830772376202544738e-01,1.000000000000000048e-04,4.383881251810701229e+01,1.100000000000000006e-01
1.020863690000000101e+00,-6.877910739999999468e-01,4.202529047332539403e-01,1.000000000000000048e-04,4.195033272266791613e+01,1.199999999999999956e-01
1.792785233999999894e+00,-1.066474936999999956e+00,3.907311231471493063e-01,1.000000000000000048e-04,4.167277948427361167e+01,1.100000000000000006e-01
1.805689748000000039e+00,-1.066896787999999985e+00,1.666364192813918343e-01,1.000000000000000048e-04,3.974729014530463189e+01,1.100000000000000006e-01
1.773248071000000037e+00,-1.046601056999999946e+00,3.412545439019951665e-01,1.000000000000000048e-04,4.168819248387676168e+01,2.099999999999999922e-01
1.076689889999999927e+00,-7.549444410000000216e-01,4.710742471642401785e-01,1.000000000000000048e-04,4.223250903267300771e+01,1.199999999999999956e-01
2.336456505000000128e+00,-1.089906792000000069e+00,7.915303014642600665e-01,1.000000000000000048e-04,4.364649258103710849e+01,1.199999999999999956e-01
2.522083900000000156e+00,-1.078852812999999911e+00,7.077518892010499219e-01,1.000000000000000048e-04,4.335638905943166321e+01,1.199999999999999956e-01
3.676074389999999803e-01,1.100614297999999991e+00,1.611766077749803294e-01,1.000000000000000048e-04,3.930663610276898368e+01,1.700000000000000122e-01
2.099931574000000190e+00,-1.082223048999999993e+00,2.376344104261929324e-01,1.000000000000000048e-04,4.040956186221777102e+01,1.100000000000000006e-01
8.155488279999999479e-01,-4.642700679999999802e-01,4.799412869287746908e-01,1.000000000000000048e-04,4.238838720821062367e+01,2.099999999999999922e-01
9.861636230000000447e-01,-6.881834650000000497e-01,3.316800933817283248e-01,1.000000000000000048e-04,4.134848688945832862e+01,1.300000000000000044e-01
1.864254864999999928e+00,-1.086684659999999969e+00,2.066414699094445417e-01,1.000000000000000048e-04,4.017666122184844113e+01,1.199999999999999956e-01
2.873066016000000111e+00,-9.753574739999999466e-01,5.222877325562609307e-01,1.000000000000000048e-04,4.241364573548293748e+01,1.300000000000000044e-01
2.270287562000000037e+00,-1.085086717999999895e+00,1.075641866980268091e-01,1.000000000000000048e-04,3.899293178388069236e+01,1.799999999999999933e-01
8.268071609999999572e-01,-4.587794940000000099e-01,1.871294168330612795e-01,1.000000000000000048e-04,3.987481485037143614e+01,1.199999999999999956e-01
-3.050869045179586347e+00,-7.648855789999999821e-01,6.129873614461958109e-01,1.000000000000000048e-04,4.278919717749557350e+01,1.199999999999999956e-01
1.101963728999999947e+00,-7.466317359999999903e-01,8.742948140637205601e-01,1.000000000000000048e-04,4.370174941376508571e+01,1.900000000000000022e-01
1.745116724000000064e+00,-1.056563783000000090e+00,2.300016226913141892e-01,1.000000000000000048e-04,4.052126694540922358e+01,1.300000000000000044e-01
7.889769570000000343e-01,-3.846565690000000037e-01,4.590099975363841622e-01,1.000000000000000048e-04,4.173445325599543310e+01,1.499999999999999944e-01
1.385818830999999918e+00,-9.278259679999999454e-01,5.553714605678996552e-01,1.000000000000000048e-04,4.261257066540420624e+01,1.499999999999999944e-01
1.138484923000000038e+00,-8.197145099999999518e-01,3.808327220669969204e-01,1.000000000000000048e-04,4.144574658999264472e+01,1.400000000000000133e-01
1.783410439000000069e+00,-1.080958507999999929e+00,5.636147225509151593e-01,1.000000000000000048e-04,4.261332086652842577e+01,1.400000000000000133e-01
2.617653461000000181e+00,-1.025884226000000066e+00,1.826249296013149337e-01,1.000000000000000048e-04,4.003494989485852074e+01,1.199999999999999956e-01
8.270197009999999960e-01,-4.157453939999999903e-01,4.373515763823301317e-01,1.000000000000000048e-04,4.197891393615173428e+01,1.199999999999999956e-01
3.128792493000000174e+00,-8.522697870000000009e-01,2.893489799496433701e-01,1.000000000000000048e-04,4.086631619946130911e+01,1.100000000000000006e-01
1.366158207000000013e+00,-9.614226009999999878e-01,4.705645815197994075e-01,1.000000000000000048e-04,4.236271334442376002e+01,1.100000000000000006e-01
2.846286316000000038e+00,-9.688357899999999745e-01,2.951824561672182767e-01,1.000000000000000048e-04,4.130566694933941108e+01,1.400000000000000133e-01
9.208216280000000031e-01,-6.185352929999999860e-01,4.427665655717860638e-01,1.000000000000000048e-04,4.198094979288467954e+01,1.499999999999999944e-01
7.622987450000000553e-01,-3.411912120000000215e-01,3.044560226476888953e-01,1.000000000000000048e-04,4.129609463242300649e+01,1.199999999999999956e-01
9.277931750000000255e-01,-5.813990460000000304e-01,1.549403051315096924e-01,1.000000000000000048e-04,4.008249142939003207e+01,2.099999999999999922e-01
1.010173165000000095e+00,-6.808591280000000356e-01,8.236742315514864465e-01,1.000000000000000048e-04,4.373203474962548398e+01,1.300000000000000044e-01
1.661181446000000062e+00,-1.029160687999999935e+00,1.941475968721755319e-01,1.000000000000000048e-04,4.017390707342324419e+01,1.400000000000000133e-01
2.089878704000000198e+00,-1.077863170999999953e+00,1.713497187227634999e-01,1.000000000000000048e-04,4.022646336930148436e+01,1.199999999999999956e-01
9.321550429999999610e-01,-6.212176799999999943e-01,6.126977937301962829e-01,1.000000000000000048e-04,4.267403502426022044e+01,1.199999999999999956e-01
2.944595597000000176e+00,-9.127602249999999806e-01,2.026852507779099977e-01,1.000000000000000048e-04,3.996269015991531859e+01,1.100000000000000006e-01
1.288081913999999939e+00,-9.113959929999999598e-01,1.170629933510777487e+00,1.000000000000000048e-04,4.472709602451585909e+01,1.300000000000000044e-01
1.398731861999999992e+00,-9.625033109999999725e-01,4.714684455086202153e-01,1.000000000000000048e-04,4.218369715339470361e+01,1.199999999999999956e-01
1.714165549000000066e+00,-1.043104095999999981e+00,2.445983013269443784e-01,1.000000000000000048e-04,4.065217884271846316e+01,1.199999999999999956e-01
1.014018395999999989e+00,-6.788913789999999615e-01,2.210507904044396454e-01,1.000000000000000048e-04,4.052947495308426085e+01,1.300000000000000044e-01
8.887761809999999985e-01,-5.541821719999999729e-01,2.442022324046380088e-01,1.000000000000000048e-04,4.067147161353518925e+01,1.300000000000000044e-01
1.026278256999999972e+00,-6.961882160000000264e-01,4.772656077289556542e-01,1.000000000000000048e-04,4.242225114924109164e+01,1.199999999999999956e-01
1.824970581999999952e+00,-1.080428363000000003e+00,3.189584008209833677e-01,1.000000000000000048e-04,4.110777431496003942e+01,1.199999999999999956e-01
1.839979185000000017e+00,-1.082878103999999952e+00,4.341208692758902199e-01,1.000000000000000048e-04,4.212543284801071763e+01,1.300000000000000044e-01
-3.070118813179586237e+00,-7.641942569999999879e-01,3.779235447768487521e-01,1.000000000000000048e-04,4.171044942605956152e+01,1.199999999999999956e-01
2.250776613000000204e+00,-1.110438553999999911e+00,1.983371082571490085e-01,1.000000000000000048e-04,4.030066727760101486e+01,1.199999999999999956e-01
2.613802471000000072e+00,-1.066258922999999914e+00,3.595473304506495715e-01,1.000000000000000048e-04,4.177252580954257866e+01,1.199999999999999956e-01
8.050150120000000298e-01,-4.193234060000000096e-01,1.576132729442070168e-01,1.000000000000000048e-04,3.973627864183424663e+01,1.499999999999999944e-01
2.809576177999999924e+00,-9.952447749999999704e-01,3.066291363755275778e-01,1.000000000000000048e-04,4.101022341867135168e+01,1.199999999999999956e-01
8.523447290000000232e-01,-4.773689010000000121e-01,1.010846012854269560e-01,1.000000000000000048e-04,3.857335959371645373e+01,2.000000000000000111e-01
2.975142320999999868e+00,-8.986192680000000266e-01,1.237841670666841587e-01,1.000000000000000048e-04,3.904239189769077001e+01,2.000000000000000111e-01
2.960578484000000010e+00,-9.174235720000000205e-01,3.335647050932701863e-01,1.000000000000000048e-04,4.129425561979308412e+01,1.400000000000000133e-01
1.589239559999999996e+00,-1.046132274999999945e+00,4.896489250006923477e-01,1.000000000000000048e-04,4.217110673144777877e+01,1.199999999999999956e-01
1.095136271999999966e+00,-7.909478989999999543e-01,2.204574259511709045e-01,1.000000000000000048e-04,4.044863463226821665e+01,1.300000000000000044e-01
3.045277111999999953e+00,-8.831592660000000539e-01,9.874074024586148024e-01,1.000000000000000048e-04,4.412655988378645588e+01,1.799999999999999933e-01
3.011317304999999944e+00,-8.969173430000000335e-01,2.730876626625331483e-01,1.000000000000000048e-04,4.115474113016837521e+01,1.499999999999999944e-01
1.946036051000000100e+00,-1.101857058000000000e+00,1.747479270056435663e-01,1.000000000000000048e-04,4.005054022019412940e+01,1.100000000000000006e-01
9.659444579999999503e-01,-6.400164339999999674e-01,3.785366230344593408e-01,1.000000000000000048e-04,4.148759462953625388e+01,1.199999999999999956e-01
1.142944595999999979e+00,-8.229314749999999679e-01,3.793292900555789160e-01,1.000000000000000048e-04,4.184356937900765416e+01,1.499999999999999944e-01
1.336859599999999926e+00,-9.462661719999999610e-01,4.012425379223363286e-01,1.000000000000000048e-04,4.173476825197507623e+01,1.900000000000000022e-01
2.386695267999999981e+00,-1.099692616000000012e+00,1.452050013652388394e-01,1.000000000000000048e-04,3.961792259838316710e+01,1.799999999999999933e-01
1.122946417999999946e+00,-7.871106610000000448e-01,2.353918187896639758e-01,1.000000000000000048e-04,4.065438294660808083e+01,1.499999999999999944e-01
1.038511049000000019e+00,-6.836743480000000428e-01,4.433236907832152074e-01,1.000000000000000048e-04,4.175975337185617065e+01,1.499999999999999944e-01
-1.865548755179585960e+00,5.988235499999999822e-01,5.685513485387321264e-01,1.000000000000000048e-04,4.341438939784904250e+01,3.599999999999999867e-01
-1.208774007179585830e+00,1.086301519000000049e+00,2.346829358911450836e-01,1.000000000000000048e-04,3.958476395604083109e+01,3.900000000000000133e-01
-1.451351928179586359e+00,1.047303024999999943e+00,6.665077246876869310e-01,1.000000000000000048e-04,4.334519097235535412e+01,3.900000000000000133e-01
-1.863787002179586594e+00,5.986409590000000280e-01,6.761135305716783339e-01,1.000000000000000048e-04,4.291932805618908020e+01,3.099999999999999978e-01
-2.367107747179586053e+00,3.570653329999999848e-01,8.162924229006172094e-01,1.000000000000000048e-04,4.399870416230692882e+01,3.300000000000000155e-01
3.110012692999999828e+00,-8.816387980000000013e-01,6.276105529999802535e-01,1.000000000000000048e-04,4.262227509946990978e+01,4.000000000000000222e-01
1.208427087000000011e+00,6.391205479999999550e-01,1.778325687604955796e-01,1.000000000000000048e-04,3.953401910734625346e+01,3.200000000000000067e-01
2.195568135999999893e+00,9.530612539999999688e-01,3.260936503327422908e-01,1.000000000000000048e-04,4.135300051085709327e+01,3.200000000000000067e-01
-1.746303855179585973e+00,7.561700099999999480e-01,3.483953333659433049e-01,1.000000000000000048e-04,4.083976541251058023e+01,3.599999999999999867e-01
-2.613733020179586308e+00,3.020363409999999860e-01,3.631054887279387966e-01,1.000000000000000048e-04,4.126616892017026572e+01,2.399999999999999911e-01
3.080075141000000016e+00,6.813462000000000129e-01,9.406289616747967042e-01,1.000000000000000048e-04,4.390720712152614880e+01,2.999999999999999889e-01
3.084152930000000126e+00,6.750201959999999612e-01,1.460836500090956225e-01,1.000000000000000048e-04,3.864770595831357980e+01,2.399999999999999911e-01
-2.831540824179586302e+00,-5.193198470000000011e-01,1.705862123967047950e-01,1.000000000000000048e-04,3.950353901375313370e+01,2.899999999999999800e-01
2.921667255000000019e+00,-9.403574120000000036e-01,2.524225297155040515e-01,1.000000000000000048e-04,4.099725206654893839e+01,2.899999999999999800e-01
2.610543199999999953e+00,9.294079060000000059e-01,4.851511700141992733e-01,1.000000000000000048e-04,4.215134886319796692e+01,2.899999999999999800e-01
2.614058957000000127e+00,9.310355519999999885e-01,7.486234779407312523e-01,1.000000000000000048e-04,4.338889814237033704e+01,3.699999999999999956e-01
-2.614313936179586406e+00,3.105085300000000048e-01,5.370629276788874140e-01,1.000000000000000048e-04,4.264849310080897027e+01,2.300000000000000100e-01
-2.614275993179586255e+00,3.084493819999999942e-01,3.989953760707669606e-01,1.000000000000000048e-04,4.182289731637360575e+01,2.000000000000000111e-01
3.080236718000000096e+00,6.852664600000000217e-01,8.900059328410627746e-01,1.000000000000000048e-04,4.414619548644449765e+01,3.800000000000000044e-01
3.085135451000000195e+00,6.840520260000000352e-01,1.918489889392021031e-01,1.000000000000000048e-04,3.991881615431625363e+01,2.300000000000000100e-01
-2.829361723179586452e+00,-5.190188390000000096e-01,3.194183183503209733e-01,1.000000000000000048e-04,4.070717413616638680e+01,3.900000000000000133e-01
-2.833706243179586082e+00,-5.260186759999999628e-01,3.103000613686470732e-01,1.000000000000000048e-04,4.133734523955540396e+01,2.200000000000000011e-01
1.286414458000000094e+00,-9.076167339999999806e-01,5.915191487321576069e-01,1.000000000000000048e-04,4.263802456966245558e+01,2.399999999999999911e-01
2.295144749999999956e+00,-1.095028292000000070e+00,1.210033964443125054e+00,1.000000000000000048e-04,4.480368994930675086e+01,2.000000000000000111e-01
2.312115046000000174e+00,-1.091482969000000081e+00,4.029038628143224443e-01,1.000000000000000048e-04,4.140483003812969542e+01,1.900000000000000022e-01
2.535381049000000164e+00,-1.063602453999999975e+00,5.155791320442486558e-01,1.000000000000000048e-04,4.281129893894183169e+01,2.600000000000000089e-01
2.549902755000000187e+00,-1.059649137999999935e+00,4.153220097781398223e-01,1.000000000000000048e-04,4.180029703553024945e+01,1.900000000000000022e-01
-2.980466121795863899e-01,1.081935794000000062e+00,1.336629148439830939e+00,1.000000000000000048e-04,4.485278112202626488e+01,1.000000000000000056e-01
-4.562223411795862660e-01,1.078420874000000085e+00,2.695780154826503683e-01,1.000000000000000048e-04,4.068109577071275140e+01,1.400000000000000133e-01
-4.727696341795866175e-01,1.076427226000000070e+00,2.423096694188393574e-01,1.000000000000000048e-04,4.024119512710133506e+01,1.900000000000000022e-01
-4.909850281795860028e-01,1.086050390999999893e+00,6.414241582213535686e-01,1.000000000000000048e-04,4.306056583980592478e+01,1.499999999999999944e-01
-1.809890014179586615e+00,8.554848849999999727e-01,1.022383707484392001e+00,1.000000000000000048e-04,4.423137319779264942e+01,1.900000000000000022e-01
-1.804843805179586091e+00,8.509932909999999850e-01,2.059940960509600849e-01,1.000000000000000048e-04,3.986559999570818036e+01,1.700000000000000122e-01
-1.798315402179586187e+00,8.389159160000000393e-01,6.201512068682926149e-01,1.000000000000000048e-04,4.266897897258374428e+01,1.100000000000000006e-01
-1.820018681179586650e+00,8.404092629999999620e-01,1.047012015820586228e+00,1.000000000000000048e-04,4.418569354458482223e+01,2.000000000000000111e-01
-2.435936564179586039e+00,3.767214549999999829e-01,4.883550286842759380e-01,1.000000000000000048e-04,4.227170599558937880e+01,1.700000000000000122e-01
-2.738532057179586143e+00,-4.670391260000000266e-01,5.704672431109869546e-01,1.000000000000000048e-04,4.244924960216431487e+01,1.100000000000000006e-01
-2.750126147179586145e+00,-4.750163370000000107e-01,6.502566378322460761e-01,1.000000000000000048e-04,4.284766824887132231e+01,1.700000000000000122e-01
6.777063359999999648e-01,-9.284162910000000046e-01,1.469864719471214443e-01,1.000000000000000048e-04,3.981440304110554251e+01,1.600000000000000033e-01
6.755664329999999662e-01,-9.242990760000000527e-01,1.095374549626257910e-01,1.000000000000000048e-04,3.881515124989523713e+01,2.200000000000000011e-01
1.666277256000000095e+00,1.035703752000000089e+00,8.684938160682382779e-01,1.000000000000000048e-04,4.377343244293750502e+01,2.800000000000000266e-01
1.679531192000000006e+00,1.034147155999999956e+00,1.029693278802914058e+00,1.000000000000000048e-04,4.438422133455818397e+01,2.099999999999999922e-01
1.669961188000000041e+00,1.045784459000000055e+00,1.636090450124714213e-01,1.000000000000000048e-04,3.918402569656209522e+01,2.899999999999999800e-01
1.666612017000000057e+00,1.035903760999999923e+00,2.440076913169662021e-01,1.000000000000000048e-04,4.043813430180006918e+01,1.400000000000000133e-01
1.676630470000000095e+00,1.049302589999999924e+00,5.116955975190549122e-01,1.000000000000000048e-04,4.239028693974125872e+01,1.600000000000000033e-01
1.678871634000000057e+00,1.037439988999999896e+00,4.526790726557086142e-01,1.000000000000000048e-04,4.196095133537333766e+01,2.099999999999999922e-01
-2.159653925179585876e+00,7.341517600000000421e-01,8.810205615875277285e-01,1.000000000000000048e-04,4.383897703428061021e+01,2.600000000000000089e-01
-2.155609593179586447e+00,7.327229189999999726e-01,7.839741074508856933e-01,1.000000000000000048e-04,4.317028730142566673e+01,1.400000000000000133e-01
2.989279821999999864e+00,-1.014333855000000062e+00,1.228821911919897314e-01,1.000000000000000048e-04,3.946145071624295042e+01,1.600000000000000033e-01
6.962963009999999509e-01,-9.242906640000000396e-01,3.185696557542596619e-01,1.000000000000000048e-04,4.137747699833566628e+01,2.000000000000000111e-01
6.831622830000000368e-01,-9.295060950000000322e-01,4.152188633295292863e-01,1.000000000000000048e-04,4.197984025741184411e+01,2.099999999999999922e-01
6.813526220000000189e-01,-9.196739680000000083e-01,2.705552175091978651e-01,1.000000000000000048e-04,4.093882997145510672e+01,1.700000000000000122e-01
1.667475545999999920e+00,1.039138789999999979e+00,2.145807116442954854e-01,1.000000000000000048e-04,3.984957921996257824e+01,1.499999999999999944e-01
1.669072946000000002e+00,1.039627206000000026e+00,4.716056744266599043e-01,1.000000000000000048e-04,4.199674959667662222e+01,1.700000000000000122e-01
2.992464221000000091e+00,-1.009427984000000000e+00,6.976458222886479099e-01,1.000000000000000048e-04,4.307328338682685143e+01,1.400000000000000133e-01
3.013377762000000182e+00,-1.015725085999999999e+00,1.916310139670800439e-01,1.000000000000000048e-04,3.991609996086842926e+01,1.499999999999999944e-01
6.857830799999999893e-01,-9.290922369999999875e-01,1.000189989576072414e-01,1.000000000000000048e-04,3.833868537610199922e+01,3.400000000000000244e-01
6.874880420000000214e-01,-9.251381180000000093e-01,4.900951268262494498e-01,1.000000000000000048e-04,4.244852007638657909e+01,1.700000000000000122e-01
1.659686511000000086e+00,1.040101345999999927e+00,3.323365886787743584e-01,1.000000000000000048e-04,4.118135883716634282e+01,1.400000000000000133e-01
1.692629780999999944e+00,1.043637506000000048e+00,1.828338636770221459e-01,1.000000000000000048e-04,4.005092555016357636e+01,1.799999999999999933e-01
1.682450028999999958e+00,1.049226146999999942e+00,1.247707423491354550e+00,1.000000000000000048e-04,4.470955704054052404e+01,1.900000000000000022e-01
1.675255906999999933e+00,1.048468626000000015e+00,5.250883646531048221e-01,1.000000000000000048e-04,4.266189570655095054e+01,1.499999999999999944e-01
1.692145135000000078e+00,1.039981480000000014e+00,9.238993277003537674e-01,1.000000000000000048e-04,4.380971846286296056e+01,1.700000000000000122e-01
-2.139768073179586061e+00,7.360294179999999908e-01,4.971164319952656729e-01,1.000000000000000048e-04,4.241593276335994034e+01,1.600000000000000033e-01
-2.138731675179585956e+00,7.369836659999999817e-01,1.551354498150745442e-01,1.000000000000000048e-04,3.904887392526518397e+01,1.499999999999999944e-01
6.888283630000000546e-01,-9.193630990000000169e-01,2.058577244079573543e-01,1.000000000000000048e-04,4.046759150619820389e+01,1.700000000000000122e-01
6.776433490000000059e-01,-9.225326109999999469e-01,1.575183797788595186e-01,1.000000000000000048e-04,3.972400564011826418e+01,1.600000000000000033e-01
6.820513620000000499e-01,-9.162569579999999547e-01,2.922050570519714174e-01,1.000000000000000048e-04,4.077961698554324954e+01,2.899999999999999800e-01
6.832637360000000104e-01,-9.208365670000000502e-01,1.471945200020932099e-01,1.000000000000000048e-04,3.946902261187722161e+01,1.400000000000000133e-01
1.683256381999999940e+00,1.050427892999999946e+00,1.993387413281897391e-01,1.000000000000000048e-04,3.954360435996690626e+01,1.499999999999999944e-01
2.987248335999999949e+00,-1.011507587000000097e+00,1.842381530327468209e-01,1.000000000000000048e-04,3.984164950999893762e+01,1.900000000000000022e-01
2.994879214000000012e+00,-1.020537374999999969e+00,1.053345141333668078e-01,1.000000000000000048e-04,3.836767719546983102e+01,2.500000000000000000e-01
2.997056848999999801e+00,-1.020797841000000039e+00,3.533643954912040197e-01,1.000000000000000048e-04,4.151420576976141064e+01,1.499999999999999944e-01
6.981827720000000070e-01,-9.201470600000000166e-01,1.197096162547408582e-01,1.000000000000000048e-04,3.908255188952202985e+01,2.099999999999999922e-01
1.675679171999999939e+00,1.042232051000000048e+00,8.227063426143297331e-01,1.000000000000000048e-04,4.371148137275758927e+01,1.900000000000000022e-01
1.682732345000000018e+00,1.051774148000000020e+00,1.135609515655727542e+00,1.000000000000000048e-04,4.402950025698771697e+01,2.099999999999999922e-01
1.655763980999999996e+00,1.041789395999999979e+00,3.540688957260351710e-01,1.000000000000000048e-04,4.156446305649193107e+01,2.099999999999999922e-01
1.658505131999999938e+00,1.042043577999999915e+00,5.519605080970926281e-01,1.000000000000000048e-04,4.261036357169849254e+01,1.499999999999999944e-01
1.679931540999999973e+00,1.044700675999999939e+00,4.651699995634919205e-01,1.000000000000000048e-04,4.193388198858709615e+01,1.400000000000000133e-01
1.681131209999999987e+00,1.046558263000000100e+00,6.917195322723579398e-01,1.000000000000000048e-04,4.289212562528803119e+01,3.800000000000000044e-01
-2.147380102179586636e+00,7.248191320000000326e-01,1.076999770412553126e+00,1.000000000000000048e-04,4.413998967320335254e+01,2.200000000000000011e-01
-2.137481690179586558e+00,7.386978770000000027e-01,2.045915695593056860e-01,1.000000000000000048e-04,3.968515621655438252e+01,1.499999999999999944e-01
3.007533192999999994e+00,-1.006434849999999992e+00,5.181054212855722430e-01,1.000000000000000048e-04,4.241012033237813483e+01,1.700000000000000122e-01
6.766177190000000063e-01,-9.309161569999999664e-01,5.438312726223477611e-01,1.000000000000000048e-04,4.249576801450415076e+01,1.700000000000000122e-01
6.879719020000000240e-01,-9.170357009999999809e-01,5.186643131720720667e-01,1.000000000000000048e-04,4.282617374293693757e+01,2.600000000000000089e-01
6.868192690000000100e-01,-9.190749710000000183e-01,3.555912691225211475e-01,1.000000000000000048e-04,4.149988252985119175e+01,2.800000000000000266e-01
1.680927606000000019e+00,1.043199457999999913e+00,9.763693772301393903e-01,1.000000000000000048e-04,4.428976497933496859e+01,1.799999999999999933e-01
1.680733408999999901e+00,1.046110547000000057e+00,2.726626700848955309e-01,1.000000000000000048e-04,4.049974242771398991e+01,1.499999999999999944e-01
3.003205794999999956e+00,-1.007960921000000010e+00,2.519669717089634275e-01,1.000000000000000048e-04,4.054936368268545976e+01,2.200000000000000011e-01
3.013387552999999830e+00,-1.018013843000000085e+00,4.747402402609357530e-01,1.000000000000000048e-04,4.193477494642500858e+01,2.000000000000000111e-01
2.991633154000000072e+00,-1.018575491000000000e+00,2.796179935007534478e-01,1.000000000000000048e-04,4.091326498198595374e+01,1.600000000000000033e-01
6.810583510000000063e-01,-9.216344210000000370e-01,2.119406345268544101e-01,1.000000000000000048e-04,4.017697978438748407e+01,1.600000000000000033e-01
1.670069762000000013e+00,1.048284639000000018e+00,4.934658723071363440e-01,1.000000000000000048e-04,4.224036762710012738e+01,2.099999999999999922e-01
1.699713636000000028e+00,1.040243690999999915e+00,7.702391467094957811e-01,1.000000000000000048e-04,4.343904590222509654e+01,2.899999999999999800e-01
1.686195045999999920e+00,1.048540513999999924e+00,3.180438856017129279e-01,1.000000000000000048e-04,4.118671419023527136e+01,1.400000000000000133e-01
1.667162669999999958e+00,1.044746053999999980e+00,1.045257920104131433e+00,1.000000000000000048e-04,4.436637264528075519e+01,2.700000000000000178e-01
1.689467040999999892e+00,1.036330184999999959e+00,7.714268066498888299e-01,1.000000000000000048e-04,4.353531657153498458e+01,1.300000000000000044e-01
1.683799076999999977e+00,1.043385784000000038e+00,3.027713382106547169e-01,1.000000000000000048e-04,4.083974972763417099e+01,1.700000000000000122e-01
-2.151455832179586025e+00,7.398983139999999459e-01,8.699638515829857255e-01,1.000000000000000048e-04,4.366016854476685438e+01,2.500000000000000000e-01
-2.141944958179585967e+00,7.302793560000000461e-01,9.010968539528410037e-01,1.000000000000000048e-04,4.391702752614041572e+01,1.400000000000000133e-01
3.012489310999999947e+00,-1.019874449000000016e+00,4.687626613293915945e-01,1.000000000000000048e-04,4.240270441625909115e+01,1.900000000000000022e-01
6.824463880000000149e-01,-9.193269539999999740e-01,2.989612091936653115e-01,1.000000000000000048e-04,4.099608612140320218e+01,1.600000000000000033e-01
6.933168330000000212e-01,-9.307474239999999899e-01,3.408972779002683584e-01,1.000000000000000048e-04,4.169466477723941722e+01,1.600000000000000033e-01
7.005346909999999871e-01,-9.247541049999999929e-01,1.409993452189617358e-01,1.000000000000000048e-04,3.925462062468175617e+01,2.700000000000000178e-01
1.674988617999999985e+00,1.042237757999999959e+00,5.470220712100042348e-01,1.000000000000000048e-04,4.239420787557361336e+01,1.499999999999999944e-01
1.672026148000000045e+00,1.039374368000000048e+00,5.009431791913872001e-01,1.000000000000000048e-04,4.244662568650379342e+01,1.600000000000000033e-01
2.993618983999999816e+00,-1.008517228000000099e+00,8.251659367123915789e-01,1.000000000000000048e-04,4.345466363248058883e+01,1.700000000000000122e-01
2.992837709999999873e+00,-1.014889098000000045e+00,4.586492083196282987e-01,1.000000000000000048e-04,4.170128257079576173e+01,2.800000000000000266e-01
2.980621672999999916e+00,-1.012535224000000067e+00,4.817194369791710784e-01,1.000000000000000048e-04,4.260440697274338362e+01,1.499999999999999944e-01
3.118379398000000080e+00,-1.044341935000000055e+00,2.309347092106737165e-01,1.000000000000000048e-04,4.025000344582243628e+01,3.099999999999999978e-01
3.132904315000000217e+00,-1.046896950999999909e+00,3.202426873178001454e-01,1.000000000000000048e-04,4.132339401935320211e+01,2.200000000000000011e-01
1.248659997999999938e+00,-1.117162079000000086e+00,8.162752781661331003e-01,1.000000000000000048e-04,4.373311741703362543e+01,2.700000000000000178e-01
2.302446713000000145e+00,-1.091359299000000060e+00,8.223900686084786305e-01,1.000000000000000048e-04,4.383219804961847643e+01,2.899999999999999800e-01
3.133486173000000097e+00,-1.061461677999999909e+00,5.143195043460220273e-01,1.000000000000000048e-04,4.185338978219721184e+01,3.099999999999999978e-01
1.251013366000000016e+00,-1.102704651999999896e+00,3.944262279482064759e-01,1.000000000000000048e-04,4.197687504000523262e+01,2.300000000000000100e-01
1.232341668999999973e+00,-1.105349812000000043e+00,6.256563280053979437e-01,1.000000000000000048e-04,4.314805794176352549e+01,2.200000000000000011e-01
2.330538756999999794e+00,-1.086213730999999960e+00,4.987423660865624164e-01,1.000000000000000048e-04,4.249229579858026540e+01,2.300000000000000100e-01
3.104372880000000112e+00,-1.050765708999999992e+00,1.581633587724013967e-01,1.000000000000000048e-04,3.955684047957458915e+01,2.200000000000000011e-01
3.122794933000000217e+00,-1.050942575000000101e+00,1.971833726077842908e-01,1.000000000000000048e-04,4.027644476953899044e+01,2.099999999999999922e-01
3.135928428000000157e+00,-1.044986675000000087e+00,1.439944147140741482e-01,1.000000000000000048e-04,3.952303021626064350e+01,2.300000000000000100e-01
3.135701593999999925e+00,-1.049448040999999998e+00,8.027008071738146455e-01,1.000000000000000048e-04,4.376945105740527708e+01,2.399999999999999911e-01
2.902190216000000156e+00,-1.054666754000000095e+00,5.119212326650088851e-01,1.000000000000000048e-04,4.268062466206281158e+01,2.099999999999999922e-01
1.219278212000000083e+00,-1.102494101000000004e+00,8.276594690113758812e-01,1.000000000000000048e-04,4.347272378069402521e+01,2.399999999999999911e-01
2.314258420999999899e+00,-1.073777474999999981e+00,2.017206752319136154e-01,1.000000000000000048e-04,4.025291311387967852e+01,2.399999999999999911e-01
3.138600745000000192e+00,-1.056209613999999908e+00,8.058451860981237225e-01,1.000000000000000048e-04,4.324091462806382680e+01,2.800000000000000266e-01
2.873014373000000177e+00,-1.047336534999999902e+00,3.833901057638566812e-01,1.000000000000000048e-04,4.182860629362122040e+01,2.000000000000000111e-01
2.890150627000000139e+00,-1.045368942999999939e+00,2.758547419951369317e-01,1.000000000000000048e-04,4.100438612670860294e+01,2.200000000000000011e-01
-3.136513490179586139e+00,-1.038988312000000080e+00,1.286408497055440137e-01,1.000000000000000048e-04,3.962618526047210565e+01,2.800000000000000266e-01
3.120369102000000172e+00,-1.042910143999999928e+00,2.387973018576379225e-01,1.000000000000000048e-04,4.037011924151268261e+01,2.399999999999999911e-01
3.132773262000000170e+00,-1.048570620000000009e+00,8.505142849010798312e-01,1.000000000000000048e-04,4.296284513692646101e+01,2.300000000000000100e-01
3.132934141999999866e+00,-1.046888051000000042e+00,1.018928826953031663e-01,1.000000000000000048e-04,3.823218384271402925e+01,2.200000000000000011e-01
3.134455274000000014e+00,-1.046257098000000108e+00,3.041091235418356131e-01,1.000000000000000048e-04,4.118223885914662219e+01,2.200000000000000011e-01
2.910504301000000016e+00,-1.063930792999999930e+00,3.007435874376720442e-01,1.000000000000000048e-04,4.094540296179273753e+01,2.399999999999999911e-01
2.301930878999999930e+00,-1.084305269999999988e+00,1.071907954643231964e+00,1.000000000000000048e-04,4.478028909982495520e+01,3.099999999999999978e-01
2.314913878000000036e+00,-1.104421796000000011e+00,6.202931309960670880e-01,1.000000000000000048e-04,4.262474045341605944e+01,2.600000000000000089e-01
1.232494258000000009e+00,-1.089556776000000005e+00,2.486714320321494753e-01,1.000000000000000048e-04,4.078768655926521092e+01,3.099999999999999978e-01
-3.138875270179586341e+00,-1.027091259999999950e+00,1.345855244554026164e-01,1.000000000000000048e-04,3.972877610726889941e+01,3.800000000000000044e-01
1.277748142000000087e+00,-1.105660628999999950e+00,6.746660254577145910e-01,1.000000000000000048e-04,4.361501356323755374e+01,2.500000000000000000e-01
2.339694710999999927e+00,-1.083680948999999893e+00,1.049893013495919902e+00,1.000000000000000048e-04,4.417887442823440125e+01,2.300000000000000100e-01
3.085408954000000037e+00,-1.045989441999999991e+00,6.328557409950890111e-01,1.000000000000000048e-04,4.308084207036650781e+01,2.800000000000000266e-01
3.122183823999999941e+00,-1.053540683000000033e+00,3.884456596259651118e-01,1.000000000000000048e-04,4.202456830829318335e+01,3.699999999999999956e-01
1.263417701000000060e+00,-1.099941301000000093e+00,8.164821591377835475e-01,1.000000000000000048e-04,4.333025380233384993e+01,2.200000000000000011e-01
1.238769020999999970e+00,-1.122513239999999968e+00,7.437539132708614886e-01,1.000000000000000048e-04,4.311942650193411453e+01,2.600000000000000089e-01
1.225778744000000087e+00,-1.107856694000000086e+00,1.154214520527865329e+00,1.000000000000000048e-04,4.444382294047908033e+01,2.500000000000000000e-01
2.356185176999999964e+00,-1.090954028000000076e+00,3.551863554993641703e-01,1.000000000000000048e-04,4.194311408259892460e+01,2.700000000000000178e-01
1.231078855000000027e+00,-1.109460918999999990e+00,6.801382951809726851e-01,1.000000000000000048e-04,4.337096777413456294e+01,2.300000000000000100e-01
2.350025410999999842e+00,-1.078254897999999962e+00,4.043202543385315817e-01,1.000000000000000048e-04,4.194019105663664249e+01,2.300000000000000100e-01
2.889344674999999807e+00,-1.054064458000000037e+00,1.553239002754713827e-01,1.000000000000000048e-04,3.947551908375150020e+01,3.200000000000000067e-01
1.260972444000000081e+00,-1.102168519999999985e+00,1.517391193548396355e-01,1.000000000000000048e-04,3.929347909996938171e+01,2.899999999999999800e-01
3.138597202000000141e+00,-1.049455424000000026e+00,3.264504065400384292e-01,1.000000000000000048e-04,4.118165971453566954e+01,2.600000000000000089e-01
1.280173519000000093e+00,-1.106045986000000036e+00,4.485704638001155597e-01,1.000000000000000048e-04,4.214704664355802066e+01,2.899999999999999800e-01
3.140421104000000074e+00,-1.048273016000000002e+00,1.404811060537032308e-01,1.000000000000000048e-04,3.899689307074553568e+01,2.700000000000000178e-01
2.887571490000000018e+00,-1.060290981000000077e+00,1.988528693579587614e-01,1.000000000000000048e-04,4.007985529190337814e+01,2.300000000000000100e-01
3.117377486000000086e+00,-1.048849812999999909e+00,1.192165280379089420e-01,1.000000000000000048e-04,3.909898290219256012e+01,2.800000000000000266e-01
3.139331405000000075e+00,-1.045946368000000071e+00,2.514307229703010016e-01,1.000000000000000048e-04,4.086674108722687748e+01,2.300000000000000100e-01
2.901812189000000153e+00,-1.070407117000000019e+00,3.873149616106630333e-01,1.000000000000000048e-04,4.125029522218833478e+01,2.200000000000000011e-01
2.874698792999999863e+00,-1.069280417999999955e+00,1.949707430791847163e-01,1.000000000000000048e-04,4.025174985744042289e+01,2.200000000000000011e-01
3.126790450000000110e+00,-1.053686536000000062e+00,1.110048281473341447e-01,1.000000000000000048e-04,3.872814302037412659e+01,2.099999999999999922e-01
1.253234667999999941e+00,-1.096167120000000050e+00,4.714121859128266312e-01,1.000000000000000048e-04,4.214387796287794430e+01,2.200000000000000011e-01
1.242189800000000011e+00,-1.095888138000000067e+00,8.657316926589444517e-01,1.000000000000000048e-04,4.418160820845000814e+01,2.899999999999999800e-01
2.358704259000000025e+00,-1.096119858000000002e+00,1.542395539675232019e-01,1.000000000000000048e-04,3.970581825090803818e+01,2.099999999999999922e-01
3.090657074000000115e+00,-1.046905049999999893e+00,6.856325613347240555e-01,1.000000000000000048e-04,4.298367911920129814e+01,2.300000000000000100e-01
2.350320292999999783e+00,-1.077642637000000070e+00,6.595617426663602512e-01,1.000000000000000048e-04,4.281049008450397508e+01,3.300000000000000155e-01
3.120911620999999858e+00,-1.047605429999999949e+00,2.917818600169954646e-01,1.000000000000000048e-04,4.138895864735368946e+01,2.899999999999999800e-01
2.310418793000000193e+00,-1.091478047999999923e+00,1.009790706803397331e+00,1.000000000000000048e-04,4.468289532784933016e+01,3.300000000000000155e-01
2.888242410000000149e+00,-1.055260810999999910e+00,1.215331829185244406e-01,1.000000000000000048e-04,3.949312874912241966e+01,2.999999999999999889e-01
2.313880778000000138e+00,-1.089056457000000089e+00,2.748212137220846785e-01,1.000000000000000048e-04,4.064792791712883968e+01,2.600000000000000089e-01
3.096505394999999883e+00,-1.050897790999999915e+00,7.689693048541701437e-01,1.000000000000000048e-04,4.269429790884343845e+01,3.300000000000000155e-01
1.264206060000000020e+00,-1.108314516000000083e+00,8.699242825292459180e-01,1.000000000000000048e-04,4.390341839676371904e+01,2.500000000000000000e-01
2.317080779999999951e+00,-1.080569537999999996e+00,5.573662047358958205e-01,1.000000000000000048e-04,4.248105604960890247e+01,2.399999999999999911e-01
2.308161032000000112e+00,-1.080284865999999955e+00,1.267405623741131304e-01,1.000000000000000048e-04,3.894459298447151241e+01,3.900000000000000133e-01
1.213089824000000094e+00,-1.095999417000000031e+00,3.400458932103225251e-01,1.000000000000000048e-04,4.168121550999121183e+01,2.700000000000000178e-01
3.095344697999999894e+00,-1.044259242999999948e+00,7.680955191933109827e-01,1.000000000000000048e-04,4.342246124387813921e+01,2.200000000000000011e-01
3.093500166000000107e+00,-1.047656949999999920e+00,2.098059145303192707e-01,1.000000000000000048e-04,4.013516883532833646e+01,2.300000000000000100e-01
2.871266652000000086e+00,-1.064917746999999970e+00,9.751207039542686417e-01,1.000000000000000048e-04,4.371620766074729403e+01,2.500000000000000000e-01
2.872879009000000039e+00,-1.076645507999999918e+00,2.575862425874417827e-01,1.000000000000000048e-04,4.072051083928017334e+01,2.099999999999999922e-01
1.241294699000000001e+00,-1.109043570000000090e+00,4.392477408152830609e-01,1.000000000000000048e-04,4.233987821826762143e+01,2.099999999999999922e-01
1.238788393000000099e+00,-1.083197141000000085e+00,3.293339732129416664e-01,1.000000000000000048e-04,4.128584912894263681e+01,2.999999999999999889e-01
-3.140928712179586135e+00,-1.049943351000000025e+00,3.560435132210926223e-01,1.000000000000000048e-04,4.160851114933512207e+01,2.200000000000000011e-01
2.897074545000000168e+00,-1.050668165000000043e+00,3.747000357507088708e-01,1.000000000000000048e-04,4.150587443329101944e+01,2.099999999999999922e-01
3.133488720999999977e+00,-1.053899826000000095e+00,2.668664012843966482e-01,1.000000000000000048e-04,4.072279322242725641e+01,2.300000000000000100e-01
2.854965548000000020e+00,-1.051119023000000041e+00,2.311032488409492380e-01,1.000000000000000048e-04,4.038712326603850755e+01,3.200000000000000067e-01
2.846666281000000076e+00,-1.061494909000000098e+00,4.935495360183297375e-01,1.000000000000000048e-04,4.217260535239842056e+01,2.600000000000000089e-01
1.477625364000000108e+00,-9.892628350000000070e-01,1.186214465935002238e+00,1.000000000000000048e-04,4.477767511881791052e+01,2.000000000000000111e-01
-2.998301261179586064e+00,-5.567642400000000213e-01,1.748948976454591797e-01,1.000000000000000048e-04,3.973964427231172891e+01,1.799999999999999933e-01
2.915910107000000195e+00,-9.248875840000000403e-01,4.074029047190739217e-01,1.000000000000000048e-04,4.190691562754050636e+01,2.999999999999999889e-01
2.904218159000000021e+00,-9.279150130000000107e-01,4.041606189171902397e-01,1.000000000000000048e-04,4.181625984041134814e+01,2.399999999999999911e-01
2.945746643000000109e+00,-9.241091030000000428e-01,3.297791007746389003e-01,1.000000000000000048e-04,4.160069955035698541e+01,2.300000000000000100e-01
2.195221751000000054e+00,9.567984520000000215e-01,1.087972733314962248e+00,1.000000000000000048e-04,4.422398162720735826e+01,2.200000000000000011e-01
-2.382074272179586227e+00,-9.504311730000000180e-01,2.035105403211692199e-01,1.000000000000000048e-04,3.978337820926756052e+01,2.300000000000000100e-01
2.197803225999999999e+00,9.560313849999999558e-01,4.956567065794610372e-01,1.000000000000000048e-04,4.239751273618036720e+01,2.300000000000000100e-01
-2.380846050179586282e+00,-9.512843520000000552e-01,6.559148098040288311e-01,1.000000000000000048e-04,4.289101582202308549e+01,2.600000000000000089e-01
-2.382960995179586039e+00,-9.501026420000000527e-01,9.892203030689816767e-01,1.000000000000000048e-04,4.422372571057402268e+01,2.099999999999999922e-01
2.192165822000000208e+00,9.554729659999999791e-01,3.213275437156632997e-01,1.000000000000000048e-04,4.099820908524739593e+01,2.899999999999999800e-01
-2.383512939179586176e+00,-9.505219620000000535e-01,8.160210449527749432e-01,1.000000000000000048e-04,4.352349051655777146e+01,2.000000000000000111e-01
2.197044292000000176e+00,9.582492320000000063e-01,9.097628547080072181e-01,1.000000000000000048e-04,4.450064100845905557e+01,2.500000000000000000e-01
2.198013217999999824e+00,9.570721989999999568e-01,1.019151540602813988e+00,1.000000000000000048e-04,4.448428115089406987e+01,2.099999999999999922e-01
2.198391541999999976e+00,9.561199929999999458e-01,2.467224787813260267e-01,1.000000000000000048e-04,3.997243469636725877e+01,2.300000000000000100e-01
2.199218732999999926e+00,9.570277640000000030e-01,1.210899996900347553e-01,1.000000000000000048e-04,3.855980432670298796e+01,2.200000000000000011e-01
2.196667974999999995e+00,9.569524729999999701e-01,8.350980240390304399e-01,1.000000000000000048e-04,4.357841336828047929e+01,2.399999999999999911e-01
2.196400267000000017e+00,9.571105250000000453e-01,1.342779989987512579e-01,1.000000000000000048e-04,3.935274455510258917e+01,2.500000000000000000e-01
2.195980999000000100e+00,9.563170869999999546e-01,3.144556741995458982e-01,1.000000000000000048e-04,4.103967699669401270e+01,2.200000000000000011e-01
2.198886345000000020e+00,9.574225640000000315e-01,5.448665087078754521e-01,1.000000000000000048e-04,4.213730523733394762e+01,3.300000000000000155e-01
-2.382942164179586264e+00,-9.487821469999999646e-01,5.108730801258685172e-01,1.000000000000000048e-04,4.276445969332939256e+01,2.000000000000000111e-01
2.197058621000000045e+00,9.568337070000000333e-01,3.108127401996001460e-01,1.000000000000000048e-04,4.098099287500652110e+01,2.600000000000000089e-01
2.196754174000000059e+00,9.569828230000000380e-01,3.674152777988937135e-01,1.000000000000000048e-04,4.193429654168467380e+01,2.399999999999999911e-01
-2.381905888179586039e+00,-9.494029419999999719e-01,4.989554839673997488e-01,1.000000000000000048e-04,4.224274033230510383e+01,2.399999999999999911e-01
-2.382353656179586388e+00,-9.501919130000000546e-01,1.273919755593588832e-01,1.000000000000000048e-04,3.825696341680009027e+01,2.600000000000000089e-01
-2.385313647179586383e+00,-9.492824659999999914e-01,2.994010032270084665e-01,1.000000000000000048e-04,4.097501023813961751e+01,2.399999999999999911e-01
-2.383308463179586223e+00,-9.502672559999999491e-01,3.254123981509429164e-01,1.000000000000000048e-04,4.122882660792750897e+01,2.000000000000000111e-01
2.194446376000000143e+00,9.548028840000000184e-01,2.659086800883831980e-01,1.000000000000000048e-04,4.094024404809302808e+01,3.699999999999999956e-01
-2.377678389179586294e+00,-9.493284189999999789e-01,3.080089415540980813e-01,1.000000000000000048e-04,4.110944000834063417e+01,3.099999999999999978e-01
2.195048706000000127e+00,9.553664520000000326e-01,2.058445191880593494e-01,1.000000000000000048e-04,3.981785492959529194e+01,2.399999999999999911e-01
2.194988459000000169e+00,9.569281090000000267e-01,3.235228089293449294e-01,1.000000000000000048e-04,4.104423587964726750e+01,2.099999999999999922e-01
2.198773670000000013e+00,9.585742720000000050e-01,4.414245632609266057e-01,1.000000000000000048e-04,4.161498291024967955e+01,2.800000000000000266e-01
2.196007632000000154e+00,9.574002940000000406e-01,3.414418008192989795e-01,1.000000000000000048e-04,4.087452362380124526e+01,2.800000000000000266e-01
2.193610842000000005e+00,9.569156829999999614e-01,7.912835178560999605e-01,1.000000000000000048e-04,4.339973781756514626e+01,2.099999999999999922e-01
2.194846306000000080e+00,9.574700699999999509e-01,1.627606260865726018e-01,1.000000000000000048e-04,3.941126150274475748e+01,2.300000000000000100e-01
-2.901318991795864832e-01,1.086903570000000041e+00,2.160063843657966665e-01,1.000000000000000048e-04,3.972645382880626386e+01,2.000000000000000111e-01
-2.914486071795865385e-01,1.085909494999999891e+00,8.385877674022370609e-01,1.000000000000000048e-04,4.352516457278876771e+01,1.000000000000000056e-01
-2.954610881795858290e-01,1.084462065999999947e+00,2.191625820454723428e-01,1.000000000000000048e-04,3.996005004769484259e+01,1.199999999999999956e-01
-3.403197011795864313e-01,1.090760651000000081e+00,2.355551939210740464e-01,1.000000000000000048e-04,4.022705910267062990e+01,8.999999999999999667e-02
-3.429455761795860980e-01,1.087892671000000089e+00,6.954118270635729626e-01,1.000000000000000048e-04,4.309150638169229808e+01,1.400000000000000133e-01
6.896152909999999636e-01,-9.249195220000000495e-01,5.813434326772037863e-01,1.000000000000000048e-04,4.247705703033106772e+01,2.000000000000000111e-01
1.024453132999999960e+00,1.182715689999999986e+00,1.483836322123290863e-01,1.000000000000000048e-04,3.888590436310425957e+01,1.900000000000000022e-01
1.006083177000000051e+00,1.165244638999999971e+00,1.299030019655214030e+00,1.000000000000000048e-04,4.470587308917850322e+01,1.700000000000000122e-01
9.905969959999999519e-01,1.153001898999999941e+00,5.278048797596675001e-01,1.000000000000000048e-04,4.255659706886990534e+01,3.499999999999999778e-01
2.950804928999999799e+00,-1.010655210999999998e+00,1.735572304364851881e-01,1.000000000000000048e-04,3.993493975836614140e+01,1.700000000000000122e-01
2.951637304000000128e+00,-1.010683065999999908e+00,2.404768281851983325e-01,1.000000000000000048e-04,4.094072730911585012e+01,1.900000000000000022e-01
-2.349248843179586377e+00,-9.322901449999999590e-01,5.173324680545257070e-01,1.000000000000000048e-04,4.266622534662423050e+01,1.900000000000000022e-01
