-1.598279621179586663e+00,2.779993629999999993e-01,6.479283019849317871e-01,1.000000000000000048e-04,4.308074200019751032e+01,1.700000000000000122e-01
-8.306753881795865269e-01,5.048130450000000158e-01,4.723154128453210809e-01,1.000000000000000048e-04,4.220724882009496071e+01,1.600000000000000033e-01
-1.512887194179586281e+00,3.571169940000000209e-01,2.024111393835101858e-01,1.000000000000000048e-04,4.006292053710235024e+01,1.600000000000000033e-01
-2.094054222179586588e+00,-9.657747650000000350e-01,1.633371004300567808e-01,1.000000000000000048e-04,3.972983204355225695e+01,1.600000000000000033e-01
-1.256550916179586252e+00,-1.037146153999999987e+00,7.624415033402820452e-01,1.000000000000000048e-04,4.346408325823257712e+01,1.900000000000000022e-01
-2.638489419179586015e+00,-8.917870300000000361e-01,2.963802642731290238e-01,1.000000000000000048e-04,4.121302648800578083e+01,1.600000000000000033e-01
3.095686500000000008e-02,-1.139960520999999893e+00,3.546495728105336642e-01,1.000000000000000048e-04,4.162989052376497767e+01,1.700000000000000122e-01
-4.765590681795863759e-01,-7.328014390000000544e-01,2.071005691823524231e-01,1.000000000000000048e-04,3.972422977722658288e+01,1.600000000000000033e-01
7.532392530000000530e-01,9.936355940000000109e-01,6.149066796255204803e-01,1.000000000000000048e-04,4.260873690908199052e+01,1.600000000000000033e-01
1.355624495999999901e+00,4.654212710000000253e-01,4.180924619464287950e-01,1.000000000000000048e-04,4.192725580109913608e+01,2.200000000000000011e-01
-2.027672372179586624e+00,-3.494576850000000179e-01,2.717002071751970504e-01,1.000000000000000048e-04,4.071738295288953680e+01,8.999999999999999667e-02
-2.243457714179585949e+00,5.735296930000000071e-01,6.015319257215141491e-01,1.000000000000000048e-04,4.275565811850420772e+01,8.000000000000000167e-02
-1.661352162179586145e+00,7.473004210000000480e-01,6.064183252558856818e-01,1.000000000000000048e-04,4.267542558372921491e+01,1.100000000000000006e-01
-1.046494641179585905e+00,9.839422859999999993e-01,3.838244165753985637e-01,1.000000000000000048e-04,4.173090503842160359e+01,1.600000000000000033e-01
-1.357076630179586019e+00,8.591991679999999576e-01,6.243614109423589742e-01,1.000000000000000048e-04,4.297927518867894037e+01,1.300000000000000044e-01
-1.489161381179585852e+00,8.733460579999999807e-01,8.386292731420226243e-01,1.000000000000000048e-04,4.354039090042221716e+01,8.999999999999999667e-02
2.602874990000000111e+00,9.865781270000000269e-01,8.473681867353319852e-01,1.000000000000000048e-04,4.389243730250925069e+01,2.099999999999999922e-01
2.011122450999999867e+00,-1.257182417000000108e+00,3.259941580343577172e-01,1.000000000000000048e-04,4.148692752611654555e+01,1.799999999999999933e-01
2.487812089999999809e+00,-1.095252646999999913e+00,2.456784323870448983e-01,1.000000000000000048e-04,4.045584463667339037e+01,1.600000000000000033e-01
-2.060955814179585843e+00,9.020563839999999889e-01,4.314547105040937858e-01,1.000000000000000048e-04,4.200185028783396035e+01,1.799999999999999933e-01
-1.552222439179586466e+00,1.270289940999999923e+00,7.390583794832752407e-01,1.000000000000000048e-04,4.294580144725745185e+01,1.600000000000000033e-01
-3.584264691795864266e-01,1.112498557000000110e+00,1.230432649454835214e+00,1.000000000000000048e-04,4.481452400021591131e+01,2.000000000000000111e-01
1.187793541000000008e+00,1.533334508000000040e+00,4.430627285516883784e-01,1.000000000000000048e-04,4.219568007450516944e+01,1.700000000000000122e-01
9.029304540000000490e-01,-5.888661819999999603e-01,1.023520044507865379e+00,1.000000000000000048e-04,4.452640808606486189e+01,1.700000000000000122e-01
2.675488564000000125e+00,-1.029758079000000048e+00,1.047976337070088082e+00,1.000000000000000048e-04,4.428034898787122131e+01,1.700000000000000122e-01
9.979371630000000160e-01,-7.076351440000000492e-01,2.151684118440748694e-01,1.000000000000000048e-04,4.004372613417944393e+01,2.000000000000000111e-01
-2.809922836179586270e+00,-1.219770695000000016e+00,2.187669634734852320e-01,1.000000000000000048e-04,4.008763703619245433e+01,1.900000000000000022e-01
1.945616433999999950e+00,5.533621010000000506e-01,1.896751450730904676e-01,1.000000000000000048e-04,3.956295604831414892e+01,1.700000000000000122e-01
1.369802210000000131e-01,9.686457469999999459e-01,5.795277348857490463e-01,1.000000000000000048e-04,4.278723339834464667e+01,1.000000000000000056e-01
2.377785852000000144e+00,-1.071983155000000076e+00,2.367771662475024463e-01,1.000000000000000048e-04,4.027523699556794412e+01,1.000000000000000056e-01
1.194530383000000029e+00,-8.514353350000000153e-01,5.407083134206023267e-01,1.000000000000000048e-04,4.253802878952328115e+01,1.100000000000000006e-01
2.328991532999999947e+00,-1.085498080000000032e+00,1.418819574256742211e-01,1.000000000000000048e-04,3.911029387429552173e+01,1.199999999999999956e-01
3.099662444999999877e+00,-8.173274409999999879e-01,3.405980745365582152e-01,1.000000000000000048e-04,4.136747416562449331e+01,1.300000000000000044e-01
1.008677688999999988e+00,-7.224949280000000362e-01,3.014413532332955725e-01,1.000000000000000048e-04,4.096318173724144884e+01,1.199999999999999956e-01
1.116317643999999998e+00,-8.188746820000000204e-01,2.228487863281871650e-01,1.000000000000000048e-04,4.013937896825339635e+01,1.499999999999999944e-01
1.368634144999999913e+00,-9.746537960000000167e-01,5.129130643922941157e-01,1.000000000000000048e-04,4.250106004226749690e+01,2.200000000000000011e-01
2.840707745000000006e+00,-9.874777999999999611e-01,2.976161397536480901e-01,1.000000000000000048e-04,4.098223412982000013e+01,1.199999999999999956e-01
1.164831654000000105e+00,-8.361433499999999519e-01,7.171175743977244998e-01,1.000000000000000048e-04,4.312314247498348863e+01,1.600000000000000033e-01
9.274529849999999520e-01,-5.648102149999999488e-01,3.067062913630442811e-01,1.000000000000000048e-04,4.127866190974859251e+01,2.200000000000000011e-01
1.803806121999999901e+00,-1.051757271000000049e+00,4.580354630180420994e-01,1.000000000000000048e-04,4.192189536728348997e+01,2.200000000000000011e-01
1.910407339000000038e+00,-1.096340147000000043e+00,3.895747466794685643e-01,1.000000000000000048e-04,4.168294999903772435e+01,1.300000000000000044e-01
-2.994395329179586174e+00,-6.874333790000000111e-01,2.054535048059025204e-01,1.000000000000000048e-04,3.995573039323902265e+01,1.600000000000000033e-01
2.004169926999999962e+00,-1.114377941999999955e+00,2.393408588955501237e-01,1.000000000000000048e-04,4.059890116653042469e+01,2.099999999999999922e-01
2.993884073999999895e+00,-9.067153500000000310e-01,1.752876641394640611e-01,1.000000000000000048e-04,3.968402113590526881e+01,2.000000000000000111e-01
2.896584697999999847e+00,-6.981149509999999836e-01,8.936020620344808929e-01,1.000000000000000048e-04,4.399761987025613763e+01,2.000000000000000111e-01
2.644964143999999795e+00,-1.038456438999999953e+00,4.624883852262073880e-01,1.000000000000000048e-04,4.231974664691466614e+01,2.500000000000000000e-01
1.395029569000000080e+00,-9.673563530000000021e-01,3.519775674609744165e-01,1.000000000000000048e-04,4.140179804317929069e+01,2.200000000000000011e-01
1.133893306999999906e+00,-8.234022290000000410e-01,4.410897024527071775e-01,1.000000000000000048e-04,4.199876495468564741e+01,1.199999999999999956e-01
9.542908199999999841e-01,-6.210129070000000029e-01,2.811480415171203617e-01,1.000000000000000048e-04,4.063162452192860030e+01,1.400000000000000133e-01
1.112357503999999997e+00,-7.717409769999999947e-01,6.064267281330226744e-01,1.000000000000000048e-04,4.290493147436877308e+01,1.400000000000000133e-01
1.392129267000000059e+00,-9.489503049999999940e-01,4.282833020837066851e-01,1.000000000000000048e-04,4.194589316953685909e+01,1.100000000000000006e-01
3.104633763999999907e+00,-8.563587980000000321e-01,3.890935014517657997e-01,1.000000000000000048e-04,4.162742042586206281e+01,1.199999999999999956e-01
-1.581672989179586430e+00,-6.726275419999999672e-01,2.605527856858800284e-01,1.000000000000000048e-04,4.070033599875076646e+01,2.000000000000000111e-01
8.758714749999999549e-01,-5.394949780000000139e-01,3.963307439475405314e-01,1.000000000000000048e-04,4.169976275426338219e+01,1.199999999999999956e-01
1.027821937999999991e+00,-6.897361509999999640e-01,4.040711726124981418e-01,1.000000000000000048e-04,4.174327180536970161e+01,1.499999999999999944e-01
8.011105990000000343e-01,-4.568120419999999737e-01,5.421706084836954709e-01,1.000000000000000048e-04,4.253083184085244284e+01,1.499999999999999944e-01
8.044453879999999835e-01,-4.591503659999999765e-01,6.776149430645932448e-01,1.000000000000000048e-04,4.319963126570725365e+01,1.100000000000000006e-01
8.290542589999999601e-01,-4.498624509999999965e-01,3.152816916124987490e-01,1.000000000000000048e-04,4.115980804384700065e+01,1.199999999999999956e-01
2.306908324000000121e+00,-1.093655438999999951e+00,4.924224029335948494e-01,1.000000000000000048e-04,4.224728511652433838e+01,1.300000000000000044e-01
-3.090495873179586184e+00,-7.974218849999999970e-01,1.645267560421415087e-01,1.000000000000000048e-04,3.951136610739256128e+01,1.300000000000000044e-01
2.850739061000000074e+00,-9.724982730000000242e-01,3.929873808987887074e-01,1.000000000000000048e-04,4.148253086342237594e+01,1.100000000000000006e-01
1.925211972000000049e+00,-1.067349442999999898e+00,1.464579632286917565e-01,1.000000000000000048e-04,3.914695322659212451e+01,1.600000000000000033e-01
3.010706126000000094e+00,-9.149326070000000088e-01,1.688840944233569452e-01,1.000000000000000048e-04,3.934855701339095901e+01,1.199999999999999956e-01
1.754869720000000077e+00,-1.052947148999999971e+00,1.896266487036546433e-01,1.000000000000000048e-04,3.988113870002478478e+01,1.300000000000000044e-01
3.028086770999999899e+00,-8.725603690000000023e-01,9.006002851997951808e-01,1.000000000000000048e-04,4.374542804003225882e+01,1.199999999999999956e-01
2.780301081000000174e+00,-1.010780400000000023e+00,6.273616172260285673e-01,1.000000000000000048e-04,4.268225394078391588e+01,1.700000000000000122e-01
3.096540631999999960e+00,-8.261897350000000362e-01,1.457689362301404223e-01,1.000000000000000048e-04,3.938607442221921673e+01,1.100000000000000006e-01
-3.043596368179586342e+00,-7.656326449999999451e-01,3.162281079489379643e-01,1.000000000000000048e-04,4.097440074634979368e+01,1.100000000000000006e-01
2.593403560000000052e+00,-1.068240442000000012e+00,5.076452260354382684e-01,1.000000000000000048e-04,4.229697293094779553e+01,1.199999999999999956e-01
1.277663320999999907e+00,-8.910532270000000032e-01,1.017718682446472567e+00,1.000000000000000048e-04,4.398415458707837900e+01,1.499999999999999944e-01
8.729576639999999665e-01,-5.017517409999999733e-01,6.116160527943474978e-01,1.000000000000000048e-04,4.273383177275483291e+01,1.199999999999999956e-01
2.323316692000000128e+00,-1.072994334000000105e+00,8.573462256846691165e-01,1.000000000000000048e-04,4.372219032959169738e+01,1.400000000000000133e-01
-3.012222731179586166e+00,-7.219820959999999621e-01,2.399590908402373657e-01,1.000000000000000048e-04,4.027442140831981021e+01,1.199999999999999956e-01
2.306010604999999991e+00,-1.110345181000000014e+00,3.690689760433754074e-01,1.000000000000000048e-04,4.156860643475951633e+01,1.100000000000000006e-01
2.437557496999999795e+00,-1.097151527000000071e+00,3.369319320486765523e-01,1.000000000000000048e-04,4.146182620536295360e+01,1.100000000000000006e-01
1.098420291999999909e+00,-7.444727049999999569e-01,3.816814977939804177e-01,1.000000000000000048e-04,4.110836350479120682e+01,1.300000000000000044e-01
8.241628739999999897e-01,-4.611620249999999754e-01,3.952517711439478276e-01,1.000000000000000048e-04,4.176075310539391694e+01,1.400000000000000133e-01
1.017317494999999905e+00,-7.027905669999999771e-01,5.374106826296496386e-01,1.000000000000000048e-04,4.245866183229053803e+01,1.199999999999999956e-01
2.728679550999999925e+00,-1.007430967999999982e+00,6.569948416054891549e-01,1.000000000000000048e-04,4.296808851439792676e+01,1.100000000000000006e-01
2.848837458999999850e+00,-9.622339979999999793e-01,1.415111775313029341e-01,1.000000000000000048e-04,3.920716722735539150e+01,1.199999999999999956e-01
-3.065525731179586266e+00,-7.207210450000000046e-01,2.533540180387712226e-01,1.000000000000000048e-04,4.074479823355874686e+01,1.199999999999999956e-01
1.103969978000000074e+00,-7.587182380000000448e-01,2.554721263116996877e-01,1.000000000000000048e-04,4.031774518874586022e+01,1.300000000000000044e-01
1.112034854000000017e+00,-7.675460100000000008e-01,1.692008780877314322e-01,1.000000000000000048e-04,3.952043033740476830e+01,1.199999999999999956e-01
2.373162053000000160e+00,-1.072487750000000073e+00,1.935064975320459624e-01,1.000000000000000048e-04,3.996072401016842690e+01,1.100000000000000006e-01
2.221583438000000132e+00,-1.096064289000000080e+00,2.699425310981251602e-01,1.000000000000000048e-04,4.050408285519246476e+01,1.199999999999999956e-01
2.775251189000000007e+00,-1.013244017000000108e+00,2.222170981880047247e-01,1.000000000000000048e-04,4.027665284739651241e+01,1.700000000000000122e-01
1.527128894000000070e+00,-9.963611940000000056e-01,5.786272477144500659e-01,1.000000000000000048e-04,4.265698254569610270e+01,1.400000000000000133e-01
-1.936135624179586401e+00,1.327891944000000102e+00,7.819803740182098561e-01,1.000000000000000048e-04,4.341413409163665449e+01,1.199999999999999956e-01
2.120951332999999828e+00,-1.112975437000000012e+00,2.684982402352080744e-01,1.000000000000000048e-04,4.104401365257582768e+01,1.600000000000000033e-01
2.950704906999999988e+00,-9.277153000000000205e-01,6.140232991881282576e-01,1.000000000000000048e-04,4.257699457515239772e+01,1.700000000000000122e-01
2.461302839000000020e+00,-1.064109841000000056e+00,1.791423813124402020e-01,1.000000000000000048e-04,3.959179456652963580e+01,1.499999999999999944e-01
1.687800213000000049e+00,-1.037844004000000098e+00,1.258976777392109003e-01,1.000000000000000048e-04,3.897272957127724169e+01,1.100000000000000006e-01
-3.069023128179586113e+00,-7.343218900000000327e-01,3.071404614818487033e-01,1.000000000000000048e-04,4.117552327287242520e+01,2.000000000000000111e-01
7.655655390000000171e-01,-3.825025819999999799e-01,3.864319412565182521e-01,1.000000000000000048e-04,4.148192302987919788e+01,1.300000000000000044e-01
-3.051736326179586012e+00,-7.690870560000000467e-01,7.268812814791207888e-01,1.000000000000000048e-04,4.323961020943977474e+01,1.499999999999999944e-01
-3.116938176179586240e+00,-7.920766919999999711e-01,6.226845827118057120e-01,1.000000000000000048e-04,4.285540456559675704e+01,1.100000000000000006e-01
1.020863690000000101e+00,-6.877910739999999468e-01,3.703767042408996346e-01,1.000000000000000048e-04,4.163235279840004921e+01,1.199999999999999956e-01
1.792785233999999894e+00,-1.066474936999999956e+00,7.710817116081634115e-01,1.000000000000000048e-04,4.331894675628818447e+01,1.100000000000000006e-01
1.805689748000000039e+00,-1.066896787999999985e+00,1.312599790111244502e+00,1.000000000000000048e-04,4.484144764789194681e+01,1.100000000000000006e-01
1.773248071000000037e+00,-1.046601056999999946e+00,1.770990572866333324e-01,1.000000000000000048e-04,3.962748568707582564e+01,2.099999999999999922e-01
1.076689889999999927e+00,-7.549444410000000216e-01,4.121023303239454982e-01,1.000000000000000048e-04,4.158389533232820412e+01,1.199999999999999956e-01
2.336456505000000128e+00,-1.089906792000000069e+00,3.542668326413207502e-01,1.000000000000000048e-04,4.134193085397040335e+01,1.199999999999999956e-01
2.522083900000000156e+00,-1.078852812999999911e+00,1.591877929754628163e-01,1.000000000000000048e-04,3.977116532704158658e+01,1.199999999999999956e-01
3.676074389999999803e-01,1.100614297999999991e+00,1.657734309192404609e-01,1.000000000000000048e-04,3.971324480978845628e+01,1.700000000000000122e-01
2.099931574000000190e+00,-1.082223048999999993e+00,8.357500722223953904e-01,1.000000000000000048e-04,4.379433881121190808e+01,1.100000000000000006e-01
8.155488279999999479e-01,-4.642700679999999802e-01,5.477953073715853272e-01,1.000000000000000048e-04,4.225866374106681178e+01,2.099999999999999922e-01
9.861636230000000447e-01,-6.881834650000000497e-01,5.192485707023533070e-01,1.000000000000000048e-04,4.237511056023797806e+01,1.300000000000000044e-01
1.864254864999999928e+00,-1.086684659999999969e+00,8.421726097430908275e-01,1.000000000000000048e-04,4.384208798694866971e+01,1.199999999999999956e-01
2.873066016000000111e+00,-9.753574739999999466e-01,6.232558288092693299e-01,1.000000000000000048e-04,4.292357375178755774e+01,1.300000000000000044e-01
2.270287562000000037e+00,-1.085086717999999895e+00,2.501766561748284268e-01,1.000000000000000048e-04,4.055084665557874501e+01,1.799999999999999933e-01
8.268071609999999572e-01,-4.587794940000000099e-01,3.016910247064397144e-01,1.000000000000000048e-04,4.094417756192060409e+01,1.199999999999999956e-01
-3.050869045179586347e+00,-7.648855789999999821e-01,1.966141917935535499e-01,1.000000000000000048e-04,3.992725876449213018e+01,1.199999999999999956e-01
1.101963728999999947e+00,-7.466317359999999903e-01,5.063699451322944967e-01,1.000000000000000048e-04,4.268247659212229905e+01,1.900000000000000022e-01
1.745116724000000064e+00,-1.056563783000000090e+00,9.006429351968869845e-01,1.000000000000000048e-04,4.368207970800631301e+01,1.300000000000000044e-01
7.889769570000000343e-01,-3.846565690000000037e-01,3.449169589794323088e-01,1.000000000000000048e-04,4.139253080007397045e+01,1.499999999999999944e-01
1.385818830999999918e+00,-9.278259679999999454e-01,9.974711778981266708e-01,1.000000000000000048e-04,4.418382228519446642e+01,1.499999999999999944e-01
1.138484923000000038e+00,-8.197145099999999518e-01,3.749241303056907171e-01,1.000000000000000048e-04,4.163280165057012994e+01,1.400000000000000133e-01
1.783410439000000069e+00,-1.080958507999999929e+00,9.138303000016168021e-01,1.000000000000000048e-04,4.384431218624303739e+01,1.400000000000000133e-01
2.617653461000000181e+00,-1.025884226000000066e+00,7.787907636910544884e-01,1.000000000000000048e-04,4.345261012406703571e+01,1.199999999999999956e-01
8.270197009999999960e-01,-4.157453939999999903e-01,8.213489182990467707e-01,1.000000000000000048e-04,4.364622393299986669e+01,1.199999999999999956e-01
3.128792493000000174e+00,-8.522697870000000009e-01,4.644915433785441472e-01,1.000000000000000048e-04,4.202162475740756520e+01,1.100000000000000006e-01
1.366158207000000013e+00,-9.614226009999999878e-01,3.372860258471133132e-01,1.000000000000000048e-04,4.124004665022054184e+01,1.100000000000000006e-01
2.846286316000000038e+00,-9.688357899999999745e-01,2.210864457805672423e-01,1.000000000000000048e-04,4.001855508789157057e+01,1.400000000000000133e-01
9.208216280000000031e-01,-6.185352929999999860e-01,1.477583932564339175e-01,1.000000000000000048e-04,3.923957314508734129e+01,1.499999999999999944e-01
7.622987450000000553e-01,-3.411912120000000215e-01,4.491219070228071875e-01,1.000000000000000048e-04,4.190821666854595406e+01,1.199999999999999956e-01
9.277931750000000255e-01,-5.813990460000000304e-01,7.294932982637396535e-01,1.000000000000000048e-04,4.333253674777216702e+01,2.099999999999999922e-01
1.010173165000000095e+00,-6.808591280000000356e-01,3.116296606177533235e-01,1.000000000000000048e-04,4.112581432566545203e+01,1.300000000000000044e-01
1.661181446000000062e+00,-1.029160687999999935e+00,3.684597285700483837e-01,1.000000000000000048e-04,4.142004590306370915e+01,1.400000000000000133e-01
2.089878704000000198e+00,-1.077863170999999953e+00,1.695521642000579199e-01,1.000000000000000048e-04,3.966233189961611316e+01,1.199999999999999956e-01
9.321550429999999610e-01,-6.212176799999999943e-01,4.278142645157636537e-01,1.000000000000000048e-04,4.202511915111932694e+01,1.199999999999999956e-01
2.944595597000000176e+00,-9.127602249999999806e-01,2.346197710041653117e-01,1.000000000000000048e-04,4.046469149878750926e+01,1.100000000000000006e-01
1.288081913999999939e+00,-9.113959929999999598e-01,2.890175912181456308e-01,1.000000000000000048e-04,4.066919373367939272e+01,1.300000000000000044e-01
1.398731861999999992e+00,-9.625033109999999725e-01,2.454933700213344228e-01,1.000000000000000048e-04,4.066018368981173126e+01,1.199999999999999956e-01
1.714165549000000066e+00,-1.043104095999999981e+00,8.196048096289583196e-01,1.000000000000000048e-04,4.355014973975902137e+01,1.199999999999999956e-01
1.014018395999999989e+00,-6.788913789999999615e-01,6.840387461202634967e-01,1.000000000000000048e-04,4.287214260713786729e+01,1.300000000000000044e-01
8.887761809999999985e-01,-5.541821719999999729e-01,7.546235257391551432e-01,1.000000000000000048e-04,4.358893280015719540e+01,1.300000000000000044e-01
1.026278256999999972e+00,-6.961882160000000264e-01,4.856600646811390920e-01,1.000000000000000048e-04,4.224706158883472540e+01,1.199999999999999956e-01
1.824970581999999952e+00,-1.080428363000000003e+00,3.249234138431251750e-01,1.000000000000000048e-04,4.118646266743310491e+01,1.199999999999999956e-01
1.839979185000000017e+00,-1.082878103999999952e+00,2.667949823090682848e-01,1.000000000000000048e-04,4.070167676785887778e+01,1.300000000000000044e-01
-3.070118813179586237e+00,-7.641942569999999879e-01,8.088534364075454786e-01,1.000000000000000048e-04,4.341901107145093874e+01,1.199999999999999956e-01
2.250776613000000204e+00,-1.110438553999999911e+00,2.080275180750288389e-01,1.000000000000000048e-04,4.013568733435472780e+01,1.199999999999999956e-01
2.613802471000000072e+00,-1.066258922999999914e+00,1.132789344894477690e+00,1.000000000000000048e-04,4.442353418520489328e+01,1.199999999999999956e-01
8.050150120000000298e-01,-4.193234060000000096e-01,1.602978272476816013e-01,1.000000000000000048e-04,3.913742742900335259e+01,1.499999999999999944e-01
2.809576177999999924e+00,-9.952447749999999704e-01,5.918462878643089287e-01,1.000000000000000048e-04,4.264313223817634224e+01,1.199999999999999956e-01
8.523447290000000232e-01,-4.773689010000000121e-01,1.277064077964074951e+00,1.000000000000000048e-04,4.500390923747191607e+01,2.000000000000000111e-01
2.975142320999999868e+00,-8.986192680000000266e-01,6.744302482833719470e-01,1.000000000000000048e-04,4.292437683956686811e+01,2.000000000000000111e-01
2.960578484000000010e+00,-9.174235720000000205e-01,6.562047221301976485e-01,1.000000000000000048e-04,4.330015541716272764e+01,1.400000000000000133e-01
1.589239559999999996e+00,-1.046132274999999945e+00,5.250388586901502119e-01,1.000000000000000048e-04,4.248589197119571281e+01,1.199999999999999956e-01
1.095136271999999966e+00,-7.909478989999999543e-01,1.231482113896211761e-01,1.000000000000000048e-04,3.890379802449380264e+01,1.300000000000000044e-01
3.045277111999999953e+00,-8.831592660000000539e-01,6.457646502756448914e-01,1.000000000000000048e-04,4.309617104056832204e+01,1.799999999999999933e-01
3.011317304999999944e+00,-8.969173430000000335e-01,1.834345785866262624e-01,1.000000000000000048e-04,3.967811879337394743e+01,1.499999999999999944e-01
1.946036051000000100e+00,-1.101857058000000000e+00,1.389651168534224990e-01,1.000000000000000048e-04,3.902357587605637690e+01,1.100000000000000006e-01
9.659444579999999503e-01,-6.400164339999999674e-01,1.302008431020001744e+00,1.000000000000000048e-04,4.487762586643204799e+01,1.199999999999999956e-01
1.142944595999999979e+00,-8.229314749999999679e-01,8.259782644869388957e-01,1.000000000000000048e-04,4.336915406257607941e+01,1.499999999999999944e-01
1.336859599999999926e+00,-9.462661719999999610e-01,3.529701676363006246e-01,1.000000000000000048e-04,4.149804706163676116e+01,1.900000000000000022e-01
2.386695267999999981e+00,-1.099692616000000012e+00,1.303649555284014383e-01,1.000000000000000048e-04,3.903832917610282038e+01,1.799999999999999933e-01
1.122946417999999946e+00,-7.871106610000000448e-01,1.421827567074041010e-01,1.000000000000000048e-04,3.932013319196126844e+01,1.499999999999999944e-01
1.038511049000000019e+00,-6.836743480000000428e-01,1.281041719804352663e+00,1.000000000000000048e-04,4.476691641823922652e+01,1.499999999999999944e-01
-1.865548755179585960e+00,5.988235499999999822e-01,1.950316248559009757e-01,1.000000000000000048e-04,3.955154598712026370e+01,3.599999999999999867e-01
-1.208774007179585830e+00,1.086301519000000049e+00,9.249959014630537713e-01,1.000000000000000048e-04,4.402786556591559020e+01,3.900000000000000133e-01
-1.451351928179586359e+00,1.047303024999999943e+00,2.302808378302847458e-01,1.000000000000000048e-04,4.026404022989044051e+01,3.900000000000000133e-01
-1.863787002179586594e+00,5.986409590000000280e-01,7.706674347958755167e-01,1.000000000000000048e-04,4.299240976023897787e+01,3.099999999999999978e-01
-2.367107747179586053e+00,3.570653329999999848e-01,3.215944917533768432e-01,1.000000000000000048e-04,4.150876566609810681e+01,3.300000000000000155e-01
3.110012692999999828e+00,-8.816387980000000013e-01,8.984934404953330844e-01,1.000000000000000048e-04,4.393201454067753531e+01,4.000000000000000222e-01
1.208427087000000011e+00,6.391205479999999550e-01,1.418878145251327716e-01,1.000000000000000048e-04,3.952417956529772880e+01,3.200000000000000067e-01
2.195568135999999893e+00,9.530612539999999688e-01,2.406553995527440648e-01,1.000000000000000048e-04,4.057443092387008221e+01,3.200000000000000067e-01
-1.746303855179585973e+00,7.561700099999999480e-01,3.054274140227479784e-01,1.000000000000000048e-04,4.128587504299869693e+01,3.599999999999999867e-01
-2.613733020179586308e+00,3.020363409999999860e-01,4.653591803050816100e-01,1.000000000000000048e-04,4.202404890034447504e+01,2.399999999999999911e-01
3.080075141000000016e+00,6.813462000000000129e-01,1.923797394160855490e-01,1.000000000000000048e-04,4.044046187726742403e+01,2.999999999999999889e-01
3.084152930000000126e+00,6.750201959999999612e-01,5.025849651226690362e-01,1.000000000000000048e-04,4.263542550441981405e+01,2.399999999999999911e-01
-2.831540824179586302e+00,-5.193198470000000011e-01,5.276248389923845483e-01,1.000000000000000048e-04,4.191453100606010196e+01,2.899999999999999800e-01
2.921667255000000019e+00,-9.403574120000000036e-01,6.000574047844622338e-01,1.000000000000000048e-04,4.261570918284968457e+01,2.899999999999999800e-01
2.610543199999999953e+00,9.294079060000000059e-01,4.230642850127805943e-01,1.000000000000000048e-04,4.152210799209559866e+01,2.899999999999999800e-01
2.614058957000000127e+00,9.310355519999999885e-01,1.634716931948514418e-01,1.000000000000000048e-04,4.007021341374086632e+01,3.699999999999999956e-01
-2.614313936179586406e+00,3.105085300000000048e-01,7.002452895283619583e-01,1.000000000000000048e-04,4.281439676951337958e+01,2.300000000000000100e-01
-2.614275993179586255e+00,3.084493819999999942e-01,1.484838525159704048e-01,1.000000000000000048e-04,3.956732881357984866e+01,2.000000000000000111e-01
3.080236718000000096e+00,6.852664600000000217e-01,2.269777117200448835e-01,1.000000000000000048e-04,3.952459983955804290e+01,3.800000000000000044e-01
3.085135451000000195e+00,6.840520260000000352e-01,2.093214482708307678e-01,1.000000000000000048e-04,4.015955136296621220e+01,2.300000000000000100e-01
-2.829361723179586452e+00,-5.190188390000000096e-01,1.427390171124491847e-01,1.000000000000000048e-04,3.944698226787492246e+01,3.900000000000000133e-01
-2.833706243179586082e+00,-5.260186759999999628e-01,6.563051581305816562e-01,1.000000000000000048e-04,4.272961579857302894e+01,2.200000000000000011e-01
1.286414458000000094e+00,-9.076167339999999806e-01,3.837990338727150785e-01,1.000000000000000048e-04,4.173966707826438949e+01,2.399999999999999911e-01
2.295144749999999956e+00,-1.095028292000000070e+00,1.092924264970077886e+00,1.000000000000000048e-04,4.438067660761046795e+01,2.000000000000000111e-01
2.312115046000000174e+00,-1.091482969000000081e+00,3.447382830971539303e-01,1.000000000000000048e-04,4.151295741099782788e+01,1.900000000000000022e-01
2.535381049000000164e+00,-1.063602453999999975e+00,3.897693349146176267e-01,1.000000000000000048e-04,4.186784929870787408e+01,2.600000000000000089e-01
2.549902755000000187e+00,-1.059649137999999935e+00,5.344377906411954537e-01,1.000000000000000048e-04,4.237411721422955679e+01,1.900000000000000022e-01
-2.980466121795863899e-01,1.081935794000000062e+00,3.478079541112244488e-01,1.000000000000000048e-04,4.122914168054503392e+01,1.000000000000000056e-01
-4.562223411795862660e-01,1.078420874000000085e+00,6.272593860635637952e-01,1.000000000000000048e-04,4.265340127564896733e+01,1.400000000000000133e-01
-4.727696341795866175e-01,1.076427226000000070e+00,7.565724073494655144e-01,1.000000000000000048e-04,4.347138115276772652e+01,1.900000000000000022e-01
-4.909850281795860028e-01,1.086050390999999893e+00,2.616470191078710261e-01,1.000000000000000048e-04,4.040744297891866665e+01,1.499999999999999944e-01
-1.809890014179586615e+00,8.554848849999999727e-01,6.032466069887743032e-01,1.000000000000000048e-04,4.275930616936406636e+01,1.900000000000000022e-01
-1.804843805179586091e+00,8.509932909999999850e-01,4.881761454058139993e-01,1.000000000000000048e-04,4.221028138082170500e+01,1.700000000000000122e-01
-1.798315402179586187e+00,8.389159160000000393e-01,1.347525590850107591e+00,1.000000000000000048e-04,4.478120860498975020e+01,1.100000000000000006e-01
-1.820018681179586650e+00,8.404092629999999620e-01,2.438514979897770107e-01,1.000000000000000048e-04,4.032281970143738192e+01,2.000000000000000111e-01
-2.435936564179586039e+00,3.767214549999999829e-01,2.222069942145310506e-01,1.000000000000000048e-04,4.005696199561294435e+01,1.700000000000000122e-01
-2.738532057179586143e+00,-4.670391260000000266e-01,4.322698658128607541e-01,1.000000000000000048e-04,4.187399773199820174e+01,1.100000000000000006e-01
-2.750126147179586145e+00,-4.750163370000000107e-01,3.055783968849479226e-01,1.000000000000000048e-04,4.110248229091293126e+01,1.700000000000000122e-01
6.777063359999999648e-01,-9.284162910000000046e-01,3.042092034669150458e-01,1.000000000000000048e-04,4.087921861447245675e+01,1.600000000000000033e-01
6.755664329999999662e-01,-9.242990760000000527e-01,5.378818090038337552e-01,1.000000000000000048e-04,4.251937073343098206e+01,2.200000000000000011e-01
1.666277256000000095e+00,1.035703752000000089e+00,4.334310640842415907e-01,1.000000000000000048e-04,4.194711698363144592e+01,2.800000000000000266e-01
1.679531192000000006e+00,1.034147155999999956e+00,9.020710834918324039e-01,1.000000000000000048e-04,4.398205328769914502e+01,2.099999999999999922e-01
1.669961188000000041e+00,1.045784459000000055e+00,2.604999782439783029e-01,1.000000000000000048e-04,4.041394738843158052e+01,2.899999999999999800e-01
1.666612017000000057e+00,1.035903760999999923e+00,5.463787849568026989e-01,1.000000000000000048e-04,4.241627240492599782e+01,1.400000000000000133e-01
1.676630470000000095e+00,1.049302589999999924e+00,2.085980492206231940e-01,1.000000000000000048e-04,4.022611323852390086e+01,1.600000000000000033e-01
1.678871634000000057e+00,1.037439988999999896e+00,1.296953281235466715e-01,1.000000000000000048e-04,3.895481947601924588e+01,2.099999999999999922e-01
-2.159653925179585876e+00,7.341517600000000421e-01,6.795586013044929707e-01,1.000000000000000048e-04,4.353087640746689857e+01,2.600000000000000089e-01
-2.155609593179586447e+00,7.327229189999999726e-01,5.482924016409862489e-01,1.000000000000000048e-04,4.271363265077494020e+01,1.400000000000000133e-01
2.989279821999999864e+00,-1.014333855000000062e+00,1.329690117501189928e-01,1.000000000000000048e-04,3.909391134554676484e+01,1.600000000000000033e-01
6.962963009999999509e-01,-9.242906640000000396e-01,1.175941104197930631e-01,1.000000000000000048e-04,3.921063954919696215e+01,2.000000000000000111e-01
6.831622830000000368e-01,-9.295060950000000322e-01,2.046611858317284316e-01,1.000000000000000048e-04,4.000143342406880720e+01,2.099999999999999922e-01
6.813526220000000189e-01,-9.196739680000000083e-01,1.677057071588787807e-01,1.000000000000000048e-04,3.946153160919356395e+01,1.700000000000000122e-01
1.667475545999999920e+00,1.039138789999999979e+00,8.694615788623334396e-01,1.000000000000000048e-04,4.370599370593519239e+01,1.499999999999999944e-01
1.669072946000000002e+00,1.039627206000000026e+00,7.543167301423925331e-01,1.000000000000000048e-04,4.320291526321631181e+01,1.700000000000000122e-01
2.992464221000000091e+00,-1.009427984000000000e+00,4.985625407540745790e-01,1.000000000000000048e-04,4.223531569975072131e+01,1.400000000000000133e-01
3.013377762000000182e+00,-1.015725085999999999e+00,1.318584755157425903e-01,1.000000000000000048e-04,3.903255978359925393e+01,1.499999999999999944e-01
6.857830799999999893e-01,-9.290922369999999875e-01,7.231417533685449150e-01,1.000000000000000048e-04,4.309347463737712758e+01,3.400000000000000244e-01
6.874880420000000214e-01,-9.251381180000000093e-01,1.850631367216715173e-01,1.000000000000000048e-04,3.971939310264225043e+01,1.700000000000000122e-01
1.659686511000000086e+00,1.040101345999999927e+00,1.215561396104675840e+00,1.000000000000000048e-04,4.463709848864348828e+01,1.400000000000000133e-01
1.692629780999999944e+00,1.043637506000000048e+00,1.317950327298655910e-01,1.000000000000000048e-04,3.906340069749244748e+01,1.799999999999999933e-01
1.682450028999999958e+00,1.049226146999999942e+00,9.751463129634019289e-01,1.000000000000000048e-04,4.428646255112495567e+01,1.900000000000000022e-01
1.675255906999999933e+00,1.048468626000000015e+00,3.075921937767409631e-01,1.000000000000000048e-04,4.104889230133682076e+01,1.499999999999999944e-01
1.692145135000000078e+00,1.039981480000000014e+00,8.272589252202851018e-01,1.000000000000000048e-04,4.373243107762061754e+01,1.700000000000000122e-01
-2.139768073179586061e+00,7.360294179999999908e-01,3.167452617150849914e-01,1.000000000000000048e-04,4.097869701151289945e+01,1.600000000000000033e-01
-2.138731675179585956e+00,7.369836659999999817e-01,8.279455241003104149e-01,1.000000000000000048e-04,4.381152492138134846e+01,1.499999999999999944e-01
6.888283630000000546e-01,-9.193630990000000169e-01,3.411473927070647338e-01,1.000000000000000048e-04,4.109412142894130682e+01,1.700000000000000122e-01
6.776433490000000059e-01,-9.225326109999999469e-01,7.252726682274046599e-01,1.000000000000000048e-04,4.336791123853960528e+01,1.600000000000000033e-01
6.820513620000000499e-01,-9.162569579999999547e-01,5.266100122116474935e-01,1.000000000000000048e-04,4.253831752501518793e+01,2.899999999999999800e-01
6.832637360000000104e-01,-9.208365670000000502e-01,1.158367326699119904e+00,1.000000000000000048e-04,4.460796425271381338e+01,1.400000000000000133e-01
1.683256381999999940e+00,1.050427892999999946e+00,2.047065740890983143e-01,1.000000000000000048e-04,4.000831736147564044e+01,1.499999999999999944e-01
2.987248335999999949e+00,-1.011507587000000097e+00,1.466854113359654654e-01,1.000000000000000048e-04,3.928334905456044623e+01,1.900000000000000022e-01
2.994879214000000012e+00,-1.020537374999999969e+00,2.319707666494208453e-01,1.000000000000000048e-04,4.087727153379204736e+01,2.500000000000000000e-01
2.997056848999999801e+00,-1.020797841000000039e+00,1.236949527141666394e-01,1.000000000000000048e-04,3.880971624660685393e+01,1.499999999999999944e-01
6.981827720000000070e-01,-9.201470600000000166e-01,2.457591154050029481e-01,1.000000000000000048e-04,4.029250761299736183e+01,2.099999999999999922e-01
1.675679171999999939e+00,1.042232051000000048e+00,1.258640801662418429e-01,1.000000000000000048e-04,3.878196439893764591e+01,1.900000000000000022e-01
1.682732345000000018e+00,1.051774148000000020e+00,5.727154907716134336e-01,1.000000000000000048e-04,4.262331668975550514e+01,2.099999999999999922e-01
1.655763980999999996e+00,1.041789395999999979e+00,8.063261053449746196e-01,1.000000000000000048e-04,4.353337466602233974e+01,2.099999999999999922e-01
1.658505131999999938e+00,1.042043577999999915e+00,6.607785423429510807e-01,1.000000000000000048e-04,4.294720815958766735e+01,1.499999999999999944e-01
1.679931540999999973e+00,1.044700675999999939e+00,1.631603197010382811e-01,1.000000000000000048e-04,3.934107985589042755e+01,1.400000000000000133e-01
1.681131209999999987e+00,1.046558263000000100e+00,1.968940470919493535e-01,1.000000000000000048e-04,3.940069318852620484e+01,3.800000000000000044e-01
-2.147380102179586636e+00,7.248191320000000326e-01,6.412095543389051411e-01,1.000000000000000048e-04,4.315889797430023123e+01,2.200000000000000011e-01
-2.137481690179586558e+00,7.386978770000000027e-01,5.782095246362366492e-01,1.000000000000000048e-04,4.245429406632494818e+01,1.499999999999999944e-01
3.007533192999999994e+00,-1.006434849999999992e+00,4.926480622393512032e-01,1.000000000000000048e-04,4.214805252178673811e+01,1.700000000000000122e-01
6.766177190000000063e-01,-9.309161569999999664e-01,4.053397394023610101e-01,1.000000000000000048e-04,4.173578023940890347e+01,1.700000000000000122e-01
6.879719020000000240e-01,-9.170357009999999809e-01,4.360362279838099209e-01,1.000000000000000048e-04,4.172285061444954124e+01,2.600000000000000089e-01
6.868192690000000100e-01,-9.190749710000000183e-01,4.079823596244611661e-01,1.000000000000000048e-04,4.218379926242344169e+01,2.800000000000000266e-01
1.680927606000000019e+00,1.043199457999999913e+00,2.945380887223971733e-01,1.000000000000000048e-04,4.095604906628139474e+01,1.799999999999999933e-01
1.680733408999999901e+00,1.046110547000000057e+00,5.193534926482916703e-01,1.000000000000000048e-04,4.224596667703762165e+01,1.499999999999999944e-01
3.003205794999999956e+00,-1.007960921000000010e+00,1.629330223602440952e-01,1.000000000000000048e-04,3.978049743889951628e+01,2.200000000000000011e-01
3.013387552999999830e+00,-1.018013843000000085e+00,8.983409811814790924e-01,1.000000000000000048e-04,4.362026826571703708e+01,2.000000000000000111e-01
2.991633154000000072e+00,-1.018575491000000000e+00,5.204699309150486730e-01,1.000000000000000048e-04,4.247652634508391145e+01,1.600000000000000033e-01
6.810583510000000063e-01,-9.216344210000000370e-01,1.643982566494242015e-01,1.000000000000000048e-04,3.954404090518704606e+01,1.600000000000000033e-01
1.670069762000000013e+00,1.048284639000000018e+00,2.088079140463166006e-01,1.000000000000000048e-04,4.040147962859469999e+01,2.099999999999999922e-01
1.699713636000000028e+00,1.040243690999999915e+00,7.758620123942656654e-01,1.000000000000000048e-04,4.378775602073922357e+01,2.899999999999999800e-01
1.686195045999999920e+00,1.048540513999999924e+00,1.489959903704796140e-01,1.000000000000000048e-04,3.943772924304087724e+01,1.400000000000000133e-01
1.667162669999999958e+00,1.044746053999999980e+00,2.121875541484570249e-01,1.000000000000000048e-04,3.975568052057212043e+01,2.700000000000000178e-01
1.689467040999999892e+00,1.036330184999999959e+00,2.258274984864210300e-01,1.000000000000000048e-04,4.035330820024232423e+01,1.300000000000000044e-01
1.683799076999999977e+00,1.043385784000000038e+00,6.377806734662458954e-01,1.000000000000000048e-04,4.307093320713388351e+01,1.700000000000000122e-01
-2.151455832179586025e+00,7.398983139999999459e-01,8.358143771338146788e-01,1.000000000000000048e-04,4.371649630339931036e+01,2.500000000000000000e-01
-2.141944958179585967e+00,7.302793560000000461e-01,1.601497608847506360e-01,1.000000000000000048e-04,3.962839442311504712e+01,1.400000000000000133e-01
3.012489310999999947e+00,-1.019874449000000016e+00,8.796376322165169181e-01,1.000000000000000048e-04,4.357062253841755251e+01,1.900000000000000022e-01
6.824463880000000149e-01,-9.193269539999999740e-01,4.569264181861107943e-01,1.000000000000000048e-04,4.210814974903380659e+01,1.600000000000000033e-01
6.933168330000000212e-01,-9.307474239999999899e-01,2.350381535434229452e-01,1.000000000000000048e-04,4.017409103624724764e+01,1.600000000000000033e-01
7.005346909999999871e-01,-9.247541049999999929e-01,9.313451985555594170e-01,1.000000000000000048e-04,4.399816001649487873e+01,2.700000000000000178e-01
1.674988617999999985e+00,1.042237757999999959e+00,6.466431142450257408e-01,1.000000000000000048e-04,4.280742609622360106e+01,1.499999999999999944e-01
1.672026148000000045e+00,1.039374368000000048e+00,5.495693387287472476e-01,1.000000000000000048e-04,4.252176174143055221e+01,1.600000000000000033e-01
2.993618983999999816e+00,-1.008517228000000099e+00,5.746587314467836993e-01,1.000000000000000048e-04,4.272167642471195848e+01,1.700000000000000122e-01
2.992837709999999873e+00,-1.014889098000000045e+00,4.724954645332672953e-01,1.000000000000000048e-04,4.238905092816332854e+01,2.800000000000000266e-01
2.980621672999999916e+00,-1.012535224000000067e+00,1.976763228760043400e-01,1.000000000000000048e-04,3.992469298534604860e+01,1.499999999999999944e-01
3.118379398000000080e+00,-1.044341935000000055e+00,2.558090500454490712e-01,1.000000000000000048e-04,4.015552610488569485e+01,3.099999999999999978e-01
3.132904315000000217e+00,-1.046896950999999909e+00,3.063771924257061574e-01,1.000000000000000048e-04,4.133584393935706913e+01,2.200000000000000011e-01
1.248659997999999938e+00,-1.117162079000000086e+00,7.116023359078091914e-01,1.000000000000000048e-04,4.314751080779544168e+01,2.700000000000000178e-01
2.302446713000000145e+00,-1.091359299000000060e+00,8.135790880989917095e-01,1.000000000000000048e-04,4.344605621459496092e+01,2.899999999999999800e-01
3.133486173000000097e+00,-1.061461677999999909e+00,4.029387265479551505e-01,1.000000000000000048e-04,4.203982053237914585e+01,3.099999999999999978e-01
1.251013366000000016e+00,-1.102704651999999896e+00,8.702248436560098277e-01,1.000000000000000048e-04,4.413432161574187518e+01,2.300000000000000100e-01
1.232341668999999973e+00,-1.105349812000000043e+00,1.174752873096511774e-01,1.000000000000000048e-04,3.842718425307455021e+01,2.200000000000000011e-01
2.330538756999999794e+00,-1.086213730999999960e+00,6.929985721266975762e-01,1.000000000000000048e-04,4.308385809287234025e+01,2.300000000000000100e-01
3.104372880000000112e+00,-1.050765708999999992e+00,3.545013285884714982e-01,1.000000000000000048e-04,4.141744535211414302e+01,2.200000000000000011e-01
3.122794933000000217e+00,-1.050942575000000101e+00,4.450197894267740040e-01,1.000000000000000048e-04,4.171738571614502433e+01,2.099999999999999922e-01
3.135928428000000157e+00,-1.044986675000000087e+00,2.849393754929461231e-01,1.000000000000000048e-04,4.045553726226137314e+01,2.300000000000000100e-01
3.135701593999999925e+00,-1.049448040999999998e+00,2.631581137617675648e-01,1.000000000000000048e-04,4.066358821451377992e+01,2.399999999999999911e-01
2.902190216000000156e+00,-1.054666754000000095e+00,5.966339185922266974e-01,1.000000000000000048e-04,4.281501234113939347e+01,2.099999999999999922e-01
1.219278212000000083e+00,-1.102494101000000004e+00,7.526515757329119705e-01,1.000000000000000048e-04,4.320717288711464477e+01,2.399999999999999911e-01
2.314258420999999899e+00,-1.073777474999999981e+00,3.349917903889854109e-01,1.000000000000000048e-04,4.112718482947079224e+01,2.399999999999999911e-01
3.138600745000000192e+00,-1.056209613999999908e+00,4.874380000016105274e-01,1.000000000000000048e-04,4.177738445451461757e+01,2.800000000000000266e-01
2.873014373000000177e+00,-1.047336534999999902e+00,4.054397031034335797e-01,1.000000000000000048e-04,4.183977086570484261e+01,2.000000000000000111e-01
2.890150627000000139e+00,-1.045368942999999939e+00,4.056905171223639250e-01,1.000000000000000048e-04,4.175745359157415493e+01,2.200000000000000011e-01
-3.136513490179586139e+00,-1.038988312000000080e+00,3.720169136930622233e-01,1.000000000000000048e-04,4.137810317557072892e+01,2.800000000000000266e-01
3.120369102000000172e+00,-1.042910143999999928e+00,1.644686869929938844e-01,1.000000000000000048e-04,3.945916573675336991e+01,2.399999999999999911e-01
3.132773262000000170e+00,-1.048570620000000009e+00,3.099079715875077135e-01,1.000000000000000048e-04,4.093542449972966324e+01,2.300000000000000100e-01
3.132934141999999866e+00,-1.046888051000000042e+00,4.319456392291012303e-01,1.000000000000000048e-04,4.234137119394976878e+01,2.200000000000000011e-01
3.134455274000000014e+00,-1.046257098000000108e+00,3.641918022515207021e-01,1.000000000000000048e-04,4.150945452837191851e+01,2.200000000000000011e-01
2.910504301000000016e+00,-1.063930792999999930e+00,4.071711462449585373e-01,1.000000000000000048e-04,4.203516204878853557e+01,2.399999999999999911e-01
2.301930878999999930e+00,-1.084305269999999988e+00,3.154029893843421917e-01,1.000000000000000048e-04,4.062661644752922996e+01,3.099999999999999978e-01
2.314913878000000036e+00,-1.104421796000000011e+00,7.011377055292102867e-01,1.000000000000000048e-04,4.293368122317902902e+01,2.600000000000000089e-01
1.232494258000000009e+00,-1.089556776000000005e+00,1.984297308731461928e-01,1.000000000000000048e-04,4.006615683268893235e+01,3.099999999999999978e-01
-3.138875270179586341e+00,-1.027091259999999950e+00,4.703947283558340686e-01,1.000000000000000048e-04,4.212705961972374524e+01,3.800000000000000044e-01
1.277748142000000087e+00,-1.105660628999999950e+00,1.598938872118784715e-01,1.000000000000000048e-04,3.974502619278424476e+01,2.500000000000000000e-01
2.339694710999999927e+00,-1.083680948999999893e+00,5.537934128878625462e-01,1.000000000000000048e-04,4.280744750668806375e+01,2.300000000000000100e-01
3.085408954000000037e+00,-1.045989441999999991e+00,4.169271888525434289e-01,1.000000000000000048e-04,4.176018097838953480e+01,2.800000000000000266e-01
3.122183823999999941e+00,-1.053540683000000033e+00,3.590610873230613009e-01,1.000000000000000048e-04,4.145678360621784009e+01,3.699999999999999956e-01
1.263417701000000060e+00,-1.099941301000000093e+00,3.567135635475155997e-01,1.000000000000000048e-04,4.137395257868834619e+01,2.200000000000000011e-01
1.238769020999999970e+00,-1.122513239999999968e+00,4.123001044153766781e-01,1.000000000000000048e-04,4.192154650223761791e+01,2.600000000000000089e-01
1.225778744000000087e+00,-1.107856694000000086e+00,4.645165678916416407e-01,1.000000000000000048e-04,4.188303380700247658e+01,2.500000000000000000e-01
2.356185176999999964e+00,-1.090954028000000076e+00,7.225542580464501263e-01,1.000000000000000048e-04,4.346174033520004798e+01,2.700000000000000178e-01
1.231078855000000027e+00,-1.109460918999999990e+00,9.378468472619243546e-01,1.000000000000000048e-04,4.407630162363876281e+01,2.300000000000000100e-01
2.350025410999999842e+00,-1.078254897999999962e+00,6.541285575396007523e-01,1.000000000000000048e-04,4.336942605893379010e+01,2.300000000000000100e-01
2.889344674999999807e+00,-1.054064458000000037e+00,7.915910508808814416e-01,1.000000000000000048e-04,4.363989579582767675e+01,3.200000000000000067e-01
1.260972444000000081e+00,-1.102168519999999985e+00,2.851195025463488797e-01,1.000000000000000048e-04,4.081777105129344818e+01,2.899999999999999800e-01
3.138597202000000141e+00,-1.049455424000000026e+00,8.412647711145078144e-01,1.000000000000000048e-04,4.436821803207640613e+01,2.600000000000000089e-01
1.280173519000000093e+00,-1.106045986000000036e+00,6.848998699561303916e-01,1.000000000000000048e-04,4.264950624659110190e+01,2.899999999999999800e-01
3.140421104000000074e+00,-1.048273016000000002e+00,7.157277737294898134e-01,1.000000000000000048e-04,4.391929254198724664e+01,2.700000000000000178e-01
2.887571490000000018e+00,-1.060290981000000077e+00,5.819602836789803391e-01,1.000000000000000048e-04,4.302268412447482859e+01,2.300000000000000100e-01
3.117377486000000086e+00,-1.048849812999999909e+00,2.279917730740494974e-01,1.000000000000000048e-04,3.992585797634344402e+01,2.800000000000000266e-01
3.139331405000000075e+00,-1.045946368000000071e+00,4.493986448694968772e-01,1.000000000000000048e-04,4.207231038985595006e+01,2.300000000000000100e-01
2.901812189000000153e+00,-1.070407117000000019e+00,5.210264032019520375e-01,1.000000000000000048e-04,4.254616698162653421e+01,2.200000000000000011e-01
2.874698792999999863e+00,-1.069280417999999955e+00,4.701362476173658322e-01,1.000000000000000048e-04,4.203387410855298612e+01,2.200000000000000011e-01
3.126790450000000110e+00,-1.053686536000000062e+00,3.863267889340824546e-01,1.000000000000000048e-04,4.171606250928765292e+01,2.099999999999999922e-01
1.253234667999999941e+00,-1.096167120000000050e+00,6.929653818456722458e-01,1.000000000000000048e-04,4.340370071821002540e+01,2.200000000000000011e-01
1.242189800000000011e+00,-1.095888138000000067e+00,3.342117103486859087e-01,1.000000000000000048e-04,4.149985673967275801e+01,2.899999999999999800e-01
2.358704259000000025e+00,-1.096119858000000002e+00,1.958072062448201756e-01,1.000000000000000048e-04,3.999404849784186666e+01,2.099999999999999922e-01
3.090657074000000115e+00,-1.046905049999999893e+00,2.889463580029640877e-01,1.000000000000000048e-04,4.056381220626413864e+01,2.300000000000000100e-01
2.350320292999999783e+00,-1.077642637000000070e+00,7.378373573690508724e-01,1.000000000000000048e-04,4.350323024391196469e+01,3.300000000000000155e-01
3.120911620999999858e+00,-1.047605429999999949e+00,4.804783932536711433e-01,1.000000000000000048e-04,4.228758770656812516e+01,2.899999999999999800e-01
2.310418793000000193e+00,-1.091478047999999923e+00,3.245623458599726785e-01,1.000000000000000048e-04,4.090674272710130310e+01,3.300000000000000155e-01
2.888242410000000149e+00,-1.055260810999999910e+00,3.787312230886117348e-01,1.000000000000000048e-04,4.120760557317971262e+01,2.999999999999999889e-01
2.313880778000000138e+00,-1.089056457000000089e+00,6.996569563317240892e-01,1.000000000000000048e-04,4.329143015833552965e+01,2.600000000000000089e-01
3.096505394999999883e+00,-1.050897790999999915e+00,3.242361035699199423e-01,1.000000000000000048e-04,4.132976813677967698e+01,3.300000000000000155e-01
1.264206060000000020e+00,-1.108314516000000083e+00,7.282543430635721737e-01,1.000000000000000048e-04,4.361348928074368558e+01,2.500000000000000000e-01
2.317080779999999951e+00,-1.080569537999999996e+00,9.902920292847707806e-01,1.000000000000000048e-04,4.421474161732167119e+01,2.399999999999999911e-01
2.308161032000000112e+00,-1.080284865999999955e+00,2.252809474892070174e-01,1.000000000000000048e-04,4.052677693050721075e+01,3.900000000000000133e-01
1.213089824000000094e+00,-1.095999417000000031e+00,6.740870974213142297e-01,1.000000000000000048e-04,4.347554637169720593e+01,2.700000000000000178e-01
3.095344697999999894e+00,-1.044259242999999948e+00,9.681991850075886141e-01,1.000000000000000048e-04,4.403675252522985062e+01,2.200000000000000011e-01
3.093500166000000107e+00,-1.047656949999999920e+00,4.689406565640668045e-01,1.000000000000000048e-04,4.262161561554452760e+01,2.300000000000000100e-01
2.871266652000000086e+00,-1.064917746999999970e+00,3.554788378036539687e-01,1.000000000000000048e-04,4.110598353747702305e+01,2.500000000000000000e-01
2.872879009000000039e+00,-1.076645507999999918e+00,2.395913225642984923e-01,1.000000000000000048e-04,4.069502901450707100e+01,2.099999999999999922e-01
1.241294699000000001e+00,-1.109043570000000090e+00,8.008481677103209684e-01,1.000000000000000048e-04,4.344352319113279748e+01,2.099999999999999922e-01
1.238788393000000099e+00,-1.083197141000000085e+00,8.257271818195508484e-01,1.000000000000000048e-04,4.287848730131817376e+01,2.999999999999999889e-01
-3.140928712179586135e+00,-1.049943351000000025e+00,3.363563133172364772e-01,1.000000000000000048e-04,4.142740792680407935e+01,2.200000000000000011e-01
2.897074545000000168e+00,-1.050668165000000043e+00,3.774353480000747219e-01,1.000000000000000048e-04,4.169921497248732578e+01,2.099999999999999922e-01
3.133488720999999977e+00,-1.053899826000000095e+00,8.667751976890603061e-01,1.000000000000000048e-04,4.353915144867927722e+01,2.300000000000000100e-01
2.854965548000000020e+00,-1.051119023000000041e+00,1.281478380864299549e+00,1.000000000000000048e-04,4.473398864397501740e+01,3.200000000000000067e-01
2.846666281000000076e+00,-1.061494909000000098e+00,2.506285051425929389e-01,1.000000000000000048e-04,4.083252400604970944e+01,2.600000000000000089e-01
1.477625364000000108e+00,-9.892628350000000070e-01,3.846754699787640064e-01,1.000000000000000048e-04,4.157921419604193858e+01,2.000000000000000111e-01
-2.998301261179586064e+00,-5.567642400000000213e-01,7.764584122027820001e-01,1.000000000000000048e-04,4.333115176589272721e+01,1.799999999999999933e-01
2.915910107000000195e+00,-9.248875840000000403e-01,4.758354723689059984e-01,1.000000000000000048e-04,4.251372450639033218e+01,2.999999999999999889e-01
2.904218159000000021e+00,-9.279150130000000107e-01,3.077754326588395539e-01,1.000000000000000048e-04,4.100964437026203058e+01,2.399999999999999911e-01
2.945746643000000109e+00,-9.241091030000000428e-01,8.032138445579701802e-01,1.000000000000000048e-04,4.337227693808906537e+01,2.300000000000000100e-01
2.195221751000000054e+00,9.567984520000000215e-01,9.028412278179216433e-01,1.000000000000000048e-04,4.363056150720812809e+01,2.200000000000000011e-01
-2.382074272179586227e+00,-9.504311730000000180e-01,1.369954279472578307e-01,1.000000000000000048e-04,3.920538152082193051e+01,2.300000000000000100e-01
2.197803225999999999e+00,9.560313849999999558e-01,5.621355092384368035e-01,1.000000000000000048e-04,4.238434194760823459e+01,2.300000000000000100e-01
-2.380846050179586282e+00,-9.512843520000000552e-01,1.221918227774321242e-01,1.000000000000000048e-04,3.902582079771011792e+01,2.600000000000000089e-01
-2.382960995179586039e+00,-9.501026420000000527e-01,2.789218953551377833e-01,1.000000000000000048e-04,4.073419576993394031e+01,2.099999999999999922e-01
2.192165822000000208e+00,9.554729659999999791e-01,1.589962914821296813e-01,1.000000000000000048e-04,3.951569409675020950e+01,2.899999999999999800e-01
-2.383512939179586176e+00,-9.505219620000000535e-01,1.914434547733574465e-01,1.000000000000000048e-04,3.982275235920061363e+01,2.000000000000000111e-01
2.197044292000000176e+00,9.582492320000000063e-01,2.472775252388128564e-01,1.000000000000000048e-04,4.086337492771482971e+01,2.500000000000000000e-01
2.198013217999999824e+00,9.570721989999999568e-01,1.565807338060021259e-01,1.000000000000000048e-04,3.952935258431615040e+01,2.099999999999999922e-01
2.198391541999999976e+00,9.561199929999999458e-01,1.611529193334544363e-01,1.000000000000000048e-04,3.907260174781237794e+01,2.300000000000000100e-01
2.199218732999999926e+00,9.570277640000000030e-01,3.171477789151140314e-01,1.000000000000000048e-04,4.070441169024337569e+01,2.200000000000000011e-01
2.196667974999999995e+00,9.569524729999999701e-01,3.487451722746046645e-01,1.000000000000000048e-04,4.138059753062559309e+01,2.399999999999999911e-01
2.196400267000000017e+00,9.571105250000000453e-01,1.216116594217162117e+00,1.000000000000000048e-04,4.462194179643037018e+01,2.500000000000000000e-01
2.195980999000000100e+00,9.563170869999999546e-01,3.358768015704567400e-01,1.000000000000000048e-04,4.125661495096991160e+01,2.200000000000000011e-01
2.198886345000000020e+00,9.574225640000000315e-01,3.423594300143344427e-01,1.000000000000000048e-04,4.120425654473230281e+01,3.300000000000000155e-01
-2.382942164179586264e+00,-9.487821469999999646e-01,3.591061407907656378e-01,1.000000000000000048e-04,4.143040212204648043e+01,2.000000000000000111e-01
2.197058621000000045e+00,9.568337070000000333e-01,3.628897789069038815e-01,1.000000000000000048e-04,4.118603214339069041e+01,2.600000000000000089e-01
2.196754174000000059e+00,9.569828230000000380e-01,5.683401502829814600e-01,1.000000000000000048e-04,4.245860972500873487e+01,2.399999999999999911e-01
-2.381905888179586039e+00,-9.494029419999999719e-01,5.328884489832634852e-01,1.000000000000000048e-04,4.259832123710141616e+01,2.399999999999999911e-01
-2.382353656179586388e+00,-9.501919130000000546e-01,4.193364085286774845e-01,1.000000000000000048e-04,4.163530605532310602e+01,2.600000000000000089e-01
-2.385313647179586383e+00,-9.492824659999999914e-01,2.069490719203035400e-01,1.000000000000000048e-04,4.038631482207625112e+01,2.399999999999999911e-01
-2.383308463179586223e+00,-9.502672559999999491e-01,1.188280360387631518e+00,1.000000000000000048e-04,4.476385358973570305e+01,2.000000000000000111e-01
2.194446376000000143e+00,9.548028840000000184e-01,3.530581647714088334e-01,1.000000000000000048e-04,4.197284362783183553e+01,3.699999999999999956e-01
-2.377678389179586294e+00,-9.493284189999999789e-01,1.668232545636036956e-01,1.000000000000000048e-04,3.967261681016048414e+01,3.099999999999999978e-01
2.195048706000000127e+00,9.553664520000000326e-01,1.446470356587956640e-01,1.000000000000000048e-04,3.934680938221708146e+01,2.399999999999999911e-01
2.194988459000000169e+00,9.569281090000000267e-01,2.370521140117078929e-01,1.000000000000000048e-04,4.059370259943310089e+01,2.099999999999999922e-01
2.198773670000000013e+00,9.585742720000000050e-01,1.549770857420333936e-01,1.000000000000000048e-04,3.905820748194576453e+01,2.800000000000000266e-01
2.196007632000000154e+00,9.574002940000000406e-01,6.397943647067378947e-01,1.000000000000000048e-04,4.284903831625936732e+01,2.800000000000000266e-01
2.193610842000000005e+00,9.569156829999999614e-01,5.006112900140922140e-01,1.000000000000000048e-04,4.181490454946163737e+01,2.099999999999999922e-01
2.194846306000000080e+00,9.574700699999999509e-01,4.512828635601742189e-01,1.000000000000000048e-04,4.230190214265927295e+01,2.300000000000000100e-01
-2.901318991795864832e-01,1.086903570000000041e+00,2.890840905899263458e-01,1.000000000000000048e-04,4.086061236232907135e+01,2.000000000000000111e-01
-2.914486071795865385e-01,1.085909494999999891e+00,2.126919148809731652e-01,1.000000000000000048e-04,4.000342567286774198e+01,1.000000000000000056e-01
-2.954610881795858290e-01,1.084462065999999947e+00,1.433924642565485019e-01,1.000000000000000048e-04,3.914141988362842284e+01,1.199999999999999956e-01
-3.403197011795864313e-01,1.090760651000000081e+00,2.090012064993009844e-01,1.000000000000000048e-04,4.011488774313490069e+01,8.999999999999999667e-02
-3.429455761795860980e-01,1.087892671000000089e+00,1.160286011727797995e+00,1.000000000000000048e-04,4.463452040101815754e+01,1.400000000000000133e-01
6.896152909999999636e-01,-9.249195220000000495e-01,3.273503043425998182e-01,1.000000000000000048e-04,4.112833507503742680e+01,2.000000000000000111e-01
1.024453132999999960e+00,1.182715689999999986e+00,2.603829624808571275e-01,1.000000000000000048e-04,4.035700736598808192e+01,1.900000000000000022e-01
1.006083177000000051e+00,1.165244638999999971e+00,2.409080274403343491e-01,1.000000000000000048e-04,4.055321751703692712e+01,1.700000000000000122e-01
9.905969959999999519e-01,1.153001898999999941e+00,6.778052138190213682e-01,1.000000000000000048e-04,4.288070769764294710e+01,3.499999999999999778e-01
2.950804928999999799e+00,-1.010655210999999998e+00,2.599445732758667305e-01,1.000000000000000048e-04,4.066357358641671027e+01,1.700000000000000122e-01
2.951637304000000128e+00,-1.010683065999999908e+00,1.881825306622555427e-01,1.000000000000000048e-04,3.981679791699691862e+01,1.900000000000000022e-01
-2.349248843179586377e+00,-9.322901449999999590e-01,3.060087903111794461e-01,1.000000000000000048e-04,4.096950851930627380e+01,1.900000000000000022e-01
