-2.024793577446710735e+00,2.170461581144342844e-01,1.301643648054926494e-01,1.000000000000000048e-04,3.876508384825159936e+01,1.700000000000000122e-01
2.077082457950955252e+00,5.010332903411680583e-01,7.462111391703458718e-01,1.000000000000000048e-04,4.323752717099326048e+01,1.600000000000000033e-01
-2.182000631204223495e+00,-3.888362793348654201e-02,1.064172348191965156e+00,1.000000000000000048e-04,4.417875686293062643e+01,1.600000000000000033e-01
-2.749696630978803125e+00,-3.302810823184971767e-01,7.870436359268444537e-01,1.000000000000000048e-04,4.336288583852228129e+01,1.600000000000000033e-01
-6.633619080540325008e-01,-7.181737887599959347e-01,3.154491523210682935e-01,1.000000000000000048e-04,4.082391582804634567e+01,1.900000000000000022e-01
-6.982096470911751673e-01,4.093542919312618267e-01,1.335635562978456647e-01,1.000000000000000048e-04,3.882028225075629280e+01,1.600000000000000033e-01
-1.959691367297376807e+00,1.221227766823076877e+00,5.895042237080949654e-01,1.000000000000000048e-04,4.281201549771724757e+01,1.700000000000000122e-01
2.338266350295102214e+00,5.895241374055215644e-02,3.473448566006962501e-01,1.000000000000000048e-04,4.144936613058361985e+01,1.600000000000000033e-01
-1.107893307402854077e+00,1.264221113165471255e+00,1.877770002449643538e-01,1.000000000000000048e-04,3.977076063701736075e+01,1.600000000000000033e-01
1.052157534071572975e+00,-1.076715219619234887e+00,1.471254214472541566e-01,1.000000000000000048e-04,3.935478493592630400e+01,2.200000000000000011e-01
5.025973815730759853e-01,5.417947371016125224e-01,3.150174444918814043e-01,1.000000000000000048e-04,4.114944054632165660e+01,8.999999999999999667e-02
6.790627404317959304e-01,1.028490594731159558e+00,7.174427102120404243e-01,1.000000000000000048e-04,4.339390367048634545e+01,8.000000000000000167e-02
1.383324168914541907e+00,2.224743799937232147e-01,1.193501284987887878e-01,1.000000000000000048e-04,3.884211162135855488e+01,1.100000000000000006e-01
-2.609836831464825924e+00,-7.445300070922054037e-01,4.338646415162816794e-01,1.000000000000000048e-04,4.172661845388737589e+01,1.600000000000000033e-01
2.887790451230832112e+00,4.585880564087574385e-02,7.883424876455837893e-01,1.000000000000000048e-04,4.349856327498493869e+01,1.300000000000000044e-01
2.730169629490504235e+00,8.923982257222906611e-02,5.928087612124479655e-01,1.000000000000000048e-04,4.285496605264082604e+01,8.999999999999999667e-02
-1.778541734584562661e+00,-1.628771732836886699e-02,3.864404207578520101e-01,1.000000000000000048e-04,4.172670880609072697e+01,2.099999999999999922e-01
4.030394981632197116e-01,3.150986925512664349e-01,3.722604631118267005e-01,1.000000000000000048e-04,4.151751956683757783e+01,1.799999999999999933e-01
-1.041895274424280871e+00,-3.389712915897395984e-01,3.614709044572130825e-01,1.000000000000000048e-04,4.164547733672976193e+01,1.600000000000000033e-01
1.248239089709756833e+00,-5.292824379572491633e-01,8.891349696135271152e-01,1.000000000000000048e-04,4.410870688525247374e+01,1.799999999999999933e-01
2.422108451994237299e+00,5.646818520504277572e-01,2.227284858010885049e-01,1.000000000000000048e-04,4.021543754466744502e+01,1.600000000000000033e-01
-2.392584554617197767e+00,-1.972050566707979069e-01,8.901891722511008354e-01,1.000000000000000048e-04,4.384873008290650631e+01,2.000000000000000111e-01
8.304120114875352954e-01,8.989352581521803387e-01,3.244470961350840454e-01,1.000000000000000048e-04,4.095053104772312480e+01,1.700000000000000122e-01
2.648805741418817306e+00,-7.247932431996076952e-01,5.351951917384947244e-01,1.000000000000000048e-04,4.243675390135953762e+01,1.700000000000000122e-01
-2.440830401847813746e+00,8.790945181062093106e-02,7.938606838931410170e-01,1.000000000000000048e-04,4.364921339668631362e+01,1.700000000000000122e-01
-7.056696188357345356e-01,1.497372043882534420e-01,3.454195927472074601e-01,1.000000000000000048e-04,4.110502085983572584e+01,2.000000000000000111e-01
3.601537146073221507e-01,-1.110381086068497947e+00,7.230467069801618241e-01,1.000000000000000048e-04,4.349097756134910497e+01,1.900000000000000022e-01
1.167812264648911302e+00,-1.144485822492240512e-01,3.984870649497307404e-01,1.000000000000000048e-04,4.173034160674112769e+01,1.700000000000000122e-01
-1.758929777592816102e+00,7.517752418582319685e-01,1.732222981511020166e-01,1.000000000000000048e-04,3.961226285026108229e+01,1.000000000000000056e-01
-2.674505804628114713e+00,9.734650296312152840e-01,8.807148732818144143e-01,1.000000000000000048e-04,4.386621624117556451e+01,1.000000000000000056e-01
1.317213801445821453e+00,-8.988155206405215036e-01,5.221590437897811743e-01,1.000000000000000048e-04,4.243897107770761323e+01,1.100000000000000006e-01
-2.048792495011251269e+00,-1.233711279132458927e-01,6.792907591148780178e-01,1.000000000000000048e-04,4.325196868134067074e+01,1.199999999999999956e-01
-1.964336581512380553e+00,-2.368283599143106155e-01,2.712575503371006391e-01,1.000000000000000048e-04,4.083524898435881312e+01,1.300000000000000044e-01
2.447316642256812891e+00,1.098557203168048169e+00,3.820962473258844305e-01,1.000000000000000048e-04,4.149480267662490718e+01,1.199999999999999956e-01
-7.733943927835973398e-01,1.298510171345608644e+00,1.950476814151351768e-01,1.000000000000000048e-04,4.007760508237779362e+01,1.499999999999999944e-01
2.315075089698544808e+00,-6.780392673809484405e-01,6.067273387302232202e-01,1.000000000000000048e-04,4.267684834136419170e+01,2.200000000000000011e-01
1.157399421623471980e+00,4.886434594969935041e-02,1.379613277831617246e-01,1.000000000000000048e-04,3.907629238597526466e+01,1.199999999999999956e-01
2.418529434108262599e+00,-6.052574095249293462e-01,4.580905386651059619e-01,1.000000000000000048e-04,4.222735417848243600e+01,1.600000000000000033e-01
5.378247076885309674e-01,-5.453488733640108332e-01,4.954869432824762221e-01,1.000000000000000048e-04,4.261916448009660030e+01,2.200000000000000011e-01
6.845204644198270572e-01,-8.873523741056394964e-01,6.332930481265264255e-01,1.000000000000000048e-04,4.277230258000322749e+01,2.200000000000000011e-01
-2.137415910115522344e+00,-9.876333660341867215e-01,7.889026120797888453e-01,1.000000000000000048e-04,4.337841180730975310e+01,1.300000000000000044e-01
1.867658472742452780e-01,3.584733884492008471e-02,4.612651547424042597e-01,1.000000000000000048e-04,4.212182823688847577e+01,1.600000000000000033e-01
2.423954445348978304e+00,-7.535421355118621101e-02,4.533173932442366993e-01,1.000000000000000048e-04,4.221418187438860059e+01,2.099999999999999922e-01
7.191268703218622882e-01,-5.062544576967269450e-01,1.850108949152788895e-01,1.000000000000000048e-04,3.910491518999125304e+01,2.000000000000000111e-01
2.193366608722022271e+00,-4.454425688626035829e-01,2.326862244633152166e-01,1.000000000000000048e-04,4.038052377114005509e+01,2.000000000000000111e-01
1.142001278191664859e+00,-1.299636821457735625e+00,6.449452190334128421e-01,1.000000000000000048e-04,4.244711858716394204e+01,2.500000000000000000e-01
2.317951507505801700e+00,3.831760749362442819e-01,5.101418064574485545e-01,1.000000000000000048e-04,4.248678882843471882e+01,2.200000000000000011e-01
1.687898466812280063e+00,-8.105794231519590776e-01,2.379171417548473499e-01,1.000000000000000048e-04,4.033227352020225709e+01,1.199999999999999956e-01
-2.417583962291752986e+00,9.180409356751670913e-01,2.059713732709016476e-01,1.000000000000000048e-04,4.010695475752783778e+01,1.400000000000000133e-01
2.293109245502356508e+00,5.970679227836788172e-01,1.079555992976994006e+00,1.000000000000000048e-04,4.420724497910396877e+01,1.400000000000000133e-01
2.680966966581630473e-01,-1.228683118617319714e-01,4.965760048702052565e-01,1.000000000000000048e-04,4.208532643639821913e+01,1.100000000000000006e-01
-1.916441905541330648e+00,-1.212787307330168929e+00,4.982667983651842825e-01,1.000000000000000048e-04,4.225204300504520205e+01,1.199999999999999956e-01
-1.177472769017288146e+00,-3.827218808191288346e-01,2.100879632752787884e-01,1.000000000000000048e-04,3.992187122802047128e+01,2.000000000000000111e-01
-1.117762929089528789e+00,-1.163611296510899340e+00,5.142928709282910127e-01,1.000000000000000048e-04,4.238790478713119825e+01,1.199999999999999956e-01
6.284262440172585507e-01,-4.480947553877336897e-01,5.807882813634330788e-01,1.000000000000000048e-04,4.269151161460585087e+01,1.499999999999999944e-01
8.152482806178791286e-01,-9.444157540223553360e-01,1.687308179228694804e-01,1.000000000000000048e-04,3.962080259092584100e+01,1.499999999999999944e-01
1.062271792524516201e+00,8.800978132201029425e-01,7.305561825043591639e-01,1.000000000000000048e-04,4.337931148542330106e+01,1.100000000000000006e-01
-3.092985363696798995e+00,-8.270703533536616359e-01,1.350858298716144379e-01,1.000000000000000048e-04,3.900524352034850040e+01,1.199999999999999956e-01
2.837345030184892813e+00,-3.978159208695797311e-02,6.775191231148434134e-01,1.000000000000000048e-04,4.317689425497918165e+01,1.300000000000000044e-01
-1.430435883407810138e-02,1.396333439357713146e+00,1.387855253467946692e-01,1.000000000000000048e-04,3.904901124472208807e+01,1.300000000000000044e-01
-6.501361576165698430e-01,-8.802208275175240626e-01,5.893548327946180887e-01,1.000000000000000048e-04,4.272526195338074473e+01,1.100000000000000006e-01
-2.920012916400573033e+00,5.238176576927529027e-01,4.358052280247362020e-01,1.000000000000000048e-04,4.185518823629673335e+01,1.600000000000000033e-01
-1.323152651327347495e+00,8.542058294890413350e-01,2.929119469733381109e-01,1.000000000000000048e-04,4.097275029681631509e+01,1.199999999999999956e-01
-4.519123726891112192e-01,-9.036332852427374496e-01,6.461999861752747432e-01,1.000000000000000048e-04,4.297172783360831971e+01,1.300000000000000044e-01
1.363799978643334576e+00,-2.918597982392288070e-01,1.770609679696963923e-01,1.000000000000000048e-04,3.960755877049260931e+01,1.199999999999999956e-01
-2.384920648131700460e+00,-2.404869697966938169e-02,2.610135125134638301e-01,1.000000000000000048e-04,4.065301548083591854e+01,1.700000000000000122e-01
2.142822113507902415e+00,-1.092002600192424566e+00,3.681888940591497850e-01,1.000000000000000048e-04,4.130751125533551971e+01,1.100000000000000006e-01
1.127475011964071960e+00,1.277947453783664589e+00,1.370412683208181992e-01,1.000000000000000048e-04,3.908858182479662702e+01,1.100000000000000006e-01
3.105745391965672120e+00,-1.056122717832514546e+00,3.065726413616423063e-01,1.000000000000000048e-04,4.091878049741070100e+01,1.199999999999999956e-01
2.416570507743916352e+00,5.876367778803310848e-01,1.483094438037586560e-01,1.000000000000000048e-04,3.922876459147279604e+01,1.499999999999999944e-01
-1.367520414464571177e+00,1.152205822087792875e-02,5.714273426097136177e-01,1.000000000000000048e-04,4.284105744811277106e+01,1.199999999999999956e-01
2.793840843666319351e+00,1.028407622984453873e+00,7.867474877229030383e-01,1.000000000000000048e-04,4.344944153560921762e+01,1.400000000000000133e-01
1.439128662658764490e+00,6.385519882858314844e-01,3.829084893053633643e-01,1.000000000000000048e-04,4.165682170867648182e+01,1.199999999999999956e-01
2.850158240187613323e+00,6.087130233800444046e-01,4.154915474649105711e-01,1.000000000000000048e-04,4.170733280024904133e+01,1.100000000000000006e-01
-2.205287697177604755e+00,1.110240223804148219e+00,3.420279821636027506e-01,1.000000000000000048e-04,4.117050600386927073e+01,1.100000000000000006e-01
6.383105205466228504e-01,-8.667681091727549303e-01,2.122405265806879271e-01,1.000000000000000048e-04,4.005219320693646523e+01,1.300000000000000044e-01
-6.187125152564725283e-01,-1.590728444207047954e-01,1.630523763293636463e-01,1.000000000000000048e-04,3.942327742737628427e+01,1.400000000000000133e-01
3.047596343312843459e+00,2.010886166458871749e-01,2.285826609375016805e-01,1.000000000000000048e-04,4.032270513505892495e+01,1.199999999999999956e-01
4.511731063143535891e-01,1.325735524463854897e+00,2.198820676656745299e-01,1.000000000000000048e-04,4.037123996595510533e+01,1.100000000000000006e-01
2.330101230093384324e-01,-9.637647974538833262e-01,3.285663239534168945e-01,1.000000000000000048e-04,4.142288806495979259e+01,1.199999999999999956e-01
-2.475348655702268363e+00,1.149757214655466875e-02,3.252290897938585612e-01,1.000000000000000048e-04,4.129577787729199656e+01,1.199999999999999956e-01
-3.067696758683410518e+00,4.922117355950019757e-01,1.278804837987676635e+00,1.000000000000000048e-04,4.475286031243041407e+01,1.300000000000000044e-01
1.565660810748295440e+00,-6.510026785990487008e-01,3.835996441674007773e-01,1.000000000000000048e-04,4.146061981111632377e+01,1.199999999999999956e-01
1.749098372883939767e+00,1.244782029917445687e+00,2.810526389090561850e-01,1.000000000000000048e-04,4.079437399217884064e+01,1.100000000000000006e-01
1.416399534657656112e+00,-8.927476577590062190e-01,6.805874336975485939e-01,1.000000000000000048e-04,4.313955465237306441e+01,1.199999999999999956e-01
-2.755594570422646328e+00,1.056563485775348532e+00,5.875527685076655793e-01,1.000000000000000048e-04,4.279990764717746998e+01,1.700000000000000122e-01
1.641598008027309596e-01,9.000172614407246918e-01,8.394978969982158645e-01,1.000000000000000048e-04,4.353649412072049074e+01,1.400000000000000133e-01
1.034237355309050699e+00,-3.506565033662079056e-01,1.892773580094144759e-01,1.000000000000000048e-04,3.965130277191104113e+01,1.199999999999999956e-01
-1.735189839210012686e+00,8.242273298270181847e-01,4.872870410328764557e-01,1.000000000000000048e-04,4.208226603626597750e+01,1.600000000000000033e-01
1.542874735480864068e+00,4.439594018975387968e-01,2.618950772926480486e-01,1.000000000000000048e-04,4.049621634088326516e+01,1.700000000000000122e-01
-8.287484315858923978e-01,7.413997662558520219e-01,2.306959996579576178e-01,1.000000000000000048e-04,4.037080490753739781e+01,1.499999999999999944e-01
-2.785632185384643300e-01,-8.187379559744822899e-02,4.375884649827532780e-01,1.000000000000000048e-04,4.196734802862895464e+01,1.100000000000000006e-01
1.509781048315878671e+00,8.931066681309411948e-01,7.272839559517660923e-01,1.000000000000000048e-04,4.322497690233696233e+01,2.000000000000000111e-01
-1.173247640668963365e+00,-1.869548901192665813e-01,4.047421560605954927e-01,1.000000000000000048e-04,4.198177768824600520e+01,1.300000000000000044e-01
-2.937042236682680940e+00,6.451798106353567874e-01,1.190832387675313964e+00,1.000000000000000048e-04,4.458952592660509140e+01,1.499999999999999944e-01
2.728800707551441995e+00,-2.171587889108426150e-01,5.170448845865152077e-01,1.000000000000000048e-04,4.250842509921638879e+01,1.100000000000000006e-01
-1.855443355297399233e+00,-8.609567856635708116e-01,2.595604431430009740e-01,1.000000000000000048e-04,4.060772624605422010e+01,1.199999999999999956e-01
-8.520105082641014071e-01,-2.879800394736988789e-01,1.981851625258435057e-01,1.000000000000000048e-04,4.007007316084305160e+01,1.100000000000000006e-01
-1.285340434509956609e+00,8.318818479675607058e-01,9.890474788128922334e-01,1.000000000000000048e-04,4.430877939348618355e+01,1.100000000000000006e-01
2.541796338977184710e-01,-4.755583160697038902e-01,3.468284768712104338e-01,1.000000000000000048e-04,4.161227482634498642e+01,2.099999999999999922e-01
6.301903063622646961e-01,2.069134313543845582e-01,1.535064556673544356e-01,1.000000000000000048e-04,3.941078151700649101e+01,1.199999999999999956e-01
-8.612705726282738894e-01,-3.875534001174931742e-01,8.976939058555086781e-01,1.000000000000000048e-04,4.388029475861422668e+01,1.199999999999999956e-01
-1.860985373313708502e+00,5.211884664256176691e-01,6.218260918726530306e-01,1.000000000000000048e-04,4.289948913827030452e+01,1.199999999999999956e-01
1.647465669138242106e+00,3.508442332828942689e-01,6.983171967195775931e-01,1.000000000000000048e-04,4.319625436567116594e+01,1.700000000000000122e-01
-8.284786001643769104e-01,3.166616536092503598e-01,1.329227829940443417e+00,1.000000000000000048e-04,4.492149915833650198e+01,1.100000000000000006e-01
4.157412306116401446e-01,-1.375330617843100178e-01,5.246644720321484989e-01,1.000000000000000048e-04,4.237576901488831282e+01,2.099999999999999922e-01
-2.356793934498710996e+00,-7.459049574271462424e-01,2.743688037067832930e-01,1.000000000000000048e-04,4.097811008030284796e+01,1.300000000000000044e-01
1.589555604403995126e+00,5.008743575990126651e-01,4.730800713288272341e-01,1.000000000000000048e-04,4.208886705830910557e+01,1.199999999999999956e-01
3.780326244328549024e-01,3.959671771796993145e-01,8.268387036704569759e-01,1.000000000000000048e-04,4.373601673995924699e+01,1.300000000000000044e-01
-2.367554026089391250e+00,-1.456510612779948755e-01,4.009217148091823724e-01,1.000000000000000048e-04,4.178740285629022111e+01,1.799999999999999933e-01
-1.029591813925121002e+00,-1.056588203853896513e+00,1.930103973504102566e-01,1.000000000000000048e-04,3.975859257845267081e+01,1.199999999999999956e-01
-2.930328600832360575e+00,8.719301974275901479e-01,1.565509728713729842e-01,1.000000000000000048e-04,3.942212675178276982e+01,1.199999999999999956e-01
9.766798555850408903e-01,-8.471121620356811821e-01,1.951158716590000175e-01,1.000000000000000048e-04,3.997720174794113746e+01,1.900000000000000022e-01
-7.901640855762441795e-01,-3.521044066944583051e-01,4.608618600781753116e-01,1.000000000000000048e-04,4.194244157264498796e+01,1.300000000000000044e-01
1.148148815562542779e+00,1.058328943214792428e+00,1.119746907868570673e+00,1.000000000000000048e-04,4.470664580830426615e+01,1.499999999999999944e-01
3.549002506365557252e-01,1.963879971962256832e-02,6.292366640369166930e-01,1.000000000000000048e-04,4.286792062409302417e+01,1.499999999999999944e-01
-2.560671268795753353e+00,-8.732812816644405229e-01,6.000937650026361148e-01,1.000000000000000048e-04,4.283503053718654741e+01,1.400000000000000133e-01
3.119087029582671811e+00,-1.065160691434521079e+00,2.381056836970134594e-01,1.000000000000000048e-04,4.072366137851523860e+01,1.400000000000000133e-01
-1.476732141660956898e-01,-4.113521546954519437e-01,1.019148306632652101e+00,1.000000000000000048e-04,4.412237531730208673e+01,1.199999999999999956e-01
-7.985383661876745975e-01,-5.724651719662944283e-01,3.502408607212106340e-01,1.000000000000000048e-04,4.139852380397272213e+01,1.199999999999999956e-01
-1.818050039446497568e+00,-7.994248127097063339e-01,2.211496038415148302e-01,1.000000000000000048e-04,4.021473671581281906e+01,1.100000000000000006e-01
-2.821744113870936932e+00,6.096659327612590218e-01,1.760631026705803404e-01,1.000000000000000048e-04,3.953677322931566351e+01,1.100000000000000006e-01
1.658129269091643820e+00,-9.577320737741011891e-01,4.973904197796841231e-01,1.000000000000000048e-04,4.236845647039039875e+01,1.400000000000000133e-01
2.037058465342221680e+00,5.502885178043337433e-01,2.439035511218035079e-01,1.000000000000000048e-04,4.050093962980250950e+01,1.499999999999999944e-01
1.271882484737091978e+00,-6.063440420746539772e-01,3.395861987986281694e-01,1.000000000000000048e-04,4.127290675416168853e+01,1.199999999999999956e-01
2.301297738789060965e+00,-6.440145283116106567e-01,1.313869720120802054e+00,1.000000000000000048e-04,4.530547552428303959e+01,2.099999999999999922e-01
3.069362688614753587e+00,3.722181586692248079e-01,2.442810542499085358e-01,1.000000000000000048e-04,4.062710801293181362e+01,1.300000000000000044e-01
8.344326023501711376e-01,7.531620690644973415e-01,9.657112075022151743e-01,1.000000000000000048e-04,4.433216562632055968e+01,1.400000000000000133e-01
-3.435449373923060712e-01,6.460558594752203732e-01,2.549655142878142211e-01,1.000000000000000048e-04,4.065159702990074919e+01,1.199999999999999956e-01
-2.944722688222011442e+00,2.248189852295485736e-01,4.849518663530563156e-01,1.000000000000000048e-04,4.207401642624684968e+01,1.199999999999999956e-01
-2.754812054371446717e+00,1.237661930042531999e+00,2.822116476577627431e-01,1.000000000000000048e-04,4.091958693013238246e+01,1.100000000000000006e-01
1.677480938455513382e+00,-1.791159186408071147e-01,1.969747353985256133e-01,1.000000000000000048e-04,4.001443165038232053e+01,1.300000000000000044e-01
3.036777023898558525e+00,-2.767087637065108741e-01,5.793082641015327994e-01,1.000000000000000048e-04,4.286474560361470765e+01,1.199999999999999956e-01
-1.617681506273777048e+00,1.412752194878685419e+00,1.251472104618218673e-01,1.000000000000000048e-04,3.891973416614167292e+01,1.199999999999999956e-01
2.915172177415628063e+00,7.831971124706171850e-01,5.746249443563162806e-01,1.000000000000000048e-04,4.258477907511563387e+01,1.300000000000000044e-01
-2.385553611386690420e-01,1.059040323544889528e+00,3.072056604359474363e-01,1.000000000000000048e-04,4.090637977139805059e+01,1.300000000000000044e-01
8.140450973920003719e-01,1.287929830656615593e-01,2.504060308899991316e-01,1.000000000000000048e-04,4.025853065638300876e+01,1.199999999999999956e-01
2.183748580950823026e+00,-2.468619369867177671e-01,2.200918591536953350e-01,1.000000000000000048e-04,4.041391082342189378e+01,1.199999999999999956e-01
-2.318422121642330413e+00,-1.181406609824329212e+00,3.350734101168519885e-01,1.000000000000000048e-04,4.140604835771441117e+01,1.300000000000000044e-01
8.401446461531270060e-02,-1.431031748751948163e+00,1.714093983959161793e-01,1.000000000000000048e-04,3.957416790366263371e+01,1.199999999999999956e-01
1.943341646438963899e+00,-1.090530061647338789e+00,1.227515937270758251e+00,1.000000000000000048e-04,4.449533696895100121e+01,1.199999999999999956e-01
-6.093968291777587254e-01,-3.337978629457749591e-02,5.124645082541214869e-01,1.000000000000000048e-04,4.219790844823594256e+01,1.199999999999999956e-01
2.093384655138907924e+00,-8.089986446325192482e-02,1.215780643192283517e-01,1.000000000000000048e-04,3.882464094520865672e+01,1.499999999999999944e-01
-1.069346396913369635e+00,-3.541049656387429412e-01,2.480690902291897704e-01,1.000000000000000048e-04,4.045488011092517411e+01,1.199999999999999956e-01
2.425001408608754794e+00,4.387859527846682539e-01,9.801713358783463725e-01,1.000000000000000048e-04,4.412490688906668623e+01,2.000000000000000111e-01
2.368470327073192827e+00,5.339041829624142643e-01,3.693624035667069094e-01,1.000000000000000048e-04,4.157239878481362894e+01,2.000000000000000111e-01
1.221729139208163062e+00,1.971874043400738685e-01,4.646395900869881856e-01,1.000000000000000048e-04,4.204940245809999766e+01,1.400000000000000133e-01
-1.601275241672004634e+00,-4.399787546827504947e-01,2.233264823451870384e-01,1.000000000000000048e-04,4.007776352877387893e+01,1.199999999999999956e-01
-2.251746450790510501e-01,2.019805070219016230e-02,1.853981307664578360e-01,1.000000000000000048e-04,3.976220097891634708e+01,1.300000000000000044e-01
-2.632963380797673558e+00,6.991932866342365216e-01,8.730467211004453443e-01,1.000000000000000048e-04,4.378099402840364718e+01,1.799999999999999933e-01
2.165043220435878268e+00,2.544181112593557614e-02,4.794864979186248544e-01,1.000000000000000048e-04,4.222326442503751309e+01,1.499999999999999944e-01
7.728784669726782575e-01,9.029893027569171338e-01,2.511674378329564750e-01,1.000000000000000048e-04,4.063848573681831766e+01,1.100000000000000006e-01
1.419062627246162833e+00,5.090922025775443949e-01,1.843335968555432913e-01,1.000000000000000048e-04,3.982016610748639351e+01,1.199999999999999956e-01
5.325210226203189734e-01,7.872622656315142464e-01,1.447694964276635687e-01,1.000000000000000048e-04,3.925506945064937980e+01,1.499999999999999944e-01
-2.587115210580655855e+00,1.420577843465222756e-01,1.299775590642251455e-01,1.000000000000000048e-04,3.884952494218430985e+01,1.900000000000000022e-01
-2.878318434795536174e+00,-1.589369786390550932e-01,7.824740499300093521e-01,1.000000000000000048e-04,4.346473457640848181e+01,1.799999999999999933e-01
2.937668926837306849e+00,-2.609044176592381081e-01,3.333313743528611983e-01,1.000000000000000048e-04,4.159772300808131718e+01,1.499999999999999944e-01
4.211390643475749762e-01,2.608781575960583687e-02,1.225023502225224270e-01,1.000000000000000048e-04,3.883378748069532804e+01,1.499999999999999944e-01
1.969414165942768413e+00,-1.210000566100802200e+00,4.775174325783679841e-01,1.000000000000000048e-04,4.169686268015113484e+01,3.599999999999999867e-01
2.783374924361931235e+00,1.247544581920549511e+00,5.932472973493674306e-01,1.000000000000000048e-04,4.267518236626433037e+01,3.900000000000000133e-01
-6.149744672187189565e-01,2.105015347078844634e-01,4.194695340577399012e-01,1.000000000000000048e-04,4.173951643369448306e+01,3.900000000000000133e-01
-1.027690276922049506e+00,7.608154812096792341e-01,2.887955558591606131e-01,1.000000000000000048e-04,4.116762562096873523e+01,3.099999999999999978e-01
-1.403000180430602484e-02,4.027982436716877057e-01,1.149992280001188583e+00,1.000000000000000048e-04,4.471906987111885456e+01,3.300000000000000155e-01
1.885512728252894732e+00,4.501857830541173833e-01,3.339837033789025966e-01,1.000000000000000048e-04,4.065517991186099067e+01,4.000000000000000222e-01
-2.801028444600760281e+00,7.673256193136257508e-01,1.363863183953579750e-01,1.000000000000000048e-04,3.901451787147972539e+01,3.200000000000000067e-01
1.663639282756225413e+00,-3.104459119210678519e-01,4.850930026824800123e-01,1.000000000000000048e-04,4.249689965604307673e+01,3.200000000000000067e-01
1.469484532922523456e+00,1.289436301388771522e+00,6.196796844822598516e-01,1.000000000000000048e-04,4.312378918039884468e+01,3.599999999999999867e-01
-2.723798842497839878e+00,-8.161022275245634061e-01,2.314178289170387703e-01,1.000000000000000048e-04,4.035864839254194436e+01,2.399999999999999911e-01
1.087930227257540849e+00,3.953256005549579122e-01,1.066649962460430423e+00,1.000000000000000048e-04,4.428279133802823253e+01,2.999999999999999889e-01
1.104444267465338747e+00,1.154918076601763932e+00,8.841762293501425063e-01,1.000000000000000048e-04,4.381290221737666002e+01,2.399999999999999911e-01
-2.959987343815564387e-01,3.782768216453944454e-01,2.375374189063810260e-01,1.000000000000000048e-04,4.033278187066987641e+01,2.899999999999999800e-01
-9.283410635325077820e-01,1.159246753085064530e+00,7.940229913591299038e-01,1.000000000000000048e-04,4.308664070591844819e+01,2.899999999999999800e-01
1.629379323986715811e+00,-8.487192814082968884e-01,1.252848245371119162e+00,1.000000000000000048e-04,4.505139051831351082e+01,2.899999999999999800e-01
-1.339086520522566826e+00,-2.610536149380489057e-01,1.507545312433722362e-01,1.000000000000000048e-04,3.852694012689200065e+01,3.699999999999999956e-01
-1.078989814511755796e+00,-2.094646488434077636e-01,2.870119705852887115e-01,1.000000000000000048e-04,4.145848505417285423e+01,2.300000000000000100e-01
2.154602871513411344e-01,-1.670785423183946961e-01,4.548407712520368129e-01,1.000000000000000048e-04,4.190733395792806704e+01,2.000000000000000111e-01
1.160737208525638664e+00,-1.004656354257170481e+00,4.005494927261754601e-01,1.000000000000000048e-04,4.200450514300099059e+01,3.800000000000000044e-01
2.281806619261241842e+00,6.301143641212272328e-01,1.296445951499968885e+00,1.000000000000000048e-04,4.485751452746551848e+01,2.300000000000000100e-01
-2.729999735417665274e+00,9.476347487946150672e-01,1.526018988401922627e-01,1.000000000000000048e-04,3.891603142180294839e+01,3.900000000000000133e-01
1.004548951079278218e+00,9.677735247749379432e-01,5.070663023507768763e-01,1.000000000000000048e-04,4.200680137727557195e+01,2.200000000000000011e-01
2.811745857476669386e+00,-7.462933233200064187e-02,2.923844465377771762e-01,1.000000000000000048e-04,4.091516459210946266e+01,2.399999999999999911e-01
2.138588657048389408e+00,-1.431076728453806846e+00,1.261632413184174961e-01,1.000000000000000048e-04,3.918823186994590202e+01,2.000000000000000111e-01
-1.701023069557636935e+00,-4.062533522623148485e-01,9.487090431849016792e-01,1.000000000000000048e-04,4.402751953845977795e+01,1.900000000000000022e-01
-1.031311404502259776e-01,-8.575041356861113906e-01,2.452735868054976009e-01,1.000000000000000048e-04,3.996609168584941330e+01,2.600000000000000089e-01
1.698291273744485963e+00,2.558318692097065750e-01,4.658541348882105915e-01,1.000000000000000048e-04,4.229387642366977218e+01,1.900000000000000022e-01
-2.489891938429477758e+00,-1.011099453068083687e+00,2.314970791973156583e-01,1.000000000000000048e-04,4.032272012876678957e+01,1.000000000000000056e-01
2.622179108732809460e+00,-2.178321165863656983e-01,5.210524206733959662e-01,1.000000000000000048e-04,4.248510257917501320e+01,1.400000000000000133e-01
2.824951790796073503e+00,1.331996805117656280e+00,4.842949441057611271e-01,1.000000000000000048e-04,4.231885348512960832e+01,1.900000000000000022e-01
1.856361693918620936e+00,9.081043429359825225e-01,4.691253305240850047e-01,1.000000000000000048e-04,4.198338518727754121e+01,1.499999999999999944e-01
2.052553367038905563e+00,3.559670540944326333e-01,4.106487609518274517e-01,1.000000000000000048e-04,4.158088651716427364e+01,1.900000000000000022e-01
-5.788446207578616942e-01,5.399109533077295353e-01,2.275606327141452834e-01,1.000000000000000048e-04,4.023344091081966667e+01,1.700000000000000122e-01
1.999814121250703458e+00,-7.258164367676042117e-01,1.960472847623839776e-01,1.000000000000000048e-04,3.979084938720803422e+01,1.100000000000000006e-01
-2.434752246425952116e+00,-1.187790997473712862e+00,1.717969809344788157e-01,1.000000000000000048e-04,3.985288359742028774e+01,2.000000000000000111e-01
-1.087868747594316510e+00,-3.642443086667368490e-02,4.731942038422907171e-01,1.000000000000000048e-04,4.223085481508577743e+01,1.700000000000000122e-01
2.111282871771912539e+00,4.793942519266991553e-01,7.612603319995918660e-01,1.000000000000000048e-04,4.338903817336292690e+01,1.100000000000000006e-01
2.207301910293846703e+00,-2.096907882240104382e-01,2.538392671090778929e-01,1.000000000000000048e-04,4.060518561569620033e+01,1.700000000000000122e-01
9.267745615876412657e-01,6.597639740488872029e-01,2.380549227940800261e-01,1.000000000000000048e-04,4.035032105762128651e+01,1.600000000000000033e-01
-5.691728150477963766e-01,-7.874132681551936352e-01,1.760046396999437324e-01,1.000000000000000048e-04,3.990827136369908601e+01,2.200000000000000011e-01
-2.548190934457771561e+00,-7.657899268312053920e-01,1.228322205022345237e-01,1.000000000000000048e-04,3.853599351348329805e+01,2.800000000000000266e-01
-7.535363732465087949e-01,-2.518012435158301088e-02,6.897161611331443787e-01,1.000000000000000048e-04,4.320272144438018813e+01,2.099999999999999922e-01
-9.990807998957929037e-01,2.811860404410639891e-01,1.575423882756270544e-01,1.000000000000000048e-04,3.926661395734078042e+01,2.899999999999999800e-01
-1.534830651678989799e+00,-7.836560703898149960e-01,2.734658327408852063e-01,1.000000000000000048e-04,4.080675601918918716e+01,1.400000000000000133e-01
2.938713463987738805e+00,-5.302502576768772791e-01,1.320915515380396421e-01,1.000000000000000048e-04,3.920673920406138535e+01,1.600000000000000033e-01
-1.273577260927071908e+00,2.273447893924553931e-01,7.888581447538394187e-01,1.000000000000000048e-04,4.338027495133649580e+01,2.099999999999999922e-01
2.090625502202607677e-01,-5.234239574503036785e-01,1.233713205940858870e+00,1.000000000000000048e-04,4.517129688486374306e+01,2.600000000000000089e-01
-2.196759244267937561e+00,3.513256560147608454e-01,1.784614573360190359e-01,1.000000000000000048e-04,3.987995901108053687e+01,1.400000000000000133e-01
-1.698112392530126913e+00,1.310065326191558466e-01,5.108547861312171534e-01,1.000000000000000048e-04,4.252699802453415856e+01,1.600000000000000033e-01
9.280830213707016441e-01,-7.357944137040139942e-01,2.734197609730155687e-01,1.000000000000000048e-04,4.080164349285412584e+01,2.000000000000000111e-01
-3.021753936201152069e+00,-8.199917409568967530e-01,1.323047988020116250e-01,1.000000000000000048e-04,3.911114875255267265e+01,2.099999999999999922e-01
1.721301862041058506e+00,4.590248578348874453e-01,4.886739570821370116e-01,1.000000000000000048e-04,4.224822966498813059e+01,1.700000000000000122e-01
-2.766449921851541038e+00,8.230788066275103176e-01,6.914972972204447288e-01,1.000000000000000048e-04,4.306420554480645535e+01,1.499999999999999944e-01
-1.799850804326143194e+00,4.516132499641796194e-01,8.534794902620150836e-01,1.000000000000000048e-04,4.346888216466025767e+01,1.700000000000000122e-01
-2.698755347932594972e+00,1.139007237667798211e+00,6.488261599994302742e-01,1.000000000000000048e-04,4.286236913695674389e+01,1.400000000000000133e-01
3.127726500182406610e+00,-9.579012858552419241e-01,2.702479868743932201e-01,1.000000000000000048e-04,4.069225736391737769e+01,1.499999999999999944e-01
2.537445179079496071e-01,-5.179950506206965066e-01,3.570407976132341510e-01,1.000000000000000048e-04,4.135623154019285863e+01,3.400000000000000244e-01
1.322947729998564803e+00,1.153037054362772373e+00,3.293734800762890824e-01,1.000000000000000048e-04,4.099838332479941272e+01,1.700000000000000122e-01
-9.377323178564198614e-01,-7.409845316960195216e-01,1.701521209623482189e-01,1.000000000000000048e-04,3.963901847690868863e+01,1.400000000000000133e-01
-2.670008980641305651e+00,5.047756447795985757e-01,2.177860184404571964e-01,1.000000000000000048e-04,4.019844165602279418e+01,1.799999999999999933e-01
-2.292469142478083199e+00,-2.203309545223852695e-03,1.345399005097944745e+00,1.000000000000000048e-04,4.500731052843930513e+01,1.900000000000000022e-01
7.812138022422283612e-01,-3.077732600015117281e-01,5.524468663389576761e-01,1.000000000000000048e-04,4.269840992145152825e+01,1.499999999999999944e-01
-1.634540216842325311e+00,8.716450912717683686e-01,3.795301705259426228e-01,1.000000000000000048e-04,4.144253835359062066e+01,1.700000000000000122e-01
-4.466391589520064542e-01,-7.319692382757587712e-01,1.378891882361923393e-01,1.000000000000000048e-04,3.919168605061115329e+01,1.600000000000000033e-01
8.810588067938365242e-01,-4.707101004168765535e-01,1.145129738445440637e+00,1.000000000000000048e-04,4.441418756176440041e+01,1.499999999999999944e-01
1.496028855663512402e+00,-3.666261783301316690e-02,5.972222998681715467e-01,1.000000000000000048e-04,4.259409590654107092e+01,1.700000000000000122e-01
-2.620485018493847740e+00,-9.445969568504720693e-01,4.956651068732467191e-01,1.000000000000000048e-04,4.219119571565838811e+01,1.600000000000000033e-01
-2.004738485496456057e+00,-1.380591434062601319e-01,3.263592222478275406e-01,1.000000000000000048e-04,4.083439804011364060e+01,2.899999999999999800e-01
2.441348991424545645e+00,2.348312526005975620e-01,2.497958602968886055e-01,1.000000000000000048e-04,4.059553672035951877e+01,1.400000000000000133e-01
-7.301682364480566179e-01,-6.479246302192781526e-01,4.649591944259128251e-01,1.000000000000000048e-04,4.207707943575491782e+01,1.499999999999999944e-01
-3.718234765261070329e-01,-5.104398620593619817e-01,3.315673803539118669e-01,1.000000000000000048e-04,4.127440803058987484e+01,1.900000000000000022e-01
-3.099772740210249733e+00,-5.094463933192983074e-01,4.423342001759082986e-01,1.000000000000000048e-04,4.192487068044350451e+01,2.500000000000000000e-01
6.607255947475652036e-01,2.733802736597763516e-01,1.349997213646092487e-01,1.000000000000000048e-04,3.890173114127981790e+01,1.499999999999999944e-01
2.121357206488261760e+00,5.272301661899430059e-01,3.035330963210522981e-01,1.000000000000000048e-04,4.096882533299051943e+01,2.099999999999999922e-01
-1.340050306374135802e+00,5.046922064066134972e-01,4.086181726792652569e-01,1.000000000000000048e-04,4.178022746735425841e+01,1.900000000000000022e-01
-2.406845717828045572e-01,6.214963459000566459e-01,1.900844686563412100e-01,1.000000000000000048e-04,3.962090229811743569e+01,2.099999999999999922e-01
-1.361961645802445275e-01,1.589173562265968620e-01,3.343574291349209471e-01,1.000000000000000048e-04,4.116123885131820970e+01,2.099999999999999922e-01
2.402095774891447100e+00,-1.663773196574891422e-01,1.207606509830319030e-01,1.000000000000000048e-04,3.874255694202556555e+01,1.499999999999999944e-01
-8.111021056592093714e-02,-4.050468829664770620e-01,5.188800198874876646e-01,1.000000000000000048e-04,4.233052941650482381e+01,1.400000000000000133e-01
-8.907172934760927419e-01,-4.210515633350604414e-01,1.666313955338334374e-01,1.000000000000000048e-04,3.954502713926784452e+01,3.800000000000000044e-01
8.377393941009367850e-01,-4.528587867576112647e-01,1.271136278721358259e+00,1.000000000000000048e-04,4.485232385543692146e+01,2.200000000000000011e-01
-1.431818772630166325e+00,-6.324568295462220657e-01,1.996177476135074791e-01,1.000000000000000048e-04,3.992781822657005364e+01,1.499999999999999944e-01
-1.389328669342356548e+00,7.689422945938675369e-01,3.279459945792435605e-01,1.000000000000000048e-04,4.118102805370143216e+01,1.700000000000000122e-01
-2.389735386029240960e+00,1.218282952721261303e-02,7.280871882330410827e-01,1.000000000000000048e-04,4.323598406896431356e+01,1.700000000000000122e-01
1.124247127151611458e+00,9.728809820797312824e-02,9.597439485826853023e-01,1.000000000000000048e-04,4.389168872364283658e+01,2.600000000000000089e-01
2.215935166693419944e+00,-1.753405178433851130e-01,2.427530664285095785e-01,1.000000000000000048e-04,4.001764115796048316e+01,2.800000000000000266e-01
5.640715047721793773e-01,2.800977405460107761e-01,6.109949881881886480e-01,1.000000000000000048e-04,4.288274865204954267e+01,1.799999999999999933e-01
-2.676929747190534670e+00,-1.519324863136974901e-01,1.463168892559378875e-01,1.000000000000000048e-04,3.922003135642629701e+01,1.499999999999999944e-01
-2.114179292963034307e-01,3.199290459045263102e-01,5.007563871940878819e-01,1.000000000000000048e-04,4.222633767808049043e+01,2.200000000000000011e-01
2.196242250829169684e+00,9.445932850598448560e-01,3.136040071084140735e-01,1.000000000000000048e-04,4.065759082165455141e+01,2.000000000000000111e-01
-5.409456879951322072e-01,4.421097264433897500e-01,1.877648584392224151e-01,1.000000000000000048e-04,3.987118355564069105e+01,1.600000000000000033e-01
2.430296601398178602e+00,5.104944101954571600e-01,2.745291616757872255e-01,1.000000000000000048e-04,4.091888507661563779e+01,1.600000000000000033e-01
-1.780467474304645581e+00,1.387672388032459736e+00,2.797535494564384884e-01,1.000000000000000048e-04,4.079915312530089722e+01,2.099999999999999922e-01
2.037748630136313466e+00,-9.033132040654279216e-02,1.466868150941540438e-01,1.000000000000000048e-04,3.940119157043820763e+01,2.899999999999999800e-01
-5.767947671044200142e-01,-5.736588871194319150e-01,2.880703495952683379e-01,1.000000000000000048e-04,4.077548532915353974e+01,1.400000000000000133e-01
3.065171789352049814e+00,-5.367207500123236663e-01,1.652558093748712764e-01,1.000000000000000048e-04,3.943692108353365455e+01,2.700000000000000178e-01
3.095669068408944291e+00,5.125554369807066024e-01,3.486325141864501376e-01,1.000000000000000048e-04,4.121773013500690297e+01,1.300000000000000044e-01
-6.233358222040124019e-01,-4.465551187913148201e-01,5.198030004491798195e-01,1.000000000000000048e-04,4.233485603298502298e+01,1.700000000000000122e-01
1.351051205253463117e+00,1.139474813638574613e+00,1.783225264994128256e-01,1.000000000000000048e-04,3.983647474469321992e+01,2.500000000000000000e-01
1.996376798484304160e+00,3.382500856635231035e-01,8.722014509500537471e-01,1.000000000000000048e-04,4.346293910623813161e+01,1.400000000000000133e-01
3.076735748096501410e+00,5.539066479225258632e-01,8.646608808291100789e-01,1.000000000000000048e-04,4.377745504866924620e+01,1.900000000000000022e-01
2.864910206507235380e+00,1.108648372488047595e+00,5.196941688780651880e-01,1.000000000000000048e-04,4.226832459954407994e+01,1.600000000000000033e-01
1.380044130879002573e+00,-4.020295701598992633e-01,1.032757491575496012e+00,1.000000000000000048e-04,4.419734056697632951e+01,1.600000000000000033e-01
-3.020640188057480913e+00,7.302783449265226601e-02,1.033615349184076049e+00,1.000000000000000048e-04,4.414309320629821798e+01,2.700000000000000178e-01
-3.124259550489287385e+00,4.228392408045844597e-02,7.897599731106317300e-01,1.000000000000000048e-04,4.353912197024659037e+01,1.499999999999999944e-01
-1.478529680571277760e+00,3.797469530415438221e-01,1.106154662336306771e+00,1.000000000000000048e-04,4.442473649688081849e+01,1.600000000000000033e-01
-1.708306264378818051e+00,1.436620528931427110e-01,7.156850570169872583e-01,1.000000000000000048e-04,4.308242782784272151e+01,1.700000000000000122e-01
4.110866859446637989e-02,7.227347056586630458e-01,1.285969712621333194e-01,1.000000000000000048e-04,3.922689775519621946e+01,2.800000000000000266e-01
-2.130971596510379484e+00,7.657496783751831515e-01,1.574483775570276745e-01,1.000000000000000048e-04,3.931351473944382491e+01,1.499999999999999944e-01
-2.797317317859382868e+00,-5.673919092947332654e-01,9.976919728047723979e-01,1.000000000000000048e-04,4.428426255133534539e+01,3.099999999999999978e-01
-3.135918133320727996e+00,4.459768587518522232e-01,2.029095555849047550e-01,1.000000000000000048e-04,4.000354533663721668e+01,2.200000000000000011e-01
1.054159675454512168e+00,4.472221482102933798e-01,4.675031617666047801e-01,1.000000000000000048e-04,4.228202506923334880e+01,2.700000000000000178e-01
-1.165750722326479583e+00,4.534450165737364813e-01,2.240816792295496906e-01,1.000000000000000048e-04,4.035974263587441158e+01,2.899999999999999800e-01
-9.448029471583421213e-01,-2.329409265847486310e-01,4.092096642127160955e-01,1.000000000000000048e-04,4.241950078795692036e+01,3.099999999999999978e-01
3.501070222725526371e-01,-7.016325539711132375e-01,8.586053953430727859e-01,1.000000000000000048e-04,4.358038882810967607e+01,2.300000000000000100e-01
5.693278552914615709e-01,5.896678260714383057e-02,1.869769873679461014e-01,1.000000000000000048e-04,4.009739540091905496e+01,2.200000000000000011e-01
-1.672819437896424288e+00,-5.207076366910818876e-01,2.042932055198571906e-01,1.000000000000000048e-04,4.005175641195719294e+01,2.300000000000000100e-01
-1.649376050486182077e+00,-1.104525651017245202e-01,9.211852867405698753e-01,1.000000000000000048e-04,4.349940320530725302e+01,2.200000000000000011e-01
1.265553473702066611e+00,6.701466296358633556e-01,4.949909362512916466e-01,1.000000000000000048e-04,4.209944817613615697e+01,2.099999999999999922e-01
-1.100513434837444127e+00,4.844738571873219435e-01,5.629092933431918411e-01,1.000000000000000048e-04,4.224960667516944568e+01,2.300000000000000100e-01
1.289367619446988300e-01,-1.033100148377865457e+00,1.188123872808680037e+00,1.000000000000000048e-04,4.461418330870951365e+01,2.399999999999999911e-01
1.808537163617988774e+00,-3.279826936632805889e-01,4.807469606114895821e-01,1.000000000000000048e-04,4.194071225371582301e+01,2.099999999999999922e-01
-2.655706812527078409e+00,-9.987837335421394513e-01,2.135774080126944252e-01,1.000000000000000048e-04,4.020187579257871846e+01,2.399999999999999911e-01
-1.434453721224926426e-02,3.470436323772949638e-01,6.282118053547498526e-01,1.000000000000000048e-04,4.234913337494299412e+01,2.399999999999999911e-01
2.926224224816190045e+00,-1.193962840200386788e+00,1.478109257398760867e-01,1.000000000000000048e-04,3.930943154050166299e+01,2.800000000000000266e-01
1.212352909544386570e+00,2.727609217388828888e-01,4.378755835077989822e-01,1.000000000000000048e-04,4.220497654212245919e+01,2.000000000000000111e-01
2.143935732989386445e+00,-5.377094531613058059e-01,8.570119880011890512e-01,1.000000000000000048e-04,4.387660158530601251e+01,2.200000000000000011e-01
1.819969359769273431e-01,1.027495376681182293e+00,2.112491346362479483e-01,1.000000000000000048e-04,4.000373599470935204e+01,2.800000000000000266e-01
-1.843783940338049376e+00,-4.088469795480722535e-01,2.714485032650808538e-01,1.000000000000000048e-04,4.077446862802721483e+01,2.399999999999999911e-01
-1.644028854448047028e+00,-8.996042441766227693e-01,2.182160144053344464e-01,1.000000000000000048e-04,4.042362945281239917e+01,2.300000000000000100e-01
-1.797148427646511060e+00,-9.800280952320461481e-01,3.737670065587654911e-01,1.000000000000000048e-04,4.177625735502059712e+01,2.200000000000000011e-01
-1.461705049172500770e+00,-7.827331067056203517e-01,2.300479936301424999e-01,1.000000000000000048e-04,4.060093658018192286e+01,2.200000000000000011e-01
-1.229558752610896200e+00,2.934646538681238148e-01,2.170124556135240024e-01,1.000000000000000048e-04,4.024554605101398153e+01,2.399999999999999911e-01
-5.400611875317085087e-01,3.259619150288648459e-01,9.708936206019169735e-01,1.000000000000000048e-04,4.400747614460004087e+01,3.099999999999999978e-01
-3.050528549294753589e+00,3.103202000124016813e-01,2.854377870711961585e-01,1.000000000000000048e-04,4.078953901155386319e+01,2.600000000000000089e-01
-2.546348413481347883e+00,-3.230493328192778346e-01,5.742861616697114702e-01,1.000000000000000048e-04,4.253268803243366847e+01,3.099999999999999978e-01
-7.442142532638573726e-01,-7.461612102708511385e-01,1.449792787967998375e-01,1.000000000000000048e-04,3.910773972763312401e+01,3.800000000000000044e-01
-3.092748273099511280e+00,-3.155985023477954066e-01,1.335469497286008167e-01,1.000000000000000048e-04,3.895628883710556067e+01,2.500000000000000000e-01
-4.488259499451414669e-01,-5.880317910822461247e-01,3.570417085523576173e-01,1.000000000000000048e-04,4.136392621909316603e+01,2.300000000000000100e-01
1.360723509637487894e+00,-1.444627282841604021e-02,1.196744501001029359e+00,1.000000000000000048e-04,4.431282750000414694e+01,2.800000000000000266e-01
1.398732849300635905e+00,-2.679800761060979752e-02,3.907769491423531694e-01,1.000000000000000048e-04,4.222778412003207649e+01,3.699999999999999956e-01
3.122074351700291572e+00,6.491609595610845496e-01,3.820783039762514210e-01,1.000000000000000048e-04,4.190323282681443828e+01,2.200000000000000011e-01
1.403795807819319563e+00,-4.102318887738081177e-01,4.588826355084119069e-01,1.000000000000000048e-04,4.205345393125679010e+01,2.600000000000000089e-01
1.822478110092540682e+00,1.069253817758019753e+00,5.276576095941605260e-01,1.000000000000000048e-04,4.258923965166339087e+01,2.500000000000000000e-01
-2.640532399994120816e+00,-3.316848238814129601e-02,1.891961654345701849e-01,1.000000000000000048e-04,3.968565055003978159e+01,2.700000000000000178e-01
2.550121721566497079e+00,1.209844573020432357e+00,3.813754797601265345e-01,1.000000000000000048e-04,4.167191869395313830e+01,2.300000000000000100e-01
-3.047623874755406082e+00,8.280191360090678465e-01,6.187857211525307211e-01,1.000000000000000048e-04,4.278612028886451668e+01,2.300000000000000100e-01
6.043262189237110782e-01,2.786367202518791331e-01,1.615712967423170721e-01,1.000000000000000048e-04,3.971377173046496267e+01,3.200000000000000067e-01
-1.253133810237686552e+00,-6.629795951527558406e-01,3.921613393139495862e-01,1.000000000000000048e-04,4.148976171619739972e+01,2.899999999999999800e-01
-7.436265100340540002e-01,7.460437836966500313e-01,3.508241635771531808e-01,1.000000000000000048e-04,4.120588158008868618e+01,2.600000000000000089e-01
1.265852721615878806e-01,-3.394279495566809857e-03,6.904222303071003708e-01,1.000000000000000048e-04,4.319794746564100052e+01,2.899999999999999800e-01
6.763892535000284312e-01,-1.485815793733555878e-01,6.079882761836419292e-01,1.000000000000000048e-04,4.262991304982826790e+01,2.700000000000000178e-01
-1.518609268512143284e+00,1.061060997661196215e-01,5.747646238660366613e-01,1.000000000000000048e-04,4.309767130717018091e+01,2.300000000000000100e-01
-1.323506527501047580e+00,-6.149961509644006341e-01,4.403545247785882744e-01,1.000000000000000048e-04,4.163727596260117991e+01,2.800000000000000266e-01
-1.540504585694158823e+00,-5.002439646981660104e-02,3.037179525983195738e-01,1.000000000000000048e-04,4.100544294948198143e+01,2.300000000000000100e-01
-1.182923039315420866e+00,-1.702935707973074475e-01,1.252530133496358999e-01,1.000000000000000048e-04,3.906266841902272802e+01,2.200000000000000011e-01
2.934196158545760547e+00,1.113834874513336626e+00,7.025434951354201374e-01,1.000000000000000048e-04,4.285759883986592911e+01,2.200000000000000011e-01
-1.195229309441553145e+00,-1.363243620703480374e-01,5.967836839276603467e-01,1.000000000000000048e-04,4.287667521922060843e+01,2.099999999999999922e-01
2.441865599099482864e+00,-7.825641826870690654e-01,7.633180276004440934e-01,1.000000000000000048e-04,4.340168252040514574e+01,2.200000000000000011e-01
-9.617591795255697740e-01,-2.515342183712308000e-01,3.327956841081884942e-01,1.000000000000000048e-04,4.125061248129451741e+01,2.899999999999999800e-01
-2.387581248009809531e+00,-1.438854541031888701e-01,1.396262154008658385e-01,1.000000000000000048e-04,3.924554556688631379e+01,2.099999999999999922e-01
2.488863260777244513e+00,-1.156205492212424746e+00,2.063134546891303156e-01,1.000000000000000048e-04,3.996186030676810930e+01,2.300000000000000100e-01
-2.834285802291210743e+00,9.915514046184039643e-01,1.324863241550524595e+00,1.000000000000000048e-04,4.515357195764261888e+01,3.300000000000000155e-01
-1.055787537857657554e+00,-1.381031048994245669e+00,1.134469668789399144e+00,1.000000000000000048e-04,4.417879955421173577e+01,2.899999999999999800e-01
-3.904034352246132933e-01,-1.163502150594861284e+00,4.348707904100892474e-01,1.000000000000000048e-04,4.233541884374639608e+01,3.300000000000000155e-01
-4.492002276390141269e-01,-4.591873526176915021e-02,3.399991346736128683e-01,1.000000000000000048e-04,4.131899662371644411e+01,2.999999999999999889e-01
2.821958031920734911e+00,-1.185772599250880077e+00,6.134762586165902754e-01,1.000000000000000048e-04,4.329054922573654807e+01,2.600000000000000089e-01
1.436381478005551493e+00,9.848477715279493339e-01,1.352580706270587463e-01,1.000000000000000048e-04,3.816993336751360744e+01,3.300000000000000155e-01
-1.732367292220013955e+00,-6.112172017812607105e-01,4.713242398789549981e-01,1.000000000000000048e-04,4.216768593126967346e+01,2.500000000000000000e-01
2.192300880051134548e-01,1.463910901958915378e+00,6.861829892453534807e-01,1.000000000000000048e-04,4.292288251631311624e+01,2.399999999999999911e-01
-2.606071745478489188e+00,-2.608961335335091558e-01,2.115089226520290300e-01,1.000000000000000048e-04,4.008352525892541252e+01,3.900000000000000133e-01
-2.230529095436464715e+00,-1.030402662424853677e+00,2.191827276871107788e-01,1.000000000000000048e-04,4.026575991586065584e+01,2.700000000000000178e-01
1.355898101285768931e+00,-6.101339823896492209e-01,6.067685244189024996e-01,1.000000000000000048e-04,4.285602034016874029e+01,2.200000000000000011e-01
-1.500734829126724401e+00,-1.582054675553925538e-01,1.703958157795746331e-01,1.000000000000000048e-04,3.966598431035513528e+01,2.300000000000000100e-01
-2.228719719675060329e+00,-1.072111995765480996e+00,7.037959716041346514e-01,1.000000000000000048e-04,4.308292774999260644e+01,2.500000000000000000e-01
8.469143434129691173e-01,-4.111160636392465761e-01,1.102786018840941296e+00,1.000000000000000048e-04,4.472317383760249498e+01,2.099999999999999922e-01
1.942056234749472310e+00,5.142961860679724495e-01,6.935309274259462420e-01,1.000000000000000048e-04,4.293984749230210696e+01,2.099999999999999922e-01
2.148547605031200014e+00,1.165461866950707304e+00,7.567010919549748138e-01,1.000000000000000048e-04,4.298198412107933564e+01,2.999999999999999889e-01
-4.672099495529331570e-01,-1.100644617198156539e-01,5.894543281665742818e-01,1.000000000000000048e-04,4.295320694855326593e+01,2.200000000000000011e-01
-3.104314574080508482e+00,-3.700444741988049291e-01,7.044872504402346358e-01,1.000000000000000048e-04,4.310092583873417027e+01,2.099999999999999922e-01
1.345236067778875722e+00,-1.176347758850186942e-01,9.427744093090975053e-01,1.000000000000000048e-04,4.396700991669985825e+01,2.300000000000000100e-01
3.007852562471694746e+00,9.585298306212455266e-01,5.979789319302213357e-01,1.000000000000000048e-04,4.213722129254834670e+01,3.200000000000000067e-01
-5.227310591966833897e-01,4.711165572489606213e-01,1.055677485178282637e+00,1.000000000000000048e-04,4.434944433969030086e+01,2.600000000000000089e-01
1.793933457830521050e-02,9.047870519222933616e-01,2.322850234639719513e-01,1.000000000000000048e-04,4.012077889096907768e+01,2.000000000000000111e-01
2.929979732673125170e+00,1.031933083424354081e+00,4.854073148315241060e-01,1.000000000000000048e-04,4.223355206489935654e+01,1.799999999999999933e-01
-1.939868260105279685e+00,-3.415400315408858578e-01,4.596941836861114794e-01,1.000000000000000048e-04,4.192852925979356371e+01,2.999999999999999889e-01
-2.677340374871189255e+00,-1.002676581858696014e+00,6.576117293866921010e-01,1.000000000000000048e-04,4.302821645980513665e+01,2.399999999999999911e-01
-1.715986807986909612e+00,1.304436887132209844e+00,7.016646027366695293e-01,1.000000000000000048e-04,4.304378644093225148e+01,2.300000000000000100e-01
7.467864048768766416e-01,9.779036254324866562e-01,3.677434841211426608e-01,1.000000000000000048e-04,4.136361050941844297e+01,2.200000000000000011e-01
-1.429860346334228316e+00,4.879496610418798674e-02,1.509223146006819505e-01,1.000000000000000048e-04,3.927985477136338233e+01,2.300000000000000100e-01
1.268868800051579981e+00,1.612761170408827383e-01,3.594006085199983325e-01,1.000000000000000048e-04,4.142894298408195652e+01,2.300000000000000100e-01
2.209065411060062267e+00,1.084206694737967602e+00,3.510335142208731440e-01,1.000000000000000048e-04,4.117971327136649506e+01,2.600000000000000089e-01
8.643382138577049290e-01,1.324053402727187745e-01,3.115932705642137091e-01,1.000000000000000048e-04,4.118158181803718776e+01,2.099999999999999922e-01
-2.047504054138314267e+00,-1.948028745928989114e-01,4.541558780022683095e-01,1.000000000000000048e-04,4.181807948822804377e+01,2.899999999999999800e-01
-1.359263639196871987e+00,-3.235772424854810314e-01,7.474870894019649548e-01,1.000000000000000048e-04,4.370018213001400653e+01,2.000000000000000111e-01
1.817980326708233285e+00,-7.284777196959888457e-01,1.045035645140081293e+00,1.000000000000000048e-04,4.423405964124365397e+01,2.500000000000000000e-01
-1.004435530427866041e+00,-9.678589871965718183e-01,2.724628701492015637e-01,1.000000000000000048e-04,4.141278295284851652e+01,2.099999999999999922e-01
-2.365176389407511071e+00,-3.540519999203268764e-01,6.244107999162016309e-01,1.000000000000000048e-04,4.307132206097941207e+01,2.300000000000000100e-01
2.014526684794843980e-01,8.085730053287170094e-01,3.521291270088038328e-01,1.000000000000000048e-04,4.143768132894421541e+01,2.200000000000000011e-01
7.693675330710907367e-01,-1.752787617726971892e-01,5.249021768490771400e-01,1.000000000000000048e-04,4.233672180660643392e+01,2.399999999999999911e-01
2.418581310899059034e+00,-1.544528028656835250e+00,2.040821985073610900e-01,1.000000000000000048e-04,4.006970167488157131e+01,2.500000000000000000e-01
1.157004682532911666e-01,-4.205802178461228724e-01,3.459751918099365220e-01,1.000000000000000048e-04,4.126556153254752246e+01,2.200000000000000011e-01
-2.097903029631079885e+00,1.023707684736050005e+00,1.781862045133091321e-01,1.000000000000000048e-04,3.965408514911405291e+01,3.300000000000000155e-01
-5.093057229707449451e-01,5.054583194401334190e-01,3.359941613791037618e-01,1.000000000000000048e-04,4.133041535886324880e+01,2.000000000000000111e-01
2.567208283669740077e+00,1.206177378266669376e+00,1.686096514758079756e-01,1.000000000000000048e-04,3.979607768140632373e+01,2.600000000000000089e-01
1.441451231138493050e+00,-5.644516626730444742e-02,4.088334086441569593e-01,1.000000000000000048e-04,4.159317801626895772e+01,2.399999999999999911e-01
3.040935396919291378e+00,-4.252599606114608743e-01,1.725132214806321951e-01,1.000000000000000048e-04,3.948849227250246940e+01,2.399999999999999911e-01
-2.933906666888515424e+00,2.761799535960043350e-01,1.338480083329216086e+00,1.000000000000000048e-04,4.514361548031111937e+01,2.600000000000000089e-01
2.368643529958215588e+00,-2.263922645384768284e-01,3.878359085340150614e-01,1.000000000000000048e-04,4.117152673549561115e+01,2.399999999999999911e-01
9.733020210835112707e-01,7.723133561393002999e-01,4.138631793588323227e-01,1.000000000000000048e-04,4.212667238690134042e+01,2.000000000000000111e-01
-1.968772700740092585e+00,-1.206110818246473482e+00,2.458363688560758487e-01,1.000000000000000048e-04,4.020018343391485161e+01,3.699999999999999956e-01
8.360639818875581497e-02,8.422942129795774058e-02,6.952343577867021729e-01,1.000000000000000048e-04,4.287104221494172407e+01,3.099999999999999978e-01
-2.195573595713102399e+00,-4.996443293331105373e-01,1.007812466185906697e+00,1.000000000000000048e-04,4.417481022846317273e+01,2.399999999999999911e-01
1.023494475898537814e+00,-1.336465904073680377e-02,5.235679494219649399e-01,1.000000000000000048e-04,4.241078427641906501e+01,2.099999999999999922e-01
-8.389878165429087709e-01,5.555085361700107249e-02,8.615737547329693768e-01,1.000000000000000048e-04,4.392953735676950089e+01,2.800000000000000266e-01
-4.485587093701779438e-01,-1.300030330498247899e+00,3.418636682045610442e-01,1.000000000000000048e-04,4.155867830635623505e+01,2.800000000000000266e-01
-1.488764535301251302e+00,5.909325816320851743e-01,5.255454605210418961e-01,1.000000000000000048e-04,4.282099163314006773e+01,2.099999999999999922e-01
-2.812935986854967041e+00,-3.087391425106269516e-01,1.426679736143532384e-01,1.000000000000000048e-04,3.913440599373977591e+01,2.300000000000000100e-01
-1.193072892217216019e+00,1.992946569619524766e-01,4.446925691890426524e-01,1.000000000000000048e-04,4.213303166973392422e+01,2.000000000000000111e-01
2.600548693221631957e+00,4.758339358838163946e-01,3.033115144047375811e-01,1.000000000000000048e-04,4.107883802794890471e+01,1.000000000000000056e-01
-2.428109649742991039e+00,7.233547249085638953e-01,2.347977309927469225e-01,1.000000000000000048e-04,4.057420551516092644e+01,1.199999999999999956e-01
2.010677299542329877e+00,6.600558287491939957e-01,1.069755274776240217e+00,1.000000000000000048e-04,4.424186171435891168e+01,8.999999999999999667e-02
1.581901737977104538e+00,1.173912532863994773e+00,2.148898912205603473e-01,1.000000000000000048e-04,4.002353704150615954e+01,1.400000000000000133e-01
-2.577426097656978499e-01,-1.785286777165278060e-01,2.076010297638222202e-01,1.000000000000000048e-04,3.966470300822498274e+01,2.000000000000000111e-01
-2.235554706867621810e+00,6.962039912329061053e-01,2.842755391579496749e-01,1.000000000000000048e-04,4.086080779011080466e+01,1.900000000000000022e-01
2.156090201751139190e+00,-3.530068435459523535e-01,4.816748829824857303e-01,1.000000000000000048e-04,4.227937106629725150e+01,1.700000000000000122e-01
3.252783022573915162e-01,5.018140216796038722e-01,4.178554536491914106e-01,1.000000000000000048e-04,4.210490259698838855e+01,3.499999999999999778e-01
-7.781471702007287661e-01,2.042907811605438884e-01,9.073284563467955977e-01,1.000000000000000048e-04,4.410304867744967083e+01,1.700000000000000122e-01
2.986353889734211009e+00,-3.804803901957700685e-01,1.549582704380012554e-01,1.000000000000000048e-04,3.907179414716554788e+01,1.900000000000000022e-01
2.664430909108784995e+00,-9.801204292152654318e-02,2.971897917769714681e-01,1.000000000000000048e-04,4.057630372523964013e+01,1.900000000000000022e-01
