-1.598279621179586663e+00,2.779993629999999993e-01,7.910607989280651342e-01,1.000000000000000048e-04,4.366276028324229230e+01,1.700000000000000122e-01
-8.306753881795865269e-01,5.048130450000000158e-01,1.201390158869142244e-01,1.000000000000000048e-04,3.873993449046917448e+01,1.600000000000000033e-01
-1.512887194179586281e+00,3.571169940000000209e-01,1.377521431679962216e-01,1.000000000000000048e-04,3.909271222114691113e+01,1.600000000000000033e-01
-2.094054222179586588e+00,-9.657747650000000350e-01,1.632733838868007936e-01,1.000000000000000048e-04,3.990154424894576124e+01,1.600000000000000033e-01
-1.256550916179586252e+00,-1.037146153999999987e+00,3.673595289236382122e-01,1.000000000000000048e-04,4.158944594461097921e+01,1.900000000000000022e-01
-2.638489419179586015e+00,-8.917870300000000361e-01,1.050451681890606004e+00,1.000000000000000048e-04,4.415025528361523754e+01,1.600000000000000033e-01
3.095686500000000008e-02,-1.139960520999999893e+00,3.833081519249998959e-01,1.000000000000000048e-04,4.148530665412827290e+01,1.700000000000000122e-01
-4.765590681795863759e-01,-7.328014390000000544e-01,3.478941403403272847e-01,1.000000000000000048e-04,4.125097622799821551e+01,1.600000000000000033e-01
7.532392530000000530e-01,9.936355940000000109e-01,4.234429747947345835e-01,1.000000000000000048e-04,4.201257107714929617e+01,1.600000000000000033e-01
1.355624495999999901e+00,4.654212710000000253e-01,3.418194073324432036e-01,1.000000000000000048e-04,4.064294718080303426e+01,2.200000000000000011e-01
-2.027672372179586624e+00,-3.494576850000000179e-01,3.637795104341268182e-01,1.000000000000000048e-04,4.144971449278199316e+01,8.999999999999999667e-02
-2.243457714179585949e+00,5.735296930000000071e-01,4.846676958296625148e-01,1.000000000000000048e-04,4.208987591057989164e+01,8.000000000000000167e-02
-1.661352162179586145e+00,7.473004210000000480e-01,5.052568611237331364e-01,1.000000000000000048e-04,4.239016595659204256e+01,1.100000000000000006e-01
-1.046494641179585905e+00,9.839422859999999993e-01,3.191014631736737162e-01,1.000000000000000048e-04,4.087959854139531757e+01,1.600000000000000033e-01
-1.357076630179586019e+00,8.591991679999999576e-01,1.928050475285068011e-01,1.000000000000000048e-04,4.011364648474729222e+01,1.300000000000000044e-01
-1.489161381179585852e+00,8.733460579999999807e-01,1.328395439823665036e+00,1.000000000000000048e-04,4.476472757049567974e+01,8.999999999999999667e-02
2.602874990000000111e+00,9.865781270000000269e-01,1.440559996312855695e-01,1.000000000000000048e-04,3.936697538514415129e+01,2.099999999999999922e-01
2.011122450999999867e+00,-1.257182417000000108e+00,6.601072857504814984e-01,1.000000000000000048e-04,4.271484358887828137e+01,1.799999999999999933e-01
2.487812089999999809e+00,-1.095252646999999913e+00,4.150699203847676433e-01,1.000000000000000048e-04,4.193823159494955632e+01,1.600000000000000033e-01
-2.060955814179585843e+00,9.020563839999999889e-01,6.785317991217683087e-01,1.000000000000000048e-04,4.325777101883225129e+01,1.799999999999999933e-01
-1.552222439179586466e+00,1.270289940999999923e+00,6.042490349420086559e-01,1.000000000000000048e-04,4.296247125810631928e+01,1.600000000000000033e-01
-3.584264691795864266e-01,1.112498557000000110e+00,5.703975154128531067e-01,1.000000000000000048e-04,4.273984975285109300e+01,2.000000000000000111e-01
1.187793541000000008e+00,1.533334508000000040e+00,5.806657976691886880e-01,1.000000000000000048e-04,4.266488658792217592e+01,1.700000000000000122e-01
9.029304540000000490e-01,-5.888661819999999603e-01,8.286321195981398713e-01,1.000000000000000048e-04,4.376413381563578042e+01,1.700000000000000122e-01
2.675488564000000125e+00,-1.029758079000000048e+00,2.958802062155705404e-01,1.000000000000000048e-04,4.090929391897974199e+01,1.700000000000000122e-01
9.979371630000000160e-01,-7.076351440000000492e-01,1.341304842179714019e+00,1.000000000000000048e-04,4.475234026491528283e+01,2.000000000000000111e-01
-2.809922836179586270e+00,-1.219770695000000016e+00,1.807716300962176614e-01,1.000000000000000048e-04,3.959912288469320885e+01,1.900000000000000022e-01
1.945616433999999950e+00,5.533621010000000506e-01,5.119257013065436901e-01,1.000000000000000048e-04,4.207909045984394680e+01,1.700000000000000122e-01
1.369802210000000131e-01,9.686457469999999459e-01,2.098173358453854220e-01,1.000000000000000048e-04,4.010511691988881466e+01,1.000000000000000056e-01
2.377785852000000144e+00,-1.071983155000000076e+00,3.288261822811016089e-01,1.000000000000000048e-04,4.117947856333331913e+01,1.000000000000000056e-01
1.194530383000000029e+00,-8.514353350000000153e-01,9.076227125035887244e-01,1.000000000000000048e-04,4.359235395190882656e+01,1.100000000000000006e-01
2.328991532999999947e+00,-1.085498080000000032e+00,8.693003809988277819e-01,1.000000000000000048e-04,4.382673565149652006e+01,1.199999999999999956e-01
3.099662444999999877e+00,-8.173274409999999879e-01,4.487993143663320250e-01,1.000000000000000048e-04,4.203443795055252963e+01,1.300000000000000044e-01
1.008677688999999988e+00,-7.224949280000000362e-01,1.375942020924689757e-01,1.000000000000000048e-04,3.937266143154309361e+01,1.199999999999999956e-01
1.116317643999999998e+00,-8.188746820000000204e-01,3.198219668636193003e-01,1.000000000000000048e-04,4.120407610949038002e+01,1.499999999999999944e-01
1.368634144999999913e+00,-9.746537960000000167e-01,6.702517675197849911e-01,1.000000000000000048e-04,4.365752036951246140e+01,2.200000000000000011e-01
2.840707745000000006e+00,-9.874777999999999611e-01,5.895036407335685347e-01,1.000000000000000048e-04,4.265369544034101779e+01,1.199999999999999956e-01
1.164831654000000105e+00,-8.361433499999999519e-01,4.567293705574351215e-01,1.000000000000000048e-04,4.197851628502719024e+01,1.600000000000000033e-01
9.274529849999999520e-01,-5.648102149999999488e-01,2.666399096124765222e-01,1.000000000000000048e-04,4.052896258470061497e+01,2.200000000000000011e-01
1.803806121999999901e+00,-1.051757271000000049e+00,3.044803231246266950e-01,1.000000000000000048e-04,4.097232893854283020e+01,2.200000000000000011e-01
1.910407339000000038e+00,-1.096340147000000043e+00,1.947863771780540265e-01,1.000000000000000048e-04,3.992651862391839757e+01,1.300000000000000044e-01
-2.994395329179586174e+00,-6.874333790000000111e-01,2.934356334745165107e-01,1.000000000000000048e-04,4.131883937514056981e+01,1.600000000000000033e-01
2.004169926999999962e+00,-1.114377941999999955e+00,4.026643945785188805e-01,1.000000000000000048e-04,4.186421974048270300e+01,2.099999999999999922e-01
2.993884073999999895e+00,-9.067153500000000310e-01,3.114394788021084270e-01,1.000000000000000048e-04,4.100601112855158448e+01,2.000000000000000111e-01
2.896584697999999847e+00,-6.981149509999999836e-01,1.007326486935479437e+00,1.000000000000000048e-04,4.459964420305169597e+01,2.000000000000000111e-01
2.644964143999999795e+00,-1.038456438999999953e+00,9.321525820075886593e-01,1.000000000000000048e-04,4.379199135748467597e+01,2.500000000000000000e-01
1.395029569000000080e+00,-9.673563530000000021e-01,1.933183662758974908e-01,1.000000000000000048e-04,4.008980640477094681e+01,2.200000000000000011e-01
1.133893306999999906e+00,-8.234022290000000410e-01,1.245149295597526518e+00,1.000000000000000048e-04,4.489246853425115091e+01,1.199999999999999956e-01
9.542908199999999841e-01,-6.210129070000000029e-01,1.763116734410827835e-01,1.000000000000000048e-04,3.970325551156946631e+01,1.400000000000000133e-01
1.112357503999999997e+00,-7.717409769999999947e-01,4.160773476311059316e-01,1.000000000000000048e-04,4.185300735349876788e+01,1.400000000000000133e-01
1.392129267000000059e+00,-9.489503049999999940e-01,4.921308762353315824e-01,1.000000000000000048e-04,4.229720709638072407e+01,1.100000000000000006e-01
3.104633763999999907e+00,-8.563587980000000321e-01,3.500591857936197204e-01,1.000000000000000048e-04,4.145578189977834427e+01,1.199999999999999956e-01
-1.581672989179586430e+00,-6.726275419999999672e-01,2.762808669994731847e-01,1.000000000000000048e-04,4.081261057640302425e+01,2.000000000000000111e-01
8.758714749999999549e-01,-5.394949780000000139e-01,5.308049628540096876e-01,1.000000000000000048e-04,4.266396476286245587e+01,1.199999999999999956e-01
1.027821937999999991e+00,-6.897361509999999640e-01,3.022179462309362297e-01,1.000000000000000048e-04,4.082788174601029851e+01,1.499999999999999944e-01
8.011105990000000343e-01,-4.568120419999999737e-01,1.641955533230565756e-01,1.000000000000000048e-04,3.952234587772101548e+01,1.499999999999999944e-01
8.044453879999999835e-01,-4.591503659999999765e-01,2.777788345478955367e-01,1.000000000000000048e-04,4.068703402464469576e+01,1.100000000000000006e-01
8.290542589999999601e-01,-4.498624509999999965e-01,1.701193475117610543e-01,1.000000000000000048e-04,3.973886030358997346e+01,1.199999999999999956e-01
2.306908324000000121e+00,-1.093655438999999951e+00,6.856872018564592608e-01,1.000000000000000048e-04,4.282658364467894074e+01,1.300000000000000044e-01
-3.090495873179586184e+00,-7.974218849999999970e-01,3.005706196672417452e-01,1.000000000000000048e-04,4.094872546802137236e+01,1.300000000000000044e-01
2.850739061000000074e+00,-9.724982730000000242e-01,7.792258434587884253e-01,1.000000000000000048e-04,4.337944418916278266e+01,1.100000000000000006e-01
1.925211972000000049e+00,-1.067349442999999898e+00,7.414438588058436252e-01,1.000000000000000048e-04,4.345003351407829228e+01,1.600000000000000033e-01
3.010706126000000094e+00,-9.149326070000000088e-01,1.208830908551770555e+00,1.000000000000000048e-04,4.459972184047496313e+01,1.199999999999999956e-01
1.754869720000000077e+00,-1.052947148999999971e+00,8.438395020452944539e-01,1.000000000000000048e-04,4.372189410806527121e+01,1.300000000000000044e-01
3.028086770999999899e+00,-8.725603690000000023e-01,1.331115966648851678e+00,1.000000000000000048e-04,4.479938057895152781e+01,1.199999999999999956e-01
2.780301081000000174e+00,-1.010780400000000023e+00,1.061129245340609373e+00,1.000000000000000048e-04,4.440529557872939392e+01,1.700000000000000122e-01
3.096540631999999960e+00,-8.261897350000000362e-01,3.396934254868584357e-01,1.000000000000000048e-04,4.138416810965208015e+01,1.100000000000000006e-01
-3.043596368179586342e+00,-7.656326449999999451e-01,7.315007555799810657e-01,1.000000000000000048e-04,4.347690475471568305e+01,1.100000000000000006e-01
2.593403560000000052e+00,-1.068240442000000012e+00,4.765581262742697444e-01,1.000000000000000048e-04,4.209861371805384778e+01,1.199999999999999956e-01
1.277663320999999907e+00,-8.910532270000000032e-01,1.826862018956034728e-01,1.000000000000000048e-04,3.990869099669058784e+01,1.499999999999999944e-01
8.729576639999999665e-01,-5.017517409999999733e-01,7.668256595933953257e-01,1.000000000000000048e-04,4.319936448707121457e+01,1.199999999999999956e-01
2.323316692000000128e+00,-1.072994334000000105e+00,4.347554717369688237e-01,1.000000000000000048e-04,4.179969130448981218e+01,1.400000000000000133e-01
-3.012222731179586166e+00,-7.219820959999999621e-01,4.506171281289466091e-01,1.000000000000000048e-04,4.189808441104712955e+01,1.199999999999999956e-01
2.306010604999999991e+00,-1.110345181000000014e+00,7.608099401946606388e-01,1.000000000000000048e-04,4.346112642834464168e+01,1.100000000000000006e-01
2.437557496999999795e+00,-1.097151527000000071e+00,3.329282499807204587e-01,1.000000000000000048e-04,4.125173878116154214e+01,1.100000000000000006e-01
1.098420291999999909e+00,-7.444727049999999569e-01,5.466724858306297730e-01,1.000000000000000048e-04,4.239620000058991423e+01,1.300000000000000044e-01
8.241628739999999897e-01,-4.611620249999999754e-01,5.390955068960989749e-01,1.000000000000000048e-04,4.241520666933618600e+01,1.400000000000000133e-01
1.017317494999999905e+00,-7.027905669999999771e-01,4.387795163414462962e-01,1.000000000000000048e-04,4.175798126666133925e+01,1.199999999999999956e-01
2.728679550999999925e+00,-1.007430967999999982e+00,3.290391756830002290e-01,1.000000000000000048e-04,4.109712173038756333e+01,1.100000000000000006e-01
2.848837458999999850e+00,-9.622339979999999793e-01,5.454433260387039351e-01,1.000000000000000048e-04,4.256050558929675276e+01,1.199999999999999956e-01
-3.065525731179586266e+00,-7.207210450000000046e-01,1.592317809443848375e-01,1.000000000000000048e-04,3.953741363986205926e+01,1.199999999999999956e-01
1.103969978000000074e+00,-7.587182380000000448e-01,1.748227215266935364e-01,1.000000000000000048e-04,3.988361992890570917e+01,1.300000000000000044e-01
1.112034854000000017e+00,-7.675460100000000008e-01,1.167732302367144204e+00,1.000000000000000048e-04,4.451358329535282365e+01,1.199999999999999956e-01
2.373162053000000160e+00,-1.072487750000000073e+00,1.872616485078189008e-01,1.000000000000000048e-04,3.988657164544307676e+01,1.100000000000000006e-01
2.221583438000000132e+00,-1.096064289000000080e+00,2.377407864740379573e-01,1.000000000000000048e-04,4.039265114233053566e+01,1.199999999999999956e-01
2.775251189000000007e+00,-1.013244017000000108e+00,3.860953312993709030e-01,1.000000000000000048e-04,4.155844931665662045e+01,1.700000000000000122e-01
1.527128894000000070e+00,-9.963611940000000056e-01,2.022104249197367309e-01,1.000000000000000048e-04,4.024897334595198117e+01,1.400000000000000133e-01
-1.936135624179586401e+00,1.327891944000000102e+00,5.909798786373128276e-01,1.000000000000000048e-04,4.270814488747507909e+01,1.199999999999999956e-01
2.120951332999999828e+00,-1.112975437000000012e+00,1.854567785637715183e-01,1.000000000000000048e-04,3.983741079183827338e+01,1.600000000000000033e-01
2.950704906999999988e+00,-9.277153000000000205e-01,1.852982973582755211e-01,1.000000000000000048e-04,4.004318753282976218e+01,1.700000000000000122e-01
2.461302839000000020e+00,-1.064109841000000056e+00,1.737608670677730505e-01,1.000000000000000048e-04,3.970967395596382232e+01,1.499999999999999944e-01
1.687800213000000049e+00,-1.037844004000000098e+00,6.474474802122909267e-01,1.000000000000000048e-04,4.296149903108997847e+01,1.100000000000000006e-01
-3.069023128179586113e+00,-7.343218900000000327e-01,1.684205365281636890e-01,1.000000000000000048e-04,3.942271205846846271e+01,2.000000000000000111e-01
7.655655390000000171e-01,-3.825025819999999799e-01,5.193204481762110358e-01,1.000000000000000048e-04,4.227285403943390207e+01,1.300000000000000044e-01
-3.051736326179586012e+00,-7.690870560000000467e-01,1.695058933699180592e-01,1.000000000000000048e-04,3.938961384119727427e+01,1.499999999999999944e-01
-3.116938176179586240e+00,-7.920766919999999711e-01,3.962679242795514867e-01,1.000000000000000048e-04,4.164978274241241252e+01,1.100000000000000006e-01
1.020863690000000101e+00,-6.877910739999999468e-01,3.378053652015877706e-01,1.000000000000000048e-04,4.121920877177218756e+01,1.199999999999999956e-01
1.792785233999999894e+00,-1.066474936999999956e+00,3.762956745212939769e-01,1.000000000000000048e-04,4.164372928999476642e+01,1.100000000000000006e-01
1.805689748000000039e+00,-1.066896787999999985e+00,3.894184683718950879e-01,1.000000000000000048e-04,4.175254765137299984e+01,1.100000000000000006e-01
1.773248071000000037e+00,-1.046601056999999946e+00,2.183770848558117539e-01,1.000000000000000048e-04,4.017495982989996151e+01,2.099999999999999922e-01
1.076689889999999927e+00,-7.549444410000000216e-01,4.148315780007030273e-01,1.000000000000000048e-04,4.185607086731319981e+01,1.199999999999999956e-01
2.336456505000000128e+00,-1.089906792000000069e+00,8.461835737789824563e-01,1.000000000000000048e-04,4.372318657539820208e+01,1.199999999999999956e-01
2.522083900000000156e+00,-1.078852812999999911e+00,2.159451910866168056e-01,1.000000000000000048e-04,4.034032289026089302e+01,1.199999999999999956e-01
3.676074389999999803e-01,1.100614297999999991e+00,2.605272844794483955e-01,1.000000000000000048e-04,4.075685140001078111e+01,1.700000000000000122e-01
2.099931574000000190e+00,-1.082223048999999993e+00,1.313758556190842697e-01,1.000000000000000048e-04,3.898934753118959406e+01,1.100000000000000006e-01
8.155488279999999479e-01,-4.642700679999999802e-01,6.548079790708329906e-01,1.000000000000000048e-04,4.278594368866421149e+01,2.099999999999999922e-01
9.861636230000000447e-01,-6.881834650000000497e-01,1.093184841917001382e+00,1.000000000000000048e-04,4.426142219905231912e+01,1.300000000000000044e-01
1.864254864999999928e+00,-1.086684659999999969e+00,1.059470913623846045e+00,1.000000000000000048e-04,4.421890661437691961e+01,1.199999999999999956e-01
2.873066016000000111e+00,-9.753574739999999466e-01,1.246462215573531651e-01,1.000000000000000048e-04,3.889387780043637832e+01,1.300000000000000044e-01
2.270287562000000037e+00,-1.085086717999999895e+00,9.194191278731329575e-01,1.000000000000000048e-04,4.406276390779613195e+01,1.799999999999999933e-01
8.268071609999999572e-01,-4.587794940000000099e-01,2.343972041468416201e-01,1.000000000000000048e-04,4.021671212831545006e+01,1.199999999999999956e-01
-3.050869045179586347e+00,-7.648855789999999821e-01,2.459950690343868374e-01,1.000000000000000048e-04,4.044840219741873710e+01,1.199999999999999956e-01
1.101963728999999947e+00,-7.466317359999999903e-01,5.090242335327195278e-01,1.000000000000000048e-04,4.216449520425611297e+01,1.900000000000000022e-01
1.745116724000000064e+00,-1.056563783000000090e+00,4.469180660635587721e-01,1.000000000000000048e-04,4.205701616857280811e+01,1.300000000000000044e-01
7.889769570000000343e-01,-3.846565690000000037e-01,4.816803787520087532e-01,1.000000000000000048e-04,4.207553057792064521e+01,1.499999999999999944e-01
1.385818830999999918e+00,-9.278259679999999454e-01,7.554755606438139370e-01,1.000000000000000048e-04,4.356432311428120130e+01,1.499999999999999944e-01
1.138484923000000038e+00,-8.197145099999999518e-01,4.885274699769470708e-01,1.000000000000000048e-04,4.214893658915639918e+01,1.400000000000000133e-01
1.783410439000000069e+00,-1.080958507999999929e+00,1.228336947410131330e+00,1.000000000000000048e-04,4.466159312914467705e+01,1.400000000000000133e-01
2.617653461000000181e+00,-1.025884226000000066e+00,2.911857679492200202e-01,1.000000000000000048e-04,4.079303337281431396e+01,1.199999999999999956e-01
8.270197009999999960e-01,-4.157453939999999903e-01,9.014095820493330802e-01,1.000000000000000048e-04,4.392196722587637225e+01,1.199999999999999956e-01
3.128792493000000174e+00,-8.522697870000000009e-01,5.466942590465826424e-01,1.000000000000000048e-04,4.246705622030007987e+01,1.100000000000000006e-01
1.366158207000000013e+00,-9.614226009999999878e-01,7.690276108167923841e-01,1.000000000000000048e-04,4.356549210320546450e+01,1.100000000000000006e-01
2.846286316000000038e+00,-9.688357899999999745e-01,1.736406654121906978e-01,1.000000000000000048e-04,3.954867466414660271e+01,1.400000000000000133e-01
9.208216280000000031e-01,-6.185352929999999860e-01,4.823297395493364448e-01,1.000000000000000048e-04,4.230358462064391034e+01,1.499999999999999944e-01
7.622987450000000553e-01,-3.411912120000000215e-01,7.227041976516939137e-01,1.000000000000000048e-04,4.333015450625543252e+01,1.199999999999999956e-01
9.277931750000000255e-01,-5.813990460000000304e-01,4.587297831822247929e-01,1.000000000000000048e-04,4.222155254974028082e+01,2.099999999999999922e-01
1.010173165000000095e+00,-6.808591280000000356e-01,8.092000211723779923e-01,1.000000000000000048e-04,4.351650264848760941e+01,1.300000000000000044e-01
1.661181446000000062e+00,-1.029160687999999935e+00,3.460611216485602881e-01,1.000000000000000048e-04,4.145743669460750169e+01,1.400000000000000133e-01
2.089878704000000198e+00,-1.077863170999999953e+00,2.294301864702330551e-01,1.000000000000000048e-04,4.018172002872265836e+01,1.199999999999999956e-01
9.321550429999999610e-01,-6.212176799999999943e-01,8.324453834080030035e-01,1.000000000000000048e-04,4.372392101198564518e+01,1.199999999999999956e-01
2.944595597000000176e+00,-9.127602249999999806e-01,7.771987204392774018e-01,1.000000000000000048e-04,4.337974910932307893e+01,1.100000000000000006e-01
1.288081913999999939e+00,-9.113959929999999598e-01,1.497268554488055958e-01,1.000000000000000048e-04,3.919357213239365478e+01,1.300000000000000044e-01
1.398731861999999992e+00,-9.625033109999999725e-01,6.516571795605277106e-01,1.000000000000000048e-04,4.295549436720937564e+01,1.199999999999999956e-01
1.714165549000000066e+00,-1.043104095999999981e+00,5.190865924730916348e-01,1.000000000000000048e-04,4.229791270550484228e+01,1.199999999999999956e-01
1.014018395999999989e+00,-6.788913789999999615e-01,5.987364120359459640e-01,1.000000000000000048e-04,4.270980616693366017e+01,1.300000000000000044e-01
8.887761809999999985e-01,-5.541821719999999729e-01,1.625988198877270641e-01,1.000000000000000048e-04,3.964923236214724511e+01,1.300000000000000044e-01
1.026278256999999972e+00,-6.961882160000000264e-01,4.767580426194779619e-01,1.000000000000000048e-04,4.218716823874169819e+01,1.199999999999999956e-01
1.824970581999999952e+00,-1.080428363000000003e+00,2.971087699722489983e-01,1.000000000000000048e-04,4.109469927266012945e+01,1.199999999999999956e-01
1.839979185000000017e+00,-1.082878103999999952e+00,5.396804490934647980e-01,1.000000000000000048e-04,4.239190549471108227e+01,1.300000000000000044e-01
-3.070118813179586237e+00,-7.641942569999999879e-01,1.616316404905644433e-01,1.000000000000000048e-04,3.917488142456721789e+01,1.199999999999999956e-01
2.250776613000000204e+00,-1.110438553999999911e+00,1.765966749109497691e-01,1.000000000000000048e-04,3.946280525684301921e+01,1.199999999999999956e-01
2.613802471000000072e+00,-1.066258922999999914e+00,7.052588742523635545e-01,1.000000000000000048e-04,4.315810624953841312e+01,1.199999999999999956e-01
8.050150120000000298e-01,-4.193234060000000096e-01,1.464401764967790953e-01,1.000000000000000048e-04,3.916535714747873698e+01,1.499999999999999944e-01
2.809576177999999924e+00,-9.952447749999999704e-01,2.860140950170189100e-01,1.000000000000000048e-04,4.101747730759944233e+01,1.199999999999999956e-01
8.523447290000000232e-01,-4.773689010000000121e-01,8.239853230771494452e-01,1.000000000000000048e-04,4.432543758472750994e+01,2.000000000000000111e-01
2.975142320999999868e+00,-8.986192680000000266e-01,7.260762443724699811e-01,1.000000000000000048e-04,4.357431030503793323e+01,2.000000000000000111e-01
2.960578484000000010e+00,-9.174235720000000205e-01,7.848032817963246366e-01,1.000000000000000048e-04,4.358777617465899112e+01,1.400000000000000133e-01
1.589239559999999996e+00,-1.046132274999999945e+00,6.861741132390153375e-01,1.000000000000000048e-04,4.325768619353583233e+01,1.199999999999999956e-01
1.095136271999999966e+00,-7.909478989999999543e-01,2.582235914290431644e-01,1.000000000000000048e-04,4.055400673977386106e+01,1.300000000000000044e-01
3.045277111999999953e+00,-8.831592660000000539e-01,4.254057668725801378e-01,1.000000000000000048e-04,4.200377086284716199e+01,1.799999999999999933e-01
3.011317304999999944e+00,-8.969173430000000335e-01,3.656347916500650719e-01,1.000000000000000048e-04,4.141074637401924718e+01,1.499999999999999944e-01
1.946036051000000100e+00,-1.101857058000000000e+00,5.603541860935103980e-01,1.000000000000000048e-04,4.245984389658612201e+01,1.100000000000000006e-01
9.659444579999999503e-01,-6.400164339999999674e-01,1.272382428896875251e+00,1.000000000000000048e-04,4.483971948709399413e+01,1.199999999999999956e-01
1.142944595999999979e+00,-8.229314749999999679e-01,4.385666887248065304e-01,1.000000000000000048e-04,4.203871263161985183e+01,1.499999999999999944e-01
1.336859599999999926e+00,-9.462661719999999610e-01,6.010175627568623558e-01,1.000000000000000048e-04,4.256298618327411987e+01,1.900000000000000022e-01
2.386695267999999981e+00,-1.099692616000000012e+00,1.511418215331268300e-01,1.000000000000000048e-04,3.935053663164694626e+01,1.799999999999999933e-01
1.122946417999999946e+00,-7.871106610000000448e-01,1.691095931507287098e-01,1.000000000000000048e-04,3.973952137627451009e+01,1.499999999999999944e-01
1.038511049000000019e+00,-6.836743480000000428e-01,1.402018566361453722e-01,1.000000000000000048e-04,3.886056335148170859e+01,1.499999999999999944e-01
-1.865548755179585960e+00,5.988235499999999822e-01,3.549803653405911863e-01,1.000000000000000048e-04,4.211834627888544702e+01,3.599999999999999867e-01
-1.208774007179585830e+00,1.086301519000000049e+00,1.208121049241502210e+00,1.000000000000000048e-04,4.450132561669877163e+01,3.900000000000000133e-01
-1.451351928179586359e+00,1.047303024999999943e+00,5.823157322577954265e-01,1.000000000000000048e-04,4.304702441722401574e+01,3.900000000000000133e-01
-1.863787002179586594e+00,5.986409590000000280e-01,7.338989463954730397e-01,1.000000000000000048e-04,4.342387023176004135e+01,3.099999999999999978e-01
-2.367107747179586053e+00,3.570653329999999848e-01,3.326853549551964662e-01,1.000000000000000048e-04,4.124139277771801204e+01,3.300000000000000155e-01
3.110012692999999828e+00,-8.816387980000000013e-01,2.643234372899336826e-01,1.000000000000000048e-04,4.071764100266083375e+01,4.000000000000000222e-01
1.208427087000000011e+00,6.391205479999999550e-01,2.652749623875338969e-01,1.000000000000000048e-04,4.139904488839994912e+01,3.200000000000000067e-01
2.195568135999999893e+00,9.530612539999999688e-01,2.673539829817133118e-01,1.000000000000000048e-04,4.085175705140507318e+01,3.200000000000000067e-01
-1.746303855179585973e+00,7.561700099999999480e-01,6.898427815872909541e-01,1.000000000000000048e-04,4.266039469776640658e+01,3.599999999999999867e-01
-2.613733020179586308e+00,3.020363409999999860e-01,6.782600997546528454e-01,1.000000000000000048e-04,4.351150674356579628e+01,2.399999999999999911e-01
3.080075141000000016e+00,6.813462000000000129e-01,1.848951138260632732e-01,1.000000000000000048e-04,4.034726160511040405e+01,2.999999999999999889e-01
3.084152930000000126e+00,6.750201959999999612e-01,3.110004817567610935e-01,1.000000000000000048e-04,4.117645830018320652e+01,2.399999999999999911e-01
-2.831540824179586302e+00,-5.193198470000000011e-01,3.156228319934997195e-01,1.000000000000000048e-04,4.125539622368965809e+01,2.899999999999999800e-01
2.921667255000000019e+00,-9.403574120000000036e-01,6.047322170199138647e-01,1.000000000000000048e-04,4.295678035691711472e+01,2.899999999999999800e-01
2.610543199999999953e+00,9.294079060000000059e-01,3.253722445777871286e-01,1.000000000000000048e-04,4.068972062194161765e+01,2.899999999999999800e-01
2.614058957000000127e+00,9.310355519999999885e-01,4.499852996032658314e-01,1.000000000000000048e-04,4.200390749931392520e+01,3.699999999999999956e-01
-2.614313936179586406e+00,3.105085300000000048e-01,2.142510979514127278e-01,1.000000000000000048e-04,4.033427266813993839e+01,2.300000000000000100e-01
-2.614275993179586255e+00,3.084493819999999942e-01,5.563266160397761784e-01,1.000000000000000048e-04,4.218214246356670571e+01,2.000000000000000111e-01
3.080236718000000096e+00,6.852664600000000217e-01,3.884688726707561379e-01,1.000000000000000048e-04,4.202139651844463231e+01,3.800000000000000044e-01
3.085135451000000195e+00,6.840520260000000352e-01,6.893183942670149111e-01,1.000000000000000048e-04,4.293232877823251670e+01,2.300000000000000100e-01
-2.829361723179586452e+00,-5.190188390000000096e-01,4.877232649331999514e-01,1.000000000000000048e-04,4.263203041480552002e+01,3.900000000000000133e-01
-2.833706243179586082e+00,-5.260186759999999628e-01,4.845445678570712289e-01,1.000000000000000048e-04,4.218068894374590627e+01,2.200000000000000011e-01
1.286414458000000094e+00,-9.076167339999999806e-01,1.912940627170733876e-01,1.000000000000000048e-04,3.965470919902558222e+01,2.399999999999999911e-01
2.295144749999999956e+00,-1.095028292000000070e+00,3.934616292110229008e-01,1.000000000000000048e-04,4.195769127328280490e+01,2.000000000000000111e-01
2.312115046000000174e+00,-1.091482969000000081e+00,1.231705503963133275e+00,1.000000000000000048e-04,4.495131563175677059e+01,1.900000000000000022e-01
2.535381049000000164e+00,-1.063602453999999975e+00,3.883350156627953798e-01,1.000000000000000048e-04,4.184859625150626528e+01,2.600000000000000089e-01
2.549902755000000187e+00,-1.059649137999999935e+00,3.660821620343526206e-01,1.000000000000000048e-04,4.170085571152188209e+01,1.900000000000000022e-01
-2.980466121795863899e-01,1.081935794000000062e+00,9.216081148360306674e-01,1.000000000000000048e-04,4.386154614241301175e+01,1.000000000000000056e-01
-4.562223411795862660e-01,1.078420874000000085e+00,1.489189083899178367e-01,1.000000000000000048e-04,3.935189929458577041e+01,1.400000000000000133e-01
-4.727696341795866175e-01,1.076427226000000070e+00,5.512907037703362878e-01,1.000000000000000048e-04,4.241171684646300832e+01,1.900000000000000022e-01
-4.909850281795860028e-01,1.086050390999999893e+00,3.459400161470742585e-01,1.000000000000000048e-04,4.097290876290460915e+01,1.499999999999999944e-01
-1.809890014179586615e+00,8.554848849999999727e-01,2.338008583755735170e-01,1.000000000000000048e-04,4.020661422976181854e+01,1.900000000000000022e-01
-1.804843805179586091e+00,8.509932909999999850e-01,1.531979662323821323e-01,1.000000000000000048e-04,3.932052960601517100e+01,1.700000000000000122e-01
-1.798315402179586187e+00,8.389159160000000393e-01,2.626470729601573240e-01,1.000000000000000048e-04,4.059941876334609390e+01,1.100000000000000006e-01
-1.820018681179586650e+00,8.404092629999999620e-01,8.905772174190598189e-01,1.000000000000000048e-04,4.372841913288070259e+01,2.000000000000000111e-01
-2.435936564179586039e+00,3.767214549999999829e-01,1.346522070014024575e-01,1.000000000000000048e-04,3.927323386195723742e+01,1.700000000000000122e-01
-2.738532057179586143e+00,-4.670391260000000266e-01,1.582039000570416576e-01,1.000000000000000048e-04,3.938576437408917741e+01,1.100000000000000006e-01
-2.750126147179586145e+00,-4.750163370000000107e-01,5.101275416765844728e-01,1.000000000000000048e-04,4.229300362015410286e+01,1.700000000000000122e-01
6.777063359999999648e-01,-9.284162910000000046e-01,5.048889471741047075e-01,1.000000000000000048e-04,4.214861087805009277e+01,1.600000000000000033e-01
6.755664329999999662e-01,-9.242990760000000527e-01,1.304905919435232153e+00,1.000000000000000048e-04,4.475299569809617140e+01,2.200000000000000011e-01
1.666277256000000095e+00,1.035703752000000089e+00,3.799917826336152160e-01,1.000000000000000048e-04,4.133984126320391539e+01,2.800000000000000266e-01
1.679531192000000006e+00,1.034147155999999956e+00,2.152626159482691204e-01,1.000000000000000048e-04,4.037643957522413274e+01,2.099999999999999922e-01
1.669961188000000041e+00,1.045784459000000055e+00,3.477231535337901303e-01,1.000000000000000048e-04,4.136946633779491123e+01,2.899999999999999800e-01
1.666612017000000057e+00,1.035903760999999923e+00,3.820212407613901018e-01,1.000000000000000048e-04,4.138330004428241438e+01,1.400000000000000133e-01
1.676630470000000095e+00,1.049302589999999924e+00,2.506186103062335579e-01,1.000000000000000048e-04,4.074516159106526914e+01,1.600000000000000033e-01
1.678871634000000057e+00,1.037439988999999896e+00,5.816607864583147602e-01,1.000000000000000048e-04,4.279863722182508923e+01,2.099999999999999922e-01
-2.159653925179585876e+00,7.341517600000000421e-01,2.234701610629623580e-01,1.000000000000000048e-04,4.051744698111838971e+01,2.600000000000000089e-01
-2.155609593179586447e+00,7.327229189999999726e-01,1.829853933490164231e-01,1.000000000000000048e-04,3.958221583459123849e+01,1.400000000000000133e-01
2.989279821999999864e+00,-1.014333855000000062e+00,6.281065926664102239e-01,1.000000000000000048e-04,4.286374815410088246e+01,1.600000000000000033e-01
6.962963009999999509e-01,-9.242906640000000396e-01,3.273469873065526503e-01,1.000000000000000048e-04,4.086724790693453713e+01,2.000000000000000111e-01
6.831622830000000368e-01,-9.295060950000000322e-01,6.685351898242417601e-01,1.000000000000000048e-04,4.294965116139529471e+01,2.099999999999999922e-01
6.813526220000000189e-01,-9.196739680000000083e-01,6.134079314431382102e-01,1.000000000000000048e-04,4.261181902882074723e+01,1.700000000000000122e-01
1.667475545999999920e+00,1.039138789999999979e+00,5.713955805066823768e-01,1.000000000000000048e-04,4.279697494746890385e+01,1.499999999999999944e-01
1.669072946000000002e+00,1.039627206000000026e+00,5.701919234509509327e-01,1.000000000000000048e-04,4.240756689264485857e+01,1.700000000000000122e-01
2.992464221000000091e+00,-1.009427984000000000e+00,5.912987004156857740e-01,1.000000000000000048e-04,4.268712427685967015e+01,1.400000000000000133e-01
3.013377762000000182e+00,-1.015725085999999999e+00,2.486994750335838056e-01,1.000000000000000048e-04,4.077062160168154037e+01,1.499999999999999944e-01
6.857830799999999893e-01,-9.290922369999999875e-01,6.758758352119020874e-01,1.000000000000000048e-04,4.251815446290304124e+01,3.400000000000000244e-01
6.874880420000000214e-01,-9.251381180000000093e-01,2.569050966985189088e-01,1.000000000000000048e-04,4.047863101335769898e+01,1.700000000000000122e-01
1.659686511000000086e+00,1.040101345999999927e+00,3.155922492231588716e-01,1.000000000000000048e-04,4.124560106470639909e+01,1.400000000000000133e-01
1.692629780999999944e+00,1.043637506000000048e+00,1.210151847762402255e+00,1.000000000000000048e-04,4.464338064138707551e+01,1.799999999999999933e-01
1.682450028999999958e+00,1.049226146999999942e+00,5.477218729661772478e-01,1.000000000000000048e-04,4.225630469265803413e+01,1.900000000000000022e-01
1.675255906999999933e+00,1.048468626000000015e+00,1.059331900704667540e+00,1.000000000000000048e-04,4.422721290787732329e+01,1.499999999999999944e-01
1.692145135000000078e+00,1.039981480000000014e+00,1.311182442426557238e+00,1.000000000000000048e-04,4.463354537621264484e+01,1.700000000000000122e-01
-2.139768073179586061e+00,7.360294179999999908e-01,4.643021183857285461e-01,1.000000000000000048e-04,4.207015412024176015e+01,1.600000000000000033e-01
-2.138731675179585956e+00,7.369836659999999817e-01,1.208984954939167356e+00,1.000000000000000048e-04,4.460275116606574386e+01,1.499999999999999944e-01
6.888283630000000546e-01,-9.193630990000000169e-01,1.652987784270001370e-01,1.000000000000000048e-04,3.965560390311902950e+01,1.700000000000000122e-01
6.776433490000000059e-01,-9.225326109999999469e-01,6.686581346624411726e-01,1.000000000000000048e-04,4.300325424731075685e+01,1.600000000000000033e-01
6.820513620000000499e-01,-9.162569579999999547e-01,7.313219379899202899e-01,1.000000000000000048e-04,4.277048397287033765e+01,2.899999999999999800e-01
6.832637360000000104e-01,-9.208365670000000502e-01,1.577744692975442398e-01,1.000000000000000048e-04,3.931925304326252046e+01,1.400000000000000133e-01
1.683256381999999940e+00,1.050427892999999946e+00,3.314515844296872515e-01,1.000000000000000048e-04,4.129471479306538839e+01,1.499999999999999944e-01
2.987248335999999949e+00,-1.011507587000000097e+00,5.592727319024559662e-01,1.000000000000000048e-04,4.258704560383124260e+01,1.900000000000000022e-01
2.994879214000000012e+00,-1.020537374999999969e+00,3.919883892511102363e-01,1.000000000000000048e-04,4.175060846075216858e+01,2.500000000000000000e-01
2.997056848999999801e+00,-1.020797841000000039e+00,2.209119165245769789e-01,1.000000000000000048e-04,4.033364624930617737e+01,1.499999999999999944e-01
6.981827720000000070e-01,-9.201470600000000166e-01,3.885923374993212054e-01,1.000000000000000048e-04,4.170502557328522641e+01,2.099999999999999922e-01
1.675679171999999939e+00,1.042232051000000048e+00,1.816797174699098516e-01,1.000000000000000048e-04,3.958159444037431030e+01,1.900000000000000022e-01
1.682732345000000018e+00,1.051774148000000020e+00,2.417794259456540473e-01,1.000000000000000048e-04,4.036250353815605507e+01,2.099999999999999922e-01
1.655763980999999996e+00,1.041789395999999979e+00,1.218616952693900579e-01,1.000000000000000048e-04,3.900839939711782023e+01,2.099999999999999922e-01
1.658505131999999938e+00,1.042043577999999915e+00,8.670365874205581136e-01,1.000000000000000048e-04,4.360253629377341156e+01,1.499999999999999944e-01
1.679931540999999973e+00,1.044700675999999939e+00,1.837157022512128091e-01,1.000000000000000048e-04,3.960419287734008265e+01,1.400000000000000133e-01
1.681131209999999987e+00,1.046558263000000100e+00,1.987277141946148795e-01,1.000000000000000048e-04,3.940888068793673682e+01,3.800000000000000044e-01
-2.147380102179586636e+00,7.248191320000000326e-01,4.729070384483751166e-01,1.000000000000000048e-04,4.211982355824946467e+01,2.200000000000000011e-01
-2.137481690179586558e+00,7.386978770000000027e-01,2.795592037298435528e-01,1.000000000000000048e-04,4.085145434862405978e+01,1.499999999999999944e-01
3.007533192999999994e+00,-1.006434849999999992e+00,3.706727095674327010e-01,1.000000000000000048e-04,4.165762369846335389e+01,1.700000000000000122e-01
6.766177190000000063e-01,-9.309161569999999664e-01,4.039154076479061217e-01,1.000000000000000048e-04,4.190155361046293336e+01,1.700000000000000122e-01
6.879719020000000240e-01,-9.170357009999999809e-01,4.761820235177307570e-01,1.000000000000000048e-04,4.174045254797389504e+01,2.600000000000000089e-01
6.868192690000000100e-01,-9.190749710000000183e-01,1.527118092503740865e-01,1.000000000000000048e-04,3.960706874921909559e+01,2.800000000000000266e-01
1.680927606000000019e+00,1.043199457999999913e+00,6.596001368961215139e-01,1.000000000000000048e-04,4.325554079255111617e+01,1.799999999999999933e-01
1.680733408999999901e+00,1.046110547000000057e+00,3.546527563454531240e-01,1.000000000000000048e-04,4.151368623940089719e+01,1.499999999999999944e-01
3.003205794999999956e+00,-1.007960921000000010e+00,8.740471518518966310e-01,1.000000000000000048e-04,4.361911501037799610e+01,2.200000000000000011e-01
3.013387552999999830e+00,-1.018013843000000085e+00,5.353701141129516561e-01,1.000000000000000048e-04,4.232736639279375623e+01,2.000000000000000111e-01
2.991633154000000072e+00,-1.018575491000000000e+00,5.557362320114955789e-01,1.000000000000000048e-04,4.245436231640857727e+01,1.600000000000000033e-01
6.810583510000000063e-01,-9.216344210000000370e-01,1.252274272137960942e-01,1.000000000000000048e-04,3.902835725333325456e+01,1.600000000000000033e-01
1.670069762000000013e+00,1.048284639000000018e+00,3.122389447766025228e-01,1.000000000000000048e-04,4.127596786201515755e+01,2.099999999999999922e-01
1.699713636000000028e+00,1.040243690999999915e+00,3.858181480883757786e-01,1.000000000000000048e-04,4.095690189104281842e+01,2.899999999999999800e-01
1.686195045999999920e+00,1.048540513999999924e+00,6.414270328829345669e-01,1.000000000000000048e-04,4.290767860378421261e+01,1.400000000000000133e-01
1.667162669999999958e+00,1.044746053999999980e+00,4.655336323709837743e-01,1.000000000000000048e-04,4.190820298948473521e+01,2.700000000000000178e-01
1.689467040999999892e+00,1.036330184999999959e+00,9.698449308631991173e-01,1.000000000000000048e-04,4.396460762579690140e+01,1.300000000000000044e-01
1.683799076999999977e+00,1.043385784000000038e+00,1.322106127317366209e-01,1.000000000000000048e-04,3.923204505476255122e+01,1.700000000000000122e-01
-2.151455832179586025e+00,7.398983139999999459e-01,2.149701288079670647e-01,1.000000000000000048e-04,4.026412956396413989e+01,2.500000000000000000e-01
-2.141944958179585967e+00,7.302793560000000461e-01,1.444612622075660546e-01,1.000000000000000048e-04,3.925153467114992623e+01,1.400000000000000133e-01
3.012489310999999947e+00,-1.019874449000000016e+00,3.983879998464665562e-01,1.000000000000000048e-04,4.189348910742438648e+01,1.900000000000000022e-01
6.824463880000000149e-01,-9.193269539999999740e-01,2.456541731387913430e-01,1.000000000000000048e-04,4.050570792693828537e+01,1.600000000000000033e-01
6.933168330000000212e-01,-9.307474239999999899e-01,2.402077117525458494e-01,1.000000000000000048e-04,4.038671510437919210e+01,1.600000000000000033e-01
7.005346909999999871e-01,-9.247541049999999929e-01,3.024292861940491850e-01,1.000000000000000048e-04,4.124792791352817289e+01,2.700000000000000178e-01
1.674988617999999985e+00,1.042237757999999959e+00,3.915746959186952036e-01,1.000000000000000048e-04,4.151798212853992709e+01,1.499999999999999944e-01
1.672026148000000045e+00,1.039374368000000048e+00,1.219291212087031173e+00,1.000000000000000048e-04,4.469243245242376616e+01,1.600000000000000033e-01
2.993618983999999816e+00,-1.008517228000000099e+00,5.569444822252278549e-01,1.000000000000000048e-04,4.276576349735743321e+01,1.700000000000000122e-01
2.992837709999999873e+00,-1.014889098000000045e+00,1.404004828009866035e-01,1.000000000000000048e-04,3.868708429031062934e+01,2.800000000000000266e-01
2.980621672999999916e+00,-1.012535224000000067e+00,4.175657869901849839e-01,1.000000000000000048e-04,4.197629979702678327e+01,1.499999999999999944e-01
3.118379398000000080e+00,-1.044341935000000055e+00,2.767153056180455817e-01,1.000000000000000048e-04,4.054484949342462841e+01,3.099999999999999978e-01
3.132904315000000217e+00,-1.046896950999999909e+00,5.342946963194528109e-01,1.000000000000000048e-04,4.220921694531048729e+01,2.200000000000000011e-01
1.248659997999999938e+00,-1.117162079000000086e+00,2.609748785038485952e-01,1.000000000000000048e-04,4.048690102001278035e+01,2.700000000000000178e-01
2.302446713000000145e+00,-1.091359299000000060e+00,1.872991065826052903e-01,1.000000000000000048e-04,4.004265520663550149e+01,2.899999999999999800e-01
3.133486173000000097e+00,-1.061461677999999909e+00,1.934296879650079237e-01,1.000000000000000048e-04,4.024474693048828300e+01,3.099999999999999978e-01
1.251013366000000016e+00,-1.102704651999999896e+00,6.561382524052328247e-01,1.000000000000000048e-04,4.285294480707847242e+01,2.300000000000000100e-01
1.232341668999999973e+00,-1.105349812000000043e+00,8.377522288109882087e-01,1.000000000000000048e-04,4.384584735929147570e+01,2.200000000000000011e-01
2.330538756999999794e+00,-1.086213730999999960e+00,5.104076722179993197e-01,1.000000000000000048e-04,4.234691791525068538e+01,2.300000000000000100e-01
3.104372880000000112e+00,-1.050765708999999992e+00,3.741145913958556779e-01,1.000000000000000048e-04,4.122184983448712359e+01,2.200000000000000011e-01
3.122794933000000217e+00,-1.050942575000000101e+00,5.463342165584974541e-01,1.000000000000000048e-04,4.269865614249990671e+01,2.099999999999999922e-01
3.135928428000000157e+00,-1.044986675000000087e+00,1.804250341386461898e-01,1.000000000000000048e-04,3.975724959567875061e+01,2.300000000000000100e-01
3.135701593999999925e+00,-1.049448040999999998e+00,1.217602028967028627e-01,1.000000000000000048e-04,3.833948727898110320e+01,2.399999999999999911e-01
2.902190216000000156e+00,-1.054666754000000095e+00,3.658602629010976326e-01,1.000000000000000048e-04,4.154492301099384832e+01,2.099999999999999922e-01
1.219278212000000083e+00,-1.102494101000000004e+00,1.144001156318467771e+00,1.000000000000000048e-04,4.453479916943664563e+01,2.399999999999999911e-01
2.314258420999999899e+00,-1.073777474999999981e+00,8.522004825404834172e-01,1.000000000000000048e-04,4.383479758910331725e+01,2.399999999999999911e-01
3.138600745000000192e+00,-1.056209613999999908e+00,2.267325972813591939e-01,1.000000000000000048e-04,4.042955714392898159e+01,2.800000000000000266e-01
2.873014373000000177e+00,-1.047336534999999902e+00,8.868005575054922485e-01,1.000000000000000048e-04,4.362840660101753798e+01,2.000000000000000111e-01
2.890150627000000139e+00,-1.045368942999999939e+00,1.006975231881073629e+00,1.000000000000000048e-04,4.434467568226468615e+01,2.200000000000000011e-01
-3.136513490179586139e+00,-1.038988312000000080e+00,2.690636360647182812e-01,1.000000000000000048e-04,4.100164767621414796e+01,2.800000000000000266e-01
3.120369102000000172e+00,-1.042910143999999928e+00,2.435431764526458931e-01,1.000000000000000048e-04,4.012572755500787025e+01,2.399999999999999911e-01
3.132773262000000170e+00,-1.048570620000000009e+00,4.371546249182434174e-01,1.000000000000000048e-04,4.200444281776139377e+01,2.300000000000000100e-01
3.132934141999999866e+00,-1.046888051000000042e+00,9.739817834157771248e-01,1.000000000000000048e-04,4.394455335808918761e+01,2.200000000000000011e-01
3.134455274000000014e+00,-1.046257098000000108e+00,1.331812595383285114e+00,1.000000000000000048e-04,4.427947352073816489e+01,2.200000000000000011e-01
2.910504301000000016e+00,-1.063930792999999930e+00,3.374402015492290463e-01,1.000000000000000048e-04,4.135824591656786708e+01,2.399999999999999911e-01
2.301930878999999930e+00,-1.084305269999999988e+00,3.639728925900433953e-01,1.000000000000000048e-04,4.090228344545715800e+01,3.099999999999999978e-01
2.314913878000000036e+00,-1.104421796000000011e+00,5.313310773032102752e-01,1.000000000000000048e-04,4.229776207028456270e+01,2.600000000000000089e-01
1.232494258000000009e+00,-1.089556776000000005e+00,4.599221071971606456e-01,1.000000000000000048e-04,4.207026654507870234e+01,3.099999999999999978e-01
-3.138875270179586341e+00,-1.027091259999999950e+00,1.239507536670768850e+00,1.000000000000000048e-04,4.414673492064738980e+01,3.800000000000000044e-01
1.277748142000000087e+00,-1.105660628999999950e+00,1.770823388953275401e-01,1.000000000000000048e-04,3.987492580150508559e+01,2.500000000000000000e-01
2.339694710999999927e+00,-1.083680948999999893e+00,3.551770787025250176e-01,1.000000000000000048e-04,4.194265155831528347e+01,2.300000000000000100e-01
3.085408954000000037e+00,-1.045989441999999991e+00,3.350757408508582280e-01,1.000000000000000048e-04,4.180658637720618742e+01,2.800000000000000266e-01
3.122183823999999941e+00,-1.053540683000000033e+00,2.271564357479831653e-01,1.000000000000000048e-04,4.066956461090841657e+01,3.699999999999999956e-01
1.263417701000000060e+00,-1.099941301000000093e+00,5.205297618348847521e-01,1.000000000000000048e-04,4.251984857560106690e+01,2.200000000000000011e-01
1.238769020999999970e+00,-1.122513239999999968e+00,2.473350467071075975e-01,1.000000000000000048e-04,4.097279488484840471e+01,2.600000000000000089e-01
1.225778744000000087e+00,-1.107856694000000086e+00,2.149055405694657583e-01,1.000000000000000048e-04,4.005854784566290050e+01,2.500000000000000000e-01
2.356185176999999964e+00,-1.090954028000000076e+00,2.595123809527655201e-01,1.000000000000000048e-04,4.022085406399951779e+01,2.700000000000000178e-01
1.231078855000000027e+00,-1.109460918999999990e+00,3.892589893200122386e-01,1.000000000000000048e-04,4.173007823899544633e+01,2.300000000000000100e-01
2.350025410999999842e+00,-1.078254897999999962e+00,1.877474366731275435e-01,1.000000000000000048e-04,3.960120645891355906e+01,2.300000000000000100e-01
2.889344674999999807e+00,-1.054064458000000037e+00,7.004581168278394276e-01,1.000000000000000048e-04,4.274757737158789439e+01,3.200000000000000067e-01
1.260972444000000081e+00,-1.102168519999999985e+00,7.347453738138347568e-01,1.000000000000000048e-04,4.301092121961285386e+01,2.899999999999999800e-01
3.138597202000000141e+00,-1.049455424000000026e+00,3.365274724904572246e-01,1.000000000000000048e-04,4.116245161612606296e+01,2.600000000000000089e-01
1.280173519000000093e+00,-1.106045986000000036e+00,5.790063442323691856e-01,1.000000000000000048e-04,4.230588754085815140e+01,2.899999999999999800e-01
3.140421104000000074e+00,-1.048273016000000002e+00,1.469567308947212769e-01,1.000000000000000048e-04,3.876918239163143909e+01,2.700000000000000178e-01
2.887571490000000018e+00,-1.060290981000000077e+00,5.596154258120509262e-01,1.000000000000000048e-04,4.269523176939645737e+01,2.300000000000000100e-01
3.117377486000000086e+00,-1.048849812999999909e+00,1.958366771137176610e-01,1.000000000000000048e-04,3.983297264449966946e+01,2.800000000000000266e-01
3.139331405000000075e+00,-1.045946368000000071e+00,4.755870551273719826e-01,1.000000000000000048e-04,4.205007195368020234e+01,2.300000000000000100e-01
2.901812189000000153e+00,-1.070407117000000019e+00,1.053177090631362223e+00,1.000000000000000048e-04,4.445691305063931509e+01,2.200000000000000011e-01
2.874698792999999863e+00,-1.069280417999999955e+00,2.318193854368966189e-01,1.000000000000000048e-04,4.038938602758079810e+01,2.200000000000000011e-01
3.126790450000000110e+00,-1.053686536000000062e+00,4.129717862905184500e-01,1.000000000000000048e-04,4.158628027577515240e+01,2.099999999999999922e-01
1.253234667999999941e+00,-1.096167120000000050e+00,3.130416184097299936e-01,1.000000000000000048e-04,4.119961823430829639e+01,2.200000000000000011e-01
1.242189800000000011e+00,-1.095888138000000067e+00,2.520041070567087260e-01,1.000000000000000048e-04,4.012764641167343171e+01,2.899999999999999800e-01
2.358704259000000025e+00,-1.096119858000000002e+00,2.953778627837828630e-01,1.000000000000000048e-04,4.077179440920055242e+01,2.099999999999999922e-01
3.090657074000000115e+00,-1.046905049999999893e+00,3.081493572121776214e-01,1.000000000000000048e-04,4.075791838030352920e+01,2.300000000000000100e-01
2.350320292999999783e+00,-1.077642637000000070e+00,5.448429868333022341e-01,1.000000000000000048e-04,4.235417202507448309e+01,3.300000000000000155e-01
3.120911620999999858e+00,-1.047605429999999949e+00,3.544129213366986608e-01,1.000000000000000048e-04,4.186899414096564698e+01,2.899999999999999800e-01
2.310418793000000193e+00,-1.091478047999999923e+00,5.681356094219740527e-01,1.000000000000000048e-04,4.261114081710636725e+01,3.300000000000000155e-01
2.888242410000000149e+00,-1.055260810999999910e+00,3.466163712825469645e-01,1.000000000000000048e-04,4.177295493252920977e+01,2.999999999999999889e-01
2.313880778000000138e+00,-1.089056457000000089e+00,1.470373166732503734e-01,1.000000000000000048e-04,3.925053274392130476e+01,2.600000000000000089e-01
3.096505394999999883e+00,-1.050897790999999915e+00,5.315514232485922808e-01,1.000000000000000048e-04,4.287377861270446999e+01,3.300000000000000155e-01
1.264206060000000020e+00,-1.108314516000000083e+00,1.354993175386305371e-01,1.000000000000000048e-04,3.892838129513346956e+01,2.500000000000000000e-01
2.317080779999999951e+00,-1.080569537999999996e+00,5.826600082216488730e-01,1.000000000000000048e-04,4.307052985029707770e+01,2.399999999999999911e-01
2.308161032000000112e+00,-1.080284865999999955e+00,7.280780832157474070e-01,1.000000000000000048e-04,4.292908879901150243e+01,3.900000000000000133e-01
1.213089824000000094e+00,-1.095999417000000031e+00,3.051442423705130746e-01,1.000000000000000048e-04,4.063557363796673627e+01,2.700000000000000178e-01
3.095344697999999894e+00,-1.044259242999999948e+00,4.044541930169829325e-01,1.000000000000000048e-04,4.146073894255209069e+01,2.200000000000000011e-01
3.093500166000000107e+00,-1.047656949999999920e+00,6.099415137170267620e-01,1.000000000000000048e-04,4.270552302875271522e+01,2.300000000000000100e-01
2.871266652000000086e+00,-1.064917746999999970e+00,2.589285551037172617e-01,1.000000000000000048e-04,4.049060866140694515e+01,2.500000000000000000e-01
2.872879009000000039e+00,-1.076645507999999918e+00,3.195395826573450559e-01,1.000000000000000048e-04,4.118017756086921821e+01,2.099999999999999922e-01
1.241294699000000001e+00,-1.109043570000000090e+00,1.157819477701565791e+00,1.000000000000000048e-04,4.454242765503539658e+01,2.099999999999999922e-01
1.238788393000000099e+00,-1.083197141000000085e+00,1.609003360546736872e-01,1.000000000000000048e-04,3.979648674781855533e+01,2.999999999999999889e-01
-3.140928712179586135e+00,-1.049943351000000025e+00,1.992465591527465829e-01,1.000000000000000048e-04,3.985593233792616275e+01,2.200000000000000011e-01
2.897074545000000168e+00,-1.050668165000000043e+00,2.799068504308837024e-01,1.000000000000000048e-04,4.096828001775572403e+01,2.099999999999999922e-01
3.133488720999999977e+00,-1.053899826000000095e+00,3.318870263560735889e-01,1.000000000000000048e-04,4.106063622974443206e+01,2.300000000000000100e-01
2.854965548000000020e+00,-1.051119023000000041e+00,1.452733576835560925e-01,1.000000000000000048e-04,3.887253750555711207e+01,3.200000000000000067e-01
2.846666281000000076e+00,-1.061494909000000098e+00,6.295155989247573913e-01,1.000000000000000048e-04,4.292869596962205492e+01,2.600000000000000089e-01
1.477625364000000108e+00,-9.892628350000000070e-01,2.400118663738570746e-01,1.000000000000000048e-04,4.013709588817091145e+01,2.000000000000000111e-01
-2.998301261179586064e+00,-5.567642400000000213e-01,3.153972175292978353e-01,1.000000000000000048e-04,4.108681181659617465e+01,1.799999999999999933e-01
2.915910107000000195e+00,-9.248875840000000403e-01,4.643311360058266501e-01,1.000000000000000048e-04,4.228552685006876999e+01,2.999999999999999889e-01
2.904218159000000021e+00,-9.279150130000000107e-01,4.017461433959552686e-01,1.000000000000000048e-04,4.173449719693854121e+01,2.399999999999999911e-01
2.945746643000000109e+00,-9.241091030000000428e-01,4.081409904564510249e-01,1.000000000000000048e-04,4.174602953344991363e+01,2.300000000000000100e-01
2.195221751000000054e+00,9.567984520000000215e-01,4.984166923296222684e-01,1.000000000000000048e-04,4.207569941419532711e+01,2.200000000000000011e-01
-2.382074272179586227e+00,-9.504311730000000180e-01,4.411504178222007688e-01,1.000000000000000048e-04,4.165188988793094893e+01,2.300000000000000100e-01
2.197803225999999999e+00,9.560313849999999558e-01,6.391923280271920582e-01,1.000000000000000048e-04,4.271394872882539318e+01,2.300000000000000100e-01
-2.380846050179586282e+00,-9.512843520000000552e-01,3.101013188814809585e-01,1.000000000000000048e-04,4.105434884660795802e+01,2.600000000000000089e-01
-2.382960995179586039e+00,-9.501026420000000527e-01,3.210831958682898168e-01,1.000000000000000048e-04,4.077123161587715572e+01,2.099999999999999922e-01
2.192165822000000208e+00,9.554729659999999791e-01,7.045666254410731799e-01,1.000000000000000048e-04,4.316524297179559966e+01,2.899999999999999800e-01
-2.383512939179586176e+00,-9.505219620000000535e-01,3.575321423820472244e-01,1.000000000000000048e-04,4.123505643396952536e+01,2.000000000000000111e-01
2.197044292000000176e+00,9.582492320000000063e-01,1.236297874062610713e-01,1.000000000000000048e-04,3.909413571361929485e+01,2.500000000000000000e-01
2.198013217999999824e+00,9.570721989999999568e-01,6.521600174289365892e-01,1.000000000000000048e-04,4.258435591157333988e+01,2.099999999999999922e-01
2.198391541999999976e+00,9.561199929999999458e-01,1.263269084537510523e-01,1.000000000000000048e-04,3.867897230770259398e+01,2.300000000000000100e-01
2.199218732999999926e+00,9.570277640000000030e-01,2.182602092168164365e-01,1.000000000000000048e-04,4.032276815889135690e+01,2.200000000000000011e-01
2.196667974999999995e+00,9.569524729999999701e-01,3.004894877750332594e-01,1.000000000000000048e-04,4.074409990967916428e+01,2.399999999999999911e-01
2.196400267000000017e+00,9.571105250000000453e-01,3.656209570853341528e-01,1.000000000000000048e-04,4.139768476010662823e+01,2.500000000000000000e-01
2.195980999000000100e+00,9.563170869999999546e-01,3.069341110121703853e-01,1.000000000000000048e-04,4.075148603043543716e+01,2.200000000000000011e-01
2.198886345000000020e+00,9.574225640000000315e-01,7.167726495354120875e-01,1.000000000000000048e-04,4.366733802790917451e+01,3.300000000000000155e-01
-2.382942164179586264e+00,-9.487821469999999646e-01,5.229456381140240584e-01,1.000000000000000048e-04,4.249081109223935471e+01,2.000000000000000111e-01
2.197058621000000045e+00,9.568337070000000333e-01,6.809019932140465414e-01,1.000000000000000048e-04,4.298685924285295101e+01,2.600000000000000089e-01
2.196754174000000059e+00,9.569828230000000380e-01,2.292859937118501001e-01,1.000000000000000048e-04,4.063331886362023226e+01,2.399999999999999911e-01
-2.381905888179586039e+00,-9.494029419999999719e-01,2.333534747920256169e-01,1.000000000000000048e-04,4.047663486257356169e+01,2.399999999999999911e-01
-2.382353656179586388e+00,-9.501919130000000546e-01,3.290154408152972110e-01,1.000000000000000048e-04,4.136884143522059532e+01,2.600000000000000089e-01
-2.385313647179586383e+00,-9.492824659999999914e-01,5.534104154212513560e-01,1.000000000000000048e-04,4.313452472350368794e+01,2.399999999999999911e-01
-2.383308463179586223e+00,-9.502672559999999491e-01,7.252630195842977301e-01,1.000000000000000048e-04,4.334024599165056202e+01,2.000000000000000111e-01
2.194446376000000143e+00,9.548028840000000184e-01,6.042499099177593980e-01,1.000000000000000048e-04,4.270002680225344704e+01,3.699999999999999956e-01
-2.377678389179586294e+00,-9.493284189999999789e-01,2.776607222059721547e-01,1.000000000000000048e-04,4.077308426753412363e+01,3.099999999999999978e-01
2.195048706000000127e+00,9.553664520000000326e-01,3.075236331013908586e-01,1.000000000000000048e-04,4.117252780371373433e+01,2.399999999999999911e-01
2.194988459000000169e+00,9.569281090000000267e-01,2.448341545888390591e-01,1.000000000000000048e-04,4.034893173634410601e+01,2.099999999999999922e-01
2.198773670000000013e+00,9.585742720000000050e-01,3.027587280816266269e-01,1.000000000000000048e-04,4.105393043213527449e+01,2.800000000000000266e-01
2.196007632000000154e+00,9.574002940000000406e-01,6.894732758827526453e-01,1.000000000000000048e-04,4.314579392153358128e+01,2.800000000000000266e-01
2.193610842000000005e+00,9.569156829999999614e-01,7.584453743914034707e-01,1.000000000000000048e-04,4.327435773555577470e+01,2.099999999999999922e-01
2.194846306000000080e+00,9.574700699999999509e-01,1.287416757524171285e-01,1.000000000000000048e-04,3.904221072708020301e+01,2.300000000000000100e-01
-2.901318991795864832e-01,1.086903570000000041e+00,4.363346068012601275e-01,1.000000000000000048e-04,4.152959501344352589e+01,2.000000000000000111e-01
-2.914486071795865385e-01,1.085909494999999891e+00,1.222021373759289098e+00,1.000000000000000048e-04,4.468179789447473382e+01,1.000000000000000056e-01
-2.954610881795858290e-01,1.084462065999999947e+00,3.682963067021089998e-01,1.000000000000000048e-04,4.159576036698948798e+01,1.199999999999999956e-01
-3.403197011795864313e-01,1.090760651000000081e+00,1.467219532312256103e-01,1.000000000000000048e-04,3.915130990825220891e+01,8.999999999999999667e-02
-3.429455761795860980e-01,1.087892671000000089e+00,7.326328083366993038e-01,1.000000000000000048e-04,4.313302431814774707e+01,1.400000000000000133e-01
6.896152909999999636e-01,-9.249195220000000495e-01,3.585964929097642528e-01,1.000000000000000048e-04,4.171460377041598377e+01,2.000000000000000111e-01
1.024453132999999960e+00,1.182715689999999986e+00,2.019040483819098952e-01,1.000000000000000048e-04,3.974857253111034083e+01,1.900000000000000022e-01
1.006083177000000051e+00,1.165244638999999971e+00,1.813368415214051677e-01,1.000000000000000048e-04,3.962162802265509498e+01,1.700000000000000122e-01
9.905969959999999519e-01,1.153001898999999941e+00,1.069884562054671751e+00,1.000000000000000048e-04,4.354669642100466120e+01,3.499999999999999778e-01
2.950804928999999799e+00,-1.010655210999999998e+00,1.414953443391200327e-01,1.000000000000000048e-04,3.900826750766127304e+01,1.700000000000000122e-01
2.951637304000000128e+00,-1.010683065999999908e+00,5.080393186778751069e-01,1.000000000000000048e-04,4.232937236831109828e+01,1.900000000000000022e-01
-2.349248843179586377e+00,-9.322901449999999590e-01,1.822765742573939640e-01,1.000000000000000048e-04,3.980520860741625455e+01,1.900000000000000022e-01
