-2.024793577446710735e+00,2.170461581144342844e-01,1.799641435990668725e-01,1.000000000000000048e-04,3.984678151022912118e+01,1.700000000000000122e-01
2.077082457950955252e+00,5.010332903411680583e-01,2.185019562195995579e-01,1.000000000000000048e-04,4.018244479103321964e+01,1.600000000000000033e-01
-2.182000631204223495e+00,-3.888362793348654201e-02,2.767960977211241236e-01,1.000000000000000048e-04,4.084904095875016594e+01,1.600000000000000033e-01
-2.749696630978803125e+00,-3.302810823184971767e-01,3.752217287935255552e-01,1.000000000000000048e-04,4.162626276892745381e+01,1.600000000000000033e-01
-6.633619080540325008e-01,-7.181737887599959347e-01,2.310596875037398412e-01,1.000000000000000048e-04,4.017428933879772757e+01,1.900000000000000022e-01
-6.982096470911751673e-01,4.093542919312618267e-01,3.105116911803322832e-01,1.000000000000000048e-04,4.117311456760585031e+01,1.600000000000000033e-01
-1.959691367297376807e+00,1.221227766823076877e+00,1.444639656987922738e-01,1.000000000000000048e-04,3.879560245001619734e+01,1.700000000000000122e-01
2.338266350295102214e+00,5.895241374055215644e-02,4.934500732863440486e-01,1.000000000000000048e-04,4.197024832570945563e+01,1.600000000000000033e-01
-1.107893307402854077e+00,1.264221113165471255e+00,4.950082330800655850e-01,1.000000000000000048e-04,4.229407435074696053e+01,1.600000000000000033e-01
1.052157534071572975e+00,-1.076715219619234887e+00,9.766092893305338141e-01,1.000000000000000048e-04,4.393639413753206213e+01,2.200000000000000011e-01
5.025973815730759853e-01,5.417947371016125224e-01,3.588557504946776611e-01,1.000000000000000048e-04,4.126267044361128455e+01,8.999999999999999667e-02
6.790627404317959304e-01,1.028490594731159558e+00,4.216827893113848091e-01,1.000000000000000048e-04,4.175001491249198438e+01,8.000000000000000167e-02
1.383324168914541907e+00,2.224743799937232147e-01,4.004837343446758791e-01,1.000000000000000048e-04,4.171667063071245707e+01,1.100000000000000006e-01
-2.609836831464825924e+00,-7.445300070922054037e-01,5.736439145858784894e-01,1.000000000000000048e-04,4.224082043657519137e+01,1.600000000000000033e-01
2.887790451230832112e+00,4.585880564087574385e-02,8.343229467271162658e-01,1.000000000000000048e-04,4.338773707896361742e+01,1.300000000000000044e-01
2.730169629490504235e+00,8.923982257222906611e-02,2.625094091913968697e-01,1.000000000000000048e-04,4.065877862838593160e+01,8.999999999999999667e-02
-1.778541734584562661e+00,-1.628771732836886699e-02,3.362387138152524990e-01,1.000000000000000048e-04,4.135319875895699226e+01,2.099999999999999922e-01
4.030394981632197116e-01,3.150986925512664349e-01,3.829892687185143529e-01,1.000000000000000048e-04,4.154445105346503908e+01,1.799999999999999933e-01
-1.041895274424280871e+00,-3.389712915897395984e-01,8.582724898817957193e-01,1.000000000000000048e-04,4.401696153191144845e+01,1.600000000000000033e-01
1.248239089709756833e+00,-5.292824379572491633e-01,6.470971820522084528e-01,1.000000000000000048e-04,4.296684234442535200e+01,1.799999999999999933e-01
2.422108451994237299e+00,5.646818520504277572e-01,1.423278489942416680e-01,1.000000000000000048e-04,3.881163768996542984e+01,1.600000000000000033e-01
-2.392584554617197767e+00,-1.972050566707979069e-01,2.593920404662855006e-01,1.000000000000000048e-04,4.044983880882988103e+01,2.000000000000000111e-01
8.304120114875352954e-01,8.989352581521803387e-01,6.260621923136120426e-01,1.000000000000000048e-04,4.271275538615741851e+01,1.700000000000000122e-01
2.648805741418817306e+00,-7.247932431996076952e-01,2.451904265562006024e-01,1.000000000000000048e-04,4.051395947595438685e+01,1.700000000000000122e-01
-2.440830401847813746e+00,8.790945181062093106e-02,5.806692457508371152e-01,1.000000000000000048e-04,4.271436320002079157e+01,1.700000000000000122e-01
-7.056696188357345356e-01,1.497372043882534420e-01,6.862696491180340086e-01,1.000000000000000048e-04,4.354749921961342096e+01,2.000000000000000111e-01
3.601537146073221507e-01,-1.110381086068497947e+00,5.346590801593924525e-01,1.000000000000000048e-04,4.241338041036117801e+01,1.900000000000000022e-01
1.167812264648911302e+00,-1.144485822492240512e-01,4.702728963729816414e-01,1.000000000000000048e-04,4.205984064920152576e+01,1.700000000000000122e-01
-1.758929777592816102e+00,7.517752418582319685e-01,1.021152924449911570e+00,1.000000000000000048e-04,4.420765703222143372e+01,1.000000000000000056e-01
-2.674505804628114713e+00,9.734650296312152840e-01,2.592029495517951254e-01,1.000000000000000048e-04,4.049609962488404591e+01,1.000000000000000056e-01
1.317213801445821453e+00,-8.988155206405215036e-01,1.989844154638891194e-01,1.000000000000000048e-04,4.001416693822920223e+01,1.100000000000000006e-01
-2.048792495011251269e+00,-1.233711279132458927e-01,6.646298245437862739e-01,1.000000000000000048e-04,4.298201087734133097e+01,1.199999999999999956e-01
-1.964336581512380553e+00,-2.368283599143106155e-01,3.213582197713675814e-01,1.000000000000000048e-04,4.097323668013773101e+01,1.300000000000000044e-01
2.447316642256812891e+00,1.098557203168048169e+00,6.640569680897139282e-01,1.000000000000000048e-04,4.295350131534086557e+01,1.199999999999999956e-01
-7.733943927835973398e-01,1.298510171345608644e+00,3.663580567407467292e-01,1.000000000000000048e-04,4.140309539631338964e+01,1.499999999999999944e-01
2.315075089698544808e+00,-6.780392673809484405e-01,7.191426335008681558e-01,1.000000000000000048e-04,4.317970300212583368e+01,2.200000000000000011e-01
1.157399421623471980e+00,4.886434594969935041e-02,2.788108723521036669e-01,1.000000000000000048e-04,4.069241698238450056e+01,1.199999999999999956e-01
2.418529434108262599e+00,-6.052574095249293462e-01,3.294393121803196323e-01,1.000000000000000048e-04,4.114618359388757085e+01,1.600000000000000033e-01
5.378247076885309674e-01,-5.453488733640108332e-01,2.110097038869787056e-01,1.000000000000000048e-04,4.004805978980846959e+01,2.200000000000000011e-01
6.845204644198270572e-01,-8.873523741056394964e-01,9.096822824270194285e-01,1.000000000000000048e-04,4.391291947934899298e+01,2.200000000000000011e-01
-2.137415910115522344e+00,-9.876333660341867215e-01,7.968190968588404477e-01,1.000000000000000048e-04,4.358680849327508611e+01,1.300000000000000044e-01
1.867658472742452780e-01,3.584733884492008471e-02,3.105534186353426929e-01,1.000000000000000048e-04,4.126875077186253549e+01,1.600000000000000033e-01
2.423954445348978304e+00,-7.535421355118621101e-02,3.770210948820835739e-01,1.000000000000000048e-04,4.156443579480234263e+01,2.099999999999999922e-01
7.191268703218622882e-01,-5.062544576967269450e-01,1.532036517717838553e-01,1.000000000000000048e-04,3.903392688277260447e+01,2.000000000000000111e-01
2.193366608722022271e+00,-4.454425688626035829e-01,1.548822594470127267e-01,1.000000000000000048e-04,3.928479354617837771e+01,2.000000000000000111e-01
1.142001278191664859e+00,-1.299636821457735625e+00,2.480494136822286588e-01,1.000000000000000048e-04,4.062059829077390560e+01,2.500000000000000000e-01
2.317951507505801700e+00,3.831760749362442819e-01,9.493305206749160785e-01,1.000000000000000048e-04,4.391925957038196771e+01,2.200000000000000011e-01
1.687898466812280063e+00,-8.105794231519590776e-01,3.383229245443406530e-01,1.000000000000000048e-04,4.129575037262693371e+01,1.199999999999999956e-01
-2.417583962291752986e+00,9.180409356751670913e-01,7.671976940542111212e-01,1.000000000000000048e-04,4.350644258519328389e+01,1.400000000000000133e-01
2.293109245502356508e+00,5.970679227836788172e-01,8.106373456131390487e-01,1.000000000000000048e-04,4.364501138134660607e+01,1.400000000000000133e-01
2.680966966581630473e-01,-1.228683118617319714e-01,1.770108379484034433e-01,1.000000000000000048e-04,3.961655466310327256e+01,1.100000000000000006e-01
-1.916441905541330648e+00,-1.212787307330168929e+00,1.044669561907559441e+00,1.000000000000000048e-04,4.432766341361508466e+01,1.199999999999999956e-01
-1.177472769017288146e+00,-3.827218808191288346e-01,2.134821863714964074e-01,1.000000000000000048e-04,3.979136255767614472e+01,2.000000000000000111e-01
-1.117762929089528789e+00,-1.163611296510899340e+00,5.879082879123329608e-01,1.000000000000000048e-04,4.262077322608100616e+01,1.199999999999999956e-01
6.284262440172585507e-01,-4.480947553877336897e-01,5.910624322103057438e-01,1.000000000000000048e-04,4.281335661360228784e+01,1.499999999999999944e-01
8.152482806178791286e-01,-9.444157540223553360e-01,3.679263605461318143e-01,1.000000000000000048e-04,4.155882163567571297e+01,1.499999999999999944e-01
1.062271792524516201e+00,8.800978132201029425e-01,1.760580845329835498e-01,1.000000000000000048e-04,3.941646725217272973e+01,1.100000000000000006e-01
-3.092985363696798995e+00,-8.270703533536616359e-01,1.722011492923143372e-01,1.000000000000000048e-04,3.970225411573679253e+01,1.199999999999999956e-01
2.837345030184892813e+00,-3.978159208695797311e-02,9.339713781884213528e-01,1.000000000000000048e-04,4.413710649051633084e+01,1.300000000000000044e-01
-1.430435883407810138e-02,1.396333439357713146e+00,8.282309973013044502e-01,1.000000000000000048e-04,4.375812873653954682e+01,1.300000000000000044e-01
-6.501361576165698430e-01,-8.802208275175240626e-01,5.843621689385989360e-01,1.000000000000000048e-04,4.273340479574356010e+01,1.100000000000000006e-01
-2.920012916400573033e+00,5.238176576927529027e-01,1.845602194366275928e-01,1.000000000000000048e-04,3.981753436545530178e+01,1.600000000000000033e-01
-1.323152651327347495e+00,8.542058294890413350e-01,2.379741680147509086e-01,1.000000000000000048e-04,4.038558081086744522e+01,1.199999999999999956e-01
-4.519123726891112192e-01,-9.036332852427374496e-01,4.158972766635371521e-01,1.000000000000000048e-04,4.176883153291460360e+01,1.300000000000000044e-01
1.363799978643334576e+00,-2.918597982392288070e-01,1.555403597982225605e-01,1.000000000000000048e-04,3.974421770857203740e+01,1.199999999999999956e-01
-2.384920648131700460e+00,-2.404869697966938169e-02,3.484118890863165952e-01,1.000000000000000048e-04,4.134225871562508559e+01,1.700000000000000122e-01
2.142822113507902415e+00,-1.092002600192424566e+00,4.601348511001630559e-01,1.000000000000000048e-04,4.221856194040879728e+01,1.100000000000000006e-01
1.127475011964071960e+00,1.277947453783664589e+00,8.324833180781565645e-01,1.000000000000000048e-04,4.357377217595835361e+01,1.100000000000000006e-01
3.105745391965672120e+00,-1.056122717832514546e+00,3.132428545062173608e-01,1.000000000000000048e-04,4.133288884245059336e+01,1.199999999999999956e-01
2.416570507743916352e+00,5.876367778803310848e-01,4.107658380354592964e-01,1.000000000000000048e-04,4.177648969158516223e+01,1.499999999999999944e-01
-1.367520414464571177e+00,1.152205822087792875e-02,4.631122725371763504e-01,1.000000000000000048e-04,4.204268871602734947e+01,1.199999999999999956e-01
2.793840843666319351e+00,1.028407622984453873e+00,6.595075033592769920e-01,1.000000000000000048e-04,4.297468559653210463e+01,1.400000000000000133e-01
1.439128662658764490e+00,6.385519882858314844e-01,9.657345273204995806e-01,1.000000000000000048e-04,4.398302323483985532e+01,1.199999999999999956e-01
2.850158240187613323e+00,6.087130233800444046e-01,5.056794988946298197e-01,1.000000000000000048e-04,4.240394663314808810e+01,1.100000000000000006e-01
-2.205287697177604755e+00,1.110240223804148219e+00,1.542740724271207675e-01,1.000000000000000048e-04,3.925877477205104782e+01,1.100000000000000006e-01
6.383105205466228504e-01,-8.667681091727549303e-01,4.068127330938373643e-01,1.000000000000000048e-04,4.191617610112741232e+01,1.300000000000000044e-01
-6.187125152564725283e-01,-1.590728444207047954e-01,3.654394869878436758e-01,1.000000000000000048e-04,4.148573484143675927e+01,1.400000000000000133e-01
3.047596343312843459e+00,2.010886166458871749e-01,8.071525142786253326e-01,1.000000000000000048e-04,4.342086801204144564e+01,1.199999999999999956e-01
4.511731063143535891e-01,1.325735524463854897e+00,2.375788156909686144e-01,1.000000000000000048e-04,4.037396970604122259e+01,1.100000000000000006e-01
2.330101230093384324e-01,-9.637647974538833262e-01,1.631176387557518037e-01,1.000000000000000048e-04,3.967100787045652055e+01,1.199999999999999956e-01
-2.475348655702268363e+00,1.149757214655466875e-02,1.284058574235435124e+00,1.000000000000000048e-04,4.465314390502751252e+01,1.199999999999999956e-01
-3.067696758683410518e+00,4.922117355950019757e-01,2.277087821284269342e-01,1.000000000000000048e-04,4.003005356111452073e+01,1.300000000000000044e-01
1.565660810748295440e+00,-6.510026785990487008e-01,5.144139012962598567e-01,1.000000000000000048e-04,4.241095772130476860e+01,1.199999999999999956e-01
1.749098372883939767e+00,1.244782029917445687e+00,7.068310142777434191e-01,1.000000000000000048e-04,4.330686555527454118e+01,1.100000000000000006e-01
1.416399534657656112e+00,-8.927476577590062190e-01,3.093623103927831686e-01,1.000000000000000048e-04,4.124724790637897343e+01,1.199999999999999956e-01
-2.755594570422646328e+00,1.056563485775348532e+00,2.304582509873851492e-01,1.000000000000000048e-04,4.030016162069870944e+01,1.700000000000000122e-01
1.641598008027309596e-01,9.000172614407246918e-01,1.369702986242624654e-01,1.000000000000000048e-04,3.873534627332335134e+01,1.400000000000000133e-01
1.034237355309050699e+00,-3.506565033662079056e-01,5.096066481208862964e-01,1.000000000000000048e-04,4.239891840937568901e+01,1.199999999999999956e-01
-1.735189839210012686e+00,8.242273298270181847e-01,3.041647312552131499e-01,1.000000000000000048e-04,4.102799444898180070e+01,1.600000000000000033e-01
1.542874735480864068e+00,4.439594018975387968e-01,6.928361318239530942e-01,1.000000000000000048e-04,4.330841318377311921e+01,1.700000000000000122e-01
-8.287484315858923978e-01,7.413997662558520219e-01,6.491392797372632639e-01,1.000000000000000048e-04,4.279490485398041244e+01,1.499999999999999944e-01
-2.785632185384643300e-01,-8.187379559744822899e-02,5.037688290421089565e-01,1.000000000000000048e-04,4.220772316931851265e+01,1.100000000000000006e-01
1.509781048315878671e+00,8.931066681309411948e-01,2.760854014776947807e-01,1.000000000000000048e-04,4.096504420653684519e+01,2.000000000000000111e-01
-1.173247640668963365e+00,-1.869548901192665813e-01,6.766116277184675010e-01,1.000000000000000048e-04,4.304875387518785601e+01,1.300000000000000044e-01
-2.937042236682680940e+00,6.451798106353567874e-01,2.298460505020365474e-01,1.000000000000000048e-04,4.026600082863351560e+01,1.499999999999999944e-01
2.728800707551441995e+00,-2.171587889108426150e-01,7.720931166282638536e-01,1.000000000000000048e-04,4.346476380831197162e+01,1.100000000000000006e-01
-1.855443355297399233e+00,-8.609567856635708116e-01,9.204470271997546860e-01,1.000000000000000048e-04,4.399597127634632443e+01,1.199999999999999956e-01
-8.520105082641014071e-01,-2.879800394736988789e-01,6.546814625385779518e-01,1.000000000000000048e-04,4.297583553050593252e+01,1.100000000000000006e-01
-1.285340434509956609e+00,8.318818479675607058e-01,2.779912303039691057e-01,1.000000000000000048e-04,4.087467546825765652e+01,1.100000000000000006e-01
2.541796338977184710e-01,-4.755583160697038902e-01,4.967711953432234484e-01,1.000000000000000048e-04,4.207637411760325108e+01,2.099999999999999922e-01
6.301903063622646961e-01,2.069134313543845582e-01,3.580230100644170577e-01,1.000000000000000048e-04,4.136468695372528259e+01,1.199999999999999956e-01
-8.612705726282738894e-01,-3.875534001174931742e-01,4.135972700241381528e-01,1.000000000000000048e-04,4.192388585190173700e+01,1.199999999999999956e-01
-1.860985373313708502e+00,5.211884664256176691e-01,5.690775384226576250e-01,1.000000000000000048e-04,4.254723331262140817e+01,1.199999999999999956e-01
1.647465669138242106e+00,3.508442332828942689e-01,7.562484803929325761e-01,1.000000000000000048e-04,4.317792884550153332e+01,1.700000000000000122e-01
-8.284786001643769104e-01,3.166616536092503598e-01,4.373491355221708066e-01,1.000000000000000048e-04,4.187037592756929172e+01,1.100000000000000006e-01
4.157412306116401446e-01,-1.375330617843100178e-01,7.617092621827667998e-01,1.000000000000000048e-04,4.337341374947277473e+01,2.099999999999999922e-01
-2.356793934498710996e+00,-7.459049574271462424e-01,3.325920176085750413e-01,1.000000000000000048e-04,4.131450455340090144e+01,1.300000000000000044e-01
1.589555604403995126e+00,5.008743575990126651e-01,2.695459382213505339e-01,1.000000000000000048e-04,4.068224795047601106e+01,1.199999999999999956e-01
3.780326244328549024e-01,3.959671771796993145e-01,3.124667512978582806e-01,1.000000000000000048e-04,4.096738269932914989e+01,1.300000000000000044e-01
-2.367554026089391250e+00,-1.456510612779948755e-01,4.384711871919406700e-01,1.000000000000000048e-04,4.177206634371887617e+01,1.799999999999999933e-01
-1.029591813925121002e+00,-1.056588203853896513e+00,5.402554684678746444e-01,1.000000000000000048e-04,4.262121828275619606e+01,1.199999999999999956e-01
-2.930328600832360575e+00,8.719301974275901479e-01,2.581881496728610781e-01,1.000000000000000048e-04,4.060281317031709136e+01,1.199999999999999956e-01
9.766798555850408903e-01,-8.471121620356811821e-01,1.205561367969065323e+00,1.000000000000000048e-04,4.446897340724066083e+01,1.900000000000000022e-01
-7.901640855762441795e-01,-3.521044066944583051e-01,4.178669836076085442e-01,1.000000000000000048e-04,4.168474767217621491e+01,1.300000000000000044e-01
1.148148815562542779e+00,1.058328943214792428e+00,7.424613903876993160e-01,1.000000000000000048e-04,4.333975422878168615e+01,1.499999999999999944e-01
3.549002506365557252e-01,1.963879971962256832e-02,2.165609047767653728e-01,1.000000000000000048e-04,4.040710364510483288e+01,1.499999999999999944e-01
-2.560671268795753353e+00,-8.732812816644405229e-01,4.523034392700169271e-01,1.000000000000000048e-04,4.207638517288577873e+01,1.400000000000000133e-01
3.119087029582671811e+00,-1.065160691434521079e+00,5.102346272079210099e-01,1.000000000000000048e-04,4.235796477134628901e+01,1.400000000000000133e-01
-1.476732141660956898e-01,-4.113521546954519437e-01,8.860811321210080305e-01,1.000000000000000048e-04,4.362915291046743249e+01,1.199999999999999956e-01
-7.985383661876745975e-01,-5.724651719662944283e-01,4.256906826146702461e-01,1.000000000000000048e-04,4.198382383597931522e+01,1.199999999999999956e-01
-1.818050039446497568e+00,-7.994248127097063339e-01,5.445306368563798127e-01,1.000000000000000048e-04,4.260739786780344218e+01,1.100000000000000006e-01
-2.821744113870936932e+00,6.096659327612590218e-01,1.916279511927114765e-01,1.000000000000000048e-04,3.982289548407243274e+01,1.100000000000000006e-01
1.658129269091643820e+00,-9.577320737741011891e-01,3.557745035697235103e-01,1.000000000000000048e-04,4.136714618907627283e+01,1.400000000000000133e-01
2.037058465342221680e+00,5.502885178043337433e-01,1.280148256634892956e+00,1.000000000000000048e-04,4.439902483532404887e+01,1.499999999999999944e-01
1.271882484737091978e+00,-6.063440420746539772e-01,2.107905531746134820e-01,1.000000000000000048e-04,4.010354847227473130e+01,1.199999999999999956e-01
2.301297738789060965e+00,-6.440145283116106567e-01,2.224401914815985482e-01,1.000000000000000048e-04,4.029000429883056711e+01,2.099999999999999922e-01
3.069362688614753587e+00,3.722181586692248079e-01,4.360515139825746900e-01,1.000000000000000048e-04,4.193635542444894782e+01,1.300000000000000044e-01
8.344326023501711376e-01,7.531620690644973415e-01,2.094119686348336895e-01,1.000000000000000048e-04,3.982721912142368126e+01,1.400000000000000133e-01
-3.435449373923060712e-01,6.460558594752203732e-01,3.178398376207949294e-01,1.000000000000000048e-04,4.106763608937154686e+01,1.199999999999999956e-01
-2.944722688222011442e+00,2.248189852295485736e-01,1.862922480385551527e-01,1.000000000000000048e-04,3.961793621775916563e+01,1.199999999999999956e-01
-2.754812054371446717e+00,1.237661930042531999e+00,7.080937055215341669e-01,1.000000000000000048e-04,4.309934654025608580e+01,1.100000000000000006e-01
1.677480938455513382e+00,-1.791159186408071147e-01,3.405993174960024739e-01,1.000000000000000048e-04,4.137822540076049194e+01,1.300000000000000044e-01
3.036777023898558525e+00,-2.767087637065108741e-01,8.219793485659279142e-01,1.000000000000000048e-04,4.367177901220020431e+01,1.199999999999999956e-01
-1.617681506273777048e+00,1.412752194878685419e+00,2.355302487969188618e-01,1.000000000000000048e-04,4.047064283017583364e+01,1.199999999999999956e-01
2.915172177415628063e+00,7.831971124706171850e-01,9.314203593269771986e-01,1.000000000000000048e-04,4.395049503188792528e+01,1.300000000000000044e-01
-2.385553611386690420e-01,1.059040323544889528e+00,2.779258099508867819e-01,1.000000000000000048e-04,4.082191571519643958e+01,1.300000000000000044e-01
8.140450973920003719e-01,1.287929830656615593e-01,3.914372456521653110e-01,1.000000000000000048e-04,4.171445564690822749e+01,1.199999999999999956e-01
2.183748580950823026e+00,-2.468619369867177671e-01,1.128472175666277444e+00,1.000000000000000048e-04,4.454460759852218388e+01,1.199999999999999956e-01
-2.318422121642330413e+00,-1.181406609824329212e+00,9.914007899541428248e-01,1.000000000000000048e-04,4.427672875145081122e+01,1.300000000000000044e-01
8.401446461531270060e-02,-1.431031748751948163e+00,1.829965032323099816e-01,1.000000000000000048e-04,3.970422743492954964e+01,1.199999999999999956e-01
1.943341646438963899e+00,-1.090530061647338789e+00,4.126357418435933067e-01,1.000000000000000048e-04,4.167708166800265701e+01,1.199999999999999956e-01
-6.093968291777587254e-01,-3.337978629457749591e-02,4.746430659513087846e-01,1.000000000000000048e-04,4.222191591285650958e+01,1.199999999999999956e-01
2.093384655138907924e+00,-8.089986446325192482e-02,2.287530908814849884e-01,1.000000000000000048e-04,4.012073556406397046e+01,1.499999999999999944e-01
-1.069346396913369635e+00,-3.541049656387429412e-01,1.875648285207622834e-01,1.000000000000000048e-04,3.991157104675522760e+01,1.199999999999999956e-01
2.425001408608754794e+00,4.387859527846682539e-01,2.918396500222575352e-01,1.000000000000000048e-04,4.111203275703928739e+01,2.000000000000000111e-01
2.368470327073192827e+00,5.339041829624142643e-01,8.589419845724366454e-01,1.000000000000000048e-04,4.383024055368034055e+01,2.000000000000000111e-01
1.221729139208163062e+00,1.971874043400738685e-01,8.049799335291403235e-01,1.000000000000000048e-04,4.345240458018166407e+01,1.400000000000000133e-01
-1.601275241672004634e+00,-4.399787546827504947e-01,1.217216142867763029e-01,1.000000000000000048e-04,3.853713479849043466e+01,1.199999999999999956e-01
-2.251746450790510501e-01,2.019805070219016230e-02,1.767306856993280384e-01,1.000000000000000048e-04,3.961849083707143393e+01,1.300000000000000044e-01
-2.632963380797673558e+00,6.991932866342365216e-01,3.452257842825301459e-01,1.000000000000000048e-04,4.162446352637830671e+01,1.799999999999999933e-01
2.165043220435878268e+00,2.544181112593557614e-02,3.165739812558652222e-01,1.000000000000000048e-04,4.101889726743502962e+01,1.499999999999999944e-01
7.728784669726782575e-01,9.029893027569171338e-01,1.062675443853045021e+00,1.000000000000000048e-04,4.422750925560914226e+01,1.100000000000000006e-01
1.419062627246162833e+00,5.090922025775443949e-01,1.527256599515267599e-01,1.000000000000000048e-04,3.936211902901799675e+01,1.199999999999999956e-01
5.325210226203189734e-01,7.872622656315142464e-01,1.259556538948178428e+00,1.000000000000000048e-04,4.471015123622080267e+01,1.499999999999999944e-01
-2.587115210580655855e+00,1.420577843465222756e-01,2.902465990816864849e-01,1.000000000000000048e-04,4.103669911242857182e+01,1.900000000000000022e-01
-2.878318434795536174e+00,-1.589369786390550932e-01,1.850713639942345168e-01,1.000000000000000048e-04,3.957692967674495321e+01,1.799999999999999933e-01
2.937668926837306849e+00,-2.609044176592381081e-01,3.487777169298407198e-01,1.000000000000000048e-04,4.115350542935676970e+01,1.499999999999999944e-01
4.211390643475749762e-01,2.608781575960583687e-02,1.108278789677167975e+00,1.000000000000000048e-04,4.470011416608893740e+01,1.499999999999999944e-01
1.969414165942768413e+00,-1.210000566100802200e+00,1.439252774237649302e-01,1.000000000000000048e-04,3.922768394157921534e+01,3.599999999999999867e-01
2.783374924361931235e+00,1.247544581920549511e+00,6.933114173950079007e-01,1.000000000000000048e-04,4.351163129278388197e+01,3.900000000000000133e-01
-6.149744672187189565e-01,2.105015347078844634e-01,3.209970845546201712e-01,1.000000000000000048e-04,4.112726429309093135e+01,3.900000000000000133e-01
-1.027690276922049506e+00,7.608154812096792341e-01,1.990900428808695111e-01,1.000000000000000048e-04,3.976738593494498986e+01,3.099999999999999978e-01
-1.403000180430602484e-02,4.027982436716877057e-01,1.797806658217475650e-01,1.000000000000000048e-04,3.922518347191194010e+01,3.300000000000000155e-01
1.885512728252894732e+00,4.501857830541173833e-01,1.559546045672011161e-01,1.000000000000000048e-04,3.936223973846179547e+01,4.000000000000000222e-01
-2.801028444600760281e+00,7.673256193136257508e-01,4.171660541680437539e-01,1.000000000000000048e-04,4.208397697475423627e+01,3.200000000000000067e-01
1.663639282756225413e+00,-3.104459119210678519e-01,5.992199617242561782e-01,1.000000000000000048e-04,4.275479158633331167e+01,3.200000000000000067e-01
1.469484532922523456e+00,1.289436301388771522e+00,4.033991338542759486e-01,1.000000000000000048e-04,4.197840452509210962e+01,3.599999999999999867e-01
-2.723798842497839878e+00,-8.161022275245634061e-01,7.006790480609201843e-01,1.000000000000000048e-04,4.328167177079599526e+01,2.399999999999999911e-01
1.087930227257540849e+00,3.953256005549579122e-01,3.790297826826876104e-01,1.000000000000000048e-04,4.180457708773049319e+01,2.999999999999999889e-01
1.104444267465338747e+00,1.154918076601763932e+00,3.169429740739542201e-01,1.000000000000000048e-04,4.124332162610483721e+01,2.399999999999999911e-01
-2.959987343815564387e-01,3.782768216453944454e-01,2.366669489669341875e-01,1.000000000000000048e-04,4.018298405188719613e+01,2.899999999999999800e-01
-9.283410635325077820e-01,1.159246753085064530e+00,1.880012320575616958e-01,1.000000000000000048e-04,3.984791953937050124e+01,2.899999999999999800e-01
1.629379323986715811e+00,-8.487192814082968884e-01,1.679094804826215537e-01,1.000000000000000048e-04,3.971506884598926490e+01,2.899999999999999800e-01
-1.339086520522566826e+00,-2.610536149380489057e-01,8.892347012168284603e-01,1.000000000000000048e-04,4.413395784637648234e+01,3.699999999999999956e-01
-1.078989814511755796e+00,-2.094646488434077636e-01,2.734998845937504086e-01,1.000000000000000048e-04,4.043583168689484353e+01,2.300000000000000100e-01
2.154602871513411344e-01,-1.670785423183946961e-01,1.578004194499837975e-01,1.000000000000000048e-04,3.961623107109666364e+01,2.000000000000000111e-01
1.160737208525638664e+00,-1.004656354257170481e+00,1.170432482130410179e-01,1.000000000000000048e-04,3.876457661128919341e+01,3.800000000000000044e-01
2.281806619261241842e+00,6.301143641212272328e-01,1.801853063448288772e-01,1.000000000000000048e-04,4.000518836660789646e+01,2.300000000000000100e-01
-2.729999735417665274e+00,9.476347487946150672e-01,3.362587392800522323e-01,1.000000000000000048e-04,4.104636767889917337e+01,3.900000000000000133e-01
1.004548951079278218e+00,9.677735247749379432e-01,1.983814771223313400e-01,1.000000000000000048e-04,4.038286967163970331e+01,2.200000000000000011e-01
2.811745857476669386e+00,-7.462933233200064187e-02,1.213110203154348365e-01,1.000000000000000048e-04,3.864835696329982540e+01,2.399999999999999911e-01
2.138588657048389408e+00,-1.431076728453806846e+00,1.042205252202693888e+00,1.000000000000000048e-04,4.439142800886038742e+01,2.000000000000000111e-01
-1.701023069557636935e+00,-4.062533522623148485e-01,2.524284936174294725e-01,1.000000000000000048e-04,4.045609696467245442e+01,1.900000000000000022e-01
-1.031311404502259776e-01,-8.575041356861113906e-01,1.664198950570405788e-01,1.000000000000000048e-04,3.915425831501394782e+01,2.600000000000000089e-01
1.698291273744485963e+00,2.558318692097065750e-01,1.546342984306277035e-01,1.000000000000000048e-04,3.939139197343251908e+01,1.900000000000000022e-01
-2.489891938429477758e+00,-1.011099453068083687e+00,5.197734191858343067e-01,1.000000000000000048e-04,4.243062460741865038e+01,1.000000000000000056e-01
2.622179108732809460e+00,-2.178321165863656983e-01,1.024859099634344073e+00,1.000000000000000048e-04,4.420938044837660641e+01,1.400000000000000133e-01
2.824951790796073503e+00,1.331996805117656280e+00,1.220962690403502027e-01,1.000000000000000048e-04,3.869527479193634889e+01,1.900000000000000022e-01
1.856361693918620936e+00,9.081043429359825225e-01,1.850241761666076012e-01,1.000000000000000048e-04,3.970953417775537275e+01,1.499999999999999944e-01
2.052553367038905563e+00,3.559670540944326333e-01,2.999615792859688934e-01,1.000000000000000048e-04,4.122040701357537529e+01,1.900000000000000022e-01
-5.788446207578616942e-01,5.399109533077295353e-01,8.457007835321188605e-01,1.000000000000000048e-04,4.372491609587988393e+01,1.700000000000000122e-01
1.999814121250703458e+00,-7.258164367676042117e-01,1.681119766895142753e-01,1.000000000000000048e-04,3.960968830258068607e+01,1.100000000000000006e-01
-2.434752246425952116e+00,-1.187790997473712862e+00,3.471058224900227529e-01,1.000000000000000048e-04,4.098688176472482070e+01,2.000000000000000111e-01
-1.087868747594316510e+00,-3.642443086667368490e-02,1.274355692434169907e+00,1.000000000000000048e-04,4.469896972092885790e+01,1.700000000000000122e-01
2.111282871771912539e+00,4.793942519266991553e-01,3.123300299904887556e-01,1.000000000000000048e-04,4.118443444479603244e+01,1.100000000000000006e-01
2.207301910293846703e+00,-2.096907882240104382e-01,2.447490557591049942e-01,1.000000000000000048e-04,4.039785137642861201e+01,1.700000000000000122e-01
9.267745615876412657e-01,6.597639740488872029e-01,4.274365464526026503e-01,1.000000000000000048e-04,4.160382946094789247e+01,1.600000000000000033e-01
-5.691728150477963766e-01,-7.874132681551936352e-01,2.303190693982206660e-01,1.000000000000000048e-04,4.033308037411703850e+01,2.200000000000000011e-01
-2.548190934457771561e+00,-7.657899268312053920e-01,7.497883360215582549e-01,1.000000000000000048e-04,4.361606680320149110e+01,2.800000000000000266e-01
-7.535363732465087949e-01,-2.518012435158301088e-02,3.128804902728763437e-01,1.000000000000000048e-04,4.129024499948531002e+01,2.099999999999999922e-01
-9.990807998957929037e-01,2.811860404410639891e-01,1.247602676699814506e+00,1.000000000000000048e-04,4.471474701196577684e+01,2.899999999999999800e-01
-1.534830651678989799e+00,-7.836560703898149960e-01,1.950432500584911022e-01,1.000000000000000048e-04,3.982865779889577595e+01,1.400000000000000133e-01
2.938713463987738805e+00,-5.302502576768772791e-01,4.194715892744595997e-01,1.000000000000000048e-04,4.167596591068901546e+01,1.600000000000000033e-01
-1.273577260927071908e+00,2.273447893924553931e-01,9.608815958698724291e-01,1.000000000000000048e-04,4.430848576549840345e+01,2.099999999999999922e-01
2.090625502202607677e-01,-5.234239574503036785e-01,4.519919449673532874e-01,1.000000000000000048e-04,4.162654984292082361e+01,2.600000000000000089e-01
-2.196759244267937561e+00,3.513256560147608454e-01,2.115663519440482698e-01,1.000000000000000048e-04,4.015669904961456638e+01,1.400000000000000133e-01
-1.698112392530126913e+00,1.310065326191558466e-01,5.022075898499547275e-01,1.000000000000000048e-04,4.237339396917522549e+01,1.600000000000000033e-01
9.280830213707016441e-01,-7.357944137040139942e-01,1.914537209598463630e-01,1.000000000000000048e-04,3.971395173179850246e+01,2.000000000000000111e-01
-3.021753936201152069e+00,-8.199917409568967530e-01,4.902739630126518033e-01,1.000000000000000048e-04,4.273801379714841175e+01,2.099999999999999922e-01
1.721301862041058506e+00,4.590248578348874453e-01,3.889012217562926033e-01,1.000000000000000048e-04,4.167833139532834252e+01,1.700000000000000122e-01
-2.766449921851541038e+00,8.230788066275103176e-01,6.200032501757462011e-01,1.000000000000000048e-04,4.286834810919191341e+01,1.499999999999999944e-01
-1.799850804326143194e+00,4.516132499641796194e-01,4.807118499398044253e-01,1.000000000000000048e-04,4.225624509262691930e+01,1.700000000000000122e-01
-2.698755347932594972e+00,1.139007237667798211e+00,2.050142004021433539e-01,1.000000000000000048e-04,4.026816610596425505e+01,1.400000000000000133e-01
3.127726500182406610e+00,-9.579012858552419241e-01,1.945818531854537348e-01,1.000000000000000048e-04,3.990398563830610357e+01,1.499999999999999944e-01
2.537445179079496071e-01,-5.179950506206965066e-01,1.832265040201317419e-01,1.000000000000000048e-04,3.964771574731417303e+01,3.400000000000000244e-01
1.322947729998564803e+00,1.153037054362772373e+00,3.617610420585215536e-01,1.000000000000000048e-04,4.150837107471059539e+01,1.700000000000000122e-01
-9.377323178564198614e-01,-7.409845316960195216e-01,7.026299551982677638e-01,1.000000000000000048e-04,4.332036649983716359e+01,1.400000000000000133e-01
-2.670008980641305651e+00,5.047756447795985757e-01,6.160130414310405200e-01,1.000000000000000048e-04,4.258034197268320753e+01,1.799999999999999933e-01
-2.292469142478083199e+00,-2.203309545223852695e-03,1.296706144216304146e-01,1.000000000000000048e-04,3.903804484047343237e+01,1.900000000000000022e-01
7.812138022422283612e-01,-3.077732600015117281e-01,2.037917976788037322e-01,1.000000000000000048e-04,3.997762311784582323e+01,1.499999999999999944e-01
-1.634540216842325311e+00,8.716450912717683686e-01,3.981219310390282651e-01,1.000000000000000048e-04,4.163293611662621885e+01,1.700000000000000122e-01
-4.466391589520064542e-01,-7.319692382757587712e-01,4.031800076177889380e-01,1.000000000000000048e-04,4.179368230638156234e+01,1.600000000000000033e-01
8.810588067938365242e-01,-4.707101004168765535e-01,6.453981421887937664e-01,1.000000000000000048e-04,4.263480627723510707e+01,1.499999999999999944e-01
1.496028855663512402e+00,-3.666261783301316690e-02,1.253266013690270686e-01,1.000000000000000048e-04,3.891808364184332447e+01,1.700000000000000122e-01
-2.620485018493847740e+00,-9.445969568504720693e-01,9.015334047846130794e-01,1.000000000000000048e-04,4.366531035233862212e+01,1.600000000000000033e-01
-2.004738485496456057e+00,-1.380591434062601319e-01,1.791974549565014119e-01,1.000000000000000048e-04,3.987668380820473857e+01,2.899999999999999800e-01
2.441348991424545645e+00,2.348312526005975620e-01,1.672981776672011200e-01,1.000000000000000048e-04,3.939786135888584795e+01,1.400000000000000133e-01
-7.301682364480566179e-01,-6.479246302192781526e-01,1.308747775631501575e+00,1.000000000000000048e-04,4.500736806803787005e+01,1.499999999999999944e-01
-3.718234765261070329e-01,-5.104398620593619817e-01,3.087936667688440107e-01,1.000000000000000048e-04,4.103937026100476260e+01,1.900000000000000022e-01
-3.099772740210249733e+00,-5.094463933192983074e-01,5.559719249729049295e-01,1.000000000000000048e-04,4.230538879405025199e+01,2.500000000000000000e-01
6.607255947475652036e-01,2.733802736597763516e-01,2.905546542290262657e-01,1.000000000000000048e-04,4.094947216098180576e+01,1.499999999999999944e-01
2.121357206488261760e+00,5.272301661899430059e-01,3.113872483664943402e-01,1.000000000000000048e-04,4.120492313595612188e+01,2.099999999999999922e-01
-1.340050306374135802e+00,5.046922064066134972e-01,4.263124313952879607e-01,1.000000000000000048e-04,4.197204659687087513e+01,1.900000000000000022e-01
-2.406845717828045572e-01,6.214963459000566459e-01,2.973791813843886800e-01,1.000000000000000048e-04,4.080405271404796252e+01,2.099999999999999922e-01
-1.361961645802445275e-01,1.589173562265968620e-01,6.755185788790400991e-01,1.000000000000000048e-04,4.302715311761020445e+01,2.099999999999999922e-01
2.402095774891447100e+00,-1.663773196574891422e-01,7.862867641942661301e-01,1.000000000000000048e-04,4.337202692551101535e+01,1.499999999999999944e-01
-8.111021056592093714e-02,-4.050468829664770620e-01,6.615266717540433383e-01,1.000000000000000048e-04,4.316391250210619290e+01,1.400000000000000133e-01
-8.907172934760927419e-01,-4.210515633350604414e-01,5.353524903263466861e-01,1.000000000000000048e-04,4.308850046112410581e+01,3.800000000000000044e-01
8.377393941009367850e-01,-4.528587867576112647e-01,3.639356732223455460e-01,1.000000000000000048e-04,4.134637980514397526e+01,2.200000000000000011e-01
-1.431818772630166325e+00,-6.324568295462220657e-01,2.934057077127749658e-01,1.000000000000000048e-04,4.092528999471232254e+01,1.499999999999999944e-01
-1.389328669342356548e+00,7.689422945938675369e-01,2.815159346413358410e-01,1.000000000000000048e-04,4.080408317822606534e+01,1.700000000000000122e-01
-2.389735386029240960e+00,1.218282952721261303e-02,3.327826313160089367e-01,1.000000000000000048e-04,4.143549203221331823e+01,1.700000000000000122e-01
1.124247127151611458e+00,9.728809820797312824e-02,5.043844294872976697e-01,1.000000000000000048e-04,4.214656415955506219e+01,2.600000000000000089e-01
2.215935166693419944e+00,-1.753405178433851130e-01,2.047867209871228056e-01,1.000000000000000048e-04,3.997054732095165264e+01,2.800000000000000266e-01
5.640715047721793773e-01,2.800977405460107761e-01,2.568902746903287682e-01,1.000000000000000048e-04,4.079514573537623079e+01,1.799999999999999933e-01
-2.676929747190534670e+00,-1.519324863136974901e-01,4.493764674949276561e-01,1.000000000000000048e-04,4.186153099645773068e+01,1.499999999999999944e-01
-2.114179292963034307e-01,3.199290459045263102e-01,3.093744042583168596e-01,1.000000000000000048e-04,4.112160153509152849e+01,2.200000000000000011e-01
2.196242250829169684e+00,9.445932850598448560e-01,3.661040746126036360e-01,1.000000000000000048e-04,4.169271423316668290e+01,2.000000000000000111e-01
-5.409456879951322072e-01,4.421097264433897500e-01,4.390967528336213732e-01,1.000000000000000048e-04,4.195568757684403494e+01,1.600000000000000033e-01
2.430296601398178602e+00,5.104944101954571600e-01,5.397787509188562982e-01,1.000000000000000048e-04,4.251653902127868179e+01,1.600000000000000033e-01
-1.780467474304645581e+00,1.387672388032459736e+00,4.200947133453032389e-01,1.000000000000000048e-04,4.142636363368250585e+01,2.099999999999999922e-01
2.037748630136313466e+00,-9.033132040654279216e-02,4.963235617132799593e-01,1.000000000000000048e-04,4.192105081604792360e+01,2.899999999999999800e-01
-5.767947671044200142e-01,-5.736588871194319150e-01,2.917922268614674408e-01,1.000000000000000048e-04,4.094195705769652704e+01,1.400000000000000133e-01
3.065171789352049814e+00,-5.367207500123236663e-01,2.695042118668562470e-01,1.000000000000000048e-04,4.016938166389459752e+01,2.700000000000000178e-01
3.095669068408944291e+00,5.125554369807066024e-01,5.078033622588196128e-01,1.000000000000000048e-04,4.225780387547322903e+01,1.300000000000000044e-01
-6.233358222040124019e-01,-4.465551187913148201e-01,5.675364768434136842e-01,1.000000000000000048e-04,4.269091776532581406e+01,1.700000000000000122e-01
1.351051205253463117e+00,1.139474813638574613e+00,8.633449245737547795e-01,1.000000000000000048e-04,4.351487495980087061e+01,2.500000000000000000e-01
1.996376798484304160e+00,3.382500856635231035e-01,2.379801247618980042e-01,1.000000000000000048e-04,4.012369039326683406e+01,1.400000000000000133e-01
3.076735748096501410e+00,5.539066479225258632e-01,4.313525537993181391e-01,1.000000000000000048e-04,4.197437773420428897e+01,1.900000000000000022e-01
2.864910206507235380e+00,1.108648372488047595e+00,1.242407721460441206e-01,1.000000000000000048e-04,3.891586581967351322e+01,1.600000000000000033e-01
1.380044130879002573e+00,-4.020295701598992633e-01,3.462475478564295273e-01,1.000000000000000048e-04,4.133643442864863005e+01,1.600000000000000033e-01
-3.020640188057480913e+00,7.302783449265226601e-02,4.673471263326278713e-01,1.000000000000000048e-04,4.205828153562641347e+01,2.700000000000000178e-01
-3.124259550489287385e+00,4.228392408045844597e-02,1.196874743401569408e+00,1.000000000000000048e-04,4.440609571640667497e+01,1.499999999999999944e-01
-1.478529680571277760e+00,3.797469530415438221e-01,2.895265106872146887e-01,1.000000000000000048e-04,4.090177628796281795e+01,1.600000000000000033e-01
-1.708306264378818051e+00,1.436620528931427110e-01,4.963366458507549872e-01,1.000000000000000048e-04,4.222565911113790804e+01,1.700000000000000122e-01
4.110866859446637989e-02,7.227347056586630458e-01,2.570287557800539080e-01,1.000000000000000048e-04,4.063916775984640140e+01,2.800000000000000266e-01
-2.130971596510379484e+00,7.657496783751831515e-01,2.294005288243456953e-01,1.000000000000000048e-04,4.002790282708267711e+01,1.499999999999999944e-01
-2.797317317859382868e+00,-5.673919092947332654e-01,2.654856761098178808e-01,1.000000000000000048e-04,4.025735385875186267e+01,3.099999999999999978e-01
-3.135918133320727996e+00,4.459768587518522232e-01,7.586002810372525218e-01,1.000000000000000048e-04,4.309616247008083434e+01,2.200000000000000011e-01
1.054159675454512168e+00,4.472221482102933798e-01,6.254055255143911030e-01,1.000000000000000048e-04,4.274761931730179043e+01,2.700000000000000178e-01
-1.165750722326479583e+00,4.534450165737364813e-01,1.328120302542679099e-01,1.000000000000000048e-04,3.913310726490520608e+01,2.899999999999999800e-01
-9.448029471583421213e-01,-2.329409265847486310e-01,2.513324707189474871e-01,1.000000000000000048e-04,4.064619347767466451e+01,3.099999999999999978e-01
3.501070222725526371e-01,-7.016325539711132375e-01,2.743744295497676511e-01,1.000000000000000048e-04,4.056307568587831014e+01,2.300000000000000100e-01
5.693278552914615709e-01,5.896678260714383057e-02,1.375936239609878431e-01,1.000000000000000048e-04,3.918421028033512243e+01,2.200000000000000011e-01
-1.672819437896424288e+00,-5.207076366910818876e-01,4.295379969256061248e-01,1.000000000000000048e-04,4.161909456349836489e+01,2.300000000000000100e-01
-1.649376050486182077e+00,-1.104525651017245202e-01,1.330283709680735171e-01,1.000000000000000048e-04,3.859165562433611285e+01,2.200000000000000011e-01
1.265553473702066611e+00,6.701466296358633556e-01,3.797055488430438608e-01,1.000000000000000048e-04,4.157959738858978938e+01,2.099999999999999922e-01
-1.100513434837444127e+00,4.844738571873219435e-01,8.939388373618493144e-01,1.000000000000000048e-04,4.350209671182967242e+01,2.300000000000000100e-01
1.289367619446988300e-01,-1.033100148377865457e+00,6.154047247523259934e-01,1.000000000000000048e-04,4.309024964549974612e+01,2.399999999999999911e-01
1.808537163617988774e+00,-3.279826936632805889e-01,3.384901693621689134e-01,1.000000000000000048e-04,4.158179587704569968e+01,2.099999999999999922e-01
-2.655706812527078409e+00,-9.987837335421394513e-01,6.140490537917886460e-01,1.000000000000000048e-04,4.278302536267123912e+01,2.399999999999999911e-01
-1.434453721224926426e-02,3.470436323772949638e-01,7.950658758649777891e-01,1.000000000000000048e-04,4.363718790465792807e+01,2.399999999999999911e-01
2.926224224816190045e+00,-1.193962840200386788e+00,3.992454165766732288e-01,1.000000000000000048e-04,4.157756936361327149e+01,2.800000000000000266e-01
1.212352909544386570e+00,2.727609217388828888e-01,3.839158396178565802e-01,1.000000000000000048e-04,4.146727392933391343e+01,2.000000000000000111e-01
2.143935732989386445e+00,-5.377094531613058059e-01,2.144223764267814136e-01,1.000000000000000048e-04,4.012158751521427291e+01,2.200000000000000011e-01
1.819969359769273431e-01,1.027495376681182293e+00,2.168350293329663891e-01,1.000000000000000048e-04,4.012269220675356962e+01,2.800000000000000266e-01
-1.843783940338049376e+00,-4.088469795480722535e-01,3.232009799186643662e-01,1.000000000000000048e-04,4.136625386959840256e+01,2.399999999999999911e-01
-1.644028854448047028e+00,-8.996042441766227693e-01,3.284795268639659760e-01,1.000000000000000048e-04,4.052288213902122749e+01,2.300000000000000100e-01
-1.797148427646511060e+00,-9.800280952320461481e-01,3.356252691279533185e-01,1.000000000000000048e-04,4.166208930883561834e+01,2.200000000000000011e-01
-1.461705049172500770e+00,-7.827331067056203517e-01,1.914750723147684575e-01,1.000000000000000048e-04,3.956434712984330559e+01,2.200000000000000011e-01
-1.229558752610896200e+00,2.934646538681238148e-01,7.937899180622818296e-01,1.000000000000000048e-04,4.401090615929538075e+01,2.399999999999999911e-01
-5.400611875317085087e-01,3.259619150288648459e-01,1.281741405103598019e+00,1.000000000000000048e-04,4.429299913735981420e+01,3.099999999999999978e-01
-3.050528549294753589e+00,3.103202000124016813e-01,9.159190065670781422e-01,1.000000000000000048e-04,4.376933115039522448e+01,2.600000000000000089e-01
-2.546348413481347883e+00,-3.230493328192778346e-01,8.555966609184078031e-01,1.000000000000000048e-04,4.368033708907475443e+01,3.099999999999999978e-01
-7.442142532638573726e-01,-7.461612102708511385e-01,1.334777971373205308e+00,1.000000000000000048e-04,4.471754073599451118e+01,3.800000000000000044e-01
-3.092748273099511280e+00,-3.155985023477954066e-01,3.651229246556058072e-01,1.000000000000000048e-04,4.119184353475754534e+01,2.500000000000000000e-01
-4.488259499451414669e-01,-5.880317910822461247e-01,5.071387548218786456e-01,1.000000000000000048e-04,4.269418736899074673e+01,2.300000000000000100e-01
1.360723509637487894e+00,-1.444627282841604021e-02,3.312247493231672557e-01,1.000000000000000048e-04,4.159215140018713441e+01,2.800000000000000266e-01
1.398732849300635905e+00,-2.679800761060979752e-02,1.847878178239721336e-01,1.000000000000000048e-04,3.976720305477600448e+01,3.699999999999999956e-01
3.122074351700291572e+00,6.491609595610845496e-01,3.564596488736833102e-01,1.000000000000000048e-04,4.134614968201636742e+01,2.200000000000000011e-01
1.403795807819319563e+00,-4.102318887738081177e-01,1.198901472591351158e+00,1.000000000000000048e-04,4.481470104694070500e+01,2.600000000000000089e-01
1.822478110092540682e+00,1.069253817758019753e+00,9.264274869293001036e-01,1.000000000000000048e-04,4.403606321925263245e+01,2.500000000000000000e-01
-2.640532399994120816e+00,-3.316848238814129601e-02,1.383788957113734064e-01,1.000000000000000048e-04,3.925696558448036910e+01,2.700000000000000178e-01
2.550121721566497079e+00,1.209844573020432357e+00,4.222378479799950846e-01,1.000000000000000048e-04,4.176695106960983850e+01,2.300000000000000100e-01
-3.047623874755406082e+00,8.280191360090678465e-01,3.836207122390060675e-01,1.000000000000000048e-04,4.142735756932315638e+01,2.300000000000000100e-01
6.043262189237110782e-01,2.786367202518791331e-01,1.494036674741119342e-01,1.000000000000000048e-04,3.887708861260204429e+01,3.200000000000000067e-01
-1.253133810237686552e+00,-6.629795951527558406e-01,1.796773470425387931e-01,1.000000000000000048e-04,3.982802336930392784e+01,2.899999999999999800e-01
-7.436265100340540002e-01,7.460437836966500313e-01,3.278093504781143253e-01,1.000000000000000048e-04,4.066063095862683241e+01,2.600000000000000089e-01
1.265852721615878806e-01,-3.394279495566809857e-03,4.490263628980948329e-01,1.000000000000000048e-04,4.231400925975767535e+01,2.899999999999999800e-01
6.763892535000284312e-01,-1.485815793733555878e-01,9.113996479555623864e-01,1.000000000000000048e-04,4.385164637080400496e+01,2.700000000000000178e-01
-1.518609268512143284e+00,1.061060997661196215e-01,3.220403322562832571e-01,1.000000000000000048e-04,4.145196788303917401e+01,2.300000000000000100e-01
-1.323506527501047580e+00,-6.149961509644006341e-01,2.366919077333284882e-01,1.000000000000000048e-04,4.021497873518512733e+01,2.800000000000000266e-01
-1.540504585694158823e+00,-5.002439646981660104e-02,6.043073214020016071e-01,1.000000000000000048e-04,4.270045306299132193e+01,2.300000000000000100e-01
-1.182923039315420866e+00,-1.702935707973074475e-01,2.552523861357434143e-01,1.000000000000000048e-04,4.071497401898288615e+01,2.200000000000000011e-01
2.934196158545760547e+00,1.113834874513336626e+00,3.746359607231823929e-01,1.000000000000000048e-04,4.152884484650481056e+01,2.200000000000000011e-01
-1.195229309441553145e+00,-1.363243620703480374e-01,2.410326248273997329e-01,1.000000000000000048e-04,4.054954900772995074e+01,2.099999999999999922e-01
2.441865599099482864e+00,-7.825641826870690654e-01,3.586693465484092069e-01,1.000000000000000048e-04,4.110374689339173671e+01,2.200000000000000011e-01
-9.617591795255697740e-01,-2.515342183712308000e-01,1.308616816035453656e+00,1.000000000000000048e-04,4.459653699282177541e+01,2.899999999999999800e-01
-2.387581248009809531e+00,-1.438854541031888701e-01,7.128460043409416969e-01,1.000000000000000048e-04,4.332368899672554363e+01,2.099999999999999922e-01
2.488863260777244513e+00,-1.156205492212424746e+00,2.929793500560891051e-01,1.000000000000000048e-04,4.109950777840514036e+01,2.300000000000000100e-01
-2.834285802291210743e+00,9.915514046184039643e-01,5.351669007694701552e-01,1.000000000000000048e-04,4.246943846696754576e+01,3.300000000000000155e-01
-1.055787537857657554e+00,-1.381031048994245669e+00,4.692511083466639477e-01,1.000000000000000048e-04,4.249627830522104688e+01,2.899999999999999800e-01
-3.904034352246132933e-01,-1.163502150594861284e+00,1.676446617624256508e-01,1.000000000000000048e-04,3.994333625894661566e+01,3.300000000000000155e-01
-4.492002276390141269e-01,-4.591873526176915021e-02,2.447908594899756984e-01,1.000000000000000048e-04,4.023196629836279214e+01,2.999999999999999889e-01
2.821958031920734911e+00,-1.185772599250880077e+00,2.517134802332365862e-01,1.000000000000000048e-04,4.037784511889665851e+01,2.600000000000000089e-01
1.436381478005551493e+00,9.848477715279493339e-01,1.318102262178906248e-01,1.000000000000000048e-04,3.925547563610979296e+01,3.300000000000000155e-01
-1.732367292220013955e+00,-6.112172017812607105e-01,3.691874418908187572e-01,1.000000000000000048e-04,4.120424407307026371e+01,2.500000000000000000e-01
2.192300880051134548e-01,1.463910901958915378e+00,3.427581259629224331e-01,1.000000000000000048e-04,4.076984803210856967e+01,2.399999999999999911e-01
-2.606071745478489188e+00,-2.608961335335091558e-01,3.650038051557960017e-01,1.000000000000000048e-04,4.168893849444889099e+01,3.900000000000000133e-01
-2.230529095436464715e+00,-1.030402662424853677e+00,9.190844391639703126e-01,1.000000000000000048e-04,4.389980964243193995e+01,2.700000000000000178e-01
1.355898101285768931e+00,-6.101339823896492209e-01,1.165057249568424158e-01,1.000000000000000048e-04,3.855626385954958124e+01,2.200000000000000011e-01
-1.500734829126724401e+00,-1.582054675553925538e-01,5.333754843758977682e-01,1.000000000000000048e-04,4.263504813269983629e+01,2.300000000000000100e-01
-2.228719719675060329e+00,-1.072111995765480996e+00,1.757926829000993063e-01,1.000000000000000048e-04,3.920728922542549810e+01,2.500000000000000000e-01
8.469143434129691173e-01,-4.111160636392465761e-01,5.084102206345380015e-01,1.000000000000000048e-04,4.259114094613937596e+01,2.099999999999999922e-01
1.942056234749472310e+00,5.142961860679724495e-01,1.710875415426806878e-01,1.000000000000000048e-04,3.941283651153334944e+01,2.099999999999999922e-01
2.148547605031200014e+00,1.165461866950707304e+00,1.122810172650838378e+00,1.000000000000000048e-04,4.403811450643401315e+01,2.999999999999999889e-01
-4.672099495529331570e-01,-1.100644617198156539e-01,2.311748282095829055e-01,1.000000000000000048e-04,4.004986215951146278e+01,2.200000000000000011e-01
-3.104314574080508482e+00,-3.700444741988049291e-01,2.470361389237070160e-01,1.000000000000000048e-04,4.054956006691183745e+01,2.099999999999999922e-01
1.345236067778875722e+00,-1.176347758850186942e-01,9.244356413264820382e-01,1.000000000000000048e-04,4.381249326738907968e+01,2.300000000000000100e-01
3.007852562471694746e+00,9.585298306212455266e-01,6.356294071266055390e-01,1.000000000000000048e-04,4.344837094510837261e+01,3.200000000000000067e-01
-5.227310591966833897e-01,4.711165572489606213e-01,6.711808156376142254e-01,1.000000000000000048e-04,4.345078862294220556e+01,2.600000000000000089e-01
1.793933457830521050e-02,9.047870519222933616e-01,3.721179860053624999e-01,1.000000000000000048e-04,4.144276578552738499e+01,2.000000000000000111e-01
2.929979732673125170e+00,1.031933083424354081e+00,2.355694968980839299e-01,1.000000000000000048e-04,4.047079030371286024e+01,1.799999999999999933e-01
-1.939868260105279685e+00,-3.415400315408858578e-01,3.482765376092737952e-01,1.000000000000000048e-04,4.128441649990900686e+01,2.999999999999999889e-01
-2.677340374871189255e+00,-1.002676581858696014e+00,3.690286174604973102e-01,1.000000000000000048e-04,4.154590788035654469e+01,2.399999999999999911e-01
-1.715986807986909612e+00,1.304436887132209844e+00,8.386118087189833314e-01,1.000000000000000048e-04,4.317930093113785972e+01,2.300000000000000100e-01
7.467864048768766416e-01,9.779036254324866562e-01,2.276306034073878326e-01,1.000000000000000048e-04,4.073846962178721043e+01,2.200000000000000011e-01
-1.429860346334228316e+00,4.879496610418798674e-02,2.557412964798020383e-01,1.000000000000000048e-04,4.041184138979429008e+01,2.300000000000000100e-01
1.268868800051579981e+00,1.612761170408827383e-01,2.320833865901774651e-01,1.000000000000000048e-04,4.062989033536904060e+01,2.300000000000000100e-01
2.209065411060062267e+00,1.084206694737967602e+00,8.176778229119419095e-01,1.000000000000000048e-04,4.370282225181704661e+01,2.600000000000000089e-01
8.643382138577049290e-01,1.324053402727187745e-01,1.716295241865239962e-01,1.000000000000000048e-04,3.984203136298751247e+01,2.099999999999999922e-01
-2.047504054138314267e+00,-1.948028745928989114e-01,5.461723745828268584e-01,1.000000000000000048e-04,4.276799788143581793e+01,2.899999999999999800e-01
-1.359263639196871987e+00,-3.235772424854810314e-01,5.116494434819802706e-01,1.000000000000000048e-04,4.235360875787988988e+01,2.000000000000000111e-01
1.817980326708233285e+00,-7.284777196959888457e-01,5.852275490066085606e-01,1.000000000000000048e-04,4.297199792378835781e+01,2.500000000000000000e-01
-1.004435530427866041e+00,-9.678589871965718183e-01,6.735214895988830275e-01,1.000000000000000048e-04,4.295782257067570242e+01,2.099999999999999922e-01
-2.365176389407511071e+00,-3.540519999203268764e-01,2.681795564682754041e-01,1.000000000000000048e-04,4.073580445043694453e+01,2.300000000000000100e-01
2.014526684794843980e-01,8.085730053287170094e-01,4.504272051689113265e-01,1.000000000000000048e-04,4.196763010067272859e+01,2.200000000000000011e-01
7.693675330710907367e-01,-1.752787617726971892e-01,5.024742154607348965e-01,1.000000000000000048e-04,4.231240584499467872e+01,2.399999999999999911e-01
2.418581310899059034e+00,-1.544528028656835250e+00,5.768512301811099530e-01,1.000000000000000048e-04,4.251091312588599891e+01,2.500000000000000000e-01
1.157004682532911666e-01,-4.205802178461228724e-01,1.566928381455297004e-01,1.000000000000000048e-04,3.978066810114316354e+01,2.200000000000000011e-01
-2.097903029631079885e+00,1.023707684736050005e+00,8.245775289991894574e-01,1.000000000000000048e-04,4.293274319866475963e+01,3.300000000000000155e-01
-5.093057229707449451e-01,5.054583194401334190e-01,2.985510076055757356e-01,1.000000000000000048e-04,4.060372327191743835e+01,2.000000000000000111e-01
2.567208283669740077e+00,1.206177378266669376e+00,4.495969917491879908e-01,1.000000000000000048e-04,4.189955217986466351e+01,2.600000000000000089e-01
1.441451231138493050e+00,-5.644516626730444742e-02,2.766392212874764223e-01,1.000000000000000048e-04,4.031288030035727132e+01,2.399999999999999911e-01
3.040935396919291378e+00,-4.252599606114608743e-01,4.997709187704226785e-01,1.000000000000000048e-04,4.228365858473799221e+01,2.399999999999999911e-01
-2.933906666888515424e+00,2.761799535960043350e-01,9.106465645802890307e-01,1.000000000000000048e-04,4.401742474188606025e+01,2.600000000000000089e-01
2.368643529958215588e+00,-2.263922645384768284e-01,3.301000613994524713e-01,1.000000000000000048e-04,4.114137068617841209e+01,2.399999999999999911e-01
9.733020210835112707e-01,7.723133561393002999e-01,3.792412448570365857e-01,1.000000000000000048e-04,4.170806765912323755e+01,2.000000000000000111e-01
-1.968772700740092585e+00,-1.206110818246473482e+00,7.172431095333346995e-01,1.000000000000000048e-04,4.318259164019843155e+01,3.699999999999999956e-01
8.360639818875581497e-02,8.422942129795774058e-02,2.521749781096078724e-01,1.000000000000000048e-04,4.042465801052297536e+01,3.099999999999999978e-01
-2.195573595713102399e+00,-4.996443293331105373e-01,7.546817343356324592e-01,1.000000000000000048e-04,4.323134117866069914e+01,2.399999999999999911e-01
1.023494475898537814e+00,-1.336465904073680377e-02,6.844814328947796955e-01,1.000000000000000048e-04,4.326414120780010819e+01,2.099999999999999922e-01
-8.389878165429087709e-01,5.555085361700107249e-02,2.001643090645663925e-01,1.000000000000000048e-04,3.979629607231032651e+01,2.800000000000000266e-01
-4.485587093701779438e-01,-1.300030330498247899e+00,1.282744874477328434e+00,1.000000000000000048e-04,4.452070950748728961e+01,2.800000000000000266e-01
-1.488764535301251302e+00,5.909325816320851743e-01,2.503759444055904115e-01,1.000000000000000048e-04,4.053385624037979085e+01,2.099999999999999922e-01
-2.812935986854967041e+00,-3.087391425106269516e-01,5.750075549760795823e-01,1.000000000000000048e-04,4.261505574213932590e+01,2.300000000000000100e-01
-1.193072892217216019e+00,1.992946569619524766e-01,2.069712677442507864e-01,1.000000000000000048e-04,3.965647310247682356e+01,2.000000000000000111e-01
2.600548693221631957e+00,4.758339358838163946e-01,3.013707901455968674e-01,1.000000000000000048e-04,4.087211677808629418e+01,1.000000000000000056e-01
-2.428109649742991039e+00,7.233547249085638953e-01,4.144202098382596677e-01,1.000000000000000048e-04,4.169950180438325305e+01,1.199999999999999956e-01
2.010677299542329877e+00,6.600558287491939957e-01,7.434431428915109219e-01,1.000000000000000048e-04,4.328523173072808561e+01,8.999999999999999667e-02
1.581901737977104538e+00,1.173912532863994773e+00,2.365503199622631669e-01,1.000000000000000048e-04,4.035176966625235195e+01,1.400000000000000133e-01
-2.577426097656978499e-01,-1.785286777165278060e-01,2.455201609613091307e-01,1.000000000000000048e-04,4.064168285706152517e+01,2.000000000000000111e-01
-2.235554706867621810e+00,6.962039912329061053e-01,2.689670680853131213e-01,1.000000000000000048e-04,4.022213521740279418e+01,1.900000000000000022e-01
2.156090201751139190e+00,-3.530068435459523535e-01,2.039720163550871046e-01,1.000000000000000048e-04,4.042342677116058525e+01,1.700000000000000122e-01
3.252783022573915162e-01,5.018140216796038722e-01,2.413770711912155420e-01,1.000000000000000048e-04,4.085594156076084715e+01,3.499999999999999778e-01
-7.781471702007287661e-01,2.042907811605438884e-01,6.122605714965267953e-01,1.000000000000000048e-04,4.265155552474764988e+01,1.700000000000000122e-01
2.986353889734211009e+00,-3.804803901957700685e-01,8.808435038812501006e-01,1.000000000000000048e-04,4.353326829775084406e+01,1.900000000000000022e-01
2.664430909108784995e+00,-9.801204292152654318e-02,1.327511337609602826e+00,1.000000000000000048e-04,4.447330522187650814e+01,1.900000000000000022e-01
