7.014473677544876828e-01,5.864484995747685225e-01,6.032937661305786126e-01,1.000000000000000048e-04,4.273962542820910215e+01,1.700000000000000122e-01
1.302967723075604489e+00,1.351797855062170761e+00,2.262035242695024095e-01,1.000000000000000048e-04,4.035587674887213439e+01,1.600000000000000033e-01
-3.923933266239223450e-01,8.893487655233247580e-01,3.844784740184472582e-01,1.000000000000000048e-04,4.159646572649167950e+01,1.600000000000000033e-01
-5.480403193986207455e-01,-1.593028603104262864e-01,1.316045183519195749e+00,1.000000000000000048e-04,4.472665476641002869e+01,1.600000000000000033e-01
-1.586668568145646940e+00,3.311670190394622182e-02,4.435034235292905080e-01,1.000000000000000048e-04,4.135033564962863295e+01,1.900000000000000022e-01
4.358845060197138466e-01,-1.192820296386817747e+00,3.153296042864939253e-01,1.000000000000000048e-04,4.106112225475224875e+01,1.600000000000000033e-01
-2.115012218573708580e-02,-1.324617928820906787e+00,1.166322794493539927e+00,1.000000000000000048e-04,4.452068198322975690e+01,1.700000000000000122e-01
1.825968835570201065e+00,-1.104325693851549772e+00,2.645237255789996134e-01,1.000000000000000048e-04,4.064484033305316757e+01,1.600000000000000033e-01
2.757348861294723008e+00,5.630221730161970584e-01,2.345347435372924227e-01,1.000000000000000048e-04,4.070199227703610489e+01,1.600000000000000033e-01
-1.126604928690488894e+00,3.694147785779178239e-01,2.981434559418874031e-01,1.000000000000000048e-04,4.100527866896190687e+01,2.200000000000000011e-01
1.566299762825075881e+00,-1.088603715685210860e+00,1.016037088187582427e-01,1.000000000000000048e-04,3.866225167107386085e+01,8.999999999999999667e-02
2.855203120993564880e+00,1.736420766300403873e-01,1.923986719721555438e-01,1.000000000000000048e-04,3.985324901462074365e+01,8.000000000000000167e-02
1.228874573854055186e-02,-1.054644203117417689e+00,1.662478386316015300e-01,1.000000000000000048e-04,3.963084903811611781e+01,1.100000000000000006e-01
-6.231527365570865840e-03,-2.083968800959563605e-01,8.064942326709532150e-01,1.000000000000000048e-04,4.380633320594160551e+01,1.600000000000000033e-01
2.456748239703069991e+00,-7.991053830713734651e-01,8.346803726992886308e-01,1.000000000000000048e-04,4.369355137906824638e+01,1.300000000000000044e-01
1.703179686801885140e+00,8.291833143958511343e-01,3.385333543945290291e-01,1.000000000000000048e-04,4.127066011340134111e+01,8.999999999999999667e-02
3.253969406006911314e-01,4.489829946179679787e-01,3.761633778432798003e-01,1.000000000000000048e-04,4.159257874850570147e+01,2.099999999999999922e-01
-4.755261200963984969e-01,-8.173307103538097751e-01,1.488621930157454365e-01,1.000000000000000048e-04,3.930984743605741727e+01,1.799999999999999933e-01
-3.080764820789935854e+00,-6.186697216446268577e-02,4.004474415633667572e-01,1.000000000000000048e-04,4.154055054128616575e+01,1.600000000000000033e-01
6.822875810572779365e-01,1.436044431583928915e+00,5.362676536428632179e-01,1.000000000000000048e-04,4.225362852173932993e+01,1.799999999999999933e-01
-1.537126348295388079e+00,-6.575494237326395819e-03,8.819735464948554871e-01,1.000000000000000048e-04,4.366205396194690991e+01,1.600000000000000033e-01
-1.031434784285258477e+00,1.213631324561131652e+00,6.551064090511422577e-01,1.000000000000000048e-04,4.282118688521889993e+01,2.000000000000000111e-01
1.477576135897664678e+00,1.259806704387091081e+00,2.593917482156102849e-01,1.000000000000000048e-04,4.026852837204539526e+01,1.700000000000000122e-01
2.652845559609176007e+00,2.364503438720122475e-02,1.404529573985824342e-01,1.000000000000000048e-04,3.927837104892114439e+01,1.700000000000000122e-01
1.076671804239547114e+00,-1.999321471600750133e-01,8.823027909185265916e-01,1.000000000000000048e-04,4.378126167252669632e+01,1.700000000000000122e-01
2.479304945942475413e-01,6.157153585726886647e-01,3.378437018033544348e-01,1.000000000000000048e-04,4.136161421919109671e+01,2.000000000000000111e-01
-2.297153395904398820e-01,-6.899219251289110399e-01,4.299501035222383916e-01,1.000000000000000048e-04,4.213365119157405303e+01,1.900000000000000022e-01
5.182848754564033378e-01,-9.916016431585452651e-01,1.650901261801012154e-01,1.000000000000000048e-04,3.976439243361726739e+01,1.700000000000000122e-01
-1.012203449050441684e+00,-1.209418519181002960e+00,3.033843284737283152e-01,1.000000000000000048e-04,4.103179037539351981e+01,1.000000000000000056e-01
-2.431119393112467719e+00,1.123696240956019388e+00,5.801289722479312516e-01,1.000000000000000048e-04,4.273735671373438549e+01,1.000000000000000056e-01
-2.106970082567208635e+00,5.487392234722836548e-01,5.490881276361370134e-01,1.000000000000000048e-04,4.243941126616913806e+01,1.100000000000000006e-01
-1.562837052060520593e+00,-3.678514533784877916e-01,3.094910732194462444e-01,1.000000000000000048e-04,4.110080868273293930e+01,1.199999999999999956e-01
-9.610268223994791192e-01,-7.230456568154035590e-01,1.287377411472915067e+00,1.000000000000000048e-04,4.465143800275251351e+01,1.300000000000000044e-01
-2.826615346455997990e+00,3.127677528854357902e-01,4.773664736656633156e-01,1.000000000000000048e-04,4.221766365510477925e+01,1.199999999999999956e-01
1.613050640909113653e+00,-7.479323264338189059e-01,1.461600956177915300e-01,1.000000000000000048e-04,3.949464452859971431e+01,1.499999999999999944e-01
1.927121071348518733e+00,-8.099855920709964074e-02,1.043923070254954233e+00,1.000000000000000048e-04,4.440999096447782790e+01,2.200000000000000011e-01
-2.832847311550488634e+00,5.011632487983010975e-01,9.975548697060734327e-01,1.000000000000000048e-04,4.414032766273273722e+01,1.199999999999999956e-01
1.192752284841422039e+00,-1.007792837372956107e-01,1.201684225527699823e+00,1.000000000000000048e-04,4.473168109961083161e+01,1.600000000000000033e-01
-1.584872261272076699e-01,6.096924311606666258e-01,1.933470494706808207e-01,1.000000000000000048e-04,3.989364605446863976e+01,2.200000000000000011e-01
-2.398862468622330102e+00,-4.361306103069684248e-02,1.346388546992718371e-01,1.000000000000000048e-04,3.933314995250352553e+01,2.200000000000000011e-01
-8.797912013079551841e-01,-2.226632716458001315e-01,3.133686916533517941e-01,1.000000000000000048e-04,4.080442398752663991e+01,1.300000000000000044e-01
2.562112891306642659e+00,-9.859378914157623797e-02,6.817675751992828825e-01,1.000000000000000048e-04,4.301793988688984172e+01,1.600000000000000033e-01
-1.862910528516672493e+00,4.439528995551187407e-01,6.091249385126757954e-01,1.000000000000000048e-04,4.271304668169679530e+01,2.099999999999999922e-01
2.764725582466478926e+00,-8.861766302924645178e-01,2.750337545116456894e-01,1.000000000000000048e-04,4.074844452197241651e+01,2.000000000000000111e-01
-1.614544286763280656e+00,4.624678188691353498e-01,3.009125515833157571e-01,1.000000000000000048e-04,4.111411014141609854e+01,2.000000000000000111e-01
-2.187026447478326752e+00,9.735560064759263277e-02,6.066737828270152288e-01,1.000000000000000048e-04,4.265292504629724135e+01,2.500000000000000000e-01
-2.913462014890328966e-01,-4.739391670350630026e-01,4.846334766645823411e-01,1.000000000000000048e-04,4.170178643230104854e+01,2.200000000000000011e-01
2.221021539657064281e+00,-8.317867494279381768e-01,6.554886526386094481e-01,1.000000000000000048e-04,4.297441650275252556e+01,1.199999999999999956e-01
-1.394340890945607869e+00,3.131073246392317433e-01,1.359561373996826639e+00,1.000000000000000048e-04,4.477651773816768355e+01,1.400000000000000133e-01
-3.006639138636368447e+00,-5.198144158195874276e-01,1.061300580968141283e+00,1.000000000000000048e-04,4.435295073753406569e+01,1.400000000000000133e-01
-2.587449348377147018e+00,-8.575602127841986944e-01,2.472663769079865848e-01,1.000000000000000048e-04,4.039797422703473018e+01,1.100000000000000006e-01
1.981097185399233851e+00,1.232924598233675617e-01,1.146365198768315441e-01,1.000000000000000048e-04,3.868584226119768488e+01,1.199999999999999956e-01
1.679137792881558511e+00,5.509790394444640249e-01,8.166957653386310856e-01,1.000000000000000048e-04,4.375070202318190837e+01,2.000000000000000111e-01
-5.418457224274662032e-01,6.112852598361238066e-01,2.935275719697831853e-01,1.000000000000000048e-04,4.088796156996031783e+01,1.199999999999999956e-01
-7.259767900468379054e-01,3.592222879870916596e-01,5.070720476976722235e-01,1.000000000000000048e-04,4.260325076630545027e+01,1.499999999999999944e-01
-3.014311044562152819e+00,-1.109370212709416936e+00,4.327844851316293706e-01,1.000000000000000048e-04,4.223957670485533811e+01,1.499999999999999944e-01
4.089378759682342768e-01,-4.545165431772548725e-01,7.679188536155694411e-01,1.000000000000000048e-04,4.360108900469033699e+01,1.100000000000000006e-01
5.069677950440056868e-01,-7.592996080948336557e-01,6.420295979089003513e-01,1.000000000000000048e-04,4.293692648905932430e+01,1.199999999999999956e-01
-1.493257035115718168e-01,-7.073727601600080517e-01,1.237485365802472703e+00,1.000000000000000048e-04,4.460824227098510164e+01,1.300000000000000044e-01
4.042043828865544697e-01,9.407118685349553644e-01,4.687765062368440816e-01,1.000000000000000048e-04,4.193602802124448203e+01,1.300000000000000044e-01
8.905313163691950251e-01,-3.824231345008954897e-01,4.983598016829346999e-01,1.000000000000000048e-04,4.233077551155124496e+01,1.100000000000000006e-01
2.030171185553312441e+00,-2.636926551929250628e-01,2.075826557430640040e-01,1.000000000000000048e-04,4.041746299985377533e+01,1.600000000000000033e-01
-3.054289385922928091e+00,-1.373236924533355552e+00,1.429235210742354489e-01,1.000000000000000048e-04,3.913212990558550786e+01,1.199999999999999956e-01
2.179293112620513284e+00,-1.012605809511595290e-01,3.359052122234700288e-01,1.000000000000000048e-04,4.131966581875268929e+01,1.300000000000000044e-01
-1.818513214778816334e-01,-5.912285132736497806e-01,5.103528610090366513e-01,1.000000000000000048e-04,4.218296254311429294e+01,1.199999999999999956e-01
6.375524488641279852e-01,8.788616884462263634e-01,2.892040649636062888e-01,1.000000000000000048e-04,4.086649329834206412e+01,1.700000000000000122e-01
8.621928931077302849e-01,-1.163063977741379373e+00,6.936673686740733036e-01,1.000000000000000048e-04,4.342522720126569169e+01,1.100000000000000006e-01
-7.350823636745751344e-02,-6.782932919692421514e-01,1.976248325644034409e-01,1.000000000000000048e-04,3.991745449120450928e+01,1.100000000000000006e-01
-1.454814590256482854e+00,-1.228846798322457801e+00,3.401569743321108952e-01,1.000000000000000048e-04,4.115071666291149199e+01,1.199999999999999956e-01
-1.421197772342434051e+00,-1.375091708726561279e-01,2.683402228782783006e-01,1.000000000000000048e-04,4.082791677789604279e+01,1.499999999999999944e-01
9.749532850361113390e-01,-5.204804269086404922e-02,1.083896742447143513e-01,1.000000000000000048e-04,3.870040381088260517e+01,1.199999999999999956e-01
-1.132842766944852642e-01,-4.422583997605415984e-01,4.236119250704528660e-01,1.000000000000000048e-04,4.170937453628560121e+01,1.400000000000000133e-01
-3.056535106953333081e+00,1.344919224150974646e+00,3.204166023983672229e-01,1.000000000000000048e-04,4.101234041723110835e+01,1.199999999999999956e-01
-2.005602683639951866e+00,-1.166499766855632725e+00,1.223985694913759303e+00,1.000000000000000048e-04,4.474592244982105882e+01,1.100000000000000006e-01
-3.526307343405612471e-01,1.752795945662954935e-01,9.814173825887013702e-01,1.000000000000000048e-04,4.411641242145614683e+01,1.100000000000000006e-01
-1.348293440531133092e+00,7.985854139769892335e-01,1.529030034862746135e-01,1.000000000000000048e-04,3.905006142961043025e+01,1.300000000000000044e-01
-1.213894172049138076e+00,-2.852358835225650147e-01,4.840342608702714600e-01,1.000000000000000048e-04,4.211040841697312942e+01,1.400000000000000133e-01
8.732660054607945810e-01,6.822354357042561546e-01,8.976490424270502366e-01,1.000000000000000048e-04,4.395711863820970677e+01,1.199999999999999956e-01
-1.607655209461439805e+00,7.571788988627106143e-01,3.416894072047149677e-01,1.000000000000000048e-04,4.127681462453401195e+01,1.100000000000000006e-01
-2.713126166379401294e+00,-2.574509516152700961e-01,5.888880141941774671e-01,1.000000000000000048e-04,4.275195984591222498e+01,1.199999999999999956e-01
2.614015407650885692e+00,-8.210973321469494657e-02,2.145142698445023921e-01,1.000000000000000048e-04,4.007342822346010536e+01,1.199999999999999956e-01
-2.847948132030951651e+00,-8.358172871610102250e-01,2.674211958021803781e-01,1.000000000000000048e-04,4.057632237837010081e+01,1.300000000000000044e-01
1.971705900186812244e+00,-1.120352268660631090e+00,2.520057719360730975e-01,1.000000000000000048e-04,4.063393367525876698e+01,1.199999999999999956e-01
3.061705636712500400e+00,1.381234211660103295e+00,7.654792512610151256e-01,1.000000000000000048e-04,4.329211220774609359e+01,1.100000000000000006e-01
4.542615533770746339e-01,-7.864437963028895195e-01,5.293736414248482181e-01,1.000000000000000048e-04,4.266513293298673659e+01,1.199999999999999956e-01
-1.921359511030428457e+00,5.801735913351881990e-01,1.469128574681948241e-01,1.000000000000000048e-04,3.895959417689091708e+01,1.700000000000000122e-01
3.072868719087612277e+00,-1.016074172211964832e-01,4.309403255565782409e-01,1.000000000000000048e-04,4.206987296084928118e+01,1.400000000000000133e-01
2.737775149496036953e+00,-2.697624833999385796e-01,2.162529947220686033e-01,1.000000000000000048e-04,4.023112377568927656e+01,1.199999999999999956e-01
6.976246303585504904e-01,4.885611026279601532e-04,6.730897538498898935e-01,1.000000000000000048e-04,4.290825105915380533e+01,1.600000000000000033e-01
-2.148159174634036273e+00,9.413220813202727300e-03,1.421476427307306611e-01,1.000000000000000048e-04,3.918759117062953834e+01,1.700000000000000122e-01
-1.948986061243360712e+00,-6.625077090584822193e-01,2.284396467110438866e-01,1.000000000000000048e-04,4.016719500310038171e+01,1.499999999999999944e-01
2.726441487906066108e-01,7.264564034225906575e-01,7.665313232871076021e-01,1.000000000000000048e-04,4.342240834383977699e+01,1.100000000000000006e-01
1.047171169166579929e+00,5.287936315571584167e-02,2.572569371899131596e-01,1.000000000000000048e-04,4.041638289185068800e+01,2.000000000000000111e-01
3.118501649208511139e+00,-2.375071696051449521e-01,1.169379089493294721e+00,1.000000000000000048e-04,4.466265931458326577e+01,1.300000000000000044e-01
-2.374603185929139215e+00,3.679601666477374522e-01,1.966169639001524860e-01,1.000000000000000048e-04,3.984108028802896939e+01,1.499999999999999944e-01
2.114024298748328867e+00,-4.593425737164673617e-01,4.836171474947004167e-01,1.000000000000000048e-04,4.227603389899206121e+01,1.100000000000000006e-01
-2.320915599482940905e+00,1.988838273369935017e-01,2.043665434734915909e-01,1.000000000000000048e-04,3.987653334230569868e+01,1.199999999999999956e-01
-2.815153187107107602e+00,4.622985199720814897e-01,4.993507632952463027e-01,1.000000000000000048e-04,4.228799577930170273e+01,1.100000000000000006e-01
2.952244566918561297e+00,-7.508141388646828451e-01,5.067391996173973290e-01,1.000000000000000048e-04,4.236374925957115067e+01,1.100000000000000006e-01
-3.374266285956837308e-01,7.044522283616352354e-01,2.553334591655873620e-01,1.000000000000000048e-04,4.023172440761356938e+01,2.099999999999999922e-01
-1.438166512416775511e+00,4.104046296017003215e-01,3.988331090776080501e-01,1.000000000000000048e-04,4.170082431415673341e+01,1.199999999999999956e-01
-1.822708613089585095e+00,-7.101873545729736614e-01,2.096536279171656858e-01,1.000000000000000048e-04,4.028139469359378921e+01,1.199999999999999956e-01
-2.816444573890819036e+00,-1.764476122967257865e-01,3.099467661497943283e-01,1.000000000000000048e-04,4.129514227861747599e+01,1.199999999999999956e-01
2.460934302317292044e+00,-4.404363116217835383e-01,3.648703240755994948e-01,1.000000000000000048e-04,4.172788131669445733e+01,1.700000000000000122e-01
1.918092981958550602e+00,1.074988334882631680e-01,3.928913328768757207e-01,1.000000000000000048e-04,4.187943277253151564e+01,1.100000000000000006e-01
7.937998717517396052e-01,2.507970887583219621e-01,4.169057530616284701e-01,1.000000000000000048e-04,4.172105553238294817e+01,2.099999999999999922e-01
-2.578006931546068081e+00,6.577013108699971689e-01,1.097826347108488143e+00,1.000000000000000048e-04,4.422913192400345395e+01,1.300000000000000044e-01
7.663039676851082227e-01,3.357248081528789729e-01,8.518776158456400349e-01,1.000000000000000048e-04,4.359644065748818065e+01,1.199999999999999956e-01
3.753591891880159181e-01,4.193049279667215856e-02,8.040475934026982685e-01,1.000000000000000048e-04,4.352084997163131419e+01,1.300000000000000044e-01
-1.903703978239519756e+00,5.293556814293536306e-01,5.511940081217334697e-01,1.000000000000000048e-04,4.256000090404487679e+01,1.799999999999999933e-01
-3.552287047696101041e-01,-2.136475167893372440e-01,3.224699648148732223e-01,1.000000000000000048e-04,4.098186421865035811e+01,1.199999999999999956e-01
2.224677837051598495e+00,1.092858857494189095e+00,2.925855038644249451e-01,1.000000000000000048e-04,4.097934757433621655e+01,1.199999999999999956e-01
-2.241038130818121310e+00,-2.119790848266476235e-01,8.238780895559307815e-01,1.000000000000000048e-04,4.354253591511947974e+01,1.900000000000000022e-01
-1.354329480418589693e+00,2.806181630628439283e-01,2.621925589293494507e-01,1.000000000000000048e-04,4.045120433607458210e+01,1.300000000000000044e-01
-1.057588587286057091e+00,6.017420559768158483e-01,5.917285090704687001e-01,1.000000000000000048e-04,4.282794277755656509e+01,1.499999999999999944e-01
4.491861142188926515e-01,2.837952402894783344e-01,7.885699352931332395e-01,1.000000000000000048e-04,4.351281690599792285e+01,1.499999999999999944e-01
1.175620301473101037e+00,1.258375445844042151e-01,3.109634313977955866e-01,1.000000000000000048e-04,4.149940373745347699e+01,1.400000000000000133e-01
-7.513092899161510907e-01,-3.674048284417288368e-01,1.246939910472441237e+00,1.000000000000000048e-04,4.440832675464397994e+01,1.400000000000000133e-01
-7.646998716055293244e-01,1.464203856122192615e-01,1.049053751054134676e+00,1.000000000000000048e-04,4.438951285722845341e+01,1.199999999999999956e-01
-2.626744165467850056e+00,-8.785961859603380608e-01,4.025467531096862395e-01,1.000000000000000048e-04,4.160313042671159423e+01,1.199999999999999956e-01
-2.016448155728231217e+00,-2.627153207091850184e-01,2.988160606121963436e-01,1.000000000000000048e-04,4.076012316873702446e+01,1.100000000000000006e-01
-2.138176314246587939e+00,-5.638412854565995058e-01,3.246014077441121692e-01,1.000000000000000048e-04,4.123634458915240231e+01,1.100000000000000006e-01
-1.366613590788382515e+00,6.471151472122240733e-01,8.079738544448642479e-01,1.000000000000000048e-04,4.350584457573340558e+01,1.400000000000000133e-01
2.538719807596018008e+00,-9.410277887251550233e-02,7.528506337767184586e-01,1.000000000000000048e-04,4.332230187123668941e+01,1.499999999999999944e-01
-2.023904308804601815e+00,8.729868465496055663e-01,2.695530235947380948e-01,1.000000000000000048e-04,4.035051887102599721e+01,1.199999999999999956e-01
5.023498084903148531e-01,-2.486827972934406716e-01,7.126706794038424331e-01,1.000000000000000048e-04,4.332732808505294742e+01,2.099999999999999922e-01
1.559827382841332266e-01,-1.155309768997138553e+00,2.126463118971633204e-01,1.000000000000000048e-04,4.026822128143995627e+01,1.300000000000000044e-01
-4.278509243084283042e-01,-3.574471520142576964e-01,6.137284402668925498e-01,1.000000000000000048e-04,4.316037864142496261e+01,1.400000000000000133e-01
-1.694690166003052445e+00,-3.708191863609464622e-01,6.883008767285023755e-01,1.000000000000000048e-04,4.326159409457265070e+01,1.199999999999999956e-01
2.538778453861804785e+00,9.704233759320217700e-01,4.851074934055092935e-01,1.000000000000000048e-04,4.217651809675420083e+01,1.199999999999999956e-01
-1.381884441670471642e+00,4.281931760594066549e-01,3.023843820410205829e-01,1.000000000000000048e-04,4.105086080226575262e+01,1.100000000000000006e-01
-2.672216891299283859e-02,9.118763706695109938e-01,2.138217342449786340e-01,1.000000000000000048e-04,4.007452557006811134e+01,1.300000000000000044e-01
2.965865485669832324e+00,4.200332370952282179e-01,9.776329847800551143e-01,1.000000000000000048e-04,4.400486286044559847e+01,1.199999999999999956e-01
-4.229747032796589146e-01,-8.108785394143267489e-01,1.339713372902386457e+00,1.000000000000000048e-04,4.490790031261310133e+01,1.199999999999999956e-01
-1.545687782139806954e+00,-5.719341936539013016e-01,9.629473407249296013e-01,1.000000000000000048e-04,4.407076966255051076e+01,1.300000000000000044e-01
-1.452358887930712550e+00,-7.162442650868141580e-01,3.675347835592190915e-01,1.000000000000000048e-04,4.152004448237440926e+01,1.300000000000000044e-01
-7.771146863738715993e-01,-2.871071625498133884e-01,1.308980573937206238e-01,1.000000000000000048e-04,3.884359846561621765e+01,1.199999999999999956e-01
-9.648670127917484685e-01,2.757725798248578108e-02,3.722719670889242938e-01,1.000000000000000048e-04,4.163706736215441140e+01,1.199999999999999956e-01
-1.080134202816299016e+00,7.077474480204277718e-01,5.451286149095135869e-01,1.000000000000000048e-04,4.256393598084836327e+01,1.300000000000000044e-01
-2.063199328051985137e+00,-4.796316694849922513e-02,7.604501836743460252e-01,1.000000000000000048e-04,4.314260210169124576e+01,1.199999999999999956e-01
-2.814667853035916156e+00,5.032431420889516005e-02,4.135706228396511808e-01,1.000000000000000048e-04,4.185721839391709409e+01,1.199999999999999956e-01
-4.676036249605424189e-01,3.106227460656147965e-01,3.294403073083169708e-01,1.000000000000000048e-04,4.108423731630870890e+01,1.199999999999999956e-01
3.453073243115261093e-01,-2.010307603005740962e-01,7.325864864560296397e-01,1.000000000000000048e-04,4.318108084099447552e+01,1.499999999999999944e-01
-1.017989823782821990e+00,-2.038493559104872510e-01,7.333692487783232128e-01,1.000000000000000048e-04,4.336748086964490057e+01,1.199999999999999956e-01
2.006719454486001197e+00,-7.777926521764617629e-01,9.084098610917521466e-01,1.000000000000000048e-04,4.375123113339701320e+01,2.000000000000000111e-01
3.811823289006177617e-01,-2.021379059185781646e-01,2.609501825740951908e-01,1.000000000000000048e-04,4.030826656845403733e+01,2.000000000000000111e-01
1.176755497139009954e+00,3.656129167709583072e-01,1.522376973391599275e-01,1.000000000000000048e-04,3.946975598790882600e+01,1.400000000000000133e-01
-3.322021019463798908e-01,-7.964331515258110672e-01,8.180174138310996046e-01,1.000000000000000048e-04,4.356374886895471121e+01,1.199999999999999956e-01
1.488638341145998467e+00,-5.802176646517244185e-01,1.283450467891540381e-01,1.000000000000000048e-04,3.917790981186152521e+01,1.300000000000000044e-01
1.324859451525673748e+00,2.418206107892528767e-01,5.104864970215232667e-01,1.000000000000000048e-04,4.248253225343438544e+01,1.799999999999999933e-01
1.618981583577949301e+00,3.272426574756381878e-01,1.571277047642158919e-01,1.000000000000000048e-04,3.938162250268212006e+01,1.499999999999999944e-01
1.003297842785071836e+00,6.006477180957223716e-01,5.441014491033322464e-01,1.000000000000000048e-04,4.250482280822712511e+01,1.100000000000000006e-01
-1.923409574730628124e+00,1.362187502844500742e-01,8.817698916195391146e-01,1.000000000000000048e-04,4.383463230139874156e+01,1.199999999999999956e-01
-1.800552903536209337e+00,-5.420344822819895825e-01,1.278325018148152026e-01,1.000000000000000048e-04,3.862402250008631199e+01,1.499999999999999944e-01
1.745186100809879903e+00,-1.115218772500776057e+00,3.865358195976866806e-01,1.000000000000000048e-04,4.179305089298385667e+01,1.900000000000000022e-01
2.795062883382088081e+00,-1.191847824486580443e-01,4.982601446453862604e-01,1.000000000000000048e-04,4.228291255564861473e+01,1.799999999999999933e-01
-1.245535045337601732e+00,3.914611388063953257e-01,5.949998850436617470e-01,1.000000000000000048e-04,4.256135165516432295e+01,1.499999999999999944e-01
2.988004051906951730e-01,3.548939009281408818e-01,2.418299263006744582e-01,1.000000000000000048e-04,4.057171900234090600e+01,1.499999999999999944e-01
-1.511898724924972237e+00,7.720854817506106471e-01,2.547490570702886092e-01,1.000000000000000048e-04,4.082521066987521152e+01,3.599999999999999867e-01
1.681094402917676867e+00,-3.263749567958234010e-01,2.072203011972895137e-01,1.000000000000000048e-04,4.032590677789364975e+01,3.900000000000000133e-01
1.444401389565591387e+00,9.169331115861645287e-02,1.646769114742427931e-01,1.000000000000000048e-04,3.956452058586338438e+01,3.900000000000000133e-01
-7.678802587812367797e-01,5.866888449784855020e-01,1.504929397089520560e-01,1.000000000000000048e-04,3.941695945288439162e+01,3.099999999999999978e-01
-1.600373487948422158e+00,-3.099823971224313635e-01,7.967965011328634883e-01,1.000000000000000048e-04,4.316839635113239382e+01,3.300000000000000155e-01
4.678051593713816736e-01,6.064472448323452447e-01,3.856912703093124950e-01,1.000000000000000048e-04,4.117920487065756419e+01,4.000000000000000222e-01
-2.997782375882024120e+00,4.172439446172733213e-01,1.588892909844064061e-01,1.000000000000000048e-04,3.950388679378892931e+01,3.200000000000000067e-01
-1.695856406082106638e+00,4.550929535562002748e-01,3.479400120507150085e-01,1.000000000000000048e-04,4.111187879770341169e+01,3.200000000000000067e-01
1.440382174066603405e+00,2.258138351124054921e-01,1.745975768023482200e-01,1.000000000000000048e-04,4.021008623198518706e+01,3.599999999999999867e-01
1.172696739286754664e+00,5.568522814757606021e-01,2.023513291172487349e-01,1.000000000000000048e-04,3.979252016266173797e+01,2.399999999999999911e-01
3.034541958949077411e-01,8.329499095944017384e-01,8.877456067005262685e-01,1.000000000000000048e-04,4.350054216305235144e+01,2.999999999999999889e-01
2.819620438593092970e+00,-7.667201251632641545e-01,2.190911148354568461e-01,1.000000000000000048e-04,4.054166638685936874e+01,2.399999999999999911e-01
2.826736997972336241e+00,-9.226270966108675031e-01,3.973973624146396322e-01,1.000000000000000048e-04,4.170761257669477118e+01,2.899999999999999800e-01
2.562033852535551937e+00,3.558004721219196753e-01,4.187367261840890809e-01,1.000000000000000048e-04,4.131743663159995350e+01,2.899999999999999800e-01
-1.391987564386760745e-01,-8.838106804642120728e-01,9.726359571094318479e-01,1.000000000000000048e-04,4.404023104462719118e+01,2.899999999999999800e-01
2.648175800996363627e+00,8.382167933976027996e-01,5.582239287749635182e-01,1.000000000000000048e-04,4.246477139335928541e+01,3.699999999999999956e-01
2.319697958071849087e-01,9.505333600235110758e-01,1.547215008999998087e-01,1.000000000000000048e-04,3.912439525095695814e+01,2.300000000000000100e-01
2.336385488075835681e+00,-3.677156696501229227e-01,5.481006808521542428e-01,1.000000000000000048e-04,4.268273206891743854e+01,2.000000000000000111e-01
-3.103918101569383303e+00,-7.387520942872082275e-01,5.736810065812478765e-01,1.000000000000000048e-04,4.224527045363824840e+01,3.800000000000000044e-01
1.142264859611183070e+00,-1.680738345775549814e-01,6.525666445771642898e-01,1.000000000000000048e-04,4.284038820948939019e+01,2.300000000000000100e-01
1.838768793542068458e+00,-8.332111298748431372e-01,4.660473102093229958e-01,1.000000000000000048e-04,4.181461622606889250e+01,3.900000000000000133e-01
1.178767367063335847e-01,-1.267652172158695301e-02,3.818347261206298526e-01,1.000000000000000048e-04,4.138924058391565097e+01,2.200000000000000011e-01
-1.192558954844683106e+00,-1.394987328614827993e+00,1.560177118646415284e-01,1.000000000000000048e-04,3.965827595258366500e+01,2.399999999999999911e-01
6.399578055843018198e-01,6.083729408971163544e-01,5.451107220247966012e-01,1.000000000000000048e-04,4.257553868137209463e+01,2.000000000000000111e-01
-1.179687186109017460e+00,4.731729260021366734e-01,3.083582704575507094e-01,1.000000000000000048e-04,4.073235546976282961e+01,1.900000000000000022e-01
2.196955343389407567e+00,-3.664805259859245101e-01,1.465014811187277388e-01,1.000000000000000048e-04,3.916263898102537411e+01,2.600000000000000089e-01
-4.480469749117239608e-01,-2.400991482621261941e-01,2.026466812635858705e-01,1.000000000000000048e-04,3.980106237409170689e+01,1.900000000000000022e-01
2.823457884050810662e+00,4.498053865700737397e-01,3.455302343523476427e-01,1.000000000000000048e-04,4.138830534075813006e+01,1.000000000000000056e-01
-2.933246131921278366e+00,-3.026768593855422296e-02,3.156547936877478477e-01,1.000000000000000048e-04,4.114348269139303227e+01,1.400000000000000133e-01
9.062243697916496643e-01,-3.081198620958902623e-02,3.275948289656060997e-01,1.000000000000000048e-04,4.122073456602886665e+01,1.900000000000000022e-01
-2.841200070209530359e+00,4.336252837635714563e-01,2.875094948006016171e-01,1.000000000000000048e-04,4.088397433927519842e+01,1.499999999999999944e-01
2.667781508541780866e+00,-2.660995751926640285e-01,5.444426336416530177e-01,1.000000000000000048e-04,4.263101233508852062e+01,1.900000000000000022e-01
1.754904955145121015e+00,-6.143172413811629484e-01,1.262753012460746671e-01,1.000000000000000048e-04,3.917500159008211114e+01,1.700000000000000122e-01
2.235400539251179985e-01,-1.186927056434903927e+00,3.039309842774275960e-01,1.000000000000000048e-04,4.103357039501310766e+01,1.100000000000000006e-01
-1.048259035968910791e+00,3.850943705083116342e-01,3.259855429879345845e-01,1.000000000000000048e-04,4.120703993210965166e+01,2.000000000000000111e-01
3.960916638474842877e-01,-5.261504484569099471e-01,6.607657059248330800e-01,1.000000000000000048e-04,4.308939694890062100e+01,1.700000000000000122e-01
2.942599977024444868e+00,-4.881282665791639719e-01,5.024587717507464912e-01,1.000000000000000048e-04,4.234614518673195960e+01,1.100000000000000006e-01
-2.330431386361015100e+00,-7.443471573444448985e-01,1.304343652992581148e-01,1.000000000000000048e-04,3.907109030921582615e+01,1.700000000000000122e-01
-5.469127346676123658e-01,-1.000345558218358022e+00,6.960709779552729515e-01,1.000000000000000048e-04,4.309113282126852340e+01,1.600000000000000033e-01
7.893673131492242590e-01,4.722913809621331893e-01,6.246502208043094306e-01,1.000000000000000048e-04,4.294194723798435120e+01,2.200000000000000011e-01
1.375133391726461873e-01,1.307615228991954037e-01,5.858718131978501997e-01,1.000000000000000048e-04,4.255971130233164246e+01,2.800000000000000266e-01
-4.276110467111475799e-01,-1.150486388445196129e+00,1.235508795908528690e-01,1.000000000000000048e-04,3.902595075257579538e+01,2.099999999999999922e-01
-2.806182899361028049e+00,-5.306525192164468496e-01,8.020688303623495496e-01,1.000000000000000048e-04,4.351570802529334969e+01,2.899999999999999800e-01
-1.387693702474082080e-01,-5.368996633487308490e-01,2.170680614924571650e-01,1.000000000000000048e-04,4.012345912893827204e+01,1.400000000000000133e-01
-2.753961021985920521e+00,3.176576597286175918e-01,1.543369432630854465e-01,1.000000000000000048e-04,3.898903085116251788e+01,1.600000000000000033e-01
1.542589005390467172e+00,9.700136132084820062e-01,7.349653677087670811e-01,1.000000000000000048e-04,4.351092203069109132e+01,2.099999999999999922e-01
1.641980154311744045e+00,-1.652318547779272340e-01,4.783286613703916501e-01,1.000000000000000048e-04,4.193961049074097502e+01,2.600000000000000089e-01
-2.804755578859697618e+00,9.948178155676252743e-01,2.956513666152265074e-01,1.000000000000000048e-04,4.087210538737142684e+01,1.400000000000000133e-01
7.674074257221215056e-01,-7.537196474818756986e-01,4.232592331251661122e-01,1.000000000000000048e-04,4.202899455071677437e+01,1.600000000000000033e-01
-2.894719366270526617e+00,-9.934570882111563028e-01,2.548095491769917231e-01,1.000000000000000048e-04,4.076110146276357682e+01,2.000000000000000111e-01
2.106148837400631635e+00,2.430877598880900603e-01,5.997480892100097716e-01,1.000000000000000048e-04,4.254553341612189143e+01,2.099999999999999922e-01
3.106517184759814754e+00,-3.432148094317140075e-01,8.872976934378313807e-01,1.000000000000000048e-04,4.389071938719220611e+01,1.700000000000000122e-01
-1.826861186779850099e+00,-1.371909884865669671e+00,1.347987211088237380e-01,1.000000000000000048e-04,3.901555587170070538e+01,1.499999999999999944e-01
-2.341626957267006759e-01,5.164097673857717119e-01,6.143400788126578416e-01,1.000000000000000048e-04,4.284873300097640936e+01,1.700000000000000122e-01
-1.737871605131367403e+00,-2.808973055863912549e-01,3.243452210393258373e-01,1.000000000000000048e-04,4.114246998646936504e+01,1.400000000000000133e-01
-2.353268593793347740e+00,-7.836073706072834710e-01,4.351466933127929870e-01,1.000000000000000048e-04,4.188785582068763347e+01,1.499999999999999944e-01
8.204697407021397382e-01,-4.231257142325648424e-01,7.950701726485194243e-01,1.000000000000000048e-04,4.385418560457991077e+01,3.400000000000000244e-01
-2.841627365708924380e+00,-1.114064224334011755e+00,3.448144796832115500e-01,1.000000000000000048e-04,4.113146855523149981e+01,1.700000000000000122e-01
-1.157000205328978293e+00,9.219896101327873517e-01,3.110545526050290110e-01,1.000000000000000048e-04,4.082228555459733599e+01,1.400000000000000133e-01
2.292239579876335753e+00,-6.681485347792235352e-01,6.484534369410011045e-01,1.000000000000000048e-04,4.331914542930445577e+01,1.799999999999999933e-01
2.620805660747532073e+00,-5.791692872579939921e-01,3.005127375242615528e-01,1.000000000000000048e-04,4.114173566535918525e+01,1.900000000000000022e-01
-2.193013657547099982e+00,-1.084374187679937540e+00,1.447367813630076050e-01,1.000000000000000048e-04,3.926427657585958997e+01,1.499999999999999944e-01
2.280891925617327232e+00,-4.500120867118195811e-01,3.097915105571942274e-01,1.000000000000000048e-04,4.116306073286210676e+01,1.700000000000000122e-01
-2.360905388200155386e+00,-2.896524891667457968e-01,7.373711692180187072e-01,1.000000000000000048e-04,4.341606222557125250e+01,1.600000000000000033e-01
1.437550480424287791e+00,-5.919919738089920447e-01,1.696628519915583944e-01,1.000000000000000048e-04,3.993115395319774308e+01,1.499999999999999944e-01
1.379018336021947455e+00,-1.469968751729487488e+00,1.151112206200231025e-01,1.000000000000000048e-04,3.878999048271275996e+01,1.700000000000000122e-01
9.626628010912572364e-01,-7.441528827519205969e-02,1.556539817062903008e-01,1.000000000000000048e-04,3.950908939687682420e+01,1.600000000000000033e-01
2.442594586574875493e+00,-1.445634912076644962e+00,1.597001030023348367e-01,1.000000000000000048e-04,3.970793623915340476e+01,2.899999999999999800e-01
-1.200839423184040911e+00,-2.224520191287204796e-01,2.472300912323621702e-01,1.000000000000000048e-04,4.038189605209218058e+01,1.400000000000000133e-01
-1.929774734249378731e-01,-1.130548437957876740e+00,3.290559769221359510e-01,1.000000000000000048e-04,4.101415191354882950e+01,1.499999999999999944e-01
1.658030873098988778e+00,-3.437301665277692209e-02,5.156492649539030637e-01,1.000000000000000048e-04,4.252847182628526923e+01,1.900000000000000022e-01
-1.237978773496996698e+00,6.147396693940954115e-02,4.424922250200669094e-01,1.000000000000000048e-04,4.208660752112319869e+01,2.500000000000000000e-01
-3.131560441904241987e+00,5.379818128550506451e-02,1.739626449677722508e-01,1.000000000000000048e-04,3.962572454623541773e+01,1.499999999999999944e-01
-2.766674903486680659e+00,-8.922566288172628646e-02,3.397119544908100419e-01,1.000000000000000048e-04,4.134795674286231559e+01,2.099999999999999922e-01
1.097102515689964086e+00,4.669426392322906239e-01,2.551214531298400257e-01,1.000000000000000048e-04,4.047593188165971156e+01,1.900000000000000022e-01
5.809031075273609623e-01,6.490986572399948251e-02,3.324174754553779199e-01,1.000000000000000048e-04,4.125234077639683505e+01,2.099999999999999922e-01
1.528139708753961656e+00,-1.309992035495657348e-01,3.809294105620018023e-01,1.000000000000000048e-04,4.139159502358132414e+01,2.099999999999999922e-01
-2.370473811779722606e+00,-1.584101826522372747e-01,3.133992231677107387e-01,1.000000000000000048e-04,4.087339991939760608e+01,1.499999999999999944e-01
-3.064310630541405178e+00,7.253400398265519300e-02,7.749161454322062159e-01,1.000000000000000048e-04,4.335524398763518406e+01,1.400000000000000133e-01
-1.957172160838025254e+00,-8.523476465265654722e-01,2.464167026362484858e-01,1.000000000000000048e-04,4.032369522172258769e+01,3.800000000000000044e-01
-2.450322525391237960e+00,-1.070980602175983565e+00,1.548162732448494783e-01,1.000000000000000048e-04,3.953398142978372931e+01,2.200000000000000011e-01
-4.342974104836252458e-01,-9.308788679105339803e-02,1.558702522715271765e-01,1.000000000000000048e-04,3.949412290353466659e+01,1.499999999999999944e-01
-1.344238042928474819e+00,7.432601505100611128e-02,3.917322066306936357e-01,1.000000000000000048e-04,4.157796042072063614e+01,1.700000000000000122e-01
1.550077749074278977e+00,3.395855637580271758e-01,1.415926735932677705e-01,1.000000000000000048e-04,3.937391306717768202e+01,1.700000000000000122e-01
1.842801746127106455e+00,-5.387140624663728783e-01,1.285379976205036634e-01,1.000000000000000048e-04,3.868211159883387040e+01,2.600000000000000089e-01
-1.186333111012016994e+00,-7.438601632450603240e-02,3.343262450632815685e-01,1.000000000000000048e-04,4.129694145346709888e+01,2.800000000000000266e-01
-1.573203424101137005e+00,-1.172603080046574986e+00,9.006607167668261305e-01,1.000000000000000048e-04,4.400515759678533101e+01,1.799999999999999933e-01
-1.645034199255253737e+00,-9.425366519961810852e-01,2.815462905349965794e-01,1.000000000000000048e-04,4.064970144399877228e+01,1.499999999999999944e-01
1.533217367566558131e+00,-3.190047453054956073e-02,1.493395471038074795e-01,1.000000000000000048e-04,3.967185415575390550e+01,2.200000000000000011e-01
-1.811560631043851899e+00,1.109306729742408404e+00,4.875474278588605159e-01,1.000000000000000048e-04,4.228541362492752853e+01,2.000000000000000111e-01
-1.723180288827278916e+00,1.126124424099564703e+00,9.519448339180556218e-01,1.000000000000000048e-04,4.413897288281437170e+01,1.600000000000000033e-01
6.868858901092709246e-01,7.053373999294088037e-01,3.172512751432077227e-01,1.000000000000000048e-04,4.082656781973936688e+01,1.600000000000000033e-01
2.122548807179368779e+00,1.076854925414315378e+00,7.216010020622043442e-01,1.000000000000000048e-04,4.346953329229728524e+01,2.099999999999999922e-01
-5.517812669384678514e-01,-8.642711256212348703e-01,5.232076489961821064e-01,1.000000000000000048e-04,4.220355061781791761e+01,2.899999999999999800e-01
1.411518423226305607e-01,8.801251323564676099e-01,1.753244827756272883e-01,1.000000000000000048e-04,3.939531160921242758e+01,1.400000000000000133e-01
-2.373323576413552516e+00,-9.573730867745523510e-01,8.497338856440270760e-01,1.000000000000000048e-04,4.349948389788833936e+01,2.700000000000000178e-01
1.493788722344590703e+00,5.554848222310595496e-01,3.750514980885588656e-01,1.000000000000000048e-04,4.158017968442263879e+01,1.300000000000000044e-01
2.480552877258674016e+00,2.809429002528698316e-01,2.137337283090376960e-01,1.000000000000000048e-04,4.024371470306849119e+01,1.700000000000000122e-01
-2.794214817495778824e+00,-1.054211614603710601e-01,1.428814219890850445e-01,1.000000000000000048e-04,3.895100703501267247e+01,2.500000000000000000e-01
-1.608370006610586600e+00,-4.353731574058568032e-01,7.159384567016409129e-01,1.000000000000000048e-04,4.328429470611560959e+01,1.400000000000000133e-01
-1.370190908090261672e+00,-3.380069700709036340e-01,9.701205052366097537e-01,1.000000000000000048e-04,4.428846428088633047e+01,1.900000000000000022e-01
-1.327004518146616130e+00,-1.643100515439370746e-01,5.376883823615914437e-01,1.000000000000000048e-04,4.256633362823528444e+01,1.600000000000000033e-01
1.008690441414947792e+00,4.770385664245027080e-01,3.698560376575299458e-01,1.000000000000000048e-04,4.150723646377969800e+01,1.600000000000000033e-01
-1.785644919539687514e+00,-2.589038114403683366e-01,8.538225385155444602e-01,1.000000000000000048e-04,4.337499201461348974e+01,2.700000000000000178e-01
2.165236881655083323e+00,-8.078527458471269629e-01,4.755132719924743956e-01,1.000000000000000048e-04,4.225967609828214222e+01,1.499999999999999944e-01
-2.278231980921827216e+00,7.508206122116503067e-01,2.811995629204886438e-01,1.000000000000000048e-04,4.051289759096762566e+01,1.600000000000000033e-01
-3.816317531730204493e-01,4.580549735043040194e-01,2.324909175340998946e-01,1.000000000000000048e-04,4.014205695119955664e+01,1.700000000000000122e-01
-7.620241092642054959e-01,-4.365893314725293184e-01,6.608262865128726737e-01,1.000000000000000048e-04,4.281521832266582095e+01,2.800000000000000266e-01
9.421821239052468044e-01,-8.343434522747885662e-01,4.339246844560227245e-01,1.000000000000000048e-04,4.201975767815292073e+01,1.499999999999999944e-01
-7.593122633043041247e-01,-4.792084076783869051e-01,7.177413001862171793e-01,1.000000000000000048e-04,4.337890199942146552e+01,3.099999999999999978e-01
1.293316097447456237e+00,-7.566094620228865919e-01,2.343199446206145620e-01,1.000000000000000048e-04,4.077529436400890006e+01,2.200000000000000011e-01
-1.181749952129241166e+00,-5.854482335478564670e-01,5.660314486117417054e-01,1.000000000000000048e-04,4.253920595382570724e+01,2.700000000000000178e-01
2.217686496580340894e+00,-5.035322703736717642e-01,1.408383871128144893e-01,1.000000000000000048e-04,3.954526046612387802e+01,2.899999999999999800e-01
1.287586389315093172e+00,1.944273568384602413e-01,6.833907719888236976e-01,1.000000000000000048e-04,4.373594146694826890e+01,3.099999999999999978e-01
1.909519445317100939e+00,-6.327255799306170658e-01,8.578612216008105751e-01,1.000000000000000048e-04,4.319892852846457743e+01,2.300000000000000100e-01
-1.856904548953299150e+00,5.461845953136146292e-01,3.027768412440476897e-01,1.000000000000000048e-04,4.128429727096963830e+01,2.200000000000000011e-01
1.930041301277864996e+00,-9.879969507187279509e-01,8.136610840501254938e-01,1.000000000000000048e-04,4.310087933643512770e+01,2.300000000000000100e-01
-7.941688950420497939e-01,1.149397285973163818e-01,5.281067776479144715e-01,1.000000000000000048e-04,4.251283074318024546e+01,2.200000000000000011e-01
2.503654175979688645e+00,1.801593740636855401e-01,1.208630079943697755e-01,1.000000000000000048e-04,3.910505691593485267e+01,2.099999999999999922e-01
-1.452788584797375382e+00,-1.407641190827033206e+00,8.341281766436916545e-01,1.000000000000000048e-04,4.393256594642866730e+01,2.300000000000000100e-01
-2.323614586999633858e+00,-8.552526024494455648e-02,2.914688705312169503e-01,1.000000000000000048e-04,4.077355746511614143e+01,2.399999999999999911e-01
2.053548200062462747e+00,-1.347644816899788989e-01,1.311435647569265672e-01,1.000000000000000048e-04,3.917636833479693337e+01,2.099999999999999922e-01
1.423061760523300912e+00,-5.547369802234098923e-01,5.047868478944663728e-01,1.000000000000000048e-04,4.214293530018900213e+01,2.399999999999999911e-01
2.322479257237914929e+00,9.022244550971270094e-01,1.934186503669084178e-01,1.000000000000000048e-04,3.989915290677479476e+01,2.399999999999999911e-01
1.532643010167138442e+00,2.295525530471576037e-01,2.774546191209255053e-01,1.000000000000000048e-04,4.069750370990988131e+01,2.800000000000000266e-01
-1.353951773964954697e+00,-6.861476976484733870e-01,2.547651369242118768e-01,1.000000000000000048e-04,4.025878301146627081e+01,2.000000000000000111e-01
-1.373177644258209318e+00,5.877039942388915250e-01,3.364608425806601133e-01,1.000000000000000048e-04,4.098972545859628980e+01,2.200000000000000011e-01
-8.292692749348118397e-02,1.819942705267358907e-01,1.546053780020464341e-01,1.000000000000000048e-04,3.974126856958356768e+01,2.800000000000000266e-01
2.029601613216090783e+00,8.505986601815624937e-01,1.087403071323467252e+00,1.000000000000000048e-04,4.443249540924015406e+01,2.399999999999999911e-01
-2.592417776739177171e+00,-1.098860657054138823e+00,7.257613210134028492e-01,1.000000000000000048e-04,4.329345582005836945e+01,2.300000000000000100e-01
-1.573425472432068428e+00,-2.439056252905307254e-01,5.664849607458832814e-01,1.000000000000000048e-04,4.249677493399330785e+01,2.200000000000000011e-01
-1.665968653058471638e+00,-1.300539871281754190e+00,6.795559162727087266e-01,1.000000000000000048e-04,4.344037550027935879e+01,2.200000000000000011e-01
4.898161398251721366e-02,-7.670465427473072140e-01,1.993387463311173669e-01,1.000000000000000048e-04,3.976978365886765943e+01,2.399999999999999911e-01
1.128800921400141988e+00,-3.005672130962178112e-01,1.206842014655856499e+00,1.000000000000000048e-04,4.462895588675879566e+01,3.099999999999999978e-01
-9.701701558349986598e-01,-4.350585385388006099e-01,1.897980084351338359e-01,1.000000000000000048e-04,3.999330411461555457e+01,2.600000000000000089e-01
3.112965251434878233e-01,-1.025977673695788184e-01,3.804302405860520153e-01,1.000000000000000048e-04,4.185498124659442709e+01,3.099999999999999978e-01
1.014764464794379428e+00,-8.410034885753826517e-01,4.929522662565450908e-01,1.000000000000000048e-04,4.255916936171671949e+01,3.800000000000000044e-01
-5.253310938341160252e-02,3.205670733590293420e-01,2.436694527617280226e-01,1.000000000000000048e-04,4.029299176988124742e+01,2.500000000000000000e-01
-2.370661981229627013e+00,-1.489833073970245891e-01,1.466312516884731298e-01,1.000000000000000048e-04,3.918606317640963965e+01,2.300000000000000100e-01
-1.443668144566781164e+00,8.783018792460741686e-01,7.208787521517834307e-01,1.000000000000000048e-04,4.363477937823282815e+01,2.800000000000000266e-01
1.216699940167198513e-01,-1.173803010637631594e+00,1.448014228836587147e-01,1.000000000000000048e-04,3.986263010117784944e+01,3.699999999999999956e-01
1.730100177578736798e+00,1.754406627605304969e-01,1.281491357452070101e+00,1.000000000000000048e-04,4.506272704028583576e+01,2.200000000000000011e-01
-3.075234109858446363e+00,2.665764529196557042e-02,1.748472098376405715e-01,1.000000000000000048e-04,3.952810024979548587e+01,2.600000000000000089e-01
-2.056690101086391387e-01,9.487570292168920894e-01,3.749270899337642238e-01,1.000000000000000048e-04,4.201585152612970120e+01,2.500000000000000000e-01
-5.593398312723394383e-01,7.007204129326560782e-02,6.883834664534180803e-01,1.000000000000000048e-04,4.311037293286752003e+01,2.700000000000000178e-01
-5.356625215610129054e-01,-6.380228852581603105e-01,1.872988547112761637e-01,1.000000000000000048e-04,3.940637241401837088e+01,2.300000000000000100e-01
1.342229376931812546e+00,-5.798274186192157176e-01,1.304372697307494278e+00,1.000000000000000048e-04,4.515034872170792113e+01,2.300000000000000100e-01
2.038603177023089685e+00,-4.838662349369726723e-01,9.528904686125663215e-01,1.000000000000000048e-04,4.383193931459336312e+01,3.200000000000000067e-01
-2.043628449823037929e+00,5.840555785776331277e-01,3.908781437215718135e-01,1.000000000000000048e-04,4.139772766594040831e+01,2.899999999999999800e-01
2.683492075201203697e-01,6.526447924362122066e-02,4.557831929550002492e-01,1.000000000000000048e-04,4.250486570972942957e+01,2.600000000000000089e-01
2.842122951748574877e+00,-5.017755018614611373e-02,4.579558411523547701e-01,1.000000000000000048e-04,4.199331246555946962e+01,2.899999999999999800e-01
1.422548854220348602e+00,-2.307078424653250526e-01,5.418363692698797696e-01,1.000000000000000048e-04,4.255679512774517548e+01,2.700000000000000178e-01
-1.715636201455811749e+00,5.298262268506293005e-01,2.556090654837952503e-01,1.000000000000000048e-04,4.036188791710539192e+01,2.300000000000000100e-01
3.108766299819420986e+00,3.306547595578608334e-01,8.078683644028341604e-01,1.000000000000000048e-04,4.371132358842629628e+01,2.800000000000000266e-01
-2.641343480044839431e+00,1.064032942884823640e+00,3.185242406182193786e-01,1.000000000000000048e-04,4.092779847990164654e+01,2.300000000000000100e-01
4.955259312684305861e-01,1.003408753950438381e+00,4.873113454886430773e-01,1.000000000000000048e-04,4.229575580047623617e+01,2.200000000000000011e-01
-3.083090646646384325e+00,-1.594307090543440886e-01,2.554640268213614895e-01,1.000000000000000048e-04,4.058088943402589877e+01,2.200000000000000011e-01
1.016797036500470597e+00,7.087092742047551575e-02,4.733797935769263887e-01,1.000000000000000048e-04,4.221067919119872869e+01,2.099999999999999922e-01
-1.932458612195994130e+00,-7.174702509842546538e-01,4.355351272734695467e-01,1.000000000000000048e-04,4.204317478343696735e+01,2.200000000000000011e-01
3.080932138756314664e+00,3.976237285459185422e-01,1.243020177973550577e-01,1.000000000000000048e-04,3.856220132107540621e+01,2.899999999999999800e-01
-7.802852026014641673e-01,1.009470643938197743e+00,3.755352061741010772e-01,1.000000000000000048e-04,4.159129331752895098e+01,2.099999999999999922e-01
1.498361249151196617e+00,-1.352769400177964210e+00,5.422252138465619709e-01,1.000000000000000048e-04,4.249593047395185863e+01,2.300000000000000100e-01
1.672819245025025658e+00,-4.097742779081408049e-01,7.050142087853392692e-01,1.000000000000000048e-04,4.310820444990505962e+01,3.300000000000000155e-01
-2.339319969132400701e-01,1.022791276227771107e+00,1.375629858065632316e-01,1.000000000000000048e-04,3.836707945524421604e+01,2.899999999999999800e-01
2.624880092381083330e+00,8.237120215507909293e-01,2.983121184306172236e-01,1.000000000000000048e-04,4.092270912501937374e+01,3.300000000000000155e-01
-1.680387846716849376e+00,1.637638029319097299e-01,3.994534129629780939e-01,1.000000000000000048e-04,4.189548738162987007e+01,2.999999999999999889e-01
-6.719624381442379502e-01,1.051150359948946011e+00,2.130096827813061644e-01,1.000000000000000048e-04,3.953301202948762949e+01,2.600000000000000089e-01
-7.116583929646931317e-01,9.434114723461028973e-01,6.947961227454986233e-01,1.000000000000000048e-04,4.283335729101425926e+01,3.300000000000000155e-01
1.600047205229619074e+00,-6.249481024880310098e-01,5.842520424764976461e-01,1.000000000000000048e-04,4.242410294305388163e+01,2.500000000000000000e-01
-2.450728446396823301e+00,6.211427873761774521e-01,3.405734312077692838e-01,1.000000000000000048e-04,4.112020576164250230e+01,2.399999999999999911e-01
-2.899772209039527482e+00,-5.816719757131543211e-01,7.222772559613961363e-01,1.000000000000000048e-04,4.313897345983436082e+01,3.900000000000000133e-01
-1.659832650015115485e+00,-1.347155674456019359e+00,2.288737421513804549e-01,1.000000000000000048e-04,4.051701396966300450e+01,2.700000000000000178e-01
1.625974336183879210e+00,-1.194937566278628349e+00,1.531061107192928095e-01,1.000000000000000048e-04,3.938581002823776345e+01,2.200000000000000011e-01
-3.136691722866871590e+00,7.635256755947184004e-01,5.106123502212582821e-01,1.000000000000000048e-04,4.209903081671556180e+01,2.300000000000000100e-01
-5.066241878194310821e-01,3.138560821034275250e-02,5.780430974053296644e-01,1.000000000000000048e-04,4.268968064440405641e+01,2.500000000000000000e-01
-2.211634458921190927e+00,-4.028905034221228476e-01,7.514297427567979692e-01,1.000000000000000048e-04,4.372635708384083131e+01,2.099999999999999922e-01
-2.089774160080396292e+00,5.292889153953366232e-01,1.067552604864614452e+00,1.000000000000000048e-04,4.416146068180491113e+01,2.099999999999999922e-01
1.788884429199680604e+00,-6.205761180700108959e-02,2.765666335899634731e-01,1.000000000000000048e-04,4.054731344015446126e+01,2.999999999999999889e-01
-4.737730608420038791e-01,-3.450857856482711927e-01,3.111980361311221799e-01,1.000000000000000048e-04,4.115112207291121393e+01,2.200000000000000011e-01
-9.787000993439853858e-02,-7.061644625026898270e-01,4.692923592673077238e-01,1.000000000000000048e-04,4.186871877837470635e+01,2.099999999999999922e-01
3.719640999450808394e-01,2.064968229704808866e-01,3.292077169954554794e-01,1.000000000000000048e-04,4.114542319241052581e+01,2.300000000000000100e-01
1.996912257201688412e+00,1.246834870415520324e+00,8.182855006303282330e-01,1.000000000000000048e-04,4.340807895647688497e+01,3.200000000000000067e-01
1.810646391767835262e+00,-6.934415349012669205e-01,3.373398630791253350e-01,1.000000000000000048e-04,4.141433564051725114e+01,2.600000000000000089e-01
-4.982860745699144722e-01,2.625679929305830829e-01,1.570301183375566456e-01,1.000000000000000048e-04,3.922115285358435699e+01,2.000000000000000111e-01
2.635689494628076446e+00,5.632684649665891108e-01,1.029293574120646593e+00,1.000000000000000048e-04,4.408820187703813076e+01,1.799999999999999933e-01
1.950691651334595988e+00,3.664630012624188193e-01,2.863624984164854226e-01,1.000000000000000048e-04,4.050336433018446058e+01,2.999999999999999889e-01
2.956360017791388906e+00,4.493915356453030974e-01,3.173217854615513200e-01,1.000000000000000048e-04,4.118122584243519668e+01,2.399999999999999911e-01
1.799523314913806793e-01,-3.430343827924597910e-02,3.078223725183353299e-01,1.000000000000000048e-04,4.106482938526661997e+01,2.300000000000000100e-01
-1.715262187348177703e+00,7.751968788924048503e-01,4.032339733431016260e-01,1.000000000000000048e-04,4.147394697420876497e+01,2.200000000000000011e-01
-1.881589277663322957e+00,-1.206157143362951878e+00,1.304274202021229456e-01,1.000000000000000048e-04,3.882033703022867144e+01,2.300000000000000100e-01
-5.609221614779977827e-01,-4.476491566476774597e-01,3.361990145274031949e-01,1.000000000000000048e-04,4.158775823319455611e+01,2.300000000000000100e-01
-1.785908537297545839e+00,6.469113151993886035e-01,3.627052855251500230e-01,1.000000000000000048e-04,4.151169887614321397e+01,2.600000000000000089e-01
2.327174455356716187e+00,-2.200917829305155671e-01,2.298003044812859663e-01,1.000000000000000048e-04,4.039409876184167558e+01,2.099999999999999922e-01
8.859031014971838758e-01,-1.907716926822839998e-01,8.152205821703844002e-01,1.000000000000000048e-04,4.397998595103883446e+01,2.899999999999999800e-01
-1.405375147729366336e+00,-8.387041069414923333e-01,2.727586683774534393e-01,1.000000000000000048e-04,4.067756281808023999e+01,2.000000000000000111e-01
-2.469533012901512947e+00,-4.892810599258892168e-01,4.308972519285669822e-01,1.000000000000000048e-04,4.214349573813222349e+01,2.500000000000000000e-01
5.423004022435513605e-01,9.722071235814384593e-01,3.260397986943068815e-01,1.000000000000000048e-04,4.087091928284331743e+01,2.099999999999999922e-01
-2.990631081460207508e+00,-2.910722167835342322e-01,1.620330643497223111e-01,1.000000000000000048e-04,3.949694720801556969e+01,2.300000000000000100e-01
-2.457583216660930603e+00,1.163866027464541375e+00,3.893691010284519027e-01,1.000000000000000048e-04,4.158466624874721163e+01,2.200000000000000011e-01
1.679258285035135856e+00,4.366749276306105543e-01,7.146447361172898471e-01,1.000000000000000048e-04,4.322115403591183025e+01,2.399999999999999911e-01
-2.003620509184943721e+00,-7.546235493336261868e-01,1.218982446308210399e+00,1.000000000000000048e-04,4.419726919260501319e+01,2.500000000000000000e-01
1.581178296726641008e+00,-1.488765007640734828e+00,1.188822321485742961e-01,1.000000000000000048e-04,3.895615881271335468e+01,2.200000000000000011e-01
-9.325885799096012008e-01,3.667930178047296152e-02,3.476006466281766905e-01,1.000000000000000048e-04,4.225952195301812253e+01,3.300000000000000155e-01
1.206282584909414979e+00,-6.859631109925676817e-01,1.681140168650545608e-01,1.000000000000000048e-04,3.966524123589010031e+01,2.000000000000000111e-01
8.711313572659209470e-01,6.944316540784245539e-01,6.548450051247149961e-01,1.000000000000000048e-04,4.326770183795129299e+01,2.600000000000000089e-01
3.063667180317426464e+00,-4.387430172791024763e-01,1.088777529584363801e+00,1.000000000000000048e-04,4.398500208558474611e+01,2.399999999999999911e-01
1.865203580197192679e+00,-6.839636771139204763e-01,4.243361475500619928e-01,1.000000000000000048e-04,4.232650146153596893e+01,2.399999999999999911e-01
-2.756079184251624348e+00,-6.885109406550392608e-01,1.821813291019247494e-01,1.000000000000000048e-04,3.976045862698161670e+01,2.600000000000000089e-01
-3.466357560947130878e-01,9.119343041219161172e-01,9.762652530858835220e-01,1.000000000000000048e-04,4.396136886096347496e+01,2.399999999999999911e-01
-9.764518645499671301e-01,4.098463460563506189e-01,9.805426987135317241e-01,1.000000000000000048e-04,4.371967720363572596e+01,2.000000000000000111e-01
2.910893004090890912e+00,7.563902324173885638e-01,4.391005361900446324e-01,1.000000000000000048e-04,4.212243680802627210e+01,3.699999999999999956e-01
-3.028383536311662461e+00,6.855526384309018617e-01,2.043845601716933746e-01,1.000000000000000048e-04,3.992316062257315679e+01,3.099999999999999978e-01
6.583252726680077771e-02,8.476539073904119093e-01,4.176746557088060197e-01,1.000000000000000048e-04,4.159684783517326423e+01,2.399999999999999911e-01
2.468354037821756108e-01,9.651502473170538998e-01,8.959165396812827087e-01,1.000000000000000048e-04,4.377983179301575234e+01,2.099999999999999922e-01
-9.530624091918573626e-01,-2.242266043204255155e-02,6.666964233245207261e-01,1.000000000000000048e-04,4.323052368383343946e+01,2.800000000000000266e-01
2.447444701191290761e+00,6.295197150210025683e-01,2.433527833913418092e-01,1.000000000000000048e-04,4.055377304613973166e+01,2.800000000000000266e-01
-2.362985211426873455e+00,9.729867685516144782e-01,4.631838994128778531e-01,1.000000000000000048e-04,4.242700887683361799e+01,2.099999999999999922e-01
-3.155803477036616123e-01,8.038472746954532511e-01,3.102646717706358803e-01,1.000000000000000048e-04,4.109248271461216007e+01,2.300000000000000100e-01
6.785298530642611681e-01,1.213973605032535374e+00,4.193611623826210000e-01,1.000000000000000048e-04,4.159632247322078058e+01,2.000000000000000111e-01
-1.371000101791907122e+00,1.382029687242815719e+00,5.879217576744950602e-01,1.000000000000000048e-04,4.239686565882384173e+01,1.000000000000000056e-01
-2.014723970770690542e+00,1.055373454329020078e+00,5.540087051952267139e-01,1.000000000000000048e-04,4.250901043113758959e+01,1.199999999999999956e-01
-6.639835303589380899e-02,-4.569781948013122985e-01,7.586936366631735762e-01,1.000000000000000048e-04,4.352678158022185784e+01,8.999999999999999667e-02
1.141918775153807353e+00,-4.880475937247819029e-01,4.143663804495407721e-01,1.000000000000000048e-04,4.218286183635040487e+01,1.400000000000000133e-01
1.114675929699497026e+00,6.682815370151962142e-01,3.035504355037843549e-01,1.000000000000000048e-04,4.076734129497966563e+01,2.000000000000000111e-01
-2.654011485427679506e+00,-7.787971720735521464e-01,1.156002462269289932e-01,1.000000000000000048e-04,3.862175049860570653e+01,1.900000000000000022e-01
-1.146595220734763609e+00,-3.984978957243270337e-01,6.088710215340260579e-01,1.000000000000000048e-04,4.266650229113956527e+01,1.700000000000000122e-01
-1.788746067243847548e+00,2.152106587004247729e-01,6.307954168923046723e-01,1.000000000000000048e-04,4.309366667183059008e+01,3.499999999999999778e-01
2.181275962908713062e-01,-6.728723291673555096e-02,4.685922304175786923e-01,1.000000000000000048e-04,4.183032659670877962e+01,1.700000000000000122e-01
2.911314429727894115e+00,3.945584867540798957e-01,3.598305652208799721e-01,1.000000000000000048e-04,4.162432660529972139e+01,1.900000000000000022e-01
2.300787435566440386e+00,4.693574582895232439e-01,3.508367064980377759e-01,1.000000000000000048e-04,4.118641062992507784e+01,1.900000000000000022e-01
