-2.024793577446710735e+00,2.170461581144342844e-01,6.025301060982326540e-01,1.000000000000000048e-04,4.263179321233774743e+01,1.700000000000000122e-01
2.077082457950955252e+00,5.010332903411680583e-01,1.201238107655521414e+00,1.000000000000000048e-04,4.469353612973931433e+01,1.600000000000000033e-01
-2.182000631204223495e+00,-3.888362793348654201e-02,2.599321062963966256e-01,1.000000000000000048e-04,4.058601127986089097e+01,1.600000000000000033e-01
-2.749696630978803125e+00,-3.302810823184971767e-01,1.544522934171614903e-01,1.000000000000000048e-04,3.911205328746467558e+01,1.600000000000000033e-01
-6.633619080540325008e-01,-7.181737887599959347e-01,7.756204578973455721e-01,1.000000000000000048e-04,4.325535311128735572e+01,1.900000000000000022e-01
-6.982096470911751673e-01,4.093542919312618267e-01,3.317077386702418362e-01,1.000000000000000048e-04,4.096095142066241124e+01,1.600000000000000033e-01
-1.959691367297376807e+00,1.221227766823076877e+00,4.418935681106881397e-01,1.000000000000000048e-04,4.203175041636247045e+01,1.700000000000000122e-01
2.338266350295102214e+00,5.895241374055215644e-02,6.803200080666056415e-01,1.000000000000000048e-04,4.290866610469133491e+01,1.600000000000000033e-01
-1.107893307402854077e+00,1.264221113165471255e+00,5.952839345330194210e-01,1.000000000000000048e-04,4.253972741005619440e+01,1.600000000000000033e-01
1.052157534071572975e+00,-1.076715219619234887e+00,2.153596351106361606e-01,1.000000000000000048e-04,4.038742392772380185e+01,2.200000000000000011e-01
5.025973815730759853e-01,5.417947371016125224e-01,4.177145938088102639e-01,1.000000000000000048e-04,4.179568635623846262e+01,8.999999999999999667e-02
6.790627404317959304e-01,1.028490594731159558e+00,1.338905008161666021e-01,1.000000000000000048e-04,3.916858471543147857e+01,8.000000000000000167e-02
1.383324168914541907e+00,2.224743799937232147e-01,6.461858734502237134e-01,1.000000000000000048e-04,4.311984386228962762e+01,1.100000000000000006e-01
-2.609836831464825924e+00,-7.445300070922054037e-01,2.992660465388916613e-01,1.000000000000000048e-04,4.137981012941380499e+01,1.600000000000000033e-01
2.887790451230832112e+00,4.585880564087574385e-02,1.807246396293282764e-01,1.000000000000000048e-04,3.973167419148551716e+01,1.300000000000000044e-01
2.730169629490504235e+00,8.923982257222906611e-02,5.812227522669031199e-01,1.000000000000000048e-04,4.270597380582354674e+01,8.999999999999999667e-02
-1.778541734584562661e+00,-1.628771732836886699e-02,3.116856576139730439e-01,1.000000000000000048e-04,4.073701462764002201e+01,2.099999999999999922e-01
4.030394981632197116e-01,3.150986925512664349e-01,4.021022548913903982e-01,1.000000000000000048e-04,4.170815650604024682e+01,1.799999999999999933e-01
-1.041895274424280871e+00,-3.389712915897395984e-01,7.560511198662718257e-01,1.000000000000000048e-04,4.363969184195693884e+01,1.600000000000000033e-01
1.248239089709756833e+00,-5.292824379572491633e-01,3.410682845764745341e-01,1.000000000000000048e-04,4.137551397323474589e+01,1.799999999999999933e-01
2.422108451994237299e+00,5.646818520504277572e-01,8.607125248860498790e-01,1.000000000000000048e-04,4.350257223688360853e+01,1.600000000000000033e-01
-2.392584554617197767e+00,-1.972050566707979069e-01,6.319998444128218651e-01,1.000000000000000048e-04,4.271970446930782117e+01,2.000000000000000111e-01
8.304120114875352954e-01,8.989352581521803387e-01,1.278569459450083379e+00,1.000000000000000048e-04,4.469724250365203488e+01,1.700000000000000122e-01
2.648805741418817306e+00,-7.247932431996076952e-01,2.410108950462412913e-01,1.000000000000000048e-04,4.059921441291368183e+01,1.700000000000000122e-01
-2.440830401847813746e+00,8.790945181062093106e-02,2.610073532175871680e-01,1.000000000000000048e-04,4.074294115415863615e+01,1.700000000000000122e-01
-7.056696188357345356e-01,1.497372043882534420e-01,5.190679689716473089e-01,1.000000000000000048e-04,4.249618983560448982e+01,2.000000000000000111e-01
3.601537146073221507e-01,-1.110381086068497947e+00,3.214475392098161688e-01,1.000000000000000048e-04,4.125476607924087347e+01,1.900000000000000022e-01
1.167812264648911302e+00,-1.144485822492240512e-01,7.067980865104390720e-01,1.000000000000000048e-04,4.339138864789867966e+01,1.700000000000000122e-01
-1.758929777592816102e+00,7.517752418582319685e-01,1.603376333722863478e-01,1.000000000000000048e-04,3.940360564979311420e+01,1.000000000000000056e-01
-2.674505804628114713e+00,9.734650296312152840e-01,3.355516398604077022e-01,1.000000000000000048e-04,4.127912702216947594e+01,1.000000000000000056e-01
1.317213801445821453e+00,-8.988155206405215036e-01,1.123141962826035289e-01,1.000000000000000048e-04,3.896684662295751167e+01,1.100000000000000006e-01
-2.048792495011251269e+00,-1.233711279132458927e-01,5.903428600581277497e-01,1.000000000000000048e-04,4.268981295175614576e+01,1.199999999999999956e-01
-1.964336581512380553e+00,-2.368283599143106155e-01,3.716284825458342489e-01,1.000000000000000048e-04,4.145156742668110894e+01,1.300000000000000044e-01
2.447316642256812891e+00,1.098557203168048169e+00,2.560386039832067695e-01,1.000000000000000048e-04,4.077258558306755987e+01,1.199999999999999956e-01
-7.733943927835973398e-01,1.298510171345608644e+00,6.317474884865617035e-01,1.000000000000000048e-04,4.253922239921268300e+01,1.499999999999999944e-01
2.315075089698544808e+00,-6.780392673809484405e-01,2.159697470162871280e-01,1.000000000000000048e-04,4.003111649388242910e+01,2.200000000000000011e-01
1.157399421623471980e+00,4.886434594969935041e-02,1.887233470370921484e-01,1.000000000000000048e-04,3.999048362443148363e+01,1.199999999999999956e-01
2.418529434108262599e+00,-6.052574095249293462e-01,7.397409213671166661e-01,1.000000000000000048e-04,4.334237290703908485e+01,1.600000000000000033e-01
5.378247076885309674e-01,-5.453488733640108332e-01,5.065318856031375550e-01,1.000000000000000048e-04,4.213944117616790663e+01,2.200000000000000011e-01
6.845204644198270572e-01,-8.873523741056394964e-01,7.588552372095940246e-01,1.000000000000000048e-04,4.339906245399316731e+01,2.200000000000000011e-01
-2.137415910115522344e+00,-9.876333660341867215e-01,5.072033108265694423e-01,1.000000000000000048e-04,4.222823500523281126e+01,1.300000000000000044e-01
1.867658472742452780e-01,3.584733884492008471e-02,4.307374135408528204e-01,1.000000000000000048e-04,4.192825792661206208e+01,1.600000000000000033e-01
2.423954445348978304e+00,-7.535421355118621101e-02,3.102096897934092379e-01,1.000000000000000048e-04,4.088628439485642474e+01,2.099999999999999922e-01
7.191268703218622882e-01,-5.062544576967269450e-01,7.284109682918542550e-01,1.000000000000000048e-04,4.327575218016428948e+01,2.000000000000000111e-01
2.193366608722022271e+00,-4.454425688626035829e-01,2.760313616556768768e-01,1.000000000000000048e-04,4.092986367024276007e+01,2.000000000000000111e-01
1.142001278191664859e+00,-1.299636821457735625e+00,1.262513248406162969e-01,1.000000000000000048e-04,3.855099009993985248e+01,2.500000000000000000e-01
2.317951507505801700e+00,3.831760749362442819e-01,4.246649785485154815e-01,1.000000000000000048e-04,4.204241394993045589e+01,2.200000000000000011e-01
1.687898466812280063e+00,-8.105794231519590776e-01,4.368015468717021399e-01,1.000000000000000048e-04,4.174276616866936962e+01,1.199999999999999956e-01
-2.417583962291752986e+00,9.180409356751670913e-01,1.399988505145326467e-01,1.000000000000000048e-04,3.911366636977631828e+01,1.400000000000000133e-01
2.293109245502356508e+00,5.970679227836788172e-01,3.319099996265013619e-01,1.000000000000000048e-04,4.136434668821348737e+01,1.400000000000000133e-01
2.680966966581630473e-01,-1.228683118617319714e-01,2.902336128367271062e-01,1.000000000000000048e-04,4.111591925218284871e+01,1.100000000000000006e-01
-1.916441905541330648e+00,-1.212787307330168929e+00,3.756564653893368355e-01,1.000000000000000048e-04,4.137877610600913414e+01,1.199999999999999956e-01
-1.177472769017288146e+00,-3.827218808191288346e-01,2.695566429565987576e-01,1.000000000000000048e-04,4.065479048895481640e+01,2.000000000000000111e-01
-1.117762929089528789e+00,-1.163611296510899340e+00,3.095926051554600544e-01,1.000000000000000048e-04,4.104190379769278252e+01,1.199999999999999956e-01
6.284262440172585507e-01,-4.480947553877336897e-01,3.602762507596963815e-01,1.000000000000000048e-04,4.153997836786766129e+01,1.499999999999999944e-01
8.152482806178791286e-01,-9.444157540223553360e-01,7.154420571929043238e-01,1.000000000000000048e-04,4.290808042741957706e+01,1.499999999999999944e-01
1.062271792524516201e+00,8.800978132201029425e-01,3.753952525522321615e-01,1.000000000000000048e-04,4.158097169707416185e+01,1.100000000000000006e-01
-3.092985363696798995e+00,-8.270703533536616359e-01,1.182294518622533097e-01,1.000000000000000048e-04,3.870309154142252339e+01,1.199999999999999956e-01
2.837345030184892813e+00,-3.978159208695797311e-02,1.745451035072205226e-01,1.000000000000000048e-04,3.985818035662443748e+01,1.300000000000000044e-01
-1.430435883407810138e-02,1.396333439357713146e+00,6.767514527028344329e-01,1.000000000000000048e-04,4.303160596652615055e+01,1.300000000000000044e-01
-6.501361576165698430e-01,-8.802208275175240626e-01,1.487261450376899941e-01,1.000000000000000048e-04,3.929780855743882029e+01,1.100000000000000006e-01
-2.920012916400573033e+00,5.238176576927529027e-01,4.068788458705423494e-01,1.000000000000000048e-04,4.175088203566260603e+01,1.600000000000000033e-01
-1.323152651327347495e+00,8.542058294890413350e-01,8.080684691541966114e-01,1.000000000000000048e-04,4.346770679776837909e+01,1.199999999999999956e-01
-4.519123726891112192e-01,-9.036332852427374496e-01,2.232897661228292474e-01,1.000000000000000048e-04,4.041532591686785025e+01,1.300000000000000044e-01
1.363799978643334576e+00,-2.918597982392288070e-01,3.782267073753764475e-01,1.000000000000000048e-04,4.160451588048229610e+01,1.199999999999999956e-01
-2.384920648131700460e+00,-2.404869697966938169e-02,9.130023292779172461e-01,1.000000000000000048e-04,4.417679258828711397e+01,1.700000000000000122e-01
2.142822113507902415e+00,-1.092002600192424566e+00,3.809926779645205208e-01,1.000000000000000048e-04,4.174796894605373865e+01,1.100000000000000006e-01
1.127475011964071960e+00,1.277947453783664589e+00,2.499708372601234796e-01,1.000000000000000048e-04,4.051242402090688444e+01,1.100000000000000006e-01
3.105745391965672120e+00,-1.056122717832514546e+00,1.313401815608428613e+00,1.000000000000000048e-04,4.491371803331139034e+01,1.199999999999999956e-01
2.416570507743916352e+00,5.876367778803310848e-01,3.653781460764313760e-01,1.000000000000000048e-04,4.143639595801376885e+01,1.499999999999999944e-01
-1.367520414464571177e+00,1.152205822087792875e-02,1.953878887021434085e-01,1.000000000000000048e-04,3.985671940299945248e+01,1.199999999999999956e-01
2.793840843666319351e+00,1.028407622984453873e+00,3.717309533129735666e-01,1.000000000000000048e-04,4.130813728719684264e+01,1.400000000000000133e-01
1.439128662658764490e+00,6.385519882858314844e-01,1.446670814439181552e-01,1.000000000000000048e-04,3.934337654141609164e+01,1.199999999999999956e-01
2.850158240187613323e+00,6.087130233800444046e-01,2.412182993286191568e-01,1.000000000000000048e-04,4.031863720484030722e+01,1.100000000000000006e-01
-2.205287697177604755e+00,1.110240223804148219e+00,9.496999078471444200e-01,1.000000000000000048e-04,4.387062922581836943e+01,1.100000000000000006e-01
6.383105205466228504e-01,-8.667681091727549303e-01,2.961378151619067367e-01,1.000000000000000048e-04,4.089973328777308836e+01,1.300000000000000044e-01
-6.187125152564725283e-01,-1.590728444207047954e-01,6.941427217411633155e-01,1.000000000000000048e-04,4.333556957559044776e+01,1.400000000000000133e-01
3.047596343312843459e+00,2.010886166458871749e-01,5.899344180706762586e-01,1.000000000000000048e-04,4.276095843340591074e+01,1.199999999999999956e-01
4.511731063143535891e-01,1.325735524463854897e+00,1.912001284516582356e-01,1.000000000000000048e-04,3.993284180942084305e+01,1.100000000000000006e-01
2.330101230093384324e-01,-9.637647974538833262e-01,3.201007509748290403e-01,1.000000000000000048e-04,4.109381364973041428e+01,1.199999999999999956e-01
-2.475348655702268363e+00,1.149757214655466875e-02,8.221019641490521224e-01,1.000000000000000048e-04,4.376880920255526064e+01,1.199999999999999956e-01
-3.067696758683410518e+00,4.922117355950019757e-01,2.188475719848241852e-01,1.000000000000000048e-04,4.038676254971483814e+01,1.300000000000000044e-01
1.565660810748295440e+00,-6.510026785990487008e-01,1.298182015118696686e+00,1.000000000000000048e-04,4.483534128004779973e+01,1.199999999999999956e-01
1.749098372883939767e+00,1.244782029917445687e+00,2.234433316424169202e-01,1.000000000000000048e-04,4.043332128538968817e+01,1.100000000000000006e-01
1.416399534657656112e+00,-8.927476577590062190e-01,2.611162902994583757e-01,1.000000000000000048e-04,4.057177166488431652e+01,1.199999999999999956e-01
-2.755594570422646328e+00,1.056563485775348532e+00,3.534994316554231908e-01,1.000000000000000048e-04,4.144265264618692157e+01,1.700000000000000122e-01
1.641598008027309596e-01,9.000172614407246918e-01,7.822838698559135828e-01,1.000000000000000048e-04,4.331774719833860132e+01,1.400000000000000133e-01
1.034237355309050699e+00,-3.506565033662079056e-01,1.260904877103394828e+00,1.000000000000000048e-04,4.475368777132159437e+01,1.199999999999999956e-01
-1.735189839210012686e+00,8.242273298270181847e-01,3.105647556202193460e-01,1.000000000000000048e-04,4.118244150564969885e+01,1.600000000000000033e-01
1.542874735480864068e+00,4.439594018975387968e-01,8.690256449265634231e-01,1.000000000000000048e-04,4.391414761661170729e+01,1.700000000000000122e-01
-8.287484315858923978e-01,7.413997662558520219e-01,5.150013224280496349e-01,1.000000000000000048e-04,4.238493538610115507e+01,1.499999999999999944e-01
-2.785632185384643300e-01,-8.187379559744822899e-02,6.102805805137858641e-01,1.000000000000000048e-04,4.283455123261486364e+01,1.100000000000000006e-01
1.509781048315878671e+00,8.931066681309411948e-01,1.609089747484970800e-01,1.000000000000000048e-04,3.978419973833577927e+01,2.000000000000000111e-01
-1.173247640668963365e+00,-1.869548901192665813e-01,1.562592171210790415e-01,1.000000000000000048e-04,3.900858809325080756e+01,1.300000000000000044e-01
-2.937042236682680940e+00,6.451798106353567874e-01,4.728912126177320374e-01,1.000000000000000048e-04,4.213375396468104128e+01,1.499999999999999944e-01
2.728800707551441995e+00,-2.171587889108426150e-01,1.294344914669645963e+00,1.000000000000000048e-04,4.465510892316076763e+01,1.100000000000000006e-01
-1.855443355297399233e+00,-8.609567856635708116e-01,4.918829835393903060e-01,1.000000000000000048e-04,4.222571359252014389e+01,1.199999999999999956e-01
-8.520105082641014071e-01,-2.879800394736988789e-01,3.448660795143221325e-01,1.000000000000000048e-04,4.134968568014936352e+01,1.100000000000000006e-01
-1.285340434509956609e+00,8.318818479675607058e-01,1.344945632990977025e+00,1.000000000000000048e-04,4.498225338316765942e+01,1.100000000000000006e-01
2.541796338977184710e-01,-4.755583160697038902e-01,2.128281304935437657e-01,1.000000000000000048e-04,4.007108523638468256e+01,2.099999999999999922e-01
6.301903063622646961e-01,2.069134313543845582e-01,3.592384436028741579e-01,1.000000000000000048e-04,4.141223438410216318e+01,1.199999999999999956e-01
-8.612705726282738894e-01,-3.875534001174931742e-01,4.689350759309451888e-01,1.000000000000000048e-04,4.209880524757846132e+01,1.199999999999999956e-01
-1.860985373313708502e+00,5.211884664256176691e-01,1.577681844922920185e-01,1.000000000000000048e-04,3.920271665171316045e+01,1.199999999999999956e-01
1.647465669138242106e+00,3.508442332828942689e-01,2.923469639091442751e-01,1.000000000000000048e-04,4.113859714840195636e+01,1.700000000000000122e-01
-8.284786001643769104e-01,3.166616536092503598e-01,7.884323199869966992e-01,1.000000000000000048e-04,4.357211611547323571e+01,1.100000000000000006e-01
4.157412306116401446e-01,-1.375330617843100178e-01,6.637445431465822665e-01,1.000000000000000048e-04,4.304349213923914874e+01,2.099999999999999922e-01
-2.356793934498710996e+00,-7.459049574271462424e-01,2.763250100807079779e-01,1.000000000000000048e-04,4.078459963990598425e+01,1.300000000000000044e-01
1.589555604403995126e+00,5.008743575990126651e-01,1.579088552643206356e-01,1.000000000000000048e-04,3.954362665455963111e+01,1.199999999999999956e-01
3.780326244328549024e-01,3.959671771796993145e-01,2.916864520031730024e-01,1.000000000000000048e-04,4.094560964853266682e+01,1.300000000000000044e-01
-2.367554026089391250e+00,-1.456510612779948755e-01,7.319767241046502004e-01,1.000000000000000048e-04,4.346350566776777669e+01,1.799999999999999933e-01
-1.029591813925121002e+00,-1.056588203853896513e+00,3.527572484715784107e-01,1.000000000000000048e-04,4.130962706708483267e+01,1.199999999999999956e-01
-2.930328600832360575e+00,8.719301974275901479e-01,3.734769944880673709e-01,1.000000000000000048e-04,4.139055811018324249e+01,1.199999999999999956e-01
9.766798555850408903e-01,-8.471121620356811821e-01,1.022001583694915894e+00,1.000000000000000048e-04,4.398331108143942458e+01,1.900000000000000022e-01
-7.901640855762441795e-01,-3.521044066944583051e-01,5.943499694405223188e-01,1.000000000000000048e-04,4.284424534481098590e+01,1.300000000000000044e-01
1.148148815562542779e+00,1.058328943214792428e+00,7.991278971560056288e-01,1.000000000000000048e-04,4.376350603575203735e+01,1.499999999999999944e-01
3.549002506365557252e-01,1.963879971962256832e-02,4.557427138106788789e-01,1.000000000000000048e-04,4.205568804131100791e+01,1.499999999999999944e-01
-2.560671268795753353e+00,-8.732812816644405229e-01,2.389170302121517153e-01,1.000000000000000048e-04,4.054881767363097111e+01,1.400000000000000133e-01
3.119087029582671811e+00,-1.065160691434521079e+00,2.611339418742701923e-01,1.000000000000000048e-04,4.029719530906163527e+01,1.400000000000000133e-01
-1.476732141660956898e-01,-4.113521546954519437e-01,6.918524881294059181e-01,1.000000000000000048e-04,4.324548091240027503e+01,1.199999999999999956e-01
-7.985383661876745975e-01,-5.724651719662944283e-01,1.932817218236080326e-01,1.000000000000000048e-04,3.998909991831238386e+01,1.199999999999999956e-01
-1.818050039446497568e+00,-7.994248127097063339e-01,3.254869309587113957e-01,1.000000000000000048e-04,4.105034453319451160e+01,1.100000000000000006e-01
-2.821744113870936932e+00,6.096659327612590218e-01,3.171247508276573424e-01,1.000000000000000048e-04,4.095012975796419852e+01,1.100000000000000006e-01
1.658129269091643820e+00,-9.577320737741011891e-01,4.313463935598531585e-01,1.000000000000000048e-04,4.198343400464570152e+01,1.400000000000000133e-01
2.037058465342221680e+00,5.502885178043337433e-01,2.966079708383131397e-01,1.000000000000000048e-04,4.081817408814341519e+01,1.499999999999999944e-01
1.271882484737091978e+00,-6.063440420746539772e-01,5.613323534981697893e-01,1.000000000000000048e-04,4.252062020871465364e+01,1.199999999999999956e-01
2.301297738789060965e+00,-6.440145283116106567e-01,3.747440813190991982e-01,1.000000000000000048e-04,4.169255824835225610e+01,2.099999999999999922e-01
3.069362688614753587e+00,3.722181586692248079e-01,4.674558999438354068e-01,1.000000000000000048e-04,4.195012329663985895e+01,1.300000000000000044e-01
8.344326023501711376e-01,7.531620690644973415e-01,1.114879869790049494e+00,1.000000000000000048e-04,4.438487343273647667e+01,1.400000000000000133e-01
-3.435449373923060712e-01,6.460558594752203732e-01,5.520634375156343587e-01,1.000000000000000048e-04,4.266218979632762398e+01,1.199999999999999956e-01
-2.944722688222011442e+00,2.248189852295485736e-01,4.981918282660862118e-01,1.000000000000000048e-04,4.228831570382707383e+01,1.199999999999999956e-01
-2.754812054371446717e+00,1.237661930042531999e+00,4.716836921908360569e-01,1.000000000000000048e-04,4.210587371844168558e+01,1.100000000000000006e-01
1.677480938455513382e+00,-1.791159186408071147e-01,2.448908541204484202e-01,1.000000000000000048e-04,4.079712702710854444e+01,1.300000000000000044e-01
3.036777023898558525e+00,-2.767087637065108741e-01,1.408575129900635492e-01,1.000000000000000048e-04,3.909173717852563357e+01,1.199999999999999956e-01
-1.617681506273777048e+00,1.412752194878685419e+00,1.010691609765456800e+00,1.000000000000000048e-04,4.426745869854233462e+01,1.199999999999999956e-01
2.915172177415628063e+00,7.831971124706171850e-01,7.597257497654603675e-01,1.000000000000000048e-04,4.326994506563671194e+01,1.300000000000000044e-01
-2.385553611386690420e-01,1.059040323544889528e+00,4.586383761054817487e-01,1.000000000000000048e-04,4.198327828188159572e+01,1.300000000000000044e-01
8.140450973920003719e-01,1.287929830656615593e-01,5.539561625655506916e-01,1.000000000000000048e-04,4.248305126598222614e+01,1.199999999999999956e-01
2.183748580950823026e+00,-2.468619369867177671e-01,1.688602909170309196e-01,1.000000000000000048e-04,3.963769223237135009e+01,1.199999999999999956e-01
-2.318422121642330413e+00,-1.181406609824329212e+00,1.058891895471610667e+00,1.000000000000000048e-04,4.410374760226117985e+01,1.300000000000000044e-01
8.401446461531270060e-02,-1.431031748751948163e+00,3.493077524635499476e-01,1.000000000000000048e-04,4.114614115871563627e+01,1.199999999999999956e-01
1.943341646438963899e+00,-1.090530061647338789e+00,8.412521734103384219e-01,1.000000000000000048e-04,4.367035278683487576e+01,1.199999999999999956e-01
-6.093968291777587254e-01,-3.337978629457749591e-02,1.518859412449480306e-01,1.000000000000000048e-04,3.903989488807376773e+01,1.199999999999999956e-01
2.093384655138907924e+00,-8.089986446325192482e-02,8.326115275490455492e-01,1.000000000000000048e-04,4.338397348532672737e+01,1.499999999999999944e-01
-1.069346396913369635e+00,-3.541049656387429412e-01,1.035911436580757350e+00,1.000000000000000048e-04,4.414531391341826350e+01,1.199999999999999956e-01
2.425001408608754794e+00,4.387859527846682539e-01,4.404040097691335198e-01,1.000000000000000048e-04,4.197174496351432538e+01,2.000000000000000111e-01
2.368470327073192827e+00,5.339041829624142643e-01,8.872821158672625774e-01,1.000000000000000048e-04,4.373171575062050920e+01,2.000000000000000111e-01
1.221729139208163062e+00,1.971874043400738685e-01,3.770257470816158474e-01,1.000000000000000048e-04,4.165106709959820108e+01,1.400000000000000133e-01
-1.601275241672004634e+00,-4.399787546827504947e-01,4.998191133914691164e-01,1.000000000000000048e-04,4.206477584238674439e+01,1.199999999999999956e-01
-2.251746450790510501e-01,2.019805070219016230e-02,1.563324047832190811e-01,1.000000000000000048e-04,3.922836664953956642e+01,1.300000000000000044e-01
-2.632963380797673558e+00,6.991932866342365216e-01,1.524891980203342268e-01,1.000000000000000048e-04,3.911035801581589055e+01,1.799999999999999933e-01
2.165043220435878268e+00,2.544181112593557614e-02,2.341917517761533674e-01,1.000000000000000048e-04,4.029056113379095194e+01,1.499999999999999944e-01
7.728784669726782575e-01,9.029893027569171338e-01,6.189291214852923328e-01,1.000000000000000048e-04,4.282702638958890873e+01,1.100000000000000006e-01
1.419062627246162833e+00,5.090922025775443949e-01,7.338220837550373243e-01,1.000000000000000048e-04,4.329776025825812269e+01,1.199999999999999956e-01
5.325210226203189734e-01,7.872622656315142464e-01,1.032400587333269115e+00,1.000000000000000048e-04,4.408759789111255145e+01,1.499999999999999944e-01
-2.587115210580655855e+00,1.420577843465222756e-01,6.735971667062703450e-01,1.000000000000000048e-04,4.317388876857506119e+01,1.900000000000000022e-01
-2.878318434795536174e+00,-1.589369786390550932e-01,1.232138970359435426e+00,1.000000000000000048e-04,4.447228324559063850e+01,1.799999999999999933e-01
2.937668926837306849e+00,-2.609044176592381081e-01,4.835507696128000799e-01,1.000000000000000048e-04,4.238368563213866480e+01,1.499999999999999944e-01
4.211390643475749762e-01,2.608781575960583687e-02,8.502917453166802808e-01,1.000000000000000048e-04,4.358581453719266108e+01,1.499999999999999944e-01
1.969414165942768413e+00,-1.210000566100802200e+00,3.034575937699723891e-01,1.000000000000000048e-04,4.143674184407562677e+01,3.599999999999999867e-01
2.783374924361931235e+00,1.247544581920549511e+00,1.780478859716148055e-01,1.000000000000000048e-04,3.958209294250685417e+01,3.900000000000000133e-01
-6.149744672187189565e-01,2.105015347078844634e-01,3.016627516226069172e-01,1.000000000000000048e-04,4.093393379355633499e+01,3.900000000000000133e-01
-1.027690276922049506e+00,7.608154812096792341e-01,4.978387949197844442e-01,1.000000000000000048e-04,4.158384650892370615e+01,3.099999999999999978e-01
-1.403000180430602484e-02,4.027982436716877057e-01,4.174244124310415582e-01,1.000000000000000048e-04,4.241194324082655953e+01,3.300000000000000155e-01
1.885512728252894732e+00,4.501857830541173833e-01,4.986028868931666747e-01,1.000000000000000048e-04,4.277947156584732369e+01,4.000000000000000222e-01
-2.801028444600760281e+00,7.673256193136257508e-01,1.911964928930154350e-01,1.000000000000000048e-04,3.996050004071666706e+01,3.200000000000000067e-01
1.663639282756225413e+00,-3.104459119210678519e-01,3.409582663752788179e-01,1.000000000000000048e-04,4.176957292751502848e+01,3.200000000000000067e-01
1.469484532922523456e+00,1.289436301388771522e+00,1.816753651142983816e-01,1.000000000000000048e-04,3.978043164429496414e+01,3.599999999999999867e-01
-2.723798842497839878e+00,-8.161022275245634061e-01,5.436917402365253338e-01,1.000000000000000048e-04,4.242547416433212248e+01,2.399999999999999911e-01
1.087930227257540849e+00,3.953256005549579122e-01,3.409964753264502768e-01,1.000000000000000048e-04,4.110491380063680111e+01,2.999999999999999889e-01
1.104444267465338747e+00,1.154918076601763932e+00,3.593155921705362132e-01,1.000000000000000048e-04,4.132500050380648560e+01,2.399999999999999911e-01
-2.959987343815564387e-01,3.782768216453944454e-01,2.458883693048874441e-01,1.000000000000000048e-04,4.038813829408521627e+01,2.899999999999999800e-01
-9.283410635325077820e-01,1.159246753085064530e+00,6.262471573175882877e-01,1.000000000000000048e-04,4.330393405539712148e+01,2.899999999999999800e-01
1.629379323986715811e+00,-8.487192814082968884e-01,2.378264970825523239e-01,1.000000000000000048e-04,4.020635544592271771e+01,2.899999999999999800e-01
-1.339086520522566826e+00,-2.610536149380489057e-01,1.257659784342124887e+00,1.000000000000000048e-04,4.429396837631608008e+01,3.699999999999999956e-01
-1.078989814511755796e+00,-2.094646488434077636e-01,4.584768742013498599e-01,1.000000000000000048e-04,4.199711458101649697e+01,2.300000000000000100e-01
2.154602871513411344e-01,-1.670785423183946961e-01,7.689761398361800726e-01,1.000000000000000048e-04,4.326252273793893721e+01,2.000000000000000111e-01
1.160737208525638664e+00,-1.004656354257170481e+00,2.048873553828298721e-01,1.000000000000000048e-04,4.054483416901107518e+01,3.800000000000000044e-01
2.281806619261241842e+00,6.301143641212272328e-01,4.195493621778236815e-01,1.000000000000000048e-04,4.177930605094657324e+01,2.300000000000000100e-01
-2.729999735417665274e+00,9.476347487946150672e-01,1.349686745296408752e+00,1.000000000000000048e-04,4.551380956484655371e+01,3.900000000000000133e-01
1.004548951079278218e+00,9.677735247749379432e-01,1.309163111113558209e-01,1.000000000000000048e-04,3.915914441041828553e+01,2.200000000000000011e-01
2.811745857476669386e+00,-7.462933233200064187e-02,2.506461599960869702e-01,1.000000000000000048e-04,4.066317589701846913e+01,2.399999999999999911e-01
2.138588657048389408e+00,-1.431076728453806846e+00,4.000882451711229582e-01,1.000000000000000048e-04,4.170147250316833265e+01,2.000000000000000111e-01
-1.701023069557636935e+00,-4.062533522623148485e-01,5.617460485006526838e-01,1.000000000000000048e-04,4.275252453556769439e+01,1.900000000000000022e-01
-1.031311404502259776e-01,-8.575041356861113906e-01,7.420046825523927136e-01,1.000000000000000048e-04,4.330025884601310082e+01,2.600000000000000089e-01
1.698291273744485963e+00,2.558318692097065750e-01,4.578124192964379002e-01,1.000000000000000048e-04,4.207818562458211886e+01,1.900000000000000022e-01
-2.489891938429477758e+00,-1.011099453068083687e+00,5.846769340791007075e-01,1.000000000000000048e-04,4.266569926772490362e+01,1.000000000000000056e-01
2.622179108732809460e+00,-2.178321165863656983e-01,4.571879897655910518e-01,1.000000000000000048e-04,4.207137445495083483e+01,1.400000000000000133e-01
2.824951790796073503e+00,1.331996805117656280e+00,7.905589037435252209e-01,1.000000000000000048e-04,4.343378675933539057e+01,1.900000000000000022e-01
1.856361693918620936e+00,9.081043429359825225e-01,7.249349978967076780e-01,1.000000000000000048e-04,4.321223573047382160e+01,1.499999999999999944e-01
2.052553367038905563e+00,3.559670540944326333e-01,3.043173616046033203e-01,1.000000000000000048e-04,4.126433456374592623e+01,1.900000000000000022e-01
-5.788446207578616942e-01,5.399109533077295353e-01,5.346107138939857339e-01,1.000000000000000048e-04,4.241180723986813206e+01,1.700000000000000122e-01
1.999814121250703458e+00,-7.258164367676042117e-01,9.307328530912062359e-01,1.000000000000000048e-04,4.407599271911038130e+01,1.100000000000000006e-01
-2.434752246425952116e+00,-1.187790997473712862e+00,2.459085207429552167e-01,1.000000000000000048e-04,4.047924703146486536e+01,2.000000000000000111e-01
-1.087868747594316510e+00,-3.642443086667368490e-02,1.966758996304431850e-01,1.000000000000000048e-04,3.978882225984013132e+01,1.700000000000000122e-01
2.111282871771912539e+00,4.793942519266991553e-01,3.050292072683309375e-01,1.000000000000000048e-04,4.083479454243868645e+01,1.100000000000000006e-01
2.207301910293846703e+00,-2.096907882240104382e-01,3.277558513443543653e-01,1.000000000000000048e-04,4.105735264892475556e+01,1.700000000000000122e-01
9.267745615876412657e-01,6.597639740488872029e-01,4.367893374068776424e-01,1.000000000000000048e-04,4.180746301748302329e+01,1.600000000000000033e-01
-5.691728150477963766e-01,-7.874132681551936352e-01,3.540890818745829893e-01,1.000000000000000048e-04,4.073080144347471787e+01,2.200000000000000011e-01
-2.548190934457771561e+00,-7.657899268312053920e-01,1.256222269211921816e-01,1.000000000000000048e-04,3.862466278949101195e+01,2.800000000000000266e-01
-7.535363732465087949e-01,-2.518012435158301088e-02,4.245945718437711403e-01,1.000000000000000048e-04,4.174074858631623641e+01,2.099999999999999922e-01
-9.990807998957929037e-01,2.811860404410639891e-01,5.177260362286149054e-01,1.000000000000000048e-04,4.276506807566183710e+01,2.899999999999999800e-01
-1.534830651678989799e+00,-7.836560703898149960e-01,1.012222481868783497e+00,1.000000000000000048e-04,4.394226795742247305e+01,1.400000000000000133e-01
2.938713463987738805e+00,-5.302502576768772791e-01,3.708273693510457658e-01,1.000000000000000048e-04,4.162667607492833355e+01,1.600000000000000033e-01
-1.273577260927071908e+00,2.273447893924553931e-01,5.889890365751038193e-01,1.000000000000000048e-04,4.237686766453277443e+01,2.099999999999999922e-01
2.090625502202607677e-01,-5.234239574503036785e-01,4.384582617469250376e-01,1.000000000000000048e-04,4.185936831270606007e+01,2.600000000000000089e-01
-2.196759244267937561e+00,3.513256560147608454e-01,4.229082913439672353e-01,1.000000000000000048e-04,4.175726948299899988e+01,1.400000000000000133e-01
-1.698112392530126913e+00,1.310065326191558466e-01,3.317572579858041326e-01,1.000000000000000048e-04,4.113158134278990019e+01,1.600000000000000033e-01
9.280830213707016441e-01,-7.357944137040139942e-01,3.805523392196328292e-01,1.000000000000000048e-04,4.170620231394102007e+01,2.000000000000000111e-01
-3.021753936201152069e+00,-8.199917409568967530e-01,3.977383796938014360e-01,1.000000000000000048e-04,4.165922994139501156e+01,2.099999999999999922e-01
1.721301862041058506e+00,4.590248578348874453e-01,1.195891650231319936e-01,1.000000000000000048e-04,3.873988603747799431e+01,1.700000000000000122e-01
-2.766449921851541038e+00,8.230788066275103176e-01,1.071318033744312448e+00,1.000000000000000048e-04,4.454889716846578551e+01,1.499999999999999944e-01
-1.799850804326143194e+00,4.516132499641796194e-01,4.653894097308357569e-01,1.000000000000000048e-04,4.201573940526449746e+01,1.700000000000000122e-01
-2.698755347932594972e+00,1.139007237667798211e+00,9.100596014168060854e-01,1.000000000000000048e-04,4.392999504705143465e+01,1.400000000000000133e-01
3.127726500182406610e+00,-9.579012858552419241e-01,5.986952604616575524e-01,1.000000000000000048e-04,4.240131070084730425e+01,1.499999999999999944e-01
2.537445179079496071e-01,-5.179950506206965066e-01,1.018945773311716430e+00,1.000000000000000048e-04,4.435977870642326337e+01,3.400000000000000244e-01
1.322947729998564803e+00,1.153037054362772373e+00,4.050489364227887190e-01,1.000000000000000048e-04,4.160432964781845300e+01,1.700000000000000122e-01
-9.377323178564198614e-01,-7.409845316960195216e-01,2.118068625957540974e-01,1.000000000000000048e-04,4.008863673999157129e+01,1.400000000000000133e-01
-2.670008980641305651e+00,5.047756447795985757e-01,5.879110086496639465e-01,1.000000000000000048e-04,4.297127214402053852e+01,1.799999999999999933e-01
-2.292469142478083199e+00,-2.203309545223852695e-03,9.955093318922123569e-01,1.000000000000000048e-04,4.421823218229198460e+01,1.900000000000000022e-01
7.812138022422283612e-01,-3.077732600015117281e-01,2.047033580418184950e-01,1.000000000000000048e-04,4.013196037656700099e+01,1.499999999999999944e-01
-1.634540216842325311e+00,8.716450912717683686e-01,4.363431848468934948e-01,1.000000000000000048e-04,4.176612519533915702e+01,1.700000000000000122e-01
-4.466391589520064542e-01,-7.319692382757587712e-01,8.465082596405653081e-01,1.000000000000000048e-04,4.382028303290230298e+01,1.600000000000000033e-01
8.810588067938365242e-01,-4.707101004168765535e-01,2.844813718737775332e-01,1.000000000000000048e-04,4.084858706960690711e+01,1.499999999999999944e-01
1.496028855663512402e+00,-3.666261783301316690e-02,4.182710131174238732e-01,1.000000000000000048e-04,4.185418236738421172e+01,1.700000000000000122e-01
-2.620485018493847740e+00,-9.445969568504720693e-01,2.179388134170796576e-01,1.000000000000000048e-04,4.023618642171540216e+01,1.600000000000000033e-01
-2.004738485496456057e+00,-1.380591434062601319e-01,4.930662949717870003e-01,1.000000000000000048e-04,4.263260255418877165e+01,2.899999999999999800e-01
2.441348991424545645e+00,2.348312526005975620e-01,5.064320306640432978e-01,1.000000000000000048e-04,4.242409416380017717e+01,1.400000000000000133e-01
-7.301682364480566179e-01,-6.479246302192781526e-01,6.504810837871057849e-01,1.000000000000000048e-04,4.290228091001331734e+01,1.499999999999999944e-01
-3.718234765261070329e-01,-5.104398620593619817e-01,6.763872470470873033e-01,1.000000000000000048e-04,4.328835547449737220e+01,1.900000000000000022e-01
-3.099772740210249733e+00,-5.094463933192983074e-01,6.674005277669186054e-01,1.000000000000000048e-04,4.300041336379633350e+01,2.500000000000000000e-01
6.607255947475652036e-01,2.733802736597763516e-01,1.984452123398152690e-01,1.000000000000000048e-04,3.985390740238309348e+01,1.499999999999999944e-01
2.121357206488261760e+00,5.272301661899430059e-01,1.175904828162679827e+00,1.000000000000000048e-04,4.442392894236468948e+01,2.099999999999999922e-01
-1.340050306374135802e+00,5.046922064066134972e-01,1.897503656755805679e-01,1.000000000000000048e-04,3.960374666577001079e+01,1.900000000000000022e-01
-2.406845717828045572e-01,6.214963459000566459e-01,7.813594464469280076e-01,1.000000000000000048e-04,4.359932806777187864e+01,2.099999999999999922e-01
-1.361961645802445275e-01,1.589173562265968620e-01,5.411100632958845136e-01,1.000000000000000048e-04,4.240420545316336387e+01,2.099999999999999922e-01
2.402095774891447100e+00,-1.663773196574891422e-01,3.376707026738112738e-01,1.000000000000000048e-04,4.094895935974481205e+01,1.499999999999999944e-01
-8.111021056592093714e-02,-4.050468829664770620e-01,3.529192845669404388e-01,1.000000000000000048e-04,4.125077757868663753e+01,1.400000000000000133e-01
-8.907172934760927419e-01,-4.210515633350604414e-01,2.240017704854238012e-01,1.000000000000000048e-04,4.023334574458326074e+01,3.800000000000000044e-01
8.377393941009367850e-01,-4.528587867576112647e-01,3.821981572383867931e-01,1.000000000000000048e-04,4.125904954109616796e+01,2.200000000000000011e-01
-1.431818772630166325e+00,-6.324568295462220657e-01,5.880547850624826545e-01,1.000000000000000048e-04,4.263071197525309941e+01,1.499999999999999944e-01
-1.389328669342356548e+00,7.689422945938675369e-01,1.276426854219348428e+00,1.000000000000000048e-04,4.487998747775607455e+01,1.700000000000000122e-01
-2.389735386029240960e+00,1.218282952721261303e-02,1.343216557459040228e+00,1.000000000000000048e-04,4.476291259472964867e+01,1.700000000000000122e-01
1.124247127151611458e+00,9.728809820797312824e-02,5.113573319274413720e-01,1.000000000000000048e-04,4.241254188001120440e+01,2.600000000000000089e-01
2.215935166693419944e+00,-1.753405178433851130e-01,3.729901460551929837e-01,1.000000000000000048e-04,4.140375256583424601e+01,2.800000000000000266e-01
5.640715047721793773e-01,2.800977405460107761e-01,3.261168918008505724e-01,1.000000000000000048e-04,4.128215686417706820e+01,1.799999999999999933e-01
-2.676929747190534670e+00,-1.519324863136974901e-01,7.762171995650390954e-01,1.000000000000000048e-04,4.353306859639687332e+01,1.499999999999999944e-01
-2.114179292963034307e-01,3.199290459045263102e-01,1.008074626662237794e+00,1.000000000000000048e-04,4.430990567467480901e+01,2.200000000000000011e-01
2.196242250829169684e+00,9.445932850598448560e-01,2.785019384564575429e-01,1.000000000000000048e-04,4.057744197025258615e+01,2.000000000000000111e-01
-5.409456879951322072e-01,4.421097264433897500e-01,4.768276119487373510e-01,1.000000000000000048e-04,4.200194833819153217e+01,1.600000000000000033e-01
2.430296601398178602e+00,5.104944101954571600e-01,3.083143357076343349e-01,1.000000000000000048e-04,4.084878670616395624e+01,1.600000000000000033e-01
-1.780467474304645581e+00,1.387672388032459736e+00,6.000013895038540657e-01,1.000000000000000048e-04,4.287312361693872731e+01,2.099999999999999922e-01
2.037748630136313466e+00,-9.033132040654279216e-02,3.444356394541665534e-01,1.000000000000000048e-04,4.143097042803344721e+01,2.899999999999999800e-01
-5.767947671044200142e-01,-5.736588871194319150e-01,2.309178175325428128e-01,1.000000000000000048e-04,4.043368271872389386e+01,1.400000000000000133e-01
3.065171789352049814e+00,-5.367207500123236663e-01,6.595268184941482925e-01,1.000000000000000048e-04,4.268796701008720618e+01,2.700000000000000178e-01
3.095669068408944291e+00,5.125554369807066024e-01,3.458607517017411315e-01,1.000000000000000048e-04,4.105663688276445100e+01,1.300000000000000044e-01
-6.233358222040124019e-01,-4.465551187913148201e-01,3.095426144302613203e-01,1.000000000000000048e-04,4.092207854513070231e+01,1.700000000000000122e-01
1.351051205253463117e+00,1.139474813638574613e+00,1.244051001520642519e+00,1.000000000000000048e-04,4.481734873654331608e+01,2.500000000000000000e-01
1.996376798484304160e+00,3.382500856635231035e-01,1.008004884161678216e+00,1.000000000000000048e-04,4.424163172422434087e+01,1.400000000000000133e-01
3.076735748096501410e+00,5.539066479225258632e-01,1.937824832526420238e-01,1.000000000000000048e-04,3.971680727590538140e+01,1.900000000000000022e-01
2.864910206507235380e+00,1.108648372488047595e+00,1.721389593385291850e-01,1.000000000000000048e-04,3.947850167701810165e+01,1.600000000000000033e-01
1.380044130879002573e+00,-4.020295701598992633e-01,5.109248264656205407e-01,1.000000000000000048e-04,4.232839977980427193e+01,1.600000000000000033e-01
-3.020640188057480913e+00,7.302783449265226601e-02,2.773093068313332576e-01,1.000000000000000048e-04,4.107524413798951457e+01,2.700000000000000178e-01
-3.124259550489287385e+00,4.228392408045844597e-02,3.796005639286974542e-01,1.000000000000000048e-04,4.151204517857306797e+01,1.499999999999999944e-01
-1.478529680571277760e+00,3.797469530415438221e-01,1.651198719671551629e-01,1.000000000000000048e-04,3.916479869657333523e+01,1.600000000000000033e-01
-1.708306264378818051e+00,1.436620528931427110e-01,2.466620159249193200e-01,1.000000000000000048e-04,4.049337302921657056e+01,1.700000000000000122e-01
4.110866859446637989e-02,7.227347056586630458e-01,9.994978823245430632e-01,1.000000000000000048e-04,4.382090772149265234e+01,2.800000000000000266e-01
-2.130971596510379484e+00,7.657496783751831515e-01,4.724917650479092401e-01,1.000000000000000048e-04,4.205513772573528541e+01,1.499999999999999944e-01
-2.797317317859382868e+00,-5.673919092947332654e-01,2.078861207253015486e-01,1.000000000000000048e-04,4.025444421803562278e+01,3.099999999999999978e-01
-3.135918133320727996e+00,4.459768587518522232e-01,1.232128760716155291e+00,1.000000000000000048e-04,4.443122467526757191e+01,2.200000000000000011e-01
1.054159675454512168e+00,4.472221482102933798e-01,4.937319451418427096e-01,1.000000000000000048e-04,4.260960651250272946e+01,2.700000000000000178e-01
-1.165750722326479583e+00,4.534450165737364813e-01,9.160908218211805121e-01,1.000000000000000048e-04,4.390251860232211101e+01,2.899999999999999800e-01
-9.448029471583421213e-01,-2.329409265847486310e-01,1.693498767940297967e-01,1.000000000000000048e-04,3.887821232620601108e+01,3.099999999999999978e-01
3.501070222725526371e-01,-7.016325539711132375e-01,1.499166025972158423e-01,1.000000000000000048e-04,3.919967693837460843e+01,2.300000000000000100e-01
5.693278552914615709e-01,5.896678260714383057e-02,5.697684467135777364e-01,1.000000000000000048e-04,4.259801900917425144e+01,2.200000000000000011e-01
-1.672819437896424288e+00,-5.207076366910818876e-01,4.153471549046250377e-01,1.000000000000000048e-04,4.166389624424073901e+01,2.300000000000000100e-01
-1.649376050486182077e+00,-1.104525651017245202e-01,6.836507407678049653e-01,1.000000000000000048e-04,4.316524955945074993e+01,2.200000000000000011e-01
1.265553473702066611e+00,6.701466296358633556e-01,1.828185557348671608e-01,1.000000000000000048e-04,3.971108541915064194e+01,2.099999999999999922e-01
-1.100513434837444127e+00,4.844738571873219435e-01,2.266625982947820805e-01,1.000000000000000048e-04,4.046853642269974216e+01,2.300000000000000100e-01
1.289367619446988300e-01,-1.033100148377865457e+00,5.810837790105025658e-01,1.000000000000000048e-04,4.336404218913627062e+01,2.399999999999999911e-01
1.808537163617988774e+00,-3.279826936632805889e-01,1.232099855907440755e+00,1.000000000000000048e-04,4.499271249615311774e+01,2.099999999999999922e-01
-2.655706812527078409e+00,-9.987837335421394513e-01,8.429838074926709890e-01,1.000000000000000048e-04,4.365446750883663185e+01,2.399999999999999911e-01
-1.434453721224926426e-02,3.470436323772949638e-01,1.011397073289565185e+00,1.000000000000000048e-04,4.422068733084089587e+01,2.399999999999999911e-01
2.926224224816190045e+00,-1.193962840200386788e+00,8.658026220957730779e-01,1.000000000000000048e-04,4.326970006174914118e+01,2.800000000000000266e-01
1.212352909544386570e+00,2.727609217388828888e-01,2.740585762927183477e-01,1.000000000000000048e-04,4.065143687058338884e+01,2.000000000000000111e-01
2.143935732989386445e+00,-5.377094531613058059e-01,5.481953743934466772e-01,1.000000000000000048e-04,4.271811108825395564e+01,2.200000000000000011e-01
1.819969359769273431e-01,1.027495376681182293e+00,4.323780126809020352e-01,1.000000000000000048e-04,4.164274627663016304e+01,2.800000000000000266e-01
-1.843783940338049376e+00,-4.088469795480722535e-01,4.777513450897272751e-01,1.000000000000000048e-04,4.151362873206436177e+01,2.399999999999999911e-01
-1.644028854448047028e+00,-8.996042441766227693e-01,2.125212390332729129e-01,1.000000000000000048e-04,3.989832916076104397e+01,2.300000000000000100e-01
-1.797148427646511060e+00,-9.800280952320461481e-01,4.517700961548651861e-01,1.000000000000000048e-04,4.213113484163574896e+01,2.200000000000000011e-01
-1.461705049172500770e+00,-7.827331067056203517e-01,1.235554376409080390e-01,1.000000000000000048e-04,3.849528756434759913e+01,2.200000000000000011e-01
-1.229558752610896200e+00,2.934646538681238148e-01,4.409041125098374092e-01,1.000000000000000048e-04,4.173576099061025246e+01,2.399999999999999911e-01
-5.400611875317085087e-01,3.259619150288648459e-01,9.285937051538353249e-01,1.000000000000000048e-04,4.422849476489640352e+01,3.099999999999999978e-01
-3.050528549294753589e+00,3.103202000124016813e-01,9.641922867763377258e-01,1.000000000000000048e-04,4.382300339824623592e+01,2.600000000000000089e-01
-2.546348413481347883e+00,-3.230493328192778346e-01,1.409478138290434224e-01,1.000000000000000048e-04,3.888521609032279969e+01,3.099999999999999978e-01
-7.442142532638573726e-01,-7.461612102708511385e-01,3.734704896226774817e-01,1.000000000000000048e-04,4.064780633955275135e+01,3.800000000000000044e-01
-3.092748273099511280e+00,-3.155985023477954066e-01,6.199465179581622465e-01,1.000000000000000048e-04,4.283139149019422121e+01,2.500000000000000000e-01
-4.488259499451414669e-01,-5.880317910822461247e-01,6.069262794559042717e-01,1.000000000000000048e-04,4.285510203204358248e+01,2.300000000000000100e-01
1.360723509637487894e+00,-1.444627282841604021e-02,9.301625252966532198e-01,1.000000000000000048e-04,4.435345367933257421e+01,2.800000000000000266e-01
1.398732849300635905e+00,-2.679800761060979752e-02,6.694241187037945906e-01,1.000000000000000048e-04,4.340735327051595505e+01,3.699999999999999956e-01
3.122074351700291572e+00,6.491609595610845496e-01,3.508549929797502021e-01,1.000000000000000048e-04,4.119561531097247098e+01,2.200000000000000011e-01
1.403795807819319563e+00,-4.102318887738081177e-01,1.093094979119544341e-01,1.000000000000000048e-04,3.858266004154139495e+01,2.600000000000000089e-01
1.822478110092540682e+00,1.069253817758019753e+00,4.412356938370058934e-01,1.000000000000000048e-04,4.173855743379890981e+01,2.500000000000000000e-01
-2.640532399994120816e+00,-3.316848238814129601e-02,4.330102414863514770e-01,1.000000000000000048e-04,4.143836189416965254e+01,2.700000000000000178e-01
2.550121721566497079e+00,1.209844573020432357e+00,6.548264193743007500e-01,1.000000000000000048e-04,4.295852568530832372e+01,2.300000000000000100e-01
-3.047623874755406082e+00,8.280191360090678465e-01,3.364112981893725429e-01,1.000000000000000048e-04,4.159583114037084783e+01,2.300000000000000100e-01
6.043262189237110782e-01,2.786367202518791331e-01,4.986066271721534271e-01,1.000000000000000048e-04,4.163807849117912951e+01,3.200000000000000067e-01
-1.253133810237686552e+00,-6.629795951527558406e-01,7.789581837578292145e-01,1.000000000000000048e-04,4.327311073793944729e+01,2.899999999999999800e-01
-7.436265100340540002e-01,7.460437836966500313e-01,3.367936671774229840e-01,1.000000000000000048e-04,4.068348082597178461e+01,2.600000000000000089e-01
1.265852721615878806e-01,-3.394279495566809857e-03,4.677221239460542801e-01,1.000000000000000048e-04,4.244721315557214325e+01,2.899999999999999800e-01
6.763892535000284312e-01,-1.485815793733555878e-01,8.466792378859500090e-01,1.000000000000000048e-04,4.323292083231673644e+01,2.700000000000000178e-01
-1.518609268512143284e+00,1.061060997661196215e-01,3.820687194702043765e-01,1.000000000000000048e-04,4.152321038328820180e+01,2.300000000000000100e-01
-1.323506527501047580e+00,-6.149961509644006341e-01,1.288110573157281280e+00,1.000000000000000048e-04,4.433108579476284916e+01,2.800000000000000266e-01
-1.540504585694158823e+00,-5.002439646981660104e-02,6.952194016699220214e-01,1.000000000000000048e-04,4.326457383842018345e+01,2.300000000000000100e-01
-1.182923039315420866e+00,-1.702935707973074475e-01,5.226086559459264258e-01,1.000000000000000048e-04,4.245450368797435914e+01,2.200000000000000011e-01
2.934196158545760547e+00,1.113834874513336626e+00,3.946531118019107609e-01,1.000000000000000048e-04,4.141054226333293542e+01,2.200000000000000011e-01
-1.195229309441553145e+00,-1.363243620703480374e-01,3.868314474449725537e-01,1.000000000000000048e-04,4.176522095495000286e+01,2.099999999999999922e-01
2.441865599099482864e+00,-7.825641826870690654e-01,9.577612821290950595e-01,1.000000000000000048e-04,4.417584717960088625e+01,2.200000000000000011e-01
-9.617591795255697740e-01,-2.515342183712308000e-01,2.133009608821929692e-01,1.000000000000000048e-04,4.004897984232368913e+01,2.899999999999999800e-01
-2.387581248009809531e+00,-1.438854541031888701e-01,2.563284342568361573e-01,1.000000000000000048e-04,4.052705001529425033e+01,2.099999999999999922e-01
2.488863260777244513e+00,-1.156205492212424746e+00,6.702901295002026139e-01,1.000000000000000048e-04,4.323641621920527456e+01,2.300000000000000100e-01
-2.834285802291210743e+00,9.915514046184039643e-01,1.315764000009254087e-01,1.000000000000000048e-04,3.861956433766189889e+01,3.300000000000000155e-01
-1.055787537857657554e+00,-1.381031048994245669e+00,3.850033690754997018e-01,1.000000000000000048e-04,4.118141546254626917e+01,2.899999999999999800e-01
-3.904034352246132933e-01,-1.163502150594861284e+00,6.744231717419701955e-01,1.000000000000000048e-04,4.355027544748660517e+01,3.300000000000000155e-01
-4.492002276390141269e-01,-4.591873526176915021e-02,6.357067666388875882e-01,1.000000000000000048e-04,4.261533541811213155e+01,2.999999999999999889e-01
2.821958031920734911e+00,-1.185772599250880077e+00,4.895495071800741727e-01,1.000000000000000048e-04,4.212529853999228635e+01,2.600000000000000089e-01
1.436381478005551493e+00,9.848477715279493339e-01,5.057478203469647493e-01,1.000000000000000048e-04,4.243259978781373576e+01,3.300000000000000155e-01
-1.732367292220013955e+00,-6.112172017812607105e-01,8.676673601518916090e-01,1.000000000000000048e-04,4.372045525939835642e+01,2.500000000000000000e-01
2.192300880051134548e-01,1.463910901958915378e+00,3.505146711833539985e-01,1.000000000000000048e-04,4.205980793544102170e+01,2.399999999999999911e-01
-2.606071745478489188e+00,-2.608961335335091558e-01,4.707665113342933694e-01,1.000000000000000048e-04,4.237491905257207492e+01,3.900000000000000133e-01
-2.230529095436464715e+00,-1.030402662424853677e+00,5.713235853453693114e-01,1.000000000000000048e-04,4.249375675743446834e+01,2.700000000000000178e-01
1.355898101285768931e+00,-6.101339823896492209e-01,9.257603951894104455e-01,1.000000000000000048e-04,4.387899020538466033e+01,2.200000000000000011e-01
-1.500734829126724401e+00,-1.582054675553925538e-01,5.673066046785142369e-01,1.000000000000000048e-04,4.246230102383446336e+01,2.300000000000000100e-01
-2.228719719675060329e+00,-1.072111995765480996e+00,8.657676190998440102e-01,1.000000000000000048e-04,4.388482340942888982e+01,2.500000000000000000e-01
8.469143434129691173e-01,-4.111160636392465761e-01,5.064177074488724895e-01,1.000000000000000048e-04,4.189283768810859243e+01,2.099999999999999922e-01
1.942056234749472310e+00,5.142961860679724495e-01,6.954154939719652262e-01,1.000000000000000048e-04,4.309180449596281903e+01,2.099999999999999922e-01
2.148547605031200014e+00,1.165461866950707304e+00,4.342107849035921063e-01,1.000000000000000048e-04,4.158112339569396454e+01,2.999999999999999889e-01
-4.672099495529331570e-01,-1.100644617198156539e-01,3.942649832717874947e-01,1.000000000000000048e-04,4.153367898871081110e+01,2.200000000000000011e-01
-3.104314574080508482e+00,-3.700444741988049291e-01,3.379134417783662414e-01,1.000000000000000048e-04,4.121901262134837651e+01,2.099999999999999922e-01
1.345236067778875722e+00,-1.176347758850186942e-01,8.998118758515849525e-01,1.000000000000000048e-04,4.387601768897901167e+01,2.300000000000000100e-01
3.007852562471694746e+00,9.585298306212455266e-01,2.715840813546659405e-01,1.000000000000000048e-04,4.083292821159021457e+01,3.200000000000000067e-01
-5.227310591966833897e-01,4.711165572489606213e-01,1.080456042708773712e+00,1.000000000000000048e-04,4.443762988294089666e+01,2.600000000000000089e-01
1.793933457830521050e-02,9.047870519222933616e-01,1.264011370193232509e+00,1.000000000000000048e-04,4.491636759176579830e+01,2.000000000000000111e-01
2.929979732673125170e+00,1.031933083424354081e+00,6.748842277292768088e-01,1.000000000000000048e-04,4.294594793988243708e+01,1.799999999999999933e-01
-1.939868260105279685e+00,-3.415400315408858578e-01,8.402141561638718503e-01,1.000000000000000048e-04,4.365125781261255611e+01,2.999999999999999889e-01
-2.677340374871189255e+00,-1.002676581858696014e+00,4.880908691497227725e-01,1.000000000000000048e-04,4.178572723436518999e+01,2.399999999999999911e-01
-1.715986807986909612e+00,1.304436887132209844e+00,7.271670021887322033e-01,1.000000000000000048e-04,4.335109132698812573e+01,2.300000000000000100e-01
7.467864048768766416e-01,9.779036254324866562e-01,3.236551794057043185e-01,1.000000000000000048e-04,4.070895630708977819e+01,2.200000000000000011e-01
-1.429860346334228316e+00,4.879496610418798674e-02,4.648189031432461427e-01,1.000000000000000048e-04,4.239495062147646109e+01,2.300000000000000100e-01
1.268868800051579981e+00,1.612761170408827383e-01,3.396103675334516403e-01,1.000000000000000048e-04,4.146358570593866943e+01,2.300000000000000100e-01
2.209065411060062267e+00,1.084206694737967602e+00,1.721120152098198908e-01,1.000000000000000048e-04,3.963442610622880125e+01,2.600000000000000089e-01
8.643382138577049290e-01,1.324053402727187745e-01,1.545458997425288583e-01,1.000000000000000048e-04,3.951759448901938043e+01,2.099999999999999922e-01
-2.047504054138314267e+00,-1.948028745928989114e-01,3.453447930174120550e-01,1.000000000000000048e-04,4.128531619976686784e+01,2.899999999999999800e-01
-1.359263639196871987e+00,-3.235772424854810314e-01,2.037431206677273732e-01,1.000000000000000048e-04,4.009239361973680360e+01,2.000000000000000111e-01
1.817980326708233285e+00,-7.284777196959888457e-01,1.098746892239021999e-01,1.000000000000000048e-04,3.817630131293601181e+01,2.500000000000000000e-01
-1.004435530427866041e+00,-9.678589871965718183e-01,5.119685859541889261e-01,1.000000000000000048e-04,4.254772000550885735e+01,2.099999999999999922e-01
-2.365176389407511071e+00,-3.540519999203268764e-01,2.240391929993812425e-01,1.000000000000000048e-04,4.032085352352050478e+01,2.300000000000000100e-01
2.014526684794843980e-01,8.085730053287170094e-01,1.010799226291251962e+00,1.000000000000000048e-04,4.406650892355370530e+01,2.200000000000000011e-01
7.693675330710907367e-01,-1.752787617726971892e-01,1.271703603473382849e+00,1.000000000000000048e-04,4.499289457582032981e+01,2.399999999999999911e-01
2.418581310899059034e+00,-1.544528028656835250e+00,5.735537160805310730e-01,1.000000000000000048e-04,4.294114903326658350e+01,2.500000000000000000e-01
1.157004682532911666e-01,-4.205802178461228724e-01,2.158424457027239285e-01,1.000000000000000048e-04,4.023636252889291853e+01,2.200000000000000011e-01
-2.097903029631079885e+00,1.023707684736050005e+00,5.089304102670006991e-01,1.000000000000000048e-04,4.291358341051976311e+01,3.300000000000000155e-01
-5.093057229707449451e-01,5.054583194401334190e-01,1.933949345613941162e-01,1.000000000000000048e-04,3.960307024138167975e+01,2.000000000000000111e-01
2.567208283669740077e+00,1.206177378266669376e+00,1.263524867579531197e+00,1.000000000000000048e-04,4.477019443019632661e+01,2.600000000000000089e-01
1.441451231138493050e+00,-5.644516626730444742e-02,1.475185509372998194e-01,1.000000000000000048e-04,3.937980066564431780e+01,2.399999999999999911e-01
3.040935396919291378e+00,-4.252599606114608743e-01,3.301454003982984275e-01,1.000000000000000048e-04,4.124365639366138225e+01,2.399999999999999911e-01
-2.933906666888515424e+00,2.761799535960043350e-01,2.977864310585578433e-01,1.000000000000000048e-04,4.118515633398697418e+01,2.600000000000000089e-01
2.368643529958215588e+00,-2.263922645384768284e-01,4.787842460492519603e-01,1.000000000000000048e-04,4.224569897197920909e+01,2.399999999999999911e-01
9.733020210835112707e-01,7.723133561393002999e-01,1.573854388091877610e-01,1.000000000000000048e-04,3.962275167799941045e+01,2.000000000000000111e-01
-1.968772700740092585e+00,-1.206110818246473482e+00,7.245637490549976523e-01,1.000000000000000048e-04,4.352191500885951569e+01,3.699999999999999956e-01
8.360639818875581497e-02,8.422942129795774058e-02,4.340343841600686758e-01,1.000000000000000048e-04,4.194500297284935186e+01,3.099999999999999978e-01
-2.195573595713102399e+00,-4.996443293331105373e-01,6.583254265419653528e-01,1.000000000000000048e-04,4.287535135468856851e+01,2.399999999999999911e-01
1.023494475898537814e+00,-1.336465904073680377e-02,7.266810110053527616e-01,1.000000000000000048e-04,4.311545042303306730e+01,2.099999999999999922e-01
-8.389878165429087709e-01,5.555085361700107249e-02,6.341409182181207971e-01,1.000000000000000048e-04,4.303010042019316472e+01,2.800000000000000266e-01
-4.485587093701779438e-01,-1.300030330498247899e+00,1.633070205592122015e-01,1.000000000000000048e-04,3.928584546118188570e+01,2.800000000000000266e-01
-1.488764535301251302e+00,5.909325816320851743e-01,1.536492762144907598e-01,1.000000000000000048e-04,3.911719742892871210e+01,2.099999999999999922e-01
-2.812935986854967041e+00,-3.087391425106269516e-01,8.027151842182504993e-01,1.000000000000000048e-04,4.339738861816545779e+01,2.300000000000000100e-01
-1.193072892217216019e+00,1.992946569619524766e-01,4.804832713371627317e-01,1.000000000000000048e-04,4.190716230812734011e+01,2.000000000000000111e-01
2.600548693221631957e+00,4.758339358838163946e-01,1.719160113424849090e-01,1.000000000000000048e-04,3.955668282263476243e+01,1.000000000000000056e-01
-2.428109649742991039e+00,7.233547249085638953e-01,2.120489919207018126e-01,1.000000000000000048e-04,4.004521683974019908e+01,1.199999999999999956e-01
2.010677299542329877e+00,6.600558287491939957e-01,7.282772135974115990e-01,1.000000000000000048e-04,4.323206260690274405e+01,8.999999999999999667e-02
1.581901737977104538e+00,1.173912532863994773e+00,1.217137686896044180e+00,1.000000000000000048e-04,4.479354459719570514e+01,1.400000000000000133e-01
-2.577426097656978499e-01,-1.785286777165278060e-01,3.464756870105516473e-01,1.000000000000000048e-04,4.129866460746654155e+01,2.000000000000000111e-01
-2.235554706867621810e+00,6.962039912329061053e-01,4.596908908150638684e-01,1.000000000000000048e-04,4.209456796848820659e+01,1.900000000000000022e-01
2.156090201751139190e+00,-3.530068435459523535e-01,9.302541768007694944e-01,1.000000000000000048e-04,4.402785144326414013e+01,1.700000000000000122e-01
3.252783022573915162e-01,5.018140216796038722e-01,4.078255026994168642e-01,1.000000000000000048e-04,4.155466257504694028e+01,3.499999999999999778e-01
-7.781471702007287661e-01,2.042907811605438884e-01,1.036293661491352047e+00,1.000000000000000048e-04,4.467097679202940697e+01,1.700000000000000122e-01
2.986353889734211009e+00,-3.804803901957700685e-01,4.000636662475118843e-01,1.000000000000000048e-04,4.213536873000761318e+01,1.900000000000000022e-01
2.664430909108784995e+00,-9.801204292152654318e-02,7.017457627782195395e-01,1.000000000000000048e-04,4.311114313556559097e+01,1.900000000000000022e-01
