-1.598279621179586663e+00,2.779993629999999993e-01,5.287949862396090772e-02,1.000000000000000048e-04,3.631648971002311299e+01,1.700000000000000122e-01
-1.710562538179586589e+00,-1.402302595000000096e+00,2.582422644751503071e-02,1.000000000000000048e-04,3.545301780998477170e+01,2.000000000000000111e-01
-2.771840681795865180e-01,-1.115655276000000029e+00,3.023362643465343780e-02,1.000000000000000048e-04,3.584553041881483892e+01,1.700000000000000122e-01
-1.608432286179586335e+00,-6.514894359999999773e-01,3.128425643019383529e-02,1.000000000000000048e-04,3.554233797868268141e+01,1.600000000000000033e-01
-1.490451089179586575e+00,-3.201959389999999850e-01,3.745640412802431207e-02,1.000000000000000048e-04,3.567315331060479622e+01,1.700000000000000122e-01
-1.995144670179586299e+00,-1.040863893000000040e+00,1.541691590994331840e-02,1.000000000000000048e-04,3.443742736586922604e+01,1.799999999999999933e-01
-2.211919791795864398e-01,-6.717550429999999961e-01,1.663169637923100908e-02,1.000000000000000048e-04,3.417384541968680622e+01,2.200000000000000011e-01
-8.294029241795861651e-01,6.699244909999999553e-01,2.017218047410396231e-02,1.000000000000000048e-04,3.401500054147319219e+01,1.799999999999999933e-01
-1.123871723179585835e+00,1.275958498999999913e+00,5.289762092703242935e-02,1.000000000000000048e-04,3.674216375375205246e+01,1.900000000000000022e-01
-5.094723721795864080e-01,-7.371415260000000469e-01,1.967107606487283888e-02,1.000000000000000048e-04,3.411927067617912712e+01,1.600000000000000033e-01
6.571342580000000266e-01,4.949370419999999937e-01,2.244406092041240086e-02,1.000000000000000048e-04,3.500859120998787688e+01,1.700000000000000122e-01
-1.010588552179585875e+00,4.063959939999999826e-01,3.587572429022012344e-02,1.000000000000000048e-04,3.543636364886662449e+01,1.400000000000000133e-01
-5.300352171795861267e-01,-4.198024320000000031e-01,3.393606043600350120e-02,1.000000000000000048e-04,3.586059830543641880e+01,1.499999999999999944e-01
-3.959305511795863097e-01,-4.514385590000000170e-01,3.484369551460564374e-02,1.000000000000000048e-04,3.587441730848409804e+01,1.600000000000000033e-01
-1.302326638179586382e+00,4.891699640000000127e-01,5.286972041210935558e-02,1.000000000000000048e-04,3.661058528760696618e+01,8.999999999999999667e-02
-8.169037861795862554e-01,4.857709299999999897e-01,3.833311496949565189e-02,1.000000000000000048e-04,3.588962389439959821e+01,1.000000000000000056e-01
-1.156602994179586119e+00,7.039336720000000103e-01,4.387216424499817968e-02,1.000000000000000048e-04,3.603296212522612052e+01,1.100000000000000006e-01
2.500120207999999788e+00,-3.403989430000000094e-01,2.197954054855988382e-02,1.000000000000000048e-04,3.531468908905754489e+01,1.100000000000000006e-01
2.397122115999999803e+00,-8.283729720000000407e-01,9.355253482983716395e-03,1.000000000000000048e-04,3.391590932869392105e+01,1.700000000000000122e-01
-4.391142381795862804e-01,9.199097720000000145e-01,3.148399190224093758e-02,1.000000000000000048e-04,3.559804912276348432e+01,2.200000000000000011e-01
-1.356814123179586495e+00,1.335301293999999972e+00,1.701904233495543650e-02,1.000000000000000048e-04,3.361627085625213596e+01,2.600000000000000089e-01
2.612804049999999823e+00,3.003891830000000041e-01,3.805793419900127539e-02,1.000000000000000048e-04,3.626467836123579502e+01,1.700000000000000122e-01
-1.192441121179586005e+00,1.100105410000000061e+00,4.023894461554622382e-02,1.000000000000000048e-04,3.611026385840648345e+01,1.799999999999999933e-01
-3.012917491179586182e+00,1.485957493999999990e+00,4.502684050295813201e-02,1.000000000000000048e-04,3.622173733906348048e+01,2.200000000000000011e-01
-7.329138461795858817e-01,1.044356909000000000e+00,3.638567717627072540e-02,1.000000000000000048e-04,3.588160237821134757e+01,1.700000000000000122e-01
1.024371087000000013e+00,-9.607604419999999923e-01,9.768112971431985869e-03,1.000000000000000048e-04,3.427466993625683500e+01,1.600000000000000033e-01
2.960998206000000188e+00,-8.548671270000000044e-01,5.165923705338748562e-03,1.000000000000000048e-04,3.275844834310613862e+01,1.900000000000000022e-01
-3.017579355179586198e+00,-3.780387199999999948e-01,9.323634525570279052e-03,1.000000000000000048e-04,3.357247400034968621e+01,2.399999999999999911e-01
-2.268575282179586594e+00,6.921453520000000470e-01,2.351745105397817781e-02,1.000000000000000048e-04,3.452117059053732362e+01,3.699999999999999956e-01
2.478186394000000181e+00,5.281495040000000474e-01,1.338217864206714403e-02,1.000000000000000048e-04,3.402927620026130739e+01,2.399999999999999911e-01
1.941716173999999961e+00,9.578325640000000529e-01,1.510582988186648379e-02,1.000000000000000048e-04,3.446160600376948224e+01,3.800000000000000044e-01
2.041827891000000061e+00,-8.953703119999999460e-01,1.693562694253913925e-02,1.000000000000000048e-04,3.513091561464861456e+01,1.700000000000000122e-01
2.521229080999999983e+00,-8.544186950000000058e-01,2.556634138178748294e-02,1.000000000000000048e-04,3.555037687637808119e+01,2.000000000000000111e-01
2.745955969000000163e+00,3.136627880000000257e-01,3.852678596114733622e-02,1.000000000000000048e-04,3.653173168745215804e+01,2.099999999999999922e-01
1.738295793999999894e+00,1.134430556000000090e+00,2.587272853101185710e-02,1.000000000000000048e-04,3.527223109353213459e+01,1.799999999999999933e-01
-8.687814521795864664e-01,6.221710379999999541e-01,3.905298146233193712e-02,1.000000000000000048e-04,3.540085226577001265e+01,3.499999999999999778e-01
-1.857013858179586308e+00,3.937075449999999921e-01,3.119761257564612755e-02,1.000000000000000048e-04,3.520903367655354543e+01,2.999999999999999889e-01
-2.894431473179586156e+00,2.701405689999999971e-01,3.201229712651532111e-02,1.000000000000000048e-04,3.572498831290833010e+01,2.300000000000000100e-01
2.213600608000000136e+00,-5.295933369999999973e-01,3.895436885470937582e-02,1.000000000000000048e-04,3.661862124058563950e+01,2.500000000000000000e-01
9.327636729999999599e-01,4.069681829999999834e-01,7.846325478417126575e-03,1.000000000000000048e-04,3.357472916624571013e+01,2.300000000000000100e-01
1.743234563999999986e+00,7.359057650000000450e-01,2.323604551794677953e-02,1.000000000000000048e-04,3.501389255920494037e+01,2.200000000000000011e-01
-2.812965047179586175e+00,5.929882829999999494e-01,2.979176918924264506e-02,1.000000000000000048e-04,3.523729225482167493e+01,2.399999999999999911e-01
-2.977583888179586413e+00,-1.437144969999999966e-01,1.549486417391188198e-02,1.000000000000000048e-04,3.426332193020518702e+01,2.700000000000000178e-01
2.276564226000000080e+00,-5.051809499999999620e-01,2.187188143209484181e-02,1.000000000000000048e-04,3.506407685253230966e+01,2.800000000000000266e-01
2.667465888000000174e+00,-6.260506340000000502e-01,2.375467010106691035e-02,1.000000000000000048e-04,3.570507073298002609e+01,2.600000000000000089e-01
1.041358068000000081e+00,8.506585119999999778e-01,1.285666118277517533e-02,1.000000000000000048e-04,3.353649089748800805e+01,2.300000000000000100e-01
2.499030525999999863e+00,-9.629979760000000333e-01,1.130114374977786440e-02,1.000000000000000048e-04,3.403375811857182498e+01,3.099999999999999978e-01
1.334501084000000004e+00,-7.340646360000000481e-01,1.811418844890266833e-02,1.000000000000000048e-04,3.516096623745841754e+01,2.300000000000000100e-01
2.196979751999999841e+00,-5.334639439999999677e-01,1.755023527532051375e-02,1.000000000000000048e-04,3.495532037374150036e+01,2.500000000000000000e-01
1.445572062999999963e+00,-8.838676049999999451e-01,2.036958775833896951e-02,1.000000000000000048e-04,3.515936568952547958e+01,3.499999999999999778e-01
7.246286520000000397e-01,-7.843460709999999780e-01,2.921194028546270083e-02,1.000000000000000048e-04,3.602089551376386822e+01,3.099999999999999978e-01
2.179180484000000195e+00,1.312341798999999920e+00,1.250168381670757611e-02,1.000000000000000048e-04,3.342995404855891195e+01,2.200000000000000011e-01
7.669035910000000511e-01,2.329377750000000136e-01,2.271605942633336817e-02,1.000000000000000048e-04,3.507294923688252908e+01,2.500000000000000000e-01
2.984436029999999906e+00,4.410184999999999800e-01,3.562888986455181595e-02,1.000000000000000048e-04,3.583626608742573438e+01,2.999999999999999889e-01
1.808380389999999949e+00,-5.931087419999999666e-01,4.291136634500425373e-03,1.000000000000000048e-04,3.331518185776521790e+01,2.200000000000000011e-01
2.378694356000000010e+00,6.891218140000000547e-01,8.413115642227353419e-03,1.000000000000000048e-04,3.290211314213305371e+01,3.099999999999999978e-01
-1.027171309179585990e+00,8.938185499999999895e-01,2.510803545766093769e-02,1.000000000000000048e-04,3.530489757453612754e+01,3.099999999999999978e-01
2.177629786999999872e+00,1.088514723000000073e+00,1.529758041177786687e-02,1.000000000000000048e-04,3.398174505511422439e+01,2.500000000000000000e-01
2.446904437000000154e+00,4.505237189999999892e-01,3.575413414457062622e-02,1.000000000000000048e-04,3.622538281517620362e+01,2.700000000000000178e-01
-2.745075452179586151e+00,5.290477460000000409e-01,3.116748428713100871e-02,1.000000000000000048e-04,3.537694789600148937e+01,1.600000000000000033e-01
3.470126559999999749e-01,6.971221490000000243e-01,3.301143005950279985e-02,1.000000000000000048e-04,3.614364905814073126e+01,2.399999999999999911e-01
-1.741234469179586242e+00,8.281857209999999858e-01,2.577077041089514964e-02,1.000000000000000048e-04,3.460757425514641739e+01,1.000000000000000056e-01
6.278667869999999818e-01,1.201237362999999947e+00,3.155939405954399923e-02,1.000000000000000048e-04,3.578314277098365892e+01,1.799999999999999933e-01
1.901542252999999905e+00,5.984822429999999693e-01,2.136409365652114367e-02,1.000000000000000048e-04,3.500060357823266344e+01,1.700000000000000122e-01
9.102462569999999475e-01,3.833152009999999943e-01,2.821599158119214579e-02,1.000000000000000048e-04,3.566220433254743938e+01,2.200000000000000011e-01
4.621894529999999723e-01,4.355896570000000190e-01,3.248335242437527803e-02,1.000000000000000048e-04,3.566387310046903991e+01,2.399999999999999911e-01
1.731299603999999936e+00,-9.087058740000000245e-01,3.905987406723898658e-02,1.000000000000000048e-04,3.620890709971508414e+01,2.200000000000000011e-01
2.307708166999999921e+00,-3.555306579999999994e-01,3.316391483164204956e-03,1.000000000000000048e-04,3.302882328435834580e+01,1.700000000000000122e-01
2.284880370000000216e+00,-4.942566800000000038e-01,6.806764975333834400e-03,1.000000000000000048e-04,3.351396986923637655e+01,2.200000000000000011e-01
-2.729734007179586364e+00,-4.808223520000000084e-01,2.224249017937030004e-02,1.000000000000000048e-04,3.506932287096907430e+01,2.300000000000000100e-01
-2.728058296179586062e+00,8.181749999999999856e-01,2.078816968259378228e-02,1.000000000000000048e-04,3.424357682323298491e+01,2.200000000000000011e-01
1.539636916000000078e+00,-6.652033799999999830e-02,2.604619506680272423e-02,1.000000000000000048e-04,3.585001108299783823e+01,2.999999999999999889e-01
2.937620158000000092e+00,7.383732379999999873e-01,1.721803141807631832e-02,1.000000000000000048e-04,3.375818739972704918e+01,2.200000000000000011e-01
2.624384770999999894e+00,8.339422930000000012e-01,1.567489187787396432e-02,1.000000000000000048e-04,3.408421430922472695e+01,1.799999999999999933e-01
-2.594453966179586235e+00,1.052220571999999965e+00,3.168515733367560649e-02,1.000000000000000048e-04,3.569467260361499683e+01,1.900000000000000022e-01
-2.462277587179586114e+00,1.356652656000000068e+00,1.959961329408055342e-02,1.000000000000000048e-04,3.415645980714116092e+01,2.099999999999999922e-01
2.730654787000000194e+00,8.741146779999999783e-01,1.759651145507290515e-02,1.000000000000000048e-04,3.443627320418012516e+01,1.900000000000000022e-01
1.629450376000000089e+00,2.068732899999999875e-01,1.306375299708939508e-02,1.000000000000000048e-04,3.432383699963062185e+01,2.899999999999999800e-01
1.142160569999999958e-01,6.858846720000000285e-01,4.651390248420539386e-02,1.000000000000000048e-04,3.653179927734139198e+01,1.799999999999999933e-01
-4.383495451795864639e-01,9.198101690000000108e-01,2.742064508116759391e-02,1.000000000000000048e-04,3.516601960431936647e+01,2.600000000000000089e-01
1.001193188000000012e+00,8.013430529999999719e-01,1.015872313617771638e-02,1.000000000000000048e-04,3.319275597647900611e+01,1.799999999999999933e-01
-8.746654461795859703e-01,7.515327899999999506e-01,2.227950489508456755e-02,1.000000000000000048e-04,3.424724408848869217e+01,2.600000000000000089e-01
1.319662558000000097e+00,1.070340469999999933e-01,3.851850504747433845e-02,1.000000000000000048e-04,3.634380406982841549e+01,2.399999999999999911e-01
1.726021762000000015e+00,-6.377623550000000030e-01,1.975662789351040338e-02,1.000000000000000048e-04,3.570868828691478569e+01,2.600000000000000089e-01
-2.754219137179586330e+00,-9.277945709999999568e-01,2.339298867420813721e-02,1.000000000000000048e-04,3.527431764203080888e+01,3.699999999999999956e-01
1.691977534999999921e+00,1.434503057999999998e+00,2.923354857252369321e-02,1.000000000000000048e-04,3.530440345682853120e+01,2.099999999999999922e-01
8.272144390000000236e-01,-4.428667319999999852e-01,2.163157090297862517e-02,1.000000000000000048e-04,3.534030279798859908e+01,2.300000000000000100e-01
-2.185785446179585811e+00,4.040310730000000183e-01,1.541439987603809847e-02,1.000000000000000048e-04,3.346801379380532637e+01,1.799999999999999933e-01
2.680919170000000129e+00,5.929394510000000063e-01,2.760455370089731630e-02,1.000000000000000048e-04,3.548695164669837965e+01,1.799999999999999933e-01
2.468528393999999793e+00,-3.885411739999999892e-01,2.239373730438320997e-02,1.000000000000000048e-04,3.542338499720251122e+01,1.700000000000000122e-01
1.824819092000000031e+00,-9.187566499999999525e-01,1.824386553872825445e-02,1.000000000000000048e-04,3.483564461891754860e+01,2.099999999999999922e-01
2.252174823999999909e+00,-3.842870769999999769e-01,2.218619220545892112e-02,1.000000000000000048e-04,3.501078889354054269e+01,2.000000000000000111e-01
2.889947965000000174e+00,3.184077100000000105e-01,8.838888121216914584e-03,1.000000000000000048e-04,3.290683306874544911e+01,2.000000000000000111e-01
-2.666621499179586241e+00,1.790417820000000104e-01,2.474665394586272882e-02,1.000000000000000048e-04,3.491014991012859525e+01,1.900000000000000022e-01
2.353249148999999818e+00,9.653535600000000549e-01,2.617938511213036001e-02,1.000000000000000048e-04,3.543255000956296641e+01,1.799999999999999933e-01
1.765869402999999949e+00,9.288119630000000182e-01,2.051834121218765183e-02,1.000000000000000048e-04,3.471123648349595925e+01,3.599999999999999867e-01
1.931340567999999980e+00,-5.991437729999999906e-01,2.353690279841735844e-02,1.000000000000000048e-04,3.541554071670335446e+01,2.000000000000000111e-01
2.835991935000000019e+00,-7.109363199999999550e-01,1.655831805901941678e-02,1.000000000000000048e-04,3.454993005354288726e+01,1.900000000000000022e-01
-2.852520529179586095e+00,8.667541789999999580e-01,2.449970367485154732e-02,1.000000000000000048e-04,3.442441075774304693e+01,1.799999999999999933e-01
-2.458251249179586040e+00,-2.796002539999999925e-01,1.977395369993462104e-02,1.000000000000000048e-04,3.372535461082082264e+01,3.300000000000000155e-01
1.596378985000000084e+00,5.944120290000000084e-01,3.115449032659345363e-02,1.000000000000000048e-04,3.587918027881238459e+01,1.900000000000000022e-01
-2.484014184179586415e+00,8.016642189999999557e-01,2.895148030306127218e-02,1.000000000000000048e-04,3.545836979397655853e+01,1.900000000000000022e-01
-2.431723812179586108e+00,1.223750555999999934e+00,1.560974566394346397e-02,1.000000000000000048e-04,3.324424302443533463e+01,1.700000000000000122e-01
-2.378598255179586118e+00,1.197731727999999940e+00,1.933894224986687504e-02,1.000000000000000048e-04,3.418129309822102613e+01,1.900000000000000022e-01
1.739429998000000088e+00,2.494783479999999887e-01,2.213412737686404341e-02,1.000000000000000048e-04,3.522714000575373916e+01,3.099999999999999978e-01
-2.377494960179586059e+00,9.562939099999999693e-01,1.689951632742237031e-02,1.000000000000000048e-04,3.373337687660093565e+01,1.799999999999999933e-01
-9.021677017958662503e-02,6.959221140000000361e-01,1.562186154646272307e-02,1.000000000000000048e-04,3.402558412881127481e+01,3.499999999999999778e-01
2.021336933000000169e+00,8.510789659999999923e-01,1.347223373290074022e-02,1.000000000000000048e-04,3.410160104637682110e+01,2.800000000000000266e-01
2.573899695999999793e+00,-5.247218830000000001e-01,7.971959192227817681e-03,1.000000000000000048e-04,3.334292691746544790e+01,1.700000000000000122e-01
2.346925623000000183e+00,-7.496726200000000118e-01,1.108280119721904988e-02,1.000000000000000048e-04,3.421826845190416577e+01,1.700000000000000122e-01
2.543651012999999850e+00,-2.555195920000000176e-01,1.708025220450548609e-02,1.000000000000000048e-04,3.484692164412339110e+01,1.900000000000000022e-01
2.457771880000000131e+00,-4.383329890000000062e-01,2.009777963375913856e-02,1.000000000000000048e-04,3.509809861704051315e+01,1.700000000000000122e-01
-2.749033603179586116e+00,5.277091179999999770e-01,2.270447670718556132e-02,1.000000000000000048e-04,3.492332299058934808e+01,1.799999999999999933e-01
-3.021446786179586397e+00,6.716344440000000526e-01,4.722907366248407790e-02,1.000000000000000048e-04,3.679932423199559111e+01,1.799999999999999933e-01
2.390319493999999878e+00,1.427533710000000067e+00,1.977306191309979866e-02,1.000000000000000048e-04,3.437432707054080794e+01,1.799999999999999933e-01
2.491619029000000207e+00,8.136863199999999630e-01,3.892465809210055028e-02,1.000000000000000048e-04,3.600234099710800706e+01,1.900000000000000022e-01
2.336721559999999975e+00,1.049041915000000103e+00,2.617208664682069141e-02,1.000000000000000048e-04,3.508718698146227410e+01,1.700000000000000122e-01
1.201678150000000000e+00,3.331923239999999842e-01,1.820069554804093492e-02,1.000000000000000048e-04,3.484208046074062537e+01,1.900000000000000022e-01
-3.811893421795859993e-01,1.284308205000000092e+00,3.122521242043951872e-02,1.000000000000000048e-04,3.591358150255514659e+01,2.000000000000000111e-01
5.879284790000000038e-01,8.245620540000000442e-01,1.343180655724562911e-02,1.000000000000000048e-04,3.337757627617499168e+01,1.700000000000000122e-01
-1.085925731795862603e-01,9.806715139999999664e-01,3.123266127783397295e-02,1.000000000000000048e-04,3.538300718807191458e+01,1.799999999999999933e-01
1.189812670000000017e+00,8.219376269999999485e-01,1.917453070126051706e-02,1.000000000000000048e-04,3.462789214445810870e+01,1.700000000000000122e-01
2.896526737999999934e+00,1.048685354999999930e+00,1.687543543169245375e-02,1.000000000000000048e-04,3.400140758681899911e+01,1.700000000000000122e-01
8.784667550000000436e-01,-5.840451829999999678e-01,4.200543980164672675e-02,1.000000000000000048e-04,3.626879065475314690e+01,2.099999999999999922e-01
-2.025603206179586557e+00,1.419180792999999996e+00,3.190914381471698924e-02,1.000000000000000048e-04,3.560373047440852901e+01,1.799999999999999933e-01
1.097118803000000087e+00,1.428367445999999985e+00,2.994899079340873627e-02,1.000000000000000048e-04,3.512292654971150796e+01,1.799999999999999933e-01
-1.923054671795858539e-01,8.268694330000000425e-01,2.822700369521546904e-02,1.000000000000000048e-04,3.518852119186537664e+01,2.000000000000000111e-01
1.974446608000000047e+00,-1.250497374000000050e+00,1.909616722615359308e-02,1.000000000000000048e-04,3.522991916581433003e+01,2.000000000000000111e-01
1.714471547999999901e+00,-4.841846819999999774e-01,1.039023025785712484e-02,1.000000000000000048e-04,3.436349386436364028e+01,1.700000000000000122e-01
1.635209042000000057e+00,-1.499680316999999929e+00,2.647683963011782105e-02,1.000000000000000048e-04,3.574865437121673040e+01,1.900000000000000022e-01
-3.085878636179586021e+00,-8.156760069999999807e-01,2.042903805941898021e-02,1.000000000000000048e-04,3.502609929436036396e+01,1.799999999999999933e-01
1.583648911999999909e+00,-4.051170720000000225e-01,7.516930166010959979e-03,1.000000000000000048e-04,3.385151745357644870e+01,1.700000000000000122e-01
3.116144028999999982e+00,-6.233618589999999626e-01,2.081415665253572023e-02,1.000000000000000048e-04,3.537385887844486376e+01,2.000000000000000111e-01
2.580853791000000008e+00,2.126606490000000071e-01,1.286392562223181990e-02,1.000000000000000048e-04,3.422622116479007559e+01,2.200000000000000011e-01
2.791070910999999821e+00,-3.375241600000000036e-02,1.863330167135579529e-02,1.000000000000000048e-04,3.447898880659349174e+01,2.999999999999999889e-01
2.126664376999999995e+00,-4.630033630000000011e-01,2.601121620508939358e-02,1.000000000000000048e-04,3.570185756703155988e+01,1.799999999999999933e-01
1.264160699999999915e+00,6.289837299999999631e-01,9.943820549331849890e-03,1.000000000000000048e-04,3.347515724227731226e+01,1.900000000000000022e-01
2.608192676999999904e+00,3.485897410000000085e-01,4.235450861673117906e-02,1.000000000000000048e-04,3.641790565784019407e+01,2.200000000000000011e-01
2.816578843999999915e+00,-6.539336449999999523e-01,1.868959038688244867e-02,1.000000000000000048e-04,3.513757084530949726e+01,1.799999999999999933e-01
2.816545334000000178e+00,5.529564630000000092e-01,1.278879392765230882e-02,1.000000000000000048e-04,3.352695009075273447e+01,1.700000000000000122e-01
2.293480610000000031e+00,1.430186356999999964e+00,4.332922672711680967e-02,1.000000000000000048e-04,3.634644981078841397e+01,1.700000000000000122e-01
1.900048696999999898e+00,-6.695785770000000081e-01,2.035081224067769590e-02,1.000000000000000048e-04,3.530512234652282189e+01,1.900000000000000022e-01
2.402973735999999860e+00,-4.293495210000000117e-01,4.577873250406039318e-03,1.000000000000000048e-04,3.306776563580901040e+01,2.200000000000000011e-01
3.123677135999999965e+00,5.597831170000000522e-01,3.044035062091032806e-02,1.000000000000000048e-04,3.562903496850518081e+01,1.700000000000000122e-01
-2.603733431795864917e-01,9.574212720000000454e-01,2.621172877454558403e-02,1.000000000000000048e-04,3.434315635414765211e+01,3.800000000000000044e-01
-1.216980031795857897e-01,3.678993019999999836e-01,1.593265338106797380e-02,1.000000000000000048e-04,3.404065819590319819e+01,1.900000000000000022e-01
2.921580513999999962e+00,4.108407450000000072e-01,1.290434530214623621e-02,1.000000000000000048e-04,3.395586100568159793e+01,1.900000000000000022e-01
-2.362072097179586105e+00,1.187667234999999932e+00,1.434740829283165375e-02,1.000000000000000048e-04,3.306013349237636589e+01,1.900000000000000022e-01
-2.337569846179586186e+00,3.756736769999999837e-01,1.856000888569186991e-02,1.000000000000000048e-04,3.385970546075043330e+01,1.700000000000000122e-01
-1.563533060179586265e+00,8.298117619999999528e-01,3.251673250981834684e-02,1.000000000000000048e-04,3.572843312510458702e+01,3.300000000000000155e-01
-7.514201781795861734e-01,8.148208550000000105e-01,1.471920417048444563e-02,1.000000000000000048e-04,3.316746651649366839e+01,2.099999999999999922e-01
-2.172991007179586376e+00,1.278564443000000050e+00,2.256107151524866516e-02,1.000000000000000048e-04,3.403810079205856454e+01,2.000000000000000111e-01
1.004972830999999900e+00,3.284388160000000223e-01,2.401415060834000137e-02,1.000000000000000048e-04,3.560775494263430829e+01,1.799999999999999933e-01
-1.050913719179586536e+00,7.925907810000000220e-01,1.493681572480842767e-02,1.000000000000000048e-04,3.285494588433727614e+01,2.899999999999999800e-01
1.174967896000000067e+00,-7.032179160000000540e-01,1.740195749313366846e-02,1.000000000000000048e-04,3.515160241155041376e+01,1.799999999999999933e-01
2.063754460999999818e+00,1.158898511999999936e+00,1.247641304089430747e-02,1.000000000000000048e-04,3.302589773476907453e+01,1.799999999999999933e-01
1.355273345999999934e+00,1.034050206000000083e+00,1.122174828942412717e-02,1.000000000000000048e-04,3.311062224040766466e+01,1.700000000000000122e-01
1.878516419999999965e+00,-5.891517790000000421e-01,2.870000000000000155e-03,1.000000000000000048e-04,3.323407455949683253e+01,1.799999999999999933e-01
3.042909537999999969e+00,4.914006550000000195e-01,4.552448167452549654e-02,1.000000000000000048e-04,3.643721185223345316e+01,1.700000000000000122e-01
-2.192876876179585821e+00,7.571444160000000423e-01,2.719589532449417923e-02,1.000000000000000048e-04,3.490622460420222239e+01,2.099999999999999922e-01
-1.274335216179586006e+00,7.393028099999999769e-01,3.435317314283126144e-02,1.000000000000000048e-04,3.481255185375190564e+01,3.599999999999999867e-01
3.513372269999999742e-01,1.023017258000000096e+00,2.375613262658426983e-02,1.000000000000000048e-04,3.457870779978811981e+01,1.799999999999999933e-01
-2.045215730179585911e+00,1.346705497999999945e+00,3.522831406996917991e-02,1.000000000000000048e-04,3.591379341692896077e+01,1.799999999999999933e-01
2.622131355000000053e+00,-2.378520580000000051e-01,9.617087495775056283e-03,1.000000000000000048e-04,3.378975204061463700e+01,2.099999999999999922e-01
1.499565373000000035e+00,-5.833961840000000398e-01,3.484669831189224354e-03,1.000000000000000048e-04,3.308079305655027014e+01,1.199999999999999956e-01
9.453780529999999960e-01,-3.014802610000000271e-01,2.370286567010748691e-02,1.000000000000000048e-04,3.551225024641777139e+01,1.799999999999999933e-01
1.003030738000000088e+00,-6.679498139999999751e-01,8.831718990540693426e-03,1.000000000000000048e-04,3.422325183596628051e+01,1.799999999999999933e-01
-2.858957567179586157e+00,-2.878047879999999781e-01,1.639700013312261895e-02,1.000000000000000048e-04,3.444862298229202224e+01,1.300000000000000044e-01
-2.653655062179586022e+00,5.464710109999999510e-01,4.937386309567615150e-02,1.000000000000000048e-04,3.663855174571403239e+01,1.300000000000000044e-01
-1.077960778179586576e+00,1.305029642999999906e+00,5.247249225369921000e-02,1.000000000000000048e-04,3.649430194377963943e+01,1.100000000000000006e-01
2.996279555000000094e+00,-9.792432829999999644e-01,2.803380027154500631e-02,1.000000000000000048e-04,3.589447248060056239e+01,1.600000000000000033e-01
-7.405109531795863731e-01,5.344760480000000369e-01,3.030091672290935456e-02,1.000000000000000048e-04,3.524999569726859505e+01,1.900000000000000022e-01
-1.986221938179586033e+00,3.858849830000000147e-01,3.951664495500661900e-02,1.000000000000000048e-04,3.542794124380935017e+01,2.600000000000000089e-01
-1.660796187179585992e+00,1.337702168000000080e+00,2.719498552306287564e-02,1.000000000000000048e-04,3.473842088653520221e+01,1.300000000000000044e-01
-1.008319883179586540e+00,9.035811799999999838e-01,2.087628707804123351e-02,1.000000000000000048e-04,3.411762194402806614e+01,1.799999999999999933e-01
-2.859227719179586291e+00,-3.383984709999999785e-01,1.626601418355155815e-02,1.000000000000000048e-04,3.414143004360217049e+01,1.799999999999999933e-01
-3.008470453179586279e+00,-9.028608339999999455e-01,2.222299881257394638e-02,1.000000000000000048e-04,3.511917945200843150e+01,1.300000000000000044e-01
2.720373041999999852e+00,-1.026937239000000002e+00,1.480496048426394040e-02,1.000000000000000048e-04,3.475777459164591932e+01,1.100000000000000006e-01
1.131806215999999976e+00,-1.312634394000000038e+00,1.767273344754993758e-02,1.000000000000000048e-04,3.482709928575272329e+01,1.199999999999999956e-01
1.262497049000000038e+00,-7.576738640000000302e-01,9.615383670833477225e-03,1.000000000000000048e-04,3.427345229179524466e+01,1.900000000000000022e-01
-2.150308364179585929e+00,9.473204419999999848e-01,2.929705535790372295e-02,1.000000000000000048e-04,3.509488154721913844e+01,1.499999999999999944e-01
-2.672281993179586035e+00,8.065802300000000091e-01,1.487990133631234002e-02,1.000000000000000048e-04,3.302710416033419705e+01,1.400000000000000133e-01
-2.768228307179586345e+00,1.501965110000000048e-01,2.675191299684986923e-02,1.000000000000000048e-04,3.526942844954336209e+01,1.300000000000000044e-01
2.456608391000000058e+00,-6.815239560000000418e-01,8.187966208390573541e-03,1.000000000000000048e-04,3.372160715033501077e+01,2.899999999999999800e-01
-1.538735822179586599e+00,7.895792169999999999e-01,3.393665663050171588e-02,1.000000000000000048e-04,3.540175611710851200e+01,1.600000000000000033e-01
-6.811844061795859773e-01,-7.989239399999999991e-01,2.736509765552486151e-02,1.000000000000000048e-04,3.540885856397272846e+01,2.300000000000000100e-01
-9.881069141795864041e-01,9.266642769999999807e-01,4.075377911722966040e-02,1.000000000000000048e-04,3.608952674242802772e+01,2.500000000000000000e-01
9.533575850000000074e-01,-5.868324440000000086e-01,3.070846425630846532e-02,1.000000000000000048e-04,3.586780063401371876e+01,1.199999999999999956e-01
-1.550854682179585886e+00,1.341867675000000037e+00,1.784010957411252818e-02,1.000000000000000048e-04,3.324889135839724474e+01,3.599999999999999867e-01
1.284766933000000000e+00,-9.049604909999999780e-01,9.401743716523691674e-03,1.000000000000000048e-04,3.405476893244965453e+01,1.300000000000000044e-01
