-1.598279621179586663e+00,2.779993629999999993e-01,2.436211298688799598e-01,1.000000000000000048e-04,3.993276138902739092e+01,1.700000000000000122e-01
-8.306753881795865269e-01,5.048130450000000158e-01,7.194974799841111768e-01,1.000000000000000048e-04,4.301256284297782884e+01,1.600000000000000033e-01
-1.512887194179586281e+00,3.571169940000000209e-01,2.463424374235920755e-01,1.000000000000000048e-04,4.067158011228113423e+01,1.600000000000000033e-01
-2.094054222179586588e+00,-9.657747650000000350e-01,1.588302215434707065e-01,1.000000000000000048e-04,3.941372971337234077e+01,1.600000000000000033e-01
-1.256550916179586252e+00,-1.037146153999999987e+00,2.776047588395624821e-01,1.000000000000000048e-04,4.060717647487494730e+01,1.900000000000000022e-01
-2.638489419179586015e+00,-8.917870300000000361e-01,4.734789297207628866e-01,1.000000000000000048e-04,4.191135157794970212e+01,1.600000000000000033e-01
3.095686500000000008e-02,-1.139960520999999893e+00,4.632255801761289149e-01,1.000000000000000048e-04,4.200426566343399770e+01,1.700000000000000122e-01
-4.765590681795863759e-01,-7.328014390000000544e-01,6.469119947223074263e-01,1.000000000000000048e-04,4.303396373397237085e+01,1.600000000000000033e-01
7.532392530000000530e-01,9.936355940000000109e-01,6.482014061645358094e-01,1.000000000000000048e-04,4.293379064589817773e+01,1.600000000000000033e-01
1.355624495999999901e+00,4.654212710000000253e-01,1.901943890853186048e-01,1.000000000000000048e-04,3.977107165133904232e+01,2.200000000000000011e-01
-2.027672372179586624e+00,-3.494576850000000179e-01,3.465838119764115266e-01,1.000000000000000048e-04,4.129080524801639029e+01,8.999999999999999667e-02
-2.243457714179585949e+00,5.735296930000000071e-01,7.340028979702062362e-01,1.000000000000000048e-04,4.319990506918830420e+01,8.000000000000000167e-02
-1.661352162179586145e+00,7.473004210000000480e-01,3.390415514626621274e-01,1.000000000000000048e-04,4.131160259815941060e+01,1.100000000000000006e-01
-1.046494641179585905e+00,9.839422859999999993e-01,2.265141647985153828e-01,1.000000000000000048e-04,4.041909420498141969e+01,1.600000000000000033e-01
-1.357076630179586019e+00,8.591991679999999576e-01,3.744231279856768957e-01,1.000000000000000048e-04,4.132743589459284550e+01,1.300000000000000044e-01
-1.489161381179585852e+00,8.733460579999999807e-01,5.968810819646761523e-01,1.000000000000000048e-04,4.287576401993636921e+01,8.999999999999999667e-02
2.602874990000000111e+00,9.865781270000000269e-01,5.132706462538871861e-01,1.000000000000000048e-04,4.254493349559002269e+01,2.099999999999999922e-01
2.011122450999999867e+00,-1.257182417000000108e+00,8.069552094962830768e-01,1.000000000000000048e-04,4.385668039998191148e+01,1.799999999999999933e-01
2.487812089999999809e+00,-1.095252646999999913e+00,5.401900610165253358e-01,1.000000000000000048e-04,4.253296355113021576e+01,1.600000000000000033e-01
-2.060955814179585843e+00,9.020563839999999889e-01,2.534108602678644129e-01,1.000000000000000048e-04,4.029643833760308524e+01,1.799999999999999933e-01
-1.552222439179586466e+00,1.270289940999999923e+00,1.060346005151789672e+00,1.000000000000000048e-04,4.386570925596589632e+01,1.600000000000000033e-01
-3.584264691795864266e-01,1.112498557000000110e+00,5.436264908897945336e-01,1.000000000000000048e-04,4.222690026295608590e+01,2.000000000000000111e-01
1.187793541000000008e+00,1.533334508000000040e+00,1.791774134993409096e-01,1.000000000000000048e-04,3.988862716153180799e+01,1.700000000000000122e-01
9.029304540000000490e-01,-5.888661819999999603e-01,7.138157399454931884e-01,1.000000000000000048e-04,4.342875964016403145e+01,1.700000000000000122e-01
2.675488564000000125e+00,-1.029758079000000048e+00,3.798201005877210878e-01,1.000000000000000048e-04,4.157372376453184160e+01,1.700000000000000122e-01
9.979371630000000160e-01,-7.076351440000000492e-01,5.835568099914811846e-01,1.000000000000000048e-04,4.266604756311983948e+01,2.000000000000000111e-01
-2.809922836179586270e+00,-1.219770695000000016e+00,2.823696989238642097e-01,1.000000000000000048e-04,4.100337999787945620e+01,1.900000000000000022e-01
1.945616433999999950e+00,5.533621010000000506e-01,6.715460441011158466e-01,1.000000000000000048e-04,4.301311819748590892e+01,1.700000000000000122e-01
1.369802210000000131e-01,9.686457469999999459e-01,8.345647390746775418e-01,1.000000000000000048e-04,4.374952182512107868e+01,1.000000000000000056e-01
2.377785852000000144e+00,-1.071983155000000076e+00,1.692523159114860398e-01,1.000000000000000048e-04,3.946256972828168585e+01,1.000000000000000056e-01
1.194530383000000029e+00,-8.514353350000000153e-01,3.139484091609696659e-01,1.000000000000000048e-04,4.110617504243694498e+01,1.100000000000000006e-01
2.328991532999999947e+00,-1.085498080000000032e+00,2.548468046163525624e-01,1.000000000000000048e-04,4.046316875451510953e+01,1.199999999999999956e-01
3.099662444999999877e+00,-8.173274409999999879e-01,2.141689718910819717e-01,1.000000000000000048e-04,4.005938677570595985e+01,1.300000000000000044e-01
1.008677688999999988e+00,-7.224949280000000362e-01,3.908403954116705936e-01,1.000000000000000048e-04,4.155001998225198179e+01,1.199999999999999956e-01
1.116317643999999998e+00,-8.188746820000000204e-01,3.811588381669275272e-01,1.000000000000000048e-04,4.137860453978998265e+01,1.499999999999999944e-01
1.368634144999999913e+00,-9.746537960000000167e-01,1.663612614329266215e-01,1.000000000000000048e-04,3.945040222660536244e+01,2.200000000000000011e-01
2.840707745000000006e+00,-9.874777999999999611e-01,1.172605870183525134e-01,1.000000000000000048e-04,3.869126362943653419e+01,1.199999999999999956e-01
1.164831654000000105e+00,-8.361433499999999519e-01,4.534700503977944219e-01,1.000000000000000048e-04,4.202057259640417897e+01,1.600000000000000033e-01
9.274529849999999520e-01,-5.648102149999999488e-01,1.388376239775681587e-01,1.000000000000000048e-04,3.892399960651501800e+01,2.200000000000000011e-01
1.803806121999999901e+00,-1.051757271000000049e+00,5.564403814988811980e-01,1.000000000000000048e-04,4.243853658203006773e+01,2.200000000000000011e-01
1.910407339000000038e+00,-1.096340147000000043e+00,6.295286588610424783e-01,1.000000000000000048e-04,4.291798372498675462e+01,1.300000000000000044e-01
-2.994395329179586174e+00,-6.874333790000000111e-01,3.474224303054278540e-01,1.000000000000000048e-04,4.145371115413518481e+01,1.600000000000000033e-01
2.004169926999999962e+00,-1.114377941999999955e+00,3.978609749698613918e-01,1.000000000000000048e-04,4.206379840750351207e+01,2.099999999999999922e-01
2.993884073999999895e+00,-9.067153500000000310e-01,2.761392723247773073e-01,1.000000000000000048e-04,4.068255674426992385e+01,2.000000000000000111e-01
2.896584697999999847e+00,-6.981149509999999836e-01,2.456511224612880628e-01,1.000000000000000048e-04,4.036822287071078108e+01,2.000000000000000111e-01
2.644964143999999795e+00,-1.038456438999999953e+00,5.055455988100536757e-01,1.000000000000000048e-04,4.232009036392868495e+01,2.500000000000000000e-01
1.395029569000000080e+00,-9.673563530000000021e-01,3.842669090859380798e-01,1.000000000000000048e-04,4.163589318424638464e+01,2.200000000000000011e-01
1.133893306999999906e+00,-8.234022290000000410e-01,3.189173101758731033e-01,1.000000000000000048e-04,4.105083288747581349e+01,1.199999999999999956e-01
9.542908199999999841e-01,-6.210129070000000029e-01,2.131291150697918191e-01,1.000000000000000048e-04,4.015721852344461240e+01,1.400000000000000133e-01
1.112357503999999997e+00,-7.717409769999999947e-01,1.046199010909103055e+00,1.000000000000000048e-04,4.404942119522430488e+01,1.400000000000000133e-01
1.392129267000000059e+00,-9.489503049999999940e-01,1.776822570398888246e-01,1.000000000000000048e-04,3.989802043603355486e+01,1.100000000000000006e-01
3.104633763999999907e+00,-8.563587980000000321e-01,1.608317094454438934e-01,1.000000000000000048e-04,3.955982221200697069e+01,1.199999999999999956e-01
-1.581672989179586430e+00,-6.726275419999999672e-01,1.786588082147537726e-01,1.000000000000000048e-04,3.962645352038978075e+01,2.000000000000000111e-01
8.758714749999999549e-01,-5.394949780000000139e-01,4.744584446239001885e-01,1.000000000000000048e-04,4.211492299172093823e+01,1.199999999999999956e-01
1.027821937999999991e+00,-6.897361509999999640e-01,1.440157855679753407e-01,1.000000000000000048e-04,3.905003927337430980e+01,1.499999999999999944e-01
8.011105990000000343e-01,-4.568120419999999737e-01,8.745002859495947245e-01,1.000000000000000048e-04,4.343414552802958895e+01,1.499999999999999944e-01
8.044453879999999835e-01,-4.591503659999999765e-01,9.130419484230807292e-01,1.000000000000000048e-04,4.400403131018889979e+01,1.100000000000000006e-01
8.290542589999999601e-01,-4.498624509999999965e-01,2.043993231930667509e-01,1.000000000000000048e-04,4.014707890564360326e+01,1.199999999999999956e-01
2.306908324000000121e+00,-1.093655438999999951e+00,1.004840031096835062e+00,1.000000000000000048e-04,4.414454763402373771e+01,1.300000000000000044e-01
-3.090495873179586184e+00,-7.974218849999999970e-01,3.748512441474713963e-01,1.000000000000000048e-04,4.164629464170779016e+01,1.300000000000000044e-01
2.850739061000000074e+00,-9.724982730000000242e-01,3.465942844979874593e-01,1.000000000000000048e-04,4.126312885713465306e+01,1.100000000000000006e-01
1.925211972000000049e+00,-1.067349442999999898e+00,8.919461692028780586e-01,1.000000000000000048e-04,4.383862542945678342e+01,1.600000000000000033e-01
3.010706126000000094e+00,-9.149326070000000088e-01,2.362721312058904122e-01,1.000000000000000048e-04,4.025224661613192012e+01,1.199999999999999956e-01
1.754869720000000077e+00,-1.052947148999999971e+00,5.288159153904319343e-01,1.000000000000000048e-04,4.223547729399034978e+01,1.300000000000000044e-01
3.028086770999999899e+00,-8.725603690000000023e-01,3.061922869768110012e-01,1.000000000000000048e-04,4.115030925246573190e+01,1.199999999999999956e-01
2.780301081000000174e+00,-1.010780400000000023e+00,4.002177827333979199e-01,1.000000000000000048e-04,4.140984396351552732e+01,1.700000000000000122e-01
3.096540631999999960e+00,-8.261897350000000362e-01,1.816468915910680604e-01,1.000000000000000048e-04,3.980622813454179010e+01,1.100000000000000006e-01
-3.043596368179586342e+00,-7.656326449999999451e-01,3.283574132963797965e-01,1.000000000000000048e-04,4.116974994220527151e+01,1.100000000000000006e-01
2.593403560000000052e+00,-1.068240442000000012e+00,5.088318311839907793e-01,1.000000000000000048e-04,4.228013967160866571e+01,1.199999999999999956e-01
1.277663320999999907e+00,-8.910532270000000032e-01,3.201922322386607789e-01,1.000000000000000048e-04,4.113848744683524217e+01,1.499999999999999944e-01
8.729576639999999665e-01,-5.017517409999999733e-01,7.249127371920009999e-01,1.000000000000000048e-04,4.335632036322700600e+01,1.199999999999999956e-01
2.323316692000000128e+00,-1.072994334000000105e+00,4.416282657864276651e-01,1.000000000000000048e-04,4.200949777813693942e+01,1.400000000000000133e-01
-3.012222731179586166e+00,-7.219820959999999621e-01,1.451945387332271853e-01,1.000000000000000048e-04,3.925049553377311184e+01,1.199999999999999956e-01
2.306010604999999991e+00,-1.110345181000000014e+00,3.479740965639743777e-01,1.000000000000000048e-04,4.138059779183538467e+01,1.100000000000000006e-01
2.437557496999999795e+00,-1.097151527000000071e+00,2.349106969358183417e-01,1.000000000000000048e-04,4.041863479937019576e+01,1.100000000000000006e-01
1.098420291999999909e+00,-7.444727049999999569e-01,4.110692437261598275e-01,1.000000000000000048e-04,4.188524630362742585e+01,1.300000000000000044e-01
8.241628739999999897e-01,-4.611620249999999754e-01,1.367849197975790076e-01,1.000000000000000048e-04,3.903434615700014376e+01,1.400000000000000133e-01
1.017317494999999905e+00,-7.027905669999999771e-01,1.327266716552856884e+00,1.000000000000000048e-04,4.499864538420598592e+01,1.199999999999999956e-01
2.728679550999999925e+00,-1.007430967999999982e+00,8.519087944966929893e-01,1.000000000000000048e-04,4.365025648372448330e+01,1.100000000000000006e-01
2.848837458999999850e+00,-9.622339979999999793e-01,4.707704907473764244e-01,1.000000000000000048e-04,4.198723573812013399e+01,1.199999999999999956e-01
-3.065525731179586266e+00,-7.207210450000000046e-01,7.015136466494218404e-01,1.000000000000000048e-04,4.317151333399142032e+01,1.199999999999999956e-01
1.103969978000000074e+00,-7.587182380000000448e-01,3.320107091775430508e-01,1.000000000000000048e-04,4.108309164830937732e+01,1.300000000000000044e-01
1.112034854000000017e+00,-7.675460100000000008e-01,3.471111276531366752e-01,1.000000000000000048e-04,4.126173958031859712e+01,1.199999999999999956e-01
2.373162053000000160e+00,-1.072487750000000073e+00,5.388581699826548999e-01,1.000000000000000048e-04,4.267650303874672346e+01,1.100000000000000006e-01
2.221583438000000132e+00,-1.096064289000000080e+00,5.899439450592445233e-01,1.000000000000000048e-04,4.269641536720448016e+01,1.199999999999999956e-01
2.775251189000000007e+00,-1.013244017000000108e+00,2.186361264515224168e-01,1.000000000000000048e-04,4.026087476922749175e+01,1.700000000000000122e-01
1.527128894000000070e+00,-9.963611940000000056e-01,1.277134090696745439e+00,1.000000000000000048e-04,4.465036055882901422e+01,1.400000000000000133e-01
-1.936135624179586401e+00,1.327891944000000102e+00,1.633516508817172141e-01,1.000000000000000048e-04,3.940171244997313948e+01,1.199999999999999956e-01
2.120951332999999828e+00,-1.112975437000000012e+00,6.295804919442695713e-01,1.000000000000000048e-04,4.274514776291594842e+01,1.600000000000000033e-01
2.950704906999999988e+00,-9.277153000000000205e-01,2.864344526128905777e-01,1.000000000000000048e-04,4.094481389117896697e+01,1.700000000000000122e-01
2.461302839000000020e+00,-1.064109841000000056e+00,1.156867587458689783e-01,1.000000000000000048e-04,3.872747088115084324e+01,1.499999999999999944e-01
1.687800213000000049e+00,-1.037844004000000098e+00,4.060429039912873961e-01,1.000000000000000048e-04,4.178822053375755985e+01,1.100000000000000006e-01
-3.069023128179586113e+00,-7.343218900000000327e-01,3.429549260137656486e-01,1.000000000000000048e-04,4.145729450246282255e+01,2.000000000000000111e-01
7.655655390000000171e-01,-3.825025819999999799e-01,2.473782720805197677e-01,1.000000000000000048e-04,4.064031195732018631e+01,1.300000000000000044e-01
-3.051736326179586012e+00,-7.690870560000000467e-01,2.026358916211719041e-01,1.000000000000000048e-04,4.003869170292077939e+01,1.499999999999999944e-01
-3.116938176179586240e+00,-7.920766919999999711e-01,1.916997397698469996e-01,1.000000000000000048e-04,4.000003809399473198e+01,1.100000000000000006e-01
1.020863690000000101e+00,-6.877910739999999468e-01,4.891302077778205692e-01,1.000000000000000048e-04,4.240542643536011980e+01,1.199999999999999956e-01
1.792785233999999894e+00,-1.066474936999999956e+00,9.211731282021113909e-01,1.000000000000000048e-04,4.403277905790596236e+01,1.100000000000000006e-01
1.805689748000000039e+00,-1.066896787999999985e+00,7.495790924300673730e-01,1.000000000000000048e-04,4.342007140075038762e+01,1.100000000000000006e-01
1.773248071000000037e+00,-1.046601056999999946e+00,2.538562737731946406e-01,1.000000000000000048e-04,4.066716971274563974e+01,2.099999999999999922e-01
1.076689889999999927e+00,-7.549444410000000216e-01,2.762374734110744079e-01,1.000000000000000048e-04,4.102746220091408702e+01,1.199999999999999956e-01
2.336456505000000128e+00,-1.089906792000000069e+00,1.473665182896484183e-01,1.000000000000000048e-04,3.927633190224315740e+01,1.199999999999999956e-01
2.522083900000000156e+00,-1.078852812999999911e+00,8.024891547830970140e-01,1.000000000000000048e-04,4.358453150698095868e+01,1.199999999999999956e-01
3.676074389999999803e-01,1.100614297999999991e+00,7.235614545161985767e-01,1.000000000000000048e-04,4.354572430184875742e+01,1.700000000000000122e-01
2.099931574000000190e+00,-1.082223048999999993e+00,2.790602787112210770e-01,1.000000000000000048e-04,4.072126786833064216e+01,1.100000000000000006e-01
8.155488279999999479e-01,-4.642700679999999802e-01,1.774398687778224737e-01,1.000000000000000048e-04,3.979084919562816225e+01,2.099999999999999922e-01
9.861636230000000447e-01,-6.881834650000000497e-01,6.206385792597339801e-01,1.000000000000000048e-04,4.292087983345227542e+01,1.300000000000000044e-01
1.864254864999999928e+00,-1.086684659999999969e+00,4.778250202526137524e-01,1.000000000000000048e-04,4.212783694373511878e+01,1.199999999999999956e-01
2.873066016000000111e+00,-9.753574739999999466e-01,2.036074626923400910e-01,1.000000000000000048e-04,3.992823268955048377e+01,1.300000000000000044e-01
2.270287562000000037e+00,-1.085086717999999895e+00,7.329043149228680054e-01,1.000000000000000048e-04,4.347315353638122559e+01,1.799999999999999933e-01
8.268071609999999572e-01,-4.587794940000000099e-01,1.051486540997722319e+00,1.000000000000000048e-04,4.413582746857450445e+01,1.199999999999999956e-01
-3.050869045179586347e+00,-7.648855789999999821e-01,5.078050473328508119e-01,1.000000000000000048e-04,4.219890867085098307e+01,1.199999999999999956e-01
1.101963728999999947e+00,-7.466317359999999903e-01,1.648823162714880830e-01,1.000000000000000048e-04,3.962007337936755391e+01,1.900000000000000022e-01
1.745116724000000064e+00,-1.056563783000000090e+00,3.516847265448912463e-01,1.000000000000000048e-04,4.146314736026751291e+01,1.300000000000000044e-01
7.889769570000000343e-01,-3.846565690000000037e-01,4.834334869227625564e-01,1.000000000000000048e-04,4.225015471806705136e+01,1.499999999999999944e-01
1.385818830999999918e+00,-9.278259679999999454e-01,4.677844070651946407e-01,1.000000000000000048e-04,4.242404997906142228e+01,1.499999999999999944e-01
1.138484923000000038e+00,-8.197145099999999518e-01,8.311490118954343309e-01,1.000000000000000048e-04,4.349132829262585886e+01,1.400000000000000133e-01
1.783410439000000069e+00,-1.080958507999999929e+00,1.982919972694723310e-01,1.000000000000000048e-04,3.992406830015259800e+01,1.400000000000000133e-01
2.617653461000000181e+00,-1.025884226000000066e+00,6.560353225743025263e-01,1.000000000000000048e-04,4.295489068902394081e+01,1.199999999999999956e-01
8.270197009999999960e-01,-4.157453939999999903e-01,6.914811924849533220e-01,1.000000000000000048e-04,4.339142926798631095e+01,1.199999999999999956e-01
3.128792493000000174e+00,-8.522697870000000009e-01,6.592997447703468072e-01,1.000000000000000048e-04,4.291259850541954535e+01,1.100000000000000006e-01
1.366158207000000013e+00,-9.614226009999999878e-01,1.344585705338308124e-01,1.000000000000000048e-04,3.912482324600248518e+01,1.100000000000000006e-01
2.846286316000000038e+00,-9.688357899999999745e-01,1.902568153971815335e-01,1.000000000000000048e-04,3.982484188704654571e+01,1.400000000000000133e-01
9.208216280000000031e-01,-6.185352929999999860e-01,2.526956107064910473e-01,1.000000000000000048e-04,4.103982317932378976e+01,1.499999999999999944e-01
7.622987450000000553e-01,-3.411912120000000215e-01,2.538087123363514941e-01,1.000000000000000048e-04,4.082599209335707258e+01,1.199999999999999956e-01
9.277931750000000255e-01,-5.813990460000000304e-01,1.023597957963311433e+00,1.000000000000000048e-04,4.402960428399724435e+01,2.099999999999999922e-01
1.010173165000000095e+00,-6.808591280000000356e-01,4.588094772439130775e-01,1.000000000000000048e-04,4.223102058524578695e+01,1.300000000000000044e-01
1.661181446000000062e+00,-1.029160687999999935e+00,5.393524788808792270e-01,1.000000000000000048e-04,4.231989710969230600e+01,1.400000000000000133e-01
2.089878704000000198e+00,-1.077863170999999953e+00,6.408985605698460652e-01,1.000000000000000048e-04,4.283223253331544100e+01,1.199999999999999956e-01
9.321550429999999610e-01,-6.212176799999999943e-01,6.885753186280807459e-01,1.000000000000000048e-04,4.323497974131918653e+01,1.199999999999999956e-01
2.944595597000000176e+00,-9.127602249999999806e-01,4.684905820788658470e-01,1.000000000000000048e-04,4.203636779956324432e+01,1.100000000000000006e-01
1.288081913999999939e+00,-9.113959929999999598e-01,6.003065459608412091e-01,1.000000000000000048e-04,4.267337761874541968e+01,1.300000000000000044e-01
1.398731861999999992e+00,-9.625033109999999725e-01,1.909526355338990733e-01,1.000000000000000048e-04,3.984624577730800610e+01,1.199999999999999956e-01
1.714165549000000066e+00,-1.043104095999999981e+00,6.884758639141725922e-01,1.000000000000000048e-04,4.338378580101520754e+01,1.199999999999999956e-01
1.014018395999999989e+00,-6.788913789999999615e-01,2.429249392571792843e-01,1.000000000000000048e-04,4.055523555674052716e+01,1.300000000000000044e-01
8.887761809999999985e-01,-5.541821719999999729e-01,1.865118700460393075e-01,1.000000000000000048e-04,3.975860293145021984e+01,1.300000000000000044e-01
1.026278256999999972e+00,-6.961882160000000264e-01,8.431225064738281372e-01,1.000000000000000048e-04,4.362315788907928749e+01,1.199999999999999956e-01
1.824970581999999952e+00,-1.080428363000000003e+00,1.228275884719191691e+00,1.000000000000000048e-04,4.450248119911724842e+01,1.199999999999999956e-01
1.839979185000000017e+00,-1.082878103999999952e+00,5.968277438004556679e-01,1.000000000000000048e-04,4.282074126707529871e+01,1.300000000000000044e-01
-3.070118813179586237e+00,-7.641942569999999879e-01,3.590213668224189192e-01,1.000000000000000048e-04,4.136791016201316040e+01,1.199999999999999956e-01
2.250776613000000204e+00,-1.110438553999999911e+00,3.018915256098977373e-01,1.000000000000000048e-04,4.107232151842579526e+01,1.199999999999999956e-01
2.613802471000000072e+00,-1.066258922999999914e+00,5.187492832774174278e-01,1.000000000000000048e-04,4.216751284325795979e+01,1.199999999999999956e-01
8.050150120000000298e-01,-4.193234060000000096e-01,4.359602305018148716e-01,1.000000000000000048e-04,4.210891365511866269e+01,1.499999999999999944e-01
2.809576177999999924e+00,-9.952447749999999704e-01,1.293637238370822562e+00,1.000000000000000048e-04,4.468847395591298977e+01,1.199999999999999956e-01
8.523447290000000232e-01,-4.773689010000000121e-01,5.781693023038911861e-01,1.000000000000000048e-04,4.265604105142117675e+01,2.000000000000000111e-01
2.975142320999999868e+00,-8.986192680000000266e-01,2.238025298033350374e-01,1.000000000000000048e-04,4.050628577199675107e+01,2.000000000000000111e-01
2.960578484000000010e+00,-9.174235720000000205e-01,2.757583793465743227e-01,1.000000000000000048e-04,4.092227867447675749e+01,1.400000000000000133e-01
1.589239559999999996e+00,-1.046132274999999945e+00,4.656857203150861491e-01,1.000000000000000048e-04,4.212345390159800473e+01,1.199999999999999956e-01
1.095136271999999966e+00,-7.909478989999999543e-01,5.713717657725350119e-01,1.000000000000000048e-04,4.252438918111706556e+01,1.300000000000000044e-01
3.045277111999999953e+00,-8.831592660000000539e-01,6.455168290310830947e-01,1.000000000000000048e-04,4.276688207297599575e+01,1.799999999999999933e-01
3.011317304999999944e+00,-8.969173430000000335e-01,2.754890993779059993e-01,1.000000000000000048e-04,4.060678567573386033e+01,1.499999999999999944e-01
1.946036051000000100e+00,-1.101857058000000000e+00,7.552720188095431997e-01,1.000000000000000048e-04,4.333304996671887466e+01,1.100000000000000006e-01
9.659444579999999503e-01,-6.400164339999999674e-01,3.885581565620592759e-01,1.000000000000000048e-04,4.164987082156636689e+01,1.199999999999999956e-01
1.142944595999999979e+00,-8.229314749999999679e-01,2.883678234024213971e-01,1.000000000000000048e-04,4.079720736910505963e+01,1.499999999999999944e-01
1.336859599999999926e+00,-9.462661719999999610e-01,1.039062940081204367e+00,1.000000000000000048e-04,4.437972164293552169e+01,1.900000000000000022e-01
2.386695267999999981e+00,-1.099692616000000012e+00,1.199770061372394725e+00,1.000000000000000048e-04,4.478829148140708583e+01,1.799999999999999933e-01
1.122946417999999946e+00,-7.871106610000000448e-01,2.335401057415120718e-01,1.000000000000000048e-04,4.030478724095764420e+01,1.499999999999999944e-01
1.038511049000000019e+00,-6.836743480000000428e-01,3.018188603419875715e-01,1.000000000000000048e-04,4.112783856043996877e+01,1.499999999999999944e-01
-1.865548755179585960e+00,5.988235499999999822e-01,5.337569668643760146e-01,1.000000000000000048e-04,4.216770075529341000e+01,3.599999999999999867e-01
-1.208774007179585830e+00,1.086301519000000049e+00,7.068885630124444042e-01,1.000000000000000048e-04,4.269319212026159249e+01,3.900000000000000133e-01
-1.451351928179586359e+00,1.047303024999999943e+00,2.305935437653712228e-01,1.000000000000000048e-04,4.065940209139255046e+01,3.900000000000000133e-01
-1.863787002179586594e+00,5.986409590000000280e-01,3.957313418269665650e-01,1.000000000000000048e-04,4.125452320390559890e+01,3.099999999999999978e-01
-2.367107747179586053e+00,3.570653329999999848e-01,3.327782570311963450e-01,1.000000000000000048e-04,4.067641706656335998e+01,3.300000000000000155e-01
3.110012692999999828e+00,-8.816387980000000013e-01,1.807523823795289530e-01,1.000000000000000048e-04,4.016132043581657030e+01,4.000000000000000222e-01
1.208427087000000011e+00,6.391205479999999550e-01,2.982888513285320009e-01,1.000000000000000048e-04,4.130175227123655901e+01,3.200000000000000067e-01
2.195568135999999893e+00,9.530612539999999688e-01,8.849650166558489239e-01,1.000000000000000048e-04,4.393110658045326034e+01,3.200000000000000067e-01
-1.746303855179585973e+00,7.561700099999999480e-01,2.649573126391147060e-01,1.000000000000000048e-04,4.033644073293883281e+01,3.599999999999999867e-01
-2.613733020179586308e+00,3.020363409999999860e-01,2.221541267339370851e-01,1.000000000000000048e-04,4.056722176397842361e+01,2.399999999999999911e-01
3.080075141000000016e+00,6.813462000000000129e-01,2.748922523739476542e-01,1.000000000000000048e-04,4.040878452813468868e+01,2.999999999999999889e-01
3.084152930000000126e+00,6.750201959999999612e-01,1.454202436818599065e-01,1.000000000000000048e-04,3.910069614463738930e+01,2.399999999999999911e-01
-2.831540824179586302e+00,-5.193198470000000011e-01,5.590396769452483650e-01,1.000000000000000048e-04,4.256291845333439738e+01,2.899999999999999800e-01
2.921667255000000019e+00,-9.403574120000000036e-01,6.529572022690763866e-01,1.000000000000000048e-04,4.357674912211805207e+01,2.899999999999999800e-01
2.610543199999999953e+00,9.294079060000000059e-01,6.360749504572964508e-01,1.000000000000000048e-04,4.297475761360402657e+01,2.899999999999999800e-01
2.614058957000000127e+00,9.310355519999999885e-01,1.748724439287925314e-01,1.000000000000000048e-04,3.888328178746264285e+01,3.699999999999999956e-01
-2.614313936179586406e+00,3.105085300000000048e-01,9.550499177925015903e-01,1.000000000000000048e-04,4.409950423234530348e+01,2.300000000000000100e-01
-2.614275993179586255e+00,3.084493819999999942e-01,3.425422267180342484e-01,1.000000000000000048e-04,4.117925006988274816e+01,2.000000000000000111e-01
3.080236718000000096e+00,6.852664600000000217e-01,8.323766672546173417e-01,1.000000000000000048e-04,4.377224336411456562e+01,3.800000000000000044e-01
3.085135451000000195e+00,6.840520260000000352e-01,1.611433145422243030e-01,1.000000000000000048e-04,3.984143064727311412e+01,2.300000000000000100e-01
-2.829361723179586452e+00,-5.190188390000000096e-01,4.219836497701667799e-01,1.000000000000000048e-04,4.175075344338192451e+01,3.900000000000000133e-01
-2.833706243179586082e+00,-5.260186759999999628e-01,1.453303355203454661e-01,1.000000000000000048e-04,3.879441193779565111e+01,2.200000000000000011e-01
1.286414458000000094e+00,-9.076167339999999806e-01,1.169997313801038885e-01,1.000000000000000048e-04,3.910723344186114758e+01,2.399999999999999911e-01
2.295144749999999956e+00,-1.095028292000000070e+00,4.791574108549363498e-01,1.000000000000000048e-04,4.250266091350412978e+01,2.000000000000000111e-01
2.312115046000000174e+00,-1.091482969000000081e+00,5.072337088531817528e-01,1.000000000000000048e-04,4.232406834930051076e+01,1.900000000000000022e-01
2.535381049000000164e+00,-1.063602453999999975e+00,1.024425568463048553e+00,1.000000000000000048e-04,4.420455989011534825e+01,2.600000000000000089e-01
2.549902755000000187e+00,-1.059649137999999935e+00,1.452961506342578257e-01,1.000000000000000048e-04,3.917702107518887544e+01,1.900000000000000022e-01
-2.980466121795863899e-01,1.081935794000000062e+00,2.844495244686211510e-01,1.000000000000000048e-04,4.078978581314601115e+01,1.000000000000000056e-01
-4.562223411795862660e-01,1.078420874000000085e+00,5.494481433911593271e-01,1.000000000000000048e-04,4.258301559507810197e+01,1.400000000000000133e-01
-4.727696341795866175e-01,1.076427226000000070e+00,6.346836557770494380e-01,1.000000000000000048e-04,4.264943162801345977e+01,1.900000000000000022e-01
-4.909850281795860028e-01,1.086050390999999893e+00,2.120468563139055185e-01,1.000000000000000048e-04,3.998454821434147988e+01,1.499999999999999944e-01
-1.809890014179586615e+00,8.554848849999999727e-01,4.975011129398403398e-01,1.000000000000000048e-04,4.256897509116724621e+01,1.900000000000000022e-01
-1.804843805179586091e+00,8.509932909999999850e-01,5.271381944661759356e-01,1.000000000000000048e-04,4.252231558878397522e+01,1.700000000000000122e-01
-1.798315402179586187e+00,8.389159160000000393e-01,5.139303354337263485e-01,1.000000000000000048e-04,4.231170212089077154e+01,1.100000000000000006e-01
-1.820018681179586650e+00,8.404092629999999620e-01,4.874353984302715048e-01,1.000000000000000048e-04,4.235661289945969799e+01,2.000000000000000111e-01
-2.435936564179586039e+00,3.767214549999999829e-01,3.978771275068142543e-01,1.000000000000000048e-04,4.163516189352294816e+01,1.700000000000000122e-01
-2.738532057179586143e+00,-4.670391260000000266e-01,3.833252650124323591e-01,1.000000000000000048e-04,4.188114055436379601e+01,1.100000000000000006e-01
-2.750126147179586145e+00,-4.750163370000000107e-01,6.630594720130755793e-01,1.000000000000000048e-04,4.276055636169513008e+01,1.700000000000000122e-01
6.777063359999999648e-01,-9.284162910000000046e-01,1.359966725031043211e-01,1.000000000000000048e-04,3.897029984347848597e+01,1.600000000000000033e-01
6.755664329999999662e-01,-9.242990760000000527e-01,1.811121552328882611e-01,1.000000000000000048e-04,3.968159106402954706e+01,2.200000000000000011e-01
1.666277256000000095e+00,1.035703752000000089e+00,4.455919947712068119e-01,1.000000000000000048e-04,4.190445517423728461e+01,2.800000000000000266e-01
1.679531192000000006e+00,1.034147155999999956e+00,2.378814031388221117e-01,1.000000000000000048e-04,4.035146962456264674e+01,2.099999999999999922e-01
1.669961188000000041e+00,1.045784459000000055e+00,6.044415314533126971e-01,1.000000000000000048e-04,4.234741497664629151e+01,2.899999999999999800e-01
1.666612017000000057e+00,1.035903760999999923e+00,7.593770902192154004e-01,1.000000000000000048e-04,4.336743695378239494e+01,1.400000000000000133e-01
1.676630470000000095e+00,1.049302589999999924e+00,1.317684582721239117e-01,1.000000000000000048e-04,3.875470022879044052e+01,1.600000000000000033e-01
1.678871634000000057e+00,1.037439988999999896e+00,3.687105451435896963e-01,1.000000000000000048e-04,4.176320748843019004e+01,2.099999999999999922e-01
-2.159653925179585876e+00,7.341517600000000421e-01,6.271348203604671934e-01,1.000000000000000048e-04,4.306177349157577794e+01,2.600000000000000089e-01
-2.155609593179586447e+00,7.327229189999999726e-01,2.231854272070519229e-01,1.000000000000000048e-04,4.011418702411215520e+01,1.400000000000000133e-01
2.989279821999999864e+00,-1.014333855000000062e+00,4.395317567726850783e-01,1.000000000000000048e-04,4.210845751220750088e+01,1.600000000000000033e-01
6.962963009999999509e-01,-9.242906640000000396e-01,2.111821383595369195e-01,1.000000000000000048e-04,4.002945932615261881e+01,2.000000000000000111e-01
6.831622830000000368e-01,-9.295060950000000322e-01,5.978908961148925449e-01,1.000000000000000048e-04,4.244576205074528019e+01,2.099999999999999922e-01
6.813526220000000189e-01,-9.196739680000000083e-01,7.689275183965607052e-01,1.000000000000000048e-04,4.356990749542516284e+01,1.700000000000000122e-01
1.667475545999999920e+00,1.039138789999999979e+00,6.003599752091535180e-01,1.000000000000000048e-04,4.272895909256931191e+01,1.499999999999999944e-01
1.669072946000000002e+00,1.039627206000000026e+00,2.762553884611591570e-01,1.000000000000000048e-04,4.075871964042335094e+01,1.700000000000000122e-01
2.992464221000000091e+00,-1.009427984000000000e+00,1.368064375732369609e-01,1.000000000000000048e-04,3.904452891135617421e+01,1.400000000000000133e-01
3.013377762000000182e+00,-1.015725085999999999e+00,3.186276485733174901e-01,1.000000000000000048e-04,4.122638096932339380e+01,1.499999999999999944e-01
6.857830799999999893e-01,-9.290922369999999875e-01,7.032426249179362099e-01,1.000000000000000048e-04,4.294376186033260012e+01,3.400000000000000244e-01
6.874880420000000214e-01,-9.251381180000000093e-01,1.566924062637582438e-01,1.000000000000000048e-04,3.949170713707501079e+01,1.700000000000000122e-01
1.659686511000000086e+00,1.040101345999999927e+00,4.864236527086140960e-01,1.000000000000000048e-04,4.201735078747547192e+01,1.400000000000000133e-01
1.692629780999999944e+00,1.043637506000000048e+00,6.622088849973410962e-01,1.000000000000000048e-04,4.281251442453034173e+01,1.799999999999999933e-01
1.682450028999999958e+00,1.049226146999999942e+00,2.703218940449767516e-01,1.000000000000000048e-04,4.069270118803795100e+01,1.900000000000000022e-01
1.675255906999999933e+00,1.048468626000000015e+00,1.581677226992981300e-01,1.000000000000000048e-04,3.915927168440307327e+01,1.499999999999999944e-01
1.692145135000000078e+00,1.039981480000000014e+00,8.753362042822747657e-01,1.000000000000000048e-04,4.422697258790514496e+01,1.700000000000000122e-01
-2.139768073179586061e+00,7.360294179999999908e-01,1.283286208335037148e-01,1.000000000000000048e-04,3.897694747829839201e+01,1.600000000000000033e-01
-2.138731675179585956e+00,7.369836659999999817e-01,2.703842179058537631e-01,1.000000000000000048e-04,4.054947760331523199e+01,1.499999999999999944e-01
6.888283630000000546e-01,-9.193630990000000169e-01,3.802762337307459273e-01,1.000000000000000048e-04,4.189478511532530547e+01,1.700000000000000122e-01
6.776433490000000059e-01,-9.225326109999999469e-01,2.176927478468981825e-01,1.000000000000000048e-04,4.016007050696534719e+01,1.600000000000000033e-01
6.820513620000000499e-01,-9.162569579999999547e-01,1.471041684563085816e-01,1.000000000000000048e-04,3.943839742868754428e+01,2.899999999999999800e-01
6.832637360000000104e-01,-9.208365670000000502e-01,4.981585572620925717e-01,1.000000000000000048e-04,4.221359579904449078e+01,1.400000000000000133e-01
1.683256381999999940e+00,1.050427892999999946e+00,1.283198621541711493e+00,1.000000000000000048e-04,4.474688714507043841e+01,1.499999999999999944e-01
2.987248335999999949e+00,-1.011507587000000097e+00,3.126120638500826665e-01,1.000000000000000048e-04,4.109328484904565215e+01,1.900000000000000022e-01
2.994879214000000012e+00,-1.020537374999999969e+00,4.463156337823210862e-01,1.000000000000000048e-04,4.197712136257855775e+01,2.500000000000000000e-01
2.997056848999999801e+00,-1.020797841000000039e+00,6.456987482803691059e-01,1.000000000000000048e-04,4.286629370896582003e+01,1.499999999999999944e-01
6.981827720000000070e-01,-9.201470600000000166e-01,1.259773881882677582e-01,1.000000000000000048e-04,3.895507899722191780e+01,2.099999999999999922e-01
1.675679171999999939e+00,1.042232051000000048e+00,2.701524222264723996e-01,1.000000000000000048e-04,4.071674651135273137e+01,1.900000000000000022e-01
1.682732345000000018e+00,1.051774148000000020e+00,5.102486417127098939e-01,1.000000000000000048e-04,4.242945945754255632e+01,2.099999999999999922e-01
1.655763980999999996e+00,1.041789395999999979e+00,2.449679277633920460e-01,1.000000000000000048e-04,4.100659366768862668e+01,2.099999999999999922e-01
1.658505131999999938e+00,1.042043577999999915e+00,4.652480497567721418e-01,1.000000000000000048e-04,4.204980985171129504e+01,1.499999999999999944e-01
1.679931540999999973e+00,1.044700675999999939e+00,1.173869863939733360e+00,1.000000000000000048e-04,4.470671634192426325e+01,1.400000000000000133e-01
1.681131209999999987e+00,1.046558263000000100e+00,1.854851773907177925e-01,1.000000000000000048e-04,3.945177568234496590e+01,3.800000000000000044e-01
-2.147380102179586636e+00,7.248191320000000326e-01,1.470575306469372734e-01,1.000000000000000048e-04,3.927361532037784997e+01,2.200000000000000011e-01
-2.137481690179586558e+00,7.386978770000000027e-01,2.492403157708140693e-01,1.000000000000000048e-04,4.037039052937304717e+01,1.499999999999999944e-01
3.007533192999999994e+00,-1.006434849999999992e+00,3.205233857524030228e-01,1.000000000000000048e-04,4.117037620777067275e+01,1.700000000000000122e-01
6.766177190000000063e-01,-9.309161569999999664e-01,2.925605069004859615e-01,1.000000000000000048e-04,4.088597507916324503e+01,1.700000000000000122e-01
6.879719020000000240e-01,-9.170357009999999809e-01,3.297377268878123324e-01,1.000000000000000048e-04,4.111372392307963963e+01,2.600000000000000089e-01
6.868192690000000100e-01,-9.190749710000000183e-01,7.299160552484518227e-01,1.000000000000000048e-04,4.251335035682073737e+01,2.800000000000000266e-01
1.680927606000000019e+00,1.043199457999999913e+00,4.696985560648316849e-01,1.000000000000000048e-04,4.221895352009294555e+01,1.799999999999999933e-01
1.680733408999999901e+00,1.046110547000000057e+00,6.010100596849332621e-01,1.000000000000000048e-04,4.279264712395148251e+01,1.499999999999999944e-01
3.003205794999999956e+00,-1.007960921000000010e+00,6.927756000918512402e-01,1.000000000000000048e-04,4.297420479406620331e+01,2.200000000000000011e-01
3.013387552999999830e+00,-1.018013843000000085e+00,6.528034281967927122e-01,1.000000000000000048e-04,4.334466532300524477e+01,2.000000000000000111e-01
2.991633154000000072e+00,-1.018575491000000000e+00,4.416362731835170585e-01,1.000000000000000048e-04,4.195475204342633191e+01,1.600000000000000033e-01
6.810583510000000063e-01,-9.216344210000000370e-01,4.236018523102524913e-01,1.000000000000000048e-04,4.201703473253544274e+01,1.600000000000000033e-01
1.670069762000000013e+00,1.048284639000000018e+00,3.600951866080679409e-01,1.000000000000000048e-04,4.131110151975274647e+01,2.099999999999999922e-01
1.699713636000000028e+00,1.040243690999999915e+00,1.538324618303938962e-01,1.000000000000000048e-04,3.915742635641178993e+01,2.899999999999999800e-01
1.686195045999999920e+00,1.048540513999999924e+00,6.506774030297590716e-01,1.000000000000000048e-04,4.308548962203892785e+01,1.400000000000000133e-01
1.667162669999999958e+00,1.044746053999999980e+00,5.370102628901802788e-01,1.000000000000000048e-04,4.200266773387750163e+01,2.700000000000000178e-01
1.689467040999999892e+00,1.036330184999999959e+00,4.108563332419234992e-01,1.000000000000000048e-04,4.161902807540928251e+01,1.300000000000000044e-01
1.683799076999999977e+00,1.043385784000000038e+00,1.632238250173678740e-01,1.000000000000000048e-04,3.945819058048124361e+01,1.700000000000000122e-01
-2.151455832179586025e+00,7.398983139999999459e-01,3.806339963766804946e-01,1.000000000000000048e-04,4.145659114133605527e+01,2.500000000000000000e-01
-2.141944958179585967e+00,7.302793560000000461e-01,1.359290609555199314e-01,1.000000000000000048e-04,3.873379520794127018e+01,1.400000000000000133e-01
3.012489310999999947e+00,-1.019874449000000016e+00,1.207094572831743928e-01,1.000000000000000048e-04,3.892861938135693833e+01,1.900000000000000022e-01
6.824463880000000149e-01,-9.193269539999999740e-01,5.516501924720433880e-01,1.000000000000000048e-04,4.257112506918732464e+01,1.600000000000000033e-01
6.933168330000000212e-01,-9.307474239999999899e-01,5.574159457817655650e-01,1.000000000000000048e-04,4.271012331793269112e+01,1.600000000000000033e-01
7.005346909999999871e-01,-9.247541049999999929e-01,1.771452280959184833e-01,1.000000000000000048e-04,3.945669464493321499e+01,2.700000000000000178e-01
1.674988617999999985e+00,1.042237757999999959e+00,5.988650974963827256e-01,1.000000000000000048e-04,4.246258761447637653e+01,1.499999999999999944e-01
1.672026148000000045e+00,1.039374368000000048e+00,5.193420531125902961e-01,1.000000000000000048e-04,4.233082597735091213e+01,1.600000000000000033e-01
2.993618983999999816e+00,-1.008517228000000099e+00,1.552061514654390351e-01,1.000000000000000048e-04,3.931040201246879207e+01,1.700000000000000122e-01
2.992837709999999873e+00,-1.014889098000000045e+00,3.325682222198138582e-01,1.000000000000000048e-04,4.119833240004985697e+01,2.800000000000000266e-01
2.980621672999999916e+00,-1.012535224000000067e+00,2.336606962702025836e-01,1.000000000000000048e-04,4.019509755413674412e+01,1.499999999999999944e-01
3.118379398000000080e+00,-1.044341935000000055e+00,2.033310078004353372e-01,1.000000000000000048e-04,3.984869705804396744e+01,3.099999999999999978e-01
3.132904315000000217e+00,-1.046896950999999909e+00,4.810863355546957099e-01,1.000000000000000048e-04,4.227867148307979761e+01,2.200000000000000011e-01
1.248659997999999938e+00,-1.117162079000000086e+00,2.544452721112000493e-01,1.000000000000000048e-04,4.041513754315646878e+01,2.700000000000000178e-01
2.302446713000000145e+00,-1.091359299000000060e+00,6.252188411952890323e-01,1.000000000000000048e-04,4.275490825150069440e+01,2.899999999999999800e-01
3.133486173000000097e+00,-1.061461677999999909e+00,1.390334051249439984e-01,1.000000000000000048e-04,3.894986688266290997e+01,3.099999999999999978e-01
1.251013366000000016e+00,-1.102704651999999896e+00,4.883208864934271975e-01,1.000000000000000048e-04,4.244714993166257955e+01,2.300000000000000100e-01
1.232341668999999973e+00,-1.105349812000000043e+00,1.500282504633132508e-01,1.000000000000000048e-04,3.911904724507891729e+01,2.200000000000000011e-01
2.330538756999999794e+00,-1.086213730999999960e+00,1.240958461740930829e-01,1.000000000000000048e-04,3.861994256904603873e+01,2.300000000000000100e-01
3.104372880000000112e+00,-1.050765708999999992e+00,2.405811264735888688e-01,1.000000000000000048e-04,4.034253021796427419e+01,2.200000000000000011e-01
3.122794933000000217e+00,-1.050942575000000101e+00,5.492805529759507976e-01,1.000000000000000048e-04,4.272795180124072800e+01,2.099999999999999922e-01
3.135928428000000157e+00,-1.044986675000000087e+00,1.280292100052872861e+00,1.000000000000000048e-04,4.489885518391965036e+01,2.300000000000000100e-01
3.135701593999999925e+00,-1.049448040999999998e+00,4.916693273907699613e-01,1.000000000000000048e-04,4.189238119882873690e+01,2.399999999999999911e-01
2.902190216000000156e+00,-1.054666754000000095e+00,7.787344755519127748e-01,1.000000000000000048e-04,4.310192665612399310e+01,2.099999999999999922e-01
1.219278212000000083e+00,-1.102494101000000004e+00,7.537092133721174925e-01,1.000000000000000048e-04,4.335408235394159959e+01,2.399999999999999911e-01
2.314258420999999899e+00,-1.073777474999999981e+00,4.176648420077988533e-01,1.000000000000000048e-04,4.181493365689306074e+01,2.399999999999999911e-01
3.138600745000000192e+00,-1.056209613999999908e+00,2.561584315455669447e-01,1.000000000000000048e-04,4.063680169468813119e+01,2.800000000000000266e-01
2.873014373000000177e+00,-1.047336534999999902e+00,2.262236480265247263e-01,1.000000000000000048e-04,4.004292491389640674e+01,2.000000000000000111e-01
2.890150627000000139e+00,-1.045368942999999939e+00,2.841570056359115082e-01,1.000000000000000048e-04,4.118111648119903379e+01,2.200000000000000011e-01
-3.136513490179586139e+00,-1.038988312000000080e+00,1.738977229604554697e-01,1.000000000000000048e-04,3.961277772492682203e+01,2.800000000000000266e-01
3.120369102000000172e+00,-1.042910143999999928e+00,6.217133236985332712e-01,1.000000000000000048e-04,4.272111518300360444e+01,2.399999999999999911e-01
3.132773262000000170e+00,-1.048570620000000009e+00,7.877934189550566124e-01,1.000000000000000048e-04,4.354420089236144520e+01,2.300000000000000100e-01
3.132934141999999866e+00,-1.046888051000000042e+00,3.330546803600724637e-01,1.000000000000000048e-04,4.134624103198400746e+01,2.200000000000000011e-01
3.134455274000000014e+00,-1.046257098000000108e+00,2.540374099528217577e-01,1.000000000000000048e-04,4.027725963032559520e+01,2.200000000000000011e-01
2.910504301000000016e+00,-1.063930792999999930e+00,3.414878989655074637e-01,1.000000000000000048e-04,4.103248670829464828e+01,2.399999999999999911e-01
2.301930878999999930e+00,-1.084305269999999988e+00,6.154303459294945267e-01,1.000000000000000048e-04,4.265935669725406854e+01,3.099999999999999978e-01
2.314913878000000036e+00,-1.104421796000000011e+00,3.229771274916439783e-01,1.000000000000000048e-04,4.115035168787853337e+01,2.600000000000000089e-01
1.232494258000000009e+00,-1.089556776000000005e+00,4.974677976554657821e-01,1.000000000000000048e-04,4.242626831790359176e+01,3.099999999999999978e-01
-3.138875270179586341e+00,-1.027091259999999950e+00,8.835107380348201644e-01,1.000000000000000048e-04,4.406650612872190464e+01,3.800000000000000044e-01
1.277748142000000087e+00,-1.105660628999999950e+00,1.391712472233603837e-01,1.000000000000000048e-04,3.938496590153918220e+01,2.500000000000000000e-01
2.339694710999999927e+00,-1.083680948999999893e+00,6.815144816893941027e-01,1.000000000000000048e-04,4.290679964141539671e+01,2.300000000000000100e-01
3.085408954000000037e+00,-1.045989441999999991e+00,4.455494181472410276e-01,1.000000000000000048e-04,4.238502005816670248e+01,2.800000000000000266e-01
3.122183823999999941e+00,-1.053540683000000033e+00,5.213568318876644625e-01,1.000000000000000048e-04,4.290512685711033924e+01,3.699999999999999956e-01
1.263417701000000060e+00,-1.099941301000000093e+00,5.725329947707566980e-01,1.000000000000000048e-04,4.294019608293482548e+01,2.200000000000000011e-01
1.238769020999999970e+00,-1.122513239999999968e+00,2.799421585080135166e-01,1.000000000000000048e-04,4.088314428424038738e+01,2.600000000000000089e-01
1.225778744000000087e+00,-1.107856694000000086e+00,8.601690820280198935e-01,1.000000000000000048e-04,4.405255979749352235e+01,2.500000000000000000e-01
2.356185176999999964e+00,-1.090954028000000076e+00,1.504380335686485992e-01,1.000000000000000048e-04,3.965333440105177942e+01,2.700000000000000178e-01
1.231078855000000027e+00,-1.109460918999999990e+00,1.958101028115146747e-01,1.000000000000000048e-04,4.025337370584480112e+01,2.300000000000000100e-01
2.350025410999999842e+00,-1.078254897999999962e+00,8.398838125474417104e-01,1.000000000000000048e-04,4.349586908795724582e+01,2.300000000000000100e-01
2.889344674999999807e+00,-1.054064458000000037e+00,6.919217778468214064e-01,1.000000000000000048e-04,4.337481158029650885e+01,3.200000000000000067e-01
1.260972444000000081e+00,-1.102168519999999985e+00,2.571226006917239904e-01,1.000000000000000048e-04,4.028398498326544797e+01,2.899999999999999800e-01
3.138597202000000141e+00,-1.049455424000000026e+00,2.723489700566339433e-01,1.000000000000000048e-04,4.098146213158381812e+01,2.600000000000000089e-01
1.280173519000000093e+00,-1.106045986000000036e+00,9.659056230005536037e-01,1.000000000000000048e-04,4.344192439309568243e+01,2.899999999999999800e-01
3.140421104000000074e+00,-1.048273016000000002e+00,6.908462452545174326e-01,1.000000000000000048e-04,4.281446145163815231e+01,2.700000000000000178e-01
2.887571490000000018e+00,-1.060290981000000077e+00,7.768776109527981699e-01,1.000000000000000048e-04,4.335444052186959141e+01,2.300000000000000100e-01
3.117377486000000086e+00,-1.048849812999999909e+00,1.553585450604444418e-01,1.000000000000000048e-04,3.952877691478710176e+01,2.800000000000000266e-01
3.139331405000000075e+00,-1.045946368000000071e+00,1.057436951635861710e+00,1.000000000000000048e-04,4.452553565653056467e+01,2.300000000000000100e-01
2.901812189000000153e+00,-1.070407117000000019e+00,6.357611397776201656e-01,1.000000000000000048e-04,4.302572662840718465e+01,2.200000000000000011e-01
2.874698792999999863e+00,-1.069280417999999955e+00,2.565611581043221179e-01,1.000000000000000048e-04,4.085053033590924798e+01,2.200000000000000011e-01
3.126790450000000110e+00,-1.053686536000000062e+00,4.382561941431344366e-01,1.000000000000000048e-04,4.183906177135538940e+01,2.099999999999999922e-01
1.253234667999999941e+00,-1.096167120000000050e+00,7.123040380324248133e-01,1.000000000000000048e-04,4.308183191028112446e+01,2.200000000000000011e-01
1.242189800000000011e+00,-1.095888138000000067e+00,1.598159515217405513e-01,1.000000000000000048e-04,3.968227749147781225e+01,2.899999999999999800e-01
2.358704259000000025e+00,-1.096119858000000002e+00,2.206419520096509768e-01,1.000000000000000048e-04,4.026328068391117654e+01,2.099999999999999922e-01
3.090657074000000115e+00,-1.046905049999999893e+00,6.560578471910225584e-01,1.000000000000000048e-04,4.318639843231527209e+01,2.300000000000000100e-01
2.350320292999999783e+00,-1.077642637000000070e+00,3.147485923650232831e-01,1.000000000000000048e-04,4.050961681021669847e+01,3.300000000000000155e-01
3.120911620999999858e+00,-1.047605429999999949e+00,3.846507941451924317e-01,1.000000000000000048e-04,4.191879441879515156e+01,2.899999999999999800e-01
2.310418793000000193e+00,-1.091478047999999923e+00,5.823812260741554336e-01,1.000000000000000048e-04,4.264623851395113263e+01,3.300000000000000155e-01
2.888242410000000149e+00,-1.055260810999999910e+00,7.072092140035075580e-01,1.000000000000000048e-04,4.337934560123841976e+01,2.999999999999999889e-01
2.313880778000000138e+00,-1.089056457000000089e+00,1.974802855949129299e-01,1.000000000000000048e-04,3.948837713840159580e+01,2.600000000000000089e-01
3.096505394999999883e+00,-1.050897790999999915e+00,7.535513081865168328e-01,1.000000000000000048e-04,4.382173637925983911e+01,3.300000000000000155e-01
1.264206060000000020e+00,-1.108314516000000083e+00,6.987243951597414959e-01,1.000000000000000048e-04,4.335939722558168796e+01,2.500000000000000000e-01
2.317080779999999951e+00,-1.080569537999999996e+00,6.184984570048472907e-01,1.000000000000000048e-04,4.333426549491402824e+01,2.399999999999999911e-01
2.308161032000000112e+00,-1.080284865999999955e+00,3.355133403940959713e-01,1.000000000000000048e-04,4.152766396921539638e+01,3.900000000000000133e-01
1.213089824000000094e+00,-1.095999417000000031e+00,2.797594064611201858e-01,1.000000000000000048e-04,4.124291219480323889e+01,2.700000000000000178e-01
3.095344697999999894e+00,-1.044259242999999948e+00,5.038005527196096622e-01,1.000000000000000048e-04,4.216901554517849604e+01,2.200000000000000011e-01
3.093500166000000107e+00,-1.047656949999999920e+00,6.717874388934099716e-01,1.000000000000000048e-04,4.264050803990451755e+01,2.300000000000000100e-01
2.871266652000000086e+00,-1.064917746999999970e+00,5.420855390580590072e-01,1.000000000000000048e-04,4.273793914913608205e+01,2.500000000000000000e-01
2.872879009000000039e+00,-1.076645507999999918e+00,6.421842157447950061e-01,1.000000000000000048e-04,4.329291928271815237e+01,2.099999999999999922e-01
1.241294699000000001e+00,-1.109043570000000090e+00,7.018229763842460667e-01,1.000000000000000048e-04,4.326253045060762759e+01,2.099999999999999922e-01
1.238788393000000099e+00,-1.083197141000000085e+00,1.036349712937746581e+00,1.000000000000000048e-04,4.438937833683088030e+01,2.999999999999999889e-01
-3.140928712179586135e+00,-1.049943351000000025e+00,1.244010232243874636e+00,1.000000000000000048e-04,4.447635574790307800e+01,2.200000000000000011e-01
2.897074545000000168e+00,-1.050668165000000043e+00,5.534418385343649049e-01,1.000000000000000048e-04,4.274282916136289856e+01,2.099999999999999922e-01
3.133488720999999977e+00,-1.053899826000000095e+00,5.244816619063352725e-01,1.000000000000000048e-04,4.244980629907756509e+01,2.300000000000000100e-01
2.854965548000000020e+00,-1.051119023000000041e+00,2.397573987441345977e-01,1.000000000000000048e-04,4.034966504790001807e+01,3.200000000000000067e-01
2.846666281000000076e+00,-1.061494909000000098e+00,4.670331702270928975e-01,1.000000000000000048e-04,4.256331181531394492e+01,2.600000000000000089e-01
1.477625364000000108e+00,-9.892628350000000070e-01,6.318346658468001475e-01,1.000000000000000048e-04,4.290212170010630643e+01,2.000000000000000111e-01
-2.998301261179586064e+00,-5.567642400000000213e-01,2.312946190295745996e-01,1.000000000000000048e-04,4.057427278828693318e+01,1.799999999999999933e-01
2.915910107000000195e+00,-9.248875840000000403e-01,1.015475473429157116e+00,1.000000000000000048e-04,4.447436922744762455e+01,2.999999999999999889e-01
2.904218159000000021e+00,-9.279150130000000107e-01,7.342129923371951694e-01,1.000000000000000048e-04,4.308034681888791795e+01,2.399999999999999911e-01
2.945746643000000109e+00,-9.241091030000000428e-01,4.339922636604964801e-01,1.000000000000000048e-04,4.186695966140950276e+01,2.300000000000000100e-01
2.195221751000000054e+00,9.567984520000000215e-01,2.123667034073986049e-01,1.000000000000000048e-04,3.983906419432925361e+01,2.200000000000000011e-01
-2.382074272179586227e+00,-9.504311730000000180e-01,2.406141309725393640e-01,1.000000000000000048e-04,4.042603012645586347e+01,2.300000000000000100e-01
2.197803225999999999e+00,9.560313849999999558e-01,9.414718992024175837e-01,1.000000000000000048e-04,4.398094662416247047e+01,2.300000000000000100e-01
-2.380846050179586282e+00,-9.512843520000000552e-01,2.098783463273163896e-01,1.000000000000000048e-04,3.965651001098720485e+01,2.600000000000000089e-01
-2.382960995179586039e+00,-9.501026420000000527e-01,6.029416591497565037e-01,1.000000000000000048e-04,4.279834327231729674e+01,2.099999999999999922e-01
2.192165822000000208e+00,9.554729659999999791e-01,3.147271046913333592e-01,1.000000000000000048e-04,4.128688589339876103e+01,2.899999999999999800e-01
-2.383512939179586176e+00,-9.505219620000000535e-01,2.122579381448994607e-01,1.000000000000000048e-04,4.027703917141965206e+01,2.000000000000000111e-01
2.197044292000000176e+00,9.582492320000000063e-01,3.167042945796352260e-01,1.000000000000000048e-04,4.116951072227149666e+01,2.500000000000000000e-01
2.198013217999999824e+00,9.570721989999999568e-01,1.645155270348586107e-01,1.000000000000000048e-04,3.944108487223760307e+01,2.099999999999999922e-01
2.198391541999999976e+00,9.561199929999999458e-01,3.377635712939492940e-01,1.000000000000000048e-04,4.136699745699096553e+01,2.300000000000000100e-01
2.199218732999999926e+00,9.570277640000000030e-01,2.327676942826750750e-01,1.000000000000000048e-04,4.048798719753510511e+01,2.200000000000000011e-01
2.196667974999999995e+00,9.569524729999999701e-01,7.940143237138710397e-01,1.000000000000000048e-04,4.329923327274541123e+01,2.399999999999999911e-01
2.196400267000000017e+00,9.571105250000000453e-01,1.706293518413279919e-01,1.000000000000000048e-04,3.957287683161703029e+01,2.500000000000000000e-01
2.195980999000000100e+00,9.563170869999999546e-01,4.974515066629103810e-01,1.000000000000000048e-04,4.240839379977320078e+01,2.200000000000000011e-01
2.198886345000000020e+00,9.574225640000000315e-01,9.965620786553139876e-01,1.000000000000000048e-04,4.432789396849021557e+01,3.300000000000000155e-01
-2.382942164179586264e+00,-9.487821469999999646e-01,1.747402095150460966e-01,1.000000000000000048e-04,3.963205910015579292e+01,2.000000000000000111e-01
2.197058621000000045e+00,9.568337070000000333e-01,2.029197741115960074e-01,1.000000000000000048e-04,3.978976410215722126e+01,2.600000000000000089e-01
2.196754174000000059e+00,9.569828230000000380e-01,3.179059612685950498e-01,1.000000000000000048e-04,4.149329217260797975e+01,2.399999999999999911e-01
-2.381905888179586039e+00,-9.494029419999999719e-01,8.502392029535303930e-01,1.000000000000000048e-04,4.374315170144875253e+01,2.399999999999999911e-01
-2.382353656179586388e+00,-9.501919130000000546e-01,1.307946169424782923e-01,1.000000000000000048e-04,3.888060130561460426e+01,2.600000000000000089e-01
-2.385313647179586383e+00,-9.492824659999999914e-01,5.060524844308442738e-01,1.000000000000000048e-04,4.219119828978764986e+01,2.399999999999999911e-01
-2.383308463179586223e+00,-9.502672559999999491e-01,3.657870658873354497e-01,1.000000000000000048e-04,4.151035004063281519e+01,2.000000000000000111e-01
2.194446376000000143e+00,9.548028840000000184e-01,8.306762398967753036e-01,1.000000000000000048e-04,4.307411226791615633e+01,3.699999999999999956e-01
-2.377678389179586294e+00,-9.493284189999999789e-01,9.937646366626822214e-01,1.000000000000000048e-04,4.456475124576859770e+01,3.099999999999999978e-01
2.195048706000000127e+00,9.553664520000000326e-01,6.517635692738146247e-01,1.000000000000000048e-04,4.341128092422757589e+01,2.399999999999999911e-01
2.194988459000000169e+00,9.569281090000000267e-01,3.703824764827818861e-01,1.000000000000000048e-04,4.130031786625701784e+01,2.099999999999999922e-01
2.198773670000000013e+00,9.585742720000000050e-01,3.783682114687514364e-01,1.000000000000000048e-04,4.154487958471174380e+01,2.800000000000000266e-01
2.196007632000000154e+00,9.574002940000000406e-01,3.850100752517520153e-01,1.000000000000000048e-04,4.134083224548794533e+01,2.800000000000000266e-01
2.193610842000000005e+00,9.569156829999999614e-01,2.392586207853673042e-01,1.000000000000000048e-04,4.024055469374327743e+01,2.099999999999999922e-01
2.194846306000000080e+00,9.574700699999999509e-01,5.100238147678417544e-01,1.000000000000000048e-04,4.216185205946474923e+01,2.300000000000000100e-01
-2.901318991795864832e-01,1.086903570000000041e+00,1.717694291316409494e-01,1.000000000000000048e-04,3.945460911764308776e+01,2.000000000000000111e-01
-2.914486071795865385e-01,1.085909494999999891e+00,1.936908316549299514e-01,1.000000000000000048e-04,3.973097703892830168e+01,1.000000000000000056e-01
-2.954610881795858290e-01,1.084462065999999947e+00,2.471005702776085666e-01,1.000000000000000048e-04,4.021794194125367738e+01,1.199999999999999956e-01
-3.403197011795864313e-01,1.090760651000000081e+00,2.737611436283071686e-01,1.000000000000000048e-04,4.080331554322564358e+01,8.999999999999999667e-02
-3.429455761795860980e-01,1.087892671000000089e+00,3.845165912698111921e-01,1.000000000000000048e-04,4.177079451443304947e+01,1.400000000000000133e-01
6.896152909999999636e-01,-9.249195220000000495e-01,1.306684783181277787e-01,1.000000000000000048e-04,3.895628067025390351e+01,2.000000000000000111e-01
1.024453132999999960e+00,1.182715689999999986e+00,3.522361928107804463e-01,1.000000000000000048e-04,4.146982806343541483e+01,1.900000000000000022e-01
1.006083177000000051e+00,1.165244638999999971e+00,4.592112051480625734e-01,1.000000000000000048e-04,4.209783835297358934e+01,1.700000000000000122e-01
9.905969959999999519e-01,1.153001898999999941e+00,1.527884978009994565e-01,1.000000000000000048e-04,3.856835969469790371e+01,3.499999999999999778e-01
2.950804928999999799e+00,-1.010655210999999998e+00,8.849724682163604417e-01,1.000000000000000048e-04,4.357926899039111390e+01,1.700000000000000122e-01
2.951637304000000128e+00,-1.010683065999999908e+00,5.234621824368350662e-01,1.000000000000000048e-04,4.255643291091254810e+01,1.900000000000000022e-01
-2.349248843179586377e+00,-9.322901449999999590e-01,3.516033056115368538e-01,1.000000000000000048e-04,4.147497490841276147e+01,1.900000000000000022e-01
