-1.598279621179586663e+00,2.779993629999999993e-01,5.674338296890812927e-01,1.000000000000000048e-04,4.246902054909469371e+01,1.700000000000000122e-01
-8.306753881795865269e-01,5.048130450000000158e-01,2.106203268249364768e-01,1.000000000000000048e-04,4.000144126281637114e+01,1.600000000000000033e-01
-1.512887194179586281e+00,3.571169940000000209e-01,1.206871407761764825e-01,1.000000000000000048e-04,3.887103214037333032e+01,1.600000000000000033e-01
-2.094054222179586588e+00,-9.657747650000000350e-01,2.640297659961050591e-01,1.000000000000000048e-04,4.078438093578801471e+01,1.600000000000000033e-01
-1.256550916179586252e+00,-1.037146153999999987e+00,3.543668800027734989e-01,1.000000000000000048e-04,4.126491207770190073e+01,1.900000000000000022e-01
-2.638489419179586015e+00,-8.917870300000000361e-01,9.503422263571792428e-02,1.000000000000000048e-04,3.835511844880052479e+01,1.600000000000000033e-01
-1.710562538179586589e+00,-1.402302595000000096e+00,2.404114226895806006e-01,1.000000000000000048e-04,4.055987951791325230e+01,2.000000000000000111e-01
-2.771840681795865180e-01,-1.115655276000000029e+00,4.000139355704834809e-01,1.000000000000000048e-04,4.195241505210459110e+01,1.700000000000000122e-01
-1.608432286179586335e+00,-6.514894359999999773e-01,1.184077546068448505e+00,1.000000000000000048e-04,4.456042897959186888e+01,1.600000000000000033e-01
-1.490451089179586575e+00,-3.201959389999999850e-01,6.655507916590850392e-01,1.000000000000000048e-04,4.318544675018387835e+01,1.700000000000000122e-01
-1.995144670179586299e+00,-1.040863893000000040e+00,5.164052121827920061e-01,1.000000000000000048e-04,4.231292960094496891e+01,1.799999999999999933e-01
3.095686500000000008e-02,-1.139960520999999893e+00,4.724607284422259745e-01,1.000000000000000048e-04,4.226495983517632737e+01,1.700000000000000122e-01
-2.211919791795864398e-01,-6.717550429999999961e-01,6.180083313857291927e-01,1.000000000000000048e-04,4.263734908643922239e+01,2.200000000000000011e-01
-8.294029241795861651e-01,6.699244909999999553e-01,2.329733704774041847e-01,1.000000000000000048e-04,3.993748738399006726e+01,1.799999999999999933e-01
-4.765590681795863759e-01,-7.328014390000000544e-01,7.348315791468982283e-01,1.000000000000000048e-04,4.343909572539949693e+01,1.600000000000000033e-01
-1.123871723179585835e+00,1.275958498999999913e+00,4.948400901163201304e-01,1.000000000000000048e-04,4.208123021460060897e+01,1.900000000000000022e-01
-5.094723721795864080e-01,-7.371415260000000469e-01,3.285071426329755351e-01,1.000000000000000048e-04,4.135957811827248776e+01,1.600000000000000033e-01
6.571342580000000266e-01,4.949370419999999937e-01,6.375807794432675202e-01,1.000000000000000048e-04,4.307833965397349374e+01,1.700000000000000122e-01
-1.010588552179585875e+00,4.063959939999999826e-01,3.430401381640706404e-01,1.000000000000000048e-04,4.116813573737740484e+01,1.400000000000000133e-01
-5.300352171795861267e-01,-4.198024320000000031e-01,2.177767208768237595e-01,1.000000000000000048e-04,4.010564039302163764e+01,1.499999999999999944e-01
-3.959305511795863097e-01,-4.514385590000000170e-01,5.719096818388664794e-01,1.000000000000000048e-04,4.233268910442272670e+01,1.600000000000000033e-01
-1.302326638179586382e+00,4.891699640000000127e-01,2.857312955755184625e-01,1.000000000000000048e-04,4.083562366032470692e+01,8.999999999999999667e-02
-8.169037861795862554e-01,4.857709299999999897e-01,1.671539045099017518e-01,1.000000000000000048e-04,3.947295360636287143e+01,1.000000000000000056e-01
-1.156602994179586119e+00,7.039336720000000103e-01,3.488208059421165075e-01,1.000000000000000048e-04,4.129657421264073491e+01,1.100000000000000006e-01
2.500120207999999788e+00,-3.403989430000000094e-01,7.044992690006250946e-01,1.000000000000000048e-04,4.325040551127540311e+01,1.100000000000000006e-01
2.397122115999999803e+00,-8.283729720000000407e-01,5.212002399094513017e-01,1.000000000000000048e-04,4.225495415057484649e+01,1.700000000000000122e-01
-4.391142381795862804e-01,9.199097720000000145e-01,2.339933443022754744e-01,1.000000000000000048e-04,4.039166693706147271e+01,2.200000000000000011e-01
-1.356814123179586495e+00,1.335301293999999972e+00,6.968716448834082478e-01,1.000000000000000048e-04,4.339081382403993103e+01,2.600000000000000089e-01
2.612804049999999823e+00,3.003891830000000041e-01,8.034543383986711973e-01,1.000000000000000048e-04,4.358634283854011215e+01,1.700000000000000122e-01
-1.192441121179586005e+00,1.100105410000000061e+00,6.587072661371800031e-01,1.000000000000000048e-04,4.276016230211948965e+01,1.799999999999999933e-01
-3.012917491179586182e+00,1.485957493999999990e+00,1.337939184551797389e-01,1.000000000000000048e-04,3.900396110996594246e+01,2.200000000000000011e-01
-7.329138461795858817e-01,1.044356909000000000e+00,1.227036170572957108e-01,1.000000000000000048e-04,3.883239901423352336e+01,1.700000000000000122e-01
1.024371087000000013e+00,-9.607604419999999923e-01,4.868533409398527745e-01,1.000000000000000048e-04,4.229532321738738432e+01,1.600000000000000033e-01
2.960998206000000188e+00,-8.548671270000000044e-01,1.940095251381002139e-01,1.000000000000000048e-04,3.988465721911276063e+01,1.900000000000000022e-01
-3.017579355179586198e+00,-3.780387199999999948e-01,4.246773126027574286e-01,1.000000000000000048e-04,4.144067639482889120e+01,2.399999999999999911e-01
-2.268575282179586594e+00,6.921453520000000470e-01,3.351681479829000665e-01,1.000000000000000048e-04,4.086891999814752552e+01,3.699999999999999956e-01
2.478186394000000181e+00,5.281495040000000474e-01,1.001284407830981493e+00,1.000000000000000048e-04,4.376664929330655696e+01,2.399999999999999911e-01
7.532392530000000530e-01,9.936355940000000109e-01,1.466283314285166117e-01,1.000000000000000048e-04,3.913756924255036296e+01,1.600000000000000033e-01
1.941716173999999961e+00,9.578325640000000529e-01,2.657830117342281362e-01,1.000000000000000048e-04,4.072322265072013892e+01,3.800000000000000044e-01
2.041827891000000061e+00,-8.953703119999999460e-01,4.712529005920798042e-01,1.000000000000000048e-04,4.259937792922133326e+01,1.700000000000000122e-01
2.521229080999999983e+00,-8.544186950000000058e-01,1.996332578711050854e-01,1.000000000000000048e-04,3.959368994990945367e+01,2.000000000000000111e-01
2.745955969000000163e+00,3.136627880000000257e-01,2.488094290250668639e-01,1.000000000000000048e-04,4.021434495772039952e+01,2.099999999999999922e-01
1.738295793999999894e+00,1.134430556000000090e+00,3.456065109006076774e-01,1.000000000000000048e-04,4.113781478298976424e+01,1.799999999999999933e-01
-8.687814521795864664e-01,6.221710379999999541e-01,6.547271193939645517e-01,1.000000000000000048e-04,4.273699765681758578e+01,3.499999999999999778e-01
-1.857013858179586308e+00,3.937075449999999921e-01,9.920550446134392963e-01,1.000000000000000048e-04,4.410988167872134369e+01,2.999999999999999889e-01
-2.894431473179586156e+00,2.701405689999999971e-01,1.260187614134534506e+00,1.000000000000000048e-04,4.503570077503897551e+01,2.300000000000000100e-01
2.213600608000000136e+00,-5.295933369999999973e-01,1.974857401928822309e-01,1.000000000000000048e-04,3.924813617244205233e+01,2.500000000000000000e-01
9.327636729999999599e-01,4.069681829999999834e-01,4.612460952057075847e-01,1.000000000000000048e-04,4.200122085220414903e+01,2.300000000000000100e-01
1.743234563999999986e+00,7.359057650000000450e-01,7.176799665788848870e-01,1.000000000000000048e-04,4.317249113487462608e+01,2.200000000000000011e-01
-2.812965047179586175e+00,5.929882829999999494e-01,9.508808984034287093e-01,1.000000000000000048e-04,4.447933385154173180e+01,2.399999999999999911e-01
-2.977583888179586413e+00,-1.437144969999999966e-01,4.468341578140537784e-01,1.000000000000000048e-04,4.208135892727484872e+01,2.700000000000000178e-01
2.276564226000000080e+00,-5.051809499999999620e-01,2.163373112988344893e-01,1.000000000000000048e-04,4.031292071062613758e+01,2.800000000000000266e-01
2.667465888000000174e+00,-6.260506340000000502e-01,2.832704264958323392e-01,1.000000000000000048e-04,4.024259596368920455e+01,2.600000000000000089e-01
1.041358068000000081e+00,8.506585119999999778e-01,2.260073247397547114e-01,1.000000000000000048e-04,3.996435348299206680e+01,2.300000000000000100e-01
2.499030525999999863e+00,-9.629979760000000333e-01,1.730848950301946410e-01,1.000000000000000048e-04,3.980873355524830970e+01,3.099999999999999978e-01
1.334501084000000004e+00,-7.340646360000000481e-01,3.551534381663432605e-01,1.000000000000000048e-04,4.105923095133240253e+01,2.300000000000000100e-01
2.196979751999999841e+00,-5.334639439999999677e-01,3.548787921133262913e-01,1.000000000000000048e-04,4.113046034017383334e+01,2.500000000000000000e-01
1.355624495999999901e+00,4.654212710000000253e-01,4.018498858156287490e-01,1.000000000000000048e-04,4.235126088603958294e+01,2.200000000000000011e-01
1.445572062999999963e+00,-8.838676049999999451e-01,8.379710992425670746e-02,1.000000000000000048e-04,3.801265931457501068e+01,3.499999999999999778e-01
7.246286520000000397e-01,-7.843460709999999780e-01,4.042139423735728876e-01,1.000000000000000048e-04,4.137447950590310342e+01,3.099999999999999978e-01
2.179180484000000195e+00,1.312341798999999920e+00,2.823854037965531916e-01,1.000000000000000048e-04,4.082937597524721696e+01,2.200000000000000011e-01
7.669035910000000511e-01,2.329377750000000136e-01,1.436570114146331623e-01,1.000000000000000048e-04,3.870969307494102907e+01,2.500000000000000000e-01
2.984436029999999906e+00,4.410184999999999800e-01,8.525945229365241573e-01,1.000000000000000048e-04,4.359303086870455957e+01,2.999999999999999889e-01
1.808380389999999949e+00,-5.931087419999999666e-01,4.326405345515500489e-01,1.000000000000000048e-04,4.194485032104769573e+01,2.200000000000000011e-01
2.378694356000000010e+00,6.891218140000000547e-01,3.033945878137098706e-01,1.000000000000000048e-04,4.079380132015629812e+01,3.099999999999999978e-01
-1.027171309179585990e+00,8.938185499999999895e-01,8.263046925257575559e-01,1.000000000000000048e-04,4.348101723855473466e+01,3.099999999999999978e-01
2.177629786999999872e+00,1.088514723000000073e+00,1.196918312558226560e+00,1.000000000000000048e-04,4.461469642147821446e+01,2.500000000000000000e-01
2.446904437000000154e+00,4.505237189999999892e-01,3.716554110394028054e-01,1.000000000000000048e-04,4.113346270612374411e+01,2.700000000000000178e-01
-2.745075452179586151e+00,5.290477460000000409e-01,1.700486876922757684e-01,1.000000000000000048e-04,3.943895638897905087e+01,1.600000000000000033e-01
3.470126559999999749e-01,6.971221490000000243e-01,7.057458221358547945e-01,1.000000000000000048e-04,4.363723983765729741e+01,2.399999999999999911e-01
-2.027672372179586624e+00,-3.494576850000000179e-01,4.557990858655198707e-01,1.000000000000000048e-04,4.200738030634609999e+01,8.999999999999999667e-02
-2.243457714179585949e+00,5.735296930000000071e-01,7.742616333306160392e-01,1.000000000000000048e-04,4.341734650694776576e+01,8.000000000000000167e-02
-1.741234469179586242e+00,8.281857209999999858e-01,1.347435056028498668e-01,1.000000000000000048e-04,3.906007853849239808e+01,1.000000000000000056e-01
-1.661352162179586145e+00,7.473004210000000480e-01,1.555108733125920573e-01,1.000000000000000048e-04,3.925124935376186386e+01,1.100000000000000006e-01
-1.046494641179585905e+00,9.839422859999999993e-01,4.605863340364315661e-01,1.000000000000000048e-04,4.201956661942439553e+01,1.600000000000000033e-01
-1.357076630179586019e+00,8.591991679999999576e-01,1.380565184626434405e-01,1.000000000000000048e-04,3.884441353638115402e+01,1.300000000000000044e-01
-1.489161381179585852e+00,8.733460579999999807e-01,5.016923325992816984e-01,1.000000000000000048e-04,4.231373594545840433e+01,8.999999999999999667e-02
2.602874990000000111e+00,9.865781270000000269e-01,2.795966454427976089e-01,1.000000000000000048e-04,4.123012681164511406e+01,2.099999999999999922e-01
6.278667869999999818e-01,1.201237362999999947e+00,8.779548771757239578e-02,1.000000000000000048e-04,3.798734233144105588e+01,1.799999999999999933e-01
1.901542252999999905e+00,5.984822429999999693e-01,4.501916403281149837e-01,1.000000000000000048e-04,4.172004163136851673e+01,1.700000000000000122e-01
9.102462569999999475e-01,3.833152009999999943e-01,8.676696888440549316e-02,1.000000000000000048e-04,3.782423955573791829e+01,2.200000000000000011e-01
4.621894529999999723e-01,4.355896570000000190e-01,1.847009527217995384e-01,1.000000000000000048e-04,3.975442947736447508e+01,2.399999999999999911e-01
1.731299603999999936e+00,-9.087058740000000245e-01,4.367073601769093649e-01,1.000000000000000048e-04,4.168129746488201448e+01,2.200000000000000011e-01
2.307708166999999921e+00,-3.555306579999999994e-01,1.811715135083500350e-01,1.000000000000000048e-04,3.966254591118653394e+01,1.700000000000000122e-01
2.284880370000000216e+00,-4.942566800000000038e-01,2.063528786748771715e-01,1.000000000000000048e-04,3.996442802994503296e+01,2.200000000000000011e-01
-2.729734007179586364e+00,-4.808223520000000084e-01,2.741670464218144421e-01,1.000000000000000048e-04,4.096016967994523839e+01,2.300000000000000100e-01
-2.728058296179586062e+00,8.181749999999999856e-01,5.432873876094579391e-01,1.000000000000000048e-04,4.255372384341940517e+01,2.200000000000000011e-01
1.539636916000000078e+00,-6.652033799999999830e-02,2.280892524057296367e-01,1.000000000000000048e-04,4.072142043567214387e+01,2.999999999999999889e-01
2.937620158000000092e+00,7.383732379999999873e-01,3.243756497267757943e-01,1.000000000000000048e-04,4.090666738031359984e+01,2.200000000000000011e-01
2.624384770999999894e+00,8.339422930000000012e-01,5.630926324254672544e-01,1.000000000000000048e-04,4.282313637884519153e+01,1.799999999999999933e-01
-2.594453966179586235e+00,1.052220571999999965e+00,1.384200505441095519e-01,1.000000000000000048e-04,3.919731054185192676e+01,1.900000000000000022e-01
-2.462277587179586114e+00,1.356652656000000068e+00,7.007245660280982946e-01,1.000000000000000048e-04,4.335361146631801432e+01,2.099999999999999922e-01
2.730654787000000194e+00,8.741146779999999783e-01,1.524539366823560727e-01,1.000000000000000048e-04,3.930381650809527372e+01,1.900000000000000022e-01
1.629450376000000089e+00,2.068732899999999875e-01,4.200267407687199306e-01,1.000000000000000048e-04,4.174299191840893997e+01,2.899999999999999800e-01
1.142160569999999958e-01,6.858846720000000285e-01,3.952472980245413936e-01,1.000000000000000048e-04,4.166355393173185462e+01,1.799999999999999933e-01
-4.383495451795864639e-01,9.198101690000000108e-01,2.578594080872598227e-01,1.000000000000000048e-04,4.045312354423645473e+01,2.600000000000000089e-01
1.001193188000000012e+00,8.013430529999999719e-01,4.649147260023034356e-01,1.000000000000000048e-04,4.190135512562460463e+01,1.799999999999999933e-01
-8.746654461795859703e-01,7.515327899999999506e-01,5.488586775548018881e-01,1.000000000000000048e-04,4.251237441212352053e+01,2.600000000000000089e-01
1.319662558000000097e+00,1.070340469999999933e-01,3.297089183533103984e-01,1.000000000000000048e-04,4.163969228155124824e+01,2.399999999999999911e-01
1.726021762000000015e+00,-6.377623550000000030e-01,5.780595922466043035e-01,1.000000000000000048e-04,4.275294650989180667e+01,2.600000000000000089e-01
-2.754219137179586330e+00,-9.277945709999999568e-01,5.870612110278661255e-01,1.000000000000000048e-04,4.211822799905343828e+01,3.699999999999999956e-01
1.691977534999999921e+00,1.434503057999999998e+00,2.837146290121208558e-01,1.000000000000000048e-04,4.056511465145664630e+01,2.099999999999999922e-01
8.272144390000000236e-01,-4.428667319999999852e-01,5.731402956398570225e-01,1.000000000000000048e-04,4.279872808104335036e+01,2.300000000000000100e-01
-2.185785446179585811e+00,4.040310730000000183e-01,1.054521099579484478e+00,1.000000000000000048e-04,4.398329828755532134e+01,1.799999999999999933e-01
2.680919170000000129e+00,5.929394510000000063e-01,3.427937832500045356e-01,1.000000000000000048e-04,4.133882603873040296e+01,1.799999999999999933e-01
2.468528393999999793e+00,-3.885411739999999892e-01,6.230142498142914320e-01,1.000000000000000048e-04,4.265797924330731661e+01,1.700000000000000122e-01
1.824819092000000031e+00,-9.187566499999999525e-01,1.978789526228543760e-01,1.000000000000000048e-04,3.943985933462910509e+01,2.099999999999999922e-01
2.252174823999999909e+00,-3.842870769999999769e-01,4.337965351524062374e-01,1.000000000000000048e-04,4.166701196998531742e+01,2.000000000000000111e-01
2.889947965000000174e+00,3.184077100000000105e-01,8.579854100412516171e-01,1.000000000000000048e-04,4.377038217038005286e+01,2.000000000000000111e-01
-2.666621499179586241e+00,1.790417820000000104e-01,3.017683174466294638e-01,1.000000000000000048e-04,4.097400188836012092e+01,1.900000000000000022e-01
2.353249148999999818e+00,9.653535600000000549e-01,1.275267796210138194e+00,1.000000000000000048e-04,4.477530576861860112e+01,1.799999999999999933e-01
1.765869402999999949e+00,9.288119630000000182e-01,3.483647948572323738e-01,1.000000000000000048e-04,4.090048716930680683e+01,3.599999999999999867e-01
2.011122450999999867e+00,-1.257182417000000108e+00,1.057955135918312362e+00,1.000000000000000048e-04,4.425976670788467260e+01,1.799999999999999933e-01
1.931340567999999980e+00,-5.991437729999999906e-01,1.312313850038837604e+00,1.000000000000000048e-04,4.460062965549371938e+01,2.000000000000000111e-01
2.835991935000000019e+00,-7.109363199999999550e-01,2.284671783576968096e-01,1.000000000000000048e-04,4.054114178469141194e+01,1.900000000000000022e-01
-2.852520529179586095e+00,8.667541789999999580e-01,1.477392992250388115e-01,1.000000000000000048e-04,3.915271810484367165e+01,1.799999999999999933e-01
-2.458251249179586040e+00,-2.796002539999999925e-01,5.840459266467110666e-01,1.000000000000000048e-04,4.304297709695956087e+01,3.300000000000000155e-01
1.596378985000000084e+00,5.944120290000000084e-01,3.530397670808973487e-01,1.000000000000000048e-04,4.158629523418181861e+01,1.900000000000000022e-01
-2.484014184179586415e+00,8.016642189999999557e-01,5.535612072463522715e-01,1.000000000000000048e-04,4.259353300873875980e+01,1.900000000000000022e-01
-2.431723812179586108e+00,1.223750555999999934e+00,5.522462674922066217e-01,1.000000000000000048e-04,4.236129421352475077e+01,1.700000000000000122e-01
-2.378598255179586118e+00,1.197731727999999940e+00,3.154808063208573987e-01,1.000000000000000048e-04,4.127727554923150421e+01,1.900000000000000022e-01
1.739429998000000088e+00,2.494783479999999887e-01,3.038579943292494256e-01,1.000000000000000048e-04,4.116932587184977876e+01,3.099999999999999978e-01
-2.377494960179586059e+00,9.562939099999999693e-01,1.017899301155344549e+00,1.000000000000000048e-04,4.409262232864583808e+01,1.799999999999999933e-01
-9.021677017958662503e-02,6.959221140000000361e-01,6.042167855094804363e-01,1.000000000000000048e-04,4.288211892328792629e+01,3.499999999999999778e-01
2.021336933000000169e+00,8.510789659999999923e-01,9.039681017251699480e-02,1.000000000000000048e-04,3.722972169797648689e+01,2.800000000000000266e-01
2.573899695999999793e+00,-5.247218830000000001e-01,1.395266815850340070e-01,1.000000000000000048e-04,3.909962839945082891e+01,1.700000000000000122e-01
2.346925623000000183e+00,-7.496726200000000118e-01,7.642249718337217335e-01,1.000000000000000048e-04,4.331644178780769039e+01,1.700000000000000122e-01
2.487812089999999809e+00,-1.095252646999999913e+00,1.547440914854751881e-01,1.000000000000000048e-04,3.939885136583542646e+01,1.600000000000000033e-01
2.543651012999999850e+00,-2.555195920000000176e-01,4.191777013229707194e-01,1.000000000000000048e-04,4.201779253176540863e+01,1.900000000000000022e-01
2.457771880000000131e+00,-4.383329890000000062e-01,2.641075351302712981e-01,1.000000000000000048e-04,4.075812721009744877e+01,1.700000000000000122e-01
-2.749033603179586116e+00,5.277091179999999770e-01,1.140464391213535933e-01,1.000000000000000048e-04,3.861949419274102979e+01,1.799999999999999933e-01
-3.021446786179586397e+00,6.716344440000000526e-01,2.421942238822856197e-01,1.000000000000000048e-04,4.063840910429452435e+01,1.799999999999999933e-01
2.390319493999999878e+00,1.427533710000000067e+00,5.027157760887019933e-01,1.000000000000000048e-04,4.247315970897710002e+01,1.799999999999999933e-01
-2.060955814179585843e+00,9.020563839999999889e-01,4.950149331321900270e-01,1.000000000000000048e-04,4.220225431025792773e+01,1.799999999999999933e-01
-1.552222439179586466e+00,1.270289940999999923e+00,1.959249520104893172e-01,1.000000000000000048e-04,3.987519633536182795e+01,1.600000000000000033e-01
2.491619029000000207e+00,8.136863199999999630e-01,4.550196087147198032e-01,1.000000000000000048e-04,4.215184351494337989e+01,1.900000000000000022e-01
2.336721559999999975e+00,1.049041915000000103e+00,5.330811540919657698e-01,1.000000000000000048e-04,4.248843478915092930e+01,1.700000000000000122e-01
1.201678150000000000e+00,3.331923239999999842e-01,5.885793389781603935e-01,1.000000000000000048e-04,4.263085213979287857e+01,1.900000000000000022e-01
-3.811893421795859993e-01,1.284308205000000092e+00,5.041281822951906300e-01,1.000000000000000048e-04,4.254647299427589502e+01,2.000000000000000111e-01
5.879284790000000038e-01,8.245620540000000442e-01,3.396783372639369247e-01,1.000000000000000048e-04,4.134266370977503868e+01,1.700000000000000122e-01
-3.584264691795864266e-01,1.112498557000000110e+00,4.540731987147499371e-01,1.000000000000000048e-04,4.213066006474795699e+01,2.000000000000000111e-01
-1.085925731795862603e-01,9.806715139999999664e-01,1.056633395820907317e-01,1.000000000000000048e-04,3.849081454261538227e+01,1.799999999999999933e-01
1.189812670000000017e+00,8.219376269999999485e-01,8.395164567130652955e-02,1.000000000000000048e-04,3.786208383086382412e+01,1.700000000000000122e-01
2.896526737999999934e+00,1.048685354999999930e+00,3.062636790264940956e-01,1.000000000000000048e-04,4.094497102509212993e+01,1.700000000000000122e-01
1.187793541000000008e+00,1.533334508000000040e+00,2.407994872895664606e-01,1.000000000000000048e-04,4.023132096690569171e+01,1.700000000000000122e-01
8.784667550000000436e-01,-5.840451829999999678e-01,1.140351424383193368e+00,1.000000000000000048e-04,4.470407803905621336e+01,2.099999999999999922e-01
-2.025603206179586557e+00,1.419180792999999996e+00,2.184126699513808667e-01,1.000000000000000048e-04,4.002022854736799928e+01,1.799999999999999933e-01
1.097118803000000087e+00,1.428367445999999985e+00,9.018782949243253633e-01,1.000000000000000048e-04,4.377375398694982778e+01,1.799999999999999933e-01
-1.923054671795858539e-01,8.268694330000000425e-01,4.328966920914112393e-01,1.000000000000000048e-04,4.186443047313980514e+01,2.000000000000000111e-01
1.974446608000000047e+00,-1.250497374000000050e+00,1.541928074828657902e-01,1.000000000000000048e-04,3.919480461829234486e+01,2.000000000000000111e-01
1.714471547999999901e+00,-4.841846819999999774e-01,7.744205385139069087e-02,1.000000000000000048e-04,3.766564128089445518e+01,1.700000000000000122e-01
1.635209042000000057e+00,-1.499680316999999929e+00,3.462825486873726266e-01,1.000000000000000048e-04,4.138736568838245944e+01,1.900000000000000022e-01
-3.085878636179586021e+00,-8.156760069999999807e-01,1.040364896902853609e+00,1.000000000000000048e-04,4.413965719171586954e+01,1.799999999999999933e-01
1.583648911999999909e+00,-4.051170720000000225e-01,6.965380697179877068e-01,1.000000000000000048e-04,4.329371818655513948e+01,1.700000000000000122e-01
3.116144028999999982e+00,-6.233618589999999626e-01,8.130149084573501383e-01,1.000000000000000048e-04,4.346321937623986287e+01,2.000000000000000111e-01
2.580853791000000008e+00,2.126606490000000071e-01,4.162166726695071262e-01,1.000000000000000048e-04,4.209013546815968709e+01,2.200000000000000011e-01
2.791070910999999821e+00,-3.375241600000000036e-02,3.263156971920770921e-01,1.000000000000000048e-04,4.099184799713970762e+01,2.999999999999999889e-01
2.126664376999999995e+00,-4.630033630000000011e-01,1.613669345043664549e-01,1.000000000000000048e-04,3.957138723160885974e+01,1.799999999999999933e-01
1.264160699999999915e+00,6.289837299999999631e-01,1.329375584981931091e-01,1.000000000000000048e-04,3.937821830032220305e+01,1.900000000000000022e-01
2.608192676999999904e+00,3.485897410000000085e-01,5.121090462871633608e-01,1.000000000000000048e-04,4.206346385440524216e+01,2.200000000000000011e-01
9.029304540000000490e-01,-5.888661819999999603e-01,2.040310017048594382e-01,1.000000000000000048e-04,3.998527918373962109e+01,1.700000000000000122e-01
2.675488564000000125e+00,-1.029758079000000048e+00,1.910796556898830545e-01,1.000000000000000048e-04,3.987379926645899531e+01,1.700000000000000122e-01
9.979371630000000160e-01,-7.076351440000000492e-01,8.363327382628877871e-01,1.000000000000000048e-04,4.351610629733366409e+01,2.000000000000000111e-01
2.816578843999999915e+00,-6.539336449999999523e-01,4.178831087466545746e-01,1.000000000000000048e-04,4.174515463157276685e+01,1.799999999999999933e-01
-2.809922836179586270e+00,-1.219770695000000016e+00,2.678855780372186857e-01,1.000000000000000048e-04,4.038717649220701134e+01,1.900000000000000022e-01
2.816545334000000178e+00,5.529564630000000092e-01,7.509786071308677258e-01,1.000000000000000048e-04,4.329866486513134305e+01,1.700000000000000122e-01
2.293480610000000031e+00,1.430186356999999964e+00,5.730052984440292541e-01,1.000000000000000048e-04,4.251807293136243260e+01,1.700000000000000122e-01
1.900048696999999898e+00,-6.695785770000000081e-01,1.928861983563892046e-01,1.000000000000000048e-04,4.004342987900162854e+01,1.900000000000000022e-01
2.402973735999999860e+00,-4.293495210000000117e-01,6.750806985104982338e-01,1.000000000000000048e-04,4.323655650844948184e+01,2.200000000000000011e-01
3.123677135999999965e+00,5.597831170000000522e-01,1.584815196949496130e-01,1.000000000000000048e-04,3.946539833364698069e+01,1.700000000000000122e-01
1.945616433999999950e+00,5.533621010000000506e-01,4.194020273630854057e-01,1.000000000000000048e-04,4.188363522925863691e+01,1.700000000000000122e-01
-2.603733431795864917e-01,9.574212720000000454e-01,2.100016318655189007e-01,1.000000000000000048e-04,4.000508828995933897e+01,3.800000000000000044e-01
-1.216980031795857897e-01,3.678993019999999836e-01,5.513038871329776214e-01,1.000000000000000048e-04,4.271437290819731913e+01,1.900000000000000022e-01
2.921580513999999962e+00,4.108407450000000072e-01,4.260281442276294683e-01,1.000000000000000048e-04,4.163678591629828674e+01,1.900000000000000022e-01
-2.362072097179586105e+00,1.187667234999999932e+00,2.841610950067452457e-01,1.000000000000000048e-04,4.081664239592144128e+01,1.900000000000000022e-01
-2.337569846179586186e+00,3.756736769999999837e-01,2.261428757823795710e-01,1.000000000000000048e-04,4.025315048792202788e+01,1.700000000000000122e-01
-1.563533060179586265e+00,8.298117619999999528e-01,1.192922593181295898e-01,1.000000000000000048e-04,3.892570363418296608e+01,3.300000000000000155e-01
-7.514201781795861734e-01,8.148208550000000105e-01,2.952594105095962540e-01,1.000000000000000048e-04,4.115519224252768282e+01,2.099999999999999922e-01
-2.172991007179586376e+00,1.278564443000000050e+00,1.733292952846614554e-01,1.000000000000000048e-04,3.990248693947632574e+01,2.000000000000000111e-01
1.004972830999999900e+00,3.284388160000000223e-01,7.631880989481041322e-01,1.000000000000000048e-04,4.329792856630223241e+01,1.799999999999999933e-01
-1.050913719179586536e+00,7.925907810000000220e-01,1.835020962155724522e-01,1.000000000000000048e-04,3.976750186668368059e+01,2.899999999999999800e-01
1.174967896000000067e+00,-7.032179160000000540e-01,7.720022600398306345e-01,1.000000000000000048e-04,4.344538597769919619e+01,1.799999999999999933e-01
2.063754460999999818e+00,1.158898511999999936e+00,5.267134501172408001e-01,1.000000000000000048e-04,4.241918439697602849e+01,1.799999999999999933e-01
1.355273345999999934e+00,1.034050206000000083e+00,2.104214909308890213e-01,1.000000000000000048e-04,4.032053222690534966e+01,1.700000000000000122e-01
1.878516419999999965e+00,-5.891517790000000421e-01,1.097610213985416916e+00,1.000000000000000048e-04,4.426351262818983656e+01,1.799999999999999933e-01
3.042909537999999969e+00,4.914006550000000195e-01,8.926751866638436006e-01,1.000000000000000048e-04,4.366443453334221658e+01,1.700000000000000122e-01
-2.192876876179585821e+00,7.571444160000000423e-01,5.392833343063223595e-01,1.000000000000000048e-04,4.258243176089990101e+01,2.099999999999999922e-01
-1.274335216179586006e+00,7.393028099999999769e-01,2.534534191372814771e-01,1.000000000000000048e-04,4.081655775992768298e+01,3.599999999999999867e-01
3.513372269999999742e-01,1.023017258000000096e+00,1.264624183416360736e-01,1.000000000000000048e-04,3.879145881698501341e+01,1.799999999999999933e-01
-2.045215730179585911e+00,1.346705497999999945e+00,3.168440080403271963e-01,1.000000000000000048e-04,4.102352101473802293e+01,1.799999999999999933e-01
2.622131355000000053e+00,-2.378520580000000051e-01,9.570732369402090711e-01,1.000000000000000048e-04,4.396677566455989705e+01,2.099999999999999922e-01
1.499565373000000035e+00,-5.833961840000000398e-01,5.951086024933740504e-01,1.000000000000000048e-04,4.280519385952667477e+01,1.199999999999999956e-01
9.453780529999999960e-01,-3.014802610000000271e-01,2.340897392361056539e-01,1.000000000000000048e-04,4.039261002880940055e+01,1.799999999999999933e-01
1.003030738000000088e+00,-6.679498139999999751e-01,3.902360635920756327e-01,1.000000000000000048e-04,4.137529500321512899e+01,1.799999999999999933e-01
-2.858957567179586157e+00,-2.878047879999999781e-01,4.322464552247258229e-01,1.000000000000000048e-04,4.176649521175353641e+01,1.300000000000000044e-01
-2.653655062179586022e+00,5.464710109999999510e-01,9.173428445870230874e-01,1.000000000000000048e-04,4.393310357167653990e+01,1.300000000000000044e-01
-1.077960778179586576e+00,1.305029642999999906e+00,6.792569738906071297e-01,1.000000000000000048e-04,4.286468126344423979e+01,1.100000000000000006e-01
2.996279555000000094e+00,-9.792432829999999644e-01,6.667635716407831481e-01,1.000000000000000048e-04,4.279423666849887553e+01,1.600000000000000033e-01
1.369802210000000131e-01,9.686457469999999459e-01,4.360096073613159984e-01,1.000000000000000048e-04,4.192336665054377676e+01,1.000000000000000056e-01
-7.405109531795863731e-01,5.344760480000000369e-01,7.434082667321511018e-01,1.000000000000000048e-04,4.340940252756278284e+01,1.900000000000000022e-01
-1.986221938179586033e+00,3.858849830000000147e-01,1.305443533239218912e-01,1.000000000000000048e-04,3.906968968474620851e+01,2.600000000000000089e-01
-1.660796187179585992e+00,1.337702168000000080e+00,5.028515739200836165e-01,1.000000000000000048e-04,4.225334707712808324e+01,1.300000000000000044e-01
-1.008319883179586540e+00,9.035811799999999838e-01,5.587807244562970066e-01,1.000000000000000048e-04,4.233956656411218944e+01,1.799999999999999933e-01
-2.859227719179586291e+00,-3.383984709999999785e-01,9.635073954888850878e-02,1.000000000000000048e-04,3.825296747440674494e+01,1.799999999999999933e-01
-3.008470453179586279e+00,-9.028608339999999455e-01,5.441583049871285827e-01,1.000000000000000048e-04,4.257862970307169093e+01,1.300000000000000044e-01
2.720373041999999852e+00,-1.026937239000000002e+00,1.612461180694682028e-01,1.000000000000000048e-04,3.955358706083956832e+01,1.100000000000000006e-01
1.131806215999999976e+00,-1.312634394000000038e+00,1.121086953743142267e-01,1.000000000000000048e-04,3.864534628300742014e+01,1.199999999999999956e-01
2.377785852000000144e+00,-1.071983155000000076e+00,1.311023092171302196e+00,1.000000000000000048e-04,4.473323473129732974e+01,1.000000000000000056e-01
1.262497049000000038e+00,-7.576738640000000302e-01,3.584396670932270546e-01,1.000000000000000048e-04,4.157426713999070245e+01,1.900000000000000022e-01
-2.150308364179585929e+00,9.473204419999999848e-01,3.536713246763658614e-01,1.000000000000000048e-04,4.130486402824536185e+01,1.499999999999999944e-01
-2.672281993179586035e+00,8.065802300000000091e-01,6.492250956142942009e-01,1.000000000000000048e-04,4.281808308247113359e+01,1.400000000000000133e-01
-2.768228307179586345e+00,1.501965110000000048e-01,5.062787582529320041e-01,1.000000000000000048e-04,4.209330852839017467e+01,1.300000000000000044e-01
2.456608391000000058e+00,-6.815239560000000418e-01,3.095681787986084288e-01,1.000000000000000048e-04,4.108277662222487692e+01,2.899999999999999800e-01
-1.538735822179586599e+00,7.895792169999999999e-01,7.560234158214016453e-01,1.000000000000000048e-04,4.326083633382721416e+01,1.600000000000000033e-01
-6.811844061795859773e-01,-7.989239399999999991e-01,3.672447418240529782e-01,1.000000000000000048e-04,4.183541199362500862e+01,2.300000000000000100e-01
-9.881069141795864041e-01,9.266642769999999807e-01,2.243807334280938370e-01,1.000000000000000048e-04,4.061767461305917237e+01,2.500000000000000000e-01
9.533575850000000074e-01,-5.868324440000000086e-01,3.130252939388151745e-01,1.000000000000000048e-04,4.099766146696685354e+01,1.199999999999999956e-01
1.194530383000000029e+00,-8.514353350000000153e-01,2.239577120035400881e-01,1.000000000000000048e-04,4.034101066216513942e+01,1.100000000000000006e-01
-1.550854682179585886e+00,1.341867675000000037e+00,4.953092704523931467e-01,1.000000000000000048e-04,4.274874311436465035e+01,3.599999999999999867e-01
2.328991532999999947e+00,-1.085498080000000032e+00,1.471295099677849549e-01,1.000000000000000048e-04,3.929339377388568977e+01,1.199999999999999956e-01
3.099662444999999877e+00,-8.173274409999999879e-01,3.857243272804833367e-01,1.000000000000000048e-04,4.168710763450889800e+01,1.300000000000000044e-01
1.008677688999999988e+00,-7.224949280000000362e-01,4.952875396026950039e-01,1.000000000000000048e-04,4.216518161273437215e+01,1.199999999999999956e-01
1.116317643999999998e+00,-8.188746820000000204e-01,2.032974525297674973e-01,1.000000000000000048e-04,4.010511137401891801e+01,1.499999999999999944e-01
1.368634144999999913e+00,-9.746537960000000167e-01,4.990318019120461024e-01,1.000000000000000048e-04,4.214804719068731487e+01,2.200000000000000011e-01
1.284766933000000000e+00,-9.049604909999999780e-01,4.496201918836602029e-01,1.000000000000000048e-04,4.205963421991263829e+01,1.300000000000000044e-01
2.840707745000000006e+00,-9.874777999999999611e-01,1.541534944671469898e-01,1.000000000000000048e-04,3.937824077212153639e+01,1.199999999999999956e-01
1.164831654000000105e+00,-8.361433499999999519e-01,9.885561617109337451e-01,1.000000000000000048e-04,4.409778978654232162e+01,1.600000000000000033e-01
9.274529849999999520e-01,-5.648102149999999488e-01,4.054217555210839485e-01,1.000000000000000048e-04,4.158607926578856961e+01,2.200000000000000011e-01
1.803806121999999901e+00,-1.051757271000000049e+00,2.755950456084326206e-01,1.000000000000000048e-04,4.081417542649734287e+01,2.200000000000000011e-01
1.910407339000000038e+00,-1.096340147000000043e+00,7.909270230272347213e-02,1.000000000000000048e-04,3.773144267276277475e+01,1.300000000000000044e-01
-2.994395329179586174e+00,-6.874333790000000111e-01,1.279677674260595310e-01,1.000000000000000048e-04,3.870862563823469316e+01,1.600000000000000033e-01
2.004169926999999962e+00,-1.114377941999999955e+00,8.870018697684227682e-01,1.000000000000000048e-04,4.384708275098432040e+01,2.099999999999999922e-01
2.993884073999999895e+00,-9.067153500000000310e-01,5.359348087054602860e-01,1.000000000000000048e-04,4.270462608114403480e+01,2.000000000000000111e-01
2.896584697999999847e+00,-6.981149509999999836e-01,6.721289732605841838e-01,1.000000000000000048e-04,4.312476805184206796e+01,2.000000000000000111e-01
2.644964143999999795e+00,-1.038456438999999953e+00,2.540480245485496891e-01,1.000000000000000048e-04,4.031365445178794715e+01,2.500000000000000000e-01
1.395029569000000080e+00,-9.673563530000000021e-01,3.446369550749937005e-01,1.000000000000000048e-04,4.121499766508660656e+01,2.200000000000000011e-01
1.133893306999999906e+00,-8.234022290000000410e-01,2.691493816901397995e-01,1.000000000000000048e-04,4.071707815823593535e+01,1.199999999999999956e-01
9.542908199999999841e-01,-6.210129070000000029e-01,8.184246671587680488e-02,1.000000000000000048e-04,3.784999073813096260e+01,1.400000000000000133e-01
1.112357503999999997e+00,-7.717409769999999947e-01,4.047767463361275908e-01,1.000000000000000048e-04,4.195387158353498336e+01,1.400000000000000133e-01
1.392129267000000059e+00,-9.489503049999999940e-01,2.395266161878710776e-01,1.000000000000000048e-04,4.035672624825617305e+01,1.100000000000000006e-01
3.104633763999999907e+00,-8.563587980000000321e-01,6.642986770107262018e-01,1.000000000000000048e-04,4.308247792456501202e+01,1.199999999999999956e-01
-1.581672989179586430e+00,-6.726275419999999672e-01,8.192364337114188544e-02,1.000000000000000048e-04,3.778232932742761818e+01,2.000000000000000111e-01
8.758714749999999549e-01,-5.394949780000000139e-01,1.303982524846373892e+00,1.000000000000000048e-04,4.488983043744123336e+01,1.199999999999999956e-01
1.027821937999999991e+00,-6.897361509999999640e-01,2.110283558632786161e-01,1.000000000000000048e-04,4.018281505567948386e+01,1.499999999999999944e-01
8.011105990000000343e-01,-4.568120419999999737e-01,2.136866995092590038e-01,1.000000000000000048e-04,4.015332662794434526e+01,1.499999999999999944e-01
8.044453879999999835e-01,-4.591503659999999765e-01,2.974819259130081495e-01,1.000000000000000048e-04,4.090515748643983329e+01,1.100000000000000006e-01
8.290542589999999601e-01,-4.498624509999999965e-01,6.841956936944195711e-01,1.000000000000000048e-04,4.326804082038846389e+01,1.199999999999999956e-01
2.306908324000000121e+00,-1.093655438999999951e+00,2.303711018225369500e-01,1.000000000000000048e-04,4.046756767011590483e+01,1.300000000000000044e-01
-3.090495873179586184e+00,-7.974218849999999970e-01,2.547904011441348704e-01,1.000000000000000048e-04,4.060848965348730388e+01,1.300000000000000044e-01
2.850739061000000074e+00,-9.724982730000000242e-01,1.296577536484109672e+00,1.000000000000000048e-04,4.493326297245082657e+01,1.100000000000000006e-01
1.925211972000000049e+00,-1.067349442999999898e+00,4.759797693058982482e-01,1.000000000000000048e-04,4.186678380024356017e+01,1.600000000000000033e-01
3.010706126000000094e+00,-9.149326070000000088e-01,4.237757803174186932e-01,1.000000000000000048e-04,4.176082108546386706e+01,1.199999999999999956e-01
1.754869720000000077e+00,-1.052947148999999971e+00,5.163376926054659144e-01,1.000000000000000048e-04,4.232150131452314668e+01,1.300000000000000044e-01
3.028086770999999899e+00,-8.725603690000000023e-01,3.570626699092376288e-01,1.000000000000000048e-04,4.153251434022298838e+01,1.199999999999999956e-01
2.780301081000000174e+00,-1.010780400000000023e+00,5.281193769651562064e-01,1.000000000000000048e-04,4.212387359489373750e+01,1.700000000000000122e-01
3.096540631999999960e+00,-8.261897350000000362e-01,1.276257546492813866e-01,1.000000000000000048e-04,3.901067805354967533e+01,1.100000000000000006e-01
-3.043596368179586342e+00,-7.656326449999999451e-01,5.962259765580282256e-01,1.000000000000000048e-04,4.253072642116248403e+01,1.100000000000000006e-01
2.593403560000000052e+00,-1.068240442000000012e+00,1.494830105860265324e-01,1.000000000000000048e-04,3.930729440605886538e+01,1.199999999999999956e-01
1.277663320999999907e+00,-8.910532270000000032e-01,6.835236604711374397e-01,1.000000000000000048e-04,4.317021662794894610e+01,1.499999999999999944e-01
8.729576639999999665e-01,-5.017517409999999733e-01,8.428793831271219616e-02,1.000000000000000048e-04,3.795207754227472918e+01,1.199999999999999956e-01
2.323316692000000128e+00,-1.072994334000000105e+00,9.144605975533675046e-01,1.000000000000000048e-04,4.401473841642373941e+01,1.400000000000000133e-01
-3.012222731179586166e+00,-7.219820959999999621e-01,3.899691379243155342e-01,1.000000000000000048e-04,4.153729739427187440e+01,1.199999999999999956e-01
2.306010604999999991e+00,-1.110345181000000014e+00,3.577987517733338674e-01,1.000000000000000048e-04,4.146386011064872434e+01,1.100000000000000006e-01
2.437557496999999795e+00,-1.097151527000000071e+00,1.300350711681035332e-01,1.000000000000000048e-04,3.887426175040931042e+01,1.100000000000000006e-01
1.098420291999999909e+00,-7.444727049999999569e-01,4.656306014892832579e-01,1.000000000000000048e-04,4.199339866098366514e+01,1.300000000000000044e-01
8.241628739999999897e-01,-4.611620249999999754e-01,5.592924585453866726e-01,1.000000000000000048e-04,4.246424101376644700e+01,1.400000000000000133e-01
1.017317494999999905e+00,-7.027905669999999771e-01,3.028716647284706021e-01,1.000000000000000048e-04,4.085764180418725999e+01,1.199999999999999956e-01
2.728679550999999925e+00,-1.007430967999999982e+00,1.024039009399368982e-01,1.000000000000000048e-04,3.859112289416936648e+01,1.100000000000000006e-01
2.848837458999999850e+00,-9.622339979999999793e-01,1.335510609935445459e+00,1.000000000000000048e-04,4.480548125538194171e+01,1.199999999999999956e-01
-3.065525731179586266e+00,-7.207210450000000046e-01,7.417501639627190890e-01,1.000000000000000048e-04,4.325159582594449148e+01,1.199999999999999956e-01
1.103969978000000074e+00,-7.587182380000000448e-01,2.602928507738595520e-01,1.000000000000000048e-04,4.053834765082484637e+01,1.300000000000000044e-01
1.112034854000000017e+00,-7.675460100000000008e-01,2.994261890609393184e-01,1.000000000000000048e-04,4.101996701574500293e+01,1.199999999999999956e-01
2.373162053000000160e+00,-1.072487750000000073e+00,6.078763595099085926e-01,1.000000000000000048e-04,4.299813028048192365e+01,1.100000000000000006e-01
2.221583438000000132e+00,-1.096064289000000080e+00,3.414328902647492114e-01,1.000000000000000048e-04,4.134000965303261665e+01,1.199999999999999956e-01
2.775251189000000007e+00,-1.013244017000000108e+00,1.254267726142697548e+00,1.000000000000000048e-04,4.466054670357254963e+01,1.700000000000000122e-01
1.527128894000000070e+00,-9.963611940000000056e-01,4.085269131748887617e-01,1.000000000000000048e-04,4.178103393663874954e+01,1.400000000000000133e-01
-1.936135624179586401e+00,1.327891944000000102e+00,8.507356450533287706e-02,1.000000000000000048e-04,3.798952178051717254e+01,1.199999999999999956e-01
2.120951332999999828e+00,-1.112975437000000012e+00,1.987790518676577634e-01,1.000000000000000048e-04,4.018258678537689121e+01,1.600000000000000033e-01
2.950704906999999988e+00,-9.277153000000000205e-01,2.459171806450872744e-01,1.000000000000000048e-04,4.059567930498275956e+01,1.700000000000000122e-01
2.461302839000000020e+00,-1.064109841000000056e+00,2.853976935746045385e-01,1.000000000000000048e-04,4.075855201165742159e+01,1.499999999999999944e-01
1.687800213000000049e+00,-1.037844004000000098e+00,5.918985956720581587e-01,1.000000000000000048e-04,4.294866987623958465e+01,1.100000000000000006e-01
-3.069023128179586113e+00,-7.343218900000000327e-01,5.070647621314627873e-01,1.000000000000000048e-04,4.199137301585540172e+01,2.000000000000000111e-01
7.655655390000000171e-01,-3.825025819999999799e-01,1.474296695462888884e-01,1.000000000000000048e-04,3.944190430988584239e+01,1.300000000000000044e-01
-3.051736326179586012e+00,-7.690870560000000467e-01,2.260133426283155167e-01,1.000000000000000048e-04,4.010408286150207857e+01,1.499999999999999944e-01
-3.116938176179586240e+00,-7.920766919999999711e-01,5.924476942365868304e-01,1.000000000000000048e-04,4.278269053616653395e+01,1.100000000000000006e-01
1.020863690000000101e+00,-6.877910739999999468e-01,1.175986430440854047e-01,1.000000000000000048e-04,3.874307377166589816e+01,1.199999999999999956e-01
1.792785233999999894e+00,-1.066474936999999956e+00,1.253356827847963206e+00,1.000000000000000048e-04,4.465872461041550423e+01,1.100000000000000006e-01
1.805689748000000039e+00,-1.066896787999999985e+00,4.325683044694850210e-01,1.000000000000000048e-04,4.188245890666299687e+01,1.100000000000000006e-01
1.773248071000000037e+00,-1.046601056999999946e+00,4.285006347152531259e-01,1.000000000000000048e-04,4.179427769736935261e+01,2.099999999999999922e-01
1.076689889999999927e+00,-7.549444410000000216e-01,3.347850891852792721e-01,1.000000000000000048e-04,4.110165965769790120e+01,1.199999999999999956e-01
2.336456505000000128e+00,-1.089906792000000069e+00,1.990316163790859516e-01,1.000000000000000048e-04,4.006808496134073039e+01,1.199999999999999956e-01
2.522083900000000156e+00,-1.078852812999999911e+00,1.167932135132891069e+00,1.000000000000000048e-04,4.469683662234796628e+01,1.199999999999999956e-01
3.676074389999999803e-01,1.100614297999999991e+00,4.828907770699530921e-01,1.000000000000000048e-04,4.222047273686273172e+01,1.700000000000000122e-01
2.099931574000000190e+00,-1.082223048999999993e+00,3.398010042687642507e-01,1.000000000000000048e-04,4.129813149645794823e+01,1.100000000000000006e-01
8.155488279999999479e-01,-4.642700679999999802e-01,4.710461024807970354e-01,1.000000000000000048e-04,4.229120609587703683e+01,2.099999999999999922e-01
9.861636230000000447e-01,-6.881834650000000497e-01,4.532304782401723742e-01,1.000000000000000048e-04,4.187871844222103590e+01,1.300000000000000044e-01
1.864254864999999928e+00,-1.086684659999999969e+00,4.853358027002134811e-01,1.000000000000000048e-04,4.222236113665337598e+01,1.199999999999999956e-01
2.873066016000000111e+00,-9.753574739999999466e-01,1.003728824717091683e-01,1.000000000000000048e-04,3.822037650652748653e+01,1.300000000000000044e-01
2.270287562000000037e+00,-1.085086717999999895e+00,9.724142445743306773e-01,1.000000000000000048e-04,4.427101594955353647e+01,1.799999999999999933e-01
8.268071609999999572e-01,-4.587794940000000099e-01,1.054857025868018994e-01,1.000000000000000048e-04,3.848128299704974609e+01,1.199999999999999956e-01
-3.050869045179586347e+00,-7.648855789999999821e-01,2.891917738657370229e-01,1.000000000000000048e-04,4.078928409501178010e+01,1.199999999999999956e-01
1.101963728999999947e+00,-7.466317359999999903e-01,1.803593068777049613e-01,1.000000000000000048e-04,3.978111484611015669e+01,1.900000000000000022e-01
1.745116724000000064e+00,-1.056563783000000090e+00,6.806702460268092558e-01,1.000000000000000048e-04,4.319626110162089816e+01,1.300000000000000044e-01
7.889769570000000343e-01,-3.846565690000000037e-01,4.341075428855152296e-01,1.000000000000000048e-04,4.189267071678304433e+01,1.499999999999999944e-01
1.385818830999999918e+00,-9.278259679999999454e-01,1.396279991131426090e-01,1.000000000000000048e-04,3.937746008485424198e+01,1.499999999999999944e-01
1.138484923000000038e+00,-8.197145099999999518e-01,2.340791766102188198e-01,1.000000000000000048e-04,4.028853805785472275e+01,1.400000000000000133e-01
1.783410439000000069e+00,-1.080958507999999929e+00,5.411715406712187537e-01,1.000000000000000048e-04,4.224463914936193021e+01,1.400000000000000133e-01
2.617653461000000181e+00,-1.025884226000000066e+00,1.778386500381499147e-01,1.000000000000000048e-04,3.965929138066512394e+01,1.199999999999999956e-01
8.270197009999999960e-01,-4.157453939999999903e-01,3.218740153086703248e-01,1.000000000000000048e-04,4.120641475082440763e+01,1.199999999999999956e-01
3.128792493000000174e+00,-8.522697870000000009e-01,8.919268568076339498e-01,1.000000000000000048e-04,4.378892634579176502e+01,1.100000000000000006e-01
1.366158207000000013e+00,-9.614226009999999878e-01,7.719865583889431448e-01,1.000000000000000048e-04,4.319872043964227259e+01,1.100000000000000006e-01
2.846286316000000038e+00,-9.688357899999999745e-01,2.069393215376171824e-01,1.000000000000000048e-04,4.027084032919987067e+01,1.400000000000000133e-01
9.208216280000000031e-01,-6.185352929999999860e-01,4.405071759327785497e-01,1.000000000000000048e-04,4.189596553154841274e+01,1.499999999999999944e-01
7.622987450000000553e-01,-3.411912120000000215e-01,2.299418771923289473e-01,1.000000000000000048e-04,4.032025901571587667e+01,1.199999999999999956e-01
9.277931750000000255e-01,-5.813990460000000304e-01,3.178706693107231640e-01,1.000000000000000048e-04,4.109730123629871912e+01,2.099999999999999922e-01
1.010173165000000095e+00,-6.808591280000000356e-01,2.378352229456273115e-01,1.000000000000000048e-04,4.034866639498044805e+01,1.300000000000000044e-01
1.661181446000000062e+00,-1.029160687999999935e+00,7.826131420340978195e-01,1.000000000000000048e-04,4.369661197204450076e+01,1.400000000000000133e-01
2.089878704000000198e+00,-1.077863170999999953e+00,1.113770638990886575e+00,1.000000000000000048e-04,4.451182409248823291e+01,1.199999999999999956e-01
9.321550429999999610e-01,-6.212176799999999943e-01,4.591121281987284863e-01,1.000000000000000048e-04,4.196541489787595935e+01,1.199999999999999956e-01
2.944595597000000176e+00,-9.127602249999999806e-01,2.524833894611899776e-01,1.000000000000000048e-04,4.052244089582080022e+01,1.100000000000000006e-01
1.288081913999999939e+00,-9.113959929999999598e-01,3.094336843506926282e-01,1.000000000000000048e-04,4.088960153198078729e+01,1.300000000000000044e-01
1.398731861999999992e+00,-9.625033109999999725e-01,5.654857679341600551e-01,1.000000000000000048e-04,4.254483980936712584e+01,1.199999999999999956e-01
1.714165549000000066e+00,-1.043104095999999981e+00,3.233557523256180843e-01,1.000000000000000048e-04,4.118636078997106864e+01,1.199999999999999956e-01
1.014018395999999989e+00,-6.788913789999999615e-01,1.220959098271920062e+00,1.000000000000000048e-04,4.467992359388863832e+01,1.300000000000000044e-01
8.887761809999999985e-01,-5.541821719999999729e-01,3.163572057362271650e-01,1.000000000000000048e-04,4.094783949737924900e+01,1.300000000000000044e-01
1.026278256999999972e+00,-6.961882160000000264e-01,3.647922833144758847e-01,1.000000000000000048e-04,4.134695182199556029e+01,1.199999999999999956e-01
1.824970581999999952e+00,-1.080428363000000003e+00,1.473003188095594052e-01,1.000000000000000048e-04,3.900531358916271785e+01,1.199999999999999956e-01
1.839979185000000017e+00,-1.082878103999999952e+00,1.604001496235878399e-01,1.000000000000000048e-04,3.929764149457621869e+01,1.300000000000000044e-01
-3.070118813179586237e+00,-7.641942569999999879e-01,4.633421454276320794e-01,1.000000000000000048e-04,4.195382327240477593e+01,1.199999999999999956e-01
2.250776613000000204e+00,-1.110438553999999911e+00,2.668372745400975354e-01,1.000000000000000048e-04,4.051444137410310020e+01,1.199999999999999956e-01
2.613802471000000072e+00,-1.066258922999999914e+00,4.883601849789878102e-01,1.000000000000000048e-04,4.223927327647709973e+01,1.199999999999999956e-01
8.050150120000000298e-01,-4.193234060000000096e-01,3.501878667810440771e-01,1.000000000000000048e-04,4.132664463606936067e+01,1.499999999999999944e-01
2.809576177999999924e+00,-9.952447749999999704e-01,2.257581977436577958e-01,1.000000000000000048e-04,4.055138726301738927e+01,1.199999999999999956e-01
8.523447290000000232e-01,-4.773689010000000121e-01,1.726343561061489673e-01,1.000000000000000048e-04,3.956489883775216043e+01,2.000000000000000111e-01
2.975142320999999868e+00,-8.986192680000000266e-01,1.193410353874562180e+00,1.000000000000000048e-04,4.444909183216463333e+01,2.000000000000000111e-01
2.960578484000000010e+00,-9.174235720000000205e-01,1.927495763733393375e-01,1.000000000000000048e-04,4.008923047866650791e+01,1.400000000000000133e-01
1.589239559999999996e+00,-1.046132274999999945e+00,1.400865794331558334e-01,1.000000000000000048e-04,3.896799444127734091e+01,1.199999999999999956e-01
1.095136271999999966e+00,-7.909478989999999543e-01,2.932184110858377935e-01,1.000000000000000048e-04,4.097670688973572339e+01,1.300000000000000044e-01
3.045277111999999953e+00,-8.831592660000000539e-01,3.591057490027789179e-01,1.000000000000000048e-04,4.140984369350304206e+01,1.799999999999999933e-01
3.011317304999999944e+00,-8.969173430000000335e-01,3.064061230252157486e-01,1.000000000000000048e-04,4.117818807359312672e+01,1.499999999999999944e-01
1.946036051000000100e+00,-1.101857058000000000e+00,1.987220863921912439e-01,1.000000000000000048e-04,3.993298993494322247e+01,1.100000000000000006e-01
9.659444579999999503e-01,-6.400164339999999674e-01,7.385777448191250816e-01,1.000000000000000048e-04,4.336809958694527012e+01,1.199999999999999956e-01
1.142944595999999979e+00,-8.229314749999999679e-01,3.481455081171862531e-01,1.000000000000000048e-04,4.132250428219337834e+01,1.499999999999999944e-01
1.336859599999999926e+00,-9.462661719999999610e-01,3.947267422110112278e-01,1.000000000000000048e-04,4.181251941815290252e+01,1.900000000000000022e-01
2.386695267999999981e+00,-1.099692616000000012e+00,6.937182820955261064e-01,1.000000000000000048e-04,4.318008066008484747e+01,1.799999999999999933e-01
1.122946417999999946e+00,-7.871106610000000448e-01,2.477451644466395209e-01,1.000000000000000048e-04,4.035614853718951167e+01,1.499999999999999944e-01
1.038511049000000019e+00,-6.836743480000000428e-01,4.812368609191020052e-01,1.000000000000000048e-04,4.206775910083226933e+01,1.499999999999999944e-01
-1.865548755179585960e+00,5.988235499999999822e-01,3.848200940562653827e-01,1.000000000000000048e-04,4.204098273746974712e+01,3.599999999999999867e-01
-1.208774007179585830e+00,1.086301519000000049e+00,1.283625673731012995e+00,1.000000000000000048e-04,4.452103323161629334e+01,3.900000000000000133e-01
-1.451351928179586359e+00,1.047303024999999943e+00,8.920148339232132351e-01,1.000000000000000048e-04,4.428442129565375751e+01,3.900000000000000133e-01
-1.863787002179586594e+00,5.986409590000000280e-01,1.327077176194149111e-01,1.000000000000000048e-04,3.886758932573338399e+01,3.099999999999999978e-01
-2.367107747179586053e+00,3.570653329999999848e-01,2.667890806889925415e-01,1.000000000000000048e-04,4.029081364954283373e+01,3.300000000000000155e-01
3.110012692999999828e+00,-8.816387980000000013e-01,1.469482942192088526e-01,1.000000000000000048e-04,3.941270825697471736e+01,4.000000000000000222e-01
1.208427087000000011e+00,6.391205479999999550e-01,8.625032146596356419e-02,1.000000000000000048e-04,3.828917647335050134e+01,3.200000000000000067e-01
2.195568135999999893e+00,9.530612539999999688e-01,2.662525995718660887e-01,1.000000000000000048e-04,4.086080103228518823e+01,3.200000000000000067e-01
-1.746303855179585973e+00,7.561700099999999480e-01,3.243921435296963640e-01,1.000000000000000048e-04,4.139435221051752478e+01,3.599999999999999867e-01
-2.613733020179586308e+00,3.020363409999999860e-01,4.520889660282088052e-01,1.000000000000000048e-04,4.186768328229131697e+01,2.399999999999999911e-01
3.080075141000000016e+00,6.813462000000000129e-01,1.247445956450175419e+00,1.000000000000000048e-04,4.485142022647397653e+01,2.999999999999999889e-01
3.084152930000000126e+00,6.750201959999999612e-01,4.126850129902432940e-01,1.000000000000000048e-04,4.185937333059600007e+01,2.399999999999999911e-01
-2.831540824179586302e+00,-5.193198470000000011e-01,2.201033705206845159e-01,1.000000000000000048e-04,4.039039603098286335e+01,2.899999999999999800e-01
2.921667255000000019e+00,-9.403574120000000036e-01,1.206934036629230711e+00,1.000000000000000048e-04,4.482344949735225015e+01,2.899999999999999800e-01
2.610543199999999953e+00,9.294079060000000059e-01,2.474130072400237967e-01,1.000000000000000048e-04,4.034911021086596605e+01,2.899999999999999800e-01
2.614058957000000127e+00,9.310355519999999885e-01,6.533017698762182413e-01,1.000000000000000048e-04,4.249604487476929648e+01,3.699999999999999956e-01
-2.614313936179586406e+00,3.105085300000000048e-01,3.992290275007830402e-01,1.000000000000000048e-04,4.190377540894524344e+01,2.300000000000000100e-01
-2.614275993179586255e+00,3.084493819999999942e-01,2.732038887019814233e-01,1.000000000000000048e-04,4.035366032555571536e+01,2.000000000000000111e-01
3.080236718000000096e+00,6.852664600000000217e-01,5.662857137734373936e-01,1.000000000000000048e-04,4.271141031035085689e+01,3.800000000000000044e-01
3.085135451000000195e+00,6.840520260000000352e-01,2.652029744940047618e-01,1.000000000000000048e-04,4.085702902653096658e+01,2.300000000000000100e-01
-2.829361723179586452e+00,-5.190188390000000096e-01,1.714354997585330054e-01,1.000000000000000048e-04,3.939836759535961619e+01,3.900000000000000133e-01
-2.833706243179586082e+00,-5.260186759999999628e-01,1.687060389073526956e-01,1.000000000000000048e-04,3.969020050034294655e+01,2.200000000000000011e-01
1.286414458000000094e+00,-9.076167339999999806e-01,1.073586352631110685e-01,1.000000000000000048e-04,3.864583768197474711e+01,2.399999999999999911e-01
2.295144749999999956e+00,-1.095028292000000070e+00,3.691711742704790744e-01,1.000000000000000048e-04,4.104369587375504835e+01,2.000000000000000111e-01
2.312115046000000174e+00,-1.091482969000000081e+00,4.910022826757391989e-01,1.000000000000000048e-04,4.200040987469523657e+01,1.900000000000000022e-01
2.535381049000000164e+00,-1.063602453999999975e+00,5.197105565389661397e-01,1.000000000000000048e-04,4.235091414248462627e+01,2.600000000000000089e-01
2.549902755000000187e+00,-1.059649137999999935e+00,9.868695934174891438e-01,1.000000000000000048e-04,4.420953547373159864e+01,1.900000000000000022e-01
-2.980466121795863899e-01,1.081935794000000062e+00,8.601100067158196083e-02,1.000000000000000048e-04,3.782884745167872609e+01,1.000000000000000056e-01
-4.562223411795862660e-01,1.078420874000000085e+00,4.800288424568774914e-01,1.000000000000000048e-04,4.243420033701482197e+01,1.400000000000000133e-01
-4.727696341795866175e-01,1.076427226000000070e+00,2.331986339947031972e-01,1.000000000000000048e-04,4.011819225663698063e+01,1.900000000000000022e-01
-4.909850281795860028e-01,1.086050390999999893e+00,1.868536284012618509e-01,1.000000000000000048e-04,3.988351195522253789e+01,1.499999999999999944e-01
-1.809890014179586615e+00,8.554848849999999727e-01,8.834708433446289977e-01,1.000000000000000048e-04,4.367165578072663834e+01,1.900000000000000022e-01
-1.804843805179586091e+00,8.509932909999999850e-01,3.598470520501055869e-01,1.000000000000000048e-04,4.164692735681257574e+01,1.700000000000000122e-01
-1.798315402179586187e+00,8.389159160000000393e-01,4.684003837205623633e-01,1.000000000000000048e-04,4.205462753625128158e+01,1.100000000000000006e-01
-1.820018681179586650e+00,8.404092629999999620e-01,8.730649904452860710e-01,1.000000000000000048e-04,4.392914153416485590e+01,2.000000000000000111e-01
-2.435936564179586039e+00,3.767214549999999829e-01,5.645967190503418109e-01,1.000000000000000048e-04,4.230983711457479757e+01,1.700000000000000122e-01
-2.738532057179586143e+00,-4.670391260000000266e-01,2.273857865150352708e-01,1.000000000000000048e-04,4.027107234500562072e+01,1.100000000000000006e-01
-2.750126147179586145e+00,-4.750163370000000107e-01,8.672039786100542713e-01,1.000000000000000048e-04,4.387774895430099065e+01,1.700000000000000122e-01
6.777063359999999648e-01,-9.284162910000000046e-01,7.358142245761627454e-01,1.000000000000000048e-04,4.369929103423063310e+01,1.600000000000000033e-01
6.755664329999999662e-01,-9.242990760000000527e-01,2.315425923437521849e-01,1.000000000000000048e-04,4.035202499850877444e+01,2.200000000000000011e-01
1.666277256000000095e+00,1.035703752000000089e+00,3.888375963854668882e-01,1.000000000000000048e-04,4.197895385668088153e+01,2.800000000000000266e-01
1.679531192000000006e+00,1.034147155999999956e+00,2.787089353473808373e-01,1.000000000000000048e-04,4.090019040338178513e+01,2.099999999999999922e-01
1.669961188000000041e+00,1.045784459000000055e+00,3.041599760843776146e-01,1.000000000000000048e-04,4.123722225053607815e+01,2.899999999999999800e-01
1.666612017000000057e+00,1.035903760999999923e+00,9.779393884476588195e-01,1.000000000000000048e-04,4.400577797780896816e+01,1.400000000000000133e-01
1.676630470000000095e+00,1.049302589999999924e+00,2.625909362089400290e-01,1.000000000000000048e-04,4.058597695883425871e+01,1.600000000000000033e-01
1.678871634000000057e+00,1.037439988999999896e+00,7.326489779352380882e-01,1.000000000000000048e-04,4.327090198597114323e+01,2.099999999999999922e-01
-2.159653925179585876e+00,7.341517600000000421e-01,3.339997259656899420e-01,1.000000000000000048e-04,4.148453815948463586e+01,2.600000000000000089e-01
-2.155609593179586447e+00,7.327229189999999726e-01,1.634883950262371322e-01,1.000000000000000048e-04,3.966963278904589174e+01,1.400000000000000133e-01
2.989279821999999864e+00,-1.014333855000000062e+00,2.482644495832251330e-01,1.000000000000000048e-04,4.037048188342175337e+01,1.600000000000000033e-01
6.962963009999999509e-01,-9.242906640000000396e-01,4.489531060819880182e-01,1.000000000000000048e-04,4.188241058230369163e+01,2.000000000000000111e-01
6.831622830000000368e-01,-9.295060950000000322e-01,1.442215218309150782e-01,1.000000000000000048e-04,3.928472630881479688e+01,2.099999999999999922e-01
6.813526220000000189e-01,-9.196739680000000083e-01,2.685591333872496822e-01,1.000000000000000048e-04,4.086013090931337643e+01,1.700000000000000122e-01
1.667475545999999920e+00,1.039138789999999979e+00,1.306890988075586346e-01,1.000000000000000048e-04,3.892460732761919218e+01,1.499999999999999944e-01
1.669072946000000002e+00,1.039627206000000026e+00,2.333702726935149574e-01,1.000000000000000048e-04,4.079600924777799520e+01,1.700000000000000122e-01
2.992464221000000091e+00,-1.009427984000000000e+00,5.842619380027169740e-01,1.000000000000000048e-04,4.282809566864605699e+01,1.400000000000000133e-01
3.013377762000000182e+00,-1.015725085999999999e+00,2.785030328454534132e-01,1.000000000000000048e-04,4.097593215162458335e+01,1.499999999999999944e-01
6.857830799999999893e-01,-9.290922369999999875e-01,1.169897288033226346e+00,1.000000000000000048e-04,4.429815040006847227e+01,3.400000000000000244e-01
6.874880420000000214e-01,-9.251381180000000093e-01,1.407661587503705736e-01,1.000000000000000048e-04,3.912779759867683538e+01,1.700000000000000122e-01
1.659686511000000086e+00,1.040101345999999927e+00,1.120132379724205762e-01,1.000000000000000048e-04,3.860385826753049798e+01,1.400000000000000133e-01
1.692629780999999944e+00,1.043637506000000048e+00,5.685419624869345601e-01,1.000000000000000048e-04,4.257182326334368838e+01,1.799999999999999933e-01
1.682450028999999958e+00,1.049226146999999942e+00,1.541859376412360039e-01,1.000000000000000048e-04,3.943512808953251181e+01,1.900000000000000022e-01
1.675255906999999933e+00,1.048468626000000015e+00,6.849750439706783212e-01,1.000000000000000048e-04,4.302344392902202230e+01,1.499999999999999944e-01
1.692145135000000078e+00,1.039981480000000014e+00,3.154284661518738098e-01,1.000000000000000048e-04,4.082888094543877600e+01,1.700000000000000122e-01
-2.139768073179586061e+00,7.360294179999999908e-01,6.482418667698608417e-01,1.000000000000000048e-04,4.306072819547782871e+01,1.600000000000000033e-01
-2.138731675179585956e+00,7.369836659999999817e-01,5.619575833396495135e-01,1.000000000000000048e-04,4.261444079918775429e+01,1.499999999999999944e-01
6.888283630000000546e-01,-9.193630990000000169e-01,1.525194988017419817e-01,1.000000000000000048e-04,3.945281893812374108e+01,1.700000000000000122e-01
6.776433490000000059e-01,-9.225326109999999469e-01,1.178093683781684664e-01,1.000000000000000048e-04,3.861501267064412701e+01,1.600000000000000033e-01
6.820513620000000499e-01,-9.162569579999999547e-01,5.522430549247392406e-01,1.000000000000000048e-04,4.253230703923227196e+01,2.899999999999999800e-01
6.832637360000000104e-01,-9.208365670000000502e-01,1.540626994766518543e-01,1.000000000000000048e-04,3.928807770221705198e+01,1.400000000000000133e-01
1.683256381999999940e+00,1.050427892999999946e+00,2.546992599819859482e-01,1.000000000000000048e-04,4.037395597685446091e+01,1.499999999999999944e-01
2.987248335999999949e+00,-1.011507587000000097e+00,6.174344063448955477e-01,1.000000000000000048e-04,4.290271369466770324e+01,1.900000000000000022e-01
2.994879214000000012e+00,-1.020537374999999969e+00,4.896237950244843873e-01,1.000000000000000048e-04,4.197551604951096493e+01,2.500000000000000000e-01
2.997056848999999801e+00,-1.020797841000000039e+00,7.088884325739734926e-01,1.000000000000000048e-04,4.300594829955564080e+01,1.499999999999999944e-01
6.981827720000000070e-01,-9.201470600000000166e-01,2.263666112688906829e-01,1.000000000000000048e-04,4.020679006370114195e+01,2.099999999999999922e-01
1.675679171999999939e+00,1.042232051000000048e+00,6.455145062200495776e-01,1.000000000000000048e-04,4.284307987771030923e+01,1.900000000000000022e-01
1.682732345000000018e+00,1.051774148000000020e+00,6.861243861146832934e-01,1.000000000000000048e-04,4.331720436673218444e+01,2.099999999999999922e-01
1.655763980999999996e+00,1.041789395999999979e+00,4.555761116868344285e-01,1.000000000000000048e-04,4.216738611769400791e+01,2.099999999999999922e-01
1.658505131999999938e+00,1.042043577999999915e+00,1.522046172480693293e-01,1.000000000000000048e-04,3.931434317352903207e+01,1.499999999999999944e-01
1.679931540999999973e+00,1.044700675999999939e+00,1.865058047136560759e-01,1.000000000000000048e-04,3.951442865089934742e+01,1.400000000000000133e-01
1.681131209999999987e+00,1.046558263000000100e+00,1.968201516369043613e-01,1.000000000000000048e-04,3.992429876175109627e+01,3.800000000000000044e-01
-2.147380102179586636e+00,7.248191320000000326e-01,6.007340274166099725e-01,1.000000000000000048e-04,4.265217699011473229e+01,2.200000000000000011e-01
-2.137481690179586558e+00,7.386978770000000027e-01,1.188731904651895377e+00,1.000000000000000048e-04,4.475635578884893562e+01,1.499999999999999944e-01
3.007533192999999994e+00,-1.006434849999999992e+00,1.761497866912309362e-01,1.000000000000000048e-04,3.969455861002468566e+01,1.700000000000000122e-01
6.766177190000000063e-01,-9.309161569999999664e-01,7.178440500784442069e-01,1.000000000000000048e-04,4.323564355939086568e+01,1.700000000000000122e-01
6.879719020000000240e-01,-9.170357009999999809e-01,7.329589667462346192e-01,1.000000000000000048e-04,4.301431778800675687e+01,2.600000000000000089e-01
6.868192690000000100e-01,-9.190749710000000183e-01,5.294951395751499312e-01,1.000000000000000048e-04,4.206123184006343507e+01,2.800000000000000266e-01
1.680927606000000019e+00,1.043199457999999913e+00,3.144281638132242485e-01,1.000000000000000048e-04,4.101871399596265633e+01,1.799999999999999933e-01
1.680733408999999901e+00,1.046110547000000057e+00,3.585193097307546317e-01,1.000000000000000048e-04,4.129845475966751422e+01,1.499999999999999944e-01
3.003205794999999956e+00,-1.007960921000000010e+00,2.677772538365550403e-01,1.000000000000000048e-04,4.077156059811584754e+01,2.200000000000000011e-01
3.013387552999999830e+00,-1.018013843000000085e+00,1.324448921077030494e-01,1.000000000000000048e-04,3.886209358606988928e+01,2.000000000000000111e-01
2.991633154000000072e+00,-1.018575491000000000e+00,1.428614017677614090e-01,1.000000000000000048e-04,3.933802382328691749e+01,1.600000000000000033e-01
6.810583510000000063e-01,-9.216344210000000370e-01,3.333291096231267847e-01,1.000000000000000048e-04,4.121550638005292910e+01,1.600000000000000033e-01
1.670069762000000013e+00,1.048284639000000018e+00,1.021110416784141162e-01,1.000000000000000048e-04,3.812896924098291862e+01,2.099999999999999922e-01
1.699713636000000028e+00,1.040243690999999915e+00,9.189761389230464150e-01,1.000000000000000048e-04,4.385212016532438639e+01,2.899999999999999800e-01
1.686195045999999920e+00,1.048540513999999924e+00,1.724183526087710305e-01,1.000000000000000048e-04,3.968772556275958863e+01,1.400000000000000133e-01
1.667162669999999958e+00,1.044746053999999980e+00,3.245405609519962375e-01,1.000000000000000048e-04,4.168889632745150209e+01,2.700000000000000178e-01
1.689467040999999892e+00,1.036330184999999959e+00,1.634714433945418932e-01,1.000000000000000048e-04,3.953557141479632975e+01,1.300000000000000044e-01
1.683799076999999977e+00,1.043385784000000038e+00,2.197421666888423886e-01,1.000000000000000048e-04,3.988023794194187843e+01,1.700000000000000122e-01
-2.151455832179586025e+00,7.398983139999999459e-01,7.379938364313605170e-01,1.000000000000000048e-04,4.351848850702828742e+01,2.500000000000000000e-01
-2.141944958179585967e+00,7.302793560000000461e-01,1.104126011431205701e-01,1.000000000000000048e-04,3.832833503477208836e+01,1.400000000000000133e-01
3.012489310999999947e+00,-1.019874449000000016e+00,3.703694455575796685e-01,1.000000000000000048e-04,4.159793930978264598e+01,1.900000000000000022e-01
6.824463880000000149e-01,-9.193269539999999740e-01,1.240693807878618937e-01,1.000000000000000048e-04,3.913181195478924224e+01,1.600000000000000033e-01
6.933168330000000212e-01,-9.307474239999999899e-01,9.762468245702038416e-02,1.000000000000000048e-04,3.828151944014818753e+01,1.600000000000000033e-01
7.005346909999999871e-01,-9.247541049999999929e-01,2.884452768091301245e-01,1.000000000000000048e-04,4.091789764421528020e+01,2.700000000000000178e-01
1.674988617999999985e+00,1.042237757999999959e+00,6.464067927400918290e-01,1.000000000000000048e-04,4.299777642106586484e+01,1.499999999999999944e-01
1.672026148000000045e+00,1.039374368000000048e+00,3.909276222827822167e-01,1.000000000000000048e-04,4.153905178509443630e+01,1.600000000000000033e-01
2.993618983999999816e+00,-1.008517228000000099e+00,3.598836837115917398e-01,1.000000000000000048e-04,4.167228497796660491e+01,1.700000000000000122e-01
2.992837709999999873e+00,-1.014889098000000045e+00,1.171987153578961660e-01,1.000000000000000048e-04,3.822575742255864384e+01,2.800000000000000266e-01
2.980621672999999916e+00,-1.012535224000000067e+00,1.920924392745799736e-01,1.000000000000000048e-04,3.987136077117557420e+01,1.499999999999999944e-01
3.118379398000000080e+00,-1.044341935000000055e+00,5.540646966373441451e-01,1.000000000000000048e-04,4.237350882277762310e+01,3.099999999999999978e-01
3.132904315000000217e+00,-1.046896950999999909e+00,2.115224506063069221e-01,1.000000000000000048e-04,3.989186220070222078e+01,2.200000000000000011e-01
1.248659997999999938e+00,-1.117162079000000086e+00,2.377980161050805563e-01,1.000000000000000048e-04,4.052146416190591793e+01,2.700000000000000178e-01
2.302446713000000145e+00,-1.091359299000000060e+00,4.121026478615210653e-01,1.000000000000000048e-04,4.179436335332046326e+01,2.899999999999999800e-01
3.133486173000000097e+00,-1.061461677999999909e+00,9.134265480352032895e-02,1.000000000000000048e-04,3.869328479280915190e+01,3.099999999999999978e-01
1.251013366000000016e+00,-1.102704651999999896e+00,7.923813967707604711e-02,1.000000000000000048e-04,3.721982560229483994e+01,2.300000000000000100e-01
1.232341668999999973e+00,-1.105349812000000043e+00,6.925413124442960644e-01,1.000000000000000048e-04,4.349671816439397531e+01,2.200000000000000011e-01
2.330538756999999794e+00,-1.086213730999999960e+00,6.736633112062979656e-01,1.000000000000000048e-04,4.307963598111304293e+01,2.300000000000000100e-01
3.104372880000000112e+00,-1.050765708999999992e+00,9.264671889328037757e-01,1.000000000000000048e-04,4.380069921916810927e+01,2.200000000000000011e-01
3.122794933000000217e+00,-1.050942575000000101e+00,4.467887167762347733e-01,1.000000000000000048e-04,4.251210415035087209e+01,2.099999999999999922e-01
3.135928428000000157e+00,-1.044986675000000087e+00,2.681288772912486795e-01,1.000000000000000048e-04,4.086965838291666842e+01,2.300000000000000100e-01
3.135701593999999925e+00,-1.049448040999999998e+00,6.046258419289527453e-01,1.000000000000000048e-04,4.255896448989403780e+01,2.399999999999999911e-01
2.902190216000000156e+00,-1.054666754000000095e+00,7.107821030635261828e-01,1.000000000000000048e-04,4.332058407434747238e+01,2.099999999999999922e-01
1.219278212000000083e+00,-1.102494101000000004e+00,2.669555733682758003e-01,1.000000000000000048e-04,4.023407985628039540e+01,2.399999999999999911e-01
2.314258420999999899e+00,-1.073777474999999981e+00,3.464997409065833089e-01,1.000000000000000048e-04,4.163790837004446388e+01,2.399999999999999911e-01
3.138600745000000192e+00,-1.056209613999999908e+00,1.156103603650999734e+00,1.000000000000000048e-04,4.458976172120712533e+01,2.800000000000000266e-01
2.873014373000000177e+00,-1.047336534999999902e+00,9.854571337599971059e-02,1.000000000000000048e-04,3.822811362320665296e+01,2.000000000000000111e-01
2.890150627000000139e+00,-1.045368942999999939e+00,1.008204522586552798e+00,1.000000000000000048e-04,4.422897993980190279e+01,2.200000000000000011e-01
-3.136513490179586139e+00,-1.038988312000000080e+00,1.491555827445867344e-01,1.000000000000000048e-04,3.920127825417346656e+01,2.800000000000000266e-01
3.120369102000000172e+00,-1.042910143999999928e+00,6.922221502465362164e-01,1.000000000000000048e-04,4.318438965464246593e+01,2.399999999999999911e-01
3.132773262000000170e+00,-1.048570620000000009e+00,4.373184305766235624e-01,1.000000000000000048e-04,4.206539505114889721e+01,2.300000000000000100e-01
3.132934141999999866e+00,-1.046888051000000042e+00,1.581095009704474030e-01,1.000000000000000048e-04,3.932854525358714426e+01,2.200000000000000011e-01
3.134455274000000014e+00,-1.046257098000000108e+00,5.362247842760958783e-01,1.000000000000000048e-04,4.259528374952647312e+01,2.200000000000000011e-01
2.910504301000000016e+00,-1.063930792999999930e+00,2.828190420048075637e-01,1.000000000000000048e-04,4.120239463689938475e+01,2.399999999999999911e-01
2.301930878999999930e+00,-1.084305269999999988e+00,3.260114434939109795e-01,1.000000000000000048e-04,4.064055145071554165e+01,3.099999999999999978e-01
2.314913878000000036e+00,-1.104421796000000011e+00,2.875846072101320150e-01,1.000000000000000048e-04,4.101631814992051517e+01,2.600000000000000089e-01
1.232494258000000009e+00,-1.089556776000000005e+00,1.736214273319125478e-01,1.000000000000000048e-04,3.964413672566471547e+01,3.099999999999999978e-01
-3.138875270179586341e+00,-1.027091259999999950e+00,1.744386786732221584e-01,1.000000000000000048e-04,3.983849960548958080e+01,3.800000000000000044e-01
1.277748142000000087e+00,-1.105660628999999950e+00,3.259999944940674688e-01,1.000000000000000048e-04,4.135197835228355245e+01,2.500000000000000000e-01
2.339694710999999927e+00,-1.083680948999999893e+00,7.902561847813420748e-01,1.000000000000000048e-04,4.373584304776749576e+01,2.300000000000000100e-01
3.085408954000000037e+00,-1.045989441999999991e+00,4.952195628566089525e-01,1.000000000000000048e-04,4.229792824933282702e+01,2.800000000000000266e-01
3.122183823999999941e+00,-1.053540683000000033e+00,2.439025673777996950e-01,1.000000000000000048e-04,3.971123208309069952e+01,3.699999999999999956e-01
1.263417701000000060e+00,-1.099941301000000093e+00,6.292415123452661518e-01,1.000000000000000048e-04,4.264335293934330195e+01,2.200000000000000011e-01
1.238769020999999970e+00,-1.122513239999999968e+00,2.125723508117511873e-01,1.000000000000000048e-04,4.025675320520875999e+01,2.600000000000000089e-01
1.225778744000000087e+00,-1.107856694000000086e+00,3.805124779620334685e-01,1.000000000000000048e-04,4.161063405625220923e+01,2.500000000000000000e-01
2.356185176999999964e+00,-1.090954028000000076e+00,3.318532187764964281e-01,1.000000000000000048e-04,4.163106283513405970e+01,2.700000000000000178e-01
1.231078855000000027e+00,-1.109460918999999990e+00,4.189642966019828663e-01,1.000000000000000048e-04,4.155661413028867202e+01,2.300000000000000100e-01
2.350025410999999842e+00,-1.078254897999999962e+00,5.584008444597368115e-01,1.000000000000000048e-04,4.281884071191691987e+01,2.300000000000000100e-01
2.889344674999999807e+00,-1.054064458000000037e+00,7.460743960599027780e-01,1.000000000000000048e-04,4.335464340432137220e+01,3.200000000000000067e-01
1.260972444000000081e+00,-1.102168519999999985e+00,1.530816949338056343e-01,1.000000000000000048e-04,3.920669228216479496e+01,2.899999999999999800e-01
3.138597202000000141e+00,-1.049455424000000026e+00,3.276772546999788815e-01,1.000000000000000048e-04,4.119017606291439648e+01,2.600000000000000089e-01
1.280173519000000093e+00,-1.106045986000000036e+00,1.081687950997594072e-01,1.000000000000000048e-04,3.817349050148411038e+01,2.899999999999999800e-01
3.140421104000000074e+00,-1.048273016000000002e+00,2.259654962002088929e-01,1.000000000000000048e-04,4.097869129669250299e+01,2.700000000000000178e-01
2.887571490000000018e+00,-1.060290981000000077e+00,6.558440635214730641e-01,1.000000000000000048e-04,4.308726440805977376e+01,2.300000000000000100e-01
3.117377486000000086e+00,-1.048849812999999909e+00,1.015432318765761011e-01,1.000000000000000048e-04,3.825195975264808368e+01,2.800000000000000266e-01
3.139331405000000075e+00,-1.045946368000000071e+00,2.591735553686485005e-01,1.000000000000000048e-04,4.045537956109495070e+01,2.300000000000000100e-01
2.901812189000000153e+00,-1.070407117000000019e+00,4.139566695459113710e-01,1.000000000000000048e-04,4.175831290921435368e+01,2.200000000000000011e-01
2.874698792999999863e+00,-1.069280417999999955e+00,2.510939702661645345e-01,1.000000000000000048e-04,4.025045459433598438e+01,2.200000000000000011e-01
3.126790450000000110e+00,-1.053686536000000062e+00,2.835551566736382867e-01,1.000000000000000048e-04,4.090881053132965661e+01,2.099999999999999922e-01
1.253234667999999941e+00,-1.096167120000000050e+00,5.327536340712852869e-01,1.000000000000000048e-04,4.249777078944130437e+01,2.200000000000000011e-01
1.242189800000000011e+00,-1.095888138000000067e+00,1.924457906310212962e-01,1.000000000000000048e-04,3.985051107290500738e+01,2.899999999999999800e-01
2.358704259000000025e+00,-1.096119858000000002e+00,2.639117886768611587e-01,1.000000000000000048e-04,4.077478367257431557e+01,2.099999999999999922e-01
3.090657074000000115e+00,-1.046905049999999893e+00,1.228807083513290266e-01,1.000000000000000048e-04,3.880802600313987938e+01,2.300000000000000100e-01
2.350320292999999783e+00,-1.077642637000000070e+00,1.331877443969966990e+00,1.000000000000000048e-04,4.492361254135485638e+01,3.300000000000000155e-01
3.120911620999999858e+00,-1.047605429999999949e+00,2.555435161427490609e-01,1.000000000000000048e-04,4.061494636213315346e+01,2.899999999999999800e-01
2.310418793000000193e+00,-1.091478047999999923e+00,1.000771508025983803e-01,1.000000000000000048e-04,3.846172625209813845e+01,3.300000000000000155e-01
2.888242410000000149e+00,-1.055260810999999910e+00,9.402078917242251421e-01,1.000000000000000048e-04,4.405320552235409082e+01,2.999999999999999889e-01
2.313880778000000138e+00,-1.089056457000000089e+00,6.660786375573812812e-01,1.000000000000000048e-04,4.287495870665588171e+01,2.600000000000000089e-01
3.096505394999999883e+00,-1.050897790999999915e+00,4.835275656219244489e-01,1.000000000000000048e-04,4.173610058286029556e+01,3.300000000000000155e-01
1.264206060000000020e+00,-1.108314516000000083e+00,6.570535727161919137e-01,1.000000000000000048e-04,4.327368971846608048e+01,2.500000000000000000e-01
2.317080779999999951e+00,-1.080569537999999996e+00,6.838382959109852166e-01,1.000000000000000048e-04,4.319705709145973316e+01,2.399999999999999911e-01
2.308161032000000112e+00,-1.080284865999999955e+00,7.449788217310264749e-01,1.000000000000000048e-04,4.371055052695116672e+01,3.900000000000000133e-01
1.213089824000000094e+00,-1.095999417000000031e+00,2.077582063589216155e-01,1.000000000000000048e-04,4.023752516568943349e+01,2.700000000000000178e-01
3.095344697999999894e+00,-1.044259242999999948e+00,4.776126323559473086e-01,1.000000000000000048e-04,4.221717226256976829e+01,2.200000000000000011e-01
3.093500166000000107e+00,-1.047656949999999920e+00,6.631969349923765300e-01,1.000000000000000048e-04,4.303912295715904435e+01,2.300000000000000100e-01
2.871266652000000086e+00,-1.064917746999999970e+00,9.803582819986100816e-02,1.000000000000000048e-04,3.858163387152829671e+01,2.500000000000000000e-01
2.872879009000000039e+00,-1.076645507999999918e+00,4.127281457878173576e-01,1.000000000000000048e-04,4.182484240317895541e+01,2.099999999999999922e-01
1.241294699000000001e+00,-1.109043570000000090e+00,6.978878700662121126e-01,1.000000000000000048e-04,4.297267262733952009e+01,2.099999999999999922e-01
1.238788393000000099e+00,-1.083197141000000085e+00,2.006490475654865158e-01,1.000000000000000048e-04,4.011950543066890873e+01,2.999999999999999889e-01
-3.140928712179586135e+00,-1.049943351000000025e+00,4.323090963118951802e-01,1.000000000000000048e-04,4.225977542880314530e+01,2.200000000000000011e-01
2.897074545000000168e+00,-1.050668165000000043e+00,1.084192131539269965e-01,1.000000000000000048e-04,3.849193145512090553e+01,2.099999999999999922e-01
3.133488720999999977e+00,-1.053899826000000095e+00,1.068300999181355238e-01,1.000000000000000048e-04,3.868438610396867716e+01,2.300000000000000100e-01
2.854965548000000020e+00,-1.051119023000000041e+00,4.726742969881683187e-01,1.000000000000000048e-04,4.174934103755144577e+01,3.200000000000000067e-01
2.846666281000000076e+00,-1.061494909000000098e+00,7.622805119796087769e-01,1.000000000000000048e-04,4.346318450387634869e+01,2.600000000000000089e-01
1.477625364000000108e+00,-9.892628350000000070e-01,5.069188392995311876e-01,1.000000000000000048e-04,4.193062830620974069e+01,2.000000000000000111e-01
-2.998301261179586064e+00,-5.567642400000000213e-01,2.069299099275649922e-01,1.000000000000000048e-04,4.000208698838452648e+01,1.799999999999999933e-01
2.915910107000000195e+00,-9.248875840000000403e-01,1.549256250545685276e-01,1.000000000000000048e-04,3.917175363264478705e+01,2.999999999999999889e-01
2.904218159000000021e+00,-9.279150130000000107e-01,5.686131939854663919e-01,1.000000000000000048e-04,4.252647198151864671e+01,2.399999999999999911e-01
2.945746643000000109e+00,-9.241091030000000428e-01,2.928325829751305953e-01,1.000000000000000048e-04,4.136061335694031271e+01,2.300000000000000100e-01
2.195221751000000054e+00,9.567984520000000215e-01,1.277169142241494360e-01,1.000000000000000048e-04,3.854570710245145193e+01,2.200000000000000011e-01
-2.382074272179586227e+00,-9.504311730000000180e-01,3.332335495698981465e-01,1.000000000000000048e-04,4.112328096426356439e+01,2.300000000000000100e-01
2.197803225999999999e+00,9.560313849999999558e-01,7.715307734550020946e-01,1.000000000000000048e-04,4.387798357644612679e+01,2.300000000000000100e-01
-2.380846050179586282e+00,-9.512843520000000552e-01,8.818219479345277279e-01,1.000000000000000048e-04,4.399692624122815943e+01,2.600000000000000089e-01
-2.382960995179586039e+00,-9.501026420000000527e-01,2.166372984749156405e-01,1.000000000000000048e-04,4.003897453076387336e+01,2.099999999999999922e-01
2.192165822000000208e+00,9.554729659999999791e-01,4.255049254235889755e-01,1.000000000000000048e-04,4.188650705255634676e+01,2.899999999999999800e-01
-2.383512939179586176e+00,-9.505219620000000535e-01,8.845018913512459058e-01,1.000000000000000048e-04,4.401245510320649146e+01,2.000000000000000111e-01
2.197044292000000176e+00,9.582492320000000063e-01,3.595554610856552813e-01,1.000000000000000048e-04,4.189501285523684260e+01,2.500000000000000000e-01
2.198013217999999824e+00,9.570721989999999568e-01,3.088604790725908433e-01,1.000000000000000048e-04,4.097533838260876848e+01,2.099999999999999922e-01
2.198391541999999976e+00,9.561199929999999458e-01,1.153458876742978756e-01,1.000000000000000048e-04,3.869992535701662462e+01,2.300000000000000100e-01
2.199218732999999926e+00,9.570277640000000030e-01,8.492848473612100157e-01,1.000000000000000048e-04,4.375398949079421840e+01,2.200000000000000011e-01
2.196667974999999995e+00,9.569524729999999701e-01,1.326537067341513332e-01,1.000000000000000048e-04,3.915109853617919811e+01,2.399999999999999911e-01
2.196400267000000017e+00,9.571105250000000453e-01,1.279897954491124867e-01,1.000000000000000048e-04,3.885924399492817827e+01,2.500000000000000000e-01
2.195980999000000100e+00,9.563170869999999546e-01,2.977106304168017914e-01,1.000000000000000048e-04,4.130830282311276846e+01,2.200000000000000011e-01
2.198886345000000020e+00,9.574225640000000315e-01,2.743752304991395885e-01,1.000000000000000048e-04,4.048250371226724553e+01,3.300000000000000155e-01
-2.382942164179586264e+00,-9.487821469999999646e-01,1.247147134615938846e+00,1.000000000000000048e-04,4.486036043874091916e+01,2.000000000000000111e-01
2.197058621000000045e+00,9.568337070000000333e-01,4.572509538424416320e-01,1.000000000000000048e-04,4.189645557919835284e+01,2.600000000000000089e-01
2.196754174000000059e+00,9.569828230000000380e-01,3.508592848071310222e-01,1.000000000000000048e-04,4.101160895703254283e+01,2.399999999999999911e-01
-2.381905888179586039e+00,-9.494029419999999719e-01,5.119889323600859132e-01,1.000000000000000048e-04,4.224691793241467508e+01,2.399999999999999911e-01
-2.382353656179586388e+00,-9.501919130000000546e-01,4.757844291736306186e-01,1.000000000000000048e-04,4.196372043859169310e+01,2.600000000000000089e-01
-2.385313647179586383e+00,-9.492824659999999914e-01,1.838756015570512936e-01,1.000000000000000048e-04,3.993568292533810649e+01,2.399999999999999911e-01
-2.383308463179586223e+00,-9.502672559999999491e-01,5.773089849783867855e-01,1.000000000000000048e-04,4.260379986300936395e+01,2.000000000000000111e-01
2.194446376000000143e+00,9.548028840000000184e-01,7.152655062398423080e-01,1.000000000000000048e-04,4.263073845734540157e+01,3.699999999999999956e-01
-2.377678389179586294e+00,-9.493284189999999789e-01,4.644841463442459517e-01,1.000000000000000048e-04,4.184864375437137340e+01,3.099999999999999978e-01
2.195048706000000127e+00,9.553664520000000326e-01,8.974776418787033805e-02,1.000000000000000048e-04,3.770010152400600845e+01,2.399999999999999911e-01
2.194988459000000169e+00,9.569281090000000267e-01,3.490479074169963170e-01,1.000000000000000048e-04,4.157664727224190671e+01,2.099999999999999922e-01
2.198773670000000013e+00,9.585742720000000050e-01,9.146851774459210382e-01,1.000000000000000048e-04,4.409783578831761020e+01,2.800000000000000266e-01
2.196007632000000154e+00,9.574002940000000406e-01,1.394894045663834792e-01,1.000000000000000048e-04,3.897948744314540903e+01,2.800000000000000266e-01
2.193610842000000005e+00,9.569156829999999614e-01,7.679464274137632884e-01,1.000000000000000048e-04,4.369014208820838974e+01,2.099999999999999922e-01
2.194846306000000080e+00,9.574700699999999509e-01,1.654585572742475197e-01,1.000000000000000048e-04,3.965543234085472335e+01,2.300000000000000100e-01
-2.901318991795864832e-01,1.086903570000000041e+00,1.519074687579613503e-01,1.000000000000000048e-04,3.929945428851207367e+01,2.000000000000000111e-01
-2.914486071795865385e-01,1.085909494999999891e+00,1.105345425437525009e-01,1.000000000000000048e-04,3.848104361679723695e+01,1.000000000000000056e-01
-2.954610881795858290e-01,1.084462065999999947e+00,2.137354421181818509e-01,1.000000000000000048e-04,3.997294765267767502e+01,1.199999999999999956e-01
-3.403197011795864313e-01,1.090760651000000081e+00,2.289066858334101173e-01,1.000000000000000048e-04,4.018735586749906474e+01,8.999999999999999667e-02
-3.429455761795860980e-01,1.087892671000000089e+00,3.328126399727970863e-01,1.000000000000000048e-04,4.107313930815008263e+01,1.400000000000000133e-01
6.896152909999999636e-01,-9.249195220000000495e-01,7.034382865906774196e-01,1.000000000000000048e-04,4.327058076337997505e+01,2.000000000000000111e-01
1.024453132999999960e+00,1.182715689999999986e+00,3.327484002390082019e-01,1.000000000000000048e-04,4.127354983666879207e+01,1.900000000000000022e-01
1.006083177000000051e+00,1.165244638999999971e+00,6.831614187340477873e-01,1.000000000000000048e-04,4.323566482243878539e+01,1.700000000000000122e-01
9.905969959999999519e-01,1.153001898999999941e+00,3.218652012595835110e-01,1.000000000000000048e-04,4.108677665686289515e+01,3.499999999999999778e-01
2.950804928999999799e+00,-1.010655210999999998e+00,1.219095588864531621e+00,1.000000000000000048e-04,4.468314941156862830e+01,1.700000000000000122e-01
2.951637304000000128e+00,-1.010683065999999908e+00,9.197285437318756252e-01,1.000000000000000048e-04,4.410548016592994713e+01,1.900000000000000022e-01
-2.349248843179586377e+00,-9.322901449999999590e-01,2.146247908104421676e-01,1.000000000000000048e-04,4.071687272818476089e+01,1.900000000000000022e-01
