7.014473677544876828e-01,5.864484995747685225e-01,3.890712904265025696e-01,1.000000000000000048e-04,4.172032142537055677e+01,1.700000000000000122e-01
1.302967723075604489e+00,1.351797855062170761e+00,2.355882368639941049e-01,1.000000000000000048e-04,4.047593228946814747e+01,1.600000000000000033e-01
-3.923933266239223450e-01,8.893487655233247580e-01,6.088917848123833743e-01,1.000000000000000048e-04,4.289534145303138502e+01,1.600000000000000033e-01
-5.480403193986207455e-01,-1.593028603104262864e-01,7.327305929757490510e-01,1.000000000000000048e-04,4.323627425353858911e+01,1.600000000000000033e-01
-1.586668568145646940e+00,3.311670190394622182e-02,7.878296667189084168e-01,1.000000000000000048e-04,4.359155323379219737e+01,1.900000000000000022e-01
4.358845060197138466e-01,-1.192820296386817747e+00,2.960157172332182896e-01,1.000000000000000048e-04,4.068312821079987884e+01,1.600000000000000033e-01
-2.115012218573708580e-02,-1.324617928820906787e+00,4.517792817220984691e-01,1.000000000000000048e-04,4.215432716478355246e+01,1.700000000000000122e-01
1.825968835570201065e+00,-1.104325693851549772e+00,7.984315459491055922e-01,1.000000000000000048e-04,4.367485122551683219e+01,1.600000000000000033e-01
2.757348861294723008e+00,5.630221730161970584e-01,1.882193735427653003e-01,1.000000000000000048e-04,3.996346398210319961e+01,1.600000000000000033e-01
-1.126604928690488894e+00,3.694147785779178239e-01,2.343771428844265703e-01,1.000000000000000048e-04,4.033306658788890786e+01,2.200000000000000011e-01
1.566299762825075881e+00,-1.088603715685210860e+00,4.033902556776587378e-01,1.000000000000000048e-04,4.178681674851662109e+01,8.999999999999999667e-02
2.855203120993564880e+00,1.736420766300403873e-01,3.111832209204419275e-01,1.000000000000000048e-04,4.099118573863879078e+01,8.000000000000000167e-02
1.228874573854055186e-02,-1.054644203117417689e+00,3.217191173628519696e-01,1.000000000000000048e-04,4.109431980429373965e+01,1.100000000000000006e-01
-6.231527365570865840e-03,-2.083968800959563605e-01,1.236986900162410308e+00,1.000000000000000048e-04,4.475678239104858847e+01,1.600000000000000033e-01
2.456748239703069991e+00,-7.991053830713734651e-01,3.174250499525257396e-01,1.000000000000000048e-04,4.112182230433415953e+01,1.300000000000000044e-01
1.703179686801885140e+00,8.291833143958511343e-01,3.493481511026366171e-01,1.000000000000000048e-04,4.134968139946283117e+01,8.999999999999999667e-02
3.253969406006911314e-01,4.489829946179679787e-01,4.454848242045317264e-01,1.000000000000000048e-04,4.188899239875028968e+01,2.099999999999999922e-01
-4.755261200963984969e-01,-8.173307103538097751e-01,9.148074259017688892e-01,1.000000000000000048e-04,4.413463952630269915e+01,1.799999999999999933e-01
-3.080764820789935854e+00,-6.186697216446268577e-02,2.330391783912670878e-01,1.000000000000000048e-04,4.021375347724459459e+01,1.600000000000000033e-01
6.822875810572779365e-01,1.436044431583928915e+00,1.698572372633175842e-01,1.000000000000000048e-04,3.959864354648844653e+01,1.799999999999999933e-01
-1.537126348295388079e+00,-6.575494237326395819e-03,1.720339058778421748e-01,1.000000000000000048e-04,3.973701399496663100e+01,1.600000000000000033e-01
-1.031434784285258477e+00,1.213631324561131652e+00,4.561989112357818232e-01,1.000000000000000048e-04,4.194648242583792097e+01,2.000000000000000111e-01
1.477576135897664678e+00,1.259806704387091081e+00,1.846238032211071634e-01,1.000000000000000048e-04,3.947701028283644575e+01,1.700000000000000122e-01
2.652845559609176007e+00,2.364503438720122475e-02,5.968982552268780051e-01,1.000000000000000048e-04,4.287475828840356229e+01,1.700000000000000122e-01
1.076671804239547114e+00,-1.999321471600750133e-01,1.278597152576413709e+00,1.000000000000000048e-04,4.480107928453561073e+01,1.700000000000000122e-01
2.479304945942475413e-01,6.157153585726886647e-01,2.328851036290437992e-01,1.000000000000000048e-04,4.042067018741343531e+01,2.000000000000000111e-01
-2.297153395904398820e-01,-6.899219251289110399e-01,1.322296015387608215e+00,1.000000000000000048e-04,4.497122203826112496e+01,1.900000000000000022e-01
5.182848754564033378e-01,-9.916016431585452651e-01,8.908788682152792848e-01,1.000000000000000048e-04,4.367572807515875155e+01,1.700000000000000122e-01
-1.012203449050441684e+00,-1.209418519181002960e+00,6.425035895193724755e-01,1.000000000000000048e-04,4.304755201686405286e+01,1.000000000000000056e-01
-2.431119393112467719e+00,1.123696240956019388e+00,1.794300901276455473e-01,1.000000000000000048e-04,3.972903197311793377e+01,1.000000000000000056e-01
-2.106970082567208635e+00,5.487392234722836548e-01,9.305371372082147374e-01,1.000000000000000048e-04,4.375263546462842612e+01,1.100000000000000006e-01
-1.562837052060520593e+00,-3.678514533784877916e-01,4.386824556147044252e-01,1.000000000000000048e-04,4.197358554976274547e+01,1.199999999999999956e-01
-9.610268223994791192e-01,-7.230456568154035590e-01,2.518352213081740398e-01,1.000000000000000048e-04,4.068050762536353204e+01,1.300000000000000044e-01
-2.826615346455997990e+00,3.127677528854357902e-01,3.336371937502347063e-01,1.000000000000000048e-04,4.117576725556865114e+01,1.199999999999999956e-01
1.613050640909113653e+00,-7.479323264338189059e-01,1.429524790197780337e-01,1.000000000000000048e-04,3.955119038223837435e+01,1.499999999999999944e-01
1.927121071348518733e+00,-8.099855920709964074e-02,2.923142127488163045e-01,1.000000000000000048e-04,4.106478099961550043e+01,2.200000000000000011e-01
-2.832847311550488634e+00,5.011632487983010975e-01,7.830614857221844805e-01,1.000000000000000048e-04,4.337106854375036846e+01,1.199999999999999956e-01
1.192752284841422039e+00,-1.007792837372956107e-01,1.798575632594034968e-01,1.000000000000000048e-04,3.962735471066711312e+01,1.600000000000000033e-01
-1.584872261272076699e-01,6.096924311606666258e-01,3.579774070954719889e-01,1.000000000000000048e-04,4.133429072034159901e+01,2.200000000000000011e-01
-2.398862468622330102e+00,-4.361306103069684248e-02,7.121372612363174870e-01,1.000000000000000048e-04,4.365660786983973907e+01,2.200000000000000011e-01
-8.797912013079551841e-01,-2.226632716458001315e-01,6.608397474947700356e-01,1.000000000000000048e-04,4.306623347334264906e+01,1.300000000000000044e-01
2.562112891306642659e+00,-9.859378914157623797e-02,3.631360100868434859e-01,1.000000000000000048e-04,4.182960052710340193e+01,1.600000000000000033e-01
-1.862910528516672493e+00,4.439528995551187407e-01,4.758451824644247541e-01,1.000000000000000048e-04,4.235542302129401548e+01,2.099999999999999922e-01
2.764725582466478926e+00,-8.861766302924645178e-01,5.704278520114278717e-01,1.000000000000000048e-04,4.270049679516495900e+01,2.000000000000000111e-01
-1.614544286763280656e+00,4.624678188691353498e-01,5.553424785904947925e-01,1.000000000000000048e-04,4.260891676729193733e+01,2.000000000000000111e-01
-2.187026447478326752e+00,9.735560064759263277e-02,5.685275005832486350e-01,1.000000000000000048e-04,4.278715613970143039e+01,2.500000000000000000e-01
-2.913462014890328966e-01,-4.739391670350630026e-01,1.478611308202983921e-01,1.000000000000000048e-04,3.929620624579528254e+01,2.200000000000000011e-01
2.221021539657064281e+00,-8.317867494279381768e-01,4.645396961970009730e-01,1.000000000000000048e-04,4.215900065001407881e+01,1.199999999999999956e-01
-1.394340890945607869e+00,3.131073246392317433e-01,2.310151843791115045e-01,1.000000000000000048e-04,4.032632427492649896e+01,1.400000000000000133e-01
-3.006639138636368447e+00,-5.198144158195874276e-01,3.046701001303016021e-01,1.000000000000000048e-04,4.096512166010168698e+01,1.400000000000000133e-01
-2.587449348377147018e+00,-8.575602127841986944e-01,1.103716538251132917e+00,1.000000000000000048e-04,4.423648643049308049e+01,1.100000000000000006e-01
1.981097185399233851e+00,1.232924598233675617e-01,1.052662898460511975e+00,1.000000000000000048e-04,4.445237501388138668e+01,1.199999999999999956e-01
1.679137792881558511e+00,5.509790394444640249e-01,4.610489999883491397e-01,1.000000000000000048e-04,4.208840571668219610e+01,2.000000000000000111e-01
-5.418457224274662032e-01,6.112852598361238066e-01,1.476887668268727083e-01,1.000000000000000048e-04,3.909494397589644876e+01,1.199999999999999956e-01
-7.259767900468379054e-01,3.592222879870916596e-01,3.834276813038108855e-01,1.000000000000000048e-04,4.155093117601074937e+01,1.499999999999999944e-01
-3.014311044562152819e+00,-1.109370212709416936e+00,2.609672827410436380e-01,1.000000000000000048e-04,4.042176597429169504e+01,1.499999999999999944e-01
4.089378759682342768e-01,-4.545165431772548725e-01,6.465238747373793782e-01,1.000000000000000048e-04,4.295792467287088101e+01,1.100000000000000006e-01
5.069677950440056868e-01,-7.592996080948336557e-01,4.915740253365168400e-01,1.000000000000000048e-04,4.212574090094949497e+01,1.199999999999999956e-01
-1.493257035115718168e-01,-7.073727601600080517e-01,3.317760688168902572e-01,1.000000000000000048e-04,4.132225346060914717e+01,1.300000000000000044e-01
4.042043828865544697e-01,9.407118685349553644e-01,1.265838746028304929e+00,1.000000000000000048e-04,4.472777310473352941e+01,1.300000000000000044e-01
8.905313163691950251e-01,-3.824231345008954897e-01,6.283142964275423292e-01,1.000000000000000048e-04,4.273046846140722010e+01,1.100000000000000006e-01
2.030171185553312441e+00,-2.636926551929250628e-01,3.179702791598884026e-01,1.000000000000000048e-04,4.099288817439892085e+01,1.600000000000000033e-01
-3.054289385922928091e+00,-1.373236924533355552e+00,5.910121091162143792e-01,1.000000000000000048e-04,4.281616022251547093e+01,1.199999999999999956e-01
2.179293112620513284e+00,-1.012605809511595290e-01,5.375630046240946758e-01,1.000000000000000048e-04,4.265817890195665996e+01,1.300000000000000044e-01
-1.818513214778816334e-01,-5.912285132736497806e-01,8.991070886257839234e-01,1.000000000000000048e-04,4.366835955857632001e+01,1.199999999999999956e-01
6.375524488641279852e-01,8.788616884462263634e-01,6.398985553331153486e-01,1.000000000000000048e-04,4.301473534132994558e+01,1.700000000000000122e-01
8.621928931077302849e-01,-1.163063977741379373e+00,8.018824582599570761e-01,1.000000000000000048e-04,4.358709883761181203e+01,1.100000000000000006e-01
-7.350823636745751344e-02,-6.782932919692421514e-01,2.941283002531451807e-01,1.000000000000000048e-04,4.099557670904768258e+01,1.100000000000000006e-01
-1.454814590256482854e+00,-1.228846798322457801e+00,1.358858317208060384e-01,1.000000000000000048e-04,3.924433898735986048e+01,1.199999999999999956e-01
-1.421197772342434051e+00,-1.375091708726561279e-01,4.624102218289891653e-01,1.000000000000000048e-04,4.181721871555573955e+01,1.499999999999999944e-01
9.749532850361113390e-01,-5.204804269086404922e-02,2.706581415103881394e-01,1.000000000000000048e-04,4.065033735130029413e+01,1.199999999999999956e-01
-1.132842766944852642e-01,-4.422583997605415984e-01,4.672319789104451004e-01,1.000000000000000048e-04,4.217092018795462138e+01,1.400000000000000133e-01
-3.056535106953333081e+00,1.344919224150974646e+00,5.008569090332002371e-01,1.000000000000000048e-04,4.223347858545178468e+01,1.199999999999999956e-01
-2.005602683639951866e+00,-1.166499766855632725e+00,1.978754084237008826e-01,1.000000000000000048e-04,3.988311326850319460e+01,1.100000000000000006e-01
-3.526307343405612471e-01,1.752795945662954935e-01,2.658341448895256143e-01,1.000000000000000048e-04,4.073793395499865966e+01,1.100000000000000006e-01
-1.348293440531133092e+00,7.985854139769892335e-01,1.974042155259894127e-01,1.000000000000000048e-04,3.981552164885414413e+01,1.300000000000000044e-01
-1.213894172049138076e+00,-2.852358835225650147e-01,3.696119361847129969e-01,1.000000000000000048e-04,4.166169086404756428e+01,1.400000000000000133e-01
8.732660054607945810e-01,6.822354357042561546e-01,8.449128687038165442e-01,1.000000000000000048e-04,4.365646321752659986e+01,1.199999999999999956e-01
-1.607655209461439805e+00,7.571788988627106143e-01,1.034046769961023848e+00,1.000000000000000048e-04,4.424984063100565379e+01,1.100000000000000006e-01
-2.713126166379401294e+00,-2.574509516152700961e-01,5.471289813471735819e-01,1.000000000000000048e-04,4.255720654865280039e+01,1.199999999999999956e-01
2.614015407650885692e+00,-8.210973321469494657e-02,3.146822450848345554e-01,1.000000000000000048e-04,4.098252515460001888e+01,1.199999999999999956e-01
-2.847948132030951651e+00,-8.358172871610102250e-01,8.294565744107189609e-01,1.000000000000000048e-04,4.369247126212420085e+01,1.300000000000000044e-01
1.971705900186812244e+00,-1.120352268660631090e+00,9.624764137494972172e-01,1.000000000000000048e-04,4.399473484017454439e+01,1.199999999999999956e-01
3.061705636712500400e+00,1.381234211660103295e+00,3.468535865369275495e-01,1.000000000000000048e-04,4.138586401400758064e+01,1.100000000000000006e-01
4.542615533770746339e-01,-7.864437963028895195e-01,7.373710155230368546e-01,1.000000000000000048e-04,4.340843920262121713e+01,1.199999999999999956e-01
-1.921359511030428457e+00,5.801735913351881990e-01,9.852650749661071572e-01,1.000000000000000048e-04,4.439706597781441388e+01,1.700000000000000122e-01
3.072868719087612277e+00,-1.016074172211964832e-01,1.053714133011660614e+00,1.000000000000000048e-04,4.459028329665016344e+01,1.400000000000000133e-01
2.737775149496036953e+00,-2.697624833999385796e-01,6.387688028400877460e-01,1.000000000000000048e-04,4.290369197211354901e+01,1.199999999999999956e-01
6.976246303585504904e-01,4.885611026279601532e-04,7.907851882690635215e-01,1.000000000000000048e-04,4.347918117025565010e+01,1.600000000000000033e-01
-2.148159174634036273e+00,9.413220813202727300e-03,2.870467807233703095e-01,1.000000000000000048e-04,4.115884937072315353e+01,1.700000000000000122e-01
-1.948986061243360712e+00,-6.625077090584822193e-01,1.826406867954490920e-01,1.000000000000000048e-04,3.982307980198044817e+01,1.499999999999999944e-01
2.726441487906066108e-01,7.264564034225906575e-01,4.757286557016664474e-01,1.000000000000000048e-04,4.229910820058262289e+01,1.100000000000000006e-01
1.047171169166579929e+00,5.287936315571584167e-02,1.309367172850822936e+00,1.000000000000000048e-04,4.514647942659756552e+01,2.000000000000000111e-01
3.118501649208511139e+00,-2.375071696051449521e-01,1.323585503770405403e+00,1.000000000000000048e-04,4.484231372513294644e+01,1.300000000000000044e-01
-2.374603185929139215e+00,3.679601666477374522e-01,2.921669102533963613e-01,1.000000000000000048e-04,4.093660184126920853e+01,1.499999999999999944e-01
2.114024298748328867e+00,-4.593425737164673617e-01,3.344282074783115899e-01,1.000000000000000048e-04,4.138750891696341938e+01,1.100000000000000006e-01
-2.320915599482940905e+00,1.988838273369935017e-01,4.905950490883581594e-01,1.000000000000000048e-04,4.239892399161095682e+01,1.199999999999999956e-01
-2.815153187107107602e+00,4.622985199720814897e-01,2.529037716460162954e-01,1.000000000000000048e-04,4.051593411357170993e+01,1.100000000000000006e-01
2.952244566918561297e+00,-7.508141388646828451e-01,2.035392910092019836e-01,1.000000000000000048e-04,3.988000173344274657e+01,1.100000000000000006e-01
-3.374266285956837308e-01,7.044522283616352354e-01,7.896125601039467590e-01,1.000000000000000048e-04,4.347517453015857569e+01,2.099999999999999922e-01
-1.438166512416775511e+00,4.104046296017003215e-01,5.383118171066199054e-01,1.000000000000000048e-04,4.264151734923701298e+01,1.199999999999999956e-01
-1.822708613089585095e+00,-7.101873545729736614e-01,1.607928341146491746e-01,1.000000000000000048e-04,3.957973161181679700e+01,1.199999999999999956e-01
-2.816444573890819036e+00,-1.764476122967257865e-01,3.058882476076785206e-01,1.000000000000000048e-04,4.107557483403961385e+01,1.199999999999999956e-01
2.460934302317292044e+00,-4.404363116217835383e-01,5.378573146392588988e-01,1.000000000000000048e-04,4.266401365677993596e+01,1.700000000000000122e-01
1.918092981958550602e+00,1.074988334882631680e-01,1.648776917442025258e-01,1.000000000000000048e-04,3.943575215778495391e+01,1.100000000000000006e-01
7.937998717517396052e-01,2.507970887583219621e-01,4.738991905731630983e-01,1.000000000000000048e-04,4.220921352251149727e+01,2.099999999999999922e-01
-2.578006931546068081e+00,6.577013108699971689e-01,1.597051042993058445e-01,1.000000000000000048e-04,3.932338910942042531e+01,1.300000000000000044e-01
7.663039676851082227e-01,3.357248081528789729e-01,3.624226735880378136e-01,1.000000000000000048e-04,4.160431663998507901e+01,1.199999999999999956e-01
3.753591891880159181e-01,4.193049279667215856e-02,7.979901956032933175e-01,1.000000000000000048e-04,4.365545450342477807e+01,1.300000000000000044e-01
-1.903703978239519756e+00,5.293556814293536306e-01,1.869563975501382647e-01,1.000000000000000048e-04,3.985238731501363674e+01,1.799999999999999933e-01
-3.552287047696101041e-01,-2.136475167893372440e-01,2.108601126497084977e-01,1.000000000000000048e-04,3.995114265393038977e+01,1.199999999999999956e-01
2.224677837051598495e+00,1.092858857494189095e+00,9.357225056158045007e-01,1.000000000000000048e-04,4.390665906528482765e+01,1.199999999999999956e-01
-2.241038130818121310e+00,-2.119790848266476235e-01,6.387572162481720550e-01,1.000000000000000048e-04,4.290400289601376471e+01,1.900000000000000022e-01
-1.354329480418589693e+00,2.806181630628439283e-01,1.533842845829036516e-01,1.000000000000000048e-04,3.954187022394279438e+01,1.300000000000000044e-01
-1.057588587286057091e+00,6.017420559768158483e-01,1.811975919360255816e-01,1.000000000000000048e-04,3.970662644438586142e+01,1.499999999999999944e-01
4.491861142188926515e-01,2.837952402894783344e-01,1.333428981603086871e+00,1.000000000000000048e-04,4.490640654676092680e+01,1.499999999999999944e-01
1.175620301473101037e+00,1.258375445844042151e-01,2.421005750630436104e-01,1.000000000000000048e-04,4.039265554107424805e+01,1.400000000000000133e-01
-7.513092899161510907e-01,-3.674048284417288368e-01,1.207159459472109120e+00,1.000000000000000048e-04,4.475600591077387236e+01,1.400000000000000133e-01
-7.646998716055293244e-01,1.464203856122192615e-01,4.277369726975297493e-01,1.000000000000000048e-04,4.172327691356971968e+01,1.199999999999999956e-01
-2.626744165467850056e+00,-8.785961859603380608e-01,1.187059733010495943e-01,1.000000000000000048e-04,3.888159264266487725e+01,1.199999999999999956e-01
-2.016448155728231217e+00,-2.627153207091850184e-01,5.939371266470390154e-01,1.000000000000000048e-04,4.265027500124690363e+01,1.100000000000000006e-01
-2.138176314246587939e+00,-5.638412854565995058e-01,2.236361303988261273e-01,1.000000000000000048e-04,4.025722559301392778e+01,1.100000000000000006e-01
-1.366613590788382515e+00,6.471151472122240733e-01,6.117331386252538028e-01,1.000000000000000048e-04,4.298991927275702807e+01,1.400000000000000133e-01
2.538719807596018008e+00,-9.410277887251550233e-02,5.631179304981730471e-01,1.000000000000000048e-04,4.280460234309441603e+01,1.499999999999999944e-01
-2.023904308804601815e+00,8.729868465496055663e-01,1.960450330410823394e-01,1.000000000000000048e-04,3.981038842449490289e+01,1.199999999999999956e-01
5.023498084903148531e-01,-2.486827972934406716e-01,6.909980486076581219e-01,1.000000000000000048e-04,4.333896189318046055e+01,2.099999999999999922e-01
1.559827382841332266e-01,-1.155309768997138553e+00,2.385843650615084854e-01,1.000000000000000048e-04,4.010605738635753426e+01,1.300000000000000044e-01
-4.278509243084283042e-01,-3.574471520142576964e-01,1.284092006578916312e+00,1.000000000000000048e-04,4.475813142330537886e+01,1.400000000000000133e-01
-1.694690166003052445e+00,-3.708191863609464622e-01,2.659974420652098104e-01,1.000000000000000048e-04,4.064700422764178711e+01,1.199999999999999956e-01
2.538778453861804785e+00,9.704233759320217700e-01,2.111082582609256075e-01,1.000000000000000048e-04,4.003072839771456870e+01,1.199999999999999956e-01
-1.381884441670471642e+00,4.281931760594066549e-01,1.238273467865663946e+00,1.000000000000000048e-04,4.454403025230475066e+01,1.100000000000000006e-01
-2.672216891299283859e-02,9.118763706695109938e-01,1.384468912965284293e-01,1.000000000000000048e-04,3.901731599061469780e+01,1.300000000000000044e-01
2.965865485669832324e+00,4.200332370952282179e-01,7.751188841489329295e-01,1.000000000000000048e-04,4.344439839962756622e+01,1.199999999999999956e-01
-4.229747032796589146e-01,-8.108785394143267489e-01,4.921580719373921387e-01,1.000000000000000048e-04,4.220753568951325008e+01,1.199999999999999956e-01
-1.545687782139806954e+00,-5.719341936539013016e-01,2.630084043153326778e-01,1.000000000000000048e-04,4.064838186608210435e+01,1.300000000000000044e-01
-1.452358887930712550e+00,-7.162442650868141580e-01,4.698478785041932948e-01,1.000000000000000048e-04,4.196512619650607689e+01,1.300000000000000044e-01
-7.771146863738715993e-01,-2.871071625498133884e-01,7.398906294111862181e-01,1.000000000000000048e-04,4.316622123515323750e+01,1.199999999999999956e-01
-9.648670127917484685e-01,2.757725798248578108e-02,2.740650426022746000e-01,1.000000000000000048e-04,4.074118679069220406e+01,1.199999999999999956e-01
-1.080134202816299016e+00,7.077474480204277718e-01,5.926847916052910836e-01,1.000000000000000048e-04,4.267420618973967805e+01,1.300000000000000044e-01
-2.063199328051985137e+00,-4.796316694849922513e-02,2.197216159133565938e-01,1.000000000000000048e-04,4.029397789923277884e+01,1.199999999999999956e-01
-2.814667853035916156e+00,5.032431420889516005e-02,3.136647694369472106e-01,1.000000000000000048e-04,4.090752711464149627e+01,1.199999999999999956e-01
-4.676036249605424189e-01,3.106227460656147965e-01,4.179051243200149202e-01,1.000000000000000048e-04,4.175248927554800105e+01,1.199999999999999956e-01
3.453073243115261093e-01,-2.010307603005740962e-01,6.197201104818550466e-01,1.000000000000000048e-04,4.285750339949575505e+01,1.499999999999999944e-01
-1.017989823782821990e+00,-2.038493559104872510e-01,3.906073440510777761e-01,1.000000000000000048e-04,4.176021756758058956e+01,1.199999999999999956e-01
2.006719454486001197e+00,-7.777926521764617629e-01,3.824605511322844986e-01,1.000000000000000048e-04,4.148652842300708699e+01,2.000000000000000111e-01
3.811823289006177617e-01,-2.021379059185781646e-01,7.351599660607315290e-01,1.000000000000000048e-04,4.335112329995291702e+01,2.000000000000000111e-01
1.176755497139009954e+00,3.656129167709583072e-01,4.920237573510339857e-01,1.000000000000000048e-04,4.246137321764034311e+01,1.400000000000000133e-01
-3.322021019463798908e-01,-7.964331515258110672e-01,5.535502548961346303e-01,1.000000000000000048e-04,4.266374185423015319e+01,1.199999999999999956e-01
1.488638341145998467e+00,-5.802176646517244185e-01,3.207310813016335249e-01,1.000000000000000048e-04,4.118655976084195203e+01,1.300000000000000044e-01
1.324859451525673748e+00,2.418206107892528767e-01,1.257498170033160001e+00,1.000000000000000048e-04,4.495180798402806488e+01,1.799999999999999933e-01
1.618981583577949301e+00,3.272426574756381878e-01,2.426313465095997213e-01,1.000000000000000048e-04,4.054652326342533541e+01,1.499999999999999944e-01
1.003297842785071836e+00,6.006477180957223716e-01,8.344962695557069932e-01,1.000000000000000048e-04,4.359592428931384234e+01,1.100000000000000006e-01
-1.923409574730628124e+00,1.362187502844500742e-01,4.723172481449919857e-01,1.000000000000000048e-04,4.206639534345089260e+01,1.199999999999999956e-01
-1.800552903536209337e+00,-5.420344822819895825e-01,3.626898536800164941e-01,1.000000000000000048e-04,4.147061596121577765e+01,1.499999999999999944e-01
1.745186100809879903e+00,-1.115218772500776057e+00,6.286352159618042723e-01,1.000000000000000048e-04,4.310772876810619891e+01,1.900000000000000022e-01
2.795062883382088081e+00,-1.191847824486580443e-01,3.403121008229483824e-01,1.000000000000000048e-04,4.117200379328493653e+01,1.799999999999999933e-01
-1.245535045337601732e+00,3.914611388063953257e-01,3.784938499964320968e-01,1.000000000000000048e-04,4.158506139153321612e+01,1.499999999999999944e-01
2.988004051906951730e-01,3.548939009281408818e-01,9.314458605381930045e-01,1.000000000000000048e-04,4.399935749467710622e+01,1.499999999999999944e-01
-1.511898724924972237e+00,7.720854817506106471e-01,6.569961356247480122e-01,1.000000000000000048e-04,4.274556672936523682e+01,3.599999999999999867e-01
1.681094402917676867e+00,-3.263749567958234010e-01,5.986171564078821561e-01,1.000000000000000048e-04,4.223874938772053866e+01,3.900000000000000133e-01
1.444401389565591387e+00,9.169331115861645287e-02,2.773975699678425944e-01,1.000000000000000048e-04,4.088979250169711577e+01,3.900000000000000133e-01
-7.678802587812367797e-01,5.866888449784855020e-01,2.070154171598281856e-01,1.000000000000000048e-04,4.061357343668771591e+01,3.099999999999999978e-01
-1.600373487948422158e+00,-3.099823971224313635e-01,3.181900862349720249e-01,1.000000000000000048e-04,4.185742702991195330e+01,3.300000000000000155e-01
4.678051593713816736e-01,6.064472448323452447e-01,1.468677717542881123e-01,1.000000000000000048e-04,3.945442731327231911e+01,4.000000000000000222e-01
-2.997782375882024120e+00,4.172439446172733213e-01,1.901549475776296294e-01,1.000000000000000048e-04,3.981795990201970170e+01,3.200000000000000067e-01
-1.695856406082106638e+00,4.550929535562002748e-01,5.913788075796597710e-01,1.000000000000000048e-04,4.320396471908891556e+01,3.200000000000000067e-01
1.440382174066603405e+00,2.258138351124054921e-01,1.342036342727765952e-01,1.000000000000000048e-04,3.841960741636066956e+01,3.599999999999999867e-01
1.172696739286754664e+00,5.568522814757606021e-01,7.885240046716430751e-01,1.000000000000000048e-04,4.340261402279653424e+01,2.399999999999999911e-01
3.034541958949077411e-01,8.329499095944017384e-01,3.075933921250733061e-01,1.000000000000000048e-04,4.092977970544237110e+01,2.999999999999999889e-01
2.819620438593092970e+00,-7.667201251632641545e-01,3.487963711651156373e-01,1.000000000000000048e-04,4.189292279233420402e+01,2.399999999999999911e-01
2.826736997972336241e+00,-9.226270966108675031e-01,3.003288844843923222e-01,1.000000000000000048e-04,4.070022832758119335e+01,2.899999999999999800e-01
2.562033852535551937e+00,3.558004721219196753e-01,1.721903978788648093e-01,1.000000000000000048e-04,3.963153158383558861e+01,2.899999999999999800e-01
-1.391987564386760745e-01,-8.838106804642120728e-01,1.953553724881149645e-01,1.000000000000000048e-04,4.018402674293638910e+01,2.899999999999999800e-01
2.648175800996363627e+00,8.382167933976027996e-01,2.752759189381812632e-01,1.000000000000000048e-04,4.084786873918511674e+01,3.699999999999999956e-01
2.319697958071849087e-01,9.505333600235110758e-01,3.339371887722719645e-01,1.000000000000000048e-04,4.108414695876503231e+01,2.300000000000000100e-01
2.336385488075835681e+00,-3.677156696501229227e-01,8.936392176939764731e-01,1.000000000000000048e-04,4.368694958112861570e+01,2.000000000000000111e-01
-3.103918101569383303e+00,-7.387520942872082275e-01,2.300850108342358258e-01,1.000000000000000048e-04,3.968501823044829280e+01,3.800000000000000044e-01
1.142264859611183070e+00,-1.680738345775549814e-01,1.983659999373634797e-01,1.000000000000000048e-04,3.979728746518130578e+01,2.300000000000000100e-01
1.838768793542068458e+00,-8.332111298748431372e-01,1.460575844638820620e-01,1.000000000000000048e-04,3.885844089056666206e+01,3.900000000000000133e-01
1.178767367063335847e-01,-1.267652172158695301e-02,3.740429307853538887e-01,1.000000000000000048e-04,4.170884443611659265e+01,2.200000000000000011e-01
-1.192558954844683106e+00,-1.394987328614827993e+00,1.619907611716975282e-01,1.000000000000000048e-04,3.958643250185134832e+01,2.399999999999999911e-01
6.399578055843018198e-01,6.083729408971163544e-01,1.571940830717859505e-01,1.000000000000000048e-04,3.955635611720633449e+01,2.000000000000000111e-01
-1.179687186109017460e+00,4.731729260021366734e-01,3.598777210867076803e-01,1.000000000000000048e-04,4.132246554314591691e+01,1.900000000000000022e-01
2.196955343389407567e+00,-3.664805259859245101e-01,1.637148424546150949e-01,1.000000000000000048e-04,3.999449351665936803e+01,2.600000000000000089e-01
-4.480469749117239608e-01,-2.400991482621261941e-01,1.853582072931134750e-01,1.000000000000000048e-04,3.962098946456136161e+01,1.900000000000000022e-01
2.823457884050810662e+00,4.498053865700737397e-01,1.299498278199940238e+00,1.000000000000000048e-04,4.483957886722719621e+01,1.000000000000000056e-01
-2.933246131921278366e+00,-3.026768593855422296e-02,9.688500607781271867e-01,1.000000000000000048e-04,4.384244176685064787e+01,1.400000000000000133e-01
9.062243697916496643e-01,-3.081198620958902623e-02,1.169614294850784830e+00,1.000000000000000048e-04,4.430363766861243846e+01,1.900000000000000022e-01
-2.841200070209530359e+00,4.336252837635714563e-01,6.479130487478506062e-01,1.000000000000000048e-04,4.312735581066874602e+01,1.499999999999999944e-01
2.667781508541780866e+00,-2.660995751926640285e-01,4.371196753564392523e-01,1.000000000000000048e-04,4.212040093594622903e+01,1.900000000000000022e-01
1.754904955145121015e+00,-6.143172413811629484e-01,2.209544884836862622e-01,1.000000000000000048e-04,4.032067862742785991e+01,1.700000000000000122e-01
2.235400539251179985e-01,-1.186927056434903927e+00,5.589912056174597410e-01,1.000000000000000048e-04,4.243857103252005203e+01,1.100000000000000006e-01
-1.048259035968910791e+00,3.850943705083116342e-01,6.984708601749352042e-01,1.000000000000000048e-04,4.304413752075956978e+01,2.000000000000000111e-01
3.960916638474842877e-01,-5.261504484569099471e-01,1.504951657582349611e-01,1.000000000000000048e-04,3.932468851507893248e+01,1.700000000000000122e-01
2.942599977024444868e+00,-4.881282665791639719e-01,7.162461609332586576e-01,1.000000000000000048e-04,4.325607420356616473e+01,1.100000000000000006e-01
-2.330431386361015100e+00,-7.443471573444448985e-01,1.028442679230823220e+00,1.000000000000000048e-04,4.437726209465967742e+01,1.700000000000000122e-01
-5.469127346676123658e-01,-1.000345558218358022e+00,3.685259877833018116e-01,1.000000000000000048e-04,4.137596639092657824e+01,1.600000000000000033e-01
7.893673131492242590e-01,4.722913809621331893e-01,2.831259384513731270e-01,1.000000000000000048e-04,4.089930966161535508e+01,2.200000000000000011e-01
1.375133391726461873e-01,1.307615228991954037e-01,2.967544533367587611e-01,1.000000000000000048e-04,4.070250244503024817e+01,2.800000000000000266e-01
-4.276110467111475799e-01,-1.150486388445196129e+00,4.867671534616966333e-01,1.000000000000000048e-04,4.195390618865489074e+01,2.099999999999999922e-01
-2.806182899361028049e+00,-5.306525192164468496e-01,9.969511350794306725e-01,1.000000000000000048e-04,4.488968589300193202e+01,2.899999999999999800e-01
-1.387693702474082080e-01,-5.368996633487308490e-01,6.384973098197186392e-01,1.000000000000000048e-04,4.295664370164934098e+01,1.400000000000000133e-01
-2.753961021985920521e+00,3.176576597286175918e-01,2.749836076765483917e-01,1.000000000000000048e-04,4.063576575515163825e+01,1.600000000000000033e-01
1.542589005390467172e+00,9.700136132084820062e-01,1.491405189012047217e-01,1.000000000000000048e-04,3.936664851011328636e+01,2.099999999999999922e-01
1.641980154311744045e+00,-1.652318547779272340e-01,1.061812747869645079e+00,1.000000000000000048e-04,4.456705943352596222e+01,2.600000000000000089e-01
-2.804755578859697618e+00,9.948178155676252743e-01,7.907139131060161308e-01,1.000000000000000048e-04,4.327783425673560913e+01,1.400000000000000133e-01
7.674074257221215056e-01,-7.537196474818756986e-01,1.382440155628925638e-01,1.000000000000000048e-04,3.918886375442184544e+01,1.600000000000000033e-01
-2.894719366270526617e+00,-9.934570882111563028e-01,1.249976274075015326e-01,1.000000000000000048e-04,3.932237146106956516e+01,2.000000000000000111e-01
2.106148837400631635e+00,2.430877598880900603e-01,3.839985619686976381e-01,1.000000000000000048e-04,4.177052297960356952e+01,2.099999999999999922e-01
3.106517184759814754e+00,-3.432148094317140075e-01,6.591597782622458102e-01,1.000000000000000048e-04,4.305864713397983934e+01,1.700000000000000122e-01
-1.826861186779850099e+00,-1.371909884865669671e+00,1.408394980362586146e-01,1.000000000000000048e-04,3.932786094415202172e+01,1.499999999999999944e-01
-2.341626957267006759e-01,5.164097673857717119e-01,3.735518405873119452e-01,1.000000000000000048e-04,4.137549111054360651e+01,1.700000000000000122e-01
-1.737871605131367403e+00,-2.808973055863912549e-01,7.334056631609364718e-01,1.000000000000000048e-04,4.342756485396154886e+01,1.400000000000000133e-01
-2.353268593793347740e+00,-7.836073706072834710e-01,3.642068807394995833e-01,1.000000000000000048e-04,4.138523299445571269e+01,1.499999999999999944e-01
8.204697407021397382e-01,-4.231257142325648424e-01,1.549869295977379657e-01,1.000000000000000048e-04,3.932108690439702769e+01,3.400000000000000244e-01
-2.841627365708924380e+00,-1.114064224334011755e+00,1.335660942702563414e+00,1.000000000000000048e-04,4.510717945052640232e+01,1.700000000000000122e-01
-1.157000205328978293e+00,9.219896101327873517e-01,5.739638417994086250e-01,1.000000000000000048e-04,4.266711631479805789e+01,1.400000000000000133e-01
2.292239579876335753e+00,-6.681485347792235352e-01,1.234629661302029113e-01,1.000000000000000048e-04,3.875526862939302930e+01,1.799999999999999933e-01
2.620805660747532073e+00,-5.791692872579939921e-01,3.678166879775979226e-01,1.000000000000000048e-04,4.154093030197424241e+01,1.900000000000000022e-01
-2.193013657547099982e+00,-1.084374187679937540e+00,6.129538810542183302e-01,1.000000000000000048e-04,4.292629847070274707e+01,1.499999999999999944e-01
2.280891925617327232e+00,-4.500120867118195811e-01,2.115752966478849917e-01,1.000000000000000048e-04,4.037928594467118160e+01,1.700000000000000122e-01
-2.360905388200155386e+00,-2.896524891667457968e-01,1.087543774193679091e+00,1.000000000000000048e-04,4.420246788527632731e+01,1.600000000000000033e-01
1.437550480424287791e+00,-5.919919738089920447e-01,2.134399936022983724e-01,1.000000000000000048e-04,4.021387515944998370e+01,1.499999999999999944e-01
1.379018336021947455e+00,-1.469968751729487488e+00,2.043510628182640954e-01,1.000000000000000048e-04,4.021213406107829513e+01,1.700000000000000122e-01
9.626628010912572364e-01,-7.441528827519205969e-02,4.965936725384143546e-01,1.000000000000000048e-04,4.190937762689243584e+01,1.600000000000000033e-01
2.442594586574875493e+00,-1.445634912076644962e+00,1.863121150771305246e-01,1.000000000000000048e-04,3.977693422854412830e+01,2.899999999999999800e-01
-1.200839423184040911e+00,-2.224520191287204796e-01,5.734392143844329048e-01,1.000000000000000048e-04,4.281102064862784573e+01,1.400000000000000133e-01
-1.929774734249378731e-01,-1.130548437957876740e+00,4.333179213088642623e-01,1.000000000000000048e-04,4.183059078437625544e+01,1.499999999999999944e-01
1.658030873098988778e+00,-3.437301665277692209e-02,3.243157653844845889e-01,1.000000000000000048e-04,4.109461241603935377e+01,1.900000000000000022e-01
-1.237978773496996698e+00,6.147396693940954115e-02,5.733758470867447166e-01,1.000000000000000048e-04,4.234330834595138526e+01,2.500000000000000000e-01
-3.131560441904241987e+00,5.379818128550506451e-02,3.522565013415206447e-01,1.000000000000000048e-04,4.134226990920402045e+01,1.499999999999999944e-01
-2.766674903486680659e+00,-8.922566288172628646e-02,4.803404102149315680e-01,1.000000000000000048e-04,4.235305503107058200e+01,2.099999999999999922e-01
1.097102515689964086e+00,4.669426392322906239e-01,4.395905669807103067e-01,1.000000000000000048e-04,4.162132430929462856e+01,1.900000000000000022e-01
5.809031075273609623e-01,6.490986572399948251e-02,3.502166585703723189e-01,1.000000000000000048e-04,4.164112154041349356e+01,2.099999999999999922e-01
1.528139708753961656e+00,-1.309992035495657348e-01,3.043717670749872539e-01,1.000000000000000048e-04,4.120826030327904732e+01,2.099999999999999922e-01
-2.370473811779722606e+00,-1.584101826522372747e-01,1.847270935664857561e-01,1.000000000000000048e-04,3.960467034143207599e+01,1.499999999999999944e-01
-3.064310630541405178e+00,7.253400398265519300e-02,1.290558529189105297e-01,1.000000000000000048e-04,3.886636435476903983e+01,1.400000000000000133e-01
-1.957172160838025254e+00,-8.523476465265654722e-01,5.206136813576889288e-01,1.000000000000000048e-04,4.251925185282012620e+01,3.800000000000000044e-01
-2.450322525391237960e+00,-1.070980602175983565e+00,2.990505593126926431e-01,1.000000000000000048e-04,4.081846691307671193e+01,2.200000000000000011e-01
-4.342974104836252458e-01,-9.308788679105339803e-02,4.258071916050385486e-01,1.000000000000000048e-04,4.160535102563485310e+01,1.499999999999999944e-01
-1.344238042928474819e+00,7.432601505100611128e-02,3.692902566861058222e-01,1.000000000000000048e-04,4.129317051143200956e+01,1.700000000000000122e-01
1.550077749074278977e+00,3.395855637580271758e-01,7.066767056645169021e-01,1.000000000000000048e-04,4.319182925993434452e+01,1.700000000000000122e-01
1.842801746127106455e+00,-5.387140624663728783e-01,5.692855819006044094e-01,1.000000000000000048e-04,4.249498813890365767e+01,2.600000000000000089e-01
-1.186333111012016994e+00,-7.438601632450603240e-02,2.581854113395416483e-01,1.000000000000000048e-04,4.104256526525178828e+01,2.800000000000000266e-01
-1.573203424101137005e+00,-1.172603080046574986e+00,4.289791520733841068e-01,1.000000000000000048e-04,4.193292820080041849e+01,1.799999999999999933e-01
-1.645034199255253737e+00,-9.425366519961810852e-01,3.663991570698859057e-01,1.000000000000000048e-04,4.183006637464913524e+01,1.499999999999999944e-01
1.533217367566558131e+00,-3.190047453054956073e-02,3.078246740586978447e-01,1.000000000000000048e-04,4.109583210869256931e+01,2.200000000000000011e-01
-1.811560631043851899e+00,1.109306729742408404e+00,6.737041625991753158e-01,1.000000000000000048e-04,4.322751991850240216e+01,2.000000000000000111e-01
-1.723180288827278916e+00,1.126124424099564703e+00,5.831394481231519933e-01,1.000000000000000048e-04,4.253109620152309134e+01,1.600000000000000033e-01
6.868858901092709246e-01,7.053373999294088037e-01,8.215274052496799317e-01,1.000000000000000048e-04,4.347678246179142292e+01,1.600000000000000033e-01
2.122548807179368779e+00,1.076854925414315378e+00,2.016561658303657190e-01,1.000000000000000048e-04,4.012309121365445463e+01,2.099999999999999922e-01
-5.517812669384678514e-01,-8.642711256212348703e-01,2.132230830633088381e-01,1.000000000000000048e-04,3.998587754372145753e+01,2.899999999999999800e-01
1.411518423226305607e-01,8.801251323564676099e-01,2.805483255513980811e-01,1.000000000000000048e-04,4.064327616336873206e+01,1.400000000000000133e-01
-2.373323576413552516e+00,-9.573730867745523510e-01,2.280037715199505488e-01,1.000000000000000048e-04,4.037795167193763746e+01,2.700000000000000178e-01
1.493788722344590703e+00,5.554848222310595496e-01,1.607480654565089928e-01,1.000000000000000048e-04,3.949301282968624349e+01,1.300000000000000044e-01
2.480552877258674016e+00,2.809429002528698316e-01,2.344550344916109808e-01,1.000000000000000048e-04,4.011061727208800676e+01,1.700000000000000122e-01
-2.794214817495778824e+00,-1.054211614603710601e-01,8.153688245168264626e-01,1.000000000000000048e-04,4.344025315947001076e+01,2.500000000000000000e-01
-1.608370006610586600e+00,-4.353731574058568032e-01,3.565961696045538698e-01,1.000000000000000048e-04,4.148813726592017304e+01,1.400000000000000133e-01
-1.370190908090261672e+00,-3.380069700709036340e-01,1.213693227692679066e+00,1.000000000000000048e-04,4.443057391755640850e+01,1.900000000000000022e-01
-1.327004518146616130e+00,-1.643100515439370746e-01,3.031165457782347694e-01,1.000000000000000048e-04,4.102420127436221975e+01,1.600000000000000033e-01
1.008690441414947792e+00,4.770385664245027080e-01,1.435774740818667183e-01,1.000000000000000048e-04,3.901943313355763365e+01,1.600000000000000033e-01
-1.785644919539687514e+00,-2.589038114403683366e-01,1.603892084299018972e-01,1.000000000000000048e-04,3.922592592248632570e+01,2.700000000000000178e-01
2.165236881655083323e+00,-8.078527458471269629e-01,4.798213222156841873e-01,1.000000000000000048e-04,4.212149098474318265e+01,1.499999999999999944e-01
-2.278231980921827216e+00,7.508206122116503067e-01,6.372305038869039429e-01,1.000000000000000048e-04,4.270685062959528722e+01,1.600000000000000033e-01
-3.816317531730204493e-01,4.580549735043040194e-01,3.945853515165100855e-01,1.000000000000000048e-04,4.159990917184899217e+01,1.700000000000000122e-01
-7.620241092642054959e-01,-4.365893314725293184e-01,1.132423817015442591e+00,1.000000000000000048e-04,4.449519917615944564e+01,2.800000000000000266e-01
9.421821239052468044e-01,-8.343434522747885662e-01,7.268228707761914542e-01,1.000000000000000048e-04,4.314888891277462335e+01,1.499999999999999944e-01
-7.593122633043041247e-01,-4.792084076783869051e-01,1.998707829214196874e-01,1.000000000000000048e-04,3.992952863382186024e+01,3.099999999999999978e-01
1.293316097447456237e+00,-7.566094620228865919e-01,2.494544229598825158e-01,1.000000000000000048e-04,4.054589763954742665e+01,2.200000000000000011e-01
-1.181749952129241166e+00,-5.854482335478564670e-01,5.511359749096149674e-01,1.000000000000000048e-04,4.259296685373447389e+01,2.700000000000000178e-01
2.217686496580340894e+00,-5.035322703736717642e-01,7.599737733341906942e-01,1.000000000000000048e-04,4.371827115459613111e+01,2.899999999999999800e-01
1.287586389315093172e+00,1.944273568384602413e-01,4.738762798839213364e-01,1.000000000000000048e-04,4.193407437842638075e+01,3.099999999999999978e-01
1.909519445317100939e+00,-6.327255799306170658e-01,1.197549530034768939e+00,1.000000000000000048e-04,4.401929127154135557e+01,2.300000000000000100e-01
-1.856904548953299150e+00,5.461845953136146292e-01,2.600440106724688505e-01,1.000000000000000048e-04,4.051042504699948665e+01,2.200000000000000011e-01
1.930041301277864996e+00,-9.879969507187279509e-01,4.743383069507949301e-01,1.000000000000000048e-04,4.202881646389203496e+01,2.300000000000000100e-01
-7.941688950420497939e-01,1.149397285973163818e-01,7.466337494839676570e-01,1.000000000000000048e-04,4.345852471405916617e+01,2.200000000000000011e-01
2.503654175979688645e+00,1.801593740636855401e-01,4.571843541954268009e-01,1.000000000000000048e-04,4.200173156037842404e+01,2.099999999999999922e-01
-1.452788584797375382e+00,-1.407641190827033206e+00,1.598764471201827853e-01,1.000000000000000048e-04,3.877991977769003284e+01,2.300000000000000100e-01
-2.323614586999633858e+00,-8.552526024494455648e-02,4.297358909981074948e-01,1.000000000000000048e-04,4.202590935647805281e+01,2.399999999999999911e-01
2.053548200062462747e+00,-1.347644816899788989e-01,7.569433420821314318e-01,1.000000000000000048e-04,4.334450520036837418e+01,2.099999999999999922e-01
1.423061760523300912e+00,-5.547369802234098923e-01,4.739922834455208012e-01,1.000000000000000048e-04,4.185633195579636379e+01,2.399999999999999911e-01
2.322479257237914929e+00,9.022244550971270094e-01,3.713718013547608887e-01,1.000000000000000048e-04,4.163523345523904595e+01,2.399999999999999911e-01
1.532643010167138442e+00,2.295525530471576037e-01,4.365909484537637830e-01,1.000000000000000048e-04,4.175259158090540268e+01,2.800000000000000266e-01
-1.353951773964954697e+00,-6.861476976484733870e-01,2.084071362062436261e-01,1.000000000000000048e-04,4.008920168722281119e+01,2.000000000000000111e-01
-1.373177644258209318e+00,5.877039942388915250e-01,5.451604966460985580e-01,1.000000000000000048e-04,4.240018738931128439e+01,2.200000000000000011e-01
-8.292692749348118397e-02,1.819942705267358907e-01,5.255736976861855592e-01,1.000000000000000048e-04,4.215666764759294693e+01,2.800000000000000266e-01
2.029601613216090783e+00,8.505986601815624937e-01,3.337235053544373997e-01,1.000000000000000048e-04,4.154789165082002000e+01,2.399999999999999911e-01
-2.592417776739177171e+00,-1.098860657054138823e+00,3.867945721899406220e-01,1.000000000000000048e-04,4.155932015292619752e+01,2.300000000000000100e-01
-1.573425472432068428e+00,-2.439056252905307254e-01,2.740443455764318692e-01,1.000000000000000048e-04,4.050166347774795383e+01,2.200000000000000011e-01
-1.665968653058471638e+00,-1.300539871281754190e+00,5.217935319378319559e-01,1.000000000000000048e-04,4.272275196592794089e+01,2.200000000000000011e-01
4.898161398251721366e-02,-7.670465427473072140e-01,4.836700079169780064e-01,1.000000000000000048e-04,4.236296130805823879e+01,2.399999999999999911e-01
1.128800921400141988e+00,-3.005672130962178112e-01,5.006782066333115289e-01,1.000000000000000048e-04,4.242758724566502337e+01,3.099999999999999978e-01
-9.701701558349986598e-01,-4.350585385388006099e-01,2.313593085579537245e-01,1.000000000000000048e-04,4.000164136452710295e+01,2.600000000000000089e-01
3.112965251434878233e-01,-1.025977673695788184e-01,1.361869136154731930e-01,1.000000000000000048e-04,3.944552586509565373e+01,3.099999999999999978e-01
1.014764464794379428e+00,-8.410034885753826517e-01,4.058125148603957122e-01,1.000000000000000048e-04,4.181868490015483530e+01,3.800000000000000044e-01
-5.253310938341160252e-02,3.205670733590293420e-01,6.600680030352519267e-01,1.000000000000000048e-04,4.304236225237590929e+01,2.500000000000000000e-01
-2.370661981229627013e+00,-1.489833073970245891e-01,3.334676859818876959e-01,1.000000000000000048e-04,4.180924297230269104e+01,2.300000000000000100e-01
-1.443668144566781164e+00,8.783018792460741686e-01,7.943218562973002328e-01,1.000000000000000048e-04,4.352227178956079712e+01,2.800000000000000266e-01
1.216699940167198513e-01,-1.173803010637631594e+00,2.061073387863039397e-01,1.000000000000000048e-04,4.043942674760398859e+01,3.699999999999999956e-01
1.730100177578736798e+00,1.754406627605304969e-01,3.414251491798279137e-01,1.000000000000000048e-04,4.165927619844929097e+01,2.200000000000000011e-01
-3.075234109858446363e+00,2.665764529196557042e-02,3.765148566904017446e-01,1.000000000000000048e-04,4.145447247619092224e+01,2.600000000000000089e-01
-2.056690101086391387e-01,9.487570292168920894e-01,3.816483290061838396e-01,1.000000000000000048e-04,4.126615211426597085e+01,2.500000000000000000e-01
-5.593398312723394383e-01,7.007204129326560782e-02,3.131281105112688756e-01,1.000000000000000048e-04,4.033423497870418828e+01,2.700000000000000178e-01
-5.356625215610129054e-01,-6.380228852581603105e-01,3.513325329645911044e-01,1.000000000000000048e-04,4.146606510273426949e+01,2.300000000000000100e-01
1.342229376931812546e+00,-5.798274186192157176e-01,1.499641319218960600e-01,1.000000000000000048e-04,3.926789734908035712e+01,2.300000000000000100e-01
2.038603177023089685e+00,-4.838662349369726723e-01,6.743853706306222051e-01,1.000000000000000048e-04,4.317342081339260318e+01,3.200000000000000067e-01
-2.043628449823037929e+00,5.840555785776331277e-01,2.521481748662317557e-01,1.000000000000000048e-04,4.072876061103770695e+01,2.899999999999999800e-01
2.683492075201203697e-01,6.526447924362122066e-02,2.043043640065791422e-01,1.000000000000000048e-04,4.007590821477600684e+01,2.600000000000000089e-01
2.842122951748574877e+00,-5.017755018614611373e-02,4.613982484479255408e-01,1.000000000000000048e-04,4.203857743908756817e+01,2.899999999999999800e-01
1.422548854220348602e+00,-2.307078424653250526e-01,3.131878115701478560e-01,1.000000000000000048e-04,4.148972739945978105e+01,2.700000000000000178e-01
-1.715636201455811749e+00,5.298262268506293005e-01,4.938516966982962053e-01,1.000000000000000048e-04,4.244915358771754654e+01,2.300000000000000100e-01
3.108766299819420986e+00,3.306547595578608334e-01,2.323062265740789556e-01,1.000000000000000048e-04,4.035675739292877751e+01,2.800000000000000266e-01
-2.641343480044839431e+00,1.064032942884823640e+00,4.741892135117673490e-01,1.000000000000000048e-04,4.192862024454484526e+01,2.300000000000000100e-01
4.955259312684305861e-01,1.003408753950438381e+00,3.164016505178879335e-01,1.000000000000000048e-04,4.094150022506594411e+01,2.200000000000000011e-01
-3.083090646646384325e+00,-1.594307090543440886e-01,4.886985213465513400e-01,1.000000000000000048e-04,4.170986251150344515e+01,2.200000000000000011e-01
1.016797036500470597e+00,7.087092742047551575e-02,4.117919807701857504e-01,1.000000000000000048e-04,4.186818532037240459e+01,2.099999999999999922e-01
-1.932458612195994130e+00,-7.174702509842546538e-01,5.916804277699483361e-01,1.000000000000000048e-04,4.251935215946139834e+01,2.200000000000000011e-01
3.080932138756314664e+00,3.976237285459185422e-01,3.816383347548242266e-01,1.000000000000000048e-04,4.161794614861665309e+01,2.899999999999999800e-01
-7.802852026014641673e-01,1.009470643938197743e+00,6.390873725385741722e-01,1.000000000000000048e-04,4.304591746925874673e+01,2.099999999999999922e-01
1.498361249151196617e+00,-1.352769400177964210e+00,6.704610725405666383e-01,1.000000000000000048e-04,4.286216572035277750e+01,2.300000000000000100e-01
1.672819245025025658e+00,-4.097742779081408049e-01,9.347309850421516852e-01,1.000000000000000048e-04,4.380990603030993213e+01,3.300000000000000155e-01
-2.339319969132400701e-01,1.022791276227771107e+00,4.736993007742902329e-01,1.000000000000000048e-04,4.196601123678419043e+01,2.899999999999999800e-01
2.624880092381083330e+00,8.237120215507909293e-01,5.741717488213839982e-01,1.000000000000000048e-04,4.267107145231400267e+01,3.300000000000000155e-01
-1.680387846716849376e+00,1.637638029319097299e-01,8.813378359668553319e-01,1.000000000000000048e-04,4.356212434684037760e+01,2.999999999999999889e-01
-6.719624381442379502e-01,1.051150359948946011e+00,3.599230520955274404e-01,1.000000000000000048e-04,4.149153027608786459e+01,2.600000000000000089e-01
-7.116583929646931317e-01,9.434114723461028973e-01,1.831667428276924081e-01,1.000000000000000048e-04,3.995535310726727829e+01,3.300000000000000155e-01
1.600047205229619074e+00,-6.249481024880310098e-01,3.429023233972074980e-01,1.000000000000000048e-04,4.113777621590672595e+01,2.500000000000000000e-01
-2.450728446396823301e+00,6.211427873761774521e-01,1.080887361931901047e+00,1.000000000000000048e-04,4.442296742033647661e+01,2.399999999999999911e-01
-2.899772209039527482e+00,-5.816719757131543211e-01,1.861625427031834423e-01,1.000000000000000048e-04,3.910209783781322557e+01,3.900000000000000133e-01
-1.659832650015115485e+00,-1.347155674456019359e+00,1.375991077979883404e-01,1.000000000000000048e-04,3.939163062404340820e+01,2.700000000000000178e-01
1.625974336183879210e+00,-1.194937566278628349e+00,8.766336705633888116e-01,1.000000000000000048e-04,4.367586696899837762e+01,2.200000000000000011e-01
-3.136691722866871590e+00,7.635256755947184004e-01,2.736359099198060196e-01,1.000000000000000048e-04,4.052631793850685682e+01,2.300000000000000100e-01
-5.066241878194310821e-01,3.138560821034275250e-02,8.269390289428921736e-01,1.000000000000000048e-04,4.405839014415387567e+01,2.500000000000000000e-01
-2.211634458921190927e+00,-4.028905034221228476e-01,6.400813077128095774e-01,1.000000000000000048e-04,4.268331242802695868e+01,2.099999999999999922e-01
-2.089774160080396292e+00,5.292889153953366232e-01,1.027803997536373082e+00,1.000000000000000048e-04,4.445311972941510703e+01,2.099999999999999922e-01
1.788884429199680604e+00,-6.205761180700108959e-02,7.480103561605442319e-01,1.000000000000000048e-04,4.348639686498057699e+01,2.999999999999999889e-01
-4.737730608420038791e-01,-3.450857856482711927e-01,3.434111449962868878e-01,1.000000000000000048e-04,4.113593786615039960e+01,2.200000000000000011e-01
-9.787000993439853858e-02,-7.061644625026898270e-01,7.232150991761776559e-01,1.000000000000000048e-04,4.302455483782568990e+01,2.099999999999999922e-01
3.719640999450808394e-01,2.064968229704808866e-01,1.840222190468414620e-01,1.000000000000000048e-04,3.996156631647953361e+01,2.300000000000000100e-01
1.996912257201688412e+00,1.246834870415520324e+00,1.215246030230603402e+00,1.000000000000000048e-04,4.416342252812360414e+01,3.200000000000000067e-01
1.810646391767835262e+00,-6.934415349012669205e-01,2.646117057704509001e-01,1.000000000000000048e-04,4.049087566658982951e+01,2.600000000000000089e-01
-4.982860745699144722e-01,2.625679929305830829e-01,1.634169486072882815e-01,1.000000000000000048e-04,3.974176981924010477e+01,2.000000000000000111e-01
2.635689494628076446e+00,5.632684649665891108e-01,2.971284188988996267e-01,1.000000000000000048e-04,4.091527566035130548e+01,1.799999999999999933e-01
1.950691651334595988e+00,3.664630012624188193e-01,1.626452808125895544e-01,1.000000000000000048e-04,3.929174324728241885e+01,2.999999999999999889e-01
2.956360017791388906e+00,4.493915356453030974e-01,2.059637612764406711e-01,1.000000000000000048e-04,3.983969734842023769e+01,2.399999999999999911e-01
1.799523314913806793e-01,-3.430343827924597910e-02,1.905680195541377131e-01,1.000000000000000048e-04,3.961833849806895813e+01,2.300000000000000100e-01
-1.715262187348177703e+00,7.751968788924048503e-01,2.153081416076392252e-01,1.000000000000000048e-04,4.021743062698892146e+01,2.200000000000000011e-01
-1.881589277663322957e+00,-1.206157143362951878e+00,2.248501451635920301e-01,1.000000000000000048e-04,4.013243740393801318e+01,2.300000000000000100e-01
-5.609221614779977827e-01,-4.476491566476774597e-01,2.890167731393920025e-01,1.000000000000000048e-04,4.132328104834888194e+01,2.300000000000000100e-01
-1.785908537297545839e+00,6.469113151993886035e-01,1.077633599317674662e+00,1.000000000000000048e-04,4.462546281202884302e+01,2.600000000000000089e-01
2.327174455356716187e+00,-2.200917829305155671e-01,4.333122161340707823e-01,1.000000000000000048e-04,4.210529004982781487e+01,2.099999999999999922e-01
8.859031014971838758e-01,-1.907716926822839998e-01,4.519058926673591436e-01,1.000000000000000048e-04,4.192684181684926870e+01,2.899999999999999800e-01
-1.405375147729366336e+00,-8.387041069414923333e-01,1.988846826353665165e-01,1.000000000000000048e-04,3.962121562407298114e+01,2.000000000000000111e-01
-2.469533012901512947e+00,-4.892810599258892168e-01,4.734354552161512686e-01,1.000000000000000048e-04,4.194905085287373936e+01,2.500000000000000000e-01
5.423004022435513605e-01,9.722071235814384593e-01,5.777888205993566562e-01,1.000000000000000048e-04,4.271648603719825843e+01,2.099999999999999922e-01
-2.990631081460207508e+00,-2.910722167835342322e-01,3.552084369477150894e-01,1.000000000000000048e-04,4.156056197181138856e+01,2.300000000000000100e-01
-2.457583216660930603e+00,1.163866027464541375e+00,3.723459840411680322e-01,1.000000000000000048e-04,4.138263099745692131e+01,2.200000000000000011e-01
1.679258285035135856e+00,4.366749276306105543e-01,6.988573285607815322e-01,1.000000000000000048e-04,4.336556001911180402e+01,2.399999999999999911e-01
-2.003620509184943721e+00,-7.546235493336261868e-01,3.906211187200425705e-01,1.000000000000000048e-04,4.180027064967521255e+01,2.500000000000000000e-01
1.581178296726641008e+00,-1.488765007640734828e+00,3.867201023273703075e-01,1.000000000000000048e-04,4.145319894432340391e+01,2.200000000000000011e-01
-9.325885799096012008e-01,3.667930178047296152e-02,2.334993035510257720e-01,1.000000000000000048e-04,4.022012782721807866e+01,3.300000000000000155e-01
1.206282584909414979e+00,-6.859631109925676817e-01,1.223139364524647110e+00,1.000000000000000048e-04,4.466347998653540685e+01,2.000000000000000111e-01
8.711313572659209470e-01,6.944316540784245539e-01,3.705925942231138581e-01,1.000000000000000048e-04,4.187924689565134173e+01,2.600000000000000089e-01
3.063667180317426464e+00,-4.387430172791024763e-01,2.813635487297692084e-01,1.000000000000000048e-04,4.105344321134561625e+01,2.399999999999999911e-01
1.865203580197192679e+00,-6.839636771139204763e-01,1.063121145051453276e+00,1.000000000000000048e-04,4.449324639036930762e+01,2.399999999999999911e-01
-2.756079184251624348e+00,-6.885109406550392608e-01,1.886404730824717824e-01,1.000000000000000048e-04,3.980568471262252217e+01,2.600000000000000089e-01
-3.466357560947130878e-01,9.119343041219161172e-01,2.631457942161812280e-01,1.000000000000000048e-04,4.031105358295190655e+01,2.399999999999999911e-01
-9.764518645499671301e-01,4.098463460563506189e-01,4.117208090236379459e-01,1.000000000000000048e-04,4.147734302962094688e+01,2.000000000000000111e-01
2.910893004090890912e+00,7.563902324173885638e-01,3.612990765731198817e-01,1.000000000000000048e-04,4.121643772294176244e+01,3.699999999999999956e-01
-3.028383536311662461e+00,6.855526384309018617e-01,3.070110573718993763e-01,1.000000000000000048e-04,4.107136487302893357e+01,3.099999999999999978e-01
6.583252726680077771e-02,8.476539073904119093e-01,5.165152499420340160e-01,1.000000000000000048e-04,4.255756174300327643e+01,2.399999999999999911e-01
2.468354037821756108e-01,9.651502473170538998e-01,5.272912111235374955e-01,1.000000000000000048e-04,4.226510816961219064e+01,2.099999999999999922e-01
-9.530624091918573626e-01,-2.242266043204255155e-02,2.582007213919288446e-01,1.000000000000000048e-04,4.051514155397132555e+01,2.800000000000000266e-01
2.447444701191290761e+00,6.295197150210025683e-01,5.402459359433711139e-01,1.000000000000000048e-04,4.207027585914168100e+01,2.800000000000000266e-01
-2.362985211426873455e+00,9.729867685516144782e-01,3.905999127730719334e-01,1.000000000000000048e-04,4.183705107996578931e+01,2.099999999999999922e-01
-3.155803477036616123e-01,8.038472746954532511e-01,6.766922095528227210e-01,1.000000000000000048e-04,4.320250488755662843e+01,2.300000000000000100e-01
6.785298530642611681e-01,1.213973605032535374e+00,3.622438257725790756e-01,1.000000000000000048e-04,4.153472390743010578e+01,2.000000000000000111e-01
-1.371000101791907122e+00,1.382029687242815719e+00,5.172120503279937775e-01,1.000000000000000048e-04,4.228018763915510192e+01,1.000000000000000056e-01
-2.014723970770690542e+00,1.055373454329020078e+00,1.379974874065050816e-01,1.000000000000000048e-04,3.902675059740712271e+01,1.199999999999999956e-01
-6.639835303589380899e-02,-4.569781948013122985e-01,1.389385535443015129e-01,1.000000000000000048e-04,3.907523904815553095e+01,8.999999999999999667e-02
1.141918775153807353e+00,-4.880475937247819029e-01,3.686892416521905247e-01,1.000000000000000048e-04,4.139113244112107282e+01,1.400000000000000133e-01
1.114675929699497026e+00,6.682815370151962142e-01,7.348162298846743212e-01,1.000000000000000048e-04,4.310555242333658299e+01,2.000000000000000111e-01
-2.654011485427679506e+00,-7.787971720735521464e-01,2.355321318905396755e-01,1.000000000000000048e-04,4.005481088920429045e+01,1.900000000000000022e-01
-1.146595220734763609e+00,-3.984978957243270337e-01,1.335910600403237058e+00,1.000000000000000048e-04,4.489193551865570697e+01,1.700000000000000122e-01
-1.788746067243847548e+00,2.152106587004247729e-01,1.833849798480220450e-01,1.000000000000000048e-04,3.998433628785714689e+01,3.499999999999999778e-01
2.181275962908713062e-01,-6.728723291673555096e-02,2.648224491191308871e-01,1.000000000000000048e-04,4.081683495791629923e+01,1.700000000000000122e-01
2.911314429727894115e+00,3.945584867540798957e-01,5.734943627425004298e-01,1.000000000000000048e-04,4.268038143818585439e+01,1.900000000000000022e-01
2.300787435566440386e+00,4.693574582895232439e-01,4.083443598158815746e-01,1.000000000000000048e-04,4.187060109375167372e+01,1.900000000000000022e-01
