-1.598279621179586663e+00,2.779993629999999993e-01,2.893361446072262311e-02,1.000000000000000048e-04,3.359088872355368238e+01,1.700000000000000122e-01
-1.710562538179586589e+00,-1.402302595000000096e+00,1.649890734331460607e-02,1.000000000000000048e-04,3.469901378499565681e+01,2.000000000000000111e-01
-2.771840681795865180e-01,-1.115655276000000029e+00,1.205421679936446999e-02,1.000000000000000048e-04,3.483591317006074917e+01,1.700000000000000122e-01
-1.608432286179586335e+00,-6.514894359999999773e-01,2.733484546165687590e-02,1.000000000000000048e-04,3.514167235639342834e+01,1.600000000000000033e-01
-1.490451089179586575e+00,-3.201959389999999850e-01,2.068220495258676905e-02,1.000000000000000048e-04,3.349585150299425607e+01,1.700000000000000122e-01
-1.995144670179586299e+00,-1.040863893000000040e+00,1.282225698904548850e-02,1.000000000000000048e-04,3.432301849676947114e+01,1.799999999999999933e-01
-2.211919791795864398e-01,-6.717550429999999961e-01,2.969767319598703992e-02,1.000000000000000048e-04,3.585712823152602624e+01,2.200000000000000011e-01
-8.294029241795861651e-01,6.699244909999999553e-01,3.977954231290881104e-02,1.000000000000000048e-04,3.500940437409425954e+01,1.799999999999999933e-01
-1.123871723179585835e+00,1.275958498999999913e+00,2.565234188982290497e-02,1.000000000000000048e-04,3.383698929619571061e+01,1.900000000000000022e-01
-5.094723721795864080e-01,-7.371415260000000469e-01,1.108912676663242891e-02,1.000000000000000048e-04,3.359444869782404908e+01,1.600000000000000033e-01
6.571342580000000266e-01,4.949370419999999937e-01,1.395965508763907792e-02,1.000000000000000048e-04,3.407647469095747539e+01,1.700000000000000122e-01
-1.010588552179585875e+00,4.063959939999999826e-01,4.433977520430354424e-02,1.000000000000000048e-04,3.564899413406599393e+01,1.400000000000000133e-01
-5.300352171795861267e-01,-4.198024320000000031e-01,3.150215110495402371e-02,1.000000000000000048e-04,3.542391475620681263e+01,1.499999999999999944e-01
-3.959305511795863097e-01,-4.514385590000000170e-01,2.157963167872223309e-02,1.000000000000000048e-04,3.494965345742877361e+01,1.600000000000000033e-01
-1.302326638179586382e+00,4.891699640000000127e-01,3.160077058840782271e-02,1.000000000000000048e-04,3.404949496087652960e+01,8.999999999999999667e-02
-8.169037861795862554e-01,4.857709299999999897e-01,2.743044294725072163e-02,1.000000000000000048e-04,3.385768371410338062e+01,1.000000000000000056e-01
-1.156602994179586119e+00,7.039336720000000103e-01,5.064206571717755345e-02,1.000000000000000048e-04,3.586843187274821787e+01,1.100000000000000006e-01
2.500120207999999788e+00,-3.403989430000000094e-01,1.605629843889166963e-02,1.000000000000000048e-04,3.535933058530932271e+01,1.100000000000000006e-01
2.397122115999999803e+00,-8.283729720000000407e-01,2.870000000000000155e-03,1.000000000000000048e-04,3.314346851950312356e+01,1.700000000000000122e-01
-4.391142381795862804e-01,9.199097720000000145e-01,4.636629604716957509e-02,1.000000000000000048e-04,3.588392593520515561e+01,2.200000000000000011e-01
-1.356814123179586495e+00,1.335301293999999972e+00,4.127007181968322946e-02,1.000000000000000048e-04,3.611905252258199539e+01,2.600000000000000089e-01
2.612804049999999823e+00,3.003891830000000041e-01,8.926146783449606659e-03,1.000000000000000048e-04,3.418947181571728322e+01,1.700000000000000122e-01
-1.192441121179586005e+00,1.100105410000000061e+00,3.167876104295141992e-02,1.000000000000000048e-04,3.418716302974068100e+01,1.799999999999999933e-01
-3.012917491179586182e+00,1.485957493999999990e+00,3.043678899729851395e-02,1.000000000000000048e-04,3.462114961339263886e+01,2.200000000000000011e-01
-7.329138461795858817e-01,1.044356909000000000e+00,3.442573554498218336e-02,1.000000000000000048e-04,3.473168853530770406e+01,1.700000000000000122e-01
1.024371087000000013e+00,-9.607604419999999923e-01,2.870000000000000155e-03,1.000000000000000048e-04,3.366358222095053776e+01,1.600000000000000033e-01
2.960998206000000188e+00,-8.548671270000000044e-01,2.209120287932031523e-02,1.000000000000000048e-04,3.568494851017803882e+01,1.900000000000000022e-01
-3.017579355179586198e+00,-3.780387199999999948e-01,8.623533191537857689e-03,1.000000000000000048e-04,3.377903688872493149e+01,2.399999999999999911e-01
-2.268575282179586594e+00,6.921453520000000470e-01,2.980417391914391700e-02,1.000000000000000048e-04,3.420638088177054925e+01,3.699999999999999956e-01
2.478186394000000181e+00,5.281495040000000474e-01,1.871608841937666412e-02,1.000000000000000048e-04,3.449357179106301885e+01,2.399999999999999911e-01
1.941716173999999961e+00,9.578325640000000529e-01,1.934130884178109078e-02,1.000000000000000048e-04,3.413086910726268286e+01,3.800000000000000044e-01
2.041827891000000061e+00,-8.953703119999999460e-01,5.089208063031369633e-03,1.000000000000000048e-04,3.462968213222801950e+01,1.700000000000000122e-01
2.521229080999999983e+00,-8.544186950000000058e-01,2.792058201975633480e-02,1.000000000000000048e-04,3.614007688605885704e+01,2.000000000000000111e-01
2.745955969000000163e+00,3.136627880000000257e-01,2.748611866471661891e-02,1.000000000000000048e-04,3.552961238071020489e+01,2.099999999999999922e-01
1.738295793999999894e+00,1.134430556000000090e+00,1.807328690143683581e-02,1.000000000000000048e-04,3.403748333557114591e+01,1.799999999999999933e-01
-8.687814521795864664e-01,6.221710379999999541e-01,4.160992050307998902e-02,1.000000000000000048e-04,3.605339989663865907e+01,3.499999999999999778e-01
-1.857013858179586308e+00,3.937075449999999921e-01,2.778761054036560374e-02,1.000000000000000048e-04,3.378909323640638718e+01,2.999999999999999889e-01
-2.894431473179586156e+00,2.701405689999999971e-01,3.758736786813932085e-02,1.000000000000000048e-04,3.590506413077447689e+01,2.300000000000000100e-01
2.213600608000000136e+00,-5.295933369999999973e-01,2.870000000000000155e-03,1.000000000000000048e-04,3.311837344894190949e+01,2.500000000000000000e-01
9.327636729999999599e-01,4.069681829999999834e-01,2.135747145705568784e-02,1.000000000000000048e-04,3.540964359345854717e+01,2.300000000000000100e-01
1.743234563999999986e+00,7.359057650000000450e-01,1.139361043971742760e-02,1.000000000000000048e-04,3.390273061930415821e+01,2.200000000000000011e-01
-2.812965047179586175e+00,5.929882829999999494e-01,4.956320845209827297e-02,1.000000000000000048e-04,3.624953940190528101e+01,2.399999999999999911e-01
-2.977583888179586413e+00,-1.437144969999999966e-01,1.008301283311796581e-02,1.000000000000000048e-04,3.299448370337973557e+01,2.700000000000000178e-01
2.276564226000000080e+00,-5.051809499999999620e-01,8.770256178842306127e-03,1.000000000000000048e-04,3.516757825504012658e+01,2.800000000000000266e-01
2.667465888000000174e+00,-6.260506340000000502e-01,2.129003487151126528e-02,1.000000000000000048e-04,3.564995154482066653e+01,2.600000000000000089e-01
1.041358068000000081e+00,8.506585119999999778e-01,9.952602835739066123e-03,1.000000000000000048e-04,3.318131582295271897e+01,2.300000000000000100e-01
2.499030525999999863e+00,-9.629979760000000333e-01,2.013694545065503050e-02,1.000000000000000048e-04,3.605238253779806001e+01,3.099999999999999978e-01
1.334501084000000004e+00,-7.340646360000000481e-01,1.714027552461772075e-02,1.000000000000000048e-04,3.577175323675017182e+01,2.300000000000000100e-01
2.196979751999999841e+00,-5.334639439999999677e-01,2.566862179243201147e-02,1.000000000000000048e-04,3.624881089507019993e+01,2.500000000000000000e-01
1.445572062999999963e+00,-8.838676049999999451e-01,1.675956759224939141e-02,1.000000000000000048e-04,3.563991255918005407e+01,3.499999999999999778e-01
7.246286520000000397e-01,-7.843460709999999780e-01,2.870000000000000155e-03,1.000000000000000048e-04,3.358112939417826937e+01,3.099999999999999978e-01
2.179180484000000195e+00,1.312341798999999920e+00,3.209119905021395880e-02,1.000000000000000048e-04,3.475883657875185406e+01,2.200000000000000011e-01
7.669035910000000511e-01,2.329377750000000136e-01,1.843545551820180428e-02,1.000000000000000048e-04,3.522562611370612018e+01,2.500000000000000000e-01
2.984436029999999906e+00,4.410184999999999800e-01,3.066544988649311243e-02,1.000000000000000048e-04,3.607972021065945967e+01,2.999999999999999889e-01
1.808380389999999949e+00,-5.931087419999999666e-01,1.095150914019638044e-02,1.000000000000000048e-04,3.531843893474545837e+01,2.200000000000000011e-01
2.378694356000000010e+00,6.891218140000000547e-01,1.789501620259725811e-02,1.000000000000000048e-04,3.460971838127332489e+01,3.099999999999999978e-01
-1.027171309179585990e+00,8.938185499999999895e-01,5.710664896568728999e-02,1.000000000000000048e-04,3.643673584744872329e+01,3.099999999999999978e-01
2.177629786999999872e+00,1.088514723000000073e+00,3.432856518720472927e-02,1.000000000000000048e-04,3.585226400598288876e+01,2.500000000000000000e-01
2.446904437000000154e+00,4.505237189999999892e-01,2.453231317442905457e-02,1.000000000000000048e-04,3.495777720787491205e+01,2.700000000000000178e-01
-2.745075452179586151e+00,5.290477460000000409e-01,2.670377080277441806e-02,1.000000000000000048e-04,3.420330674345444777e+01,1.600000000000000033e-01
3.470126559999999749e-01,6.971221490000000243e-01,2.792064428641882756e-02,1.000000000000000048e-04,3.495341305752756966e+01,2.399999999999999911e-01
-1.741234469179586242e+00,8.281857209999999858e-01,5.019110269817228520e-02,1.000000000000000048e-04,3.592136320577014885e+01,1.000000000000000056e-01
6.278667869999999818e-01,1.201237362999999947e+00,1.860808503574773454e-02,1.000000000000000048e-04,3.385684897087865863e+01,1.799999999999999933e-01
1.901542252999999905e+00,5.984822429999999693e-01,6.374799083254778509e-03,1.000000000000000048e-04,3.358618984074032454e+01,1.700000000000000122e-01
9.102462569999999475e-01,3.833152009999999943e-01,2.088791794215527631e-02,1.000000000000000048e-04,3.553085112476906460e+01,2.200000000000000011e-01
4.621894529999999723e-01,4.355896570000000190e-01,3.209061274945934628e-02,1.000000000000000048e-04,3.607905287560267737e+01,2.399999999999999911e-01
1.731299603999999936e+00,-9.087058740000000245e-01,2.870000000000000155e-03,1.000000000000000048e-04,3.480396837609892913e+01,2.200000000000000011e-01
2.307708166999999921e+00,-3.555306579999999994e-01,1.299902085584681011e-02,1.000000000000000048e-04,3.519247418656515691e+01,1.700000000000000122e-01
2.284880370000000216e+00,-4.942566800000000038e-01,6.637052460707337787e-03,1.000000000000000048e-04,3.466184592484314919e+01,2.200000000000000011e-01
-2.729734007179586364e+00,-4.808223520000000084e-01,1.330400594155256577e-02,1.000000000000000048e-04,3.369559794032482358e+01,2.300000000000000100e-01
-2.728058296179586062e+00,8.181749999999999856e-01,3.060744900267775570e-02,1.000000000000000048e-04,3.493496854021799436e+01,2.200000000000000011e-01
1.539636916000000078e+00,-6.652033799999999830e-02,2.870000000000000155e-03,1.000000000000000048e-04,3.329395409427969099e+01,2.999999999999999889e-01
2.937620158000000092e+00,7.383732379999999873e-01,2.232897114378284975e-02,1.000000000000000048e-04,3.424606872258527090e+01,2.200000000000000011e-01
2.624384770999999894e+00,8.339422930000000012e-01,3.539900645816462799e-02,1.000000000000000048e-04,3.608485753756554004e+01,1.799999999999999933e-01
-2.594453966179586235e+00,1.052220571999999965e+00,3.021097207998679757e-02,1.000000000000000048e-04,3.495467502117228520e+01,1.900000000000000022e-01
-2.462277587179586114e+00,1.356652656000000068e+00,4.610491704921138023e-02,1.000000000000000048e-04,3.578359770421430142e+01,2.099999999999999922e-01
2.730654787000000194e+00,8.741146779999999783e-01,2.454353867361525054e-02,1.000000000000000048e-04,3.504608434518272730e+01,1.900000000000000022e-01
1.629450376000000089e+00,2.068732899999999875e-01,6.530080429330453740e-03,1.000000000000000048e-04,3.423054658431868802e+01,2.899999999999999800e-01
1.142160569999999958e-01,6.858846720000000285e-01,1.982714675720709252e-02,1.000000000000000048e-04,3.367980544655559783e+01,1.799999999999999933e-01
-4.383495451795864639e-01,9.198101690000000108e-01,4.027012405950491925e-02,1.000000000000000048e-04,3.575476388633767755e+01,2.600000000000000089e-01
1.001193188000000012e+00,8.013430529999999719e-01,1.714743138096386232e-02,1.000000000000000048e-04,3.438133498857746417e+01,1.799999999999999933e-01
-8.746654461795859703e-01,7.515327899999999506e-01,2.930352497770161158e-02,1.000000000000000048e-04,3.405712859649552371e+01,2.600000000000000089e-01
1.319662558000000097e+00,1.070340469999999933e-01,4.176583762533159216e-03,1.000000000000000048e-04,3.378506589196788923e+01,2.399999999999999911e-01
1.726021762000000015e+00,-6.377623550000000030e-01,9.926534051733382213e-03,1.000000000000000048e-04,3.563657952714149246e+01,2.600000000000000089e-01
-2.754219137179586330e+00,-9.277945709999999568e-01,2.623301787708909316e-02,1.000000000000000048e-04,3.589119673321735604e+01,3.699999999999999956e-01
1.691977534999999921e+00,1.434503057999999998e+00,1.689214705849462206e-02,1.000000000000000048e-04,3.287831503782272335e+01,2.099999999999999922e-01
8.272144390000000236e-01,-4.428667319999999852e-01,2.870000000000000155e-03,1.000000000000000048e-04,3.262201920895007135e+01,2.300000000000000100e-01
-2.185785446179585811e+00,4.040310730000000183e-01,2.822021480905267943e-02,1.000000000000000048e-04,3.409131705731542894e+01,1.799999999999999933e-01
2.680919170000000129e+00,5.929394510000000063e-01,1.874938726971486780e-02,1.000000000000000048e-04,3.447590484934867305e+01,1.799999999999999933e-01
2.468528393999999793e+00,-3.885411739999999892e-01,1.529017744126548450e-02,1.000000000000000048e-04,3.539926618935267300e+01,1.700000000000000122e-01
1.824819092000000031e+00,-9.187566499999999525e-01,2.870000000000000155e-03,1.000000000000000048e-04,3.403428434317181939e+01,2.099999999999999922e-01
2.252174823999999909e+00,-3.842870769999999769e-01,2.870000000000000155e-03,1.000000000000000048e-04,3.368046843140172797e+01,2.000000000000000111e-01
2.889947965000000174e+00,3.184077100000000105e-01,1.465618673471569267e-02,1.000000000000000048e-04,3.435831111819076256e+01,2.000000000000000111e-01
-2.666621499179586241e+00,1.790417820000000104e-01,3.534331360168763148e-02,1.000000000000000048e-04,3.508587975666259950e+01,1.900000000000000022e-01
2.353249148999999818e+00,9.653535600000000549e-01,4.351008087495022991e-02,1.000000000000000048e-04,3.647838304061531289e+01,1.799999999999999933e-01
1.765869402999999949e+00,9.288119630000000182e-01,1.799824006559869183e-02,1.000000000000000048e-04,3.453847144077732878e+01,3.599999999999999867e-01
1.931340567999999980e+00,-5.991437729999999906e-01,5.132229316399561370e-03,1.000000000000000048e-04,3.467391353450489078e+01,2.000000000000000111e-01
2.835991935000000019e+00,-7.109363199999999550e-01,9.712758813118949064e-03,1.000000000000000048e-04,3.467113479113606900e+01,1.900000000000000022e-01
-2.852520529179586095e+00,8.667541789999999580e-01,2.020602721693132153e-02,1.000000000000000048e-04,3.341695322916665845e+01,1.799999999999999933e-01
-2.458251249179586040e+00,-2.796002539999999925e-01,3.045274395312946858e-02,1.000000000000000048e-04,3.540333901040695253e+01,3.300000000000000155e-01
1.596378985000000084e+00,5.944120290000000084e-01,2.843950020940444467e-02,1.000000000000000048e-04,3.558421121473127613e+01,1.900000000000000022e-01
-2.484014184179586415e+00,8.016642189999999557e-01,3.595953651100969317e-02,1.000000000000000048e-04,3.535361093442498515e+01,1.900000000000000022e-01
-2.431723812179586108e+00,1.223750555999999934e+00,4.182262885473675418e-02,1.000000000000000048e-04,3.579073903935655920e+01,1.700000000000000122e-01
-2.378598255179586118e+00,1.197731727999999940e+00,3.413112519392824673e-02,1.000000000000000048e-04,3.483621011377957188e+01,1.900000000000000022e-01
1.739429998000000088e+00,2.494783479999999887e-01,1.631902397584128472e-02,1.000000000000000048e-04,3.574641002236700160e+01,3.099999999999999978e-01
-2.377494960179586059e+00,9.562939099999999693e-01,3.798391789654242956e-02,1.000000000000000048e-04,3.551320713602132173e+01,1.799999999999999933e-01
-9.021677017958662503e-02,6.959221140000000361e-01,3.980568480663770892e-02,1.000000000000000048e-04,3.547014934218891113e+01,3.499999999999999778e-01
2.021336933000000169e+00,8.510789659999999923e-01,1.063527708852141096e-02,1.000000000000000048e-04,3.359818337242194275e+01,2.800000000000000266e-01
2.573899695999999793e+00,-5.247218830000000001e-01,3.226908634621494798e-03,1.000000000000000048e-04,3.399286212389780104e+01,1.700000000000000122e-01
2.346925623000000183e+00,-7.496726200000000118e-01,2.870000000000000155e-03,1.000000000000000048e-04,3.361299434288923749e+01,1.700000000000000122e-01
2.543651012999999850e+00,-2.555195920000000176e-01,1.098998854959387650e-02,1.000000000000000048e-04,3.466517236139000602e+01,1.900000000000000022e-01
2.457771880000000131e+00,-4.383329890000000062e-01,4.790627020464732766e-03,1.000000000000000048e-04,3.456066916707246861e+01,1.700000000000000122e-01
-2.749033603179586116e+00,5.277091179999999770e-01,2.039303676201376092e-02,1.000000000000000048e-04,3.322133435031425819e+01,1.799999999999999933e-01
-3.021446786179586397e+00,6.716344440000000526e-01,1.973961775826893472e-02,1.000000000000000048e-04,3.378311398133497789e+01,1.799999999999999933e-01
2.390319493999999878e+00,1.427533710000000067e+00,3.526888233732661249e-02,1.000000000000000048e-04,3.525034816439379171e+01,1.799999999999999933e-01
2.491619029000000207e+00,8.136863199999999630e-01,1.133347164299269849e-02,1.000000000000000048e-04,3.322473786599886836e+01,1.900000000000000022e-01
2.336721559999999975e+00,1.049041915000000103e+00,2.155647135896399114e-02,1.000000000000000048e-04,3.448444295726577735e+01,1.700000000000000122e-01
1.201678150000000000e+00,3.331923239999999842e-01,2.046374291126817901e-02,1.000000000000000048e-04,3.540174213602639242e+01,1.900000000000000022e-01
-3.811893421795859993e-01,1.284308205000000092e+00,3.143157551155661977e-02,1.000000000000000048e-04,3.466548030871700803e+01,2.000000000000000111e-01
5.879284790000000038e-01,8.245620540000000442e-01,2.391541327895918556e-02,1.000000000000000048e-04,3.471563400388809129e+01,1.700000000000000122e-01
-1.085925731795862603e-01,9.806715139999999664e-01,5.255966785370391747e-02,1.000000000000000048e-04,3.647458959676197310e+01,1.799999999999999933e-01
1.189812670000000017e+00,8.219376269999999485e-01,1.260453835674124612e-02,1.000000000000000048e-04,3.382263829159870028e+01,1.700000000000000122e-01
2.896526737999999934e+00,1.048685354999999930e+00,4.954422924519974458e-02,1.000000000000000048e-04,3.643499415216177084e+01,1.700000000000000122e-01
8.784667550000000436e-01,-5.840451829999999678e-01,1.808243778581175576e-02,1.000000000000000048e-04,3.595027832031750847e+01,2.099999999999999922e-01
-2.025603206179586557e+00,1.419180792999999996e+00,2.072714542969111839e-02,1.000000000000000048e-04,3.278162039224816482e+01,1.799999999999999933e-01
1.097118803000000087e+00,1.428367445999999985e+00,2.393622581290189011e-02,1.000000000000000048e-04,3.421940404030022620e+01,1.799999999999999933e-01
-1.923054671795858539e-01,8.268694330000000425e-01,2.225661778695431359e-02,1.000000000000000048e-04,3.359672083537797960e+01,2.000000000000000111e-01
1.974446608000000047e+00,-1.250497374000000050e+00,2.870000000000000155e-03,1.000000000000000048e-04,3.380141438461618009e+01,2.000000000000000111e-01
1.714471547999999901e+00,-4.841846819999999774e-01,2.322721575323849486e-02,1.000000000000000048e-04,3.639305057882904748e+01,1.700000000000000122e-01
1.635209042000000057e+00,-1.499680316999999929e+00,2.118130297642917270e-02,1.000000000000000048e-04,3.574183662901135250e+01,1.900000000000000022e-01
-3.085878636179586021e+00,-8.156760069999999807e-01,2.225338267771914680e-02,1.000000000000000048e-04,3.556813524178036801e+01,1.799999999999999933e-01
1.583648911999999909e+00,-4.051170720000000225e-01,2.870000000000000155e-03,1.000000000000000048e-04,3.409218397658313648e+01,1.700000000000000122e-01
3.116144028999999982e+00,-6.233618589999999626e-01,9.719975945375658455e-03,1.000000000000000048e-04,3.456772843845399024e+01,2.000000000000000111e-01
2.580853791000000008e+00,2.126606490000000071e-01,2.542675495853985446e-02,1.000000000000000048e-04,3.585441702481239901e+01,2.200000000000000011e-01
2.791070910999999821e+00,-3.375241600000000036e-02,1.782422382983472886e-02,1.000000000000000048e-04,3.502530489624871990e+01,2.999999999999999889e-01
2.126664376999999995e+00,-4.630033630000000011e-01,2.870000000000000155e-03,1.000000000000000048e-04,3.388997177477975953e+01,1.799999999999999933e-01
1.264160699999999915e+00,6.289837299999999631e-01,2.680913443000676466e-02,1.000000000000000048e-04,3.562388870852644374e+01,1.900000000000000022e-01
2.608192676999999904e+00,3.485897410000000085e-01,7.727441537943136041e-03,1.000000000000000048e-04,3.350136741752955061e+01,2.200000000000000011e-01
2.816578843999999915e+00,-6.539336449999999523e-01,1.638654819200024981e-02,1.000000000000000048e-04,3.545062110577588044e+01,1.799999999999999933e-01
2.816545334000000178e+00,5.529564630000000092e-01,2.438310044666525123e-02,1.000000000000000048e-04,3.520810199609415037e+01,1.700000000000000122e-01
2.293480610000000031e+00,1.430186356999999964e+00,4.280463448439797425e-02,1.000000000000000048e-04,3.577004570527704885e+01,1.700000000000000122e-01
1.900048696999999898e+00,-6.695785770000000081e-01,1.179415418524265569e-02,1.000000000000000048e-04,3.511845138146959755e+01,1.900000000000000022e-01
2.402973735999999860e+00,-4.293495210000000117e-01,2.870000000000000155e-03,1.000000000000000048e-04,3.338728579684893560e+01,2.200000000000000011e-01
3.123677135999999965e+00,5.597831170000000522e-01,2.862541403371632320e-02,1.000000000000000048e-04,3.500568591953274478e+01,1.700000000000000122e-01
-2.603733431795864917e-01,9.574212720000000454e-01,3.551489781503525123e-02,1.000000000000000048e-04,3.508577494634183580e+01,3.800000000000000044e-01
-1.216980031795857897e-01,3.678993019999999836e-01,1.669511141757218375e-02,1.000000000000000048e-04,3.334846674398870192e+01,1.900000000000000022e-01
2.921580513999999962e+00,4.108407450000000072e-01,2.970609250476585750e-02,1.000000000000000048e-04,3.559080084720392989e+01,1.900000000000000022e-01
-2.362072097179586105e+00,1.187667234999999932e+00,2.619729511767232566e-02,1.000000000000000048e-04,3.433916899781502252e+01,1.900000000000000022e-01
-2.337569846179586186e+00,3.756736769999999837e-01,4.065214446336495868e-02,1.000000000000000048e-04,3.563444310167341200e+01,1.700000000000000122e-01
-1.563533060179586265e+00,8.298117619999999528e-01,3.295880593483380139e-02,1.000000000000000048e-04,3.433968159439801582e+01,3.300000000000000155e-01
-7.514201781795861734e-01,8.148208550000000105e-01,3.031294379023519170e-02,1.000000000000000048e-04,3.468298025688961417e+01,2.099999999999999922e-01
-2.172991007179586376e+00,1.278564443000000050e+00,3.353947401007872919e-02,1.000000000000000048e-04,3.479833519451909751e+01,2.000000000000000111e-01
1.004972830999999900e+00,3.284388160000000223e-01,8.904399473549373667e-03,1.000000000000000048e-04,3.427610953742857447e+01,1.799999999999999933e-01
-1.050913719179586536e+00,7.925907810000000220e-01,2.678320339534434602e-02,1.000000000000000048e-04,3.353207616815596737e+01,2.899999999999999800e-01
1.174967896000000067e+00,-7.032179160000000540e-01,2.749702110219298667e-02,1.000000000000000048e-04,3.632434525822916527e+01,1.799999999999999933e-01
2.063754460999999818e+00,1.158898511999999936e+00,1.868353598597427556e-02,1.000000000000000048e-04,3.412201445588724624e+01,1.799999999999999933e-01
1.355273345999999934e+00,1.034050206000000083e+00,3.627064731868667735e-02,1.000000000000000048e-04,3.575038386006514202e+01,1.700000000000000122e-01
1.878516419999999965e+00,-5.891517790000000421e-01,2.870000000000000155e-03,1.000000000000000048e-04,3.398183025251828582e+01,1.799999999999999933e-01
3.042909537999999969e+00,4.914006550000000195e-01,2.405294951046266227e-02,1.000000000000000048e-04,3.485386942211719941e+01,1.700000000000000122e-01
-2.192876876179585821e+00,7.571444160000000423e-01,4.158222148306345289e-02,1.000000000000000048e-04,3.526388779410585528e+01,2.099999999999999922e-01
-1.274335216179586006e+00,7.393028099999999769e-01,6.269511319602294463e-02,1.000000000000000048e-04,3.644128463553827402e+01,3.599999999999999867e-01
3.513372269999999742e-01,1.023017258000000096e+00,3.346650110129201217e-02,1.000000000000000048e-04,3.533659334491909476e+01,1.799999999999999933e-01
-2.045215730179585911e+00,1.346705497999999945e+00,2.321283237220739259e-02,1.000000000000000048e-04,3.369286781481034154e+01,1.799999999999999933e-01
2.622131355000000053e+00,-2.378520580000000051e-01,2.870000000000000155e-03,1.000000000000000048e-04,3.288334742549805156e+01,2.099999999999999922e-01
1.499565373000000035e+00,-5.833961840000000398e-01,2.870000000000000155e-03,1.000000000000000048e-04,3.246056935483936456e+01,1.199999999999999956e-01
9.453780529999999960e-01,-3.014802610000000271e-01,2.870000000000000155e-03,1.000000000000000048e-04,3.397988052013969451e+01,1.799999999999999933e-01
1.003030738000000088e+00,-6.679498139999999751e-01,1.549318960152357150e-02,1.000000000000000048e-04,3.547082218119988539e+01,1.799999999999999933e-01
-2.858957567179586157e+00,-2.878047879999999781e-01,2.376859172987977331e-02,1.000000000000000048e-04,3.497718353134814606e+01,1.300000000000000044e-01
-2.653655062179586022e+00,5.464710109999999510e-01,2.466139582711179834e-02,1.000000000000000048e-04,3.402140610790851127e+01,1.300000000000000044e-01
-1.077960778179586576e+00,1.305029642999999906e+00,5.571613318398438430e-02,1.000000000000000048e-04,3.631740291305617774e+01,1.100000000000000006e-01
2.996279555000000094e+00,-9.792432829999999644e-01,2.870000000000000155e-03,1.000000000000000048e-04,3.324964711258223105e+01,1.600000000000000033e-01
-7.405109531795863731e-01,5.344760480000000369e-01,3.145472001985050170e-02,1.000000000000000048e-04,3.496498566460631707e+01,1.900000000000000022e-01
-1.986221938179586033e+00,3.858849830000000147e-01,4.332499584638993539e-02,1.000000000000000048e-04,3.543237165938944599e+01,2.600000000000000089e-01
-1.660796187179585992e+00,1.337702168000000080e+00,3.539347367909595476e-02,1.000000000000000048e-04,3.495277019153664355e+01,1.300000000000000044e-01
-1.008319883179586540e+00,9.035811799999999838e-01,2.634790159912037133e-02,1.000000000000000048e-04,3.374014271547636667e+01,1.799999999999999933e-01
-2.859227719179586291e+00,-3.383984709999999785e-01,3.115069927801483729e-02,1.000000000000000048e-04,3.608262273520572450e+01,1.799999999999999933e-01
-3.008470453179586279e+00,-9.028608339999999455e-01,3.950167358638623227e-02,1.000000000000000048e-04,3.651438069225824989e+01,1.300000000000000044e-01
2.720373041999999852e+00,-1.026937239000000002e+00,6.543522263650958237e-03,1.000000000000000048e-04,3.424655844737701926e+01,1.100000000000000006e-01
1.131806215999999976e+00,-1.312634394000000038e+00,1.212434920230887059e-02,1.000000000000000048e-04,3.532570780655942855e+01,1.199999999999999956e-01
1.262497049000000038e+00,-7.576738640000000302e-01,1.530743071992946014e-02,1.000000000000000048e-04,3.580233017836462750e+01,1.900000000000000022e-01
-2.150308364179585929e+00,9.473204419999999848e-01,4.934304922563059748e-02,1.000000000000000048e-04,3.580088189568044754e+01,1.499999999999999944e-01
-2.672281993179586035e+00,8.065802300000000091e-01,3.907782305505302922e-02,1.000000000000000048e-04,3.582025652420576023e+01,1.400000000000000133e-01
-2.768228307179586345e+00,1.501965110000000048e-01,3.469044519606212518e-02,1.000000000000000048e-04,3.557256987565452988e+01,1.300000000000000044e-01
2.456608391000000058e+00,-6.815239560000000418e-01,2.870000000000000155e-03,1.000000000000000048e-04,3.319345349921213284e+01,2.899999999999999800e-01
-1.538735822179586599e+00,7.895792169999999999e-01,4.403293682006625964e-02,1.000000000000000048e-04,3.537084889925333897e+01,1.600000000000000033e-01
-6.811844061795859773e-01,-7.989239399999999991e-01,4.101950790734854024e-02,1.000000000000000048e-04,3.599758557461267117e+01,2.300000000000000100e-01
-9.881069141795864041e-01,9.266642769999999807e-01,2.752040984198078633e-02,1.000000000000000048e-04,3.343539629864805818e+01,2.500000000000000000e-01
9.533575850000000074e-01,-5.868324440000000086e-01,1.373214091856089780e-02,1.000000000000000048e-04,3.528002945109876265e+01,1.199999999999999956e-01
-1.550854682179585886e+00,1.341867675000000037e+00,2.995495392303348936e-02,1.000000000000000048e-04,3.456854648325061419e+01,3.599999999999999867e-01
1.284766933000000000e+00,-9.049604909999999780e-01,2.870000000000000155e-03,1.000000000000000048e-04,3.273649944931755584e+01,1.300000000000000044e-01
