-1.598279621179586663e+00,2.779993629999999993e-01,4.419800467210810435e-01,1.000000000000000048e-04,4.173897244361126013e+01,1.700000000000000122e-01
-8.306753881795865269e-01,5.048130450000000158e-01,3.252590294653565639e-01,1.000000000000000048e-04,4.126931754608740022e+01,1.600000000000000033e-01
-1.512887194179586281e+00,3.571169940000000209e-01,5.301129591754683013e-01,1.000000000000000048e-04,4.262031126371986289e+01,1.600000000000000033e-01
-2.094054222179586588e+00,-9.657747650000000350e-01,3.435792512296316215e-01,1.000000000000000048e-04,4.110534553855691087e+01,1.600000000000000033e-01
-1.256550916179586252e+00,-1.037146153999999987e+00,5.952712506358699418e-01,1.000000000000000048e-04,4.256747109479764646e+01,1.900000000000000022e-01
-2.638489419179586015e+00,-8.917870300000000361e-01,3.388080307428031901e-01,1.000000000000000048e-04,4.110595106342630345e+01,1.600000000000000033e-01
-1.710562538179586589e+00,-1.402302595000000096e+00,2.426764197785895583e-01,1.000000000000000048e-04,4.017249452434937496e+01,2.000000000000000111e-01
-2.771840681795865180e-01,-1.115655276000000029e+00,4.500807740337937624e-01,1.000000000000000048e-04,4.189635029304657365e+01,1.700000000000000122e-01
-1.608432286179586335e+00,-6.514894359999999773e-01,8.281964617201031942e-02,1.000000000000000048e-04,3.749241183989321513e+01,1.600000000000000033e-01
-1.490451089179586575e+00,-3.201959389999999850e-01,3.310931366625018413e-01,1.000000000000000048e-04,4.140432378824063164e+01,1.700000000000000122e-01
-1.995144670179586299e+00,-1.040863893000000040e+00,8.945594739033122522e-01,1.000000000000000048e-04,4.393332625699544280e+01,1.799999999999999933e-01
3.095686500000000008e-02,-1.139960520999999893e+00,3.219675706075610933e-01,1.000000000000000048e-04,4.099582621237582458e+01,1.700000000000000122e-01
-2.211919791795864398e-01,-6.717550429999999961e-01,2.622758376570075711e-01,1.000000000000000048e-04,4.065203051212210994e+01,2.200000000000000011e-01
-8.294029241795861651e-01,6.699244909999999553e-01,2.463034901367631146e-01,1.000000000000000048e-04,4.062376560706301376e+01,1.799999999999999933e-01
-4.765590681795863759e-01,-7.328014390000000544e-01,2.862734439587695245e-01,1.000000000000000048e-04,4.075040449955865540e+01,1.600000000000000033e-01
-1.123871723179585835e+00,1.275958498999999913e+00,4.245568594536046625e-01,1.000000000000000048e-04,4.189646773250431977e+01,1.900000000000000022e-01
-5.094723721795864080e-01,-7.371415260000000469e-01,1.502024638292638326e-01,1.000000000000000048e-04,3.919926669189936064e+01,1.600000000000000033e-01
6.571342580000000266e-01,4.949370419999999937e-01,4.734272684844007539e-01,1.000000000000000048e-04,4.217607952247750802e+01,1.700000000000000122e-01
-1.010588552179585875e+00,4.063959939999999826e-01,9.567130670207237841e-01,1.000000000000000048e-04,4.401020872926192595e+01,1.400000000000000133e-01
-5.300352171795861267e-01,-4.198024320000000031e-01,2.619776592392020209e-01,1.000000000000000048e-04,4.054795912769485255e+01,1.499999999999999944e-01
-3.959305511795863097e-01,-4.514385590000000170e-01,3.885075630600460794e-01,1.000000000000000048e-04,4.141348677947579660e+01,1.600000000000000033e-01
-1.302326638179586382e+00,4.891699640000000127e-01,4.273360706433779743e-01,1.000000000000000048e-04,4.190073666577203682e+01,8.999999999999999667e-02
-8.169037861795862554e-01,4.857709299999999897e-01,4.312956323347696408e-01,1.000000000000000048e-04,4.185328229213091333e+01,1.000000000000000056e-01
-1.156602994179586119e+00,7.039336720000000103e-01,1.874986931909294885e-01,1.000000000000000048e-04,3.983026309499026496e+01,1.100000000000000006e-01
2.500120207999999788e+00,-3.403989430000000094e-01,1.024923798538757147e-01,1.000000000000000048e-04,3.828183846268139945e+01,1.100000000000000006e-01
2.397122115999999803e+00,-8.283729720000000407e-01,6.817316109773574606e-01,1.000000000000000048e-04,4.291829160460228820e+01,1.700000000000000122e-01
-4.391142381795862804e-01,9.199097720000000145e-01,2.901377175481139048e-01,1.000000000000000048e-04,4.049478953181265695e+01,2.200000000000000011e-01
-1.356814123179586495e+00,1.335301293999999972e+00,7.332837278067116937e-01,1.000000000000000048e-04,4.308648379308019116e+01,2.600000000000000089e-01
2.612804049999999823e+00,3.003891830000000041e-01,9.204418623717314230e-01,1.000000000000000048e-04,4.366013359666255411e+01,1.700000000000000122e-01
-1.192441121179586005e+00,1.100105410000000061e+00,4.267992583088113800e-01,1.000000000000000048e-04,4.170654903005039671e+01,1.799999999999999933e-01
-3.012917491179586182e+00,1.485957493999999990e+00,2.662723896353136332e-01,1.000000000000000048e-04,4.038252847224867992e+01,2.200000000000000011e-01
-7.329138461795858817e-01,1.044356909000000000e+00,4.641570717946916780e-01,1.000000000000000048e-04,4.191580143149666782e+01,1.700000000000000122e-01
1.024371087000000013e+00,-9.607604419999999923e-01,2.271233451843510665e-01,1.000000000000000048e-04,4.034043375844680668e+01,1.600000000000000033e-01
2.960998206000000188e+00,-8.548671270000000044e-01,1.114226946046734668e-01,1.000000000000000048e-04,3.858533278532024724e+01,1.900000000000000022e-01
-3.017579355179586198e+00,-3.780387199999999948e-01,2.573657022881041812e-01,1.000000000000000048e-04,4.023255197528222027e+01,2.399999999999999911e-01
-2.268575282179586594e+00,6.921453520000000470e-01,4.552271633508893078e-01,1.000000000000000048e-04,4.212774399940853698e+01,3.699999999999999956e-01
2.478186394000000181e+00,5.281495040000000474e-01,7.614933753042860687e-01,1.000000000000000048e-04,4.304925556696238687e+01,2.399999999999999911e-01
7.532392530000000530e-01,9.936355940000000109e-01,4.396075849237701672e-01,1.000000000000000048e-04,4.232831903235311444e+01,1.600000000000000033e-01
1.941716173999999961e+00,9.578325640000000529e-01,9.050002864329975694e-02,1.000000000000000048e-04,3.885351237143713377e+01,3.800000000000000044e-01
2.041827891000000061e+00,-8.953703119999999460e-01,3.295671364954086968e-01,1.000000000000000048e-04,4.104783832155181500e+01,1.700000000000000122e-01
2.521229080999999983e+00,-8.544186950000000058e-01,1.143980130784708393e+00,1.000000000000000048e-04,4.441658752060578053e+01,2.000000000000000111e-01
2.745955969000000163e+00,3.136627880000000257e-01,2.183616248935986714e-01,1.000000000000000048e-04,4.016835391590672799e+01,2.099999999999999922e-01
1.738295793999999894e+00,1.134430556000000090e+00,4.739031676963971762e-01,1.000000000000000048e-04,4.182701124026382189e+01,1.799999999999999933e-01
-8.687814521795864664e-01,6.221710379999999541e-01,1.689642596891285375e-01,1.000000000000000048e-04,3.937961553833848427e+01,3.499999999999999778e-01
-1.857013858179586308e+00,3.937075449999999921e-01,7.482094219704418236e-01,1.000000000000000048e-04,4.323218753285392069e+01,2.999999999999999889e-01
-2.894431473179586156e+00,2.701405689999999971e-01,5.499483729626872819e-01,1.000000000000000048e-04,4.206640578370860339e+01,2.300000000000000100e-01
2.213600608000000136e+00,-5.295933369999999973e-01,3.956751643424418763e-01,1.000000000000000048e-04,4.137762717164619630e+01,2.500000000000000000e-01
9.327636729999999599e-01,4.069681829999999834e-01,3.268620169385734187e-01,1.000000000000000048e-04,4.136688908511659690e+01,2.300000000000000100e-01
1.743234563999999986e+00,7.359057650000000450e-01,2.081914651271281613e-01,1.000000000000000048e-04,3.978820208366770572e+01,2.200000000000000011e-01
-2.812965047179586175e+00,5.929882829999999494e-01,6.287603875721683444e-01,1.000000000000000048e-04,4.256506740244110887e+01,2.399999999999999911e-01
-2.977583888179586413e+00,-1.437144969999999966e-01,8.873888292996372495e-01,1.000000000000000048e-04,4.367984861548782760e+01,2.700000000000000178e-01
2.276564226000000080e+00,-5.051809499999999620e-01,5.108886309731439646e-01,1.000000000000000048e-04,4.216265479426103724e+01,2.800000000000000266e-01
2.667465888000000174e+00,-6.260506340000000502e-01,6.570266897856853472e-01,1.000000000000000048e-04,4.308741011321679792e+01,2.600000000000000089e-01
1.041358068000000081e+00,8.506585119999999778e-01,4.916923300276450082e-01,1.000000000000000048e-04,4.249058845380009330e+01,2.300000000000000100e-01
2.499030525999999863e+00,-9.629979760000000333e-01,4.549106255869050930e-01,1.000000000000000048e-04,4.246920333709627471e+01,3.099999999999999978e-01
1.334501084000000004e+00,-7.340646360000000481e-01,1.135537796804979571e-01,1.000000000000000048e-04,3.889220271152365882e+01,2.300000000000000100e-01
2.196979751999999841e+00,-5.334639439999999677e-01,3.149336626633947311e-01,1.000000000000000048e-04,4.113210056437381468e+01,2.500000000000000000e-01
1.355624495999999901e+00,4.654212710000000253e-01,1.549208446193335309e-01,1.000000000000000048e-04,3.924764198069222232e+01,2.200000000000000011e-01
1.445572062999999963e+00,-8.838676049999999451e-01,6.176622391066781681e-01,1.000000000000000048e-04,4.299154338847563395e+01,3.499999999999999778e-01
7.246286520000000397e-01,-7.843460709999999780e-01,6.214894879903563041e-01,1.000000000000000048e-04,4.247922480890242269e+01,3.099999999999999978e-01
2.179180484000000195e+00,1.312341798999999920e+00,1.284414930088224605e-01,1.000000000000000048e-04,3.877048308574617153e+01,2.200000000000000011e-01
7.669035910000000511e-01,2.329377750000000136e-01,5.868030649426803080e-01,1.000000000000000048e-04,4.263256427422886219e+01,2.500000000000000000e-01
2.984436029999999906e+00,4.410184999999999800e-01,4.289778985234571351e-01,1.000000000000000048e-04,4.179127055753237130e+01,2.999999999999999889e-01
1.808380389999999949e+00,-5.931087419999999666e-01,1.684789620574000946e-01,1.000000000000000048e-04,3.944030107988811551e+01,2.200000000000000011e-01
2.378694356000000010e+00,6.891218140000000547e-01,6.177454263845278959e-01,1.000000000000000048e-04,4.289638644243607501e+01,3.099999999999999978e-01
-1.027171309179585990e+00,8.938185499999999895e-01,3.165200424314176253e-01,1.000000000000000048e-04,4.070762939067557795e+01,3.099999999999999978e-01
2.177629786999999872e+00,1.088514723000000073e+00,3.144467118085665369e-01,1.000000000000000048e-04,4.093699771235083773e+01,2.500000000000000000e-01
2.446904437000000154e+00,4.505237189999999892e-01,2.259362415365402388e-01,1.000000000000000048e-04,4.039827513766756084e+01,2.700000000000000178e-01
-2.745075452179586151e+00,5.290477460000000409e-01,3.529075396215999305e-01,1.000000000000000048e-04,4.147806248603591683e+01,1.600000000000000033e-01
3.470126559999999749e-01,6.971221490000000243e-01,3.587449363936061619e-01,1.000000000000000048e-04,4.146307324717845688e+01,2.399999999999999911e-01
-2.027672372179586624e+00,-3.494576850000000179e-01,2.105267213633223999e-01,1.000000000000000048e-04,4.009617840600397187e+01,8.999999999999999667e-02
-2.243457714179585949e+00,5.735296930000000071e-01,1.005630264768360149e-01,1.000000000000000048e-04,3.821063636402479347e+01,8.000000000000000167e-02
-1.741234469179586242e+00,8.281857209999999858e-01,4.784056906328526537e-01,1.000000000000000048e-04,4.217217509642977546e+01,1.000000000000000056e-01
-1.661352162179586145e+00,7.473004210000000480e-01,6.009746804303917056e-01,1.000000000000000048e-04,4.260979448954865489e+01,1.100000000000000006e-01
-1.046494641179585905e+00,9.839422859999999993e-01,2.524726548587326036e-01,1.000000000000000048e-04,4.049944368071910361e+01,1.600000000000000033e-01
-1.357076630179586019e+00,8.591991679999999576e-01,1.821173027305280634e-01,1.000000000000000048e-04,3.964390395286723390e+01,1.300000000000000044e-01
-1.489161381179585852e+00,8.733460579999999807e-01,1.198946811811578694e-01,1.000000000000000048e-04,3.861377644681216736e+01,8.999999999999999667e-02
2.602874990000000111e+00,9.865781270000000269e-01,4.215552671313473887e-01,1.000000000000000048e-04,4.176381602685984262e+01,2.099999999999999922e-01
6.278667869999999818e-01,1.201237362999999947e+00,5.997124868534677855e-01,1.000000000000000048e-04,4.292812551723640269e+01,1.799999999999999933e-01
1.901542252999999905e+00,5.984822429999999693e-01,1.167189564948799774e+00,1.000000000000000048e-04,4.481060546485640828e+01,1.700000000000000122e-01
9.102462569999999475e-01,3.833152009999999943e-01,1.284958777048205825e+00,1.000000000000000048e-04,4.473553790476706382e+01,2.200000000000000011e-01
4.621894529999999723e-01,4.355896570000000190e-01,1.936371868075654756e-01,1.000000000000000048e-04,3.979386534433895406e+01,2.399999999999999911e-01
1.731299603999999936e+00,-9.087058740000000245e-01,5.179870566913378216e-01,1.000000000000000048e-04,4.193154215824702646e+01,2.200000000000000011e-01
2.307708166999999921e+00,-3.555306579999999994e-01,2.231396999130528247e-01,1.000000000000000048e-04,4.016460379639725886e+01,1.700000000000000122e-01
2.284880370000000216e+00,-4.942566800000000038e-01,7.067704956969600438e-02,1.000000000000000048e-04,3.778696569005217043e+01,2.200000000000000011e-01
-2.729734007179586364e+00,-4.808223520000000084e-01,5.039495576335337734e-01,1.000000000000000048e-04,4.227529056027179166e+01,2.300000000000000100e-01
-2.728058296179586062e+00,8.181749999999999856e-01,1.175939663416405878e+00,1.000000000000000048e-04,4.434229852789601978e+01,2.200000000000000011e-01
1.539636916000000078e+00,-6.652033799999999830e-02,3.042151996996791397e-01,1.000000000000000048e-04,4.073616745538971884e+01,2.999999999999999889e-01
2.937620158000000092e+00,7.383732379999999873e-01,2.539421589528110257e-01,1.000000000000000048e-04,4.046021751134743738e+01,2.200000000000000011e-01
2.624384770999999894e+00,8.339422930000000012e-01,3.605421852277022055e-01,1.000000000000000048e-04,4.145772288254355686e+01,1.799999999999999933e-01
-2.594453966179586235e+00,1.052220571999999965e+00,8.404645703758937270e-01,1.000000000000000048e-04,4.366963838411860621e+01,1.900000000000000022e-01
-2.462277587179586114e+00,1.356652656000000068e+00,2.871030186628271696e-01,1.000000000000000048e-04,4.103045540252844603e+01,2.099999999999999922e-01
2.730654787000000194e+00,8.741146779999999783e-01,1.042899425442957106e+00,1.000000000000000048e-04,4.437921184640886452e+01,1.900000000000000022e-01
1.629450376000000089e+00,2.068732899999999875e-01,8.900301785036315305e-01,1.000000000000000048e-04,4.389178621477294229e+01,2.899999999999999800e-01
1.142160569999999958e-01,6.858846720000000285e-01,7.864368585080647733e-01,1.000000000000000048e-04,4.333731122493086474e+01,1.799999999999999933e-01
-4.383495451795864639e-01,9.198101690000000108e-01,2.026157960976164851e-01,1.000000000000000048e-04,4.014141799720211878e+01,2.600000000000000089e-01
1.001193188000000012e+00,8.013430529999999719e-01,6.866276625863290128e-01,1.000000000000000048e-04,4.305633497259252351e+01,1.799999999999999933e-01
-8.746654461795859703e-01,7.515327899999999506e-01,7.346859751518304282e-01,1.000000000000000048e-04,4.342207308453063064e+01,2.600000000000000089e-01
1.319662558000000097e+00,1.070340469999999933e-01,1.516528878085721121e-01,1.000000000000000048e-04,3.977015422344834406e+01,2.399999999999999911e-01
1.726021762000000015e+00,-6.377623550000000030e-01,1.854317294403293737e-01,1.000000000000000048e-04,3.958438814736651779e+01,2.600000000000000089e-01
-2.754219137179586330e+00,-9.277945709999999568e-01,2.412410093381476273e-01,1.000000000000000048e-04,4.022394375042857462e+01,3.699999999999999956e-01
1.691977534999999921e+00,1.434503057999999998e+00,1.808704693176066414e-01,1.000000000000000048e-04,3.985476612623208581e+01,2.099999999999999922e-01
8.272144390000000236e-01,-4.428667319999999852e-01,6.498235770783611365e-01,1.000000000000000048e-04,4.266796536719190414e+01,2.300000000000000100e-01
-2.185785446179585811e+00,4.040310730000000183e-01,1.052434375748931839e-01,1.000000000000000048e-04,3.839477702360400713e+01,1.799999999999999933e-01
2.680919170000000129e+00,5.929394510000000063e-01,4.793996409418561644e-01,1.000000000000000048e-04,4.229236595295592593e+01,1.799999999999999933e-01
2.468528393999999793e+00,-3.885411739999999892e-01,5.604490989226431630e-01,1.000000000000000048e-04,4.254852053681853619e+01,1.700000000000000122e-01
1.824819092000000031e+00,-9.187566499999999525e-01,6.267334903526688983e-01,1.000000000000000048e-04,4.267877518385389379e+01,2.099999999999999922e-01
2.252174823999999909e+00,-3.842870769999999769e-01,6.521062061730704684e-01,1.000000000000000048e-04,4.337275557850617957e+01,2.000000000000000111e-01
2.889947965000000174e+00,3.184077100000000105e-01,1.136284950227503199e+00,1.000000000000000048e-04,4.477819812138169198e+01,2.000000000000000111e-01
-2.666621499179586241e+00,1.790417820000000104e-01,2.206433459815722031e-01,1.000000000000000048e-04,4.028804523939390947e+01,1.900000000000000022e-01
2.353249148999999818e+00,9.653535600000000549e-01,2.785808629183741392e-01,1.000000000000000048e-04,4.098682922942090556e+01,1.799999999999999933e-01
1.765869402999999949e+00,9.288119630000000182e-01,2.976807101950438295e-01,1.000000000000000048e-04,4.086223720535293324e+01,3.599999999999999867e-01
2.011122450999999867e+00,-1.257182417000000108e+00,6.221929810762620860e-01,1.000000000000000048e-04,4.282118392057959966e+01,1.799999999999999933e-01
1.931340567999999980e+00,-5.991437729999999906e-01,6.006570350150632898e-01,1.000000000000000048e-04,4.292800706266833544e+01,2.000000000000000111e-01
2.835991935000000019e+00,-7.109363199999999550e-01,1.197656306364661472e+00,1.000000000000000048e-04,4.464986184160946436e+01,1.900000000000000022e-01
-2.852520529179586095e+00,8.667541789999999580e-01,7.916972261522714494e-01,1.000000000000000048e-04,4.369134217574004708e+01,1.799999999999999933e-01
-2.458251249179586040e+00,-2.796002539999999925e-01,4.371234990424295308e-01,1.000000000000000048e-04,4.211975767784572611e+01,3.300000000000000155e-01
1.596378985000000084e+00,5.944120290000000084e-01,4.493115917989429775e-01,1.000000000000000048e-04,4.168472671948362773e+01,1.900000000000000022e-01
-2.484014184179586415e+00,8.016642189999999557e-01,5.282483728530669165e-01,1.000000000000000048e-04,4.255441293963477989e+01,1.900000000000000022e-01
-2.431723812179586108e+00,1.223750555999999934e+00,3.523212073191390736e-01,1.000000000000000048e-04,4.151358218911210685e+01,1.700000000000000122e-01
-2.378598255179586118e+00,1.197731727999999940e+00,9.884714043660980387e-01,1.000000000000000048e-04,4.441832809801172743e+01,1.900000000000000022e-01
1.739429998000000088e+00,2.494783479999999887e-01,2.701795435326199701e-01,1.000000000000000048e-04,4.098073730814333260e+01,3.099999999999999978e-01
-2.377494960179586059e+00,9.562939099999999693e-01,4.485411987963745517e-01,1.000000000000000048e-04,4.210643530819199043e+01,1.799999999999999933e-01
-9.021677017958662503e-02,6.959221140000000361e-01,6.919751623638257243e-01,1.000000000000000048e-04,4.309354190989702715e+01,3.499999999999999778e-01
2.021336933000000169e+00,8.510789659999999923e-01,3.211842724087845546e-01,1.000000000000000048e-04,4.125940339004219481e+01,2.800000000000000266e-01
2.573899695999999793e+00,-5.247218830000000001e-01,1.479883228543521501e-01,1.000000000000000048e-04,3.936878977311008043e+01,1.700000000000000122e-01
2.346925623000000183e+00,-7.496726200000000118e-01,1.864086565958178454e-01,1.000000000000000048e-04,4.009996521272726966e+01,1.700000000000000122e-01
2.487812089999999809e+00,-1.095252646999999913e+00,3.946651363818576286e-01,1.000000000000000048e-04,4.174497835431989046e+01,1.600000000000000033e-01
2.543651012999999850e+00,-2.555195920000000176e-01,1.682026645730472225e-01,1.000000000000000048e-04,3.958107945960694707e+01,1.900000000000000022e-01
2.457771880000000131e+00,-4.383329890000000062e-01,9.930928751204226579e-02,1.000000000000000048e-04,3.849848404513381439e+01,1.700000000000000122e-01
-2.749033603179586116e+00,5.277091179999999770e-01,2.038913106781965467e-01,1.000000000000000048e-04,4.027273986888569368e+01,1.799999999999999933e-01
-3.021446786179586397e+00,6.716344440000000526e-01,2.113891154188989319e-01,1.000000000000000048e-04,4.022308395248688129e+01,1.799999999999999933e-01
2.390319493999999878e+00,1.427533710000000067e+00,4.839299083569417181e-01,1.000000000000000048e-04,4.208001028616405392e+01,1.799999999999999933e-01
-2.060955814179585843e+00,9.020563839999999889e-01,1.079425568725802531e-01,1.000000000000000048e-04,3.813934964387016180e+01,1.799999999999999933e-01
-1.552222439179586466e+00,1.270289940999999923e+00,1.404004469023232282e-01,1.000000000000000048e-04,3.908242040950008800e+01,1.600000000000000033e-01
2.491619029000000207e+00,8.136863199999999630e-01,2.816155925135592764e-01,1.000000000000000048e-04,4.108954985509775071e+01,1.900000000000000022e-01
2.336721559999999975e+00,1.049041915000000103e+00,1.031934882446978730e-01,1.000000000000000048e-04,3.832594597953922033e+01,1.700000000000000122e-01
1.201678150000000000e+00,3.331923239999999842e-01,1.031572268957825944e+00,1.000000000000000048e-04,4.428641139722432740e+01,1.900000000000000022e-01
-3.811893421795859993e-01,1.284308205000000092e+00,4.605847688723472277e-01,1.000000000000000048e-04,4.250654008792447769e+01,2.000000000000000111e-01
5.879284790000000038e-01,8.245620540000000442e-01,3.671701516363377049e-01,1.000000000000000048e-04,4.138772173945942967e+01,1.700000000000000122e-01
-3.584264691795864266e-01,1.112498557000000110e+00,3.467106457804045583e-01,1.000000000000000048e-04,4.174647837905565950e+01,2.000000000000000111e-01
-1.085925731795862603e-01,9.806715139999999664e-01,7.162727274907481068e-01,1.000000000000000048e-04,4.306375700044453936e+01,1.799999999999999933e-01
1.189812670000000017e+00,8.219376269999999485e-01,1.052658344526880008e-01,1.000000000000000048e-04,3.834194311513358855e+01,1.700000000000000122e-01
2.896526737999999934e+00,1.048685354999999930e+00,5.880383612471296040e-01,1.000000000000000048e-04,4.268268461894814436e+01,1.700000000000000122e-01
1.187793541000000008e+00,1.533334508000000040e+00,3.013835092065229038e-01,1.000000000000000048e-04,4.124628432148234936e+01,1.700000000000000122e-01
8.784667550000000436e-01,-5.840451829999999678e-01,2.812995775677533672e-01,1.000000000000000048e-04,4.080601019240958749e+01,2.099999999999999922e-01
-2.025603206179586557e+00,1.419180792999999996e+00,4.311226496169258127e-01,1.000000000000000048e-04,4.160141762890206962e+01,1.799999999999999933e-01
1.097118803000000087e+00,1.428367445999999985e+00,3.567195092545545343e-01,1.000000000000000048e-04,4.127961498452421552e+01,1.799999999999999933e-01
-1.923054671795858539e-01,8.268694330000000425e-01,1.573043029092469069e-01,1.000000000000000048e-04,3.920747588984075804e+01,2.000000000000000111e-01
1.974446608000000047e+00,-1.250497374000000050e+00,4.753639796285731300e-01,1.000000000000000048e-04,4.232182829767904764e+01,2.000000000000000111e-01
1.714471547999999901e+00,-4.841846819999999774e-01,1.071349901789099057e+00,1.000000000000000048e-04,4.437108127194898799e+01,1.700000000000000122e-01
1.635209042000000057e+00,-1.499680316999999929e+00,1.227950891024347513e-01,1.000000000000000048e-04,3.877623893190173732e+01,1.900000000000000022e-01
-3.085878636179586021e+00,-8.156760069999999807e-01,1.228155876638926447e+00,1.000000000000000048e-04,4.492173566422572151e+01,1.799999999999999933e-01
1.583648911999999909e+00,-4.051170720000000225e-01,2.228624227825604098e-01,1.000000000000000048e-04,4.040171866396335076e+01,1.700000000000000122e-01
3.116144028999999982e+00,-6.233618589999999626e-01,4.169010667256698444e-01,1.000000000000000048e-04,4.197825886403752804e+01,2.000000000000000111e-01
2.580853791000000008e+00,2.126606490000000071e-01,1.388214322471110762e-01,1.000000000000000048e-04,3.911248364323542859e+01,2.200000000000000011e-01
2.791070910999999821e+00,-3.375241600000000036e-02,1.039977780859668854e-01,1.000000000000000048e-04,3.892712382527528092e+01,2.999999999999999889e-01
2.126664376999999995e+00,-4.630033630000000011e-01,2.872782030125236030e-01,1.000000000000000048e-04,4.104114950181357813e+01,1.799999999999999933e-01
1.264160699999999915e+00,6.289837299999999631e-01,5.662044044522300812e-01,1.000000000000000048e-04,4.298242086111258686e+01,1.900000000000000022e-01
2.608192676999999904e+00,3.485897410000000085e-01,1.414235798646119591e-01,1.000000000000000048e-04,3.906339147669537226e+01,2.200000000000000011e-01
9.029304540000000490e-01,-5.888661819999999603e-01,6.124568588633436672e-01,1.000000000000000048e-04,4.296321588551664661e+01,1.700000000000000122e-01
2.675488564000000125e+00,-1.029758079000000048e+00,1.139942119598789105e-01,1.000000000000000048e-04,3.880831881466549760e+01,1.700000000000000122e-01
9.979371630000000160e-01,-7.076351440000000492e-01,9.291517487664435748e-02,1.000000000000000048e-04,3.839265426306678819e+01,2.000000000000000111e-01
2.816578843999999915e+00,-6.539336449999999523e-01,2.347491969904884623e-01,1.000000000000000048e-04,4.068992005739421103e+01,1.799999999999999933e-01
-2.809922836179586270e+00,-1.219770695000000016e+00,1.791985340920458913e-01,1.000000000000000048e-04,3.994862810570350575e+01,1.900000000000000022e-01
2.816545334000000178e+00,5.529564630000000092e-01,1.338135821395263214e-01,1.000000000000000048e-04,3.917526225056830924e+01,1.700000000000000122e-01
2.293480610000000031e+00,1.430186356999999964e+00,1.274210338929618658e+00,1.000000000000000048e-04,4.472895177713984083e+01,1.700000000000000122e-01
1.900048696999999898e+00,-6.695785770000000081e-01,9.692980227406833293e-02,1.000000000000000048e-04,3.848099306472704484e+01,1.900000000000000022e-01
2.402973735999999860e+00,-4.293495210000000117e-01,2.715990620621731022e-01,1.000000000000000048e-04,4.118340314459958762e+01,2.200000000000000011e-01
3.123677135999999965e+00,5.597831170000000522e-01,1.489211613547378743e-01,1.000000000000000048e-04,3.936355249032681769e+01,1.700000000000000122e-01
1.945616433999999950e+00,5.533621010000000506e-01,4.825044096549926387e-01,1.000000000000000048e-04,4.206988534101744648e+01,1.700000000000000122e-01
-2.603733431795864917e-01,9.574212720000000454e-01,4.726384932515823589e-01,1.000000000000000048e-04,4.120776842100013937e+01,3.800000000000000044e-01
-1.216980031795857897e-01,3.678993019999999836e-01,2.443369467491998126e-01,1.000000000000000048e-04,4.043909048904468762e+01,1.900000000000000022e-01
2.921580513999999962e+00,4.108407450000000072e-01,4.300524029253438574e-01,1.000000000000000048e-04,4.204138654105962303e+01,1.900000000000000022e-01
-2.362072097179586105e+00,1.187667234999999932e+00,2.104657826442819513e-01,1.000000000000000048e-04,4.020956013875189683e+01,1.900000000000000022e-01
-2.337569846179586186e+00,3.756736769999999837e-01,3.767756344050914308e-01,1.000000000000000048e-04,4.179459600748593573e+01,1.700000000000000122e-01
-1.563533060179586265e+00,8.298117619999999528e-01,1.781896359789065798e-01,1.000000000000000048e-04,4.018419375831203411e+01,3.300000000000000155e-01
-7.514201781795861734e-01,8.148208550000000105e-01,1.171520884722674349e+00,1.000000000000000048e-04,4.473269573567796442e+01,2.099999999999999922e-01
-2.172991007179586376e+00,1.278564443000000050e+00,7.683242852472311757e-01,1.000000000000000048e-04,4.369922685578877974e+01,2.000000000000000111e-01
1.004972830999999900e+00,3.284388160000000223e-01,2.774171152613147395e-01,1.000000000000000048e-04,4.061537592426953580e+01,1.799999999999999933e-01
-1.050913719179586536e+00,7.925907810000000220e-01,1.183806585705891479e+00,1.000000000000000048e-04,4.494576005998869306e+01,2.899999999999999800e-01
1.174967896000000067e+00,-7.032179160000000540e-01,1.020564778971063902e+00,1.000000000000000048e-04,4.421028328437081711e+01,1.799999999999999933e-01
2.063754460999999818e+00,1.158898511999999936e+00,4.928634882462776812e-01,1.000000000000000048e-04,4.217920188463187259e+01,1.799999999999999933e-01
1.355273345999999934e+00,1.034050206000000083e+00,1.056079159195790762e-01,1.000000000000000048e-04,3.846361269410834183e+01,1.700000000000000122e-01
1.878516419999999965e+00,-5.891517790000000421e-01,4.403340940233235745e-01,1.000000000000000048e-04,4.197768031236321207e+01,1.799999999999999933e-01
3.042909537999999969e+00,4.914006550000000195e-01,2.761125583516439441e-01,1.000000000000000048e-04,4.080326773522818939e+01,1.700000000000000122e-01
-2.192876876179585821e+00,7.571444160000000423e-01,1.466661532542004043e-01,1.000000000000000048e-04,3.879481099734456251e+01,2.099999999999999922e-01
-1.274335216179586006e+00,7.393028099999999769e-01,4.258217751154342867e-01,1.000000000000000048e-04,4.187271333405153229e+01,3.599999999999999867e-01
3.513372269999999742e-01,1.023017258000000096e+00,2.811191168415547725e-01,1.000000000000000048e-04,4.074918902764748196e+01,1.799999999999999933e-01
-2.045215730179585911e+00,1.346705497999999945e+00,1.136660788049422166e+00,1.000000000000000048e-04,4.435628367276507333e+01,1.799999999999999933e-01
2.622131355000000053e+00,-2.378520580000000051e-01,1.984400231844636320e-01,1.000000000000000048e-04,4.008498400915185300e+01,2.099999999999999922e-01
1.499565373000000035e+00,-5.833961840000000398e-01,1.295854912783057866e+00,1.000000000000000048e-04,4.507038264782967474e+01,1.199999999999999956e-01
9.453780529999999960e-01,-3.014802610000000271e-01,1.169381945340541851e-01,1.000000000000000048e-04,3.879753543364851254e+01,1.799999999999999933e-01
1.003030738000000088e+00,-6.679498139999999751e-01,1.062485150820311475e-01,1.000000000000000048e-04,3.853551051713834852e+01,1.799999999999999933e-01
-2.858957567179586157e+00,-2.878047879999999781e-01,9.266859971821261865e-02,1.000000000000000048e-04,3.841697991144995683e+01,1.300000000000000044e-01
-2.653655062179586022e+00,5.464710109999999510e-01,8.750949503419058750e-01,1.000000000000000048e-04,4.379089445223042532e+01,1.300000000000000044e-01
-1.077960778179586576e+00,1.305029642999999906e+00,3.194029896226195930e-01,1.000000000000000048e-04,4.107658071193904448e+01,1.100000000000000006e-01
2.996279555000000094e+00,-9.792432829999999644e-01,5.513478233486857061e-01,1.000000000000000048e-04,4.269411565881674164e+01,1.600000000000000033e-01
1.369802210000000131e-01,9.686457469999999459e-01,4.016224863590149852e-01,1.000000000000000048e-04,4.185100022200758474e+01,1.000000000000000056e-01
-7.405109531795863731e-01,5.344760480000000369e-01,9.320392141420108523e-02,1.000000000000000048e-04,3.785460116411208276e+01,1.900000000000000022e-01
-1.986221938179586033e+00,3.858849830000000147e-01,6.277383727480625453e-01,1.000000000000000048e-04,4.297221479559283353e+01,2.600000000000000089e-01
-1.660796187179585992e+00,1.337702168000000080e+00,6.023445230157200569e-01,1.000000000000000048e-04,4.258946024885892001e+01,1.300000000000000044e-01
-1.008319883179586540e+00,9.035811799999999838e-01,7.180732095622273103e-01,1.000000000000000048e-04,4.324165864225470557e+01,1.799999999999999933e-01
-2.859227719179586291e+00,-3.383984709999999785e-01,2.471857998408242274e-01,1.000000000000000048e-04,4.031246599199660352e+01,1.799999999999999933e-01
-3.008470453179586279e+00,-9.028608339999999455e-01,1.021465872838347444e-01,1.000000000000000048e-04,3.818998208194215493e+01,1.300000000000000044e-01
2.720373041999999852e+00,-1.026937239000000002e+00,1.283287840397462354e-01,1.000000000000000048e-04,3.877695823165065292e+01,1.100000000000000006e-01
1.131806215999999976e+00,-1.312634394000000038e+00,5.967615967271513444e-01,1.000000000000000048e-04,4.284926945596868819e+01,1.199999999999999956e-01
2.377785852000000144e+00,-1.071983155000000076e+00,1.400719971179997803e-01,1.000000000000000048e-04,3.927573392468318048e+01,1.000000000000000056e-01
1.262497049000000038e+00,-7.576738640000000302e-01,8.732392361856657903e-01,1.000000000000000048e-04,4.378093385558601369e+01,1.900000000000000022e-01
-2.150308364179585929e+00,9.473204419999999848e-01,2.887035363892629380e-01,1.000000000000000048e-04,4.065834075747631715e+01,1.499999999999999944e-01
-2.672281993179586035e+00,8.065802300000000091e-01,7.255128671179180699e-01,1.000000000000000048e-04,4.322242060908319417e+01,1.400000000000000133e-01
-2.768228307179586345e+00,1.501965110000000048e-01,1.211813279374818197e-01,1.000000000000000048e-04,3.855017032891285567e+01,1.300000000000000044e-01
2.456608391000000058e+00,-6.815239560000000418e-01,2.366996115227653075e-01,1.000000000000000048e-04,4.040100221288297888e+01,2.899999999999999800e-01
-1.538735822179586599e+00,7.895792169999999999e-01,3.739356201523389434e-01,1.000000000000000048e-04,4.142788295935738319e+01,1.600000000000000033e-01
-6.811844061795859773e-01,-7.989239399999999991e-01,5.342736604771580744e-01,1.000000000000000048e-04,4.270117753424874962e+01,2.300000000000000100e-01
-9.881069141795864041e-01,9.266642769999999807e-01,2.999002312242220469e-01,1.000000000000000048e-04,4.107121690012374415e+01,2.500000000000000000e-01
9.533575850000000074e-01,-5.868324440000000086e-01,1.563058621722048791e-01,1.000000000000000048e-04,3.943724217002291965e+01,1.199999999999999956e-01
1.194530383000000029e+00,-8.514353350000000153e-01,3.824637252121536601e-01,1.000000000000000048e-04,4.145150938359393678e+01,1.100000000000000006e-01
-1.550854682179585886e+00,1.341867675000000037e+00,2.876425681247805066e-01,1.000000000000000048e-04,4.075658807624358815e+01,3.599999999999999867e-01
2.328991532999999947e+00,-1.085498080000000032e+00,5.531968695606999109e-01,1.000000000000000048e-04,4.254660898097781541e+01,1.199999999999999956e-01
3.099662444999999877e+00,-8.173274409999999879e-01,4.940371816830948504e-01,1.000000000000000048e-04,4.217745322384974571e+01,1.300000000000000044e-01
1.008677688999999988e+00,-7.224949280000000362e-01,2.230690630018974385e-01,1.000000000000000048e-04,4.047054783964778579e+01,1.199999999999999956e-01
1.116317643999999998e+00,-8.188746820000000204e-01,1.945733874240671568e-01,1.000000000000000048e-04,3.998463800482541330e+01,1.499999999999999944e-01
1.368634144999999913e+00,-9.746537960000000167e-01,4.071498159825848173e-01,1.000000000000000048e-04,4.219898517255165871e+01,2.200000000000000011e-01
1.284766933000000000e+00,-9.049604909999999780e-01,6.865509133189156010e-01,1.000000000000000048e-04,4.315092170121583592e+01,1.300000000000000044e-01
2.840707745000000006e+00,-9.874777999999999611e-01,8.479424309388303715e-01,1.000000000000000048e-04,4.361422606289830384e+01,1.199999999999999956e-01
1.164831654000000105e+00,-8.361433499999999519e-01,9.497390652657711207e-02,1.000000000000000048e-04,3.827919091894059278e+01,1.600000000000000033e-01
9.274529849999999520e-01,-5.648102149999999488e-01,3.053853050529287128e-01,1.000000000000000048e-04,4.089296621161235379e+01,2.200000000000000011e-01
1.803806121999999901e+00,-1.051757271000000049e+00,1.679916815345157133e-01,1.000000000000000048e-04,3.955880518392684309e+01,2.200000000000000011e-01
1.910407339000000038e+00,-1.096340147000000043e+00,2.967229788003316049e-01,1.000000000000000048e-04,4.110151901588733381e+01,1.300000000000000044e-01
-2.994395329179586174e+00,-6.874333790000000111e-01,5.439576640935459562e-01,1.000000000000000048e-04,4.240604310235410424e+01,1.600000000000000033e-01
2.004169926999999962e+00,-1.114377941999999955e+00,7.090256421480201077e-02,1.000000000000000048e-04,3.761039023332282483e+01,2.099999999999999922e-01
2.993884073999999895e+00,-9.067153500000000310e-01,3.489382749495744118e-01,1.000000000000000048e-04,4.118808150537386581e+01,2.000000000000000111e-01
2.896584697999999847e+00,-6.981149509999999836e-01,7.361285807672923731e-01,1.000000000000000048e-04,4.337327037227979787e+01,2.000000000000000111e-01
2.644964143999999795e+00,-1.038456438999999953e+00,2.609608485882750628e-01,1.000000000000000048e-04,4.043450550476219263e+01,2.500000000000000000e-01
1.395029569000000080e+00,-9.673563530000000021e-01,7.429555287138744912e-01,1.000000000000000048e-04,4.304426245873955992e+01,2.200000000000000011e-01
1.133893306999999906e+00,-8.234022290000000410e-01,1.299663854979729916e+00,1.000000000000000048e-04,4.503338903910044166e+01,1.199999999999999956e-01
9.542908199999999841e-01,-6.210129070000000029e-01,3.982670966999941609e-01,1.000000000000000048e-04,4.188741148653067370e+01,1.400000000000000133e-01
1.112357503999999997e+00,-7.717409769999999947e-01,7.200129293661328145e-01,1.000000000000000048e-04,4.316769723502261513e+01,1.400000000000000133e-01
1.392129267000000059e+00,-9.489503049999999940e-01,5.905517158085020757e-01,1.000000000000000048e-04,4.259262215105108140e+01,1.100000000000000006e-01
3.104633763999999907e+00,-8.563587980000000321e-01,4.959283151407185564e-01,1.000000000000000048e-04,4.247339928046919511e+01,1.199999999999999956e-01
-1.581672989179586430e+00,-6.726275419999999672e-01,8.211915658993125255e-01,1.000000000000000048e-04,4.364798508961404622e+01,2.000000000000000111e-01
8.758714749999999549e-01,-5.394949780000000139e-01,2.478318247352295778e-01,1.000000000000000048e-04,4.038575276794652780e+01,1.199999999999999956e-01
1.027821937999999991e+00,-6.897361509999999640e-01,2.340965739232696574e-01,1.000000000000000048e-04,4.059679700139437131e+01,1.499999999999999944e-01
8.011105990000000343e-01,-4.568120419999999737e-01,8.113542433081182281e-01,1.000000000000000048e-04,4.355640109792950909e+01,1.499999999999999944e-01
8.044453879999999835e-01,-4.591503659999999765e-01,3.308639490012046380e-01,1.000000000000000048e-04,4.117091982727065158e+01,1.100000000000000006e-01
8.290542589999999601e-01,-4.498624509999999965e-01,4.244143431967388747e-01,1.000000000000000048e-04,4.201800866160855463e+01,1.199999999999999956e-01
2.306908324000000121e+00,-1.093655438999999951e+00,9.433848280535639397e-02,1.000000000000000048e-04,3.820084644568424181e+01,1.300000000000000044e-01
-3.090495873179586184e+00,-7.974218849999999970e-01,7.306498601946684879e-01,1.000000000000000048e-04,4.329023420977115677e+01,1.300000000000000044e-01
2.850739061000000074e+00,-9.724982730000000242e-01,4.600211521225456845e-01,1.000000000000000048e-04,4.199080264393128203e+01,1.100000000000000006e-01
1.925211972000000049e+00,-1.067349442999999898e+00,1.659367410714700508e-01,1.000000000000000048e-04,3.957630417036052251e+01,1.600000000000000033e-01
3.010706126000000094e+00,-9.149326070000000088e-01,9.280964431062543873e-02,1.000000000000000048e-04,3.817547539232080567e+01,1.199999999999999956e-01
1.754869720000000077e+00,-1.052947148999999971e+00,2.537811166054271261e-01,1.000000000000000048e-04,4.064550694483446591e+01,1.300000000000000044e-01
3.028086770999999899e+00,-8.725603690000000023e-01,2.932384210815230929e-01,1.000000000000000048e-04,4.088952008271328253e+01,1.199999999999999956e-01
2.780301081000000174e+00,-1.010780400000000023e+00,7.646569016923838724e-01,1.000000000000000048e-04,4.336944682907612503e+01,1.700000000000000122e-01
3.096540631999999960e+00,-8.261897350000000362e-01,4.955999342030130705e-01,1.000000000000000048e-04,4.214514578550288348e+01,1.100000000000000006e-01
-3.043596368179586342e+00,-7.656326449999999451e-01,2.793451775938948778e-01,1.000000000000000048e-04,4.064920620518267924e+01,1.100000000000000006e-01
2.593403560000000052e+00,-1.068240442000000012e+00,4.794929091588482351e-01,1.000000000000000048e-04,4.188527603949150802e+01,1.199999999999999956e-01
1.277663320999999907e+00,-8.910532270000000032e-01,2.248944205753535819e-01,1.000000000000000048e-04,4.031651086917099747e+01,1.499999999999999944e-01
8.729576639999999665e-01,-5.017517409999999733e-01,5.962435311732092735e-01,1.000000000000000048e-04,4.279284847099371092e+01,1.199999999999999956e-01
2.323316692000000128e+00,-1.072994334000000105e+00,8.769282806799398866e-01,1.000000000000000048e-04,4.379893555330207988e+01,1.400000000000000133e-01
-3.012222731179586166e+00,-7.219820959999999621e-01,3.249206697762720975e-01,1.000000000000000048e-04,4.143097150895565051e+01,1.199999999999999956e-01
2.306010604999999991e+00,-1.110345181000000014e+00,7.983018957026000173e-02,1.000000000000000048e-04,3.804214848679795580e+01,1.100000000000000006e-01
2.437557496999999795e+00,-1.097151527000000071e+00,2.179615586438283792e-01,1.000000000000000048e-04,4.012541504639391832e+01,1.100000000000000006e-01
1.098420291999999909e+00,-7.444727049999999569e-01,2.095880915642522879e-01,1.000000000000000048e-04,4.013355765470104330e+01,1.300000000000000044e-01
8.241628739999999897e-01,-4.611620249999999754e-01,3.608061887853728500e-01,1.000000000000000048e-04,4.146027200419933934e+01,1.400000000000000133e-01
1.017317494999999905e+00,-7.027905669999999771e-01,5.043819395689190799e-01,1.000000000000000048e-04,4.245296406799491962e+01,1.199999999999999956e-01
2.728679550999999925e+00,-1.007430967999999982e+00,4.684406255825306342e-01,1.000000000000000048e-04,4.201145176645626123e+01,1.100000000000000006e-01
2.848837458999999850e+00,-9.622339979999999793e-01,4.952642440938910262e-01,1.000000000000000048e-04,4.235256816420325521e+01,1.199999999999999956e-01
-3.065525731179586266e+00,-7.207210450000000046e-01,4.894685259220612483e-01,1.000000000000000048e-04,4.219071802534541860e+01,1.199999999999999956e-01
1.103969978000000074e+00,-7.587182380000000448e-01,5.920150548780831468e-01,1.000000000000000048e-04,4.273516360146159343e+01,1.300000000000000044e-01
1.112034854000000017e+00,-7.675460100000000008e-01,2.569966132932948177e-01,1.000000000000000048e-04,4.075290056993325294e+01,1.199999999999999956e-01
2.373162053000000160e+00,-1.072487750000000073e+00,4.274159648299380443e-01,1.000000000000000048e-04,4.187611139269984051e+01,1.100000000000000006e-01
2.221583438000000132e+00,-1.096064289000000080e+00,8.059478474352308464e-01,1.000000000000000048e-04,4.353220486559088442e+01,1.199999999999999956e-01
2.775251189000000007e+00,-1.013244017000000108e+00,6.126610789901032472e-01,1.000000000000000048e-04,4.274633095724333032e+01,1.700000000000000122e-01
1.527128894000000070e+00,-9.963611940000000056e-01,9.949417470098798066e-01,1.000000000000000048e-04,4.429341078847207314e+01,1.400000000000000133e-01
-1.936135624179586401e+00,1.327891944000000102e+00,4.661189748465006666e-01,1.000000000000000048e-04,4.230156345255432626e+01,1.199999999999999956e-01
2.120951332999999828e+00,-1.112975437000000012e+00,5.283291138991292879e-01,1.000000000000000048e-04,4.231223217465680619e+01,1.600000000000000033e-01
2.950704906999999988e+00,-9.277153000000000205e-01,2.296855381131317486e-01,1.000000000000000048e-04,4.040291725189470640e+01,1.700000000000000122e-01
2.461302839000000020e+00,-1.064109841000000056e+00,3.860122812368946832e-01,1.000000000000000048e-04,4.160449941068653601e+01,1.499999999999999944e-01
1.687800213000000049e+00,-1.037844004000000098e+00,2.731509091477539730e-01,1.000000000000000048e-04,4.046249260699287476e+01,1.100000000000000006e-01
-3.069023128179586113e+00,-7.343218900000000327e-01,4.923412527539654526e-01,1.000000000000000048e-04,4.248776038419578072e+01,2.000000000000000111e-01
7.655655390000000171e-01,-3.825025819999999799e-01,3.453840680911237637e-01,1.000000000000000048e-04,4.141082113143289689e+01,1.300000000000000044e-01
-3.051736326179586012e+00,-7.690870560000000467e-01,1.163506849246320751e-01,1.000000000000000048e-04,3.891369026190665181e+01,1.499999999999999944e-01
-3.116938176179586240e+00,-7.920766919999999711e-01,3.021168076805524905e-01,1.000000000000000048e-04,4.101839121286193546e+01,1.100000000000000006e-01
1.020863690000000101e+00,-6.877910739999999468e-01,7.811369014518838583e-01,1.000000000000000048e-04,4.333754609113606904e+01,1.199999999999999956e-01
1.792785233999999894e+00,-1.066474936999999956e+00,5.069683147144885549e-01,1.000000000000000048e-04,4.228860220746413745e+01,1.100000000000000006e-01
1.805689748000000039e+00,-1.066896787999999985e+00,2.391788388093691875e-01,1.000000000000000048e-04,4.039498387595658357e+01,1.100000000000000006e-01
1.773248071000000037e+00,-1.046601056999999946e+00,4.077042109210848864e-01,1.000000000000000048e-04,4.178610402234335197e+01,2.099999999999999922e-01
1.076689889999999927e+00,-7.549444410000000216e-01,2.717456966054709877e-01,1.000000000000000048e-04,4.076698623656179166e+01,1.199999999999999956e-01
2.336456505000000128e+00,-1.089906792000000069e+00,1.012876944402090196e+00,1.000000000000000048e-04,4.413245179491704562e+01,1.199999999999999956e-01
2.522083900000000156e+00,-1.078852812999999911e+00,6.281094798079231989e-01,1.000000000000000048e-04,4.304380962234312591e+01,1.199999999999999956e-01
3.676074389999999803e-01,1.100614297999999991e+00,3.383824015379364170e-01,1.000000000000000048e-04,4.150402498267962415e+01,1.700000000000000122e-01
2.099931574000000190e+00,-1.082223048999999993e+00,4.198738346852488590e-01,1.000000000000000048e-04,4.169961329651759030e+01,1.100000000000000006e-01
8.155488279999999479e-01,-4.642700679999999802e-01,1.704599361533742918e-01,1.000000000000000048e-04,3.974041175817497162e+01,2.099999999999999922e-01
9.861636230000000447e-01,-6.881834650000000497e-01,3.972202977097809562e-01,1.000000000000000048e-04,4.164888788257827201e+01,1.300000000000000044e-01
1.864254864999999928e+00,-1.086684659999999969e+00,6.271452293196444483e-01,1.000000000000000048e-04,4.286339106343179139e+01,1.199999999999999956e-01
2.873066016000000111e+00,-9.753574739999999466e-01,5.020695171587836736e-01,1.000000000000000048e-04,4.218094049702422410e+01,1.300000000000000044e-01
2.270287562000000037e+00,-1.085086717999999895e+00,2.608050004499995467e-01,1.000000000000000048e-04,4.065702531349921856e+01,1.799999999999999933e-01
8.268071609999999572e-01,-4.587794940000000099e-01,1.306208702419362488e+00,1.000000000000000048e-04,4.481684997309992724e+01,1.199999999999999956e-01
-3.050869045179586347e+00,-7.648855789999999821e-01,7.423630499328262022e-01,1.000000000000000048e-04,4.352489751925060801e+01,1.199999999999999956e-01
1.101963728999999947e+00,-7.466317359999999903e-01,4.095582514783235872e-01,1.000000000000000048e-04,4.204395914052932426e+01,1.900000000000000022e-01
1.745116724000000064e+00,-1.056563783000000090e+00,6.133650742775194065e-01,1.000000000000000048e-04,4.286897727400391744e+01,1.300000000000000044e-01
7.889769570000000343e-01,-3.846565690000000037e-01,2.227985078569625355e-01,1.000000000000000048e-04,4.031592931299313420e+01,1.499999999999999944e-01
1.385818830999999918e+00,-9.278259679999999454e-01,2.744760417319931367e-01,1.000000000000000048e-04,4.050536557146523364e+01,1.499999999999999944e-01
1.138484923000000038e+00,-8.197145099999999518e-01,9.594226272403429956e-01,1.000000000000000048e-04,4.380145942934370140e+01,1.400000000000000133e-01
1.783410439000000069e+00,-1.080958507999999929e+00,3.407842247050429929e-01,1.000000000000000048e-04,4.151862563780298387e+01,1.400000000000000133e-01
2.617653461000000181e+00,-1.025884226000000066e+00,1.371457925059529348e-01,1.000000000000000048e-04,3.931098847964400278e+01,1.199999999999999956e-01
8.270197009999999960e-01,-4.157453939999999903e-01,2.110755688229808413e-01,1.000000000000000048e-04,4.012166709413470045e+01,1.199999999999999956e-01
3.128792493000000174e+00,-8.522697870000000009e-01,5.290379388351234002e-01,1.000000000000000048e-04,4.244697104693192813e+01,1.100000000000000006e-01
1.366158207000000013e+00,-9.614226009999999878e-01,1.705474355887763860e-01,1.000000000000000048e-04,3.976019480790979088e+01,1.100000000000000006e-01
2.846286316000000038e+00,-9.688357899999999745e-01,2.741847629696869681e-01,1.000000000000000048e-04,4.102481184745291642e+01,1.400000000000000133e-01
9.208216280000000031e-01,-6.185352929999999860e-01,7.027407596496553221e-01,1.000000000000000048e-04,4.316952915536898416e+01,1.499999999999999944e-01
7.622987450000000553e-01,-3.411912120000000215e-01,1.280056134324263351e+00,1.000000000000000048e-04,4.497136164671887570e+01,1.199999999999999956e-01
9.277931750000000255e-01,-5.813990460000000304e-01,1.027844830016184652e-01,1.000000000000000048e-04,3.847436538038613918e+01,2.099999999999999922e-01
1.010173165000000095e+00,-6.808591280000000356e-01,1.167130950478505458e-01,1.000000000000000048e-04,3.871894476633394078e+01,1.300000000000000044e-01
1.661181446000000062e+00,-1.029160687999999935e+00,1.858169875414905636e-01,1.000000000000000048e-04,4.001275759528105880e+01,1.400000000000000133e-01
2.089878704000000198e+00,-1.077863170999999953e+00,5.911480234860628791e-01,1.000000000000000048e-04,4.262403390234165812e+01,1.199999999999999956e-01
9.321550429999999610e-01,-6.212176799999999943e-01,7.494977112017511267e-01,1.000000000000000048e-04,4.339266414201988908e+01,1.199999999999999956e-01
2.944595597000000176e+00,-9.127602249999999806e-01,2.474523425082382211e-01,1.000000000000000048e-04,4.050792842014443096e+01,1.100000000000000006e-01
1.288081913999999939e+00,-9.113959929999999598e-01,1.717641644779277499e-01,1.000000000000000048e-04,3.956577528752522710e+01,1.300000000000000044e-01
1.398731861999999992e+00,-9.625033109999999725e-01,7.364389625010314688e-02,1.000000000000000048e-04,3.786963752518109061e+01,1.199999999999999956e-01
1.714165549000000066e+00,-1.043104095999999981e+00,8.637407572175082038e-02,1.000000000000000048e-04,3.793236156261632175e+01,1.199999999999999956e-01
1.014018395999999989e+00,-6.788913789999999615e-01,5.865873253204514359e-01,1.000000000000000048e-04,4.282734615901254926e+01,1.300000000000000044e-01
8.887761809999999985e-01,-5.541821719999999729e-01,3.859313598009703750e-01,1.000000000000000048e-04,4.133676639296361088e+01,1.300000000000000044e-01
1.026278256999999972e+00,-6.961882160000000264e-01,7.046090546230294738e-01,1.000000000000000048e-04,4.303900469656630889e+01,1.199999999999999956e-01
1.824970581999999952e+00,-1.080428363000000003e+00,2.120042675019477851e-01,1.000000000000000048e-04,4.033055498286480400e+01,1.199999999999999956e-01
1.839979185000000017e+00,-1.082878103999999952e+00,8.431697351511888705e-01,1.000000000000000048e-04,4.385126866879218710e+01,1.300000000000000044e-01
-3.070118813179586237e+00,-7.641942569999999879e-01,1.509908979979881494e-01,1.000000000000000048e-04,3.939706105905932532e+01,1.199999999999999956e-01
2.250776613000000204e+00,-1.110438553999999911e+00,6.986241179092957942e-01,1.000000000000000048e-04,4.301932942554309847e+01,1.199999999999999956e-01
2.613802471000000072e+00,-1.066258922999999914e+00,1.708835126247529868e-01,1.000000000000000048e-04,3.958415689250698932e+01,1.199999999999999956e-01
8.050150120000000298e-01,-4.193234060000000096e-01,8.870740908090501975e-02,1.000000000000000048e-04,3.808227046417728445e+01,1.499999999999999944e-01
2.809576177999999924e+00,-9.952447749999999704e-01,5.490444134613523541e-01,1.000000000000000048e-04,4.248964530605064738e+01,1.199999999999999956e-01
8.523447290000000232e-01,-4.773689010000000121e-01,2.313075827817485663e-01,1.000000000000000048e-04,4.054350004803761465e+01,2.000000000000000111e-01
2.975142320999999868e+00,-8.986192680000000266e-01,5.717282316365908112e-01,1.000000000000000048e-04,4.238335697706087757e+01,2.000000000000000111e-01
2.960578484000000010e+00,-9.174235720000000205e-01,1.212739441181225342e-01,1.000000000000000048e-04,3.903871338642097299e+01,1.400000000000000133e-01
1.589239559999999996e+00,-1.046132274999999945e+00,4.316321204463486882e-01,1.000000000000000048e-04,4.173609798830872109e+01,1.199999999999999956e-01
1.095136271999999966e+00,-7.909478989999999543e-01,3.230004240054611397e-01,1.000000000000000048e-04,4.112278129127348336e+01,1.300000000000000044e-01
3.045277111999999953e+00,-8.831592660000000539e-01,5.304040023143978821e-01,1.000000000000000048e-04,4.237201332190589653e+01,1.799999999999999933e-01
3.011317304999999944e+00,-8.969173430000000335e-01,1.851874773326480650e-01,1.000000000000000048e-04,3.983646965055154254e+01,1.499999999999999944e-01
1.946036051000000100e+00,-1.101857058000000000e+00,3.976085019923676356e-01,1.000000000000000048e-04,4.161724160392886063e+01,1.100000000000000006e-01
9.659444579999999503e-01,-6.400164339999999674e-01,2.006458826957466801e-01,1.000000000000000048e-04,3.993947933306338172e+01,1.199999999999999956e-01
1.142944595999999979e+00,-8.229314749999999679e-01,1.694859778692050511e-01,1.000000000000000048e-04,3.971484068727031058e+01,1.499999999999999944e-01
1.336859599999999926e+00,-9.462661719999999610e-01,2.963697209879911920e-01,1.000000000000000048e-04,4.080854909270876618e+01,1.900000000000000022e-01
2.386695267999999981e+00,-1.099692616000000012e+00,2.913852535700087731e-01,1.000000000000000048e-04,4.111839863337019807e+01,1.799999999999999933e-01
1.122946417999999946e+00,-7.871106610000000448e-01,2.323789311397512769e-01,1.000000000000000048e-04,4.023069267700694240e+01,1.499999999999999944e-01
1.038511049000000019e+00,-6.836743480000000428e-01,2.393056331278484716e-01,1.000000000000000048e-04,4.065138732536780708e+01,1.499999999999999944e-01
-1.865548755179585960e+00,5.988235499999999822e-01,3.500268587681827359e-01,1.000000000000000048e-04,4.154671334923143888e+01,3.599999999999999867e-01
-1.208774007179585830e+00,1.086301519000000049e+00,3.036458407267428328e-01,1.000000000000000048e-04,4.093131300869627864e+01,3.900000000000000133e-01
-1.451351928179586359e+00,1.047303024999999943e+00,7.777085805716728029e-01,1.000000000000000048e-04,4.363713553478438456e+01,3.900000000000000133e-01
-1.863787002179586594e+00,5.986409590000000280e-01,1.288540411744794056e-01,1.000000000000000048e-04,3.882961157798064988e+01,3.099999999999999978e-01
-2.367107747179586053e+00,3.570653329999999848e-01,1.092639286161324996e+00,1.000000000000000048e-04,4.417290343993169444e+01,3.300000000000000155e-01
3.110012692999999828e+00,-8.816387980000000013e-01,7.805529839750002807e-02,1.000000000000000048e-04,3.815865361125883481e+01,4.000000000000000222e-01
1.208427087000000011e+00,6.391205479999999550e-01,3.359046655811184223e-01,1.000000000000000048e-04,4.067574059571266076e+01,3.200000000000000067e-01
2.195568135999999893e+00,9.530612539999999688e-01,4.789453263560552454e-01,1.000000000000000048e-04,4.234878926737811611e+01,3.200000000000000067e-01
-1.746303855179585973e+00,7.561700099999999480e-01,1.285510854629490218e-01,1.000000000000000048e-04,3.890712822188793751e+01,3.599999999999999867e-01
-2.613733020179586308e+00,3.020363409999999860e-01,2.233250238093833495e-01,1.000000000000000048e-04,4.023065070668641141e+01,2.399999999999999911e-01
3.080075141000000016e+00,6.813462000000000129e-01,1.726525748614797795e-01,1.000000000000000048e-04,3.988879830160207973e+01,2.999999999999999889e-01
3.084152930000000126e+00,6.750201959999999612e-01,2.621788440965500122e-01,1.000000000000000048e-04,4.058367810311941071e+01,2.399999999999999911e-01
-2.831540824179586302e+00,-5.193198470000000011e-01,3.435981069651279363e-01,1.000000000000000048e-04,4.072226341647726144e+01,2.899999999999999800e-01
2.921667255000000019e+00,-9.403574120000000036e-01,1.041601093221116159e-01,1.000000000000000048e-04,3.831979670140761840e+01,2.899999999999999800e-01
2.610543199999999953e+00,9.294079060000000059e-01,3.483184190503718636e-01,1.000000000000000048e-04,4.146659116308640591e+01,2.899999999999999800e-01
2.614058957000000127e+00,9.310355519999999885e-01,8.168446206706072577e-01,1.000000000000000048e-04,4.428024264739714511e+01,3.699999999999999956e-01
-2.614313936179586406e+00,3.105085300000000048e-01,1.441379021531783433e-01,1.000000000000000048e-04,3.888072823482029605e+01,2.300000000000000100e-01
-2.614275993179586255e+00,3.084493819999999942e-01,1.060232204442443926e+00,1.000000000000000048e-04,4.446948479488847994e+01,2.000000000000000111e-01
3.080236718000000096e+00,6.852664600000000217e-01,4.343782556298647624e-01,1.000000000000000048e-04,4.140621463150163351e+01,3.800000000000000044e-01
3.085135451000000195e+00,6.840520260000000352e-01,4.942016485531632863e-01,1.000000000000000048e-04,4.236895370757059709e+01,2.300000000000000100e-01
-2.829361723179586452e+00,-5.190188390000000096e-01,2.605740477001279309e-01,1.000000000000000048e-04,4.045255976936414299e+01,3.900000000000000133e-01
-2.833706243179586082e+00,-5.260186759999999628e-01,6.149797958013887289e-01,1.000000000000000048e-04,4.250178097283939138e+01,2.200000000000000011e-01
1.286414458000000094e+00,-9.076167339999999806e-01,2.160050715814427758e-01,1.000000000000000048e-04,4.044555936767070392e+01,2.399999999999999911e-01
2.295144749999999956e+00,-1.095028292000000070e+00,9.896248961098759178e-01,1.000000000000000048e-04,4.391940919275820221e+01,2.000000000000000111e-01
2.312115046000000174e+00,-1.091482969000000081e+00,6.087998840209989382e-01,1.000000000000000048e-04,4.306184196618279003e+01,1.900000000000000022e-01
2.535381049000000164e+00,-1.063602453999999975e+00,4.053306193229286869e-01,1.000000000000000048e-04,4.195135590175822671e+01,2.600000000000000089e-01
2.549902755000000187e+00,-1.059649137999999935e+00,2.143113316498601595e-01,1.000000000000000048e-04,4.002630452416964602e+01,1.900000000000000022e-01
-2.980466121795863899e-01,1.081935794000000062e+00,1.296428416777855031e-01,1.000000000000000048e-04,3.891514566029305655e+01,1.000000000000000056e-01
-4.562223411795862660e-01,1.078420874000000085e+00,4.900877680631732236e-01,1.000000000000000048e-04,4.221302511824332981e+01,1.400000000000000133e-01
-4.727696341795866175e-01,1.076427226000000070e+00,7.094979112949961753e-01,1.000000000000000048e-04,4.330859297380783346e+01,1.900000000000000022e-01
-4.909850281795860028e-01,1.086050390999999893e+00,1.587016267302481243e-01,1.000000000000000048e-04,3.930600812356941987e+01,1.499999999999999944e-01
-1.809890014179586615e+00,8.554848849999999727e-01,3.268834989662887658e-01,1.000000000000000048e-04,4.121188395232921664e+01,1.900000000000000022e-01
-1.804843805179586091e+00,8.509932909999999850e-01,2.569278108646253500e-01,1.000000000000000048e-04,4.045429165247125525e+01,1.700000000000000122e-01
-1.798315402179586187e+00,8.389159160000000393e-01,1.370110068047694085e-01,1.000000000000000048e-04,3.881972604852214204e+01,1.100000000000000006e-01
-1.820018681179586650e+00,8.404092629999999620e-01,5.718393695507673069e-01,1.000000000000000048e-04,4.302013607846524934e+01,2.000000000000000111e-01
-2.435936564179586039e+00,3.767214549999999829e-01,1.119151788340104758e-01,1.000000000000000048e-04,3.830500157913061088e+01,1.700000000000000122e-01
-2.738532057179586143e+00,-4.670391260000000266e-01,1.039506069216253881e-01,1.000000000000000048e-04,3.821485962418866933e+01,1.100000000000000006e-01
-2.750126147179586145e+00,-4.750163370000000107e-01,4.845885257752948760e-01,1.000000000000000048e-04,4.221148130458696812e+01,1.700000000000000122e-01
6.777063359999999648e-01,-9.284162910000000046e-01,1.472429317890069367e-01,1.000000000000000048e-04,3.914334477777020282e+01,1.600000000000000033e-01
6.755664329999999662e-01,-9.242990760000000527e-01,1.731900472910739008e-01,1.000000000000000048e-04,3.956643328421765204e+01,2.200000000000000011e-01
1.666277256000000095e+00,1.035703752000000089e+00,2.332389064319979610e-01,1.000000000000000048e-04,4.037674294467981895e+01,2.800000000000000266e-01
1.679531192000000006e+00,1.034147155999999956e+00,4.001465656649842995e-01,1.000000000000000048e-04,4.177506129238367549e+01,2.099999999999999922e-01
1.669961188000000041e+00,1.045784459000000055e+00,1.488507256633664344e-01,1.000000000000000048e-04,3.906894394781453883e+01,2.899999999999999800e-01
1.666612017000000057e+00,1.035903760999999923e+00,4.226932498510445058e-01,1.000000000000000048e-04,4.189126501405988989e+01,1.400000000000000133e-01
1.676630470000000095e+00,1.049302589999999924e+00,1.482829983443503252e-01,1.000000000000000048e-04,3.920891386471852513e+01,1.600000000000000033e-01
1.678871634000000057e+00,1.037439988999999896e+00,5.309232633058618145e-01,1.000000000000000048e-04,4.238594247130575354e+01,2.099999999999999922e-01
-2.159653925179585876e+00,7.341517600000000421e-01,1.334165985317556480e+00,1.000000000000000048e-04,4.499594902964355470e+01,2.600000000000000089e-01
-2.155609593179586447e+00,7.327229189999999726e-01,5.616522142911257731e-01,1.000000000000000048e-04,4.279113927992343491e+01,1.400000000000000133e-01
2.989279821999999864e+00,-1.014333855000000062e+00,5.829947477313122128e-01,1.000000000000000048e-04,4.297335272962964581e+01,1.600000000000000033e-01
6.962963009999999509e-01,-9.242906640000000396e-01,1.922880045475270361e-01,1.000000000000000048e-04,3.978014265294856244e+01,2.000000000000000111e-01
6.831622830000000368e-01,-9.295060950000000322e-01,3.464757461879570677e-01,1.000000000000000048e-04,4.142549113896548363e+01,2.099999999999999922e-01
6.813526220000000189e-01,-9.196739680000000083e-01,1.261105975550371738e+00,1.000000000000000048e-04,4.513762895897665572e+01,1.700000000000000122e-01
1.667475545999999920e+00,1.039138789999999979e+00,8.672008580228436347e-01,1.000000000000000048e-04,4.366274475895792051e+01,1.499999999999999944e-01
1.669072946000000002e+00,1.039627206000000026e+00,3.935758635992387955e-01,1.000000000000000048e-04,4.151112675029995103e+01,1.700000000000000122e-01
2.992464221000000091e+00,-1.009427984000000000e+00,5.740901509933116209e-01,1.000000000000000048e-04,4.266922384525353351e+01,1.400000000000000133e-01
3.013377762000000182e+00,-1.015725085999999999e+00,7.375149166889656271e-01,1.000000000000000048e-04,4.349545696859222232e+01,1.499999999999999944e-01
6.857830799999999893e-01,-9.290922369999999875e-01,6.040952823770928681e-01,1.000000000000000048e-04,4.281206040099261401e+01,3.400000000000000244e-01
6.874880420000000214e-01,-9.251381180000000093e-01,1.284099163435619140e-01,1.000000000000000048e-04,3.878630542663670155e+01,1.700000000000000122e-01
1.659686511000000086e+00,1.040101345999999927e+00,6.632058552706445731e-01,1.000000000000000048e-04,4.326863753266493973e+01,1.400000000000000133e-01
1.692629780999999944e+00,1.043637506000000048e+00,3.295152485818040322e-01,1.000000000000000048e-04,4.126398300073830683e+01,1.799999999999999933e-01
1.682450028999999958e+00,1.049226146999999942e+00,9.897874176630905296e-02,1.000000000000000048e-04,3.818759934452464933e+01,1.900000000000000022e-01
1.675255906999999933e+00,1.048468626000000015e+00,2.244877765210155918e-01,1.000000000000000048e-04,3.994656654908170168e+01,1.499999999999999944e-01
1.692145135000000078e+00,1.039981480000000014e+00,8.040271260228859518e-01,1.000000000000000048e-04,4.326847890816365094e+01,1.700000000000000122e-01
-2.139768073179586061e+00,7.360294179999999908e-01,1.791785574344915144e-01,1.000000000000000048e-04,3.940830705696033931e+01,1.600000000000000033e-01
-2.138731675179585956e+00,7.369836659999999817e-01,2.712006730801541643e-01,1.000000000000000048e-04,4.065119548142936878e+01,1.499999999999999944e-01
6.888283630000000546e-01,-9.193630990000000169e-01,2.024188007194482886e-01,1.000000000000000048e-04,3.997720176667229453e+01,1.700000000000000122e-01
6.776433490000000059e-01,-9.225326109999999469e-01,7.200373585049679726e-01,1.000000000000000048e-04,4.346760012513841076e+01,1.600000000000000033e-01
6.820513620000000499e-01,-9.162569579999999547e-01,1.050225703810121480e-01,1.000000000000000048e-04,3.843548208060042271e+01,2.899999999999999800e-01
6.832637360000000104e-01,-9.208365670000000502e-01,5.833696982566367595e-01,1.000000000000000048e-04,4.271103029536122619e+01,1.400000000000000133e-01
1.683256381999999940e+00,1.050427892999999946e+00,7.137887618693077307e-01,1.000000000000000048e-04,4.317137035109558241e+01,1.499999999999999944e-01
2.987248335999999949e+00,-1.011507587000000097e+00,9.464387265004670091e-02,1.000000000000000048e-04,3.826932370802048666e+01,1.900000000000000022e-01
2.994879214000000012e+00,-1.020537374999999969e+00,1.730393020559906070e-01,1.000000000000000048e-04,3.949492172107962062e+01,2.500000000000000000e-01
2.997056848999999801e+00,-1.020797841000000039e+00,2.343502716094272298e-01,1.000000000000000048e-04,4.026918005586094296e+01,1.499999999999999944e-01
6.981827720000000070e-01,-9.201470600000000166e-01,1.072719320712155699e+00,1.000000000000000048e-04,4.440581301529989133e+01,2.099999999999999922e-01
1.675679171999999939e+00,1.042232051000000048e+00,1.981601704217872406e-01,1.000000000000000048e-04,3.997276421578310135e+01,1.900000000000000022e-01
1.682732345000000018e+00,1.051774148000000020e+00,5.797162804575226591e-01,1.000000000000000048e-04,4.294499704820285046e+01,2.099999999999999922e-01
1.655763980999999996e+00,1.041789395999999979e+00,5.207157534145077094e-01,1.000000000000000048e-04,4.217682065589615092e+01,2.099999999999999922e-01
1.658505131999999938e+00,1.042043577999999915e+00,1.243374299617739709e+00,1.000000000000000048e-04,4.485068628784007672e+01,1.499999999999999944e-01
1.679931540999999973e+00,1.044700675999999939e+00,3.348350178395449461e-01,1.000000000000000048e-04,4.125368833430760418e+01,1.400000000000000133e-01
1.681131209999999987e+00,1.046558263000000100e+00,3.442666891032060139e-01,1.000000000000000048e-04,4.202265473489275394e+01,3.800000000000000044e-01
-2.147380102179586636e+00,7.248191320000000326e-01,2.305528394704006168e-01,1.000000000000000048e-04,4.055234338901450286e+01,2.200000000000000011e-01
-2.137481690179586558e+00,7.386978770000000027e-01,5.959257674061533283e-01,1.000000000000000048e-04,4.254294468808239316e+01,1.499999999999999944e-01
3.007533192999999994e+00,-1.006434849999999992e+00,4.967168710940790266e-01,1.000000000000000048e-04,4.258689485158447496e+01,1.700000000000000122e-01
6.766177190000000063e-01,-9.309161569999999664e-01,1.169720576580604021e+00,1.000000000000000048e-04,4.435709840420516059e+01,1.700000000000000122e-01
6.879719020000000240e-01,-9.170357009999999809e-01,9.804462585955617815e-01,1.000000000000000048e-04,4.414532651116678608e+01,2.600000000000000089e-01
6.868192690000000100e-01,-9.190749710000000183e-01,6.127208016889555964e-01,1.000000000000000048e-04,4.299470754446725351e+01,2.800000000000000266e-01
1.680927606000000019e+00,1.043199457999999913e+00,5.372007031092278506e-01,1.000000000000000048e-04,4.287914737916122476e+01,1.799999999999999933e-01
1.680733408999999901e+00,1.046110547000000057e+00,1.341183267226468967e-01,1.000000000000000048e-04,3.899550124648354199e+01,1.499999999999999944e-01
3.003205794999999956e+00,-1.007960921000000010e+00,1.851190720092317221e-01,1.000000000000000048e-04,3.961031758367585809e+01,2.200000000000000011e-01
3.013387552999999830e+00,-1.018013843000000085e+00,2.078953279425101996e-01,1.000000000000000048e-04,4.030088058407987717e+01,2.000000000000000111e-01
2.991633154000000072e+00,-1.018575491000000000e+00,5.022778829089316055e-01,1.000000000000000048e-04,4.232168417624519208e+01,1.600000000000000033e-01
6.810583510000000063e-01,-9.216344210000000370e-01,4.356969631577056745e-01,1.000000000000000048e-04,4.186252943925664027e+01,1.600000000000000033e-01
1.670069762000000013e+00,1.048284639000000018e+00,1.229995189931256672e-01,1.000000000000000048e-04,3.887363406380998754e+01,2.099999999999999922e-01
1.699713636000000028e+00,1.040243690999999915e+00,8.511456144260338696e-01,1.000000000000000048e-04,4.387564936389807713e+01,2.899999999999999800e-01
1.686195045999999920e+00,1.048540513999999924e+00,8.384672029016249084e-02,1.000000000000000048e-04,3.787421711987262540e+01,1.400000000000000133e-01
1.667162669999999958e+00,1.044746053999999980e+00,2.216668064011408923e-01,1.000000000000000048e-04,4.038573324340351434e+01,2.700000000000000178e-01
1.689467040999999892e+00,1.036330184999999959e+00,1.561983928164059066e-01,1.000000000000000048e-04,3.942838488934375363e+01,1.300000000000000044e-01
1.683799076999999977e+00,1.043385784000000038e+00,2.274777718833089768e-01,1.000000000000000048e-04,4.037877770950598944e+01,1.700000000000000122e-01
-2.151455832179586025e+00,7.398983139999999459e-01,1.205668392484791962e+00,1.000000000000000048e-04,4.445722770212116615e+01,2.500000000000000000e-01
-2.141944958179585967e+00,7.302793560000000461e-01,1.423670798666665238e-01,1.000000000000000048e-04,3.915040735185504417e+01,1.400000000000000133e-01
3.012489310999999947e+00,-1.019874449000000016e+00,2.522233913282927453e-01,1.000000000000000048e-04,4.072854800183097979e+01,1.900000000000000022e-01
6.824463880000000149e-01,-9.193269539999999740e-01,1.694558984191614215e-01,1.000000000000000048e-04,3.990394902555307510e+01,1.600000000000000033e-01
6.933168330000000212e-01,-9.307474239999999899e-01,1.129994446044422229e-01,1.000000000000000048e-04,3.886305641548057110e+01,1.600000000000000033e-01
7.005346909999999871e-01,-9.247541049999999929e-01,4.363770115819018969e-01,1.000000000000000048e-04,4.203273673073476857e+01,2.700000000000000178e-01
1.674988617999999985e+00,1.042237757999999959e+00,1.187971251874565759e+00,1.000000000000000048e-04,4.459912351223838556e+01,1.499999999999999944e-01
1.672026148000000045e+00,1.039374368000000048e+00,4.296391354579038868e-01,1.000000000000000048e-04,4.193708837642935805e+01,1.600000000000000033e-01
2.993618983999999816e+00,-1.008517228000000099e+00,2.152540624149370529e-01,1.000000000000000048e-04,3.994969359311080837e+01,1.700000000000000122e-01
2.992837709999999873e+00,-1.014889098000000045e+00,3.260471624145537817e-01,1.000000000000000048e-04,4.104528007509414067e+01,2.800000000000000266e-01
2.980621672999999916e+00,-1.012535224000000067e+00,6.341153066320870391e-01,1.000000000000000048e-04,4.274121224841739064e+01,1.499999999999999944e-01
3.118379398000000080e+00,-1.044341935000000055e+00,2.931139765626151750e-01,1.000000000000000048e-04,4.085606343064423385e+01,3.099999999999999978e-01
3.132904315000000217e+00,-1.046896950999999909e+00,3.598196466282825856e-01,1.000000000000000048e-04,4.123984938145973445e+01,2.200000000000000011e-01
1.248659997999999938e+00,-1.117162079000000086e+00,6.950495668889349332e-01,1.000000000000000048e-04,4.292046763354762362e+01,2.700000000000000178e-01
2.302446713000000145e+00,-1.091359299000000060e+00,4.547751529008403626e-01,1.000000000000000048e-04,4.221782418503995160e+01,2.899999999999999800e-01
3.133486173000000097e+00,-1.061461677999999909e+00,1.307100563897498624e-01,1.000000000000000048e-04,3.953417362422813852e+01,3.099999999999999978e-01
1.251013366000000016e+00,-1.102704651999999896e+00,3.854313881383901741e-01,1.000000000000000048e-04,4.163436215480711411e+01,2.300000000000000100e-01
1.232341668999999973e+00,-1.105349812000000043e+00,8.653514047139956311e-01,1.000000000000000048e-04,4.402653825043642399e+01,2.200000000000000011e-01
2.330538756999999794e+00,-1.086213730999999960e+00,1.490227629609577331e-01,1.000000000000000048e-04,3.933496326687209432e+01,2.300000000000000100e-01
3.104372880000000112e+00,-1.050765708999999992e+00,7.443286281912122604e-01,1.000000000000000048e-04,4.343214324230630297e+01,2.200000000000000011e-01
3.122794933000000217e+00,-1.050942575000000101e+00,1.352456183433055070e-01,1.000000000000000048e-04,3.925993634006132282e+01,2.099999999999999922e-01
3.135928428000000157e+00,-1.044986675000000087e+00,5.267287495615173842e-01,1.000000000000000048e-04,4.255004054640927080e+01,2.300000000000000100e-01
3.135701593999999925e+00,-1.049448040999999998e+00,8.840752349625469186e-02,1.000000000000000048e-04,3.819440195020644069e+01,2.399999999999999911e-01
2.902190216000000156e+00,-1.054666754000000095e+00,6.235631155281877724e-01,1.000000000000000048e-04,4.273367053996332032e+01,2.099999999999999922e-01
1.219278212000000083e+00,-1.102494101000000004e+00,3.948679318650418768e-01,1.000000000000000048e-04,4.188062440336636882e+01,2.399999999999999911e-01
2.314258420999999899e+00,-1.073777474999999981e+00,5.636281192754439839e-01,1.000000000000000048e-04,4.269481113469323930e+01,2.399999999999999911e-01
3.138600745000000192e+00,-1.056209613999999908e+00,2.412323930170308106e-01,1.000000000000000048e-04,4.011033675309207780e+01,2.800000000000000266e-01
2.873014373000000177e+00,-1.047336534999999902e+00,2.116495602389494302e-01,1.000000000000000048e-04,4.013023374211365280e+01,2.000000000000000111e-01
2.890150627000000139e+00,-1.045368942999999939e+00,3.258889217968463647e-01,1.000000000000000048e-04,4.104811453460424531e+01,2.200000000000000011e-01
-3.136513490179586139e+00,-1.038988312000000080e+00,2.153780306231514174e-01,1.000000000000000048e-04,4.028958278917272651e+01,2.800000000000000266e-01
3.120369102000000172e+00,-1.042910143999999928e+00,8.390654733292990386e-02,1.000000000000000048e-04,3.814357219248677211e+01,2.399999999999999911e-01
3.132773262000000170e+00,-1.048570620000000009e+00,7.249272784479958709e-01,1.000000000000000048e-04,4.307252144072194255e+01,2.300000000000000100e-01
3.132934141999999866e+00,-1.046888051000000042e+00,5.980231159544475705e-01,1.000000000000000048e-04,4.293688167646335785e+01,2.200000000000000011e-01
3.134455274000000014e+00,-1.046257098000000108e+00,8.495337711837531725e-01,1.000000000000000048e-04,4.384469262564438452e+01,2.200000000000000011e-01
2.910504301000000016e+00,-1.063930792999999930e+00,3.106696809688378469e-01,1.000000000000000048e-04,4.145475694943493750e+01,2.399999999999999911e-01
2.301930878999999930e+00,-1.084305269999999988e+00,4.336133181849695095e-01,1.000000000000000048e-04,4.221450167569907563e+01,3.099999999999999978e-01
2.314913878000000036e+00,-1.104421796000000011e+00,3.973173380306467273e-01,1.000000000000000048e-04,4.149815318840702361e+01,2.600000000000000089e-01
1.232494258000000009e+00,-1.089556776000000005e+00,2.172829022267641630e-01,1.000000000000000048e-04,4.103921715833793371e+01,3.099999999999999978e-01
-3.138875270179586341e+00,-1.027091259999999950e+00,1.628254616941953170e-01,1.000000000000000048e-04,3.908663249604128964e+01,3.800000000000000044e-01
1.277748142000000087e+00,-1.105660628999999950e+00,2.550818946033746037e-01,1.000000000000000048e-04,4.056983560207372363e+01,2.500000000000000000e-01
2.339694710999999927e+00,-1.083680948999999893e+00,2.859087918357556823e-01,1.000000000000000048e-04,4.084997241179008398e+01,2.300000000000000100e-01
3.085408954000000037e+00,-1.045989441999999991e+00,1.682457654623561449e-01,1.000000000000000048e-04,3.939235311016926033e+01,2.800000000000000266e-01
3.122183823999999941e+00,-1.053540683000000033e+00,4.652128745463086634e-01,1.000000000000000048e-04,4.278442343026988937e+01,3.699999999999999956e-01
1.263417701000000060e+00,-1.099941301000000093e+00,1.581499652208591122e-01,1.000000000000000048e-04,3.928661152380994537e+01,2.200000000000000011e-01
1.238769020999999970e+00,-1.122513239999999968e+00,6.305851396205812698e-01,1.000000000000000048e-04,4.308133349676261759e+01,2.600000000000000089e-01
1.225778744000000087e+00,-1.107856694000000086e+00,9.129093424740222229e-01,1.000000000000000048e-04,4.354723236922703222e+01,2.500000000000000000e-01
2.356185176999999964e+00,-1.090954028000000076e+00,3.251355625696570328e-01,1.000000000000000048e-04,4.122062060532461203e+01,2.700000000000000178e-01
1.231078855000000027e+00,-1.109460918999999990e+00,1.040747861320641121e-01,1.000000000000000048e-04,3.853070221488386693e+01,2.300000000000000100e-01
2.350025410999999842e+00,-1.078254897999999962e+00,1.172013744833673154e-01,1.000000000000000048e-04,3.872275372475754551e+01,2.300000000000000100e-01
2.889344674999999807e+00,-1.054064458000000037e+00,4.744083524220414905e-01,1.000000000000000048e-04,4.175584139240452686e+01,3.200000000000000067e-01
1.260972444000000081e+00,-1.102168519999999985e+00,7.627066507401547568e-01,1.000000000000000048e-04,4.291247118625042134e+01,2.899999999999999800e-01
3.138597202000000141e+00,-1.049455424000000026e+00,6.873932632238473062e-01,1.000000000000000048e-04,4.340629493295548968e+01,2.600000000000000089e-01
1.280173519000000093e+00,-1.106045986000000036e+00,4.952236410301873448e-01,1.000000000000000048e-04,4.277901809270812095e+01,2.899999999999999800e-01
3.140421104000000074e+00,-1.048273016000000002e+00,2.608775630966468917e-01,1.000000000000000048e-04,4.044196147230469762e+01,2.700000000000000178e-01
2.887571490000000018e+00,-1.060290981000000077e+00,9.807556206592882297e-02,1.000000000000000048e-04,3.839521728035698089e+01,2.300000000000000100e-01
3.117377486000000086e+00,-1.048849812999999909e+00,3.149042073985037771e-01,1.000000000000000048e-04,4.113078495808952795e+01,2.800000000000000266e-01
3.139331405000000075e+00,-1.045946368000000071e+00,1.089698468721619129e+00,1.000000000000000048e-04,4.453049171396253314e+01,2.300000000000000100e-01
2.901812189000000153e+00,-1.070407117000000019e+00,1.299906126293051134e-01,1.000000000000000048e-04,3.908673957767696550e+01,2.200000000000000011e-01
2.874698792999999863e+00,-1.069280417999999955e+00,1.059229843968636509e-01,1.000000000000000048e-04,3.854600469508618232e+01,2.200000000000000011e-01
3.126790450000000110e+00,-1.053686536000000062e+00,2.678125635184565034e-01,1.000000000000000048e-04,4.070542869967523103e+01,2.099999999999999922e-01
1.253234667999999941e+00,-1.096167120000000050e+00,1.829934853726624677e-01,1.000000000000000048e-04,3.970064995148213427e+01,2.200000000000000011e-01
1.242189800000000011e+00,-1.095888138000000067e+00,4.598667858313627566e-01,1.000000000000000048e-04,4.202055877098991488e+01,2.899999999999999800e-01
2.358704259000000025e+00,-1.096119858000000002e+00,1.704052397388431395e-01,1.000000000000000048e-04,3.960984462152323715e+01,2.099999999999999922e-01
3.090657074000000115e+00,-1.046905049999999893e+00,3.011471142268551393e-01,1.000000000000000048e-04,4.050889543779891255e+01,2.300000000000000100e-01
2.350320292999999783e+00,-1.077642637000000070e+00,8.940748193974175084e-01,1.000000000000000048e-04,4.370016392968210539e+01,3.300000000000000155e-01
3.120911620999999858e+00,-1.047605429999999949e+00,1.511965824901129185e-01,1.000000000000000048e-04,3.932236395184502697e+01,2.899999999999999800e-01
2.310418793000000193e+00,-1.091478047999999923e+00,6.568057868709491487e-01,1.000000000000000048e-04,4.353512599889083390e+01,3.300000000000000155e-01
2.888242410000000149e+00,-1.055260810999999910e+00,5.643138382852508350e-01,1.000000000000000048e-04,4.266337906308111627e+01,2.999999999999999889e-01
2.313880778000000138e+00,-1.089056457000000089e+00,3.195218389599838726e-01,1.000000000000000048e-04,4.122495883530802274e+01,2.600000000000000089e-01
3.096505394999999883e+00,-1.050897790999999915e+00,2.277013361046678064e-01,1.000000000000000048e-04,4.058353748598632649e+01,3.300000000000000155e-01
1.264206060000000020e+00,-1.108314516000000083e+00,1.047620554964412865e+00,1.000000000000000048e-04,4.409066480583728520e+01,2.500000000000000000e-01
2.317080779999999951e+00,-1.080569537999999996e+00,1.137993686638270052e-01,1.000000000000000048e-04,3.885566176652762493e+01,2.399999999999999911e-01
2.308161032000000112e+00,-1.080284865999999955e+00,3.729578164325280110e-01,1.000000000000000048e-04,4.117714292212021121e+01,3.900000000000000133e-01
1.213089824000000094e+00,-1.095999417000000031e+00,3.731147650333526133e-01,1.000000000000000048e-04,4.142379224694224149e+01,2.700000000000000178e-01
3.095344697999999894e+00,-1.044259242999999948e+00,5.552630824742359472e-01,1.000000000000000048e-04,4.240799414940656931e+01,2.200000000000000011e-01
3.093500166000000107e+00,-1.047656949999999920e+00,1.949493102423545121e-01,1.000000000000000048e-04,3.989770255418169853e+01,2.300000000000000100e-01
2.871266652000000086e+00,-1.064917746999999970e+00,2.527853889511566532e-01,1.000000000000000048e-04,4.092606372028970441e+01,2.500000000000000000e-01
2.872879009000000039e+00,-1.076645507999999918e+00,1.591452463650386839e-01,1.000000000000000048e-04,3.947667593707669909e+01,2.099999999999999922e-01
1.241294699000000001e+00,-1.109043570000000090e+00,5.698398082537663445e-01,1.000000000000000048e-04,4.323661785997303042e+01,2.099999999999999922e-01
1.238788393000000099e+00,-1.083197141000000085e+00,5.624478148311158332e-01,1.000000000000000048e-04,4.221651171270194425e+01,2.999999999999999889e-01
-3.140928712179586135e+00,-1.049943351000000025e+00,3.655316280143450225e-01,1.000000000000000048e-04,4.157083431975390653e+01,2.200000000000000011e-01
2.897074545000000168e+00,-1.050668165000000043e+00,2.778601917096252816e-01,1.000000000000000048e-04,4.079094906536766274e+01,2.099999999999999922e-01
3.133488720999999977e+00,-1.053899826000000095e+00,8.089404256056669240e-01,1.000000000000000048e-04,4.360509517390783429e+01,2.300000000000000100e-01
2.854965548000000020e+00,-1.051119023000000041e+00,5.419426379739404886e-01,1.000000000000000048e-04,4.253733234638870186e+01,3.200000000000000067e-01
2.846666281000000076e+00,-1.061494909000000098e+00,3.318858163701394748e-01,1.000000000000000048e-04,4.154588362810211777e+01,2.600000000000000089e-01
1.477625364000000108e+00,-9.892628350000000070e-01,1.067867635466039022e+00,1.000000000000000048e-04,4.396530146722789567e+01,2.000000000000000111e-01
-2.998301261179586064e+00,-5.567642400000000213e-01,5.962245577474156732e-01,1.000000000000000048e-04,4.286794476260510578e+01,1.799999999999999933e-01
2.915910107000000195e+00,-9.248875840000000403e-01,2.530755278757845783e-01,1.000000000000000048e-04,4.056580938143038395e+01,2.999999999999999889e-01
2.904218159000000021e+00,-9.279150130000000107e-01,4.604948214671171769e-01,1.000000000000000048e-04,4.178342015266387932e+01,2.399999999999999911e-01
2.945746643000000109e+00,-9.241091030000000428e-01,2.049031213958794062e-01,1.000000000000000048e-04,4.042582481654049076e+01,2.300000000000000100e-01
2.195221751000000054e+00,9.567984520000000215e-01,7.624752904465408321e-01,1.000000000000000048e-04,4.373705590091442019e+01,2.200000000000000011e-01
-2.382074272179586227e+00,-9.504311730000000180e-01,2.986434799944246432e-01,1.000000000000000048e-04,4.081703149407111653e+01,2.300000000000000100e-01
2.197803225999999999e+00,9.560313849999999558e-01,9.290498032916763016e-01,1.000000000000000048e-04,4.426443728302848513e+01,2.300000000000000100e-01
-2.380846050179586282e+00,-9.512843520000000552e-01,1.846751998666009698e-01,1.000000000000000048e-04,3.969951742573326214e+01,2.600000000000000089e-01
-2.382960995179586039e+00,-9.501026420000000527e-01,2.071545786280060142e-01,1.000000000000000048e-04,4.003668410546434586e+01,2.099999999999999922e-01
2.192165822000000208e+00,9.554729659999999791e-01,5.882566200529408817e-01,1.000000000000000048e-04,4.296894635902577875e+01,2.899999999999999800e-01
-2.383512939179586176e+00,-9.505219620000000535e-01,8.204561167809365507e-02,1.000000000000000048e-04,3.796492884343464169e+01,2.000000000000000111e-01
2.197044292000000176e+00,9.582492320000000063e-01,8.717451256271546711e-02,1.000000000000000048e-04,3.770672084496210630e+01,2.500000000000000000e-01
2.198013217999999824e+00,9.570721989999999568e-01,1.049845002343430256e+00,1.000000000000000048e-04,4.406937349116543601e+01,2.099999999999999922e-01
2.198391541999999976e+00,9.561199929999999458e-01,2.334184594547368263e-01,1.000000000000000048e-04,4.048067499741222264e+01,2.300000000000000100e-01
2.199218732999999926e+00,9.570277640000000030e-01,8.942023221179680181e-01,1.000000000000000048e-04,4.372306959070269272e+01,2.200000000000000011e-01
2.196667974999999995e+00,9.569524729999999701e-01,4.004167241818672451e-01,1.000000000000000048e-04,4.143385460468000758e+01,2.399999999999999911e-01
2.196400267000000017e+00,9.571105250000000453e-01,4.189294380529526851e-01,1.000000000000000048e-04,4.227813012778273816e+01,2.500000000000000000e-01
2.195980999000000100e+00,9.563170869999999546e-01,1.041196620499542647e-01,1.000000000000000048e-04,3.829345085207655330e+01,2.200000000000000011e-01
2.198886345000000020e+00,9.574225640000000315e-01,5.297727667526250794e-01,1.000000000000000048e-04,4.196698105164061587e+01,3.300000000000000155e-01
-2.382942164179586264e+00,-9.487821469999999646e-01,3.795691234099654032e-01,1.000000000000000048e-04,4.189735882648191279e+01,2.000000000000000111e-01
2.197058621000000045e+00,9.568337070000000333e-01,3.335641771566761893e-01,1.000000000000000048e-04,4.122573448663908380e+01,2.600000000000000089e-01
2.196754174000000059e+00,9.569828230000000380e-01,2.188683230804102653e-01,1.000000000000000048e-04,4.022575246221735767e+01,2.399999999999999911e-01
-2.381905888179586039e+00,-9.494029419999999719e-01,4.588575594461032914e-01,1.000000000000000048e-04,4.149578946307290295e+01,2.399999999999999911e-01
-2.382353656179586388e+00,-9.501919130000000546e-01,2.723475006254623132e-01,1.000000000000000048e-04,4.087192121581585980e+01,2.600000000000000089e-01
-2.385313647179586383e+00,-9.492824659999999914e-01,7.658748578929008843e-02,1.000000000000000048e-04,3.799024707418254110e+01,2.399999999999999911e-01
-2.383308463179586223e+00,-9.502672559999999491e-01,9.819630602799001018e-02,1.000000000000000048e-04,3.869160770645747505e+01,2.000000000000000111e-01
2.194446376000000143e+00,9.548028840000000184e-01,4.079469917541442836e-01,1.000000000000000048e-04,4.214992627044149032e+01,3.699999999999999956e-01
-2.377678389179586294e+00,-9.493284189999999789e-01,1.304482243556857046e-01,1.000000000000000048e-04,3.890238883373867651e+01,3.099999999999999978e-01
2.195048706000000127e+00,9.553664520000000326e-01,2.199990185425166889e-01,1.000000000000000048e-04,4.034691827297112354e+01,2.399999999999999911e-01
2.194988459000000169e+00,9.569281090000000267e-01,8.055271416965308351e-01,1.000000000000000048e-04,4.353024658678104686e+01,2.099999999999999922e-01
2.198773670000000013e+00,9.585742720000000050e-01,1.912598555343556495e-01,1.000000000000000048e-04,3.968905365463378843e+01,2.800000000000000266e-01
2.196007632000000154e+00,9.574002940000000406e-01,3.194277412309833863e-01,1.000000000000000048e-04,4.086668504914680966e+01,2.800000000000000266e-01
2.193610842000000005e+00,9.569156829999999614e-01,3.222560976257076160e-01,1.000000000000000048e-04,4.094760131760640576e+01,2.099999999999999922e-01
2.194846306000000080e+00,9.574700699999999509e-01,5.228021731909759939e-01,1.000000000000000048e-04,4.202332667979788994e+01,2.300000000000000100e-01
-2.901318991795864832e-01,1.086903570000000041e+00,2.118838544478938157e-01,1.000000000000000048e-04,4.025724109237530257e+01,2.000000000000000111e-01
-2.914486071795865385e-01,1.085909494999999891e+00,4.571210080186880464e-01,1.000000000000000048e-04,4.205541680983068886e+01,1.000000000000000056e-01
-2.954610881795858290e-01,1.084462065999999947e+00,7.181569583607541052e-01,1.000000000000000048e-04,4.320047051127364313e+01,1.199999999999999956e-01
-3.403197011795864313e-01,1.090760651000000081e+00,3.470886812335651772e-01,1.000000000000000048e-04,4.137509040961602125e+01,8.999999999999999667e-02
-3.429455761795860980e-01,1.087892671000000089e+00,4.973035658320428265e-01,1.000000000000000048e-04,4.233169991815157829e+01,1.400000000000000133e-01
6.896152909999999636e-01,-9.249195220000000495e-01,9.652279356734219107e-01,1.000000000000000048e-04,4.416433946493411611e+01,2.000000000000000111e-01
1.024453132999999960e+00,1.182715689999999986e+00,1.257544444853172294e+00,1.000000000000000048e-04,4.446868041137116734e+01,1.900000000000000022e-01
1.006083177000000051e+00,1.165244638999999971e+00,3.538121233623732209e-01,1.000000000000000048e-04,4.136812843605865453e+01,1.700000000000000122e-01
9.905969959999999519e-01,1.153001898999999941e+00,2.119667115016996561e-01,1.000000000000000048e-04,3.993548211092060995e+01,3.499999999999999778e-01
2.950804928999999799e+00,-1.010655210999999998e+00,2.150201017499304701e-01,1.000000000000000048e-04,3.999105544142062740e+01,1.700000000000000122e-01
2.951637304000000128e+00,-1.010683065999999908e+00,3.908058040990254334e-01,1.000000000000000048e-04,4.167256787415264796e+01,1.900000000000000022e-01
-2.349248843179586377e+00,-9.322901449999999590e-01,1.130152388902272431e-01,1.000000000000000048e-04,3.863180977984551134e+01,1.900000000000000022e-01
