3.054272990954432387e+00,2.712713647873070677e-01,7.984315017407923598e-01,1.000000000000000048e-04,4.351450185417203187e+01,5.000000000000000278e-02
-1.536260663900597345e+00,2.486196954148978122e-01,4.655217857073288279e-01,1.000000000000000048e-04,4.214404269309216744e+01,5.000000000000000278e-02
-1.131872666706907005e+00,-3.649917268739972798e-01,2.917338085799592307e-01,1.000000000000000048e-04,4.083812038248621690e+01,5.000000000000000278e-02
2.694421935208893615e+00,-7.265057913468169204e-01,3.961463214778293551e-01,1.000000000000000048e-04,4.175485515934162351e+01,5.000000000000000278e-02
-4.046887921496939988e-01,2.752341767900312597e-01,8.347794643542405524e-02,1.000000000000000048e-04,3.780984827358109612e+01,5.000000000000000278e-02
-2.956181046075817775e+00,-1.063094300445283302e+00,7.374744488286584243e-01,1.000000000000000048e-04,4.316032384339746386e+01,5.000000000000000278e-02
-3.227566469694083118e-01,1.217316536720583375e+00,1.365371934514596486e-01,1.000000000000000048e-04,3.897245009177240860e+01,5.000000000000000278e-02
-5.173767446281374305e-02,-1.177869025084120169e+00,9.228148920911070086e-01,1.000000000000000048e-04,4.391055811919098772e+01,5.000000000000000278e-02
1.003629041334441752e-02,8.224896462521731344e-01,6.683147913572764498e-01,1.000000000000000048e-04,4.301355982295567770e+01,5.000000000000000278e-02
-1.071578705165849854e-01,1.474416939125733794e+00,2.941798643917341582e-01,1.000000000000000048e-04,4.087559887033442152e+01,5.000000000000000278e-02
1.286238134088725893e+00,-9.047775439072525128e-01,1.604269004741087912e-01,1.000000000000000048e-04,3.947142240862304163e+01,5.000000000000000278e-02
1.244166854638750763e+00,7.158489871559128304e-01,6.860987117287318249e-01,1.000000000000000048e-04,4.315276752888632927e+01,5.000000000000000278e-02
-3.179150682857998511e-01,1.312645837066130472e+00,7.082343661093304377e-01,1.000000000000000048e-04,4.314295135684366755e+01,5.000000000000000278e-02
1.090901379927706749e+00,8.004739687826836203e-01,6.802698886174487480e-01,1.000000000000000048e-04,4.312561602077731493e+01,5.000000000000000278e-02
2.275597073148289518e+00,-1.331055802249119235e+00,9.136525093672753783e-02,1.000000000000000048e-04,3.826080117643345346e+01,5.000000000000000278e-02
3.630244963790287827e-01,-1.186122778535955380e+00,2.410122580420428484e-01,1.000000000000000048e-04,4.049825653667564751e+01,5.000000000000000278e-02
2.581306176938631403e+00,-1.446604172666995813e+00,8.404860416283965741e-01,1.000000000000000048e-04,4.372076056424550217e+01,5.000000000000000278e-02
1.183727712434089696e+00,-1.211245759463353000e-01,2.246511701557181162e-01,1.000000000000000048e-04,4.034052973528342534e+01,5.000000000000000278e-02
1.636750227212032449e+00,1.024983867693347594e+00,4.237299418553159835e-01,1.000000000000000048e-04,4.182437994157640304e+01,5.000000000000000278e-02
-8.926672856295501113e-01,4.798372687310559215e-02,5.444563565810629502e-01,1.000000000000000048e-04,4.240592531027061085e+01,5.000000000000000278e-02
1.031920381544367160e+00,4.597333376418477613e-02,2.893650570232981778e-01,1.000000000000000048e-04,4.092065519950619290e+01,5.000000000000000278e-02
-1.274443475977309781e+00,-1.201397186477053181e+00,8.742371136669879750e-01,1.000000000000000048e-04,4.383843096112168780e+01,5.000000000000000278e-02
-3.025873727397695223e+00,-1.364904170108420578e+00,1.798688684570999285e-01,1.000000000000000048e-04,3.973098117396321527e+01,5.000000000000000278e-02
4.187233261045775201e-01,1.291702635554701217e+00,7.867935294382957245e-01,1.000000000000000048e-04,4.350349494967428399e+01,5.000000000000000278e-02
-2.918083793569151485e+00,-4.322480473426579817e-01,2.599300397320754019e-01,1.000000000000000048e-04,4.065507657095250948e+01,5.000000000000000278e-02
1.065978337767263362e+00,5.750556324375235562e-01,8.058591592184769503e-01,1.000000000000000048e-04,4.353417598032430647e+01,5.000000000000000278e-02
-6.810231396459736075e-01,5.649623000520671567e-01,6.498597359837714471e-01,1.000000000000000048e-04,4.298812086693461509e+01,5.000000000000000278e-02
-2.006080065368382570e+00,8.911199844450385932e-01,1.772437962805086809e-01,1.000000000000000048e-04,3.958820574221628164e+01,5.000000000000000278e-02
-3.063083011564413649e+00,3.976771761144186623e-01,8.766044864872475362e-01,1.000000000000000048e-04,4.380506549343970590e+01,5.000000000000000278e-02
-4.449897314729667208e-01,-5.216555951610934994e-01,9.232090904079077731e-01,1.000000000000000048e-04,4.378031459682456727e+01,5.000000000000000278e-02
1.042772395272507424e+00,6.982279257280561424e-01,6.693651094994190753e-01,1.000000000000000048e-04,4.307001684054947077e+01,5.000000000000000278e-02
2.410683440797854793e+00,-5.360750518919488172e-03,7.283863751347219306e-02,1.000000000000000048e-04,3.765352363521464696e+01,5.000000000000000278e-02
-2.741780923233990475e+00,1.002515708324567267e-01,7.638214399276539446e-01,1.000000000000000048e-04,4.334599523760242334e+01,5.000000000000000278e-02
-3.049714477992792716e+00,-4.892698218263300536e-01,7.994022708986017189e-01,1.000000000000000048e-04,4.352453412887129502e+01,5.000000000000000278e-02
1.103866519902893195e+00,-6.210303022034527887e-01,1.499680041176025824e-01,1.000000000000000048e-04,3.940517573379155181e+01,5.000000000000000278e-02
1.661659526658350039e+00,-5.240016896680299574e-02,4.627340986038224191e-01,1.000000000000000048e-04,4.210352776312112155e+01,5.000000000000000278e-02
-8.345107856332489860e-01,7.868467683252906575e-01,8.521046736670070398e-01,1.000000000000000048e-04,4.375052923194130017e+01,5.000000000000000278e-02
-6.155322718409608207e-01,-9.655465040330780679e-01,6.887321286610439408e-01,1.000000000000000048e-04,4.311575731763307573e+01,5.000000000000000278e-02
-4.742113105092342629e-01,7.218220643891615218e-02,6.656088010688832046e-01,1.000000000000000048e-04,4.299978282242945937e+01,5.000000000000000278e-02
-7.738627749352784413e-01,-1.375905756372177047e+00,6.383756830036952934e-01,1.000000000000000048e-04,4.285247670381498608e+01,5.000000000000000278e-02
-3.039538681356903638e+00,3.169176367374317849e-01,2.091203282091860238e-01,1.000000000000000048e-04,4.010694683261603188e+01,5.000000000000000278e-02
-9.090404490151358097e-01,-5.289915643727767236e-01,6.186660541490962562e-01,1.000000000000000048e-04,4.283875983455528313e+01,5.000000000000000278e-02
-1.303560072191913832e+00,4.039951423148298026e-01,2.413338908007545136e-01,1.000000000000000048e-04,4.038595059620127614e+01,5.000000000000000278e-02
-1.533799209455523060e+00,7.178564934835005573e-01,4.925680617226244618e-01,1.000000000000000048e-04,4.222906506571565899e+01,5.000000000000000278e-02
-1.768314040241411034e+00,-6.366434089738118862e-01,8.578299960973492233e-01,1.000000000000000048e-04,4.373741817455933756e+01,5.000000000000000278e-02
1.145227678476558708e+00,-9.664270474881851980e-01,7.878634367695744878e-01,1.000000000000000048e-04,4.347784172038787887e+01,5.000000000000000278e-02
1.560395076333234599e+00,5.209549331126348548e-01,5.524166458630341836e-02,1.000000000000000048e-04,3.714197292022508634e+01,5.000000000000000278e-02
-3.006169641972867179e+00,5.780319613197097972e-01,4.882806956654672792e-01,1.000000000000000048e-04,4.228128871801344246e+01,5.000000000000000278e-02
1.791752616225370076e+00,-1.230601583709782787e-01,2.609019069076849995e-01,1.000000000000000048e-04,4.070280995945063296e+01,5.000000000000000278e-02
2.110465288141163853e+00,3.565561957328631237e-01,5.592732766647021680e-01,1.000000000000000048e-04,4.251469872856288390e+01,5.000000000000000278e-02
6.819544600170193149e-01,1.053626240290435057e+00,3.608343357260443973e-01,1.000000000000000048e-04,4.137692189100921780e+01,5.000000000000000278e-02
-1.310511928136251614e+00,-1.051718145676566074e+00,3.706180045096272302e-01,1.000000000000000048e-04,4.151931589248079746e+01,5.000000000000000278e-02
5.732111271844657630e-01,-8.298794013475820908e-01,3.554257509980427443e-01,1.000000000000000048e-04,4.140910473102852762e+01,5.000000000000000278e-02
9.083914248024571592e-01,-5.138118765776338304e-01,7.232089141146365030e-01,1.000000000000000048e-04,4.328438960256330859e+01,5.000000000000000278e-02
-2.217434183385293522e+00,-1.049672233014611766e+00,6.301610048413290865e-01,1.000000000000000048e-04,4.286446131354026079e+01,5.000000000000000278e-02
8.693243977657116872e-01,-5.328471323361338996e-02,2.177474244229493650e-01,1.000000000000000048e-04,4.017868398292555554e+01,5.000000000000000278e-02
1.471370460807738034e+00,8.004380466699050345e-01,6.702629883139603617e-01,1.000000000000000048e-04,4.304307151722141356e+01,5.000000000000000278e-02
9.727507166119009341e-02,4.311757732617627070e-01,6.652725803756378564e-01,1.000000000000000048e-04,4.304635239251162915e+01,5.000000000000000278e-02
2.219177941481695449e+00,2.393079618931177599e-01,4.704829736024969122e-01,1.000000000000000048e-04,4.206036075609328151e+01,5.000000000000000278e-02
-1.957037817861054130e+00,7.350339649414214804e-01,2.852655422394851925e-01,1.000000000000000048e-04,4.083101001373448469e+01,5.000000000000000278e-02
9.083468687369782302e-01,-1.716614824385165328e-02,6.949605421093922875e-01,1.000000000000000048e-04,4.325450732176762614e+01,5.000000000000000278e-02
-9.898716669411333768e-02,1.154547922866086207e+00,5.756532020533400296e-01,1.000000000000000048e-04,4.258166916967643800e+01,5.000000000000000278e-02
-1.083801434855150791e+00,-7.804717465377956076e-01,3.411759241436524981e-01,1.000000000000000048e-04,4.128612688371104156e+01,5.000000000000000278e-02
-2.839556874122862951e+00,1.026458468109737066e+00,9.215784057297735643e-01,1.000000000000000048e-04,4.389757639543083201e+01,5.000000000000000278e-02
1.713197091428662056e-01,1.366633824533976860e+00,8.609436750060843746e-01,1.000000000000000048e-04,4.378610234221222441e+01,5.000000000000000278e-02
-2.253566862530690162e+00,1.106348636174747213e+00,7.634224095974380120e-01,1.000000000000000048e-04,4.333568049112049181e+01,5.000000000000000278e-02
4.118755688237025758e-01,8.965327057047836057e-01,3.316416230827801126e-01,1.000000000000000048e-04,4.124343208388120274e+01,5.000000000000000278e-02
-2.595681715490600894e-01,-8.859961286756692367e-01,2.190510720399305722e-01,1.000000000000000048e-04,4.025389201794659044e+01,5.000000000000000278e-02
-5.904757576817147857e-01,5.644293582588333358e-02,4.458583019155413218e-01,1.000000000000000048e-04,4.195224909264763369e+01,5.000000000000000278e-02
-5.135221806854346482e-01,-6.011615366671360094e-01,5.346109016766851241e-01,1.000000000000000048e-04,4.243413870783395936e+01,5.000000000000000278e-02
2.749724485505974592e+00,-4.539862163181327404e-01,5.355024703872390823e-02,1.000000000000000048e-04,3.702405652156470950e+01,5.000000000000000278e-02
2.055070297847944261e+00,6.710549670351668716e-01,7.953486071040798411e-01,1.000000000000000048e-04,4.340980165558553239e+01,5.000000000000000278e-02
-1.937906553341604665e+00,5.947791308134418031e-01,7.765083832486865401e-01,1.000000000000000048e-04,4.338620386865591172e+01,5.000000000000000278e-02
2.714521986013741284e+00,-7.279242257642081215e-01,6.750299241231514369e-01,1.000000000000000048e-04,4.314160429462521051e+01,5.000000000000000278e-02
-1.134736192041708502e+00,1.926423470323870291e-01,8.207147700181229855e-01,1.000000000000000048e-04,4.365919128251133685e+01,5.000000000000000278e-02
-9.431055148711533498e-01,-1.118598382753166476e-01,4.531706938902739790e-01,1.000000000000000048e-04,4.196308388020914037e+01,5.000000000000000278e-02
5.056024047205647243e-01,1.498372515452940146e+00,4.271671181937528594e-01,1.000000000000000048e-04,4.182233442192664086e+01,5.000000000000000278e-02
-2.832367647818956335e+00,1.121496488519172274e+00,1.506658879494324754e-01,1.000000000000000048e-04,3.917785170073815237e+01,5.000000000000000278e-02
2.103713629669251794e+00,8.999722179858160587e-01,7.127391685245263453e-01,1.000000000000000048e-04,4.325706208283506982e+01,5.000000000000000278e-02
-1.560828501809689239e+00,7.738608197588670023e-02,8.690515148609676555e-01,1.000000000000000048e-04,4.367842238720744774e+01,5.000000000000000278e-02
1.952023967333955667e+00,-2.815017622926476726e-01,1.758754225148277950e-01,1.000000000000000048e-04,3.975371642664050853e+01,5.000000000000000278e-02
4.884158936337423818e-01,-1.066397210078640079e-01,6.249128738269098537e-01,1.000000000000000048e-04,4.289885102916480974e+01,5.000000000000000278e-02
-2.259741157370668052e+00,-1.100272925035750804e+00,1.798626103363343276e-01,1.000000000000000048e-04,3.969521599219928021e+01,5.000000000000000278e-02
-1.736899029666355565e+00,2.418465290649431942e-01,8.604112191037833757e-01,1.000000000000000048e-04,4.370122847453362880e+01,5.000000000000000278e-02
2.444842410500448260e+00,1.076810257753884059e+00,1.772636449500586409e-01,1.000000000000000048e-04,3.966157073939434241e+01,5.000000000000000278e-02
5.789858282877657913e-02,-1.046528401621156901e+00,1.742571680084621377e-01,1.000000000000000048e-04,3.972731289376620367e+01,5.000000000000000278e-02
1.705291318495520514e+00,6.366583903385532039e-01,8.120936700328478253e-01,1.000000000000000048e-04,4.354402888728225918e+01,5.000000000000000278e-02
-2.437420939166867306e+00,9.613754073592315486e-01,8.065374423005362559e-01,1.000000000000000048e-04,4.348577520724322909e+01,5.000000000000000278e-02
9.825255572698106121e-01,-6.680205952142550530e-01,5.488847930209217463e-01,1.000000000000000048e-04,4.250442483704439667e+01,5.000000000000000278e-02
-2.826139503440960432e+00,1.027395210872515730e+00,6.965366432493746984e-02,1.000000000000000048e-04,3.741899011987926116e+01,5.000000000000000278e-02
5.706082639088125852e-01,-6.222591265900486723e-01,9.170537974022510141e-01,1.000000000000000048e-04,4.381798933574014399e+01,5.000000000000000278e-02
2.973355531835060184e+00,6.597829528924328280e-01,8.959937236601245303e-02,1.000000000000000048e-04,3.805134436784038598e+01,5.000000000000000278e-02
-2.511670904240592250e+00,-8.810591873147219921e-01,4.661707236784349284e-01,1.000000000000000048e-04,4.209739175217475804e+01,5.000000000000000278e-02
-1.510677694324941811e+00,-7.932792221949306333e-01,5.702816741153466928e-01,1.000000000000000048e-04,4.267738062831465129e+01,5.000000000000000278e-02
-2.235932927750003074e+00,1.353627795161207459e-01,4.006259365923439120e-01,1.000000000000000048e-04,4.175014445200685032e+01,5.000000000000000278e-02
2.286093496152887816e+00,-5.070122802703380671e-02,8.235616540411436759e-01,1.000000000000000048e-04,4.352238473702136190e+01,5.000000000000000278e-02
3.991261734328928057e-01,-9.119105394270041742e-01,2.739838713929936276e-01,1.000000000000000048e-04,4.084052009405895234e+01,5.000000000000000278e-02
1.007682123747732028e+00,-1.164612797511771491e+00,2.329323865951640204e-01,1.000000000000000048e-04,4.038549709771133678e+01,5.000000000000000278e-02
-3.149134388100449655e-01,-4.978001504348017470e-02,6.011850327860144283e-01,1.000000000000000048e-04,4.274872067493259209e+01,5.000000000000000278e-02
-4.714735154850315801e-01,1.458221980730249889e-01,9.009030381940925647e-01,1.000000000000000048e-04,4.384419352631245914e+01,5.000000000000000278e-02
1.335271021915982459e+00,7.461204728718566770e-01,1.984919168628289654e-01,1.000000000000000048e-04,3.991207127694018197e+01,5.000000000000000278e-02
-4.326701329662117068e-01,-1.374829160204704692e-02,1.401466885814377505e-01,1.000000000000000048e-04,3.898582111459153055e+01,5.000000000000000278e-02
-1.023021986184449172e+00,-4.067453860674845600e-01,7.753449075569414095e-01,1.000000000000000048e-04,4.341455487892420706e+01,5.000000000000000278e-02
-2.514609630146977359e+00,-6.962307819945473542e-01,6.821545777065445293e-01,1.000000000000000048e-04,4.309905761236318966e+01,5.000000000000000278e-02
3.041904655276749914e+00,1.186213222636090414e+00,6.468793445659739572e-01,1.000000000000000048e-04,4.294320540951506615e+01,5.000000000000000278e-02
1.030321131660569378e+00,2.044426814770379242e-01,2.473283652175424230e-01,1.000000000000000048e-04,4.049466600082487133e+01,5.000000000000000278e-02
-2.648203369434458665e+00,1.053872081478257172e+00,9.092534978425659276e-01,1.000000000000000048e-04,4.385459988091213290e+01,5.000000000000000278e-02
2.083777051594513097e+00,-7.612605777192625878e-01,1.562699667387406066e-01,1.000000000000000048e-04,3.942087738539360942e+01,5.000000000000000278e-02
-1.244705801086261054e-01,-7.819217721377410557e-01,7.227902455968149287e-01,1.000000000000000048e-04,4.328950980145275906e+01,5.000000000000000278e-02
6.262082847137948605e-01,-3.674134817514254081e-01,4.543867026328420877e-01,1.000000000000000048e-04,4.206709864200577442e+01,5.000000000000000278e-02
-2.701825090147313979e-01,-1.077873173525877970e+00,6.898127918304473027e-01,1.000000000000000048e-04,4.303468864529506988e+01,5.000000000000000278e-02
-4.777194548203924640e-01,-3.650941734381882853e-01,1.600281213047913820e-01,1.000000000000000048e-04,3.935445123405607859e+01,5.000000000000000278e-02
-5.385090476980005647e-01,-1.424959216933820105e+00,8.236482925612587103e-01,1.000000000000000048e-04,4.368568167228831811e+01,5.000000000000000278e-02
-8.317706869270522496e-01,1.282762627495570573e-01,6.127098007849218764e-01,1.000000000000000048e-04,4.282650199479232356e+01,5.000000000000000278e-02
1.320761213467882556e+00,-1.937332127771236312e-01,5.820356775736199584e-01,1.000000000000000048e-04,4.260524118012599359e+01,5.000000000000000278e-02
-7.840592714724725631e-01,-3.548230408405046443e-01,1.266757577872952290e-01,1.000000000000000048e-04,3.875942485383215086e+01,5.000000000000000278e-02
-2.359752034287875944e+00,5.228324150257090963e-03,8.617703225652386667e-01,1.000000000000000048e-04,4.368808890199153439e+01,5.000000000000000278e-02
2.609479459104043997e+00,-1.166623021350396527e+00,2.448018946682704033e-01,1.000000000000000048e-04,4.052938826432393427e+01,5.000000000000000278e-02
-2.921288006022398687e+00,-6.269276569973852853e-01,1.165032289151299860e-01,1.000000000000000048e-04,3.870236160326601293e+01,5.000000000000000278e-02
-1.930095687032104435e+00,2.010364690459454096e-01,2.493316829887686215e-01,1.000000000000000048e-04,4.045558989702263375e+01,5.000000000000000278e-02
7.202174805283512171e-02,9.700041838199582322e-01,9.300201753308037222e-01,1.000000000000000048e-04,4.380913871338288601e+01,5.000000000000000278e-02
9.488863178446660385e-01,-1.228328609757992407e+00,9.168701560175991361e-01,1.000000000000000048e-04,4.389911057755595891e+01,5.000000000000000278e-02
-3.040546537639198021e+00,2.892063180354291774e-01,7.969520242424061873e-01,1.000000000000000048e-04,4.345513630548508388e+01,5.000000000000000278e-02
-2.806296893927411773e+00,-1.657094842818982450e-01,9.138427622781879478e-01,1.000000000000000048e-04,4.389233713643375268e+01,5.000000000000000278e-02
2.708402774334660812e+00,8.704561710723086598e-01,5.374944406271748853e-01,1.000000000000000048e-04,4.247418288864427183e+01,5.000000000000000278e-02
-1.276067225815262551e+00,2.643703316932355385e-01,2.103695704502073216e-01,1.000000000000000048e-04,4.005936968358564343e+01,5.000000000000000278e-02
1.738397521134471546e-02,-1.127314072834681768e+00,1.854430129423771945e-01,1.000000000000000048e-04,3.982399729863885085e+01,5.000000000000000278e-02
6.067375045916612031e-01,-2.661650528777899094e-01,7.675279912971535445e-01,1.000000000000000048e-04,4.341895362572224570e+01,5.000000000000000278e-02
-1.802693683357194931e+00,-6.798543597476326417e-01,7.021254130161080909e-02,1.000000000000000048e-04,3.745271397755848142e+01,5.000000000000000278e-02
1.430510992291010197e+00,1.475154896969272933e-01,3.822311645023293014e-01,1.000000000000000048e-04,4.161188062600362514e+01,5.000000000000000278e-02
8.713802644982724388e-01,6.689278160803140416e-01,1.282004193930059710e-01,1.000000000000000048e-04,3.882300164912730622e+01,5.000000000000000278e-02
1.728950984054373308e+00,4.590158751310604579e-01,8.138962314815900712e-02,1.000000000000000048e-04,3.786750875438168862e+01,5.000000000000000278e-02
-2.563513372111096977e-01,2.917235289742328153e-01,5.440466898190345901e-01,1.000000000000000048e-04,4.246669063992032989e+01,5.000000000000000278e-02
1.081273016806293619e+00,-2.416461889637000482e-01,2.225157722908248648e-01,1.000000000000000048e-04,4.026173529676695040e+01,5.000000000000000278e-02
1.186434802549785061e-01,-7.283190579786213981e-02,7.662248334564192298e-01,1.000000000000000048e-04,4.340134950181797535e+01,5.000000000000000278e-02
8.851089613291760472e-01,-3.913519749126321834e-01,5.091756657794854757e-01,1.000000000000000048e-04,4.222672063490947636e+01,5.000000000000000278e-02
-2.619399329929576137e+00,-2.494613459575067971e-02,2.978462313307772558e-01,1.000000000000000048e-04,4.094064085081112836e+01,5.000000000000000278e-02
-2.965315567121269424e+00,1.213824529955172427e+00,6.283064838723719792e-01,1.000000000000000048e-04,4.291649694123135106e+01,5.000000000000000278e-02
2.751708088644114092e+00,-1.705181737400189856e-01,3.736763445973607656e-01,1.000000000000000048e-04,4.156589275985270859e+01,5.000000000000000278e-02
-1.843748616193209733e+00,-1.289203486891558725e+00,9.338082811760339830e-02,1.000000000000000048e-04,3.828457317748023314e+01,5.000000000000000278e-02
3.112658951741176239e-01,-1.717180231696822101e-01,9.248015531012281354e-01,1.000000000000000048e-04,4.396684363163700482e+01,5.000000000000000278e-02
-2.240428683987211400e+00,2.324787406202175610e-01,6.799308029795569919e-01,1.000000000000000048e-04,4.310159726736954156e+01,5.000000000000000278e-02
-2.951691380530291564e+00,7.428534931175789779e-02,8.782958052189855369e-01,1.000000000000000048e-04,4.375363273159764077e+01,5.000000000000000278e-02
2.298789817212300690e+00,1.033122686902312903e+00,1.330236226799013100e-01,1.000000000000000048e-04,3.895765488808388000e+01,5.000000000000000278e-02
4.579369216200088744e-01,-4.367369988009384141e-01,9.326777555838539069e-01,1.000000000000000048e-04,4.394831290190020212e+01,5.000000000000000278e-02
6.919884593188743160e-01,6.820227254020214680e-01,3.192653594875876077e-01,1.000000000000000048e-04,4.118664414204292257e+01,5.000000000000000278e-02
-4.557056042578970789e-01,8.282264057709980420e-01,1.637487353448747740e-01,1.000000000000000048e-04,3.944714079061466094e+01,5.000000000000000278e-02
-7.416167792809327253e-01,1.924056372608229371e-01,5.519426081549563268e-01,1.000000000000000048e-04,4.260621260460555959e+01,5.000000000000000278e-02
1.408809516543851004e+00,-3.910332430269951587e-01,5.127101836107774702e-01,1.000000000000000048e-04,4.227598746970112842e+01,5.000000000000000278e-02
-7.735168901637772265e-01,3.341639042416733041e-01,2.734593736431341071e-01,1.000000000000000048e-04,4.073482558256470298e+01,5.000000000000000278e-02
-2.627589641613976124e+00,-5.674546312220707378e-02,6.939237668972917383e-01,1.000000000000000048e-04,4.314098201164245694e+01,5.000000000000000278e-02
-2.678222786002628641e+00,1.128244312307521202e+00,6.859015764746514421e-01,1.000000000000000048e-04,4.312407852688814813e+01,5.000000000000000278e-02
4.363039455891009055e-01,-8.848644594803656283e-01,2.604090135123808825e-01,1.000000000000000048e-04,4.070550108430714431e+01,5.000000000000000278e-02
-1.631192255073488973e+00,-1.123982880365504311e+00,3.791037337966896015e-01,1.000000000000000048e-04,4.149897848702960346e+01,5.000000000000000278e-02
1.471158215437933237e-01,5.501667261649618723e-01,4.102777037411722283e-01,1.000000000000000048e-04,4.172681842076686820e+01,5.000000000000000278e-02
1.976949058098651513e-01,-1.470223872285183031e+00,8.840881011550068003e-01,1.000000000000000048e-04,4.382671746370179733e+01,5.000000000000000278e-02
-1.217271922606705692e+00,-1.395590627600826750e-01,6.599937342411996699e-01,1.000000000000000048e-04,4.302113085083767174e+01,5.000000000000000278e-02
2.546116960906774196e+00,6.772156766199968203e-01,2.399482317179089108e-01,1.000000000000000048e-04,4.033976833006158813e+01,5.000000000000000278e-02
-8.714657139613279924e-03,-2.422265502613292210e-01,9.313424177859808140e-01,1.000000000000000048e-04,4.388182940973611323e+01,5.000000000000000278e-02
-2.139025279088992093e+00,6.968304396500148989e-01,4.429605195568506737e-01,1.000000000000000048e-04,4.185827560443740225e+01,5.000000000000000278e-02
9.838117874724243705e-01,1.033607740448368784e+00,3.765955051467793080e-01,1.000000000000000048e-04,4.152831259709719802e+01,5.000000000000000278e-02
1.306514047597852723e+00,1.458728358671042447e+00,6.541209096112434729e-01,1.000000000000000048e-04,4.293169594574899861e+01,5.000000000000000278e-02
1.094329325097653793e+00,-1.193435659695821771e+00,4.555680875153838016e-01,1.000000000000000048e-04,4.214428175057378212e+01,5.000000000000000278e-02
-5.740631895131276252e-02,8.217242301602856180e-02,2.470111733547171173e-01,1.000000000000000048e-04,4.044399856149144767e+01,5.000000000000000278e-02
3.911543213378010364e-01,3.081977735351704162e-02,5.389837665497483332e-01,1.000000000000000048e-04,4.255627285728634490e+01,5.000000000000000278e-02
2.337886570290168997e+00,6.396354874594791795e-01,7.216424896257827015e-01,1.000000000000000048e-04,4.332303371969581463e+01,5.000000000000000278e-02
-1.299682564832130405e+00,-2.286426037713784609e-01,1.292098617300592167e-01,1.000000000000000048e-04,3.885383337034523521e+01,5.000000000000000278e-02
2.811107008873299229e+00,1.152953623042307640e+00,3.077380303484547053e-01,1.000000000000000048e-04,4.101291404893657244e+01,5.000000000000000278e-02
2.362490695538091323e+00,-8.592979710224790679e-01,6.518366172287737292e-01,1.000000000000000048e-04,4.295411300647426600e+01,5.000000000000000278e-02
-2.311139761081811628e+00,-9.878587096200518447e-01,5.173611332112901806e-01,1.000000000000000048e-04,4.241410892560558921e+01,5.000000000000000278e-02
-2.951640097410360930e+00,-3.535519816951075978e-01,9.077139453700151517e-01,1.000000000000000048e-04,4.378708284895707692e+01,5.000000000000000278e-02
2.403773371537920589e+00,-4.337996065682936386e-01,2.889553977216188230e-01,1.000000000000000048e-04,4.095551252187953395e+01,5.000000000000000278e-02
-2.665110324659329510e+00,-5.003740251010062590e-01,3.977019594556052695e-01,1.000000000000000048e-04,4.165744044780804956e+01,5.000000000000000278e-02
8.897865377977023371e-01,-3.524866614220487637e-01,9.494724627054051957e-02,1.000000000000000048e-04,3.833599664460800938e+01,5.000000000000000278e-02
-8.087586895202454329e-01,-7.347442291441103057e-01,5.639139627422962153e-01,1.000000000000000048e-04,4.258517507365282029e+01,5.000000000000000278e-02
-2.768138738134568566e+00,4.611105220329902998e-01,8.895722684366562660e-01,1.000000000000000048e-04,4.379101098280087001e+01,5.000000000000000278e-02
2.952351299843222421e+00,-6.337091297126005163e-01,9.126423220782073908e-01,1.000000000000000048e-04,4.387555926187200583e+01,5.000000000000000278e-02
5.763145541969194596e-02,1.049996886878513447e+00,6.508545007931176851e-01,1.000000000000000048e-04,4.300148298971402028e+01,5.000000000000000278e-02
-2.685161497351291615e+00,-5.745069976882836160e-01,9.737203800651728081e-02,1.000000000000000048e-04,3.828644699103516302e+01,5.000000000000000278e-02
3.053384205832201381e-01,-6.218238447453066087e-01,2.327706171995318485e-01,1.000000000000000048e-04,4.036805039052038069e+01,5.000000000000000278e-02
-2.632922552165442909e+00,-9.156138977599408424e-01,7.899651083006724583e-01,1.000000000000000048e-04,4.353689447377672650e+01,5.000000000000000278e-02
-1.128318889131032066e+00,2.462908022304959310e-01,3.824750886660466254e-01,1.000000000000000048e-04,4.158995961608525960e+01,5.000000000000000278e-02
2.235223880217320769e-01,-9.116950246455534090e-01,2.806659879802209101e-01,1.000000000000000048e-04,4.075188886210071360e+01,5.000000000000000278e-02
-6.791338395191433008e-01,3.836282937359070111e-02,4.818565369824618916e-01,1.000000000000000048e-04,4.214794334644562923e+01,5.000000000000000278e-02
2.242999486668388442e+00,7.646449608262564368e-01,7.458518249605987638e-01,1.000000000000000048e-04,4.319054733712663818e+01,5.000000000000000278e-02
2.521716181211203001e+00,8.131084866328213145e-01,9.306173074811601165e-01,1.000000000000000048e-04,4.393785196959542816e+01,5.000000000000000278e-02
8.632869471906889913e-01,7.936931217058784682e-01,6.121888770984760253e-01,1.000000000000000048e-04,4.276565541355005706e+01,5.000000000000000278e-02
4.592944420086215729e-01,9.188609541933590030e-01,8.876917248259741378e-01,1.000000000000000048e-04,4.378969140357009593e+01,5.000000000000000278e-02
1.880917552178297925e+00,-1.196928418885521372e+00,3.062362602678527779e-01,1.000000000000000048e-04,4.110266803842718986e+01,5.000000000000000278e-02
4.649621904388583360e-01,-2.692076544391692750e-01,8.510425831709567124e-01,1.000000000000000048e-04,4.375892124525059756e+01,5.000000000000000278e-02
-1.321298697545653544e+00,-3.204922950982849184e-01,7.120098184487109183e-01,1.000000000000000048e-04,4.335936580764668946e+01,5.000000000000000278e-02
5.360116130713046267e-01,-4.200518749586383827e-01,3.936329322912737183e-01,1.000000000000000048e-04,4.168965004841508204e+01,5.000000000000000278e-02
-3.585590072138411522e-01,-2.360295944695391945e-01,7.527147773623235061e-01,1.000000000000000048e-04,4.328384611962052730e+01,5.000000000000000278e-02
-1.800454389490761864e+00,-7.517097212671065565e-01,7.789855892816530680e-01,1.000000000000000048e-04,4.350446054045404054e+01,5.000000000000000278e-02
-6.316139452018965095e-01,-9.553813433430174973e-01,4.576179847548780266e-01,1.000000000000000048e-04,4.207030029922685799e+01,5.000000000000000278e-02
-2.751832297083635304e+00,7.302675642614397944e-02,2.224498773609937530e-01,1.000000000000000048e-04,4.026385607052122140e+01,5.000000000000000278e-02
-9.452174434609825759e-01,-4.150460526964991903e-01,1.578714569633468123e-01,1.000000000000000048e-04,3.944099597625670128e+01,5.000000000000000278e-02
5.866716579615709470e-01,6.791743624560231396e-02,6.813523860873726967e-02,1.000000000000000048e-04,3.746288302704988382e+01,5.000000000000000278e-02
3.265313237090552434e-01,-2.216874520905269819e-01,7.208677196246731089e-01,1.000000000000000048e-04,4.329274781413804618e+01,5.000000000000000278e-02
4.104566979268122751e-01,-2.336343141315511129e-01,4.444193734558326003e-01,1.000000000000000048e-04,4.197735473284186725e+01,5.000000000000000278e-02
1.652252395013314334e+00,1.591316642439029039e-01,9.177279965478220003e-01,1.000000000000000048e-04,4.379809218545404548e+01,5.000000000000000278e-02
2.094274088543965462e+00,2.215986254990656157e-01,6.642460483374954539e-01,1.000000000000000048e-04,4.301264775363795678e+01,5.000000000000000278e-02
-1.738260836158813660e-01,-3.778216266237972576e-01,3.950946068330327687e-01,1.000000000000000048e-04,4.165944363180985022e+01,5.000000000000000278e-02
1.121483448069810152e+00,7.907759036446404544e-01,6.205662737635693205e-01,1.000000000000000048e-04,4.281341105256665003e+01,5.000000000000000278e-02
-1.986727177920579734e-01,3.760254018778763641e-01,6.836800659060919827e-01,1.000000000000000048e-04,4.308814406336018266e+01,5.000000000000000278e-02
2.998270850514510144e+00,9.324290933248331470e-01,4.770706773525623667e-01,1.000000000000000048e-04,4.206441585684160600e+01,5.000000000000000278e-02
1.344197250956561618e+00,-8.469710692342408143e-01,6.445814384498043115e-01,1.000000000000000048e-04,4.298415661622571093e+01,5.000000000000000278e-02
-1.990486082940124524e+00,-5.800187884221963408e-02,8.188696710623908359e-01,1.000000000000000048e-04,4.360053381039962517e+01,5.000000000000000278e-02
7.392764560054052581e-01,1.257834852636223744e-01,6.810143893649194258e-01,1.000000000000000048e-04,4.305931254299081701e+01,5.000000000000000278e-02
-1.966204023728954198e+00,-4.405823938499202619e-01,8.357843424871980176e-01,1.000000000000000048e-04,4.362183091189034201e+01,5.000000000000000278e-02
1.701349034892012391e-01,2.356552232303581462e-01,2.919820748085002471e-01,1.000000000000000048e-04,4.085781850672614013e+01,5.000000000000000278e-02
1.701445219201493941e+00,6.405883516411559064e-01,8.812200941154255673e-01,1.000000000000000048e-04,4.377953609693572190e+01,5.000000000000000278e-02
-1.206507552895093482e+00,8.216494697875873499e-01,9.321411180527416906e-01,1.000000000000000048e-04,4.397110979789543705e+01,5.000000000000000278e-02
1.756848942285116344e+00,-2.241002791299164798e-01,7.077053879380124091e-01,1.000000000000000048e-04,4.324126532756872621e+01,5.000000000000000278e-02
-2.371027031491945269e+00,2.911058503633137118e-01,8.613512118105541848e-01,1.000000000000000048e-04,4.371946418473238793e+01,5.000000000000000278e-02
1.595525644393477549e+00,1.376289757647096046e+00,5.128072086993809009e-01,1.000000000000000048e-04,4.232069657987184996e+01,5.000000000000000278e-02
-2.389678646183184707e+00,1.030484520913814706e+00,8.906935902101438263e-01,1.000000000000000048e-04,4.373622787352339003e+01,5.000000000000000278e-02
5.047956863013385309e-01,1.067124641580054600e+00,6.135034871398996614e-01,1.000000000000000048e-04,4.284959594369375679e+01,5.000000000000000278e-02
1.752056447357616342e+00,1.199124262588389112e-01,8.447390710571811567e-02,1.000000000000000048e-04,3.807148427770162868e+01,5.000000000000000278e-02
-1.476529871853033304e+00,1.036886310712917147e+00,7.552318523668757333e-01,1.000000000000000048e-04,4.329079469521823853e+01,5.000000000000000278e-02
1.435333176846630643e+00,-2.519046103048125929e-01,3.197412106324530878e-01,1.000000000000000048e-04,4.124439028801362639e+01,5.000000000000000278e-02
2.932731111063461960e+00,-6.387906785515728991e-02,4.490233790304765105e-01,1.000000000000000048e-04,4.188060662596745232e+01,5.000000000000000278e-02
1.561231882933584281e+00,3.681294087937665438e-01,2.464938751909093728e-01,1.000000000000000048e-04,4.046766628373255514e+01,5.000000000000000278e-02
1.898354891936750555e+00,-7.786193887503269906e-01,4.121201507113858575e-01,1.000000000000000048e-04,4.174312255719559772e+01,5.000000000000000278e-02
2.903329453369253521e+00,3.048560435128018220e-01,2.131291859748805084e-01,1.000000000000000048e-04,4.013363814267933094e+01,5.000000000000000278e-02
3.126001115908470851e+00,-5.997890537530295996e-01,5.034406833040159235e-01,1.000000000000000048e-04,4.234415324872816200e+01,5.000000000000000278e-02
1.625913386822555040e+00,1.139960212900168024e+00,4.859418951382070695e-01,1.000000000000000048e-04,4.217930114146373910e+01,5.000000000000000278e-02
2.672345055699758554e-01,2.593503465643580697e-01,5.475121740135173720e-01,1.000000000000000048e-04,4.252946632564873397e+01,5.000000000000000278e-02
-2.559060071681833914e+00,-2.806970356954674450e-02,7.216337051769305955e-01,1.000000000000000048e-04,4.318435829978147922e+01,5.000000000000000278e-02
2.836278238402996088e+00,-1.563242914696849617e-01,4.388021473494130298e-01,1.000000000000000048e-04,4.198266721064803875e+01,5.000000000000000278e-02
1.693252519980534387e+00,6.032590133659558873e-01,5.260346571763263590e-01,1.000000000000000048e-04,4.234167615650397920e+01,5.000000000000000278e-02
-2.684985830600864265e+00,-8.009062684623230455e-01,4.283979493412972683e-01,1.000000000000000048e-04,4.184608379607681883e+01,5.000000000000000278e-02
-4.837622877298088930e-01,-8.586662268465909964e-01,1.690600802271762237e-01,1.000000000000000048e-04,3.962421821642920605e+01,5.000000000000000278e-02
3.058665076038089126e+00,3.524241591751884339e-01,7.998204050197998960e-02,1.000000000000000048e-04,3.776028118018783175e+01,5.000000000000000278e-02
-2.348829006778157868e+00,-7.860694220859762993e-01,9.182158964683135860e-01,1.000000000000000048e-04,4.394561278540295035e+01,5.000000000000000278e-02
-4.884556352960256476e-03,-6.032533904265149349e-01,3.575596099934801320e-01,1.000000000000000048e-04,4.149737252997235259e+01,5.000000000000000278e-02
-2.586300136180829767e+00,-3.154761561931942460e-01,2.378192895751236602e-01,1.000000000000000048e-04,4.032299542969003170e+01,5.000000000000000278e-02
-2.523533816014373432e+00,1.233476427667073327e+00,5.879433962479490017e-01,1.000000000000000048e-04,4.269137812227843654e+01,5.000000000000000278e-02
-1.789964481553777409e+00,3.522798498305212966e-01,2.170651107030661109e-01,1.000000000000000048e-04,4.002198772320787867e+01,5.000000000000000278e-02
-2.408923574445935412e+00,-5.826095661273589243e-02,9.423479706590098814e-02,1.000000000000000048e-04,3.814633273318563766e+01,5.000000000000000278e-02
3.129895855166716423e+00,-1.388289795936989979e-01,8.365665874142644842e-01,1.000000000000000048e-04,4.356813226166663355e+01,5.000000000000000278e-02
-1.174904916171287450e+00,-1.228895321465086621e-01,9.237471699948709425e-01,1.000000000000000048e-04,4.391575760787470273e+01,5.000000000000000278e-02
-1.962474474756422449e+00,2.595129291569677754e-01,7.011555562823055254e-01,1.000000000000000048e-04,4.314536781356078876e+01,5.000000000000000278e-02
-2.799245629084914366e+00,-8.945232751261368298e-01,7.308187343161787197e-01,1.000000000000000048e-04,4.329582836070273544e+01,5.000000000000000278e-02
1.516230708693965035e+00,-3.479141879833367312e-01,3.289454738976465009e-01,1.000000000000000048e-04,4.120763797367429504e+01,5.000000000000000278e-02
-2.333982314220852228e+00,2.888077004437681339e-01,7.185790218230252435e-01,1.000000000000000048e-04,4.311599558285423939e+01,5.000000000000000278e-02
2.726859895269458711e+00,-6.539683675001439767e-02,6.622960786184006743e-01,1.000000000000000048e-04,4.308625435965175399e+01,5.000000000000000278e-02
-1.863621580390409038e+00,-8.068019746447699925e-01,4.586246997087295441e-01,1.000000000000000048e-04,4.205410460087465196e+01,5.000000000000000278e-02
-2.672466886734561342e+00,-4.533378789976592049e-01,7.234559029222427107e-01,1.000000000000000048e-04,4.326514312577389632e+01,5.000000000000000278e-02
-1.917496805549596672e+00,-4.339377784912752389e-01,7.824978715424868447e-01,1.000000000000000048e-04,4.348519469596234188e+01,5.000000000000000278e-02
-1.527336669868398111e+00,-8.323249423783307677e-01,6.495569845405011478e-01,1.000000000000000048e-04,4.291895166444519560e+01,5.000000000000000278e-02
4.705853752366611076e-01,-2.411732574400671236e-01,6.579122123096359243e-01,1.000000000000000048e-04,4.296930097079415845e+01,5.000000000000000278e-02
2.039925058694264770e+00,-1.064543992696673769e+00,6.764602864701187990e-01,1.000000000000000048e-04,4.313277179159048558e+01,5.000000000000000278e-02
-2.972496648016098142e+00,-3.722308588315688116e-01,9.378007184780492445e-01,1.000000000000000048e-04,4.401215675031622254e+01,5.000000000000000278e-02
-2.622993817939830663e+00,1.357189523159108901e+00,8.276579704450324204e-01,1.000000000000000048e-04,4.358210466989014265e+01,5.000000000000000278e-02
-4.671999796099246538e-02,-8.189901991653147917e-03,7.661981837593367928e-01,1.000000000000000048e-04,4.341615066535403855e+01,5.000000000000000278e-02
-3.130834626971322088e+00,2.065141199646953751e-01,3.792309574044809839e-01,1.000000000000000048e-04,4.150027096060200904e+01,5.000000000000000278e-02
-2.627451188977488528e+00,7.385980192453458493e-01,6.393914615182543226e-01,1.000000000000000048e-04,4.289351737922775243e+01,5.000000000000000278e-02
4.402516628485688699e-01,-3.498809171483117098e-01,8.541255134319254427e-01,1.000000000000000048e-04,4.367933899788089747e+01,5.000000000000000278e-02
-1.941699528706606115e+00,-1.884762714332000044e-01,9.141763317682995993e-01,1.000000000000000048e-04,4.383906658791768507e+01,5.000000000000000278e-02
1.691052968078587959e+00,-4.692125490135321542e-01,8.575949968682077262e-01,1.000000000000000048e-04,4.377614997486175952e+01,5.000000000000000278e-02
-2.804254476180263467e+00,1.291588538651316842e+00,4.002055919576834597e-01,1.000000000000000048e-04,4.161689337201718786e+01,5.000000000000000278e-02
2.084392941280338363e+00,-3.319242566762115043e-01,3.662857484286514698e-01,1.000000000000000048e-04,4.146485301274899626e+01,5.000000000000000278e-02
-9.427253874294345692e-01,2.426134410515869977e-01,3.364944090379275998e-01,1.000000000000000048e-04,4.121956766464163735e+01,5.000000000000000278e-02
-1.001909635111139618e+00,-7.004706806903285843e-01,2.163577627797395042e-01,1.000000000000000048e-04,4.017417696929229720e+01,5.000000000000000278e-02
6.676915174751316684e-01,-6.650805734977738304e-01,7.595096419238611674e-02,1.000000000000000048e-04,3.781212912827764683e+01,5.000000000000000278e-02
-2.066605528767111011e+00,8.502414541226528399e-01,6.430310409549344630e-01,1.000000000000000048e-04,4.288824529135865049e+01,5.000000000000000278e-02
7.849501833968548503e-01,7.111564152402523042e-01,3.610963198966539167e-01,1.000000000000000048e-04,4.143840320594464544e+01,5.000000000000000278e-02
1.782654576746002029e+00,9.462528645414480799e-01,1.029539784337945019e-01,1.000000000000000048e-04,3.832415332862412072e+01,5.000000000000000278e-02
1.348754947118740333e+00,1.202472962321980976e-01,1.754176305813333059e-01,1.000000000000000048e-04,3.978914489015086531e+01,5.000000000000000278e-02
-2.942309331580574838e+00,3.854517280123803680e-02,7.169605583585034747e-01,1.000000000000000048e-04,4.325834656501509556e+01,5.000000000000000278e-02
2.204305494467373450e+00,9.328020943297725687e-01,7.094573542194222426e-01,1.000000000000000048e-04,4.317355576361656233e+01,5.000000000000000278e-02
1.543841447381988807e+00,1.400738663284421648e+00,2.155894115883814077e-01,1.000000000000000048e-04,4.005649305234442181e+01,5.000000000000000278e-02
-1.503558467822556199e+00,-3.080557999093531674e-01,1.449967464439276821e-01,1.000000000000000048e-04,3.912840722102705371e+01,5.000000000000000278e-02
1.847005378560195865e-01,-8.665234087963693543e-01,2.810641863459197864e-01,1.000000000000000048e-04,4.078410601480430842e+01,5.000000000000000278e-02
-1.159546525027667974e+00,4.323490221957952961e-01,7.105039963675738868e-01,1.000000000000000048e-04,4.314061427266068449e+01,5.000000000000000278e-02
-3.089415874930859562e+00,-3.080550817485185888e-01,2.155994513553223246e-01,1.000000000000000048e-04,4.013381237019034131e+01,5.000000000000000278e-02
1.416883061755792816e+00,6.336542343113067410e-01,1.032724877825907939e-01,1.000000000000000048e-04,3.850206666922483834e+01,5.000000000000000278e-02
-2.576560893340727798e+00,1.844311248487020549e-01,4.633219323680568547e-01,1.000000000000000048e-04,4.205231122363164076e+01,5.000000000000000278e-02
1.691151588804759243e+00,-1.163541384668342893e-01,7.792626706204686116e-02,1.000000000000000048e-04,3.798809980684207943e+01,5.000000000000000278e-02
5.875906732472468974e-02,1.255068535255918771e-01,3.009489067659270045e-01,1.000000000000000048e-04,4.098618288197165072e+01,5.000000000000000278e-02
1.141974589521084660e+00,-1.679113750751115575e-02,1.280165768156142914e-01,1.000000000000000048e-04,3.902831968042568889e+01,5.000000000000000278e-02
-2.480527436175493428e+00,-6.498422147136692084e-01,5.520376077226878397e-01,1.000000000000000048e-04,4.259467923217836471e+01,5.000000000000000278e-02
-3.066944944257604000e+00,-4.512110650175131799e-01,1.231707127907819554e-01,1.000000000000000048e-04,3.887514946325352128e+01,5.000000000000000278e-02
2.438378489600633969e+00,3.547798690050907311e-01,3.320070962134977766e-01,1.000000000000000048e-04,4.121170654083429952e+01,5.000000000000000278e-02
1.172051411388955522e+00,8.353421432999956764e-01,4.448168140574579876e-01,1.000000000000000048e-04,4.190307864251339964e+01,5.000000000000000278e-02
2.618703325567891760e+00,4.580666903669503576e-01,1.285646183171695878e-01,1.000000000000000048e-04,3.890886924496440002e+01,5.000000000000000278e-02
-2.286548026254372701e+00,5.079619333508733625e-01,3.350541827990130006e-01,1.000000000000000048e-04,4.129394228297395841e+01,5.000000000000000278e-02
1.330912197240654571e+00,8.565470875896483705e-01,4.832852721106470906e-01,1.000000000000000048e-04,4.219188745110184158e+01,5.000000000000000278e-02
5.061027196895073743e-02,1.551076690421335780e-01,1.058945086370399746e-01,1.000000000000000048e-04,3.850340558360196042e+01,5.000000000000000278e-02
1.375906983020460217e+00,-7.875958009513883695e-02,2.447425521271473503e-01,1.000000000000000048e-04,4.047923640572877702e+01,5.000000000000000278e-02
-8.283030638719366401e-01,8.281477725175365734e-01,3.680273324812781688e-01,1.000000000000000048e-04,4.141294063092114897e+01,5.000000000000000278e-02
1.525038970461942256e+00,-3.919132446429645089e-01,6.981453190358184457e-01,1.000000000000000048e-04,4.320914932001360143e+01,5.000000000000000278e-02
-2.498784032149372614e-01,5.193609221174915191e-01,8.589714301610003044e-01,1.000000000000000048e-04,4.363086121064998935e+01,5.000000000000000278e-02
2.239128690923111620e+00,1.273583793462606639e+00,3.825384092269143999e-01,1.000000000000000048e-04,4.154936111404410326e+01,5.000000000000000278e-02
2.495809722497875249e+00,1.418695866007699813e-01,3.403431057515990954e-01,1.000000000000000048e-04,4.143702547337647246e+01,5.000000000000000278e-02
-1.112708199190671987e+00,-4.897152410228486907e-01,5.413666271214503389e-01,1.000000000000000048e-04,4.253762772025291383e+01,5.000000000000000278e-02
-2.406934629178334895e+00,4.969020464685414140e-01,3.672031818621381838e-01,1.000000000000000048e-04,4.145757470145515811e+01,5.000000000000000278e-02
-8.891278534497040198e-01,-4.027970683600694546e-01,7.308301436817814523e-01,1.000000000000000048e-04,4.336263962879523604e+01,5.000000000000000278e-02
6.932893236892518907e-01,6.230672258885738835e-01,2.953981257500704061e-01,1.000000000000000048e-04,4.098583376998813321e+01,5.000000000000000278e-02
1.609131613657807769e+00,6.474167799685730529e-01,4.586982859649930688e-01,1.000000000000000048e-04,4.197023291040123638e+01,5.000000000000000278e-02
1.635300292216271600e+00,7.268981805293828202e-01,4.093496860150038774e-01,1.000000000000000048e-04,4.178602478915180996e+01,5.000000000000000278e-02
2.877504815858082488e+00,-8.341407251905266218e-01,8.265146368576825608e-02,1.000000000000000048e-04,3.801505905363929116e+01,5.000000000000000278e-02
-1.976330624741532649e+00,2.799612226283469951e-01,1.704336357677311842e-01,1.000000000000000048e-04,3.954322508348035825e+01,5.000000000000000278e-02
1.292560460851963633e+00,1.402540810926085069e+00,6.821203085757137075e-01,1.000000000000000048e-04,4.307504513348389708e+01,5.000000000000000278e-02
-2.536557516356318320e+00,3.827731884947627172e-02,4.106579778266263858e-01,1.000000000000000048e-04,4.173521895678071303e+01,5.000000000000000278e-02
1.753433672024506507e+00,2.772373600306963226e-01,3.793363437619867717e-01,1.000000000000000048e-04,4.155842552527810341e+01,5.000000000000000278e-02
-9.143273490783476731e-01,5.190495094424769640e-01,1.531848033806273435e-01,1.000000000000000048e-04,3.917816741260497793e+01,5.000000000000000278e-02
-2.162220757262957260e+00,-4.372349367141414866e-02,1.321918585550212466e-01,1.000000000000000048e-04,3.892170985780285974e+01,5.000000000000000278e-02
3.981838192054798498e-01,3.518497661747055361e-02,8.235792250291842365e-01,1.000000000000000048e-04,4.360490583656089569e+01,5.000000000000000278e-02
2.646158762555126387e+00,-2.127723187493766321e-01,8.982067290614366151e-01,1.000000000000000048e-04,4.385887381470939062e+01,5.000000000000000278e-02
4.322002629726826584e-01,2.644532413689109074e-01,7.832038680896324934e-01,1.000000000000000048e-04,4.341160006853645825e+01,5.000000000000000278e-02
3.753819740866597421e-01,-4.540049066204547845e-01,5.756563456637575626e-02,1.000000000000000048e-04,3.715523167603967636e+01,5.000000000000000278e-02
-1.807440190713738071e+00,2.966582082052591218e-01,1.667005465092847860e-01,1.000000000000000048e-04,3.947689183484226305e+01,5.000000000000000278e-02
-2.528298614442190839e+00,-6.670532650336332692e-01,1.260458169738665202e-01,1.000000000000000048e-04,3.889805750899436276e+01,5.000000000000000278e-02
9.031773003438861025e-01,-4.320536948857123249e-02,3.146420302606129926e-01,1.000000000000000048e-04,4.110327893657632359e+01,5.000000000000000278e-02
-3.141149679276453721e+00,-2.689630591530729475e-01,4.695860126731850048e-01,1.000000000000000048e-04,4.215281110494941430e+01,5.000000000000000278e-02
-1.225791007679610800e-03,1.794457579141006676e-01,3.325840937685191623e-01,1.000000000000000048e-04,4.129840871070871344e+01,5.000000000000000278e-02
-2.730753105233802991e-01,-2.800249647596708691e-01,3.811499044877650899e-01,1.000000000000000048e-04,4.155734822210630597e+01,5.000000000000000278e-02
1.059883449052015258e+00,7.950578625191249138e-01,2.408648109341049448e-01,1.000000000000000048e-04,4.045546883408152183e+01,5.000000000000000278e-02
6.428754329999044614e-01,6.339502993419023902e-01,3.574305326934732463e-01,1.000000000000000048e-04,4.143315146856131292e+01,5.000000000000000278e-02
2.463177090277009817e+00,-8.450196529941707002e-01,6.922658923677054155e-01,1.000000000000000048e-04,4.317668688231272967e+01,5.000000000000000278e-02
1.056712967354759058e+00,7.499391837151341278e-01,5.658315082210161329e-01,1.000000000000000048e-04,4.272170137699259840e+01,5.000000000000000278e-02
2.560974174551951421e+00,1.390692452482396035e+00,8.999955381852176028e-01,1.000000000000000048e-04,4.380831120643424015e+01,5.000000000000000278e-02
-1.661488441321340215e+00,-8.294154033129190751e-01,2.613715268267415848e-01,1.000000000000000048e-04,4.057983924476911142e+01,5.000000000000000278e-02
-1.059149925670521686e+00,7.447586892284920879e-01,2.434351094550977201e-01,1.000000000000000048e-04,4.038894183455807507e+01,5.000000000000000278e-02
1.818114634610326519e+00,1.699293085113766644e-01,3.322795826122166840e-01,1.000000000000000048e-04,4.137393032104146329e+01,5.000000000000000278e-02
-1.162508293099762779e+00,6.033793918692746949e-01,4.068916933998201202e-01,1.000000000000000048e-04,4.183275204730242791e+01,5.000000000000000278e-02
2.075302418197421339e+00,4.979400383656717999e-02,7.408307566793972399e-01,1.000000000000000048e-04,4.318649054975765722e+01,5.000000000000000278e-02
2.486996191698520597e+00,-2.983316852438742117e-01,8.209213727874127287e-01,1.000000000000000048e-04,4.358377493789348023e+01,5.000000000000000278e-02
1.141698163793686938e+00,-1.222775091764410904e+00,3.724862718644812443e-01,1.000000000000000048e-04,4.165318804139026554e+01,5.000000000000000278e-02
-3.368950474050045329e-01,-4.464579855233103967e-01,4.077275659035712874e-01,1.000000000000000048e-04,4.177179540011943004e+01,5.000000000000000278e-02
-2.293285961193124223e+00,3.611746759802092477e-02,9.253458731110209001e-02,1.000000000000000048e-04,3.804829821940652579e+01,5.000000000000000278e-02
1.399839509659974723e-01,5.702146765211439927e-01,8.719033821846555732e-02,1.000000000000000048e-04,3.787537176867160582e+01,5.000000000000000278e-02
-9.928339341376060112e-01,-5.159645591420476407e-01,4.905951348651633737e-01,1.000000000000000048e-04,4.226024367311723040e+01,5.000000000000000278e-02
-1.444902459336051770e+00,-7.164211971086399400e-01,6.131774622966015276e-01,1.000000000000000048e-04,4.283786839968431082e+01,5.000000000000000278e-02
-1.262220966218428941e+00,-6.016997824853690391e-01,4.088118219882632687e-01,1.000000000000000048e-04,4.181656189490578868e+01,5.000000000000000278e-02
-2.550470913202064427e+00,-4.590998863205406622e-01,6.953193859141704181e-02,1.000000000000000048e-04,3.749820014222463271e+01,5.000000000000000278e-02
-1.717625830374947871e+00,1.611669740726395794e-01,8.702893165990042146e-01,1.000000000000000048e-04,4.374222486019758804e+01,5.000000000000000278e-02
-1.706038886156348022e+00,-3.709709024180216641e-01,1.961906516855662641e-01,1.000000000000000048e-04,3.979671239044763098e+01,5.000000000000000278e-02
1.229969187078920001e+00,1.060295960642716473e+00,2.590304999222257099e-01,1.000000000000000048e-04,4.061884250164252563e+01,5.000000000000000278e-02
7.996743877089684815e-01,-1.233526705379661692e-02,7.898680711202918925e-01,1.000000000000000048e-04,4.345027369950217633e+01,5.000000000000000278e-02
1.653057313477251711e+00,-3.404766703132862116e-01,3.590271147980492739e-01,1.000000000000000048e-04,4.142493155173220032e+01,5.000000000000000278e-02
-1.540362864552976108e+00,-5.169291210030757533e-02,3.505708005082586176e-01,1.000000000000000048e-04,4.131899142531437263e+01,5.000000000000000278e-02
2.446442468594756114e+00,1.448011854223585360e-01,7.900575009699086770e-01,1.000000000000000048e-04,4.353909155358457639e+01,5.000000000000000278e-02
3.033329709651891193e+00,-2.685396241910726900e-01,8.986597099928819166e-01,1.000000000000000048e-04,4.379035158410868434e+01,5.000000000000000278e-02
1.622553649277270971e+00,-1.054028265678556897e+00,3.662043852533569677e-01,1.000000000000000048e-04,4.146703681270906827e+01,5.000000000000000278e-02
1.208488670149281852e+00,5.158041423206927156e-01,8.821885516168104235e-01,1.000000000000000048e-04,4.378975941021046481e+01,5.000000000000000278e-02
2.514392799976360671e+00,1.566156388878852113e-01,1.506465160627228350e-01,1.000000000000000048e-04,3.930406992179116799e+01,5.000000000000000278e-02
5.390826169327223027e-01,-6.929237791172669914e-01,7.827836685006095419e-01,1.000000000000000048e-04,4.338781078194580942e+01,5.000000000000000278e-02
3.138218961086280956e+00,7.341927588353414080e-02,2.895819317537740023e-01,1.000000000000000048e-04,4.098054654673261155e+01,5.000000000000000278e-02
-6.112037927380780111e-01,-9.149498691729706090e-01,2.948462165467080620e-01,1.000000000000000048e-04,4.091920480800284565e+01,5.000000000000000278e-02
1.424477399854757742e-01,-9.680190946193534263e-01,7.244819766606731548e-01,1.000000000000000048e-04,4.330697533787085973e+01,5.000000000000000278e-02
-2.295494579238394284e+00,6.642250749848410685e-01,4.167771919024025884e-01,1.000000000000000048e-04,4.176972766080766775e+01,5.000000000000000278e-02
-3.691809665502088222e-02,-1.220666953632260965e+00,4.409912441755898804e-01,1.000000000000000048e-04,4.199983410019645902e+01,5.000000000000000278e-02
-2.155930428933330312e+00,2.782594830563605015e-01,6.425969138997456032e-01,1.000000000000000048e-04,4.295754464822672958e+01,5.000000000000000278e-02
-1.735350238816687929e+00,4.614496936294387730e-01,3.428500859119580912e-01,1.000000000000000048e-04,4.124877247130208957e+01,5.000000000000000278e-02
1.437114951793731166e+00,6.766506572062280789e-01,4.713760476782318243e-01,1.000000000000000048e-04,4.211823146427695974e+01,5.000000000000000278e-02
1.551000135537656810e+00,-4.505836594816334806e-01,1.509745627699801140e-01,1.000000000000000048e-04,3.940037090888117177e+01,5.000000000000000278e-02
2.012590461751289972e+00,-8.419287382565920907e-02,6.409100775916543036e-02,1.000000000000000048e-04,3.750782001005728716e+01,5.000000000000000278e-02
-2.281587984149184400e+00,-7.759429845124232727e-02,3.716978859019592907e-01,1.000000000000000048e-04,4.146088204854941495e+01,5.000000000000000278e-02
5.175381801826501871e-01,4.234991008931372480e-01,1.280509309168322840e-01,1.000000000000000048e-04,3.896639266547124691e+01,5.000000000000000278e-02
-1.949681049147820033e+00,2.309835161370796808e-01,3.982129384170864927e-01,1.000000000000000048e-04,4.164133718832528075e+01,5.000000000000000278e-02
5.155855883849072008e-01,-8.366226459442738239e-02,6.899335952171448128e-02,1.000000000000000048e-04,3.760404942995840827e+01,5.000000000000000278e-02
-1.810621965143765610e+00,4.908091462794459403e-01,3.382849336257132133e-01,1.000000000000000048e-04,4.125358203991550710e+01,5.000000000000000278e-02
-1.910541171765100854e+00,6.991388946424961226e-01,1.048762251924817424e-01,1.000000000000000048e-04,3.830640461960668830e+01,5.000000000000000278e-02
-3.099477954883882891e+00,-6.122759866865356004e-01,7.618176750517768880e-01,1.000000000000000048e-04,4.342129714337770707e+01,5.000000000000000278e-02
-4.758305137263985074e-01,-2.719427342602900310e-01,8.968710096852281488e-01,1.000000000000000048e-04,4.381171421817142431e+01,5.000000000000000278e-02
-3.079287859432509045e+00,2.027212651523164766e-01,2.749525686794698220e-01,1.000000000000000048e-04,4.078486797858961665e+01,5.000000000000000278e-02
-2.178261438614487844e+00,1.131286073486103216e+00,8.739583539106785537e-01,1.000000000000000048e-04,4.378789958123653037e+01,5.000000000000000278e-02
-1.057707744502288438e+00,4.321058542772058253e-01,2.700928062719734069e-01,1.000000000000000048e-04,4.067098553207576117e+01,5.000000000000000278e-02
-2.799144521354612891e+00,1.149036665970386117e+00,1.414466281160025041e-01,1.000000000000000048e-04,3.904937304185253311e+01,5.000000000000000278e-02
1.152193700133321563e+00,-1.000484791405695795e-01,5.276149542511374690e-01,1.000000000000000048e-04,4.240265613278452150e+01,5.000000000000000278e-02
1.430222067894610483e+00,8.523653805690667440e-01,6.841459528929267897e-01,1.000000000000000048e-04,4.308430344427198122e+01,5.000000000000000278e-02
2.818960047492502063e+00,-1.343518118639404069e-01,2.624561911294787109e-01,1.000000000000000048e-04,4.062822070576140021e+01,5.000000000000000278e-02
1.997218647703505212e+00,1.258969666004386312e+00,6.662913814727366990e-02,1.000000000000000048e-04,3.727148398614202307e+01,5.000000000000000278e-02
-2.305628998395218510e+00,1.904963759159845615e-01,4.457523463570147726e-01,1.000000000000000048e-04,4.201476845021554851e+01,5.000000000000000278e-02
-1.241232116436499888e+00,-5.387085659010015792e-01,7.720609345313838023e-01,1.000000000000000048e-04,4.342298301293359941e+01,5.000000000000000278e-02
-2.009983691935773642e+00,5.976566250101216227e-01,4.322564051703141619e-01,1.000000000000000048e-04,4.185905390107660651e+01,5.000000000000000278e-02
-2.417401339214614087e+00,6.331172577675032720e-01,1.704616446509634731e-01,1.000000000000000048e-04,3.955103970607503072e+01,5.000000000000000278e-02
1.134893564316838521e+00,-9.023508785633849172e-03,2.838238383465905290e-01,1.000000000000000048e-04,4.087759857426070198e+01,5.000000000000000278e-02
-1.998900909856522690e+00,1.867821511719145455e-01,4.458738901690435519e-01,1.000000000000000048e-04,4.196820836902766416e+01,5.000000000000000278e-02
9.982218189168001743e-01,-8.758743962036894537e-01,7.137519886047130058e-01,1.000000000000000048e-04,4.328201744167724740e+01,5.000000000000000278e-02
-1.099068296963796598e-01,-2.529610026290747271e-01,3.643727622761210316e-01,1.000000000000000048e-04,4.157601153653403259e+01,5.000000000000000278e-02
-1.905178049723814659e+00,6.050014939107519751e-01,1.406590210372493654e-01,1.000000000000000048e-04,3.901472434125013677e+01,5.000000000000000278e-02
-1.639423905201552012e+00,-1.469848056492105481e+00,5.247338336188132057e-01,1.000000000000000048e-04,4.245935987123736055e+01,5.000000000000000278e-02
1.162398177155876233e+00,-7.385166570876140479e-01,7.994092163843968812e-02,1.000000000000000048e-04,3.795126835872573423e+01,5.000000000000000278e-02
-8.101859814900977952e-01,4.248433309315027273e-01,4.497939477443011480e-01,1.000000000000000048e-04,4.195027845296223745e+01,5.000000000000000278e-02
-2.321834931697465798e+00,6.535761635277119730e-01,1.262217371755163242e-01,1.000000000000000048e-04,3.876804138840805791e+01,5.000000000000000278e-02
2.335462512349190334e+00,5.076161622648962535e-01,7.023762145303658055e-01,1.000000000000000048e-04,4.328779482394781297e+01,5.000000000000000278e-02
2.800525829426833369e+00,6.069421634242213592e-01,8.566059318120387012e-01,1.000000000000000048e-04,4.371195425222511943e+01,5.000000000000000278e-02
-1.993797202540871227e+00,4.916380649499365596e-01,7.750432081851443833e-02,1.000000000000000048e-04,3.759435023857329838e+01,5.000000000000000278e-02
2.862395499752254935e+00,7.645883726920383872e-01,7.057182937394399502e-01,1.000000000000000048e-04,4.314183275928117212e+01,5.000000000000000278e-02
2.432071905630974307e+00,1.070574918394247899e+00,6.803377595677864154e-01,1.000000000000000048e-04,4.309301273529213461e+01,5.000000000000000278e-02
3.118479991158481290e+00,-6.013041581806063407e-01,2.377180948342982880e-01,1.000000000000000048e-04,4.041326598867799191e+01,5.000000000000000278e-02
-4.689226383659113040e-01,-2.011152237905726725e-01,6.999289290783661244e-02,1.000000000000000048e-04,3.736391668870555804e+01,5.000000000000000278e-02
2.321557492664632072e+00,1.034265596008956400e-01,2.312772042587911692e-01,1.000000000000000048e-04,4.031689598036822986e+01,5.000000000000000278e-02
-2.416540588439130666e+00,-1.092934433071553801e+00,3.416698883942932419e-01,1.000000000000000048e-04,4.138982312584393242e+01,5.000000000000000278e-02
-1.055459256842743887e+00,4.774788071090014796e-01,5.268262860120369595e-01,1.000000000000000048e-04,4.238759436540880188e+01,5.000000000000000278e-02
-1.428323995042327432e+00,4.564306197175049817e-02,9.392781373219571961e-02,1.000000000000000048e-04,3.804701058033813865e+01,5.000000000000000278e-02
-1.900429995917283010e+00,8.520931645162441725e-01,9.186022745645083809e-01,1.000000000000000048e-04,4.388532979034731341e+01,5.000000000000000278e-02
1.860588887575703509e+00,5.067578919986206465e-01,5.899235579543427033e-01,1.000000000000000048e-04,4.261820718452873535e+01,5.000000000000000278e-02
3.128120310031736295e+00,1.982003450440190662e-01,2.859775297788764714e-01,1.000000000000000048e-04,4.086789064514760383e+01,5.000000000000000278e-02
-2.592134170957867578e+00,-6.952237739652539217e-01,3.318164293280116972e-01,1.000000000000000048e-04,4.125176196712524757e+01,5.000000000000000278e-02
1.274508090456823339e+00,-1.125791635984980887e+00,8.838961701257148640e-01,1.000000000000000048e-04,4.384933766653352905e+01,5.000000000000000278e-02
2.315775911646060337e+00,4.603399051958305677e-01,6.027313363630524279e-01,1.000000000000000048e-04,4.278539643298451978e+01,5.000000000000000278e-02
2.613578397065273506e+00,2.937691304967611217e-01,7.214152729376288598e-02,1.000000000000000048e-04,3.769332648594532742e+01,5.000000000000000278e-02
-1.473483067394758095e+00,1.243159656442483829e+00,7.007638899734691673e-01,1.000000000000000048e-04,4.311585878718696563e+01,5.000000000000000278e-02
-1.265332485145463259e+00,1.122212015891867587e+00,4.438060415231044331e-01,1.000000000000000048e-04,4.196431924728789653e+01,5.000000000000000278e-02
1.471854024761743318e+00,1.154120727067417640e+00,9.001739474569623312e-01,1.000000000000000048e-04,4.378535088375371487e+01,5.000000000000000278e-02
2.742686936540128073e+00,3.311195078888995447e-02,1.865829523252502398e-01,1.000000000000000048e-04,3.985621479878799533e+01,5.000000000000000278e-02
-2.849712704088709803e+00,4.438456965501629270e-01,8.051638397394822455e-01,1.000000000000000048e-04,4.360827092911277703e+01,5.000000000000000278e-02
1.424560517449555697e+00,5.385125129423626866e-01,5.785054275788659162e-02,1.000000000000000048e-04,3.713472515018499820e+01,5.000000000000000278e-02
-2.006764528985364393e+00,5.431191671912638519e-01,6.356576625317382767e-01,1.000000000000000048e-04,4.290777318266114548e+01,5.000000000000000278e-02
-1.815783785502550263e+00,-8.917651448884467147e-01,9.138685905152541533e-01,1.000000000000000048e-04,4.388388395649568707e+01,5.000000000000000278e-02
-2.528838629137845739e+00,-1.127064069625925313e+00,2.767808737346326708e-01,1.000000000000000048e-04,4.082275238265643935e+01,5.000000000000000278e-02
-5.889297825285431109e-01,-2.939426286839403879e-01,8.803385930856202357e-01,1.000000000000000048e-04,4.382134521497433610e+01,5.000000000000000278e-02
-1.570707545479412159e+00,4.995248517856749615e-01,3.471013093377863790e-01,1.000000000000000048e-04,4.130099320407489216e+01,5.000000000000000278e-02
6.706295318818398243e-01,-2.611083780500260687e-01,6.352312944751037360e-01,1.000000000000000048e-04,4.287358153674905026e+01,5.000000000000000278e-02
1.984376163927771941e+00,-1.216006448494533210e-01,2.407171447848599488e-01,1.000000000000000048e-04,4.050783938010317087e+01,5.000000000000000278e-02
-1.787717752532889115e-01,-5.063116222388461818e-01,1.804393859595836425e-01,1.000000000000000048e-04,3.969611200848896715e+01,5.000000000000000278e-02
-2.273468255638681157e+00,-8.277354269446296486e-01,3.557097634897317118e-01,1.000000000000000048e-04,4.141007077624738741e+01,5.000000000000000278e-02
7.773219356558502824e-01,-3.307206895829142290e-01,7.831187418956833124e-01,1.000000000000000048e-04,4.342557998885720139e+01,5.000000000000000278e-02
-6.910640774680678611e-01,3.692568054254397047e-02,1.301739316960801585e-01,1.000000000000000048e-04,3.884729849464185492e+01,5.000000000000000278e-02
-7.786964174765436120e-01,-5.496440795358501497e-01,5.691797206038817780e-01,1.000000000000000048e-04,4.262177192771003575e+01,5.000000000000000278e-02
-2.791216849806859024e+00,2.434601790933497156e-01,6.127126059196510433e-01,1.000000000000000048e-04,4.278437569341881641e+01,5.000000000000000278e-02
-9.661169267179112730e-01,-3.128432224901407377e-01,1.794937385740127400e-01,1.000000000000000048e-04,3.965904551462561045e+01,5.000000000000000278e-02
8.923807279827169481e-01,-5.503820191774402293e-01,2.340867827201893459e-01,1.000000000000000048e-04,4.043094600530667293e+01,5.000000000000000278e-02
2.822802229232465265e+00,-9.723818135358739401e-01,6.326572017954941174e-01,1.000000000000000048e-04,4.292645837596266034e+01,5.000000000000000278e-02
1.734189211951241205e+00,-1.322693938891607468e+00,6.550941332578419374e-01,1.000000000000000048e-04,4.309784474976377311e+01,5.000000000000000278e-02
4.704718304706640986e-01,7.147851460088343600e-01,5.452472514324437913e-01,1.000000000000000048e-04,4.258621142772083346e+01,5.000000000000000278e-02
-2.838176858903892708e+00,1.217228179447330305e+00,9.024200642011104279e-01,1.000000000000000048e-04,4.384906864304324614e+01,5.000000000000000278e-02
9.905689586574162320e-01,-3.953880403204967919e-01,3.374614412893961468e-01,1.000000000000000048e-04,4.131854945400899481e+01,5.000000000000000278e-02
-2.276477217866952785e+00,-1.719045519713069403e-01,3.055056370551127998e-01,1.000000000000000048e-04,4.096634543507521187e+01,5.000000000000000278e-02
1.259574957819215690e+00,-5.719451963474292411e-01,6.365931875098795878e-01,1.000000000000000048e-04,4.297652442948665907e+01,5.000000000000000278e-02
-7.505805309867641384e-02,-1.263058596183098903e+00,4.698335667875697119e-01,1.000000000000000048e-04,4.204355197171074821e+01,5.000000000000000278e-02
-2.499389252780052750e+00,-7.465910238582316172e-01,4.695806336708798767e-01,1.000000000000000048e-04,4.203995917003061322e+01,5.000000000000000278e-02
-2.152987296828045682e+00,-6.590809388437879335e-02,2.078753099692409734e-01,1.000000000000000048e-04,4.007565571698617646e+01,5.000000000000000278e-02
4.411402620619080395e-01,8.812332654287424738e-01,7.070796496973872358e-01,1.000000000000000048e-04,4.330459745776484937e+01,5.000000000000000278e-02
1.597607884470356510e+00,2.441605990856305919e-01,5.823288523664114091e-01,1.000000000000000048e-04,4.270973721175307958e+01,5.000000000000000278e-02
-2.281092968979376856e+00,3.531925695366051610e-01,9.219469678117364619e-01,1.000000000000000048e-04,4.390400287356922604e+01,5.000000000000000278e-02
-1.499414207246732467e+00,-7.281585810985851115e-01,3.658165169589189247e-01,1.000000000000000048e-04,4.144170006558307051e+01,5.000000000000000278e-02
-2.023632063407569071e+00,6.226036920444482092e-01,2.322653567549934905e-01,1.000000000000000048e-04,4.032667880581285402e+01,5.000000000000000278e-02
2.555466876150492617e+00,-4.203999261217274963e-01,6.482567555566431938e-01,1.000000000000000048e-04,4.293256513153906440e+01,5.000000000000000278e-02
-2.563824758143030458e+00,2.351229748535788033e-01,7.168331919255825913e-01,1.000000000000000048e-04,4.327634033284016368e+01,5.000000000000000278e-02
-1.213679047735794603e+00,-1.045302423273176018e+00,9.170920287548740557e-01,1.000000000000000048e-04,4.397117380547584276e+01,5.000000000000000278e-02
-2.745179371940270396e+00,-1.074239693004708229e-01,8.626375721273744634e-01,1.000000000000000048e-04,4.370715342395394742e+01,5.000000000000000278e-02
-6.204648571185211736e-02,1.176509330326321212e+00,1.822160596787252285e-01,1.000000000000000048e-04,3.969366173512581497e+01,5.000000000000000278e-02
2.817354036831516417e-01,-1.260753337960202725e+00,7.511387858847031751e-01,1.000000000000000048e-04,4.329222349259317326e+01,5.000000000000000278e-02
1.437847432377205692e+00,9.047018795620416221e-01,9.151180040974336016e-01,1.000000000000000048e-04,4.387191828340905175e+01,5.000000000000000278e-02
-1.845876814641937314e+00,-4.638001306595123108e-01,2.722225828121680458e-01,1.000000000000000048e-04,4.076432484537176038e+01,5.000000000000000278e-02
1.189747852635947289e+00,1.076256206851056163e-01,6.762090591894009961e-02,1.000000000000000048e-04,3.751008098745019481e+01,5.000000000000000278e-02
3.216120159962225777e-01,9.498661507524741587e-01,7.583737827447802893e-01,1.000000000000000048e-04,4.338378553832911422e+01,5.000000000000000278e-02
2.477430911824697546e+00,-4.406534930118994886e-01,2.304815430470406046e-01,1.000000000000000048e-04,4.039507916959772871e+01,5.000000000000000278e-02
3.002542210676678813e+00,-3.734816984049718069e-01,6.029419485340978824e-01,1.000000000000000048e-04,4.279802124793043561e+01,5.000000000000000278e-02
2.927101939144266751e+00,-5.431406622477832347e-01,5.148220252980790779e-01,1.000000000000000048e-04,4.236604187729815862e+01,5.000000000000000278e-02
-2.805863837023241381e-01,-3.299601507825455915e-01,7.820159024968145189e-01,1.000000000000000048e-04,4.341968680006870329e+01,5.000000000000000278e-02
-1.004162087284393934e+00,-1.197119286021321560e+00,8.186541767695802996e-01,1.000000000000000048e-04,4.359372496806871311e+01,5.000000000000000278e-02
1.849019184968211604e+00,-4.414480552362431975e-01,1.255426901074345736e-01,1.000000000000000048e-04,3.894401293653183416e+01,5.000000000000000278e-02
-1.785801292753216307e+00,-6.380977092486972424e-01,9.064235241935927334e-01,1.000000000000000048e-04,4.384620460850975832e+01,5.000000000000000278e-02
-3.748720121123478854e-01,4.714362040524058273e-01,5.369032001340179328e-01,1.000000000000000048e-04,4.252092927858976878e+01,5.000000000000000278e-02
1.117477709887904069e+00,-1.261583658149176834e+00,6.020431005841229144e-01,1.000000000000000048e-04,4.282314907444620644e+01,5.000000000000000278e-02
2.563780742372161470e+00,2.069669616771865339e-01,2.121756977647852871e-01,1.000000000000000048e-04,4.013062350383924581e+01,5.000000000000000278e-02
1.093670166079961703e+00,8.793504386123829342e-02,2.819450981805218248e-01,1.000000000000000048e-04,4.091352321866978059e+01,5.000000000000000278e-02
-1.583412318154774345e+00,6.051385436188296829e-01,6.285888954999883094e-01,1.000000000000000048e-04,4.286234715600024003e+01,5.000000000000000278e-02
-2.086735923637025536e+00,-3.354532517749451159e-01,3.271363350105538359e-01,1.000000000000000048e-04,4.119661810960130310e+01,5.000000000000000278e-02
1.348905739089667932e+00,5.539562701541567158e-02,8.039510275846184495e-01,1.000000000000000048e-04,4.358207846104066618e+01,5.000000000000000278e-02
-2.559175612414523293e+00,4.227439665238699185e-01,7.897195903875164902e-01,1.000000000000000048e-04,4.356561761493363605e+01,5.000000000000000278e-02
-1.640682105408112434e+00,1.108858807117044432e+00,8.143666719762490125e-01,1.000000000000000048e-04,4.342795145547044910e+01,5.000000000000000278e-02
-1.608983686834325244e+00,-2.942423663339310824e-01,9.392445956599397849e-01,1.000000000000000048e-04,4.386170150841608262e+01,5.000000000000000278e-02
1.649283805518679813e-01,-8.834355903330494142e-01,6.344970022264178056e-01,1.000000000000000048e-04,4.286581191024005477e+01,5.000000000000000278e-02
-2.818582134763107927e+00,6.880447937259432933e-01,6.916853035642800407e-02,1.000000000000000048e-04,3.739174593957032755e+01,5.000000000000000278e-02
-2.691291044023505385e+00,-1.341827477947058700e+00,6.011426026044817128e-01,1.000000000000000048e-04,4.283517400927364349e+01,5.000000000000000278e-02
7.790371932351587425e-01,8.793627365112492988e-01,8.664507171368789340e-01,1.000000000000000048e-04,4.367303758021733273e+01,5.000000000000000278e-02
-4.354992821673859815e-01,-3.528873525441560410e-01,3.855060756409403044e-01,1.000000000000000048e-04,4.160785857955773537e+01,5.000000000000000278e-02
-1.472065171926177252e+00,-1.548615127222998655e-01,9.307503108682568804e-01,1.000000000000000048e-04,4.391842375298633527e+01,5.000000000000000278e-02
-4.204721862394098508e-01,-8.373542273697132110e-02,8.717045539490100303e-01,1.000000000000000048e-04,4.360566458260640132e+01,5.000000000000000278e-02
-2.926529741203554025e+00,5.884225287755850964e-02,7.796810070276136706e-01,1.000000000000000048e-04,4.348590945932319585e+01,5.000000000000000278e-02
4.960398880788887688e-01,-2.868859048208847184e-01,1.384892580532393058e-01,1.000000000000000048e-04,3.912940355138783843e+01,5.000000000000000278e-02
1.255878532733223807e+00,2.199229308763994695e-01,3.544410159114017578e-01,1.000000000000000048e-04,4.150660702470811714e+01,5.000000000000000278e-02
-2.562800455609422379e+00,4.612039424627374373e-01,7.010614194769866359e-01,1.000000000000000048e-04,4.313622728838556952e+01,5.000000000000000278e-02
-1.812267214647177216e+00,3.419190494859505325e-01,1.674406861007606828e-01,1.000000000000000048e-04,3.948756053737835003e+01,5.000000000000000278e-02
2.974341049189681563e+00,4.900721499943143655e-01,8.180654262941777777e-01,1.000000000000000048e-04,4.366305151273819263e+01,5.000000000000000278e-02
3.060154744224271361e+00,-9.486685664521713468e-01,4.111155198604514727e-01,1.000000000000000048e-04,4.188157408135877091e+01,5.000000000000000278e-02
1.879900400710664776e+00,-2.395700468845645137e-01,9.055353608169438573e-01,1.000000000000000048e-04,4.383062044008983094e+01,5.000000000000000278e-02
1.888548371542850823e+00,8.909005685367472616e-01,4.474374672421903565e-01,1.000000000000000048e-04,4.195971679788426201e+01,5.000000000000000278e-02
-7.515514904825377762e-01,-2.408903000131508154e-01,6.802310908738704587e-01,1.000000000000000048e-04,4.314543860675193088e+01,5.000000000000000278e-02
2.625533980703772308e+00,6.330343673359464240e-01,7.009866915819957800e-01,1.000000000000000048e-04,4.315539315703082934e+01,5.000000000000000278e-02
-4.295246801154859462e-01,3.435520621980887590e-01,5.521630138107185282e-01,1.000000000000000048e-04,4.250198711756211623e+01,5.000000000000000278e-02
-2.522892552905702246e-01,-1.806064994816503066e-02,3.285734534039022048e-01,1.000000000000000048e-04,4.115782649396502535e+01,5.000000000000000278e-02
-4.641109557163112243e-01,6.543395298071530419e-02,5.989977164200732673e-01,1.000000000000000048e-04,4.272230907973004577e+01,5.000000000000000278e-02
1.461480762067285610e+00,-3.566778974750459685e-01,5.898245833974335994e-02,1.000000000000000048e-04,3.742764969240385398e+01,5.000000000000000278e-02
1.339903204098639833e+00,1.723340059531119906e-03,6.842400154644163734e-01,1.000000000000000048e-04,4.314175476560414779e+01,5.000000000000000278e-02
-2.071095457242646987e+00,-8.214923816883747953e-01,6.307271278409718462e-01,1.000000000000000048e-04,4.282952541479013320e+01,5.000000000000000278e-02
-2.917878275956614420e+00,-2.382848981359890761e-01,3.103075561393588977e-01,1.000000000000000048e-04,4.111437625393476480e+01,5.000000000000000278e-02
-1.654706056191819208e-01,-7.328580462732769973e-02,9.000286799192003251e-01,1.000000000000000048e-04,4.388442704615995638e+01,5.000000000000000278e-02
1.509687182973094011e-01,6.458825438763726723e-01,2.325664767827355650e-01,1.000000000000000048e-04,4.031658762989366807e+01,5.000000000000000278e-02
2.110351858569050165e+00,5.045368151470421836e-01,3.333919453971223579e-01,1.000000000000000048e-04,4.123504412997719015e+01,5.000000000000000278e-02
-5.208525187773354048e-01,-8.079313534547193365e-01,3.948452344742048314e-01,1.000000000000000048e-04,4.164807001052492552e+01,5.000000000000000278e-02
