7.014473677544876828e-01,5.864484995747685225e-01,1.620394717087700887e-01,1.000000000000000048e-04,3.961269272323360013e+01,1.700000000000000122e-01
1.302967723075604489e+00,1.351797855062170761e+00,9.006252890451225124e-01,1.000000000000000048e-04,4.370781711298565142e+01,1.600000000000000033e-01
-3.923933266239223450e-01,8.893487655233247580e-01,2.301789852623097321e-01,1.000000000000000048e-04,4.005529030344407460e+01,1.600000000000000033e-01
-5.480403193986207455e-01,-1.593028603104262864e-01,3.625908194415046193e-01,1.000000000000000048e-04,4.162751032149623853e+01,1.600000000000000033e-01
-1.586668568145646940e+00,3.311670190394622182e-02,2.850309695667925247e-01,1.000000000000000048e-04,4.070809273931224936e+01,1.900000000000000022e-01
4.358845060197138466e-01,-1.192820296386817747e+00,1.637563043149328212e-01,1.000000000000000048e-04,3.972907320442679691e+01,1.600000000000000033e-01
-2.115012218573708580e-02,-1.324617928820906787e+00,1.839847260273090868e-01,1.000000000000000048e-04,3.962901695149929537e+01,1.700000000000000122e-01
1.825968835570201065e+00,-1.104325693851549772e+00,6.982431402432580647e-01,1.000000000000000048e-04,4.296184525841150048e+01,1.600000000000000033e-01
2.757348861294723008e+00,5.630221730161970584e-01,4.900515045845317275e-01,1.000000000000000048e-04,4.215009752772694895e+01,1.600000000000000033e-01
-1.126604928690488894e+00,3.694147785779178239e-01,2.040306411842676138e-01,1.000000000000000048e-04,4.006457034294005837e+01,2.200000000000000011e-01
1.566299762825075881e+00,-1.088603715685210860e+00,4.351593880264166270e-01,1.000000000000000048e-04,4.185952354740329184e+01,8.999999999999999667e-02
2.855203120993564880e+00,1.736420766300403873e-01,3.447927293775376878e-01,1.000000000000000048e-04,4.138058956088132589e+01,8.000000000000000167e-02
1.228874573854055186e-02,-1.054644203117417689e+00,1.634575220276661689e-01,1.000000000000000048e-04,3.956571010764982077e+01,1.100000000000000006e-01
-6.231527365570865840e-03,-2.083968800959563605e-01,5.454808869014471373e-01,1.000000000000000048e-04,4.279396256501507878e+01,1.600000000000000033e-01
2.456748239703069991e+00,-7.991053830713734651e-01,1.272517359808049697e-01,1.000000000000000048e-04,3.910678613565541895e+01,1.300000000000000044e-01
1.703179686801885140e+00,8.291833143958511343e-01,6.104492667169179043e-01,1.000000000000000048e-04,4.272292676187311145e+01,8.999999999999999667e-02
3.253969406006911314e-01,4.489829946179679787e-01,5.266030216456714097e-01,1.000000000000000048e-04,4.264625092297166020e+01,2.099999999999999922e-01
-4.755261200963984969e-01,-8.173307103538097751e-01,1.919878008546396231e-01,1.000000000000000048e-04,4.027611729955955866e+01,1.799999999999999933e-01
-3.080764820789935854e+00,-6.186697216446268577e-02,6.385822942887209308e-01,1.000000000000000048e-04,4.291431820821199494e+01,1.600000000000000033e-01
6.822875810572779365e-01,1.436044431583928915e+00,2.208423131508481241e-01,1.000000000000000048e-04,4.007771247045555185e+01,1.799999999999999933e-01
-1.537126348295388079e+00,-6.575494237326395819e-03,4.545699618960816757e-01,1.000000000000000048e-04,4.192019042659948980e+01,1.600000000000000033e-01
-1.031434784285258477e+00,1.213631324561131652e+00,5.050781108005950593e-01,1.000000000000000048e-04,4.206705121337398623e+01,2.000000000000000111e-01
1.477576135897664678e+00,1.259806704387091081e+00,2.034851556649870385e-01,1.000000000000000048e-04,4.006590444344630697e+01,1.700000000000000122e-01
2.652845559609176007e+00,2.364503438720122475e-02,4.168904175894860842e-01,1.000000000000000048e-04,4.169928662857325463e+01,1.700000000000000122e-01
1.076671804239547114e+00,-1.999321471600750133e-01,1.242449000267752623e+00,1.000000000000000048e-04,4.465662813413371879e+01,1.700000000000000122e-01
2.479304945942475413e-01,6.157153585726886647e-01,3.440430432303296371e-01,1.000000000000000048e-04,4.157485070105611413e+01,2.000000000000000111e-01
-2.297153395904398820e-01,-6.899219251289110399e-01,1.244778993918357557e+00,1.000000000000000048e-04,4.432471323016894615e+01,1.900000000000000022e-01
5.182848754564033378e-01,-9.916016431585452651e-01,5.697294604308833499e-01,1.000000000000000048e-04,4.270481396634203008e+01,1.700000000000000122e-01
-1.012203449050441684e+00,-1.209418519181002960e+00,1.036200235099235201e+00,1.000000000000000048e-04,4.433273617781451037e+01,1.000000000000000056e-01
-2.431119393112467719e+00,1.123696240956019388e+00,1.746800069916525366e-01,1.000000000000000048e-04,3.952902507408673216e+01,1.000000000000000056e-01
-2.106970082567208635e+00,5.487392234722836548e-01,3.639589013121138361e-01,1.000000000000000048e-04,4.124915707798725606e+01,1.100000000000000006e-01
-1.562837052060520593e+00,-3.678514533784877916e-01,1.404466744194281524e-01,1.000000000000000048e-04,3.896763529832521300e+01,1.199999999999999956e-01
-9.610268223994791192e-01,-7.230456568154035590e-01,3.239296802932689623e-01,1.000000000000000048e-04,4.110282467741628665e+01,1.300000000000000044e-01
-2.826615346455997990e+00,3.127677528854357902e-01,2.804729152059135533e-01,1.000000000000000048e-04,4.081334681487660276e+01,1.199999999999999956e-01
1.613050640909113653e+00,-7.479323264338189059e-01,9.004900853213153589e-01,1.000000000000000048e-04,4.388027008500480264e+01,1.499999999999999944e-01
1.927121071348518733e+00,-8.099855920709964074e-02,3.369552268893565294e-01,1.000000000000000048e-04,4.138339297865191213e+01,2.200000000000000011e-01
-2.832847311550488634e+00,5.011632487983010975e-01,5.476381233111475844e-01,1.000000000000000048e-04,4.241075582704883118e+01,1.199999999999999956e-01
1.192752284841422039e+00,-1.007792837372956107e-01,8.311972316601323740e-01,1.000000000000000048e-04,4.382590242962746174e+01,1.600000000000000033e-01
-1.584872261272076699e-01,6.096924311606666258e-01,4.551441008861589754e-01,1.000000000000000048e-04,4.170488188400116059e+01,2.200000000000000011e-01
-2.398862468622330102e+00,-4.361306103069684248e-02,7.568334647079273392e-01,1.000000000000000048e-04,4.346625810099992293e+01,2.200000000000000011e-01
-8.797912013079551841e-01,-2.226632716458001315e-01,6.402283981397194346e-01,1.000000000000000048e-04,4.301965368902300924e+01,1.300000000000000044e-01
2.562112891306642659e+00,-9.859378914157623797e-02,2.581073664787838506e-01,1.000000000000000048e-04,4.066301604727302532e+01,1.600000000000000033e-01
-1.862910528516672493e+00,4.439528995551187407e-01,5.403347636659763253e-01,1.000000000000000048e-04,4.211885313809577980e+01,2.099999999999999922e-01
2.764725582466478926e+00,-8.861766302924645178e-01,1.188525092492789259e-01,1.000000000000000048e-04,3.878750620448315800e+01,2.000000000000000111e-01
-1.614544286763280656e+00,4.624678188691353498e-01,7.672812372032158379e-01,1.000000000000000048e-04,4.347175545150224707e+01,2.000000000000000111e-01
-2.187026447478326752e+00,9.735560064759263277e-02,3.678264820406076385e-01,1.000000000000000048e-04,4.149414755256562160e+01,2.500000000000000000e-01
-2.913462014890328966e-01,-4.739391670350630026e-01,3.150240741788008503e-01,1.000000000000000048e-04,4.105602354429876044e+01,2.200000000000000011e-01
2.221021539657064281e+00,-8.317867494279381768e-01,4.407008736443598362e-01,1.000000000000000048e-04,4.207558968962202783e+01,1.199999999999999956e-01
-1.394340890945607869e+00,3.131073246392317433e-01,6.672384506420265815e-01,1.000000000000000048e-04,4.294570210261532850e+01,1.400000000000000133e-01
-3.006639138636368447e+00,-5.198144158195874276e-01,2.328196242730526944e-01,1.000000000000000048e-04,4.014399785717493785e+01,1.400000000000000133e-01
-2.587449348377147018e+00,-8.575602127841986944e-01,2.102819598416338920e-01,1.000000000000000048e-04,4.006852295138715903e+01,1.100000000000000006e-01
1.981097185399233851e+00,1.232924598233675617e-01,9.854762558163234765e-01,1.000000000000000048e-04,4.416841613984398407e+01,1.199999999999999956e-01
1.679137792881558511e+00,5.509790394444640249e-01,1.855351190563183650e-01,1.000000000000000048e-04,3.996886071895200132e+01,2.000000000000000111e-01
-5.418457224274662032e-01,6.112852598361238066e-01,3.543342236086368668e-01,1.000000000000000048e-04,4.138225331637120519e+01,1.199999999999999956e-01
-7.259767900468379054e-01,3.592222879870916596e-01,3.412298782359370897e-01,1.000000000000000048e-04,4.108487680578133450e+01,1.499999999999999944e-01
-3.014311044562152819e+00,-1.109370212709416936e+00,3.474524758643711131e-01,1.000000000000000048e-04,4.142475237796627852e+01,1.499999999999999944e-01
4.089378759682342768e-01,-4.545165431772548725e-01,7.755892456512782918e-01,1.000000000000000048e-04,4.331786878495898918e+01,1.100000000000000006e-01
5.069677950440056868e-01,-7.592996080948336557e-01,2.567711495827551538e-01,1.000000000000000048e-04,4.070668940990353946e+01,1.199999999999999956e-01
-1.493257035115718168e-01,-7.073727601600080517e-01,1.910079314405934703e-01,1.000000000000000048e-04,3.973694192957508164e+01,1.300000000000000044e-01
4.042043828865544697e-01,9.407118685349553644e-01,5.516640097183544977e-01,1.000000000000000048e-04,4.278431785406640842e+01,1.300000000000000044e-01
8.905313163691950251e-01,-3.824231345008954897e-01,1.712557297127350608e-01,1.000000000000000048e-04,3.985291038830337129e+01,1.100000000000000006e-01
2.030171185553312441e+00,-2.636926551929250628e-01,5.049225461443016538e-01,1.000000000000000048e-04,4.239619892369066889e+01,1.600000000000000033e-01
-3.054289385922928091e+00,-1.373236924533355552e+00,6.992471136467564019e-01,1.000000000000000048e-04,4.319611420694452875e+01,1.199999999999999956e-01
2.179293112620513284e+00,-1.012605809511595290e-01,1.077886442172989234e+00,1.000000000000000048e-04,4.403612780912158797e+01,1.300000000000000044e-01
-1.818513214778816334e-01,-5.912285132736497806e-01,5.688285495029183902e-01,1.000000000000000048e-04,4.253005139576665528e+01,1.199999999999999956e-01
6.375524488641279852e-01,8.788616884462263634e-01,2.215253798888614511e-01,1.000000000000000048e-04,4.042123563738601177e+01,1.700000000000000122e-01
8.621928931077302849e-01,-1.163063977741379373e+00,4.193383455074133348e-01,1.000000000000000048e-04,4.175731271988325943e+01,1.100000000000000006e-01
-7.350823636745751344e-02,-6.782932919692421514e-01,5.805670641268778631e-01,1.000000000000000048e-04,4.247998718617014902e+01,1.100000000000000006e-01
-1.454814590256482854e+00,-1.228846798322457801e+00,9.166405922589635491e-01,1.000000000000000048e-04,4.376548723535455565e+01,1.199999999999999956e-01
-1.421197772342434051e+00,-1.375091708726561279e-01,3.733503544344591862e-01,1.000000000000000048e-04,4.146224264770029322e+01,1.499999999999999944e-01
9.749532850361113390e-01,-5.204804269086404922e-02,3.436824436910228542e-01,1.000000000000000048e-04,4.138435167348678334e+01,1.199999999999999956e-01
-1.132842766944852642e-01,-4.422583997605415984e-01,1.280621907583471053e+00,1.000000000000000048e-04,4.473342728484325903e+01,1.400000000000000133e-01
-3.056535106953333081e+00,1.344919224150974646e+00,1.605681926523441216e-01,1.000000000000000048e-04,3.945278443281117831e+01,1.199999999999999956e-01
-2.005602683639951866e+00,-1.166499766855632725e+00,5.070961965635314428e-01,1.000000000000000048e-04,4.227132325961224524e+01,1.100000000000000006e-01
-3.526307343405612471e-01,1.752795945662954935e-01,2.469402764392258920e-01,1.000000000000000048e-04,4.040571779624237081e+01,1.100000000000000006e-01
-1.348293440531133092e+00,7.985854139769892335e-01,1.299586023718125816e+00,1.000000000000000048e-04,4.475302435478351271e+01,1.300000000000000044e-01
-1.213894172049138076e+00,-2.852358835225650147e-01,6.677610473250554790e-01,1.000000000000000048e-04,4.291362938202469479e+01,1.400000000000000133e-01
8.732660054607945810e-01,6.822354357042561546e-01,1.141077476773286747e+00,1.000000000000000048e-04,4.453845685288796830e+01,1.199999999999999956e-01
-1.607655209461439805e+00,7.571788988627106143e-01,7.158854501032638762e-01,1.000000000000000048e-04,4.318692801616325028e+01,1.100000000000000006e-01
-2.713126166379401294e+00,-2.574509516152700961e-01,1.307475644342872112e+00,1.000000000000000048e-04,4.488586144045245874e+01,1.199999999999999956e-01
2.614015407650885692e+00,-8.210973321469494657e-02,4.759542463494594866e-01,1.000000000000000048e-04,4.222388484178391366e+01,1.199999999999999956e-01
-2.847948132030951651e+00,-8.358172871610102250e-01,2.295330723063084832e-01,1.000000000000000048e-04,4.042660843467475473e+01,1.300000000000000044e-01
1.971705900186812244e+00,-1.120352268660631090e+00,6.481074154511656804e-01,1.000000000000000048e-04,4.316036623703108432e+01,1.199999999999999956e-01
3.061705636712500400e+00,1.381234211660103295e+00,1.017954746698736201e+00,1.000000000000000048e-04,4.435641863056858369e+01,1.100000000000000006e-01
4.542615533770746339e-01,-7.864437963028895195e-01,3.471240594709916749e-01,1.000000000000000048e-04,4.129296978209522706e+01,1.199999999999999956e-01
-1.921359511030428457e+00,5.801735913351881990e-01,3.430619121738216482e-01,1.000000000000000048e-04,4.106063389886549686e+01,1.700000000000000122e-01
3.072868719087612277e+00,-1.016074172211964832e-01,2.675567768868278851e-01,1.000000000000000048e-04,4.075174007394040387e+01,1.400000000000000133e-01
2.737775149496036953e+00,-2.697624833999385796e-01,1.608347116330288706e-01,1.000000000000000048e-04,3.940654682650480822e+01,1.199999999999999956e-01
6.976246303585504904e-01,4.885611026279601532e-04,2.155520523141862821e-01,1.000000000000000048e-04,4.028307208736536182e+01,1.600000000000000033e-01
-2.148159174634036273e+00,9.413220813202727300e-03,4.422014049846578754e-01,1.000000000000000048e-04,4.201667043844022231e+01,1.700000000000000122e-01
-1.948986061243360712e+00,-6.625077090584822193e-01,1.181512981003133955e+00,1.000000000000000048e-04,4.452003737523996563e+01,1.499999999999999944e-01
2.726441487906066108e-01,7.264564034225906575e-01,6.908870544712826245e-01,1.000000000000000048e-04,4.308929126933646359e+01,1.100000000000000006e-01
1.047171169166579929e+00,5.287936315571584167e-02,5.308691870610036112e-01,1.000000000000000048e-04,4.236288273772598956e+01,2.000000000000000111e-01
3.118501649208511139e+00,-2.375071696051449521e-01,3.260136446483870021e-01,1.000000000000000048e-04,4.099933793816552452e+01,1.300000000000000044e-01
-2.374603185929139215e+00,3.679601666477374522e-01,1.539204604246644514e-01,1.000000000000000048e-04,3.937164142293850944e+01,1.499999999999999944e-01
2.114024298748328867e+00,-4.593425737164673617e-01,3.003286142890937427e-01,1.000000000000000048e-04,4.103534927895692164e+01,1.100000000000000006e-01
-2.320915599482940905e+00,1.988838273369935017e-01,6.689868308873492264e-01,1.000000000000000048e-04,4.303395552056756657e+01,1.199999999999999956e-01
-2.815153187107107602e+00,4.622985199720814897e-01,2.620998338581890241e-01,1.000000000000000048e-04,4.046751094840752216e+01,1.100000000000000006e-01
2.952244566918561297e+00,-7.508141388646828451e-01,3.907608592334685937e-01,1.000000000000000048e-04,4.154733524335212280e+01,1.100000000000000006e-01
-3.374266285956837308e-01,7.044522283616352354e-01,8.063843766663605361e-01,1.000000000000000048e-04,4.312752112290250750e+01,2.099999999999999922e-01
-1.438166512416775511e+00,4.104046296017003215e-01,3.996207640719202647e-01,1.000000000000000048e-04,4.180516402847747059e+01,1.199999999999999956e-01
-1.822708613089585095e+00,-7.101873545729736614e-01,6.722909400423877635e-01,1.000000000000000048e-04,4.302364775174909539e+01,1.199999999999999956e-01
-2.816444573890819036e+00,-1.764476122967257865e-01,7.973045193519099350e-01,1.000000000000000048e-04,4.364585780746765664e+01,1.199999999999999956e-01
2.460934302317292044e+00,-4.404363116217835383e-01,5.311127645805517883e-01,1.000000000000000048e-04,4.247657737519473642e+01,1.700000000000000122e-01
1.918092981958550602e+00,1.074988334882631680e-01,4.212177158569510027e-01,1.000000000000000048e-04,4.173246351754020367e+01,1.100000000000000006e-01
7.937998717517396052e-01,2.507970887583219621e-01,5.326010251259145623e-01,1.000000000000000048e-04,4.247964220353919984e+01,2.099999999999999922e-01
-2.578006931546068081e+00,6.577013108699971689e-01,3.924816031356330726e-01,1.000000000000000048e-04,4.164352218498982694e+01,1.300000000000000044e-01
7.663039676851082227e-01,3.357248081528789729e-01,6.128790055379287338e-01,1.000000000000000048e-04,4.298302956567508204e+01,1.199999999999999956e-01
3.753591891880159181e-01,4.193049279667215856e-02,4.897178862165931790e-01,1.000000000000000048e-04,4.214269870440534760e+01,1.300000000000000044e-01
-1.903703978239519756e+00,5.293556814293536306e-01,7.740294298919490057e-01,1.000000000000000048e-04,4.327348125022336234e+01,1.799999999999999933e-01
-3.552287047696101041e-01,-2.136475167893372440e-01,6.855183540441507350e-01,1.000000000000000048e-04,4.291404870494975654e+01,1.199999999999999956e-01
2.224677837051598495e+00,1.092858857494189095e+00,1.868711485303435893e-01,1.000000000000000048e-04,3.966733361204232011e+01,1.199999999999999956e-01
-2.241038130818121310e+00,-2.119790848266476235e-01,5.688678477058235483e-01,1.000000000000000048e-04,4.263068522379948178e+01,1.900000000000000022e-01
-1.354329480418589693e+00,2.806181630628439283e-01,4.994564061333977012e-01,1.000000000000000048e-04,4.198603089394046606e+01,1.300000000000000044e-01
-1.057588587286057091e+00,6.017420559768158483e-01,3.043055636368501293e-01,1.000000000000000048e-04,4.098227663452736635e+01,1.499999999999999944e-01
4.491861142188926515e-01,2.837952402894783344e-01,7.954766054514137430e-01,1.000000000000000048e-04,4.347144463854758811e+01,1.499999999999999944e-01
1.175620301473101037e+00,1.258375445844042151e-01,1.904712824736749521e-01,1.000000000000000048e-04,3.982736647803235996e+01,1.400000000000000133e-01
-7.513092899161510907e-01,-3.674048284417288368e-01,1.018369145227555617e+00,1.000000000000000048e-04,4.428474789029472447e+01,1.400000000000000133e-01
-7.646998716055293244e-01,1.464203856122192615e-01,7.136489509228385320e-01,1.000000000000000048e-04,4.317431383476904472e+01,1.199999999999999956e-01
-2.626744165467850056e+00,-8.785961859603380608e-01,4.849002547188270285e-01,1.000000000000000048e-04,4.216744846810041736e+01,1.199999999999999956e-01
-2.016448155728231217e+00,-2.627153207091850184e-01,5.302241585488212117e-01,1.000000000000000048e-04,4.241659180576145616e+01,1.100000000000000006e-01
-2.138176314246587939e+00,-5.638412854565995058e-01,2.353270908173634712e-01,1.000000000000000048e-04,4.040805670309320874e+01,1.100000000000000006e-01
-1.366613590788382515e+00,6.471151472122240733e-01,1.313478129482904322e+00,1.000000000000000048e-04,4.466573305667059657e+01,1.400000000000000133e-01
2.538719807596018008e+00,-9.410277887251550233e-02,3.220088204631212925e-01,1.000000000000000048e-04,4.114425011859076875e+01,1.499999999999999944e-01
-2.023904308804601815e+00,8.729868465496055663e-01,8.209805912858954002e-01,1.000000000000000048e-04,4.366400605608929197e+01,1.199999999999999956e-01
5.023498084903148531e-01,-2.486827972934406716e-01,2.619343856253011360e-01,1.000000000000000048e-04,4.071222396513384467e+01,2.099999999999999922e-01
1.559827382841332266e-01,-1.155309768997138553e+00,5.292622110915665701e-01,1.000000000000000048e-04,4.243882035128894614e+01,1.300000000000000044e-01
-4.278509243084283042e-01,-3.574471520142576964e-01,8.024184644711707115e-01,1.000000000000000048e-04,4.352037888372913699e+01,1.400000000000000133e-01
-1.694690166003052445e+00,-3.708191863609464622e-01,7.654288242361282357e-01,1.000000000000000048e-04,4.330216210806126043e+01,1.199999999999999956e-01
2.538778453861804785e+00,9.704233759320217700e-01,3.971377393893307239e-01,1.000000000000000048e-04,4.157006051809188563e+01,1.199999999999999956e-01
-1.381884441670471642e+00,4.281931760594066549e-01,3.778781293643205252e-01,1.000000000000000048e-04,4.157436010529201553e+01,1.100000000000000006e-01
-2.672216891299283859e-02,9.118763706695109938e-01,1.829040841617453061e-01,1.000000000000000048e-04,3.942182074622077437e+01,1.300000000000000044e-01
2.965865485669832324e+00,4.200332370952282179e-01,1.513783055353956630e-01,1.000000000000000048e-04,3.933628890652586563e+01,1.199999999999999956e-01
-4.229747032796589146e-01,-8.108785394143267489e-01,2.880944325870105072e-01,1.000000000000000048e-04,4.072000400220652239e+01,1.199999999999999956e-01
-1.545687782139806954e+00,-5.719341936539013016e-01,2.279611065247302282e-01,1.000000000000000048e-04,4.032067085952129304e+01,1.300000000000000044e-01
-1.452358887930712550e+00,-7.162442650868141580e-01,1.946160347360110787e-01,1.000000000000000048e-04,4.006747242066032300e+01,1.300000000000000044e-01
-7.771146863738715993e-01,-2.871071625498133884e-01,1.285940635060270232e+00,1.000000000000000048e-04,4.484526390987290512e+01,1.199999999999999956e-01
-9.648670127917484685e-01,2.757725798248578108e-02,8.104444345398273963e-01,1.000000000000000048e-04,4.369543385562546689e+01,1.199999999999999956e-01
-1.080134202816299016e+00,7.077474480204277718e-01,6.535260579715878038e-01,1.000000000000000048e-04,4.293461645777035329e+01,1.300000000000000044e-01
-2.063199328051985137e+00,-4.796316694849922513e-02,7.188825787662096456e-01,1.000000000000000048e-04,4.336345316172339892e+01,1.199999999999999956e-01
-2.814667853035916156e+00,5.032431420889516005e-02,5.251898047958065696e-01,1.000000000000000048e-04,4.220148047314336992e+01,1.199999999999999956e-01
-4.676036249605424189e-01,3.106227460656147965e-01,4.771739096140401593e-01,1.000000000000000048e-04,4.193856659569016898e+01,1.199999999999999956e-01
3.453073243115261093e-01,-2.010307603005740962e-01,1.045391541071455599e+00,1.000000000000000048e-04,4.400276046096969651e+01,1.499999999999999944e-01
-1.017989823782821990e+00,-2.038493559104872510e-01,1.229696583935026677e+00,1.000000000000000048e-04,4.456883390128580658e+01,1.199999999999999956e-01
2.006719454486001197e+00,-7.777926521764617629e-01,1.380056913537257568e-01,1.000000000000000048e-04,3.884449394891714036e+01,2.000000000000000111e-01
3.811823289006177617e-01,-2.021379059185781646e-01,6.752132021382932781e-01,1.000000000000000048e-04,4.282734698999642120e+01,2.000000000000000111e-01
1.176755497139009954e+00,3.656129167709583072e-01,3.677193622766226078e-01,1.000000000000000048e-04,4.170458687516932628e+01,1.400000000000000133e-01
-3.322021019463798908e-01,-7.964331515258110672e-01,4.578890907810218014e-01,1.000000000000000048e-04,4.195900726255194968e+01,1.199999999999999956e-01
1.488638341145998467e+00,-5.802176646517244185e-01,6.952658638654376499e-01,1.000000000000000048e-04,4.316611513774761022e+01,1.300000000000000044e-01
1.324859451525673748e+00,2.418206107892528767e-01,4.747017601901020178e-01,1.000000000000000048e-04,4.230768429531627106e+01,1.799999999999999933e-01
1.618981583577949301e+00,3.272426574756381878e-01,5.749180753883085249e-01,1.000000000000000048e-04,4.279102270095645366e+01,1.499999999999999944e-01
1.003297842785071836e+00,6.006477180957223716e-01,2.126830230454090920e-01,1.000000000000000048e-04,4.020785779658792336e+01,1.100000000000000006e-01
-1.923409574730628124e+00,1.362187502844500742e-01,3.032119733714020438e-01,1.000000000000000048e-04,4.061939883919546901e+01,1.199999999999999956e-01
-1.800552903536209337e+00,-5.420344822819895825e-01,4.289913659207720276e-01,1.000000000000000048e-04,4.192447853239423239e+01,1.499999999999999944e-01
1.745186100809879903e+00,-1.115218772500776057e+00,2.154703474662169604e-01,1.000000000000000048e-04,4.005508444640138777e+01,1.900000000000000022e-01
2.795062883382088081e+00,-1.191847824486580443e-01,1.151176081725766576e-01,1.000000000000000048e-04,3.855094475573838508e+01,1.799999999999999933e-01
-1.245535045337601732e+00,3.914611388063953257e-01,6.782475486927919128e-01,1.000000000000000048e-04,4.299384578831221404e+01,1.499999999999999944e-01
2.988004051906951730e-01,3.548939009281408818e-01,1.811666865161605244e-01,1.000000000000000048e-04,3.974106405376274154e+01,1.499999999999999944e-01
-1.511898724924972237e+00,7.720854817506106471e-01,6.447733560358048788e-01,1.000000000000000048e-04,4.276951587410309941e+01,3.599999999999999867e-01
1.681094402917676867e+00,-3.263749567958234010e-01,4.376947246867981534e-01,1.000000000000000048e-04,4.106783953038090118e+01,3.900000000000000133e-01
1.444401389565591387e+00,9.169331115861645287e-02,3.014459278842047674e-01,1.000000000000000048e-04,4.114993761995211941e+01,3.900000000000000133e-01
-7.678802587812367797e-01,5.866888449784855020e-01,3.965893413127288269e-01,1.000000000000000048e-04,4.169820357398644006e+01,3.099999999999999978e-01
-1.600373487948422158e+00,-3.099823971224313635e-01,6.781779389470929953e-01,1.000000000000000048e-04,4.313713981481402016e+01,3.300000000000000155e-01
4.678051593713816736e-01,6.064472448323452447e-01,1.094600958037088123e+00,1.000000000000000048e-04,4.382361705980736843e+01,4.000000000000000222e-01
-2.997782375882024120e+00,4.172439446172733213e-01,1.487014707999931851e-01,1.000000000000000048e-04,3.947165765768105672e+01,3.200000000000000067e-01
-1.695856406082106638e+00,4.550929535562002748e-01,1.840269544583423844e-01,1.000000000000000048e-04,3.976756833515975842e+01,3.200000000000000067e-01
1.440382174066603405e+00,2.258138351124054921e-01,2.341443788903319057e-01,1.000000000000000048e-04,4.045391611690264710e+01,3.599999999999999867e-01
1.172696739286754664e+00,5.568522814757606021e-01,2.589462562321513950e-01,1.000000000000000048e-04,4.059549261911795526e+01,2.399999999999999911e-01
3.034541958949077411e-01,8.329499095944017384e-01,7.397497942832922391e-01,1.000000000000000048e-04,4.380570406344931200e+01,2.999999999999999889e-01
2.819620438593092970e+00,-7.667201251632641545e-01,4.032382199652149168e-01,1.000000000000000048e-04,4.209748817473276716e+01,2.399999999999999911e-01
2.826736997972336241e+00,-9.226270966108675031e-01,3.120992330295648820e-01,1.000000000000000048e-04,4.084883811415402022e+01,2.899999999999999800e-01
2.562033852535551937e+00,3.558004721219196753e-01,2.691046842306983322e-01,1.000000000000000048e-04,4.060227263030681399e+01,2.899999999999999800e-01
-1.391987564386760745e-01,-8.838106804642120728e-01,4.672504000062556173e-01,1.000000000000000048e-04,4.247696755369425858e+01,2.899999999999999800e-01
2.648175800996363627e+00,8.382167933976027996e-01,2.431232831189593657e-01,1.000000000000000048e-04,4.063376564694989668e+01,3.699999999999999956e-01
2.319697958071849087e-01,9.505333600235110758e-01,7.103103632734790729e-01,1.000000000000000048e-04,4.297605856421021997e+01,2.300000000000000100e-01
2.336385488075835681e+00,-3.677156696501229227e-01,2.821808775668217528e-01,1.000000000000000048e-04,4.105168357312171423e+01,2.000000000000000111e-01
-3.103918101569383303e+00,-7.387520942872082275e-01,5.881783939939755346e-01,1.000000000000000048e-04,4.251785142828406094e+01,3.800000000000000044e-01
1.142264859611183070e+00,-1.680738345775549814e-01,5.060865226852713228e-01,1.000000000000000048e-04,4.231173212383125559e+01,2.300000000000000100e-01
1.838768793542068458e+00,-8.332111298748431372e-01,2.942623893462690265e-01,1.000000000000000048e-04,4.155978548290467245e+01,3.900000000000000133e-01
1.178767367063335847e-01,-1.267652172158695301e-02,1.599869712969124169e-01,1.000000000000000048e-04,3.943414413760675075e+01,2.200000000000000011e-01
-1.192558954844683106e+00,-1.394987328614827993e+00,2.835014897866539041e-01,1.000000000000000048e-04,4.069316763346666477e+01,2.399999999999999911e-01
6.399578055843018198e-01,6.083729408971163544e-01,2.277965269024844197e-01,1.000000000000000048e-04,4.054467154482267688e+01,2.000000000000000111e-01
-1.179687186109017460e+00,4.731729260021366734e-01,2.442673089068374548e-01,1.000000000000000048e-04,4.050274492264384207e+01,1.900000000000000022e-01
2.196955343389407567e+00,-3.664805259859245101e-01,5.557437235713855728e-01,1.000000000000000048e-04,4.207102474410297077e+01,2.600000000000000089e-01
-4.480469749117239608e-01,-2.400991482621261941e-01,2.301679893458050685e-01,1.000000000000000048e-04,4.007072653946951135e+01,1.900000000000000022e-01
2.823457884050810662e+00,4.498053865700737397e-01,1.199202043582763277e-01,1.000000000000000048e-04,3.877129878871277668e+01,1.000000000000000056e-01
-2.933246131921278366e+00,-3.026768593855422296e-02,2.169168039304805173e-01,1.000000000000000048e-04,3.991588538321902035e+01,1.400000000000000133e-01
9.062243697916496643e-01,-3.081198620958902623e-02,2.933063422822750343e-01,1.000000000000000048e-04,4.071388209362738309e+01,1.900000000000000022e-01
-2.841200070209530359e+00,4.336252837635714563e-01,3.934183277852079108e-01,1.000000000000000048e-04,4.173030680616678723e+01,1.499999999999999944e-01
2.667781508541780866e+00,-2.660995751926640285e-01,2.717871177362696233e-01,1.000000000000000048e-04,4.122963999063131979e+01,1.900000000000000022e-01
1.754904955145121015e+00,-6.143172413811629484e-01,7.933871739899605036e-01,1.000000000000000048e-04,4.345370773041156554e+01,1.700000000000000122e-01
2.235400539251179985e-01,-1.186927056434903927e+00,1.234032924136687637e-01,1.000000000000000048e-04,3.921730130989772789e+01,1.100000000000000006e-01
-1.048259035968910791e+00,3.850943705083116342e-01,7.266533719506771405e-01,1.000000000000000048e-04,4.310497257740282606e+01,2.000000000000000111e-01
3.960916638474842877e-01,-5.261504484569099471e-01,6.816017788242314523e-01,1.000000000000000048e-04,4.319351187408920367e+01,1.700000000000000122e-01
2.942599977024444868e+00,-4.881282665791639719e-01,4.477278874833745537e-01,1.000000000000000048e-04,4.208788831309599487e+01,1.100000000000000006e-01
-2.330431386361015100e+00,-7.443471573444448985e-01,1.292354036147792318e+00,1.000000000000000048e-04,4.490334909140099029e+01,1.700000000000000122e-01
-5.469127346676123658e-01,-1.000345558218358022e+00,3.195740280293426494e-01,1.000000000000000048e-04,4.120793454171801784e+01,1.600000000000000033e-01
7.893673131492242590e-01,4.722913809621331893e-01,4.724433439190320883e-01,1.000000000000000048e-04,4.212837425641084366e+01,2.200000000000000011e-01
1.375133391726461873e-01,1.307615228991954037e-01,5.568219124709439249e-01,1.000000000000000048e-04,4.274647057710031817e+01,2.800000000000000266e-01
-4.276110467111475799e-01,-1.150486388445196129e+00,3.477822486048411932e-01,1.000000000000000048e-04,4.122896715775769394e+01,2.099999999999999922e-01
-2.806182899361028049e+00,-5.306525192164468496e-01,8.719124013547399077e-01,1.000000000000000048e-04,4.373021967458414139e+01,2.899999999999999800e-01
-1.387693702474082080e-01,-5.368996633487308490e-01,4.361389674061415533e-01,1.000000000000000048e-04,4.186676501218843072e+01,1.400000000000000133e-01
-2.753961021985920521e+00,3.176576597286175918e-01,1.754352170552848644e-01,1.000000000000000048e-04,3.951972725303242129e+01,1.600000000000000033e-01
1.542589005390467172e+00,9.700136132084820062e-01,2.237226705073143140e-01,1.000000000000000048e-04,4.044808390980331581e+01,2.099999999999999922e-01
1.641980154311744045e+00,-1.652318547779272340e-01,4.004360166170934932e-01,1.000000000000000048e-04,4.133250223331407369e+01,2.600000000000000089e-01
-2.804755578859697618e+00,9.948178155676252743e-01,3.783629461968482932e-01,1.000000000000000048e-04,4.139514747523657689e+01,1.400000000000000133e-01
7.674074257221215056e-01,-7.537196474818756986e-01,6.751931653499259056e-01,1.000000000000000048e-04,4.312680279350221468e+01,1.600000000000000033e-01
-2.894719366270526617e+00,-9.934570882111563028e-01,1.648014298603937000e-01,1.000000000000000048e-04,3.979328280247341354e+01,2.000000000000000111e-01
2.106148837400631635e+00,2.430877598880900603e-01,4.825290038707785722e-01,1.000000000000000048e-04,4.192636875327974622e+01,2.099999999999999922e-01
3.106517184759814754e+00,-3.432148094317140075e-01,2.241366861687190681e-01,1.000000000000000048e-04,4.049207931490354895e+01,1.700000000000000122e-01
-1.826861186779850099e+00,-1.371909884865669671e+00,3.476447217946803114e-01,1.000000000000000048e-04,4.130933151834814510e+01,1.499999999999999944e-01
-2.341626957267006759e-01,5.164097673857717119e-01,6.274697607357713203e-01,1.000000000000000048e-04,4.271222674660187835e+01,1.700000000000000122e-01
-1.737871605131367403e+00,-2.808973055863912549e-01,2.019834749236621985e-01,1.000000000000000048e-04,3.992332275953134513e+01,1.400000000000000133e-01
-2.353268593793347740e+00,-7.836073706072834710e-01,4.106940270679173555e-01,1.000000000000000048e-04,4.178007187775449438e+01,1.499999999999999944e-01
8.204697407021397382e-01,-4.231257142325648424e-01,6.822532073029488053e-01,1.000000000000000048e-04,4.303283220105506501e+01,3.400000000000000244e-01
-2.841627365708924380e+00,-1.114064224334011755e+00,1.415625850445410006e-01,1.000000000000000048e-04,3.937153037065885286e+01,1.700000000000000122e-01
-1.157000205328978293e+00,9.219896101327873517e-01,1.983459087467158710e-01,1.000000000000000048e-04,3.967397436064100447e+01,1.400000000000000133e-01
2.292239579876335753e+00,-6.681485347792235352e-01,3.479275200183717942e-01,1.000000000000000048e-04,4.185080517669949529e+01,1.799999999999999933e-01
2.620805660747532073e+00,-5.791692872579939921e-01,3.915404369379433813e-01,1.000000000000000048e-04,4.150051243326534944e+01,1.900000000000000022e-01
-2.193013657547099982e+00,-1.084374187679937540e+00,3.264497829202652746e-01,1.000000000000000048e-04,4.123175119701494395e+01,1.499999999999999944e-01
2.280891925617327232e+00,-4.500120867118195811e-01,7.015904775670569471e-01,1.000000000000000048e-04,4.339434178017955190e+01,1.700000000000000122e-01
-2.360905388200155386e+00,-2.896524891667457968e-01,2.605355989067705824e-01,1.000000000000000048e-04,4.063367442848874589e+01,1.600000000000000033e-01
1.437550480424287791e+00,-5.919919738089920447e-01,4.928545193057143337e-01,1.000000000000000048e-04,4.208918714432019925e+01,1.499999999999999944e-01
1.379018336021947455e+00,-1.469968751729487488e+00,3.485502633737074252e-01,1.000000000000000048e-04,4.124575158337167125e+01,1.700000000000000122e-01
9.626628010912572364e-01,-7.441528827519205969e-02,3.521688627441046382e-01,1.000000000000000048e-04,4.143817813380304926e+01,1.600000000000000033e-01
2.442594586574875493e+00,-1.445634912076644962e+00,3.686313255278077516e-01,1.000000000000000048e-04,4.150829408709491730e+01,2.899999999999999800e-01
-1.200839423184040911e+00,-2.224520191287204796e-01,1.974181857032217824e-01,1.000000000000000048e-04,3.966928642828262497e+01,1.400000000000000133e-01
-1.929774734249378731e-01,-1.130548437957876740e+00,3.065799705701617306e-01,1.000000000000000048e-04,4.087643775211634534e+01,1.499999999999999944e-01
1.658030873098988778e+00,-3.437301665277692209e-02,2.932053883288874285e-01,1.000000000000000048e-04,4.118170891060658789e+01,1.900000000000000022e-01
-1.237978773496996698e+00,6.147396693940954115e-02,5.035045073056421128e-01,1.000000000000000048e-04,4.213212616280974743e+01,2.500000000000000000e-01
-3.131560441904241987e+00,5.379818128550506451e-02,3.613984401436791671e-01,1.000000000000000048e-04,4.117514504785921048e+01,1.499999999999999944e-01
-2.766674903486680659e+00,-8.922566288172628646e-02,2.765008666348383048e-01,1.000000000000000048e-04,4.064791490542764052e+01,2.099999999999999922e-01
1.097102515689964086e+00,4.669426392322906239e-01,2.390259881237262185e-01,1.000000000000000048e-04,4.045995937458863523e+01,1.900000000000000022e-01
5.809031075273609623e-01,6.490986572399948251e-02,1.552024023497204919e-01,1.000000000000000048e-04,3.948926396426866603e+01,2.099999999999999922e-01
1.528139708753961656e+00,-1.309992035495657348e-01,1.536865787519079429e-01,1.000000000000000048e-04,3.951368212242036293e+01,2.099999999999999922e-01
-2.370473811779722606e+00,-1.584101826522372747e-01,1.015433234881899516e+00,1.000000000000000048e-04,4.413000367585846817e+01,1.499999999999999944e-01
-3.064310630541405178e+00,7.253400398265519300e-02,4.631220979476169397e-01,1.000000000000000048e-04,4.203236311030580907e+01,1.400000000000000133e-01
-1.957172160838025254e+00,-8.523476465265654722e-01,7.471392890338393045e-01,1.000000000000000048e-04,4.288811781427074266e+01,3.800000000000000044e-01
-2.450322525391237960e+00,-1.070980602175983565e+00,1.831509110609090829e-01,1.000000000000000048e-04,3.983795374163037906e+01,2.200000000000000011e-01
-4.342974104836252458e-01,-9.308788679105339803e-02,2.409847052800331291e-01,1.000000000000000048e-04,4.034344295151328197e+01,1.499999999999999944e-01
-1.344238042928474819e+00,7.432601505100611128e-02,1.562609352277766206e-01,1.000000000000000048e-04,3.910690514457080269e+01,1.700000000000000122e-01
1.550077749074278977e+00,3.395855637580271758e-01,3.542854842369738133e-01,1.000000000000000048e-04,4.123420906973645117e+01,1.700000000000000122e-01
1.842801746127106455e+00,-5.387140624663728783e-01,4.832842489124180574e-01,1.000000000000000048e-04,4.262542100357579500e+01,2.600000000000000089e-01
-1.186333111012016994e+00,-7.438601632450603240e-02,1.392676267784396238e-01,1.000000000000000048e-04,3.935362130610599252e+01,2.800000000000000266e-01
-1.573203424101137005e+00,-1.172603080046574986e+00,4.954610846615215003e-01,1.000000000000000048e-04,4.238550541577815522e+01,1.799999999999999933e-01
-1.645034199255253737e+00,-9.425366519961810852e-01,3.018642055202629404e-01,1.000000000000000048e-04,4.096663602932976289e+01,1.499999999999999944e-01
1.533217367566558131e+00,-3.190047453054956073e-02,2.252959869706470108e-01,1.000000000000000048e-04,4.043280623669561891e+01,2.200000000000000011e-01
-1.811560631043851899e+00,1.109306729742408404e+00,4.883002316124389619e-01,1.000000000000000048e-04,4.212881106899090611e+01,2.000000000000000111e-01
-1.723180288827278916e+00,1.126124424099564703e+00,2.740916897534397823e-01,1.000000000000000048e-04,4.077139313090742689e+01,1.600000000000000033e-01
6.868858901092709246e-01,7.053373999294088037e-01,1.439261728496075143e-01,1.000000000000000048e-04,3.910881980100557342e+01,1.600000000000000033e-01
2.122548807179368779e+00,1.076854925414315378e+00,1.826660560971324898e-01,1.000000000000000048e-04,3.994320588048688592e+01,2.099999999999999922e-01
-5.517812669384678514e-01,-8.642711256212348703e-01,4.889328603436784437e-01,1.000000000000000048e-04,4.232161197879271697e+01,2.899999999999999800e-01
1.411518423226305607e-01,8.801251323564676099e-01,1.297963870031566547e+00,1.000000000000000048e-04,4.472259153179663826e+01,1.400000000000000133e-01
-2.373323576413552516e+00,-9.573730867745523510e-01,3.198952028034747208e-01,1.000000000000000048e-04,4.101242095353921258e+01,2.700000000000000178e-01
1.493788722344590703e+00,5.554848222310595496e-01,1.273576203433040011e-01,1.000000000000000048e-04,3.889978819321136427e+01,1.300000000000000044e-01
2.480552877258674016e+00,2.809429002528698316e-01,1.190866634221188214e-01,1.000000000000000048e-04,3.898877558612790750e+01,1.700000000000000122e-01
-2.794214817495778824e+00,-1.054211614603710601e-01,3.193566530352487387e-01,1.000000000000000048e-04,4.079435090959439947e+01,2.500000000000000000e-01
-1.608370006610586600e+00,-4.353731574058568032e-01,1.429003977336613662e-01,1.000000000000000048e-04,3.895232473583921973e+01,1.400000000000000133e-01
-1.370190908090261672e+00,-3.380069700709036340e-01,5.329809794989186500e-01,1.000000000000000048e-04,4.215802969864872551e+01,1.900000000000000022e-01
-1.327004518146616130e+00,-1.643100515439370746e-01,5.458421805701474394e-01,1.000000000000000048e-04,4.251916412812543911e+01,1.600000000000000033e-01
1.008690441414947792e+00,4.770385664245027080e-01,2.039606462745200410e-01,1.000000000000000048e-04,3.998835183881154620e+01,1.600000000000000033e-01
-1.785644919539687514e+00,-2.589038114403683366e-01,1.340710271028122680e-01,1.000000000000000048e-04,3.867346901337968035e+01,2.700000000000000178e-01
2.165236881655083323e+00,-8.078527458471269629e-01,2.868529740162166775e-01,1.000000000000000048e-04,4.114894838587331805e+01,1.499999999999999944e-01
-2.278231980921827216e+00,7.508206122116503067e-01,2.052669220404039763e-01,1.000000000000000048e-04,3.988429510016746349e+01,1.600000000000000033e-01
-3.816317531730204493e-01,4.580549735043040194e-01,2.722645703581951793e-01,1.000000000000000048e-04,4.084349828540122473e+01,1.700000000000000122e-01
-7.620241092642054959e-01,-4.365893314725293184e-01,1.974795917736034134e-01,1.000000000000000048e-04,4.025124246418073426e+01,2.800000000000000266e-01
9.421821239052468044e-01,-8.343434522747885662e-01,2.312707087380450055e-01,1.000000000000000048e-04,4.056323952670108213e+01,1.499999999999999944e-01
-7.593122633043041247e-01,-4.792084076783869051e-01,8.104311425464636454e-01,1.000000000000000048e-04,4.331114214547584851e+01,3.099999999999999978e-01
1.293316097447456237e+00,-7.566094620228865919e-01,6.567835503828522992e-01,1.000000000000000048e-04,4.295109047165323091e+01,2.200000000000000011e-01
-1.181749952129241166e+00,-5.854482335478564670e-01,7.180233100813993019e-01,1.000000000000000048e-04,4.276424308550345188e+01,2.700000000000000178e-01
2.217686496580340894e+00,-5.035322703736717642e-01,7.075566562854764818e-01,1.000000000000000048e-04,4.330186635925028327e+01,2.899999999999999800e-01
1.287586389315093172e+00,1.944273568384602413e-01,2.694285239273157551e-01,1.000000000000000048e-04,4.077791768600913258e+01,3.099999999999999978e-01
1.909519445317100939e+00,-6.327255799306170658e-01,1.725854525295336117e-01,1.000000000000000048e-04,3.995291858728342049e+01,2.300000000000000100e-01
-1.856904548953299150e+00,5.461845953136146292e-01,1.118120398989085995e+00,1.000000000000000048e-04,4.423834816559629957e+01,2.200000000000000011e-01
1.930041301277864996e+00,-9.879969507187279509e-01,3.397309497837535108e-01,1.000000000000000048e-04,4.136262739011397827e+01,2.300000000000000100e-01
-7.941688950420497939e-01,1.149397285973163818e-01,2.241091906176879700e-01,1.000000000000000048e-04,4.008024239364553409e+01,2.200000000000000011e-01
2.503654175979688645e+00,1.801593740636855401e-01,3.630220753545689849e-01,1.000000000000000048e-04,4.175711459461242470e+01,2.099999999999999922e-01
-1.452788584797375382e+00,-1.407641190827033206e+00,4.006375374002970613e-01,1.000000000000000048e-04,4.154609300185398268e+01,2.300000000000000100e-01
-2.323614586999633858e+00,-8.552526024494455648e-02,7.080856230397369888e-01,1.000000000000000048e-04,4.327684103173845642e+01,2.399999999999999911e-01
2.053548200062462747e+00,-1.347644816899788989e-01,5.988906569382594913e-01,1.000000000000000048e-04,4.278083383291619413e+01,2.099999999999999922e-01
1.423061760523300912e+00,-5.547369802234098923e-01,3.526518963408042939e-01,1.000000000000000048e-04,4.098262218524680378e+01,2.399999999999999911e-01
2.322479257237914929e+00,9.022244550971270094e-01,2.260416359543457876e-01,1.000000000000000048e-04,4.092343802595795665e+01,2.399999999999999911e-01
1.532643010167138442e+00,2.295525530471576037e-01,2.540400092350216799e-01,1.000000000000000048e-04,4.064972970799734497e+01,2.800000000000000266e-01
-1.353951773964954697e+00,-6.861476976484733870e-01,7.156530523792423715e-01,1.000000000000000048e-04,4.322551537400061505e+01,2.000000000000000111e-01
-1.373177644258209318e+00,5.877039942388915250e-01,5.732141965986063958e-01,1.000000000000000048e-04,4.253069826472597015e+01,2.200000000000000011e-01
-8.292692749348118397e-02,1.819942705267358907e-01,1.884413995096212435e-01,1.000000000000000048e-04,3.972947060614559689e+01,2.800000000000000266e-01
2.029601613216090783e+00,8.505986601815624937e-01,2.000407887832735820e-01,1.000000000000000048e-04,4.011705670243460276e+01,2.399999999999999911e-01
-2.592417776739177171e+00,-1.098860657054138823e+00,4.170974413348162990e-01,1.000000000000000048e-04,4.134537467852831583e+01,2.300000000000000100e-01
-1.573425472432068428e+00,-2.439056252905307254e-01,8.742875348501244481e-01,1.000000000000000048e-04,4.348208716407044250e+01,2.200000000000000011e-01
-1.665968653058471638e+00,-1.300539871281754190e+00,1.012839772396267879e+00,1.000000000000000048e-04,4.433933115585580964e+01,2.200000000000000011e-01
4.898161398251721366e-02,-7.670465427473072140e-01,3.746038464752681207e-01,1.000000000000000048e-04,4.147267973391812035e+01,2.399999999999999911e-01
1.128800921400141988e+00,-3.005672130962178112e-01,2.534775544579945805e-01,1.000000000000000048e-04,4.082498905608508011e+01,3.099999999999999978e-01
-9.701701558349986598e-01,-4.350585385388006099e-01,3.529277482944577216e-01,1.000000000000000048e-04,4.140972925929101933e+01,2.600000000000000089e-01
3.112965251434878233e-01,-1.025977673695788184e-01,4.902835766290711828e-01,1.000000000000000048e-04,4.274898423129052105e+01,3.099999999999999978e-01
1.014764464794379428e+00,-8.410034885753826517e-01,4.275801350767289843e-01,1.000000000000000048e-04,4.198574291561575933e+01,3.800000000000000044e-01
-5.253310938341160252e-02,3.205670733590293420e-01,6.829006372299919470e-01,1.000000000000000048e-04,4.279803070855644620e+01,2.500000000000000000e-01
-2.370661981229627013e+00,-1.489833073970245891e-01,2.089608507669542536e-01,1.000000000000000048e-04,3.973209986552950568e+01,2.300000000000000100e-01
-1.443668144566781164e+00,8.783018792460741686e-01,4.816744048654499899e-01,1.000000000000000048e-04,4.168084389172869919e+01,2.800000000000000266e-01
1.216699940167198513e-01,-1.173803010637631594e+00,2.157039168528043227e-01,1.000000000000000048e-04,4.078352914109169092e+01,3.699999999999999956e-01
1.730100177578736798e+00,1.754406627605304969e-01,4.552204347987292010e-01,1.000000000000000048e-04,4.197023563430927595e+01,2.200000000000000011e-01
-3.075234109858446363e+00,2.665764529196557042e-02,9.441679543301411126e-01,1.000000000000000048e-04,4.440397709026007789e+01,2.600000000000000089e-01
-2.056690101086391387e-01,9.487570292168920894e-01,2.129956332738629499e-01,1.000000000000000048e-04,3.978735728543571071e+01,2.500000000000000000e-01
-5.593398312723394383e-01,7.007204129326560782e-02,1.170759279792263907e+00,1.000000000000000048e-04,4.416816129479008168e+01,2.700000000000000178e-01
-5.356625215610129054e-01,-6.380228852581603105e-01,1.542283074816450661e-01,1.000000000000000048e-04,3.918891725971695195e+01,2.300000000000000100e-01
1.342229376931812546e+00,-5.798274186192157176e-01,1.217825008559463296e+00,1.000000000000000048e-04,4.449508052845055062e+01,2.300000000000000100e-01
2.038603177023089685e+00,-4.838662349369726723e-01,4.083957334429217934e-01,1.000000000000000048e-04,4.145056999809044385e+01,3.200000000000000067e-01
-2.043628449823037929e+00,5.840555785776331277e-01,1.062934402913278564e+00,1.000000000000000048e-04,4.382252039492852447e+01,2.899999999999999800e-01
2.683492075201203697e-01,6.526447924362122066e-02,6.779640130215822680e-01,1.000000000000000048e-04,4.323771188976714086e+01,2.600000000000000089e-01
2.842122951748574877e+00,-5.017755018614611373e-02,6.075122300991606661e-01,1.000000000000000048e-04,4.272713510828185690e+01,2.899999999999999800e-01
1.422548854220348602e+00,-2.307078424653250526e-01,4.562820591934533265e-01,1.000000000000000048e-04,4.194625858353380465e+01,2.700000000000000178e-01
-1.715636201455811749e+00,5.298262268506293005e-01,3.328793359470401114e-01,1.000000000000000048e-04,4.101336590585121655e+01,2.300000000000000100e-01
3.108766299819420986e+00,3.306547595578608334e-01,5.532206505359971160e-01,1.000000000000000048e-04,4.202052268080595354e+01,2.800000000000000266e-01
-2.641343480044839431e+00,1.064032942884823640e+00,3.231344650103267213e-01,1.000000000000000048e-04,4.133633021647035122e+01,2.300000000000000100e-01
4.955259312684305861e-01,1.003408753950438381e+00,3.701574193611316677e-01,1.000000000000000048e-04,4.143566220752654772e+01,2.200000000000000011e-01
-3.083090646646384325e+00,-1.594307090543440886e-01,3.228342220278588304e-01,1.000000000000000048e-04,4.117625878638238390e+01,2.200000000000000011e-01
1.016797036500470597e+00,7.087092742047551575e-02,2.544733479847551827e-01,1.000000000000000048e-04,4.065720517654496291e+01,2.099999999999999922e-01
-1.932458612195994130e+00,-7.174702509842546538e-01,8.677106769593776470e-01,1.000000000000000048e-04,4.338947117027422706e+01,2.200000000000000011e-01
3.080932138756314664e+00,3.976237285459185422e-01,3.565672595794480149e-01,1.000000000000000048e-04,4.130976222459258196e+01,2.899999999999999800e-01
-7.802852026014641673e-01,1.009470643938197743e+00,2.115966854611319725e-01,1.000000000000000048e-04,3.999712889933377369e+01,2.099999999999999922e-01
1.498361249151196617e+00,-1.352769400177964210e+00,2.330901449511824097e-01,1.000000000000000048e-04,4.054202183109704549e+01,2.300000000000000100e-01
1.672819245025025658e+00,-4.097742779081408049e-01,3.850269012214204700e-01,1.000000000000000048e-04,4.115864893073077724e+01,3.300000000000000155e-01
-2.339319969132400701e-01,1.022791276227771107e+00,2.509189244441296651e-01,1.000000000000000048e-04,4.062458991699749333e+01,2.899999999999999800e-01
2.624880092381083330e+00,8.237120215507909293e-01,3.964259307692605816e-01,1.000000000000000048e-04,4.190670718934056538e+01,3.300000000000000155e-01
-1.680387846716849376e+00,1.637638029319097299e-01,2.435930591549297919e-01,1.000000000000000048e-04,3.997543446255735944e+01,2.999999999999999889e-01
-6.719624381442379502e-01,1.051150359948946011e+00,7.560155608517107328e-01,1.000000000000000048e-04,4.316304791561645260e+01,2.600000000000000089e-01
-7.116583929646931317e-01,9.434114723461028973e-01,6.602379458447127369e-01,1.000000000000000048e-04,4.281635464119408141e+01,3.300000000000000155e-01
1.600047205229619074e+00,-6.249481024880310098e-01,1.069198695318880787e+00,1.000000000000000048e-04,4.457161250629591365e+01,2.500000000000000000e-01
-2.450728446396823301e+00,6.211427873761774521e-01,7.048242759353089415e-01,1.000000000000000048e-04,4.342931544847982650e+01,2.399999999999999911e-01
-2.899772209039527482e+00,-5.816719757131543211e-01,5.138449416653638746e-01,1.000000000000000048e-04,4.234602151088684252e+01,3.900000000000000133e-01
-1.659832650015115485e+00,-1.347155674456019359e+00,1.343233118136948345e-01,1.000000000000000048e-04,3.903884632044341885e+01,2.700000000000000178e-01
1.625974336183879210e+00,-1.194937566278628349e+00,2.973494704607406725e-01,1.000000000000000048e-04,4.136836871743810917e+01,2.200000000000000011e-01
-3.136691722866871590e+00,7.635256755947184004e-01,8.679320218359130035e-01,1.000000000000000048e-04,4.375024230346913612e+01,2.300000000000000100e-01
-5.066241878194310821e-01,3.138560821034275250e-02,1.599414452832943478e-01,1.000000000000000048e-04,3.887157384270926741e+01,2.500000000000000000e-01
-2.211634458921190927e+00,-4.028905034221228476e-01,3.879335187050274580e-01,1.000000000000000048e-04,4.114960212552215779e+01,2.099999999999999922e-01
-2.089774160080396292e+00,5.292889153953366232e-01,2.527684140048533923e-01,1.000000000000000048e-04,4.070030079021529446e+01,2.099999999999999922e-01
1.788884429199680604e+00,-6.205761180700108959e-02,3.387179886887754510e-01,1.000000000000000048e-04,4.163179239712568602e+01,2.999999999999999889e-01
-4.737730608420038791e-01,-3.450857856482711927e-01,2.982273586369865725e-01,1.000000000000000048e-04,4.086319119102465436e+01,2.200000000000000011e-01
-9.787000993439853858e-02,-7.061644625026898270e-01,8.235462430486166774e-01,1.000000000000000048e-04,4.370430669782621180e+01,2.099999999999999922e-01
3.719640999450808394e-01,2.064968229704808866e-01,4.946654351923720494e-01,1.000000000000000048e-04,4.231207663724187285e+01,2.300000000000000100e-01
1.996912257201688412e+00,1.246834870415520324e+00,2.658684700518894051e-01,1.000000000000000048e-04,3.999285369537639667e+01,3.200000000000000067e-01
1.810646391767835262e+00,-6.934415349012669205e-01,2.566021087333105744e-01,1.000000000000000048e-04,4.070585271731800958e+01,2.600000000000000089e-01
-4.982860745699144722e-01,2.625679929305830829e-01,4.712664247386482153e-01,1.000000000000000048e-04,4.224834404930847853e+01,2.000000000000000111e-01
2.635689494628076446e+00,5.632684649665891108e-01,1.321522027038572578e+00,1.000000000000000048e-04,4.502005712554100114e+01,1.799999999999999933e-01
1.950691651334595988e+00,3.664630012624188193e-01,2.314488632987796723e-01,1.000000000000000048e-04,4.042448406480643541e+01,2.999999999999999889e-01
2.956360017791388906e+00,4.493915356453030974e-01,3.660215671598836540e-01,1.000000000000000048e-04,4.062750771673512418e+01,2.399999999999999911e-01
1.799523314913806793e-01,-3.430343827924597910e-02,4.388320489096761978e-01,1.000000000000000048e-04,4.205591961947273916e+01,2.300000000000000100e-01
-1.715262187348177703e+00,7.751968788924048503e-01,3.974025457754344348e-01,1.000000000000000048e-04,4.164286046616370385e+01,2.200000000000000011e-01
-1.881589277663322957e+00,-1.206157143362951878e+00,2.219659078977869182e-01,1.000000000000000048e-04,4.013674593378294020e+01,2.300000000000000100e-01
-5.609221614779977827e-01,-4.476491566476774597e-01,3.960642985491988899e-01,1.000000000000000048e-04,4.177559750513847803e+01,2.300000000000000100e-01
-1.785908537297545839e+00,6.469113151993886035e-01,8.776864182432626560e-01,1.000000000000000048e-04,4.353836627311197560e+01,2.600000000000000089e-01
2.327174455356716187e+00,-2.200917829305155671e-01,1.813710669071202375e-01,1.000000000000000048e-04,3.986625314087225291e+01,2.099999999999999922e-01
8.859031014971838758e-01,-1.907716926822839998e-01,1.456900134859180351e-01,1.000000000000000048e-04,3.902194585403155713e+01,2.899999999999999800e-01
-1.405375147729366336e+00,-8.387041069414923333e-01,9.230214200615785014e-01,1.000000000000000048e-04,4.406459040482893386e+01,2.000000000000000111e-01
-2.469533012901512947e+00,-4.892810599258892168e-01,6.565014052023838698e-01,1.000000000000000048e-04,4.319297419091719092e+01,2.500000000000000000e-01
5.423004022435513605e-01,9.722071235814384593e-01,1.332364419546865353e-01,1.000000000000000048e-04,3.883760032797054151e+01,2.099999999999999922e-01
-2.990631081460207508e+00,-2.910722167835342322e-01,9.039440732293835268e-01,1.000000000000000048e-04,4.394654277055061442e+01,2.300000000000000100e-01
-2.457583216660930603e+00,1.163866027464541375e+00,5.386774695987046613e-01,1.000000000000000048e-04,4.250603438573293857e+01,2.200000000000000011e-01
1.679258285035135856e+00,4.366749276306105543e-01,1.279231417074200294e-01,1.000000000000000048e-04,3.944789210482388597e+01,2.399999999999999911e-01
-2.003620509184943721e+00,-7.546235493336261868e-01,4.472411052264118059e-01,1.000000000000000048e-04,4.194258640058261278e+01,2.500000000000000000e-01
1.581178296726641008e+00,-1.488765007640734828e+00,6.017673067302364842e-01,1.000000000000000048e-04,4.253749258098418551e+01,2.200000000000000011e-01
-9.325885799096012008e-01,3.667930178047296152e-02,6.311920648322710825e-01,1.000000000000000048e-04,4.271218349485708643e+01,3.300000000000000155e-01
1.206282584909414979e+00,-6.859631109925676817e-01,4.119931521091915183e-01,1.000000000000000048e-04,4.170542064600976317e+01,2.000000000000000111e-01
8.711313572659209470e-01,6.944316540784245539e-01,8.631764619934894078e-01,1.000000000000000048e-04,4.396971590685721765e+01,2.600000000000000089e-01
3.063667180317426464e+00,-4.387430172791024763e-01,3.732183309832901585e-01,1.000000000000000048e-04,4.129601387925404055e+01,2.399999999999999911e-01
1.865203580197192679e+00,-6.839636771139204763e-01,1.982947296499844025e-01,1.000000000000000048e-04,3.999129450345445491e+01,2.399999999999999911e-01
-2.756079184251624348e+00,-6.885109406550392608e-01,3.101979032415387305e-01,1.000000000000000048e-04,4.111251060145174563e+01,2.600000000000000089e-01
-3.466357560947130878e-01,9.119343041219161172e-01,1.578914670841764512e-01,1.000000000000000048e-04,3.909728022617067467e+01,2.399999999999999911e-01
-9.764518645499671301e-01,4.098463460563506189e-01,1.201966474571987575e+00,1.000000000000000048e-04,4.487242019817043115e+01,2.000000000000000111e-01
2.910893004090890912e+00,7.563902324173885638e-01,4.749755972228495438e-01,1.000000000000000048e-04,4.245713002230162658e+01,3.699999999999999956e-01
-3.028383536311662461e+00,6.855526384309018617e-01,2.999784395885609634e-01,1.000000000000000048e-04,4.170107537662903496e+01,3.099999999999999978e-01
6.583252726680077771e-02,8.476539073904119093e-01,4.988211999569556188e-01,1.000000000000000048e-04,4.241797721868913840e+01,2.399999999999999911e-01
2.468354037821756108e-01,9.651502473170538998e-01,9.860822970805793730e-01,1.000000000000000048e-04,4.389105559199558826e+01,2.099999999999999922e-01
-9.530624091918573626e-01,-2.242266043204255155e-02,9.371829774780267019e-01,1.000000000000000048e-04,4.384198694462490664e+01,2.800000000000000266e-01
2.447444701191290761e+00,6.295197150210025683e-01,4.728179259906102327e-01,1.000000000000000048e-04,4.208675116841472885e+01,2.800000000000000266e-01
-2.362985211426873455e+00,9.729867685516144782e-01,3.009251256647145212e-01,1.000000000000000048e-04,4.092477799626637847e+01,2.099999999999999922e-01
-3.155803477036616123e-01,8.038472746954532511e-01,3.522111875231783706e-01,1.000000000000000048e-04,4.132049249163520699e+01,2.300000000000000100e-01
6.785298530642611681e-01,1.213973605032535374e+00,2.101994222400311862e-01,1.000000000000000048e-04,3.992744612631729950e+01,2.000000000000000111e-01
-1.371000101791907122e+00,1.382029687242815719e+00,1.344644479619558908e-01,1.000000000000000048e-04,3.878220162112501868e+01,1.000000000000000056e-01
-2.014723970770690542e+00,1.055373454329020078e+00,7.239939360530771584e-01,1.000000000000000048e-04,4.311430632494900550e+01,1.199999999999999956e-01
-6.639835303589380899e-02,-4.569781948013122985e-01,6.072771140045662985e-01,1.000000000000000048e-04,4.287841289207280226e+01,8.999999999999999667e-02
1.141918775153807353e+00,-4.880475937247819029e-01,3.318929648922142039e-01,1.000000000000000048e-04,4.134483638663513005e+01,1.400000000000000133e-01
1.114675929699497026e+00,6.682815370151962142e-01,6.847545989680929868e-01,1.000000000000000048e-04,4.316512242831019108e+01,2.000000000000000111e-01
-2.654011485427679506e+00,-7.787971720735521464e-01,2.461686775859148746e-01,1.000000000000000048e-04,4.047156135162877888e+01,1.900000000000000022e-01
-1.146595220734763609e+00,-3.984978957243270337e-01,9.097377083462869773e-01,1.000000000000000048e-04,4.390139748260673969e+01,1.700000000000000122e-01
-1.788746067243847548e+00,2.152106587004247729e-01,1.736784092782965860e-01,1.000000000000000048e-04,3.898712746498834747e+01,3.499999999999999778e-01
2.181275962908713062e-01,-6.728723291673555096e-02,1.444374268517505389e-01,1.000000000000000048e-04,3.936964664131378555e+01,1.700000000000000122e-01
2.911314429727894115e+00,3.945584867540798957e-01,3.610270909662463001e-01,1.000000000000000048e-04,4.177111386910313229e+01,1.900000000000000022e-01
2.300787435566440386e+00,4.693574582895232439e-01,7.777481710941054338e-01,1.000000000000000048e-04,4.320630145948715750e+01,1.900000000000000022e-01
