-1.598279621179586663e+00,2.779993629999999993e-01,2.185159844361388437e-01,1.000000000000000048e-04,4.001362320954158491e+01,1.700000000000000122e-01
-8.306753881795865269e-01,5.048130450000000158e-01,3.408691705249617954e-01,1.000000000000000048e-04,4.119385201729534174e+01,1.600000000000000033e-01
-1.512887194179586281e+00,3.571169940000000209e-01,7.287584259508865792e-01,1.000000000000000048e-04,4.350470286610072890e+01,1.600000000000000033e-01
-2.094054222179586588e+00,-9.657747650000000350e-01,4.642205916044777059e-01,1.000000000000000048e-04,4.202534743498827652e+01,1.600000000000000033e-01
-1.256550916179586252e+00,-1.037146153999999987e+00,5.324092860409348482e-01,1.000000000000000048e-04,4.251753657107249751e+01,1.900000000000000022e-01
-2.638489419179586015e+00,-8.917870300000000361e-01,4.504310406667211275e-01,1.000000000000000048e-04,4.215767706451703845e+01,1.600000000000000033e-01
3.095686500000000008e-02,-1.139960520999999893e+00,2.537184821721398809e-01,1.000000000000000048e-04,4.051791361346376874e+01,1.700000000000000122e-01
-4.765590681795863759e-01,-7.328014390000000544e-01,5.759764281823178678e-01,1.000000000000000048e-04,4.285472027457219468e+01,1.600000000000000033e-01
7.532392530000000530e-01,9.936355940000000109e-01,2.212757396484101857e-01,1.000000000000000048e-04,4.027948485504203546e+01,1.600000000000000033e-01
1.355624495999999901e+00,4.654212710000000253e-01,2.487778585751161398e-01,1.000000000000000048e-04,4.023146895273492873e+01,2.200000000000000011e-01
-2.027672372179586624e+00,-3.494576850000000179e-01,2.581135183605482997e-01,1.000000000000000048e-04,4.055849584518514206e+01,8.999999999999999667e-02
-2.243457714179585949e+00,5.735296930000000071e-01,3.896822977126379595e-01,1.000000000000000048e-04,4.150957061301912887e+01,8.000000000000000167e-02
-1.661352162179586145e+00,7.473004210000000480e-01,4.503449027098147539e-01,1.000000000000000048e-04,4.192992334697400736e+01,1.100000000000000006e-01
-1.046494641179585905e+00,9.839422859999999993e-01,2.873437640979621399e-01,1.000000000000000048e-04,4.097472082317196396e+01,1.600000000000000033e-01
-1.357076630179586019e+00,8.591991679999999576e-01,5.043429924777234064e-01,1.000000000000000048e-04,4.232408971271363640e+01,1.300000000000000044e-01
-1.489161381179585852e+00,8.733460579999999807e-01,4.512635958388069302e-01,1.000000000000000048e-04,4.196665961645959442e+01,8.999999999999999667e-02
2.602874990000000111e+00,9.865781270000000269e-01,2.848334397460117184e-01,1.000000000000000048e-04,4.064039318563773406e+01,2.099999999999999922e-01
2.011122450999999867e+00,-1.257182417000000108e+00,3.421516875133887581e-01,1.000000000000000048e-04,4.121857760257872627e+01,1.799999999999999933e-01
2.487812089999999809e+00,-1.095252646999999913e+00,3.219481955569403198e-01,1.000000000000000048e-04,4.112747599537392773e+01,1.600000000000000033e-01
-2.060955814179585843e+00,9.020563839999999889e-01,5.801553259084510916e-01,1.000000000000000048e-04,4.233579561415979242e+01,1.799999999999999933e-01
-1.552222439179586466e+00,1.270289940999999923e+00,7.749899170945171445e-01,1.000000000000000048e-04,4.328748798695058753e+01,1.600000000000000033e-01
-3.584264691795864266e-01,1.112498557000000110e+00,9.183460150693334434e-01,1.000000000000000048e-04,4.393062062354477604e+01,2.000000000000000111e-01
1.187793541000000008e+00,1.533334508000000040e+00,3.504000856681261933e-01,1.000000000000000048e-04,4.129833484418387712e+01,1.700000000000000122e-01
9.029304540000000490e-01,-5.888661819999999603e-01,4.212171732614529152e-01,1.000000000000000048e-04,4.177191577300579439e+01,1.700000000000000122e-01
2.675488564000000125e+00,-1.029758079000000048e+00,2.704441506954378127e-01,1.000000000000000048e-04,4.085495807801215307e+01,1.700000000000000122e-01
9.979371630000000160e-01,-7.076351440000000492e-01,4.551548143603012520e-01,1.000000000000000048e-04,4.229201069307806904e+01,2.000000000000000111e-01
-2.809922836179586270e+00,-1.219770695000000016e+00,1.584443549733769441e-01,1.000000000000000048e-04,3.945733798458343955e+01,1.900000000000000022e-01
1.945616433999999950e+00,5.533621010000000506e-01,6.988508420361121409e-01,1.000000000000000048e-04,4.275131221166512319e+01,1.700000000000000122e-01
1.369802210000000131e-01,9.686457469999999459e-01,3.005183887863460690e-01,1.000000000000000048e-04,4.080309084241174844e+01,1.000000000000000056e-01
2.377785852000000144e+00,-1.071983155000000076e+00,4.236039222293850326e-01,1.000000000000000048e-04,4.176767693717124530e+01,1.000000000000000056e-01
1.194530383000000029e+00,-8.514353350000000153e-01,6.609211714443121721e-01,1.000000000000000048e-04,4.299068909688665485e+01,1.100000000000000006e-01
2.328991532999999947e+00,-1.085498080000000032e+00,7.657951462235175200e-01,1.000000000000000048e-04,4.353575014842937918e+01,1.199999999999999956e-01
3.099662444999999877e+00,-8.173274409999999879e-01,3.994494248485458421e-01,1.000000000000000048e-04,4.171266669912650826e+01,1.300000000000000044e-01
1.008677688999999988e+00,-7.224949280000000362e-01,6.775181446562930088e-01,1.000000000000000048e-04,4.299133024952123350e+01,1.199999999999999956e-01
1.116317643999999998e+00,-8.188746820000000204e-01,2.599774632359008741e-01,1.000000000000000048e-04,4.057281822065553456e+01,1.499999999999999944e-01
1.368634144999999913e+00,-9.746537960000000167e-01,2.534744019406169890e-01,1.000000000000000048e-04,4.063952114378964353e+01,2.200000000000000011e-01
2.840707745000000006e+00,-9.874777999999999611e-01,2.142240106152764056e-01,1.000000000000000048e-04,4.008890873696072532e+01,1.199999999999999956e-01
1.164831654000000105e+00,-8.361433499999999519e-01,2.425499903893348908e-01,1.000000000000000048e-04,4.044465149184178188e+01,1.600000000000000033e-01
9.274529849999999520e-01,-5.648102149999999488e-01,1.670595275366708599e-01,1.000000000000000048e-04,3.968789750092306434e+01,2.200000000000000011e-01
1.803806121999999901e+00,-1.051757271000000049e+00,3.125351346099669581e-01,1.000000000000000048e-04,4.128172099550369722e+01,2.200000000000000011e-01
1.910407339000000038e+00,-1.096340147000000043e+00,6.926922892179245839e-01,1.000000000000000048e-04,4.289096735256229920e+01,1.300000000000000044e-01
-2.994395329179586174e+00,-6.874333790000000111e-01,3.940954530917379905e-01,1.000000000000000048e-04,4.178825247075409521e+01,1.600000000000000033e-01
2.004169926999999962e+00,-1.114377941999999955e+00,1.699684989680685376e-01,1.000000000000000048e-04,3.949720888390803708e+01,2.099999999999999922e-01
2.993884073999999895e+00,-9.067153500000000310e-01,7.621788623915832783e-01,1.000000000000000048e-04,4.348127050127094151e+01,2.000000000000000111e-01
2.896584697999999847e+00,-6.981149509999999836e-01,1.314958438303677202e+00,1.000000000000000048e-04,4.501054748878488709e+01,2.000000000000000111e-01
2.644964143999999795e+00,-1.038456438999999953e+00,1.315307343771531468e+00,1.000000000000000048e-04,4.473581905643091261e+01,2.500000000000000000e-01
1.395029569000000080e+00,-9.673563530000000021e-01,1.229066675938919051e+00,1.000000000000000048e-04,4.500949323349637154e+01,2.200000000000000011e-01
1.133893306999999906e+00,-8.234022290000000410e-01,4.832820628760181592e-01,1.000000000000000048e-04,4.236888141051078804e+01,1.199999999999999956e-01
9.542908199999999841e-01,-6.210129070000000029e-01,6.943257240398992280e-01,1.000000000000000048e-04,4.337667589088479758e+01,1.400000000000000133e-01
1.112357503999999997e+00,-7.717409769999999947e-01,2.971649416763360030e-01,1.000000000000000048e-04,4.110659972145757735e+01,1.400000000000000133e-01
1.392129267000000059e+00,-9.489503049999999940e-01,1.212023988798828888e+00,1.000000000000000048e-04,4.450921816332197523e+01,1.100000000000000006e-01
3.104633763999999907e+00,-8.563587980000000321e-01,4.630125744453403858e-01,1.000000000000000048e-04,4.220659404861625319e+01,1.199999999999999956e-01
-1.581672989179586430e+00,-6.726275419999999672e-01,2.936105893149467683e-01,1.000000000000000048e-04,4.119710419258835543e+01,2.000000000000000111e-01
8.758714749999999549e-01,-5.394949780000000139e-01,6.949992274127667624e-01,1.000000000000000048e-04,4.323273641490402497e+01,1.199999999999999956e-01
1.027821937999999991e+00,-6.897361509999999640e-01,3.428614388772022181e-01,1.000000000000000048e-04,4.135139631632383583e+01,1.499999999999999944e-01
8.011105990000000343e-01,-4.568120419999999737e-01,1.217929039513090395e+00,1.000000000000000048e-04,4.491709936541887771e+01,1.499999999999999944e-01
8.044453879999999835e-01,-4.591503659999999765e-01,3.287256899117061426e-01,1.000000000000000048e-04,4.118515258681135549e+01,1.100000000000000006e-01
8.290542589999999601e-01,-4.498624509999999965e-01,2.162962903841423312e-01,1.000000000000000048e-04,4.038655722559636274e+01,1.199999999999999956e-01
2.306908324000000121e+00,-1.093655438999999951e+00,2.661984756225024285e-01,1.000000000000000048e-04,4.076335297635547050e+01,1.300000000000000044e-01
-3.090495873179586184e+00,-7.974218849999999970e-01,1.231173031563147280e+00,1.000000000000000048e-04,4.455289782157235834e+01,1.300000000000000044e-01
2.850739061000000074e+00,-9.724982730000000242e-01,1.342050726941532268e+00,1.000000000000000048e-04,4.489862857032579058e+01,1.100000000000000006e-01
1.925211972000000049e+00,-1.067349442999999898e+00,3.467286998014340593e-01,1.000000000000000048e-04,4.125555824622880863e+01,1.600000000000000033e-01
3.010706126000000094e+00,-9.149326070000000088e-01,3.442644457502554989e-01,1.000000000000000048e-04,4.128384625223064575e+01,1.199999999999999956e-01
1.754869720000000077e+00,-1.052947148999999971e+00,1.217944547703405433e+00,1.000000000000000048e-04,4.460138742146107660e+01,1.300000000000000044e-01
3.028086770999999899e+00,-8.725603690000000023e-01,6.713417345887333632e-01,1.000000000000000048e-04,4.316054960177476119e+01,1.199999999999999956e-01
2.780301081000000174e+00,-1.010780400000000023e+00,5.265771099140261757e-01,1.000000000000000048e-04,4.229796613295728491e+01,1.700000000000000122e-01
3.096540631999999960e+00,-8.261897350000000362e-01,1.247370991754220171e+00,1.000000000000000048e-04,4.469849648752177984e+01,1.100000000000000006e-01
-3.043596368179586342e+00,-7.656326449999999451e-01,1.257137013887632548e-01,1.000000000000000048e-04,3.896636547856446953e+01,1.100000000000000006e-01
2.593403560000000052e+00,-1.068240442000000012e+00,3.146621657344674805e-01,1.000000000000000048e-04,4.129603737190488744e+01,1.199999999999999956e-01
1.277663320999999907e+00,-8.910532270000000032e-01,2.932647658475044938e-01,1.000000000000000048e-04,4.061343495096965484e+01,1.499999999999999944e-01
8.729576639999999665e-01,-5.017517409999999733e-01,2.958694626911100301e-01,1.000000000000000048e-04,4.104452312534229463e+01,1.199999999999999956e-01
2.323316692000000128e+00,-1.072994334000000105e+00,9.343610937938366945e-01,1.000000000000000048e-04,4.405451687118194570e+01,1.400000000000000133e-01
-3.012222731179586166e+00,-7.219820959999999621e-01,2.149580920852756094e-01,1.000000000000000048e-04,4.015986480462142794e+01,1.199999999999999956e-01
2.306010604999999991e+00,-1.110345181000000014e+00,1.654705826047895290e-01,1.000000000000000048e-04,3.955572356078176455e+01,1.100000000000000006e-01
2.437557496999999795e+00,-1.097151527000000071e+00,5.883942387524467854e-01,1.000000000000000048e-04,4.276592856324145941e+01,1.100000000000000006e-01
1.098420291999999909e+00,-7.444727049999999569e-01,1.179724753299877360e+00,1.000000000000000048e-04,4.479088615482924496e+01,1.300000000000000044e-01
8.241628739999999897e-01,-4.611620249999999754e-01,3.366484783995500329e-01,1.000000000000000048e-04,4.140322563123132937e+01,1.400000000000000133e-01
1.017317494999999905e+00,-7.027905669999999771e-01,4.398543894775044372e-01,1.000000000000000048e-04,4.189211047314759639e+01,1.199999999999999956e-01
2.728679550999999925e+00,-1.007430967999999982e+00,8.904587631909806067e-01,1.000000000000000048e-04,4.394345645480969864e+01,1.100000000000000006e-01
2.848837458999999850e+00,-9.622339979999999793e-01,6.444009908206103088e-01,1.000000000000000048e-04,4.303830337496052749e+01,1.199999999999999956e-01
-3.065525731179586266e+00,-7.207210450000000046e-01,7.498665212165602778e-01,1.000000000000000048e-04,4.344875039155001417e+01,1.199999999999999956e-01
1.103969978000000074e+00,-7.587182380000000448e-01,2.329962917306311887e-01,1.000000000000000048e-04,4.035503944290801570e+01,1.300000000000000044e-01
1.112034854000000017e+00,-7.675460100000000008e-01,1.003537381799947781e+00,1.000000000000000048e-04,4.389982567357795062e+01,1.199999999999999956e-01
2.373162053000000160e+00,-1.072487750000000073e+00,6.009316169485072745e-01,1.000000000000000048e-04,4.283783104275424591e+01,1.100000000000000006e-01
2.221583438000000132e+00,-1.096064289000000080e+00,5.893158892563539197e-01,1.000000000000000048e-04,4.274959616457223177e+01,1.199999999999999956e-01
2.775251189000000007e+00,-1.013244017000000108e+00,2.699863363498427038e-01,1.000000000000000048e-04,4.054682199685652932e+01,1.700000000000000122e-01
1.527128894000000070e+00,-9.963611940000000056e-01,9.783892228335369090e-01,1.000000000000000048e-04,4.408022904080730342e+01,1.400000000000000133e-01
-1.936135624179586401e+00,1.327891944000000102e+00,1.729935512839047007e-01,1.000000000000000048e-04,3.951871063242575133e+01,1.199999999999999956e-01
2.120951332999999828e+00,-1.112975437000000012e+00,6.862316198483886520e-01,1.000000000000000048e-04,4.332502489971284376e+01,1.600000000000000033e-01
2.950704906999999988e+00,-9.277153000000000205e-01,7.767847145183885971e-01,1.000000000000000048e-04,4.338376468088529947e+01,1.700000000000000122e-01
2.461302839000000020e+00,-1.064109841000000056e+00,6.210933228473465295e-01,1.000000000000000048e-04,4.295263481829531571e+01,1.499999999999999944e-01
1.687800213000000049e+00,-1.037844004000000098e+00,3.875812047684932260e-01,1.000000000000000048e-04,4.178069570347237516e+01,1.100000000000000006e-01
-3.069023128179586113e+00,-7.343218900000000327e-01,2.215104864853347788e-01,1.000000000000000048e-04,4.002056221391688950e+01,2.000000000000000111e-01
7.655655390000000171e-01,-3.825025819999999799e-01,8.258408271673789436e-01,1.000000000000000048e-04,4.359465672843136019e+01,1.300000000000000044e-01
-3.051736326179586012e+00,-7.690870560000000467e-01,6.474542466194075363e-01,1.000000000000000048e-04,4.268888999137750773e+01,1.499999999999999944e-01
-3.116938176179586240e+00,-7.920766919999999711e-01,5.846183488488745361e-01,1.000000000000000048e-04,4.271200946339541105e+01,1.100000000000000006e-01
1.020863690000000101e+00,-6.877910739999999468e-01,3.956679787519385982e-01,1.000000000000000048e-04,4.179182109798830425e+01,1.199999999999999956e-01
1.792785233999999894e+00,-1.066474936999999956e+00,6.706620128316955753e-01,1.000000000000000048e-04,4.312872091551972886e+01,1.100000000000000006e-01
1.805689748000000039e+00,-1.066896787999999985e+00,3.118805171081613370e-01,1.000000000000000048e-04,4.091154717089694515e+01,1.100000000000000006e-01
1.773248071000000037e+00,-1.046601056999999946e+00,8.868395794209549265e-01,1.000000000000000048e-04,4.398886223979724264e+01,2.099999999999999922e-01
1.076689889999999927e+00,-7.549444410000000216e-01,3.130747328114917849e-01,1.000000000000000048e-04,4.121961418489487983e+01,1.199999999999999956e-01
2.336456505000000128e+00,-1.089906792000000069e+00,6.638584817003574390e-01,1.000000000000000048e-04,4.291371538491964799e+01,1.199999999999999956e-01
2.522083900000000156e+00,-1.078852812999999911e+00,1.035629995907274115e+00,1.000000000000000048e-04,4.422272785575744791e+01,1.199999999999999956e-01
3.676074389999999803e-01,1.100614297999999991e+00,6.819756676079880009e-01,1.000000000000000048e-04,4.309780534079106218e+01,1.700000000000000122e-01
2.099931574000000190e+00,-1.082223048999999993e+00,1.954476678296910297e-01,1.000000000000000048e-04,3.985795065707563367e+01,1.100000000000000006e-01
8.155488279999999479e-01,-4.642700679999999802e-01,1.338098769182629599e-01,1.000000000000000048e-04,3.889221361324445780e+01,2.099999999999999922e-01
9.861636230000000447e-01,-6.881834650000000497e-01,5.872601134372765763e-01,1.000000000000000048e-04,4.247983865398333592e+01,1.300000000000000044e-01
1.864254864999999928e+00,-1.086684659999999969e+00,2.021743181734738659e-01,1.000000000000000048e-04,4.014081573643305489e+01,1.199999999999999956e-01
2.873066016000000111e+00,-9.753574739999999466e-01,1.395757831140862493e-01,1.000000000000000048e-04,3.942157102544859271e+01,1.300000000000000044e-01
2.270287562000000037e+00,-1.085086717999999895e+00,9.054053528229062398e-01,1.000000000000000048e-04,4.355336743572529201e+01,1.799999999999999933e-01
8.268071609999999572e-01,-4.587794940000000099e-01,4.016479299139150694e-01,1.000000000000000048e-04,4.183406664071622316e+01,1.199999999999999956e-01
-3.050869045179586347e+00,-7.648855789999999821e-01,8.080353528317685274e-01,1.000000000000000048e-04,4.336181860622792072e+01,1.199999999999999956e-01
1.101963728999999947e+00,-7.466317359999999903e-01,5.338069529866982244e-01,1.000000000000000048e-04,4.217508450915313034e+01,1.900000000000000022e-01
1.745116724000000064e+00,-1.056563783000000090e+00,3.280663192868740197e-01,1.000000000000000048e-04,4.124228997734243052e+01,1.300000000000000044e-01
7.889769570000000343e-01,-3.846565690000000037e-01,4.040068570127595127e-01,1.000000000000000048e-04,4.157987821120396887e+01,1.499999999999999944e-01
1.385818830999999918e+00,-9.278259679999999454e-01,3.494629618087654599e-01,1.000000000000000048e-04,4.133354652501250825e+01,1.499999999999999944e-01
1.138484923000000038e+00,-8.197145099999999518e-01,1.036949069822478364e+00,1.000000000000000048e-04,4.436891294511679718e+01,1.400000000000000133e-01
1.783410439000000069e+00,-1.080958507999999929e+00,2.020876654618872781e-01,1.000000000000000048e-04,4.003862952741841497e+01,1.400000000000000133e-01
2.617653461000000181e+00,-1.025884226000000066e+00,3.502140733019114549e-01,1.000000000000000048e-04,4.126783808602961301e+01,1.199999999999999956e-01
8.270197009999999960e-01,-4.157453939999999903e-01,4.548806801245435238e-01,1.000000000000000048e-04,4.198099003631738668e+01,1.199999999999999956e-01
3.128792493000000174e+00,-8.522697870000000009e-01,3.083367681350428491e-01,1.000000000000000048e-04,4.097658623625929408e+01,1.100000000000000006e-01
1.366158207000000013e+00,-9.614226009999999878e-01,2.880454987904670361e-01,1.000000000000000048e-04,4.069238170571315294e+01,1.100000000000000006e-01
2.846286316000000038e+00,-9.688357899999999745e-01,1.850693948927166765e-01,1.000000000000000048e-04,3.940451083196732185e+01,1.400000000000000133e-01
9.208216280000000031e-01,-6.185352929999999860e-01,1.250972701014841704e+00,1.000000000000000048e-04,4.472497146341518004e+01,1.499999999999999944e-01
7.622987450000000553e-01,-3.411912120000000215e-01,2.574984385554042188e-01,1.000000000000000048e-04,4.058965438679915394e+01,1.199999999999999956e-01
9.277931750000000255e-01,-5.813990460000000304e-01,2.727164784796520802e-01,1.000000000000000048e-04,4.060835922363500572e+01,2.099999999999999922e-01
1.010173165000000095e+00,-6.808591280000000356e-01,1.097570503208874726e+00,1.000000000000000048e-04,4.432270967761155589e+01,1.300000000000000044e-01
1.661181446000000062e+00,-1.029160687999999935e+00,1.428986505003826402e-01,1.000000000000000048e-04,3.918687580298242068e+01,1.400000000000000133e-01
2.089878704000000198e+00,-1.077863170999999953e+00,1.496881855241494197e-01,1.000000000000000048e-04,3.923017460251251265e+01,1.199999999999999956e-01
9.321550429999999610e-01,-6.212176799999999943e-01,9.759842901969493223e-01,1.000000000000000048e-04,4.400106144328573521e+01,1.199999999999999956e-01
2.944595597000000176e+00,-9.127602249999999806e-01,2.151186434668570513e-01,1.000000000000000048e-04,4.011857037480156407e+01,1.100000000000000006e-01
1.288081913999999939e+00,-9.113959929999999598e-01,4.085924994570140356e-01,1.000000000000000048e-04,4.177900714880249211e+01,1.300000000000000044e-01
1.398731861999999992e+00,-9.625033109999999725e-01,1.054271934999920557e+00,1.000000000000000048e-04,4.418193547015724221e+01,1.199999999999999956e-01
1.714165549000000066e+00,-1.043104095999999981e+00,1.628177484533557262e-01,1.000000000000000048e-04,3.943472104056331773e+01,1.199999999999999956e-01
1.014018395999999989e+00,-6.788913789999999615e-01,1.235073661676487244e+00,1.000000000000000048e-04,4.476932794924977088e+01,1.300000000000000044e-01
8.887761809999999985e-01,-5.541821719999999729e-01,6.827513491262424683e-01,1.000000000000000048e-04,4.308289585458680193e+01,1.300000000000000044e-01
1.026278256999999972e+00,-6.961882160000000264e-01,1.510028161005141367e-01,1.000000000000000048e-04,3.916903813033727744e+01,1.199999999999999956e-01
1.824970581999999952e+00,-1.080428363000000003e+00,6.232939875727321333e-01,1.000000000000000048e-04,4.269214939968340161e+01,1.199999999999999956e-01
1.839979185000000017e+00,-1.082878103999999952e+00,6.011607889365500057e-01,1.000000000000000048e-04,4.288558128160099869e+01,1.300000000000000044e-01
-3.070118813179586237e+00,-7.641942569999999879e-01,6.900687697519996000e-01,1.000000000000000048e-04,4.314634217865600618e+01,1.199999999999999956e-01
2.250776613000000204e+00,-1.110438553999999911e+00,2.474347852003455639e-01,1.000000000000000048e-04,4.049903418280040057e+01,1.199999999999999956e-01
2.613802471000000072e+00,-1.066258922999999914e+00,3.451950039168225626e-01,1.000000000000000048e-04,4.138093674856256854e+01,1.199999999999999956e-01
8.050150120000000298e-01,-4.193234060000000096e-01,6.967710319739297553e-01,1.000000000000000048e-04,4.314554640104250183e+01,1.499999999999999944e-01
2.809576177999999924e+00,-9.952447749999999704e-01,9.472329684349201084e-01,1.000000000000000048e-04,4.401813628813749801e+01,1.199999999999999956e-01
8.523447290000000232e-01,-4.773689010000000121e-01,4.354227587780448161e-01,1.000000000000000048e-04,4.195148595652979395e+01,2.000000000000000111e-01
2.975142320999999868e+00,-8.986192680000000266e-01,6.790313349913714713e-01,1.000000000000000048e-04,4.273944824071184456e+01,2.000000000000000111e-01
2.960578484000000010e+00,-9.174235720000000205e-01,4.285498806177705511e-01,1.000000000000000048e-04,4.175810874116664451e+01,1.400000000000000133e-01
1.589239559999999996e+00,-1.046132274999999945e+00,1.021911874089021843e+00,1.000000000000000048e-04,4.421164521316567431e+01,1.199999999999999956e-01
1.095136271999999966e+00,-7.909478989999999543e-01,3.463780031438556950e-01,1.000000000000000048e-04,4.145844516303814231e+01,1.300000000000000044e-01
3.045277111999999953e+00,-8.831592660000000539e-01,2.660148334853713603e-01,1.000000000000000048e-04,4.094602786781730686e+01,1.799999999999999933e-01
3.011317304999999944e+00,-8.969173430000000335e-01,4.077192308261023967e-01,1.000000000000000048e-04,4.171078770034495875e+01,1.499999999999999944e-01
1.946036051000000100e+00,-1.101857058000000000e+00,1.687775579466206377e-01,1.000000000000000048e-04,3.942424087402492461e+01,1.100000000000000006e-01
9.659444579999999503e-01,-6.400164339999999674e-01,1.175796928450975276e+00,1.000000000000000048e-04,4.452275343620899406e+01,1.199999999999999956e-01
1.142944595999999979e+00,-8.229314749999999679e-01,4.919852109501541282e-01,1.000000000000000048e-04,4.224173282314749400e+01,1.499999999999999944e-01
1.336859599999999926e+00,-9.462661719999999610e-01,2.048182278049248684e-01,1.000000000000000048e-04,4.017353245572933673e+01,1.900000000000000022e-01
2.386695267999999981e+00,-1.099692616000000012e+00,2.568363618086044742e-01,1.000000000000000048e-04,4.072235145403897860e+01,1.799999999999999933e-01
1.122946417999999946e+00,-7.871106610000000448e-01,5.849240439668346170e-01,1.000000000000000048e-04,4.276178935885582177e+01,1.499999999999999944e-01
1.038511049000000019e+00,-6.836743480000000428e-01,4.604499375095816305e-01,1.000000000000000048e-04,4.208555607973168122e+01,1.499999999999999944e-01
-1.865548755179585960e+00,5.988235499999999822e-01,7.104124198194690099e-01,1.000000000000000048e-04,4.331822319610564875e+01,3.599999999999999867e-01
-1.208774007179585830e+00,1.086301519000000049e+00,2.180098172772610976e-01,1.000000000000000048e-04,4.038921261958788023e+01,3.900000000000000133e-01
-1.451351928179586359e+00,1.047303024999999943e+00,1.675513172161058328e-01,1.000000000000000048e-04,3.941028149762488653e+01,3.900000000000000133e-01
-1.863787002179586594e+00,5.986409590000000280e-01,3.508155688586880316e-01,1.000000000000000048e-04,4.097108025740036652e+01,3.099999999999999978e-01
-2.367107747179586053e+00,3.570653329999999848e-01,1.627477146474007874e-01,1.000000000000000048e-04,3.969391887474235858e+01,3.300000000000000155e-01
3.110012692999999828e+00,-8.816387980000000013e-01,3.791455662198461862e-01,1.000000000000000048e-04,4.203419702140300274e+01,4.000000000000000222e-01
1.208427087000000011e+00,6.391205479999999550e-01,8.777620421007243934e-01,1.000000000000000048e-04,4.383588516437180260e+01,3.200000000000000067e-01
2.195568135999999893e+00,9.530612539999999688e-01,4.446459171814778344e-01,1.000000000000000048e-04,4.162512389329059914e+01,3.200000000000000067e-01
-1.746303855179585973e+00,7.561700099999999480e-01,6.241991288918451453e-01,1.000000000000000048e-04,4.252342804942932020e+01,3.599999999999999867e-01
-2.613733020179586308e+00,3.020363409999999860e-01,5.260223762119098367e-01,1.000000000000000048e-04,4.272578207716917120e+01,2.399999999999999911e-01
3.080075141000000016e+00,6.813462000000000129e-01,1.817708112413907173e-01,1.000000000000000048e-04,4.004105747012113881e+01,2.999999999999999889e-01
3.084152930000000126e+00,6.750201959999999612e-01,3.810649547133893034e-01,1.000000000000000048e-04,4.157726312469040408e+01,2.399999999999999911e-01
-2.831540824179586302e+00,-5.193198470000000011e-01,5.581632640259341915e-01,1.000000000000000048e-04,4.288179339330210382e+01,2.899999999999999800e-01
2.921667255000000019e+00,-9.403574120000000036e-01,4.023977768071671512e-01,1.000000000000000048e-04,4.158728526855612984e+01,2.899999999999999800e-01
2.610543199999999953e+00,9.294079060000000059e-01,4.491957493607350305e-01,1.000000000000000048e-04,4.175123744245860280e+01,2.899999999999999800e-01
2.614058957000000127e+00,9.310355519999999885e-01,1.907762113737194731e-01,1.000000000000000048e-04,3.952929367709192121e+01,3.699999999999999956e-01
-2.614313936179586406e+00,3.105085300000000048e-01,6.932601147414563236e-01,1.000000000000000048e-04,4.337802460631737489e+01,2.300000000000000100e-01
-2.614275993179586255e+00,3.084493819999999942e-01,2.385991670819256338e-01,1.000000000000000048e-04,4.014560781051975624e+01,2.000000000000000111e-01
3.080236718000000096e+00,6.852664600000000217e-01,2.648289608109142268e-01,1.000000000000000048e-04,4.031676044818728144e+01,3.800000000000000044e-01
3.085135451000000195e+00,6.840520260000000352e-01,6.046297738456765103e-01,1.000000000000000048e-04,4.244505967675060276e+01,2.300000000000000100e-01
-2.829361723179586452e+00,-5.190188390000000096e-01,3.846805612104189365e-01,1.000000000000000048e-04,4.172538489237354753e+01,3.900000000000000133e-01
-2.833706243179586082e+00,-5.260186759999999628e-01,1.955588301494026737e-01,1.000000000000000048e-04,3.955559730895469528e+01,2.200000000000000011e-01
1.286414458000000094e+00,-9.076167339999999806e-01,1.328011935214967743e-01,1.000000000000000048e-04,3.901459504787852950e+01,2.399999999999999911e-01
2.295144749999999956e+00,-1.095028292000000070e+00,1.717456404916548607e-01,1.000000000000000048e-04,3.980504302668757077e+01,2.000000000000000111e-01
2.312115046000000174e+00,-1.091482969000000081e+00,3.343701091197068820e-01,1.000000000000000048e-04,4.151186039979821629e+01,1.900000000000000022e-01
2.535381049000000164e+00,-1.063602453999999975e+00,1.605105677872873393e-01,1.000000000000000048e-04,3.936786276060036727e+01,2.600000000000000089e-01
2.549902755000000187e+00,-1.059649137999999935e+00,4.372553942976491470e-01,1.000000000000000048e-04,4.170482638697762923e+01,1.900000000000000022e-01
-2.980466121795863899e-01,1.081935794000000062e+00,2.781176139361041244e-01,1.000000000000000048e-04,4.100349036846860429e+01,1.000000000000000056e-01
-4.562223411795862660e-01,1.078420874000000085e+00,5.906077158167126750e-01,1.000000000000000048e-04,4.263613372822844383e+01,1.400000000000000133e-01
-4.727696341795866175e-01,1.076427226000000070e+00,7.915410232587174466e-01,1.000000000000000048e-04,4.351527401503273040e+01,1.900000000000000022e-01
-4.909850281795860028e-01,1.086050390999999893e+00,3.158220559286981644e-01,1.000000000000000048e-04,4.129020977111651547e+01,1.499999999999999944e-01
-1.809890014179586615e+00,8.554848849999999727e-01,7.788312554935346022e-01,1.000000000000000048e-04,4.346642805936858167e+01,1.900000000000000022e-01
-1.804843805179586091e+00,8.509932909999999850e-01,1.256581921967339088e-01,1.000000000000000048e-04,3.902250389669497821e+01,1.700000000000000122e-01
-1.798315402179586187e+00,8.389159160000000393e-01,7.285860035184150707e-01,1.000000000000000048e-04,4.320552100202763057e+01,1.100000000000000006e-01
-1.820018681179586650e+00,8.404092629999999620e-01,6.075290117998382033e-01,1.000000000000000048e-04,4.275168181379856946e+01,2.000000000000000111e-01
-2.435936564179586039e+00,3.767214549999999829e-01,2.184469676742357702e-01,1.000000000000000048e-04,4.009481814193394911e+01,1.700000000000000122e-01
-2.738532057179586143e+00,-4.670391260000000266e-01,5.963226761712185908e-01,1.000000000000000048e-04,4.273222300679560703e+01,1.100000000000000006e-01
-2.750126147179586145e+00,-4.750163370000000107e-01,3.520681558906471054e-01,1.000000000000000048e-04,4.154803037569786284e+01,1.700000000000000122e-01
6.777063359999999648e-01,-9.284162910000000046e-01,2.658310044641867265e-01,1.000000000000000048e-04,4.058724104299662372e+01,1.600000000000000033e-01
6.755664329999999662e-01,-9.242990760000000527e-01,1.966358393039702168e-01,1.000000000000000048e-04,4.003533953560956604e+01,2.200000000000000011e-01
1.666277256000000095e+00,1.035703752000000089e+00,9.565179596179729238e-01,1.000000000000000048e-04,4.412583222080795764e+01,2.800000000000000266e-01
1.679531192000000006e+00,1.034147155999999956e+00,1.239887176277669756e-01,1.000000000000000048e-04,3.908758459806318086e+01,2.099999999999999922e-01
1.669961188000000041e+00,1.045784459000000055e+00,2.936512426651769481e-01,1.000000000000000048e-04,4.096677179788682110e+01,2.899999999999999800e-01
1.666612017000000057e+00,1.035903760999999923e+00,5.978762886939994470e-01,1.000000000000000048e-04,4.251712691731684401e+01,1.400000000000000133e-01
1.676630470000000095e+00,1.049302589999999924e+00,7.167077354448461168e-01,1.000000000000000048e-04,4.318497470697286644e+01,1.600000000000000033e-01
1.678871634000000057e+00,1.037439988999999896e+00,2.747341817116335516e-01,1.000000000000000048e-04,4.073230981510589288e+01,2.099999999999999922e-01
-2.159653925179585876e+00,7.341517600000000421e-01,6.180612159078113788e-01,1.000000000000000048e-04,4.293855392565675544e+01,2.600000000000000089e-01
-2.155609593179586447e+00,7.327229189999999726e-01,1.499731573233948900e-01,1.000000000000000048e-04,3.917179986326905805e+01,1.400000000000000133e-01
2.989279821999999864e+00,-1.014333855000000062e+00,7.211409132750101758e-01,1.000000000000000048e-04,4.328275476516331111e+01,1.600000000000000033e-01
6.962963009999999509e-01,-9.242906640000000396e-01,7.829581776354335165e-01,1.000000000000000048e-04,4.348960094126174170e+01,2.000000000000000111e-01
6.831622830000000368e-01,-9.295060950000000322e-01,1.432042291438591075e-01,1.000000000000000048e-04,3.896923309587977968e+01,2.099999999999999922e-01
6.813526220000000189e-01,-9.196739680000000083e-01,1.254406181307551105e+00,1.000000000000000048e-04,4.446890154250651506e+01,1.700000000000000122e-01
1.667475545999999920e+00,1.039138789999999979e+00,4.759014786039119649e-01,1.000000000000000048e-04,4.217071453893867528e+01,1.499999999999999944e-01
1.669072946000000002e+00,1.039627206000000026e+00,7.202629399449398395e-01,1.000000000000000048e-04,4.336875612588267614e+01,1.700000000000000122e-01
2.992464221000000091e+00,-1.009427984000000000e+00,1.533629896720736241e-01,1.000000000000000048e-04,3.954309692868512371e+01,1.400000000000000133e-01
3.013377762000000182e+00,-1.015725085999999999e+00,6.077051631002456933e-01,1.000000000000000048e-04,4.287241539838236548e+01,1.499999999999999944e-01
6.857830799999999893e-01,-9.290922369999999875e-01,3.500105963620181448e-01,1.000000000000000048e-04,4.066241615922767494e+01,3.400000000000000244e-01
6.874880420000000214e-01,-9.251381180000000093e-01,1.827817552342219098e-01,1.000000000000000048e-04,3.995454773903270507e+01,1.700000000000000122e-01
1.659686511000000086e+00,1.040101345999999927e+00,7.186425973767067710e-01,1.000000000000000048e-04,4.320510665275418916e+01,1.400000000000000133e-01
1.692629780999999944e+00,1.043637506000000048e+00,3.144694324027181853e-01,1.000000000000000048e-04,4.100721210989725307e+01,1.799999999999999933e-01
1.682450028999999958e+00,1.049226146999999942e+00,2.353705148993370244e-01,1.000000000000000048e-04,4.011935763370318853e+01,1.900000000000000022e-01
1.675255906999999933e+00,1.048468626000000015e+00,5.749583871545180802e-01,1.000000000000000048e-04,4.252027303396064184e+01,1.499999999999999944e-01
1.692145135000000078e+00,1.039981480000000014e+00,4.997173366263327754e-01,1.000000000000000048e-04,4.207442649720637462e+01,1.700000000000000122e-01
-2.139768073179586061e+00,7.360294179999999908e-01,1.969524363480750218e-01,1.000000000000000048e-04,3.994156925430107208e+01,1.600000000000000033e-01
-2.138731675179585956e+00,7.369836659999999817e-01,3.914747340619686433e-01,1.000000000000000048e-04,4.179445371795858222e+01,1.499999999999999944e-01
6.888283630000000546e-01,-9.193630990000000169e-01,1.083099238684578580e+00,1.000000000000000048e-04,4.435948327897542498e+01,1.700000000000000122e-01
6.776433490000000059e-01,-9.225326109999999469e-01,4.912080604701238862e-01,1.000000000000000048e-04,4.236479101240858114e+01,1.600000000000000033e-01
6.820513620000000499e-01,-9.162569579999999547e-01,2.730105067731976032e-01,1.000000000000000048e-04,4.038187846140054660e+01,2.899999999999999800e-01
6.832637360000000104e-01,-9.208365670000000502e-01,9.496177337916364980e-01,1.000000000000000048e-04,4.386105022171275181e+01,1.400000000000000133e-01
1.683256381999999940e+00,1.050427892999999946e+00,2.928298950385062049e-01,1.000000000000000048e-04,4.123287248975262287e+01,1.499999999999999944e-01
2.987248335999999949e+00,-1.011507587000000097e+00,3.123795261712825067e-01,1.000000000000000048e-04,4.128527269291554802e+01,1.900000000000000022e-01
2.994879214000000012e+00,-1.020537374999999969e+00,2.471105414202243722e-01,1.000000000000000048e-04,4.055857469568481832e+01,2.500000000000000000e-01
2.997056848999999801e+00,-1.020797841000000039e+00,4.335386352675163479e-01,1.000000000000000048e-04,4.219229226390231702e+01,1.499999999999999944e-01
6.981827720000000070e-01,-9.201470600000000166e-01,2.160947002316222498e-01,1.000000000000000048e-04,4.001521842203477775e+01,2.099999999999999922e-01
1.675679171999999939e+00,1.042232051000000048e+00,4.978262416579177785e-01,1.000000000000000048e-04,4.212444436273609938e+01,1.900000000000000022e-01
1.682732345000000018e+00,1.051774148000000020e+00,2.686570648251704885e-01,1.000000000000000048e-04,4.083729249424484919e+01,2.099999999999999922e-01
1.655763980999999996e+00,1.041789395999999979e+00,6.956258722314592191e-01,1.000000000000000048e-04,4.336779465062970473e+01,2.099999999999999922e-01
1.658505131999999938e+00,1.042043577999999915e+00,1.670620344578850336e-01,1.000000000000000048e-04,3.971736691075295056e+01,1.499999999999999944e-01
1.679931540999999973e+00,1.044700675999999939e+00,3.117743678147470998e-01,1.000000000000000048e-04,4.090281735204712987e+01,1.400000000000000133e-01
1.681131209999999987e+00,1.046558263000000100e+00,2.250217178886693148e-01,1.000000000000000048e-04,4.036167871194843570e+01,3.800000000000000044e-01
-2.147380102179586636e+00,7.248191320000000326e-01,3.343809962346553366e-01,1.000000000000000048e-04,4.145620089987007617e+01,2.200000000000000011e-01
-2.137481690179586558e+00,7.386978770000000027e-01,4.274291298948711404e-01,1.000000000000000048e-04,4.174955839665233981e+01,1.499999999999999944e-01
3.007533192999999994e+00,-1.006434849999999992e+00,1.057556461773852430e+00,1.000000000000000048e-04,4.415590875744694443e+01,1.700000000000000122e-01
6.766177190000000063e-01,-9.309161569999999664e-01,7.104435748360877767e-01,1.000000000000000048e-04,4.301528445621213592e+01,1.700000000000000122e-01
6.879719020000000240e-01,-9.170357009999999809e-01,4.442761040691776131e-01,1.000000000000000048e-04,4.193919209813005011e+01,2.600000000000000089e-01
6.868192690000000100e-01,-9.190749710000000183e-01,8.628038556589157082e-01,1.000000000000000048e-04,4.371174074191390702e+01,2.800000000000000266e-01
1.680927606000000019e+00,1.043199457999999913e+00,2.427406495133650477e-01,1.000000000000000048e-04,4.036843851296116270e+01,1.799999999999999933e-01
1.680733408999999901e+00,1.046110547000000057e+00,2.507265369475084604e-01,1.000000000000000048e-04,4.030353283134654419e+01,1.499999999999999944e-01
3.003205794999999956e+00,-1.007960921000000010e+00,3.401230400640307128e-01,1.000000000000000048e-04,4.092107651317874684e+01,2.200000000000000011e-01
3.013387552999999830e+00,-1.018013843000000085e+00,8.300386901695535613e-01,1.000000000000000048e-04,4.360177335787910380e+01,2.000000000000000111e-01
2.991633154000000072e+00,-1.018575491000000000e+00,1.993714192506614857e-01,1.000000000000000048e-04,3.970332117484032608e+01,1.600000000000000033e-01
6.810583510000000063e-01,-9.216344210000000370e-01,3.521688641952136489e-01,1.000000000000000048e-04,4.130061226090704452e+01,1.600000000000000033e-01
1.670069762000000013e+00,1.048284639000000018e+00,2.495542047907732819e-01,1.000000000000000048e-04,4.075572292361939475e+01,2.099999999999999922e-01
1.699713636000000028e+00,1.040243690999999915e+00,6.782386700564810855e-01,1.000000000000000048e-04,4.287299590006181660e+01,2.899999999999999800e-01
1.686195045999999920e+00,1.048540513999999924e+00,1.968933704519784111e-01,1.000000000000000048e-04,3.993785575971779878e+01,1.400000000000000133e-01
1.667162669999999958e+00,1.044746053999999980e+00,4.961523141402990333e-01,1.000000000000000048e-04,4.200497648811067819e+01,2.700000000000000178e-01
1.689467040999999892e+00,1.036330184999999959e+00,3.732884056125584937e-01,1.000000000000000048e-04,4.159639674997127656e+01,1.300000000000000044e-01
1.683799076999999977e+00,1.043385784000000038e+00,2.317807109272083110e-01,1.000000000000000048e-04,4.004286896664171280e+01,1.700000000000000122e-01
-2.151455832179586025e+00,7.398983139999999459e-01,2.562963970828788796e-01,1.000000000000000048e-04,4.057866359800875244e+01,2.500000000000000000e-01
-2.141944958179585967e+00,7.302793560000000461e-01,2.408373019075891186e-01,1.000000000000000048e-04,4.030491260180234292e+01,1.400000000000000133e-01
3.012489310999999947e+00,-1.019874449000000016e+00,2.381334721485677264e-01,1.000000000000000048e-04,4.050852301512875187e+01,1.900000000000000022e-01
6.824463880000000149e-01,-9.193269539999999740e-01,7.817242242213866543e-01,1.000000000000000048e-04,4.336678350571088458e+01,1.600000000000000033e-01
6.933168330000000212e-01,-9.307474239999999899e-01,2.474042534474341082e-01,1.000000000000000048e-04,4.038503037716057520e+01,1.600000000000000033e-01
7.005346909999999871e-01,-9.247541049999999929e-01,5.252321081989141938e-01,1.000000000000000048e-04,4.240412391589258334e+01,2.700000000000000178e-01
1.674988617999999985e+00,1.042237757999999959e+00,3.812021702073407070e-01,1.000000000000000048e-04,4.153246745748209889e+01,1.499999999999999944e-01
1.672026148000000045e+00,1.039374368000000048e+00,2.569459069388115857e-01,1.000000000000000048e-04,4.030950869389931768e+01,1.600000000000000033e-01
2.993618983999999816e+00,-1.008517228000000099e+00,1.548676362341858681e-01,1.000000000000000048e-04,3.919279951706803189e+01,1.700000000000000122e-01
2.992837709999999873e+00,-1.014889098000000045e+00,4.611639211169455965e-01,1.000000000000000048e-04,4.175554715820089058e+01,2.800000000000000266e-01
2.980621672999999916e+00,-1.012535224000000067e+00,3.029582133955788237e-01,1.000000000000000048e-04,4.107498167078504991e+01,1.499999999999999944e-01
3.118379398000000080e+00,-1.044341935000000055e+00,3.758648378717335259e-01,1.000000000000000048e-04,4.113475173646084215e+01,3.099999999999999978e-01
3.132904315000000217e+00,-1.046896950999999909e+00,1.401764975588475348e-01,1.000000000000000048e-04,3.913632923609674208e+01,2.200000000000000011e-01
1.248659997999999938e+00,-1.117162079000000086e+00,1.708166463043010452e-01,1.000000000000000048e-04,3.950124843980696454e+01,2.700000000000000178e-01
2.302446713000000145e+00,-1.091359299000000060e+00,1.595333552997226789e-01,1.000000000000000048e-04,3.928911423947862858e+01,2.899999999999999800e-01
3.133486173000000097e+00,-1.061461677999999909e+00,5.429875339484067087e-01,1.000000000000000048e-04,4.276218373554709018e+01,3.099999999999999978e-01
1.251013366000000016e+00,-1.102704651999999896e+00,8.262963509464049672e-01,1.000000000000000048e-04,4.364481856345043553e+01,2.300000000000000100e-01
1.232341668999999973e+00,-1.105349812000000043e+00,3.363802741056980405e-01,1.000000000000000048e-04,4.143965291733483980e+01,2.200000000000000011e-01
2.330538756999999794e+00,-1.086213730999999960e+00,8.333327773926566540e-01,1.000000000000000048e-04,4.386772412834094581e+01,2.300000000000000100e-01
3.104372880000000112e+00,-1.050765708999999992e+00,4.587606475487340241e-01,1.000000000000000048e-04,4.217133148204307247e+01,2.200000000000000011e-01
3.122794933000000217e+00,-1.050942575000000101e+00,3.680880158420838377e-01,1.000000000000000048e-04,4.098102409385180067e+01,2.099999999999999922e-01
3.135928428000000157e+00,-1.044986675000000087e+00,1.286363071636451583e-01,1.000000000000000048e-04,3.853291379651044934e+01,2.300000000000000100e-01
3.135701593999999925e+00,-1.049448040999999998e+00,1.292491281242993395e-01,1.000000000000000048e-04,3.896907441171434527e+01,2.399999999999999911e-01
2.902190216000000156e+00,-1.054666754000000095e+00,1.698620518596487550e-01,1.000000000000000048e-04,4.023737812360278099e+01,2.099999999999999922e-01
1.219278212000000083e+00,-1.102494101000000004e+00,1.331142484808351956e-01,1.000000000000000048e-04,3.893742917016719218e+01,2.399999999999999911e-01
2.314258420999999899e+00,-1.073777474999999981e+00,3.016052879841293333e-01,1.000000000000000048e-04,4.058820951579073011e+01,2.399999999999999911e-01
3.138600745000000192e+00,-1.056209613999999908e+00,1.129854994540538726e+00,1.000000000000000048e-04,4.510667984516555862e+01,2.800000000000000266e-01
2.873014373000000177e+00,-1.047336534999999902e+00,2.865513675499968826e-01,1.000000000000000048e-04,4.105929229975232175e+01,2.000000000000000111e-01
2.890150627000000139e+00,-1.045368942999999939e+00,2.080063105860188166e-01,1.000000000000000048e-04,3.981243671204191514e+01,2.200000000000000011e-01
-3.136513490179586139e+00,-1.038988312000000080e+00,6.703390999966041264e-01,1.000000000000000048e-04,4.333797254478482586e+01,2.800000000000000266e-01
3.120369102000000172e+00,-1.042910143999999928e+00,2.087954018159525749e-01,1.000000000000000048e-04,4.029602254677772066e+01,2.399999999999999911e-01
3.132773262000000170e+00,-1.048570620000000009e+00,3.624923978764333921e-01,1.000000000000000048e-04,4.143536872873250587e+01,2.300000000000000100e-01
3.132934141999999866e+00,-1.046888051000000042e+00,3.884291488042774798e-01,1.000000000000000048e-04,4.132373710043448511e+01,2.200000000000000011e-01
3.134455274000000014e+00,-1.046257098000000108e+00,1.338979793607195656e-01,1.000000000000000048e-04,3.914712368190268421e+01,2.200000000000000011e-01
2.910504301000000016e+00,-1.063930792999999930e+00,1.562446478844465858e-01,1.000000000000000048e-04,3.958123046205371054e+01,2.399999999999999911e-01
2.301930878999999930e+00,-1.084305269999999988e+00,1.854675526813234221e-01,1.000000000000000048e-04,3.973207601494984686e+01,3.099999999999999978e-01
2.314913878000000036e+00,-1.104421796000000011e+00,4.080464198632491879e-01,1.000000000000000048e-04,4.188017197810086856e+01,2.600000000000000089e-01
1.232494258000000009e+00,-1.089556776000000005e+00,6.389870924506677596e-01,1.000000000000000048e-04,4.352602219468232647e+01,3.099999999999999978e-01
-3.138875270179586341e+00,-1.027091259999999950e+00,1.361438432644104246e-01,1.000000000000000048e-04,3.931510718069853993e+01,3.800000000000000044e-01
1.277748142000000087e+00,-1.105660628999999950e+00,9.966086275101102565e-01,1.000000000000000048e-04,4.417534555166417221e+01,2.500000000000000000e-01
2.339694710999999927e+00,-1.083680948999999893e+00,6.313892387757873426e-01,1.000000000000000048e-04,4.312583173981113305e+01,2.300000000000000100e-01
3.085408954000000037e+00,-1.045989441999999991e+00,1.298660205653019428e-01,1.000000000000000048e-04,3.885292927521811635e+01,2.800000000000000266e-01
3.122183823999999941e+00,-1.053540683000000033e+00,4.265625124719030214e-01,1.000000000000000048e-04,4.166680776062277403e+01,3.699999999999999956e-01
1.263417701000000060e+00,-1.099941301000000093e+00,7.959850951840732325e-01,1.000000000000000048e-04,4.355342935261423776e+01,2.200000000000000011e-01
1.238769020999999970e+00,-1.122513239999999968e+00,4.197626861247460983e-01,1.000000000000000048e-04,4.206201507849590371e+01,2.600000000000000089e-01
1.225778744000000087e+00,-1.107856694000000086e+00,8.620555509951806084e-01,1.000000000000000048e-04,4.386529611850055232e+01,2.500000000000000000e-01
2.356185176999999964e+00,-1.090954028000000076e+00,4.555176085060079760e-01,1.000000000000000048e-04,4.183942409515314154e+01,2.700000000000000178e-01
1.231078855000000027e+00,-1.109460918999999990e+00,2.906503682205594519e-01,1.000000000000000048e-04,4.077231489434176126e+01,2.300000000000000100e-01
2.350025410999999842e+00,-1.078254897999999962e+00,1.218218627848030700e+00,1.000000000000000048e-04,4.514248265758269696e+01,2.300000000000000100e-01
2.889344674999999807e+00,-1.054064458000000037e+00,1.809962486806055981e-01,1.000000000000000048e-04,3.967130115917615996e+01,3.200000000000000067e-01
1.260972444000000081e+00,-1.102168519999999985e+00,5.068903932266859425e-01,1.000000000000000048e-04,4.236344463225181300e+01,2.899999999999999800e-01
3.138597202000000141e+00,-1.049455424000000026e+00,2.099343511239977200e-01,1.000000000000000048e-04,4.017812687432683560e+01,2.600000000000000089e-01
1.280173519000000093e+00,-1.106045986000000036e+00,3.675837634488952066e-01,1.000000000000000048e-04,4.175960830917409794e+01,2.899999999999999800e-01
3.140421104000000074e+00,-1.048273016000000002e+00,6.994969668056578715e-01,1.000000000000000048e-04,4.329001334022419911e+01,2.700000000000000178e-01
2.887571490000000018e+00,-1.060290981000000077e+00,1.706280593051667793e-01,1.000000000000000048e-04,3.937683280701483568e+01,2.300000000000000100e-01
3.117377486000000086e+00,-1.048849812999999909e+00,1.256141977141094213e-01,1.000000000000000048e-04,3.853295429460231958e+01,2.800000000000000266e-01
3.139331405000000075e+00,-1.045946368000000071e+00,1.219667770156962483e-01,1.000000000000000048e-04,3.874818702250104252e+01,2.300000000000000100e-01
2.901812189000000153e+00,-1.070407117000000019e+00,1.182068282326496078e-01,1.000000000000000048e-04,3.856217484374318616e+01,2.200000000000000011e-01
2.874698792999999863e+00,-1.069280417999999955e+00,9.732750561192435867e-01,1.000000000000000048e-04,4.369992230490402818e+01,2.200000000000000011e-01
3.126790450000000110e+00,-1.053686536000000062e+00,4.765748871318669089e-01,1.000000000000000048e-04,4.205492239109518948e+01,2.099999999999999922e-01
1.253234667999999941e+00,-1.096167120000000050e+00,4.763387111138661645e-01,1.000000000000000048e-04,4.207009644919593683e+01,2.200000000000000011e-01
1.242189800000000011e+00,-1.095888138000000067e+00,3.834095798346652817e-01,1.000000000000000048e-04,4.207505286929776389e+01,2.899999999999999800e-01
2.358704259000000025e+00,-1.096119858000000002e+00,3.502432772122132665e-01,1.000000000000000048e-04,4.097495839550838781e+01,2.099999999999999922e-01
3.090657074000000115e+00,-1.046905049999999893e+00,8.622831185295689593e-01,1.000000000000000048e-04,4.393984655853249421e+01,2.300000000000000100e-01
2.350320292999999783e+00,-1.077642637000000070e+00,7.994260526484728846e-01,1.000000000000000048e-04,4.270780328080493149e+01,3.300000000000000155e-01
3.120911620999999858e+00,-1.047605429999999949e+00,4.114198381174647423e-01,1.000000000000000048e-04,4.191742892260351994e+01,2.899999999999999800e-01
2.310418793000000193e+00,-1.091478047999999923e+00,2.567133974380986228e-01,1.000000000000000048e-04,4.080680587428785344e+01,3.300000000000000155e-01
2.888242410000000149e+00,-1.055260810999999910e+00,1.343045092252617145e-01,1.000000000000000048e-04,3.889984819306313568e+01,2.999999999999999889e-01
2.313880778000000138e+00,-1.089056457000000089e+00,2.500634119405920064e-01,1.000000000000000048e-04,4.049698384878573165e+01,2.600000000000000089e-01
3.096505394999999883e+00,-1.050897790999999915e+00,1.204490364414620984e-01,1.000000000000000048e-04,3.844024434535337775e+01,3.300000000000000155e-01
1.264206060000000020e+00,-1.108314516000000083e+00,1.372957023107543861e-01,1.000000000000000048e-04,3.911026533055174781e+01,2.500000000000000000e-01
2.317080779999999951e+00,-1.080569537999999996e+00,2.829164105332799828e-01,1.000000000000000048e-04,4.082909570117178788e+01,2.399999999999999911e-01
2.308161032000000112e+00,-1.080284865999999955e+00,7.041300884181853625e-01,1.000000000000000048e-04,4.374252107011307800e+01,3.900000000000000133e-01
1.213089824000000094e+00,-1.095999417000000031e+00,5.170160580876270728e-01,1.000000000000000048e-04,4.228658679066171544e+01,2.700000000000000178e-01
3.095344697999999894e+00,-1.044259242999999948e+00,1.906036008969307360e-01,1.000000000000000048e-04,4.003790011524888826e+01,2.200000000000000011e-01
3.093500166000000107e+00,-1.047656949999999920e+00,2.580119512592524700e-01,1.000000000000000048e-04,4.016683097671665337e+01,2.300000000000000100e-01
2.871266652000000086e+00,-1.064917746999999970e+00,1.698615162241696730e-01,1.000000000000000048e-04,3.965964615837128093e+01,2.500000000000000000e-01
2.872879009000000039e+00,-1.076645507999999918e+00,2.526710128773068664e-01,1.000000000000000048e-04,4.025448181982210372e+01,2.099999999999999922e-01
1.241294699000000001e+00,-1.109043570000000090e+00,1.880488354528879746e-01,1.000000000000000048e-04,3.975898632668047838e+01,2.099999999999999922e-01
1.238788393000000099e+00,-1.083197141000000085e+00,1.881575020196801784e-01,1.000000000000000048e-04,3.932565816101321587e+01,2.999999999999999889e-01
-3.140928712179586135e+00,-1.049943351000000025e+00,4.467395375603280261e-01,1.000000000000000048e-04,4.164471237761222966e+01,2.200000000000000011e-01
2.897074545000000168e+00,-1.050668165000000043e+00,2.212836747644162383e-01,1.000000000000000048e-04,4.015001901346274593e+01,2.099999999999999922e-01
3.133488720999999977e+00,-1.053899826000000095e+00,8.585678559457810000e-01,1.000000000000000048e-04,4.362799558906461783e+01,2.300000000000000100e-01
2.854965548000000020e+00,-1.051119023000000041e+00,2.272444601986884916e-01,1.000000000000000048e-04,4.049710859854657485e+01,3.200000000000000067e-01
2.846666281000000076e+00,-1.061494909000000098e+00,6.050926258232580679e-01,1.000000000000000048e-04,4.273286007733705105e+01,2.600000000000000089e-01
1.477625364000000108e+00,-9.892628350000000070e-01,2.195269627991023320e-01,1.000000000000000048e-04,4.010796063909809561e+01,2.000000000000000111e-01
-2.998301261179586064e+00,-5.567642400000000213e-01,3.298058164511530332e-01,1.000000000000000048e-04,4.128896417520108741e+01,1.799999999999999933e-01
2.915910107000000195e+00,-9.248875840000000403e-01,4.281163971857644412e-01,1.000000000000000048e-04,4.208919805186636154e+01,2.999999999999999889e-01
2.904218159000000021e+00,-9.279150130000000107e-01,3.014279735848044428e-01,1.000000000000000048e-04,4.105072515730265792e+01,2.399999999999999911e-01
2.945746643000000109e+00,-9.241091030000000428e-01,1.454576228207922206e-01,1.000000000000000048e-04,3.920770915939237256e+01,2.300000000000000100e-01
2.195221751000000054e+00,9.567984520000000215e-01,8.000978381222330071e-01,1.000000000000000048e-04,4.348042375282232541e+01,2.200000000000000011e-01
-2.382074272179586227e+00,-9.504311730000000180e-01,3.800201141933878812e-01,1.000000000000000048e-04,4.185269886001180595e+01,2.300000000000000100e-01
2.197803225999999999e+00,9.560313849999999558e-01,2.443715495935920856e-01,1.000000000000000048e-04,4.022964868766299418e+01,2.300000000000000100e-01
-2.380846050179586282e+00,-9.512843520000000552e-01,3.980590367342713431e-01,1.000000000000000048e-04,4.138964643258232456e+01,2.600000000000000089e-01
-2.382960995179586039e+00,-9.501026420000000527e-01,4.267809952313874611e-01,1.000000000000000048e-04,4.189303745342211727e+01,2.099999999999999922e-01
2.192165822000000208e+00,9.554729659999999791e-01,6.214843969437147120e-01,1.000000000000000048e-04,4.295451640297861928e+01,2.899999999999999800e-01
-2.383512939179586176e+00,-9.505219620000000535e-01,5.021239370201284746e-01,1.000000000000000048e-04,4.253526767068111525e+01,2.000000000000000111e-01
2.197044292000000176e+00,9.582492320000000063e-01,2.770718333423087820e-01,1.000000000000000048e-04,4.100799072793461875e+01,2.500000000000000000e-01
2.198013217999999824e+00,9.570721989999999568e-01,7.884806866215854360e-01,1.000000000000000048e-04,4.371911021546667087e+01,2.099999999999999922e-01
2.198391541999999976e+00,9.561199929999999458e-01,1.218314647811862272e-01,1.000000000000000048e-04,3.897308995043271551e+01,2.300000000000000100e-01
2.199218732999999926e+00,9.570277640000000030e-01,3.770738480677782167e-01,1.000000000000000048e-04,4.153640574066097457e+01,2.200000000000000011e-01
2.196667974999999995e+00,9.569524729999999701e-01,2.717965323957445278e-01,1.000000000000000048e-04,4.056624678938563733e+01,2.399999999999999911e-01
2.196400267000000017e+00,9.571105250000000453e-01,1.413915021657539128e-01,1.000000000000000048e-04,3.908833755710941205e+01,2.500000000000000000e-01
2.195980999000000100e+00,9.563170869999999546e-01,1.723092675079340719e-01,1.000000000000000048e-04,3.989154866744484451e+01,2.200000000000000011e-01
2.198886345000000020e+00,9.574225640000000315e-01,2.206968184552724477e-01,1.000000000000000048e-04,4.055204977376966724e+01,3.300000000000000155e-01
-2.382942164179586264e+00,-9.487821469999999646e-01,5.939942084176941250e-01,1.000000000000000048e-04,4.278339403445745148e+01,2.000000000000000111e-01
2.197058621000000045e+00,9.568337070000000333e-01,2.934456231182471786e-01,1.000000000000000048e-04,4.112980833649497470e+01,2.600000000000000089e-01
2.196754174000000059e+00,9.569828230000000380e-01,5.939890139424652826e-01,1.000000000000000048e-04,4.267440396126809077e+01,2.399999999999999911e-01
-2.381905888179586039e+00,-9.494029419999999719e-01,6.342111290790342082e-01,1.000000000000000048e-04,4.276265558083218110e+01,2.399999999999999911e-01
-2.382353656179586388e+00,-9.501919130000000546e-01,4.677491306519356851e-01,1.000000000000000048e-04,4.225600905384015249e+01,2.600000000000000089e-01
-2.385313647179586383e+00,-9.492824659999999914e-01,4.793110382700698224e-01,1.000000000000000048e-04,4.162983329660355025e+01,2.399999999999999911e-01
-2.383308463179586223e+00,-9.502672559999999491e-01,2.898570484823650428e-01,1.000000000000000048e-04,4.089237774104459788e+01,2.000000000000000111e-01
2.194446376000000143e+00,9.548028840000000184e-01,1.045266579079149327e+00,1.000000000000000048e-04,4.452789085612118924e+01,3.699999999999999956e-01
-2.377678389179586294e+00,-9.493284189999999789e-01,1.559768557339058503e-01,1.000000000000000048e-04,3.884414135770575172e+01,3.099999999999999978e-01
2.195048706000000127e+00,9.553664520000000326e-01,7.986151849040274975e-01,1.000000000000000048e-04,4.357409094019688212e+01,2.399999999999999911e-01
2.194988459000000169e+00,9.569281090000000267e-01,1.022119108351511763e+00,1.000000000000000048e-04,4.386280090701813350e+01,2.099999999999999922e-01
2.198773670000000013e+00,9.585742720000000050e-01,2.077442158238393954e-01,1.000000000000000048e-04,3.997893818602933180e+01,2.800000000000000266e-01
2.196007632000000154e+00,9.574002940000000406e-01,4.286321005103066462e-01,1.000000000000000048e-04,4.176736084939919635e+01,2.800000000000000266e-01
2.193610842000000005e+00,9.569156829999999614e-01,7.072664944922752994e-01,1.000000000000000048e-04,4.348479892368705180e+01,2.099999999999999922e-01
2.194846306000000080e+00,9.574700699999999509e-01,2.080046460972666544e-01,1.000000000000000048e-04,3.992945825473120181e+01,2.300000000000000100e-01
-2.901318991795864832e-01,1.086903570000000041e+00,4.377940494671908045e-01,1.000000000000000048e-04,4.194693989204403550e+01,2.000000000000000111e-01
-2.914486071795865385e-01,1.085909494999999891e+00,1.325493633649555747e+00,1.000000000000000048e-04,4.506064108708956439e+01,1.000000000000000056e-01
-2.954610881795858290e-01,1.084462065999999947e+00,2.784288671275130245e-01,1.000000000000000048e-04,4.077637645937069522e+01,1.199999999999999956e-01
-3.403197011795864313e-01,1.090760651000000081e+00,5.559729848278465170e-01,1.000000000000000048e-04,4.262399329001722492e+01,8.999999999999999667e-02
-3.429455761795860980e-01,1.087892671000000089e+00,7.175127105787881820e-01,1.000000000000000048e-04,4.359746221050655635e+01,1.400000000000000133e-01
6.896152909999999636e-01,-9.249195220000000495e-01,2.252156824851194727e-01,1.000000000000000048e-04,4.005516859628834681e+01,2.000000000000000111e-01
1.024453132999999960e+00,1.182715689999999986e+00,7.586667543339391528e-01,1.000000000000000048e-04,4.364972790067122332e+01,1.900000000000000022e-01
1.006083177000000051e+00,1.165244638999999971e+00,8.671737330575557401e-01,1.000000000000000048e-04,4.393717508606605548e+01,1.700000000000000122e-01
9.905969959999999519e-01,1.153001898999999941e+00,2.052603352374675616e-01,1.000000000000000048e-04,4.025442547908222934e+01,3.499999999999999778e-01
2.950804928999999799e+00,-1.010655210999999998e+00,2.779170538429740489e-01,1.000000000000000048e-04,4.094980103854532416e+01,1.700000000000000122e-01
2.951637304000000128e+00,-1.010683065999999908e+00,2.366558868670147753e-01,1.000000000000000048e-04,4.018138021373890467e+01,1.900000000000000022e-01
-2.349248843179586377e+00,-9.322901449999999590e-01,8.717359434346498848e-01,1.000000000000000048e-04,4.398584080669113661e+01,1.900000000000000022e-01
