-1.598279621179586663e+00,2.779993629999999993e-01,3.582791740459145835e-01,1.000000000000000048e-04,4.136640502226895677e+01,1.700000000000000122e-01
-8.306753881795865269e-01,5.048130450000000158e-01,1.120439184502052044e+00,1.000000000000000048e-04,4.439313315112730862e+01,1.600000000000000033e-01
-1.512887194179586281e+00,3.571169940000000209e-01,2.159807568043963233e-01,1.000000000000000048e-04,4.002202868655369628e+01,1.600000000000000033e-01
-2.094054222179586588e+00,-9.657747650000000350e-01,5.560484328261807718e-01,1.000000000000000048e-04,4.259821656511080334e+01,1.600000000000000033e-01
-1.256550916179586252e+00,-1.037146153999999987e+00,3.050832002188028635e-01,1.000000000000000048e-04,4.122300993696170224e+01,1.900000000000000022e-01
-2.638489419179586015e+00,-8.917870300000000361e-01,2.425068188227630372e-01,1.000000000000000048e-04,4.064722223403081358e+01,1.600000000000000033e-01
3.095686500000000008e-02,-1.139960520999999893e+00,1.012086797195050902e+00,1.000000000000000048e-04,4.423894970336121446e+01,1.700000000000000122e-01
-4.765590681795863759e-01,-7.328014390000000544e-01,1.116853624261795019e+00,1.000000000000000048e-04,4.438155098133913867e+01,1.600000000000000033e-01
7.532392530000000530e-01,9.936355940000000109e-01,7.793588076676074561e-01,1.000000000000000048e-04,4.376073336010637860e+01,1.600000000000000033e-01
1.355624495999999901e+00,4.654212710000000253e-01,5.156144401019155943e-01,1.000000000000000048e-04,4.212012755981528045e+01,2.200000000000000011e-01
-2.027672372179586624e+00,-3.494576850000000179e-01,4.769625578374638852e-01,1.000000000000000048e-04,4.221729635004417958e+01,8.999999999999999667e-02
-2.243457714179585949e+00,5.735296930000000071e-01,1.111320681300049351e+00,1.000000000000000048e-04,4.441583037095441711e+01,8.000000000000000167e-02
-1.661352162179586145e+00,7.473004210000000480e-01,3.210587129916546711e-01,1.000000000000000048e-04,4.096882060588730923e+01,1.100000000000000006e-01
-1.046494641179585905e+00,9.839422859999999993e-01,1.406521437257799434e-01,1.000000000000000048e-04,3.917311649231147896e+01,1.600000000000000033e-01
-1.357076630179586019e+00,8.591991679999999576e-01,2.014098404306321477e-01,1.000000000000000048e-04,3.974747769355817439e+01,1.300000000000000044e-01
-1.489161381179585852e+00,8.733460579999999807e-01,1.253679805809326808e-01,1.000000000000000048e-04,3.882529752766491526e+01,8.999999999999999667e-02
2.602874990000000111e+00,9.865781270000000269e-01,1.279857457704807189e-01,1.000000000000000048e-04,3.889671714944501701e+01,2.099999999999999922e-01
2.011122450999999867e+00,-1.257182417000000108e+00,1.177461418961498474e-01,1.000000000000000048e-04,3.868019094322091433e+01,1.799999999999999933e-01
2.487812089999999809e+00,-1.095252646999999913e+00,4.092848235539610080e-01,1.000000000000000048e-04,4.207558174565064490e+01,1.600000000000000033e-01
-2.060955814179585843e+00,9.020563839999999889e-01,2.811751955291417193e-01,1.000000000000000048e-04,4.081243900965811378e+01,1.799999999999999933e-01
-1.552222439179586466e+00,1.270289940999999923e+00,1.435272280808363998e-01,1.000000000000000048e-04,3.917688376357709501e+01,1.600000000000000033e-01
-3.584264691795864266e-01,1.112498557000000110e+00,1.921335877510730317e-01,1.000000000000000048e-04,4.020577838327768205e+01,2.000000000000000111e-01
1.187793541000000008e+00,1.533334508000000040e+00,1.806425328302898592e-01,1.000000000000000048e-04,3.970454691586073892e+01,1.700000000000000122e-01
9.029304540000000490e-01,-5.888661819999999603e-01,1.337364442614068949e+00,1.000000000000000048e-04,4.488354342724895218e+01,1.700000000000000122e-01
2.675488564000000125e+00,-1.029758079000000048e+00,5.059621480847502628e-01,1.000000000000000048e-04,4.256316002373330321e+01,1.700000000000000122e-01
9.979371630000000160e-01,-7.076351440000000492e-01,5.418850357686397778e-01,1.000000000000000048e-04,4.246098978079252362e+01,2.000000000000000111e-01
-2.809922836179586270e+00,-1.219770695000000016e+00,1.230773707654940985e+00,1.000000000000000048e-04,4.480903089652569804e+01,1.900000000000000022e-01
1.945616433999999950e+00,5.533621010000000506e-01,2.723061872190257748e-01,1.000000000000000048e-04,4.092982224545437475e+01,1.700000000000000122e-01
1.369802210000000131e-01,9.686457469999999459e-01,3.431238647939347519e-01,1.000000000000000048e-04,4.117564514722143798e+01,1.000000000000000056e-01
2.377785852000000144e+00,-1.071983155000000076e+00,8.825005316596670202e-01,1.000000000000000048e-04,4.363984099387007376e+01,1.000000000000000056e-01
1.194530383000000029e+00,-8.514353350000000153e-01,7.138057214489119673e-01,1.000000000000000048e-04,4.319421979914951493e+01,1.100000000000000006e-01
2.328991532999999947e+00,-1.085498080000000032e+00,4.243389196465923163e-01,1.000000000000000048e-04,4.181357591173120625e+01,1.199999999999999956e-01
3.099662444999999877e+00,-8.173274409999999879e-01,2.438567813349281632e-01,1.000000000000000048e-04,4.041779645059938275e+01,1.300000000000000044e-01
1.008677688999999988e+00,-7.224949280000000362e-01,4.855150882195673478e-01,1.000000000000000048e-04,4.202560776625126948e+01,1.199999999999999956e-01
1.116317643999999998e+00,-8.188746820000000204e-01,6.326337690264245417e-01,1.000000000000000048e-04,4.275878776444426421e+01,1.499999999999999944e-01
1.368634144999999913e+00,-9.746537960000000167e-01,2.393575469122579680e-01,1.000000000000000048e-04,4.063766510638434681e+01,2.200000000000000011e-01
2.840707745000000006e+00,-9.874777999999999611e-01,3.076747546628464391e-01,1.000000000000000048e-04,4.107852126834484352e+01,1.199999999999999956e-01
1.164831654000000105e+00,-8.361433499999999519e-01,5.255058553101041863e-01,1.000000000000000048e-04,4.246366509377018872e+01,1.600000000000000033e-01
9.274529849999999520e-01,-5.648102149999999488e-01,4.366017861824307289e-01,1.000000000000000048e-04,4.165796472741967449e+01,2.200000000000000011e-01
1.803806121999999901e+00,-1.051757271000000049e+00,2.704243709675975271e-01,1.000000000000000048e-04,4.085105596223566948e+01,2.200000000000000011e-01
1.910407339000000038e+00,-1.096340147000000043e+00,7.691641168417262531e-01,1.000000000000000048e-04,4.334242290835456402e+01,1.300000000000000044e-01
-2.994395329179586174e+00,-6.874333790000000111e-01,1.323119539868882200e-01,1.000000000000000048e-04,3.872264765682043475e+01,1.600000000000000033e-01
2.004169926999999962e+00,-1.114377941999999955e+00,1.488958453690296668e-01,1.000000000000000048e-04,3.933637216976662643e+01,2.099999999999999922e-01
2.993884073999999895e+00,-9.067153500000000310e-01,3.105335449191604091e-01,1.000000000000000048e-04,4.119842729049627650e+01,2.000000000000000111e-01
2.896584697999999847e+00,-6.981149509999999836e-01,1.056977661977968275e+00,1.000000000000000048e-04,4.426114053657144609e+01,2.000000000000000111e-01
2.644964143999999795e+00,-1.038456438999999953e+00,8.433991015035711136e-01,1.000000000000000048e-04,4.379303332307068786e+01,2.500000000000000000e-01
1.395029569000000080e+00,-9.673563530000000021e-01,4.766610386634382301e-01,1.000000000000000048e-04,4.198041994765567608e+01,2.200000000000000011e-01
1.133893306999999906e+00,-8.234022290000000410e-01,3.742954574139085722e-01,1.000000000000000048e-04,4.155088834337146864e+01,1.199999999999999956e-01
9.542908199999999841e-01,-6.210129070000000029e-01,1.224275227781864928e+00,1.000000000000000048e-04,4.479242746738180614e+01,1.400000000000000133e-01
1.112357503999999997e+00,-7.717409769999999947e-01,3.464570273001323919e-01,1.000000000000000048e-04,4.126039496055354761e+01,1.400000000000000133e-01
1.392129267000000059e+00,-9.489503049999999940e-01,2.744784595000988592e-01,1.000000000000000048e-04,4.082668361741642116e+01,1.100000000000000006e-01
3.104633763999999907e+00,-8.563587980000000321e-01,2.708192460085647735e-01,1.000000000000000048e-04,4.054400366174454717e+01,1.199999999999999956e-01
-1.581672989179586430e+00,-6.726275419999999672e-01,5.061279143915657919e-01,1.000000000000000048e-04,4.215296808053663113e+01,2.000000000000000111e-01
8.758714749999999549e-01,-5.394949780000000139e-01,3.751357307593945478e-01,1.000000000000000048e-04,4.157238798640655375e+01,1.199999999999999956e-01
1.027821937999999991e+00,-6.897361509999999640e-01,6.751224688087076320e-01,1.000000000000000048e-04,4.313883099470519511e+01,1.499999999999999944e-01
8.011105990000000343e-01,-4.568120419999999737e-01,4.615267054823628534e-01,1.000000000000000048e-04,4.213143973102258144e+01,1.499999999999999944e-01
8.044453879999999835e-01,-4.591503659999999765e-01,5.542685292909881323e-01,1.000000000000000048e-04,4.260853907606333024e+01,1.100000000000000006e-01
8.290542589999999601e-01,-4.498624509999999965e-01,7.834477581687178116e-01,1.000000000000000048e-04,4.361225184359894769e+01,1.199999999999999956e-01
2.306908324000000121e+00,-1.093655438999999951e+00,6.554567234104493600e-01,1.000000000000000048e-04,4.292515683310816144e+01,1.300000000000000044e-01
-3.090495873179586184e+00,-7.974218849999999970e-01,1.843560642946113770e-01,1.000000000000000048e-04,3.964417046949687773e+01,1.300000000000000044e-01
2.850739061000000074e+00,-9.724982730000000242e-01,2.249918615751678175e-01,1.000000000000000048e-04,4.025462554358019673e+01,1.100000000000000006e-01
1.925211972000000049e+00,-1.067349442999999898e+00,6.823725414619656870e-01,1.000000000000000048e-04,4.284076916698011672e+01,1.600000000000000033e-01
3.010706126000000094e+00,-9.149326070000000088e-01,3.240750423266089975e-01,1.000000000000000048e-04,4.109896873965679021e+01,1.199999999999999956e-01
1.754869720000000077e+00,-1.052947148999999971e+00,8.548975713167288326e-01,1.000000000000000048e-04,4.382930606991461531e+01,1.300000000000000044e-01
3.028086770999999899e+00,-8.725603690000000023e-01,3.043209002593996182e-01,1.000000000000000048e-04,4.109789684031046875e+01,1.199999999999999956e-01
2.780301081000000174e+00,-1.010780400000000023e+00,1.250983613955336082e+00,1.000000000000000048e-04,4.463874928153940402e+01,1.700000000000000122e-01
3.096540631999999960e+00,-8.261897350000000362e-01,5.609735125042698556e-01,1.000000000000000048e-04,4.273843795249255351e+01,1.100000000000000006e-01
-3.043596368179586342e+00,-7.656326449999999451e-01,8.969977387742618102e-01,1.000000000000000048e-04,4.381344207555381587e+01,1.100000000000000006e-01
2.593403560000000052e+00,-1.068240442000000012e+00,2.036829733522800279e-01,1.000000000000000048e-04,4.002302668978511946e+01,1.199999999999999956e-01
1.277663320999999907e+00,-8.910532270000000032e-01,8.893716197023515679e-01,1.000000000000000048e-04,4.352748900885106309e+01,1.499999999999999944e-01
8.729576639999999665e-01,-5.017517409999999733e-01,2.587086287947555352e-01,1.000000000000000048e-04,4.067367884942972722e+01,1.199999999999999956e-01
2.323316692000000128e+00,-1.072994334000000105e+00,7.856812982051242233e-01,1.000000000000000048e-04,4.356122368525983291e+01,1.400000000000000133e-01
-3.012222731179586166e+00,-7.219820959999999621e-01,2.946377980030465693e-01,1.000000000000000048e-04,4.098866066633480898e+01,1.199999999999999956e-01
2.306010604999999991e+00,-1.110345181000000014e+00,3.001286042334263549e-01,1.000000000000000048e-04,4.086844524675428403e+01,1.100000000000000006e-01
2.437557496999999795e+00,-1.097151527000000071e+00,2.441421292741796645e-01,1.000000000000000048e-04,4.076829661852175235e+01,1.100000000000000006e-01
1.098420291999999909e+00,-7.444727049999999569e-01,3.394113409027854633e-01,1.000000000000000048e-04,4.140890480076003399e+01,1.300000000000000044e-01
8.241628739999999897e-01,-4.611620249999999754e-01,7.501452544551177049e-01,1.000000000000000048e-04,4.332676806657045177e+01,1.400000000000000133e-01
1.017317494999999905e+00,-7.027905669999999771e-01,1.688164180652831359e-01,1.000000000000000048e-04,3.957135736176235241e+01,1.199999999999999956e-01
2.728679550999999925e+00,-1.007430967999999982e+00,8.519571209745044893e-01,1.000000000000000048e-04,4.345021793662140652e+01,1.100000000000000006e-01
2.848837458999999850e+00,-9.622339979999999793e-01,1.600721447709778644e-01,1.000000000000000048e-04,3.965121030433060412e+01,1.199999999999999956e-01
-3.065525731179586266e+00,-7.207210450000000046e-01,1.276721743208489190e+00,1.000000000000000048e-04,4.488569189307960983e+01,1.199999999999999956e-01
1.103969978000000074e+00,-7.587182380000000448e-01,8.177069660751732361e-01,1.000000000000000048e-04,4.352382153300420953e+01,1.300000000000000044e-01
1.112034854000000017e+00,-7.675460100000000008e-01,4.784894166567836837e-01,1.000000000000000048e-04,4.212239266170079333e+01,1.199999999999999956e-01
2.373162053000000160e+00,-1.072487750000000073e+00,2.650933822558088071e-01,1.000000000000000048e-04,4.066702911377888086e+01,1.100000000000000006e-01
2.221583438000000132e+00,-1.096064289000000080e+00,1.425873518667770679e-01,1.000000000000000048e-04,3.911048498699964426e+01,1.199999999999999956e-01
2.775251189000000007e+00,-1.013244017000000108e+00,8.321498304243788446e-01,1.000000000000000048e-04,4.372616856658270024e+01,1.700000000000000122e-01
1.527128894000000070e+00,-9.963611940000000056e-01,8.908573157196884029e-01,1.000000000000000048e-04,4.399470222200107372e+01,1.400000000000000133e-01
-1.936135624179586401e+00,1.327891944000000102e+00,2.336408956566156103e-01,1.000000000000000048e-04,4.035295780355774298e+01,1.199999999999999956e-01
2.120951332999999828e+00,-1.112975437000000012e+00,5.481574863850606771e-01,1.000000000000000048e-04,4.245406493414939320e+01,1.600000000000000033e-01
2.950704906999999988e+00,-9.277153000000000205e-01,5.779382763936544709e-01,1.000000000000000048e-04,4.265867719818261605e+01,1.700000000000000122e-01
2.461302839000000020e+00,-1.064109841000000056e+00,3.288800036732291154e-01,1.000000000000000048e-04,4.149874566988296465e+01,1.499999999999999944e-01
1.687800213000000049e+00,-1.037844004000000098e+00,4.127910642659349261e-01,1.000000000000000048e-04,4.186400154060138590e+01,1.100000000000000006e-01
-3.069023128179586113e+00,-7.343218900000000327e-01,1.943025511765721358e-01,1.000000000000000048e-04,3.991263990744822365e+01,2.000000000000000111e-01
7.655655390000000171e-01,-3.825025819999999799e-01,2.830381531377890170e-01,1.000000000000000048e-04,4.068264504437114226e+01,1.300000000000000044e-01
-3.051736326179586012e+00,-7.690870560000000467e-01,3.166931524349143601e-01,1.000000000000000048e-04,4.127152985225510662e+01,1.499999999999999944e-01
-3.116938176179586240e+00,-7.920766919999999711e-01,3.859189692719080522e-01,1.000000000000000048e-04,4.148868995064404430e+01,1.100000000000000006e-01
1.020863690000000101e+00,-6.877910739999999468e-01,2.268894794771283419e-01,1.000000000000000048e-04,4.028157752312029061e+01,1.199999999999999956e-01
1.792785233999999894e+00,-1.066474936999999956e+00,1.687650703667571417e-01,1.000000000000000048e-04,3.958023954463845229e+01,1.100000000000000006e-01
1.805689748000000039e+00,-1.066896787999999985e+00,4.265762297144470860e-01,1.000000000000000048e-04,4.176086102930173638e+01,1.100000000000000006e-01
1.773248071000000037e+00,-1.046601056999999946e+00,8.837103586612040651e-01,1.000000000000000048e-04,4.410252529306931990e+01,2.099999999999999922e-01
1.076689889999999927e+00,-7.549444410000000216e-01,9.227639159933593849e-01,1.000000000000000048e-04,4.397904104239309930e+01,1.199999999999999956e-01
2.336456505000000128e+00,-1.089906792000000069e+00,5.840177554294678774e-01,1.000000000000000048e-04,4.261606409038837029e+01,1.199999999999999956e-01
2.522083900000000156e+00,-1.078852812999999911e+00,3.037300652058056993e-01,1.000000000000000048e-04,4.124837706244559854e+01,1.199999999999999956e-01
3.676074389999999803e-01,1.100614297999999991e+00,2.512563209877514137e-01,1.000000000000000048e-04,4.050877046139645898e+01,1.700000000000000122e-01
2.099931574000000190e+00,-1.082223048999999993e+00,1.272223703311705645e-01,1.000000000000000048e-04,3.894808831428651530e+01,1.100000000000000006e-01
8.155488279999999479e-01,-4.642700679999999802e-01,7.461649276547019927e-01,1.000000000000000048e-04,4.356243110681695185e+01,2.099999999999999922e-01
9.861636230000000447e-01,-6.881834650000000497e-01,1.521587568338502727e-01,1.000000000000000048e-04,3.942710007369579728e+01,1.300000000000000044e-01
1.864254864999999928e+00,-1.086684659999999969e+00,3.744182195768388510e-01,1.000000000000000048e-04,4.138452567806488958e+01,1.199999999999999956e-01
2.873066016000000111e+00,-9.753574739999999466e-01,2.055016408696823671e-01,1.000000000000000048e-04,4.016948510198982802e+01,1.300000000000000044e-01
2.270287562000000037e+00,-1.085086717999999895e+00,4.380137826718430993e-01,1.000000000000000048e-04,4.196149482338101677e+01,1.799999999999999933e-01
8.268071609999999572e-01,-4.587794940000000099e-01,1.014253018310240062e+00,1.000000000000000048e-04,4.420742118102563012e+01,1.199999999999999956e-01
-3.050869045179586347e+00,-7.648855789999999821e-01,2.101643810177722393e-01,1.000000000000000048e-04,4.003787419477731646e+01,1.199999999999999956e-01
1.101963728999999947e+00,-7.466317359999999903e-01,1.291652252600916650e-01,1.000000000000000048e-04,3.882804749361305596e+01,1.900000000000000022e-01
1.745116724000000064e+00,-1.056563783000000090e+00,2.116629320015877003e-01,1.000000000000000048e-04,3.980822491258576434e+01,1.300000000000000044e-01
7.889769570000000343e-01,-3.846565690000000037e-01,1.327464516267800931e+00,1.000000000000000048e-04,4.486371377805929939e+01,1.499999999999999944e-01
1.385818830999999918e+00,-9.278259679999999454e-01,1.246556497530753482e+00,1.000000000000000048e-04,4.446775515707968651e+01,1.499999999999999944e-01
1.138484923000000038e+00,-8.197145099999999518e-01,4.370982342741571713e-01,1.000000000000000048e-04,4.180862404467521998e+01,1.400000000000000133e-01
1.783410439000000069e+00,-1.080958507999999929e+00,3.093355876033581087e-01,1.000000000000000048e-04,4.110588839620498902e+01,1.400000000000000133e-01
2.617653461000000181e+00,-1.025884226000000066e+00,4.552626117277041029e-01,1.000000000000000048e-04,4.209047904412913255e+01,1.199999999999999956e-01
8.270197009999999960e-01,-4.157453939999999903e-01,6.082433042922510413e-01,1.000000000000000048e-04,4.271134689327137579e+01,1.199999999999999956e-01
3.128792493000000174e+00,-8.522697870000000009e-01,1.240824933231596816e-01,1.000000000000000048e-04,3.870992444313016989e+01,1.100000000000000006e-01
1.366158207000000013e+00,-9.614226009999999878e-01,7.739744563894066509e-01,1.000000000000000048e-04,4.337828418523223206e+01,1.100000000000000006e-01
2.846286316000000038e+00,-9.688357899999999745e-01,1.468523785895430311e-01,1.000000000000000048e-04,3.924806943851704233e+01,1.400000000000000133e-01
9.208216280000000031e-01,-6.185352929999999860e-01,3.564761919340886376e-01,1.000000000000000048e-04,4.163208271075750133e+01,1.499999999999999944e-01
7.622987450000000553e-01,-3.411912120000000215e-01,4.855225866255714617e-01,1.000000000000000048e-04,4.236954055639060357e+01,1.199999999999999956e-01
9.277931750000000255e-01,-5.813990460000000304e-01,8.647804664782361428e-01,1.000000000000000048e-04,4.385850978683555468e+01,2.099999999999999922e-01
1.010173165000000095e+00,-6.808591280000000356e-01,3.896281490459343466e-01,1.000000000000000048e-04,4.163506200578525096e+01,1.300000000000000044e-01
1.661181446000000062e+00,-1.029160687999999935e+00,1.313480167599614834e+00,1.000000000000000048e-04,4.486084766823272219e+01,1.400000000000000133e-01
2.089878704000000198e+00,-1.077863170999999953e+00,1.532584918239203731e-01,1.000000000000000048e-04,3.929151847272785147e+01,1.199999999999999956e-01
9.321550429999999610e-01,-6.212176799999999943e-01,4.771925238342455966e-01,1.000000000000000048e-04,4.213182670074512970e+01,1.199999999999999956e-01
2.944595597000000176e+00,-9.127602249999999806e-01,2.432481663113952308e-01,1.000000000000000048e-04,4.047301241451503273e+01,1.100000000000000006e-01
1.288081913999999939e+00,-9.113959929999999598e-01,5.123452663579983746e-01,1.000000000000000048e-04,4.221223471490374379e+01,1.300000000000000044e-01
1.398731861999999992e+00,-9.625033109999999725e-01,8.412520730700463467e-01,1.000000000000000048e-04,4.349013805979931391e+01,1.199999999999999956e-01
1.714165549000000066e+00,-1.043104095999999981e+00,3.736361519192854530e-01,1.000000000000000048e-04,4.145538654142065127e+01,1.199999999999999956e-01
1.014018395999999989e+00,-6.788913789999999615e-01,7.060245553006831987e-01,1.000000000000000048e-04,4.331948515618318396e+01,1.300000000000000044e-01
8.887761809999999985e-01,-5.541821719999999729e-01,3.412629762225400931e-01,1.000000000000000048e-04,4.116718664469357947e+01,1.300000000000000044e-01
1.026278256999999972e+00,-6.961882160000000264e-01,2.733751491843705583e-01,1.000000000000000048e-04,4.079250866772061102e+01,1.199999999999999956e-01
1.824970581999999952e+00,-1.080428363000000003e+00,7.831581272954708517e-01,1.000000000000000048e-04,4.355822006338079433e+01,1.199999999999999956e-01
1.839979185000000017e+00,-1.082878103999999952e+00,6.508335684925121711e-01,1.000000000000000048e-04,4.303992248402547460e+01,1.300000000000000044e-01
-3.070118813179586237e+00,-7.641942569999999879e-01,6.176191131177763971e-01,1.000000000000000048e-04,4.277851499144369996e+01,1.199999999999999956e-01
2.250776613000000204e+00,-1.110438553999999911e+00,9.530459719515727013e-01,1.000000000000000048e-04,4.383653047055262419e+01,1.199999999999999956e-01
2.613802471000000072e+00,-1.066258922999999914e+00,1.265935387069461626e+00,1.000000000000000048e-04,4.478343615739662908e+01,1.199999999999999956e-01
8.050150120000000298e-01,-4.193234060000000096e-01,1.040837490118951880e+00,1.000000000000000048e-04,4.428628535433266933e+01,1.499999999999999944e-01
2.809576177999999924e+00,-9.952447749999999704e-01,1.749698500798817502e-01,1.000000000000000048e-04,3.975743376227482173e+01,1.199999999999999956e-01
8.523447290000000232e-01,-4.773689010000000121e-01,1.885840723738871905e-01,1.000000000000000048e-04,3.964885948495808066e+01,2.000000000000000111e-01
2.975142320999999868e+00,-8.986192680000000266e-01,1.392134403993152691e-01,1.000000000000000048e-04,3.893809803863041452e+01,2.000000000000000111e-01
2.960578484000000010e+00,-9.174235720000000205e-01,2.763240894476521881e-01,1.000000000000000048e-04,4.087389686192494764e+01,1.400000000000000133e-01
1.589239559999999996e+00,-1.046132274999999945e+00,2.437415973016150428e-01,1.000000000000000048e-04,4.052715229825633969e+01,1.199999999999999956e-01
1.095136271999999966e+00,-7.909478989999999543e-01,4.453907598327420114e-01,1.000000000000000048e-04,4.214194224939957678e+01,1.300000000000000044e-01
3.045277111999999953e+00,-8.831592660000000539e-01,3.249367750758105355e-01,1.000000000000000048e-04,4.131021828849092969e+01,1.799999999999999933e-01
3.011317304999999944e+00,-8.969173430000000335e-01,5.067619667560183672e-01,1.000000000000000048e-04,4.242288513090639412e+01,1.499999999999999944e-01
1.946036051000000100e+00,-1.101857058000000000e+00,4.280181412928762974e-01,1.000000000000000048e-04,4.176037945471509261e+01,1.100000000000000006e-01
9.659444579999999503e-01,-6.400164339999999674e-01,2.432261358695968489e-01,1.000000000000000048e-04,4.029369559571320281e+01,1.199999999999999956e-01
1.142944595999999979e+00,-8.229314749999999679e-01,6.614731188219362679e-01,1.000000000000000048e-04,4.286448328474041602e+01,1.499999999999999944e-01
1.336859599999999926e+00,-9.462661719999999610e-01,3.661810019972975283e-01,1.000000000000000048e-04,4.135656303451255411e+01,1.900000000000000022e-01
2.386695267999999981e+00,-1.099692616000000012e+00,2.510786720567821373e-01,1.000000000000000048e-04,4.041464744997854552e+01,1.799999999999999933e-01
1.122946417999999946e+00,-7.871106610000000448e-01,3.988422851988617790e-01,1.000000000000000048e-04,4.175998184623156817e+01,1.499999999999999944e-01
1.038511049000000019e+00,-6.836743480000000428e-01,3.897409283343360453e-01,1.000000000000000048e-04,4.163100978133198282e+01,1.499999999999999944e-01
-1.865548755179585960e+00,5.988235499999999822e-01,3.647947750840268011e-01,1.000000000000000048e-04,4.166542969609302816e+01,3.599999999999999867e-01
-1.208774007179585830e+00,1.086301519000000049e+00,5.718547127246713657e-01,1.000000000000000048e-04,4.247039950070818293e+01,3.900000000000000133e-01
-1.451351928179586359e+00,1.047303024999999943e+00,3.457185848076322898e-01,1.000000000000000048e-04,4.065747675024552876e+01,3.900000000000000133e-01
-1.863787002179586594e+00,5.986409590000000280e-01,2.526941529999373603e-01,1.000000000000000048e-04,4.044140647310759817e+01,3.099999999999999978e-01
-2.367107747179586053e+00,3.570653329999999848e-01,1.673220552457015398e-01,1.000000000000000048e-04,3.955255008412579798e+01,3.300000000000000155e-01
3.110012692999999828e+00,-8.816387980000000013e-01,8.107424313461426557e-01,1.000000000000000048e-04,4.314450993860328509e+01,4.000000000000000222e-01
1.208427087000000011e+00,6.391205479999999550e-01,1.819571154469385998e-01,1.000000000000000048e-04,3.998241866007971623e+01,3.200000000000000067e-01
2.195568135999999893e+00,9.530612539999999688e-01,3.119303157052253361e-01,1.000000000000000048e-04,4.063644707043993520e+01,3.200000000000000067e-01
-1.746303855179585973e+00,7.561700099999999480e-01,1.755242080423604634e-01,1.000000000000000048e-04,3.977150880708134650e+01,3.599999999999999867e-01
-2.613733020179586308e+00,3.020363409999999860e-01,3.528997102637181360e-01,1.000000000000000048e-04,4.141165208417292121e+01,2.399999999999999911e-01
3.080075141000000016e+00,6.813462000000000129e-01,6.654369546596647922e-01,1.000000000000000048e-04,4.279963278812399352e+01,2.999999999999999889e-01
3.084152930000000126e+00,6.750201959999999612e-01,4.780791208035621853e-01,1.000000000000000048e-04,4.221769509240341023e+01,2.399999999999999911e-01
-2.831540824179586302e+00,-5.193198470000000011e-01,1.184758971567736463e-01,1.000000000000000048e-04,3.873621872306715375e+01,2.899999999999999800e-01
2.921667255000000019e+00,-9.403574120000000036e-01,5.083362025443918242e-01,1.000000000000000048e-04,4.224702917099328658e+01,2.899999999999999800e-01
2.610543199999999953e+00,9.294079060000000059e-01,6.952399193704124070e-01,1.000000000000000048e-04,4.283148829244030509e+01,2.899999999999999800e-01
2.614058957000000127e+00,9.310355519999999885e-01,3.568102873072780401e-01,1.000000000000000048e-04,4.105610168205912913e+01,3.699999999999999956e-01
-2.614313936179586406e+00,3.105085300000000048e-01,6.844064279604851198e-01,1.000000000000000048e-04,4.322751036134835090e+01,2.300000000000000100e-01
-2.614275993179586255e+00,3.084493819999999942e-01,5.867177677806756364e-01,1.000000000000000048e-04,4.267932205976646287e+01,2.000000000000000111e-01
3.080236718000000096e+00,6.852664600000000217e-01,1.642758791447418432e-01,1.000000000000000048e-04,3.965272353448242626e+01,3.800000000000000044e-01
3.085135451000000195e+00,6.840520260000000352e-01,2.774361349899630014e-01,1.000000000000000048e-04,4.083882486833827130e+01,2.300000000000000100e-01
-2.829361723179586452e+00,-5.190188390000000096e-01,3.124554222783528790e-01,1.000000000000000048e-04,4.132139729003168327e+01,3.900000000000000133e-01
-2.833706243179586082e+00,-5.260186759999999628e-01,2.374373909105482738e-01,1.000000000000000048e-04,4.031756442467739276e+01,2.200000000000000011e-01
1.286414458000000094e+00,-9.076167339999999806e-01,2.804315192078565833e-01,1.000000000000000048e-04,4.084686376530883933e+01,2.399999999999999911e-01
2.295144749999999956e+00,-1.095028292000000070e+00,2.406418662199385494e-01,1.000000000000000048e-04,4.028500963313230443e+01,2.000000000000000111e-01
2.312115046000000174e+00,-1.091482969000000081e+00,6.881735861246682795e-01,1.000000000000000048e-04,4.286982416405364660e+01,1.900000000000000022e-01
2.535381049000000164e+00,-1.063602453999999975e+00,3.642029852243675592e-01,1.000000000000000048e-04,4.167381181044746796e+01,2.600000000000000089e-01
2.549902755000000187e+00,-1.059649137999999935e+00,1.231227935121999018e+00,1.000000000000000048e-04,4.471558449674903102e+01,1.900000000000000022e-01
-2.980466121795863899e-01,1.081935794000000062e+00,8.984759237030091050e-01,1.000000000000000048e-04,4.381795467321691717e+01,1.000000000000000056e-01
-4.562223411795862660e-01,1.078420874000000085e+00,5.087864234018144582e-01,1.000000000000000048e-04,4.216407525089978492e+01,1.400000000000000133e-01
-4.727696341795866175e-01,1.076427226000000070e+00,4.686548127265366404e-01,1.000000000000000048e-04,4.192645085059221799e+01,1.900000000000000022e-01
-4.909850281795860028e-01,1.086050390999999893e+00,4.000279533084292183e-01,1.000000000000000048e-04,4.152068024786342448e+01,1.499999999999999944e-01
-1.809890014179586615e+00,8.554848849999999727e-01,2.329351360081699518e-01,1.000000000000000048e-04,4.009466150666647621e+01,1.900000000000000022e-01
-1.804843805179586091e+00,8.509932909999999850e-01,4.195120553081612691e-01,1.000000000000000048e-04,4.174605577154103742e+01,1.700000000000000122e-01
-1.798315402179586187e+00,8.389159160000000393e-01,2.696007521811860652e-01,1.000000000000000048e-04,4.059314065100663527e+01,1.100000000000000006e-01
-1.820018681179586650e+00,8.404092629999999620e-01,1.338399929153899492e-01,1.000000000000000048e-04,3.914194852939613867e+01,2.000000000000000111e-01
-2.435936564179586039e+00,3.767214549999999829e-01,4.850779959231301675e-01,1.000000000000000048e-04,4.210250015800719581e+01,1.700000000000000122e-01
-2.738532057179586143e+00,-4.670391260000000266e-01,2.315161436517396698e-01,1.000000000000000048e-04,4.024641742105269770e+01,1.100000000000000006e-01
-2.750126147179586145e+00,-4.750163370000000107e-01,5.221980278569879896e-01,1.000000000000000048e-04,4.267019128424547603e+01,1.700000000000000122e-01
6.777063359999999648e-01,-9.284162910000000046e-01,2.479434822598109989e-01,1.000000000000000048e-04,4.056037192917737144e+01,1.600000000000000033e-01
6.755664329999999662e-01,-9.242990760000000527e-01,3.243713106076637764e-01,1.000000000000000048e-04,4.138756070378523333e+01,2.200000000000000011e-01
1.666277256000000095e+00,1.035703752000000089e+00,6.964720431521158606e-01,1.000000000000000048e-04,4.325565372088445315e+01,2.800000000000000266e-01
1.679531192000000006e+00,1.034147155999999956e+00,2.333515518930657784e-01,1.000000000000000048e-04,4.031736434243816802e+01,2.099999999999999922e-01
1.669961188000000041e+00,1.045784459000000055e+00,3.480008581322771022e-01,1.000000000000000048e-04,4.085566543462937972e+01,2.899999999999999800e-01
1.666612017000000057e+00,1.035903760999999923e+00,3.630054766616217510e-01,1.000000000000000048e-04,4.138713618279209072e+01,1.400000000000000133e-01
1.676630470000000095e+00,1.049302589999999924e+00,6.181656249537770265e-01,1.000000000000000048e-04,4.273926877482182363e+01,1.600000000000000033e-01
1.678871634000000057e+00,1.037439988999999896e+00,7.729663665479784562e-01,1.000000000000000048e-04,4.334868354611980834e+01,2.099999999999999922e-01
-2.159653925179585876e+00,7.341517600000000421e-01,1.835881250782391838e-01,1.000000000000000048e-04,3.989604240622753650e+01,2.600000000000000089e-01
-2.155609593179586447e+00,7.327229189999999726e-01,5.964705640853256163e-01,1.000000000000000048e-04,4.288307414587503530e+01,1.400000000000000133e-01
2.989279821999999864e+00,-1.014333855000000062e+00,1.238743543537828007e-01,1.000000000000000048e-04,3.890087346534004098e+01,1.600000000000000033e-01
6.962963009999999509e-01,-9.242906640000000396e-01,3.359999331569458736e-01,1.000000000000000048e-04,4.155215745500606772e+01,2.000000000000000111e-01
6.831622830000000368e-01,-9.295060950000000322e-01,2.767770564265339406e-01,1.000000000000000048e-04,4.095061544706793200e+01,2.099999999999999922e-01
6.813526220000000189e-01,-9.196739680000000083e-01,1.515269373179026768e-01,1.000000000000000048e-04,3.898702362616878503e+01,1.700000000000000122e-01
1.667475545999999920e+00,1.039138789999999979e+00,5.113941791360656630e-01,1.000000000000000048e-04,4.233465791164764624e+01,1.499999999999999944e-01
1.669072946000000002e+00,1.039627206000000026e+00,1.263091233187672024e-01,1.000000000000000048e-04,3.893530585137955313e+01,1.700000000000000122e-01
2.992464221000000091e+00,-1.009427984000000000e+00,7.258712499116353190e-01,1.000000000000000048e-04,4.340311247363772651e+01,1.400000000000000133e-01
3.013377762000000182e+00,-1.015725085999999999e+00,5.556234178748438168e-01,1.000000000000000048e-04,4.250583547941253215e+01,1.499999999999999944e-01
6.857830799999999893e-01,-9.290922369999999875e-01,2.899212300948623700e-01,1.000000000000000048e-04,4.067227072085025696e+01,3.400000000000000244e-01
6.874880420000000214e-01,-9.251381180000000093e-01,3.567241170215851298e-01,1.000000000000000048e-04,4.133893749851636557e+01,1.700000000000000122e-01
1.659686511000000086e+00,1.040101345999999927e+00,5.445862568388568636e-01,1.000000000000000048e-04,4.239013545156640106e+01,1.400000000000000133e-01
1.692629780999999944e+00,1.043637506000000048e+00,4.404692333811679461e-01,1.000000000000000048e-04,4.209072900046968613e+01,1.799999999999999933e-01
1.682450028999999958e+00,1.049226146999999942e+00,3.619182463995986865e-01,1.000000000000000048e-04,4.172927678069922308e+01,1.900000000000000022e-01
1.675255906999999933e+00,1.048468626000000015e+00,5.731116791527168797e-01,1.000000000000000048e-04,4.293077976744007884e+01,1.499999999999999944e-01
1.692145135000000078e+00,1.039981480000000014e+00,4.214361727947537606e-01,1.000000000000000048e-04,4.183655749416479352e+01,1.700000000000000122e-01
-2.139768073179586061e+00,7.360294179999999908e-01,5.610840085525112819e-01,1.000000000000000048e-04,4.284413240513828214e+01,1.600000000000000033e-01
-2.138731675179585956e+00,7.369836659999999817e-01,6.295931143371396033e-01,1.000000000000000048e-04,4.293195776098507110e+01,1.499999999999999944e-01
6.888283630000000546e-01,-9.193630990000000169e-01,4.435179184473161396e-01,1.000000000000000048e-04,4.194005882614650460e+01,1.700000000000000122e-01
6.776433490000000059e-01,-9.225326109999999469e-01,5.765600236307528714e-01,1.000000000000000048e-04,4.256238674029481928e+01,1.600000000000000033e-01
6.820513620000000499e-01,-9.162569579999999547e-01,7.079902772589310445e-01,1.000000000000000048e-04,4.351122447055901432e+01,2.899999999999999800e-01
6.832637360000000104e-01,-9.208365670000000502e-01,1.596369063448817016e-01,1.000000000000000048e-04,3.957150036159158901e+01,1.400000000000000133e-01
1.683256381999999940e+00,1.050427892999999946e+00,1.000745787206883008e+00,1.000000000000000048e-04,4.436101770574625647e+01,1.499999999999999944e-01
2.987248335999999949e+00,-1.011507587000000097e+00,1.403674181930749665e-01,1.000000000000000048e-04,3.910014175131254888e+01,1.900000000000000022e-01
2.994879214000000012e+00,-1.020537374999999969e+00,1.787226187456243398e-01,1.000000000000000048e-04,3.955689114612928847e+01,2.500000000000000000e-01
2.997056848999999801e+00,-1.020797841000000039e+00,7.622920497916845228e-01,1.000000000000000048e-04,4.347464602670486045e+01,1.499999999999999944e-01
6.981827720000000070e-01,-9.201470600000000166e-01,6.385083254250023543e-01,1.000000000000000048e-04,4.276273726595744051e+01,2.099999999999999922e-01
1.675679171999999939e+00,1.042232051000000048e+00,6.911354676425900401e-01,1.000000000000000048e-04,4.300021719121098585e+01,1.900000000000000022e-01
1.682732345000000018e+00,1.051774148000000020e+00,1.411461512283658237e-01,1.000000000000000048e-04,3.880281236183527938e+01,2.099999999999999922e-01
1.655763980999999996e+00,1.041789395999999979e+00,4.923659642536044601e-01,1.000000000000000048e-04,4.224842843572093187e+01,2.099999999999999922e-01
1.658505131999999938e+00,1.042043577999999915e+00,9.599365305287708150e-01,1.000000000000000048e-04,4.421418935846011067e+01,1.499999999999999944e-01
1.679931540999999973e+00,1.044700675999999939e+00,3.461317447176259776e-01,1.000000000000000048e-04,4.128217117508468448e+01,1.400000000000000133e-01
1.681131209999999987e+00,1.046558263000000100e+00,1.848809817899454977e-01,1.000000000000000048e-04,3.940632629075476956e+01,3.800000000000000044e-01
-2.147380102179586636e+00,7.248191320000000326e-01,3.939379653110408608e-01,1.000000000000000048e-04,4.167143257035391457e+01,2.200000000000000011e-01
-2.137481690179586558e+00,7.386978770000000027e-01,2.214708246813918979e-01,1.000000000000000048e-04,4.023684968236928228e+01,1.499999999999999944e-01
3.007533192999999994e+00,-1.006434849999999992e+00,3.473327828077015234e-01,1.000000000000000048e-04,4.122640262382757470e+01,1.700000000000000122e-01
6.766177190000000063e-01,-9.309161569999999664e-01,7.168222647478594833e-01,1.000000000000000048e-04,4.332662342789075183e+01,1.700000000000000122e-01
6.879719020000000240e-01,-9.170357009999999809e-01,6.715249793827726688e-01,1.000000000000000048e-04,4.321157923212717122e+01,2.600000000000000089e-01
6.868192690000000100e-01,-9.190749710000000183e-01,3.109710185139102911e-01,1.000000000000000048e-04,4.129295701777757444e+01,2.800000000000000266e-01
1.680927606000000019e+00,1.043199457999999913e+00,4.128942369006980417e-01,1.000000000000000048e-04,4.168927789478148327e+01,1.799999999999999933e-01
1.680733408999999901e+00,1.046110547000000057e+00,4.018106731663848574e-01,1.000000000000000048e-04,4.149271389351797978e+01,1.499999999999999944e-01
3.003205794999999956e+00,-1.007960921000000010e+00,5.279973615974065115e-01,1.000000000000000048e-04,4.251478033648926669e+01,2.200000000000000011e-01
3.013387552999999830e+00,-1.018013843000000085e+00,4.090603910551344757e-01,1.000000000000000048e-04,4.153807896838109315e+01,2.000000000000000111e-01
2.991633154000000072e+00,-1.018575491000000000e+00,1.287331056502359683e+00,1.000000000000000048e-04,4.459201533490220726e+01,1.600000000000000033e-01
6.810583510000000063e-01,-9.216344210000000370e-01,4.131713313996563386e-01,1.000000000000000048e-04,4.153941904084094006e+01,1.600000000000000033e-01
1.670069762000000013e+00,1.048284639000000018e+00,7.283379099681948077e-01,1.000000000000000048e-04,4.331632037112808575e+01,2.099999999999999922e-01
1.699713636000000028e+00,1.040243690999999915e+00,1.876074106052916246e-01,1.000000000000000048e-04,3.975438263547072637e+01,2.899999999999999800e-01
1.686195045999999920e+00,1.048540513999999924e+00,2.025491228173206260e-01,1.000000000000000048e-04,3.992197497790637328e+01,1.400000000000000133e-01
1.667162669999999958e+00,1.044746053999999980e+00,2.198395983100345230e-01,1.000000000000000048e-04,4.016125548041655691e+01,2.700000000000000178e-01
1.689467040999999892e+00,1.036330184999999959e+00,4.271029432423549821e-01,1.000000000000000048e-04,4.190327732887747203e+01,1.300000000000000044e-01
1.683799076999999977e+00,1.043385784000000038e+00,1.372226318159386338e-01,1.000000000000000048e-04,3.886367325761696634e+01,1.700000000000000122e-01
-2.151455832179586025e+00,7.398983139999999459e-01,3.782462252779636991e-01,1.000000000000000048e-04,4.168700374533524666e+01,2.500000000000000000e-01
-2.141944958179585967e+00,7.302793560000000461e-01,1.900016799384547372e-01,1.000000000000000048e-04,3.964033802078550650e+01,1.400000000000000133e-01
3.012489310999999947e+00,-1.019874449000000016e+00,4.388564593059847141e-01,1.000000000000000048e-04,4.162495818610566545e+01,1.900000000000000022e-01
6.824463880000000149e-01,-9.193269539999999740e-01,1.320096073043180773e+00,1.000000000000000048e-04,4.492258425686563328e+01,1.600000000000000033e-01
6.933168330000000212e-01,-9.307474239999999899e-01,3.464476055607013105e-01,1.000000000000000048e-04,4.133127702876669218e+01,1.600000000000000033e-01
7.005346909999999871e-01,-9.247541049999999929e-01,7.259096754999005974e-01,1.000000000000000048e-04,4.335492327811119395e+01,2.700000000000000178e-01
1.674988617999999985e+00,1.042237757999999959e+00,1.305060964979054550e-01,1.000000000000000048e-04,3.901691005139250734e+01,1.499999999999999944e-01
1.672026148000000045e+00,1.039374368000000048e+00,3.639711158452560991e-01,1.000000000000000048e-04,4.135344762046130995e+01,1.600000000000000033e-01
2.993618983999999816e+00,-1.008517228000000099e+00,2.988081064645253804e-01,1.000000000000000048e-04,4.077514086787117975e+01,1.700000000000000122e-01
2.992837709999999873e+00,-1.014889098000000045e+00,4.649889609854778172e-01,1.000000000000000048e-04,4.192914704708994122e+01,2.800000000000000266e-01
2.980621672999999916e+00,-1.012535224000000067e+00,1.310941779916143801e-01,1.000000000000000048e-04,3.873070464528269241e+01,1.499999999999999944e-01
3.118379398000000080e+00,-1.044341935000000055e+00,3.558405712521615083e-01,1.000000000000000048e-04,4.147621102971719154e+01,3.099999999999999978e-01
3.132904315000000217e+00,-1.046896950999999909e+00,6.094435027566120766e-01,1.000000000000000048e-04,4.271487606481537114e+01,2.200000000000000011e-01
1.248659997999999938e+00,-1.117162079000000086e+00,2.459442997680647558e-01,1.000000000000000048e-04,4.009524721206808096e+01,2.700000000000000178e-01
2.302446713000000145e+00,-1.091359299000000060e+00,4.482298126310062525e-01,1.000000000000000048e-04,4.178510430559773425e+01,2.899999999999999800e-01
3.133486173000000097e+00,-1.061461677999999909e+00,2.883057614996391571e-01,1.000000000000000048e-04,4.103538861123515602e+01,3.099999999999999978e-01
1.251013366000000016e+00,-1.102704651999999896e+00,1.238652737381503499e+00,1.000000000000000048e-04,4.441823478031113837e+01,2.300000000000000100e-01
1.232341668999999973e+00,-1.105349812000000043e+00,6.316603055517251430e-01,1.000000000000000048e-04,4.318735560026048148e+01,2.200000000000000011e-01
2.330538756999999794e+00,-1.086213730999999960e+00,3.786382258761444852e-01,1.000000000000000048e-04,4.186377395934454171e+01,2.300000000000000100e-01
3.104372880000000112e+00,-1.050765708999999992e+00,2.441930622232995063e-01,1.000000000000000048e-04,4.036099958822919831e+01,2.200000000000000011e-01
3.122794933000000217e+00,-1.050942575000000101e+00,1.368501366948231546e-01,1.000000000000000048e-04,3.881176142538157592e+01,2.099999999999999922e-01
3.135928428000000157e+00,-1.044986675000000087e+00,3.146441912398310059e-01,1.000000000000000048e-04,4.103707261067073375e+01,2.300000000000000100e-01
3.135701593999999925e+00,-1.049448040999999998e+00,2.958025624937929976e-01,1.000000000000000048e-04,4.059667692554255325e+01,2.399999999999999911e-01
2.902190216000000156e+00,-1.054666754000000095e+00,2.813757795808258244e-01,1.000000000000000048e-04,4.047929723905311050e+01,2.099999999999999922e-01
1.219278212000000083e+00,-1.102494101000000004e+00,2.260549637219111396e-01,1.000000000000000048e-04,4.029444427719860755e+01,2.399999999999999911e-01
2.314258420999999899e+00,-1.073777474999999981e+00,7.529043690443302239e-01,1.000000000000000048e-04,4.360073815248001949e+01,2.399999999999999911e-01
3.138600745000000192e+00,-1.056209613999999908e+00,1.046692381819643192e+00,1.000000000000000048e-04,4.438276780513297837e+01,2.800000000000000266e-01
2.873014373000000177e+00,-1.047336534999999902e+00,4.220993041139273760e-01,1.000000000000000048e-04,4.191338056871953199e+01,2.000000000000000111e-01
2.890150627000000139e+00,-1.045368942999999939e+00,1.079630998504589989e+00,1.000000000000000048e-04,4.423481028627704603e+01,2.200000000000000011e-01
-3.136513490179586139e+00,-1.038988312000000080e+00,1.036007537400219558e+00,1.000000000000000048e-04,4.423734924608082508e+01,2.800000000000000266e-01
3.120369102000000172e+00,-1.042910143999999928e+00,4.479129342888454879e-01,1.000000000000000048e-04,4.171719983816990407e+01,2.399999999999999911e-01
3.132773262000000170e+00,-1.048570620000000009e+00,8.065161483710818757e-01,1.000000000000000048e-04,4.358254848974649320e+01,2.300000000000000100e-01
3.132934141999999866e+00,-1.046888051000000042e+00,1.452952397741800183e-01,1.000000000000000048e-04,3.923913879511469105e+01,2.200000000000000011e-01
3.134455274000000014e+00,-1.046257098000000108e+00,2.397402253543778894e-01,1.000000000000000048e-04,4.041448750184589045e+01,2.200000000000000011e-01
2.910504301000000016e+00,-1.063930792999999930e+00,2.123384983068257181e-01,1.000000000000000048e-04,4.027391867832278649e+01,2.399999999999999911e-01
2.301930878999999930e+00,-1.084305269999999988e+00,3.767643447730792960e-01,1.000000000000000048e-04,4.185742038509790319e+01,3.099999999999999978e-01
2.314913878000000036e+00,-1.104421796000000011e+00,9.217507335250199052e-01,1.000000000000000048e-04,4.352917125384634289e+01,2.600000000000000089e-01
1.232494258000000009e+00,-1.089556776000000005e+00,6.898139990140632616e-01,1.000000000000000048e-04,4.327402582077802151e+01,3.099999999999999978e-01
-3.138875270179586341e+00,-1.027091259999999950e+00,4.661895993533955451e-01,1.000000000000000048e-04,4.217655591878835963e+01,3.800000000000000044e-01
1.277748142000000087e+00,-1.105660628999999950e+00,4.312040899385676251e-01,1.000000000000000048e-04,4.221975474988580146e+01,2.500000000000000000e-01
2.339694710999999927e+00,-1.083680948999999893e+00,3.430382305491475048e-01,1.000000000000000048e-04,4.080580176753224464e+01,2.300000000000000100e-01
3.085408954000000037e+00,-1.045989441999999991e+00,2.614915005962286099e-01,1.000000000000000048e-04,4.042464982102726623e+01,2.800000000000000266e-01
3.122183823999999941e+00,-1.053540683000000033e+00,9.639907430386125409e-01,1.000000000000000048e-04,4.348442126117494411e+01,3.699999999999999956e-01
1.263417701000000060e+00,-1.099941301000000093e+00,1.711481593628816356e-01,1.000000000000000048e-04,3.953460769637020178e+01,2.200000000000000011e-01
1.238769020999999970e+00,-1.122513239999999968e+00,3.821137661603182245e-01,1.000000000000000048e-04,4.229654766433790058e+01,2.600000000000000089e-01
1.225778744000000087e+00,-1.107856694000000086e+00,4.725631102924112703e-01,1.000000000000000048e-04,4.189235370621342724e+01,2.500000000000000000e-01
2.356185176999999964e+00,-1.090954028000000076e+00,1.767331407574384006e-01,1.000000000000000048e-04,3.980376641956257089e+01,2.700000000000000178e-01
1.231078855000000027e+00,-1.109460918999999990e+00,2.203354161462831584e-01,1.000000000000000048e-04,4.010456583491694005e+01,2.300000000000000100e-01
2.350025410999999842e+00,-1.078254897999999962e+00,2.570848868034802948e-01,1.000000000000000048e-04,4.036944649666761364e+01,2.300000000000000100e-01
2.889344674999999807e+00,-1.054064458000000037e+00,3.147373619369719933e-01,1.000000000000000048e-04,4.080619816933834443e+01,3.200000000000000067e-01
1.260972444000000081e+00,-1.102168519999999985e+00,4.796182473991434936e-01,1.000000000000000048e-04,4.257520362955887094e+01,2.899999999999999800e-01
3.138597202000000141e+00,-1.049455424000000026e+00,3.668387286085466048e-01,1.000000000000000048e-04,4.127811418624978756e+01,2.600000000000000089e-01
1.280173519000000093e+00,-1.106045986000000036e+00,1.186930121992499920e-01,1.000000000000000048e-04,3.937596568682727138e+01,2.899999999999999800e-01
3.140421104000000074e+00,-1.048273016000000002e+00,1.851510552495756468e-01,1.000000000000000048e-04,3.978055303116251906e+01,2.700000000000000178e-01
2.887571490000000018e+00,-1.060290981000000077e+00,7.175324367601163544e-01,1.000000000000000048e-04,4.312840376736858872e+01,2.300000000000000100e-01
3.117377486000000086e+00,-1.048849812999999909e+00,7.082149032303499681e-01,1.000000000000000048e-04,4.333101041650978402e+01,2.800000000000000266e-01
3.139331405000000075e+00,-1.045946368000000071e+00,1.057532603874967059e+00,1.000000000000000048e-04,4.418297661879088167e+01,2.300000000000000100e-01
2.901812189000000153e+00,-1.070407117000000019e+00,1.711905816426264604e-01,1.000000000000000048e-04,3.953978564325873180e+01,2.200000000000000011e-01
2.874698792999999863e+00,-1.069280417999999955e+00,1.172427358937240260e-01,1.000000000000000048e-04,3.856166207637537724e+01,2.200000000000000011e-01
3.126790450000000110e+00,-1.053686536000000062e+00,1.699094446068247777e-01,1.000000000000000048e-04,3.940296076312831985e+01,2.099999999999999922e-01
1.253234667999999941e+00,-1.096167120000000050e+00,1.247242641113948114e-01,1.000000000000000048e-04,3.904822609190205895e+01,2.200000000000000011e-01
1.242189800000000011e+00,-1.095888138000000067e+00,3.786957235835961555e-01,1.000000000000000048e-04,4.186425392473670826e+01,2.899999999999999800e-01
2.358704259000000025e+00,-1.096119858000000002e+00,1.634692082700579530e-01,1.000000000000000048e-04,3.921434866215230386e+01,2.099999999999999922e-01
3.090657074000000115e+00,-1.046905049999999893e+00,4.858229112271019723e-01,1.000000000000000048e-04,4.182510411091521263e+01,2.300000000000000100e-01
2.350320292999999783e+00,-1.077642637000000070e+00,1.062518693487061405e+00,1.000000000000000048e-04,4.485036412324522104e+01,3.300000000000000155e-01
3.120911620999999858e+00,-1.047605429999999949e+00,5.315126048544847048e-01,1.000000000000000048e-04,4.258668438766672182e+01,2.899999999999999800e-01
2.310418793000000193e+00,-1.091478047999999923e+00,2.135902259171980067e-01,1.000000000000000048e-04,4.060322066538914498e+01,3.300000000000000155e-01
2.888242410000000149e+00,-1.055260810999999910e+00,2.634648658932918774e-01,1.000000000000000048e-04,4.059103288734404913e+01,2.999999999999999889e-01
2.313880778000000138e+00,-1.089056457000000089e+00,3.477687914861218310e-01,1.000000000000000048e-04,4.105331230334559933e+01,2.600000000000000089e-01
3.096505394999999883e+00,-1.050897790999999915e+00,4.185953911221096391e-01,1.000000000000000048e-04,4.140319097360509915e+01,3.300000000000000155e-01
1.264206060000000020e+00,-1.108314516000000083e+00,2.444929928926851126e-01,1.000000000000000048e-04,4.038433647604158949e+01,2.500000000000000000e-01
2.317080779999999951e+00,-1.080569537999999996e+00,5.266397744533548586e-01,1.000000000000000048e-04,4.236238836790258944e+01,2.399999999999999911e-01
2.308161032000000112e+00,-1.080284865999999955e+00,3.623380382464473914e-01,1.000000000000000048e-04,4.198378908614107985e+01,3.900000000000000133e-01
1.213089824000000094e+00,-1.095999417000000031e+00,2.735669656409061012e-01,1.000000000000000048e-04,4.083445509492221959e+01,2.700000000000000178e-01
3.095344697999999894e+00,-1.044259242999999948e+00,5.864273703173212837e-01,1.000000000000000048e-04,4.239163158980453971e+01,2.200000000000000011e-01
3.093500166000000107e+00,-1.047656949999999920e+00,5.145485309199129276e-01,1.000000000000000048e-04,4.242234719694438638e+01,2.300000000000000100e-01
2.871266652000000086e+00,-1.064917746999999970e+00,4.229118114864698352e-01,1.000000000000000048e-04,4.193926021917418012e+01,2.500000000000000000e-01
2.872879009000000039e+00,-1.076645507999999918e+00,1.568844807136464681e-01,1.000000000000000048e-04,3.951044325890254072e+01,2.099999999999999922e-01
1.241294699000000001e+00,-1.109043570000000090e+00,6.582214585652714778e-01,1.000000000000000048e-04,4.290779038805966650e+01,2.099999999999999922e-01
1.238788393000000099e+00,-1.083197141000000085e+00,1.280017970166879682e+00,1.000000000000000048e-04,4.444530437222029207e+01,2.999999999999999889e-01
-3.140928712179586135e+00,-1.049943351000000025e+00,7.056327329346629984e-01,1.000000000000000048e-04,4.314409872348871033e+01,2.200000000000000011e-01
2.897074545000000168e+00,-1.050668165000000043e+00,1.705498662779283414e-01,1.000000000000000048e-04,3.988677897636387826e+01,2.099999999999999922e-01
3.133488720999999977e+00,-1.053899826000000095e+00,5.485607358633535213e-01,1.000000000000000048e-04,4.210183813234353778e+01,2.300000000000000100e-01
2.854965548000000020e+00,-1.051119023000000041e+00,4.965143911850500302e-01,1.000000000000000048e-04,4.206740150940137823e+01,3.200000000000000067e-01
2.846666281000000076e+00,-1.061494909000000098e+00,1.214495089655053484e+00,1.000000000000000048e-04,4.449012848574555079e+01,2.600000000000000089e-01
1.477625364000000108e+00,-9.892628350000000070e-01,1.567066783144066555e-01,1.000000000000000048e-04,3.931247750119501205e+01,2.000000000000000111e-01
-2.998301261179586064e+00,-5.567642400000000213e-01,3.021282842116874701e-01,1.000000000000000048e-04,4.112413763215828766e+01,1.799999999999999933e-01
2.915910107000000195e+00,-9.248875840000000403e-01,4.266497975033234358e-01,1.000000000000000048e-04,4.162680724829386492e+01,2.999999999999999889e-01
2.904218159000000021e+00,-9.279150130000000107e-01,6.512255543413565384e-01,1.000000000000000048e-04,4.305257767829258597e+01,2.399999999999999911e-01
2.945746643000000109e+00,-9.241091030000000428e-01,2.628473776440873877e-01,1.000000000000000048e-04,4.088468200105225492e+01,2.300000000000000100e-01
2.195221751000000054e+00,9.567984520000000215e-01,9.763062490278417993e-01,1.000000000000000048e-04,4.392813700788791209e+01,2.200000000000000011e-01
-2.382074272179586227e+00,-9.504311730000000180e-01,3.638313909912531674e-01,1.000000000000000048e-04,4.113619949664142439e+01,2.300000000000000100e-01
2.197803225999999999e+00,9.560313849999999558e-01,3.462828067351928496e-01,1.000000000000000048e-04,4.144584684396370022e+01,2.300000000000000100e-01
-2.380846050179586282e+00,-9.512843520000000552e-01,7.160319271780293260e-01,1.000000000000000048e-04,4.295603029951133323e+01,2.600000000000000089e-01
-2.382960995179586039e+00,-9.501026420000000527e-01,1.310572443257074227e+00,1.000000000000000048e-04,4.488769108830172883e+01,2.099999999999999922e-01
2.192165822000000208e+00,9.554729659999999791e-01,1.390685798663331418e-01,1.000000000000000048e-04,3.896263559306947855e+01,2.899999999999999800e-01
-2.383512939179586176e+00,-9.505219620000000535e-01,3.265084823718089613e-01,1.000000000000000048e-04,4.136832341315167838e+01,2.000000000000000111e-01
2.197044292000000176e+00,9.582492320000000063e-01,4.317622908232698897e-01,1.000000000000000048e-04,4.181513593818016972e+01,2.500000000000000000e-01
2.198013217999999824e+00,9.570721989999999568e-01,5.526667920759062991e-01,1.000000000000000048e-04,4.251480622654344188e+01,2.099999999999999922e-01
2.198391541999999976e+00,9.561199929999999458e-01,5.384547598128301971e-01,1.000000000000000048e-04,4.238854745936166779e+01,2.300000000000000100e-01
2.199218732999999926e+00,9.570277640000000030e-01,1.983478754050014281e-01,1.000000000000000048e-04,3.977528054218305442e+01,2.200000000000000011e-01
2.196667974999999995e+00,9.569524729999999701e-01,7.243937522852839095e-01,1.000000000000000048e-04,4.342040841854999655e+01,2.399999999999999911e-01
2.196400267000000017e+00,9.571105250000000453e-01,2.945298845093538009e-01,1.000000000000000048e-04,4.089682464890272939e+01,2.500000000000000000e-01
2.195980999000000100e+00,9.563170869999999546e-01,1.042182885119847580e+00,1.000000000000000048e-04,4.426799983271425276e+01,2.200000000000000011e-01
2.198886345000000020e+00,9.574225640000000315e-01,3.980971962361987693e-01,1.000000000000000048e-04,4.145363035877583968e+01,3.300000000000000155e-01
-2.382942164179586264e+00,-9.487821469999999646e-01,4.540520317815450735e-01,1.000000000000000048e-04,4.199451550991989279e+01,2.000000000000000111e-01
2.197058621000000045e+00,9.568337070000000333e-01,7.219444317463636906e-01,1.000000000000000048e-04,4.350848851799609207e+01,2.600000000000000089e-01
2.196754174000000059e+00,9.569828230000000380e-01,2.848034814695115102e-01,1.000000000000000048e-04,4.118818182375117232e+01,2.399999999999999911e-01
-2.381905888179586039e+00,-9.494029419999999719e-01,7.911569397161977157e-01,1.000000000000000048e-04,4.367323479154975985e+01,2.399999999999999911e-01
-2.382353656179586388e+00,-9.501919130000000546e-01,2.928994985946855589e-01,1.000000000000000048e-04,4.124491570245598382e+01,2.600000000000000089e-01
-2.385313647179586383e+00,-9.492824659999999914e-01,5.701026749507116520e-01,1.000000000000000048e-04,4.248144242289104966e+01,2.399999999999999911e-01
-2.383308463179586223e+00,-9.502672559999999491e-01,7.477419198248276277e-01,1.000000000000000048e-04,4.330665543429105213e+01,2.000000000000000111e-01
2.194446376000000143e+00,9.548028840000000184e-01,2.492758726868651298e-01,1.000000000000000048e-04,4.059728827072955681e+01,3.699999999999999956e-01
-2.377678389179586294e+00,-9.493284189999999789e-01,1.644926906924619736e-01,1.000000000000000048e-04,3.967485565223226729e+01,3.099999999999999978e-01
2.195048706000000127e+00,9.553664520000000326e-01,4.799782878284590826e-01,1.000000000000000048e-04,4.205985902521415198e+01,2.399999999999999911e-01
2.194988459000000169e+00,9.569281090000000267e-01,6.692772290694746218e-01,1.000000000000000048e-04,4.277829583153607729e+01,2.099999999999999922e-01
2.198773670000000013e+00,9.585742720000000050e-01,2.009064322542524206e-01,1.000000000000000048e-04,3.968419486680930675e+01,2.800000000000000266e-01
2.196007632000000154e+00,9.574002940000000406e-01,4.523496168115226368e-01,1.000000000000000048e-04,4.136167401704182822e+01,2.800000000000000266e-01
2.193610842000000005e+00,9.569156829999999614e-01,1.748823308353950612e-01,1.000000000000000048e-04,3.933088675622841635e+01,2.099999999999999922e-01
2.194846306000000080e+00,9.574700699999999509e-01,5.072067058204146051e-01,1.000000000000000048e-04,4.176326400252208515e+01,2.300000000000000100e-01
-2.901318991795864832e-01,1.086903570000000041e+00,1.912728511264452091e-01,1.000000000000000048e-04,4.001648692941841290e+01,2.000000000000000111e-01
-2.914486071795865385e-01,1.085909494999999891e+00,1.454079725561809866e-01,1.000000000000000048e-04,3.928718185861404066e+01,1.000000000000000056e-01
-2.954610881795858290e-01,1.084462065999999947e+00,5.112428310394803166e-01,1.000000000000000048e-04,4.230565380597695935e+01,1.199999999999999956e-01
-3.403197011795864313e-01,1.090760651000000081e+00,2.122219914588843181e-01,1.000000000000000048e-04,4.002700917819124271e+01,8.999999999999999667e-02
-3.429455761795860980e-01,1.087892671000000089e+00,6.529345365263210521e-01,1.000000000000000048e-04,4.312856968470102714e+01,1.400000000000000133e-01
6.896152909999999636e-01,-9.249195220000000495e-01,1.493189092578863786e-01,1.000000000000000048e-04,3.917346775161988859e+01,2.000000000000000111e-01
1.024453132999999960e+00,1.182715689999999986e+00,1.713450299329741799e-01,1.000000000000000048e-04,3.966571924840701513e+01,1.900000000000000022e-01
1.006083177000000051e+00,1.165244638999999971e+00,7.106491616098233877e-01,1.000000000000000048e-04,4.287597752394651707e+01,1.700000000000000122e-01
9.905969959999999519e-01,1.153001898999999941e+00,2.070962380542098469e-01,1.000000000000000048e-04,3.998054793026605580e+01,3.499999999999999778e-01
2.950804928999999799e+00,-1.010655210999999998e+00,2.085816152351744890e-01,1.000000000000000048e-04,4.023532548310535617e+01,1.700000000000000122e-01
2.951637304000000128e+00,-1.010683065999999908e+00,1.463634149932881989e-01,1.000000000000000048e-04,3.902568128217232157e+01,1.900000000000000022e-01
-2.349248843179586377e+00,-9.322901449999999590e-01,4.320649375168070794e-01,1.000000000000000048e-04,4.165838657183284965e+01,1.900000000000000022e-01
