3.054272990954432387e+00,2.712713647873070677e-01,3.757582679164437334e-01,1.000000000000000048e-04,4.153946642599098737e+01,5.000000000000000278e-02
-1.536260663900597345e+00,2.486196954148978122e-01,3.633551746739187571e-01,1.000000000000000048e-04,4.139407090929664434e+01,5.000000000000000278e-02
-1.131872666706907005e+00,-3.649917268739972798e-01,6.793409975000685996e-02,1.000000000000000048e-04,3.741158153831224098e+01,5.000000000000000278e-02
2.694421935208893615e+00,-7.265057913468169204e-01,6.563660770547596890e-02,1.000000000000000048e-04,3.751398378793987831e+01,5.000000000000000278e-02
-4.046887921496939988e-01,2.752341767900312597e-01,6.745262674313063922e-01,1.000000000000000048e-04,4.298859471293906154e+01,5.000000000000000278e-02
-2.956181046075817775e+00,-1.063094300445283302e+00,7.831560429556769787e-01,1.000000000000000048e-04,4.348850344920653299e+01,5.000000000000000278e-02
-3.227566469694083118e-01,1.217316536720583375e+00,7.415482028525435254e-01,1.000000000000000048e-04,4.330188000161330564e+01,5.000000000000000278e-02
-5.173767446281374305e-02,-1.177869025084120169e+00,3.812277356597457700e-01,1.000000000000000048e-04,4.146025084788425374e+01,5.000000000000000278e-02
1.003629041334441752e-02,8.224896462521731344e-01,1.150913447470063300e-01,1.000000000000000048e-04,3.858744672364142048e+01,5.000000000000000278e-02
-1.071578705165849854e-01,1.474416939125733794e+00,2.491110353915184650e-01,1.000000000000000048e-04,4.057340021306101363e+01,5.000000000000000278e-02
1.286238134088725893e+00,-9.047775439072525128e-01,6.425173392673442230e-01,1.000000000000000048e-04,4.294626773152727139e+01,5.000000000000000278e-02
1.244166854638750763e+00,7.158489871559128304e-01,3.694709854387778769e-01,1.000000000000000048e-04,4.157494817525530095e+01,5.000000000000000278e-02
-3.179150682857998511e-01,1.312645837066130472e+00,2.408885130059919000e-01,1.000000000000000048e-04,4.042784967109599847e+01,5.000000000000000278e-02
1.090901379927706749e+00,8.004739687826836203e-01,4.028594696941472098e-01,1.000000000000000048e-04,4.169273268701707025e+01,5.000000000000000278e-02
2.275597073148289518e+00,-1.331055802249119235e+00,8.196012274495696470e-01,1.000000000000000048e-04,4.364616660996835407e+01,5.000000000000000278e-02
3.630244963790287827e-01,-1.186122778535955380e+00,6.727127390078109226e-01,1.000000000000000048e-04,4.317201342960868971e+01,5.000000000000000278e-02
2.581306176938631403e+00,-1.446604172666995813e+00,2.464880247875327335e-01,1.000000000000000048e-04,4.050892380894939038e+01,5.000000000000000278e-02
1.183727712434089696e+00,-1.211245759463353000e-01,1.831066085390868903e-01,1.000000000000000048e-04,3.974457297986636206e+01,5.000000000000000278e-02
1.636750227212032449e+00,1.024983867693347594e+00,7.487421925401760436e-01,1.000000000000000048e-04,4.329639847656623886e+01,5.000000000000000278e-02
-8.926672856295501113e-01,4.798372687310559215e-02,3.852910941568037373e-01,1.000000000000000048e-04,4.155120659247231885e+01,5.000000000000000278e-02
1.031920381544367160e+00,4.597333376418477613e-02,5.104750583306516543e-01,1.000000000000000048e-04,4.241950530924198404e+01,5.000000000000000278e-02
-1.274443475977309781e+00,-1.201397186477053181e+00,3.635138422869415020e-01,1.000000000000000048e-04,4.144094064583764236e+01,5.000000000000000278e-02
-3.025873727397695223e+00,-1.364904170108420578e+00,3.227654580410759255e-01,1.000000000000000048e-04,4.114387699052653602e+01,5.000000000000000278e-02
4.187233261045775201e-01,1.291702635554701217e+00,7.044948846904537376e-01,1.000000000000000048e-04,4.310476619695719336e+01,5.000000000000000278e-02
-2.918083793569151485e+00,-4.322480473426579817e-01,3.149109543117125654e-01,1.000000000000000048e-04,4.109108158281865286e+01,5.000000000000000278e-02
1.065978337767263362e+00,5.750556324375235562e-01,2.002302236128294943e-01,1.000000000000000048e-04,4.001019333157071145e+01,5.000000000000000278e-02
-6.810231396459736075e-01,5.649623000520671567e-01,1.715526377247833523e-01,1.000000000000000048e-04,3.958126139990750403e+01,5.000000000000000278e-02
-2.006080065368382570e+00,8.911199844450385932e-01,5.636724734271065795e-01,1.000000000000000048e-04,4.261188603080118753e+01,5.000000000000000278e-02
-3.063083011564413649e+00,3.976771761144186623e-01,4.376935602489060440e-01,1.000000000000000048e-04,4.183970582233065727e+01,5.000000000000000278e-02
-4.449897314729667208e-01,-5.216555951610934994e-01,7.179420146959394344e-01,1.000000000000000048e-04,4.325051504356243726e+01,5.000000000000000278e-02
1.042772395272507424e+00,6.982279257280561424e-01,4.233916558464501101e-01,1.000000000000000048e-04,4.182691052838877255e+01,5.000000000000000278e-02
2.410683440797854793e+00,-5.360750518919488172e-03,2.589420168308449455e-01,1.000000000000000048e-04,4.043462897106306286e+01,5.000000000000000278e-02
-2.741780923233990475e+00,1.002515708324567267e-01,1.676040174233546232e-01,1.000000000000000048e-04,3.954618542546826632e+01,5.000000000000000278e-02
-3.049714477992792716e+00,-4.892698218263300536e-01,5.179795748229578667e-01,1.000000000000000048e-04,4.247618467777485307e+01,5.000000000000000278e-02
1.103866519902893195e+00,-6.210303022034527887e-01,6.608490087967182625e-01,1.000000000000000048e-04,4.295452110044082872e+01,5.000000000000000278e-02
1.661659526658350039e+00,-5.240016896680299574e-02,5.008919395901121341e-01,1.000000000000000048e-04,4.232304264185859211e+01,5.000000000000000278e-02
-8.345107856332489860e-01,7.868467683252906575e-01,4.812785561221597508e-01,1.000000000000000048e-04,4.220017229374259671e+01,5.000000000000000278e-02
-6.155322718409608207e-01,-9.655465040330780679e-01,4.345828519217818098e-01,1.000000000000000048e-04,4.190868380673201443e+01,5.000000000000000278e-02
-4.742113105092342629e-01,7.218220643891615218e-02,7.895468947259689507e-01,1.000000000000000048e-04,4.349581680626132396e+01,5.000000000000000278e-02
-7.738627749352784413e-01,-1.375905756372177047e+00,1.935838342472615548e-01,1.000000000000000048e-04,3.990819640405918989e+01,5.000000000000000278e-02
-3.039538681356903638e+00,3.169176367374317849e-01,4.002468445921483209e-01,1.000000000000000048e-04,4.173448618550819589e+01,5.000000000000000278e-02
-9.090404490151358097e-01,-5.289915643727767236e-01,8.675843489426442456e-01,1.000000000000000048e-04,4.370333352460683329e+01,5.000000000000000278e-02
-1.303560072191913832e+00,4.039951423148298026e-01,2.394073383907011632e-01,1.000000000000000048e-04,4.040947685352068675e+01,5.000000000000000278e-02
-1.533799209455523060e+00,7.178564934835005573e-01,8.792846456111418352e-01,1.000000000000000048e-04,4.373226506238402322e+01,5.000000000000000278e-02
-1.768314040241411034e+00,-6.366434089738118862e-01,4.874876330624158260e-01,1.000000000000000048e-04,4.212151510954242895e+01,5.000000000000000278e-02
1.145227678476558708e+00,-9.664270474881851980e-01,1.584060351971503522e-01,1.000000000000000048e-04,3.944409383180086337e+01,5.000000000000000278e-02
1.560395076333234599e+00,5.209549331126348548e-01,1.044992364009937891e-01,1.000000000000000048e-04,3.843134785987561486e+01,5.000000000000000278e-02
-3.006169641972867179e+00,5.780319613197097972e-01,6.082282669009104747e-01,1.000000000000000048e-04,4.280226211712547268e+01,5.000000000000000278e-02
1.791752616225370076e+00,-1.230601583709782787e-01,3.522961251163256868e-01,1.000000000000000048e-04,4.130315352536148765e+01,5.000000000000000278e-02
2.110465288141163853e+00,3.565561957328631237e-01,8.603985664278874790e-01,1.000000000000000048e-04,4.371624212815284949e+01,5.000000000000000278e-02
6.819544600170193149e-01,1.053626240290435057e+00,2.153582380871701396e-01,1.000000000000000048e-04,4.013954251594803679e+01,5.000000000000000278e-02
-1.310511928136251614e+00,-1.051718145676566074e+00,8.333294197680354287e-01,1.000000000000000048e-04,4.367849703988490262e+01,5.000000000000000278e-02
5.732111271844657630e-01,-8.298794013475820908e-01,6.087687835419890447e-01,1.000000000000000048e-04,4.282347671051980598e+01,5.000000000000000278e-02
9.083914248024571592e-01,-5.138118765776338304e-01,9.108358128909843643e-02,1.000000000000000048e-04,3.803456823537501208e+01,5.000000000000000278e-02
-2.217434183385293522e+00,-1.049672233014611766e+00,6.452405547294057797e-01,1.000000000000000048e-04,4.292834823611686801e+01,5.000000000000000278e-02
8.693243977657116872e-01,-5.328471323361338996e-02,5.025731935548887197e-01,1.000000000000000048e-04,4.238474619595531578e+01,5.000000000000000278e-02
1.471370460807738034e+00,8.004380466699050345e-01,7.186765055000878810e-01,1.000000000000000048e-04,4.321576503062760111e+01,5.000000000000000278e-02
9.727507166119009341e-02,4.311757732617627070e-01,8.830797828059988586e-01,1.000000000000000048e-04,4.379393239057431231e+01,5.000000000000000278e-02
2.219177941481695449e+00,2.393079618931177599e-01,2.543491965895388063e-01,1.000000000000000048e-04,4.055209441449915886e+01,5.000000000000000278e-02
-1.957037817861054130e+00,7.350339649414214804e-01,5.463988673823128028e-01,1.000000000000000048e-04,4.252161208364773159e+01,5.000000000000000278e-02
9.083468687369782302e-01,-1.716614824385165328e-02,3.982320824431642148e-01,1.000000000000000048e-04,4.171459853049904609e+01,5.000000000000000278e-02
-9.898716669411333768e-02,1.154547922866086207e+00,2.430252622966833087e-01,1.000000000000000048e-04,4.046676584582104397e+01,5.000000000000000278e-02
-1.083801434855150791e+00,-7.804717465377956076e-01,7.119059408387484744e-02,1.000000000000000048e-04,3.755068988601747293e+01,5.000000000000000278e-02
-2.839556874122862951e+00,1.026458468109737066e+00,7.941000016828783092e-01,1.000000000000000048e-04,4.347565433000069390e+01,5.000000000000000278e-02
1.713197091428662056e-01,1.366633824533976860e+00,2.570796492823885782e-01,1.000000000000000048e-04,4.058456066210138857e+01,5.000000000000000278e-02
-2.253566862530690162e+00,1.106348636174747213e+00,3.391342200511131555e-01,1.000000000000000048e-04,4.121647849172372702e+01,5.000000000000000278e-02
4.118755688237025758e-01,8.965327057047836057e-01,6.164765970805861084e-01,1.000000000000000048e-04,4.289129583845681992e+01,5.000000000000000278e-02
-2.595681715490600894e-01,-8.859961286756692367e-01,6.871646653190333076e-01,1.000000000000000048e-04,4.313013983178949928e+01,5.000000000000000278e-02
-5.904757576817147857e-01,5.644293582588333358e-02,4.843333478143174720e-01,1.000000000000000048e-04,4.213310275031632557e+01,5.000000000000000278e-02
-5.135221806854346482e-01,-6.011615366671360094e-01,7.567757640007950481e-01,1.000000000000000048e-04,4.344822585907741086e+01,5.000000000000000278e-02
2.749724485505974592e+00,-4.539862163181327404e-01,7.548683156090094659e-01,1.000000000000000048e-04,4.345906305755855925e+01,5.000000000000000278e-02
2.055070297847944261e+00,6.710549670351668716e-01,1.006283438055730617e-01,1.000000000000000048e-04,3.842900935657241490e+01,5.000000000000000278e-02
-1.937906553341604665e+00,5.947791308134418031e-01,3.309123842187535747e-01,1.000000000000000048e-04,4.118657943973899904e+01,5.000000000000000278e-02
2.714521986013741284e+00,-7.279242257642081215e-01,4.345442537742822964e-01,1.000000000000000048e-04,4.200427951877356492e+01,5.000000000000000278e-02
-1.134736192041708502e+00,1.926423470323870291e-01,1.173142477018933594e-01,1.000000000000000048e-04,3.869672363461044284e+01,5.000000000000000278e-02
-9.431055148711533498e-01,-1.118598382753166476e-01,9.125229774375656078e-01,1.000000000000000048e-04,4.388863208844887254e+01,5.000000000000000278e-02
5.056024047205647243e-01,1.498372515452940146e+00,4.294827020267579787e-01,1.000000000000000048e-04,4.186527865634641898e+01,5.000000000000000278e-02
-2.832367647818956335e+00,1.121496488519172274e+00,9.153300533795900584e-01,1.000000000000000048e-04,4.388630950724699176e+01,5.000000000000000278e-02
2.103713629669251794e+00,8.999722179858160587e-01,6.527151669345805374e-01,1.000000000000000048e-04,4.298843824463075691e+01,5.000000000000000278e-02
-1.560828501809689239e+00,7.738608197588670023e-02,1.349644043870179555e-01,1.000000000000000048e-04,3.898243158492842753e+01,5.000000000000000278e-02
1.952023967333955667e+00,-2.815017622926476726e-01,7.504173735501795672e-01,1.000000000000000048e-04,4.329530904144848336e+01,5.000000000000000278e-02
4.884158936337423818e-01,-1.066397210078640079e-01,8.878116452814133197e-02,1.000000000000000048e-04,3.801289273211332187e+01,5.000000000000000278e-02
-2.259741157370668052e+00,-1.100272925035750804e+00,9.263331163896111331e-01,1.000000000000000048e-04,4.393549260224745012e+01,5.000000000000000278e-02
-1.736899029666355565e+00,2.418465290649431942e-01,9.125191679647626231e-02,1.000000000000000048e-04,3.816254352039069886e+01,5.000000000000000278e-02
2.444842410500448260e+00,1.076810257753884059e+00,6.971386510723089902e-01,1.000000000000000048e-04,4.316739572552346260e+01,5.000000000000000278e-02
5.789858282877657913e-02,-1.046528401621156901e+00,7.648046040901408382e-01,1.000000000000000048e-04,4.345946042455766190e+01,5.000000000000000278e-02
1.705291318495520514e+00,6.366583903385532039e-01,7.701101163554788798e-01,1.000000000000000048e-04,4.343807006616607680e+01,5.000000000000000278e-02
-2.437420939166867306e+00,9.613754073592315486e-01,5.731363359224963538e-01,1.000000000000000048e-04,4.264609191582002268e+01,5.000000000000000278e-02
9.825255572698106121e-01,-6.680205952142550530e-01,8.009608283683482544e-01,1.000000000000000048e-04,4.352807182648810880e+01,5.000000000000000278e-02
-2.826139503440960432e+00,1.027395210872515730e+00,1.034630818436248489e-01,1.000000000000000048e-04,3.839520856684955419e+01,5.000000000000000278e-02
5.706082639088125852e-01,-6.222591265900486723e-01,9.481465407341440610e-01,1.000000000000000048e-04,4.398639777463665013e+01,5.000000000000000278e-02
2.973355531835060184e+00,6.597829528924328280e-01,8.457651223273956465e-01,1.000000000000000048e-04,4.363995079457196624e+01,5.000000000000000278e-02
-2.511670904240592250e+00,-8.810591873147219921e-01,2.486082020503226353e-01,1.000000000000000048e-04,4.057655657934049032e+01,5.000000000000000278e-02
-1.510677694324941811e+00,-7.932792221949306333e-01,8.136945140477409577e-01,1.000000000000000048e-04,4.354132124905031276e+01,5.000000000000000278e-02
-2.235932927750003074e+00,1.353627795161207459e-01,5.689287213616356365e-01,1.000000000000000048e-04,4.264830395455091150e+01,5.000000000000000278e-02
2.286093496152887816e+00,-5.070122802703380671e-02,7.321428086972394667e-01,1.000000000000000048e-04,4.331108829449375008e+01,5.000000000000000278e-02
3.991261734328928057e-01,-9.119105394270041742e-01,9.197256036191856499e-01,1.000000000000000048e-04,4.395020877656892111e+01,5.000000000000000278e-02
1.007682123747732028e+00,-1.164612797511771491e+00,1.973072705990321918e-01,1.000000000000000048e-04,4.000970925935544642e+01,5.000000000000000278e-02
-3.149134388100449655e-01,-4.978001504348017470e-02,2.301963883229274366e-01,1.000000000000000048e-04,4.035353155964302374e+01,5.000000000000000278e-02
-4.714735154850315801e-01,1.458221980730249889e-01,4.700780957891397271e-01,1.000000000000000048e-04,4.203960598529028658e+01,5.000000000000000278e-02
1.335271021915982459e+00,7.461204728718566770e-01,8.066952418686690329e-02,1.000000000000000048e-04,3.784011093966329753e+01,5.000000000000000278e-02
-4.326701329662117068e-01,-1.374829160204704692e-02,6.120351158342285380e-01,1.000000000000000048e-04,4.276935801682893867e+01,5.000000000000000278e-02
-1.023021986184449172e+00,-4.067453860674845600e-01,4.328313170573381274e-01,1.000000000000000048e-04,4.188060608690630460e+01,5.000000000000000278e-02
-2.514609630146977359e+00,-6.962307819945473542e-01,9.092751961995075849e-01,1.000000000000000048e-04,4.384346647308320399e+01,5.000000000000000278e-02
3.041904655276749914e+00,1.186213222636090414e+00,5.023509776015446793e-01,1.000000000000000048e-04,4.228773854403303289e+01,5.000000000000000278e-02
1.030321131660569378e+00,2.044426814770379242e-01,4.483449585224981160e-01,1.000000000000000048e-04,4.201427304555465980e+01,5.000000000000000278e-02
-2.648203369434458665e+00,1.053872081478257172e+00,8.333062670095354729e-01,1.000000000000000048e-04,4.354889540380962387e+01,5.000000000000000278e-02
2.083777051594513097e+00,-7.612605777192625878e-01,5.345404516305312104e-01,1.000000000000000048e-04,4.250284026451448227e+01,5.000000000000000278e-02
-1.244705801086261054e-01,-7.819217721377410557e-01,6.581592769266919607e-01,1.000000000000000048e-04,4.297690502854711525e+01,5.000000000000000278e-02
6.262082847137948605e-01,-3.674134817514254081e-01,5.842953616036226094e-01,1.000000000000000048e-04,4.268758258230771219e+01,5.000000000000000278e-02
-2.701825090147313979e-01,-1.077873173525877970e+00,8.061113959333876533e-01,1.000000000000000048e-04,4.363452450940554428e+01,5.000000000000000278e-02
-4.777194548203924640e-01,-3.650941734381882853e-01,3.726759706196858257e-01,1.000000000000000048e-04,4.157862733510757636e+01,5.000000000000000278e-02
-5.385090476980005647e-01,-1.424959216933820105e+00,7.170887048853085144e-01,1.000000000000000048e-04,4.327711910680056917e+01,5.000000000000000278e-02
-8.317706869270522496e-01,1.282762627495570573e-01,3.662365829204750067e-01,1.000000000000000048e-04,4.143779031298922888e+01,5.000000000000000278e-02
1.320761213467882556e+00,-1.937332127771236312e-01,6.679573255787250030e-01,1.000000000000000048e-04,4.304503593440471576e+01,5.000000000000000278e-02
-7.840592714724725631e-01,-3.548230408405046443e-01,3.562420756407405076e-01,1.000000000000000048e-04,4.144772145853194445e+01,5.000000000000000278e-02
-2.359752034287875944e+00,5.228324150257090963e-03,2.844462873462325625e-01,1.000000000000000048e-04,4.083964006193353669e+01,5.000000000000000278e-02
2.609479459104043997e+00,-1.166623021350396527e+00,3.176410939318128346e-01,1.000000000000000048e-04,4.110917662186326282e+01,5.000000000000000278e-02
-2.921288006022398687e+00,-6.269276569973852853e-01,3.775721328211785188e-01,1.000000000000000048e-04,4.147326792213771540e+01,5.000000000000000278e-02
-1.930095687032104435e+00,2.010364690459454096e-01,6.077434657373392835e-01,1.000000000000000048e-04,4.281441658052793997e+01,5.000000000000000278e-02
7.202174805283512171e-02,9.700041838199582322e-01,1.897731318976714210e-01,1.000000000000000048e-04,3.992837847693971298e+01,5.000000000000000278e-02
9.488863178446660385e-01,-1.228328609757992407e+00,1.042844707235932589e-01,1.000000000000000048e-04,3.840337946887022014e+01,5.000000000000000278e-02
-3.040546537639198021e+00,2.892063180354291774e-01,7.854083937846267904e-01,1.000000000000000048e-04,4.339868884467780674e+01,5.000000000000000278e-02
-2.806296893927411773e+00,-1.657094842818982450e-01,3.003301838194119000e-01,1.000000000000000048e-04,4.087934256065621952e+01,5.000000000000000278e-02
2.708402774334660812e+00,8.704561710723086598e-01,7.931184594298228419e-01,1.000000000000000048e-04,4.352632829460558384e+01,5.000000000000000278e-02
-1.276067225815262551e+00,2.643703316932355385e-01,1.277961161243506005e-01,1.000000000000000048e-04,3.888794972113263526e+01,5.000000000000000278e-02
1.738397521134471546e-02,-1.127314072834681768e+00,5.005887966466138206e-01,1.000000000000000048e-04,4.228283702920464293e+01,5.000000000000000278e-02
6.067375045916612031e-01,-2.661650528777899094e-01,5.404491471514116796e-02,1.000000000000000048e-04,3.691208034162261242e+01,5.000000000000000278e-02
-1.802693683357194931e+00,-6.798543597476326417e-01,4.014863101078274266e-01,1.000000000000000048e-04,4.172050483059575043e+01,5.000000000000000278e-02
1.430510992291010197e+00,1.475154896969272933e-01,4.928320099964123013e-01,1.000000000000000048e-04,4.223017995894451815e+01,5.000000000000000278e-02
8.713802644982724388e-01,6.689278160803140416e-01,2.259489747211878008e-01,1.000000000000000048e-04,4.032127487955308709e+01,5.000000000000000278e-02
1.728950984054373308e+00,4.590158751310604579e-01,7.555681590807643566e-01,1.000000000000000048e-04,4.339950664776279154e+01,5.000000000000000278e-02
-2.563513372111096977e-01,2.917235289742328153e-01,1.504724289023668948e-01,1.000000000000000048e-04,3.923418730533956733e+01,5.000000000000000278e-02
1.081273016806293619e+00,-2.416461889637000482e-01,3.314003153727260731e-01,1.000000000000000048e-04,4.120681656750793564e+01,5.000000000000000278e-02
1.186434802549785061e-01,-7.283190579786213981e-02,1.754289385280067837e-01,1.000000000000000048e-04,3.962905137663059918e+01,5.000000000000000278e-02
8.851089613291760472e-01,-3.913519749126321834e-01,4.528183307422435355e-01,1.000000000000000048e-04,4.203528328695496441e+01,5.000000000000000278e-02
-2.619399329929576137e+00,-2.494613459575067971e-02,3.750294798512145977e-01,1.000000000000000048e-04,4.146932992503868576e+01,5.000000000000000278e-02
-2.965315567121269424e+00,1.213824529955172427e+00,4.228125221513061582e-01,1.000000000000000048e-04,4.191261380825546468e+01,5.000000000000000278e-02
2.751708088644114092e+00,-1.705181737400189856e-01,5.221890519773662032e-01,1.000000000000000048e-04,4.238878286188100475e+01,5.000000000000000278e-02
-1.843748616193209733e+00,-1.289203486891558725e+00,5.813488094819667662e-01,1.000000000000000048e-04,4.270907340888076220e+01,5.000000000000000278e-02
3.112658951741176239e-01,-1.717180231696822101e-01,1.405088938761296369e-01,1.000000000000000048e-04,3.916295371080054366e+01,5.000000000000000278e-02
-2.240428683987211400e+00,2.324787406202175610e-01,5.497676669137070427e-01,1.000000000000000048e-04,4.263548393197116582e+01,5.000000000000000278e-02
-2.951691380530291564e+00,7.428534931175789779e-02,7.000436949364619021e-01,1.000000000000000048e-04,4.318042362374578147e+01,5.000000000000000278e-02
2.298789817212300690e+00,1.033122686902312903e+00,7.969880150247399264e-02,1.000000000000000048e-04,3.776470501445593442e+01,5.000000000000000278e-02
4.579369216200088744e-01,-4.367369988009384141e-01,1.833658244000118120e-01,1.000000000000000048e-04,3.979797010649704703e+01,5.000000000000000278e-02
6.919884593188743160e-01,6.820227254020214680e-01,8.161178565193869527e-01,1.000000000000000048e-04,4.361501588019724807e+01,5.000000000000000278e-02
-4.557056042578970789e-01,8.282264057709980420e-01,1.217126550503113691e-01,1.000000000000000048e-04,3.894733207532809161e+01,5.000000000000000278e-02
-7.416167792809327253e-01,1.924056372608229371e-01,4.257253467832047278e-01,1.000000000000000048e-04,4.185075327436186399e+01,5.000000000000000278e-02
1.408809516543851004e+00,-3.910332430269951587e-01,8.866178033161558059e-01,1.000000000000000048e-04,4.385365894053268931e+01,5.000000000000000278e-02
-7.735168901637772265e-01,3.341639042416733041e-01,7.907123674683964598e-01,1.000000000000000048e-04,4.345649486136011319e+01,5.000000000000000278e-02
-2.627589641613976124e+00,-5.674546312220707378e-02,4.323775546784089929e-01,1.000000000000000048e-04,4.193229454077735596e+01,5.000000000000000278e-02
-2.678222786002628641e+00,1.128244312307521202e+00,1.833873573355480069e-01,1.000000000000000048e-04,3.968802893542164867e+01,5.000000000000000278e-02
4.363039455891009055e-01,-8.848644594803656283e-01,8.851656808132841725e-01,1.000000000000000048e-04,4.388652325158665235e+01,5.000000000000000278e-02
-1.631192255073488973e+00,-1.123982880365504311e+00,5.357559379099381403e-01,1.000000000000000048e-04,4.247368427760195431e+01,5.000000000000000278e-02
1.471158215437933237e-01,5.501667261649618723e-01,1.974889568694233599e-01,1.000000000000000048e-04,4.000265718037138640e+01,5.000000000000000278e-02
1.976949058098651513e-01,-1.470223872285183031e+00,2.949003176158486728e-01,1.000000000000000048e-04,4.100678636252988696e+01,5.000000000000000278e-02
-1.217271922606705692e+00,-1.395590627600826750e-01,1.744964474567010093e-01,1.000000000000000048e-04,3.961846680714808855e+01,5.000000000000000278e-02
2.546116960906774196e+00,6.772156766199968203e-01,1.255562930698774782e-01,1.000000000000000048e-04,3.883696591303326073e+01,5.000000000000000278e-02
-8.714657139613279924e-03,-2.422265502613292210e-01,8.492167196512603322e-01,1.000000000000000048e-04,4.378240918878456966e+01,5.000000000000000278e-02
-2.139025279088992093e+00,6.968304396500148989e-01,5.868170361526223733e-01,1.000000000000000048e-04,4.271835084178111686e+01,5.000000000000000278e-02
9.838117874724243705e-01,1.033607740448368784e+00,4.913879643929477403e-01,1.000000000000000048e-04,4.217867726787526550e+01,5.000000000000000278e-02
1.306514047597852723e+00,1.458728358671042447e+00,8.075213157099903061e-01,1.000000000000000048e-04,4.350200489261094106e+01,5.000000000000000278e-02
1.094329325097653793e+00,-1.193435659695821771e+00,7.628621138125646350e-01,1.000000000000000048e-04,4.327907586696049691e+01,5.000000000000000278e-02
-5.740631895131276252e-02,8.217242301602856180e-02,3.896116344600621950e-01,1.000000000000000048e-04,4.158539795512081838e+01,5.000000000000000278e-02
3.911543213378010364e-01,3.081977735351704162e-02,7.124409787691738938e-01,1.000000000000000048e-04,4.317104878258287215e+01,5.000000000000000278e-02
2.337886570290168997e+00,6.396354874594791795e-01,7.480340306524404514e-01,1.000000000000000048e-04,4.336305372689706417e+01,5.000000000000000278e-02
-1.299682564832130405e+00,-2.286426037713784609e-01,5.251069809589197224e-01,1.000000000000000048e-04,4.235225073376016525e+01,5.000000000000000278e-02
2.811107008873299229e+00,1.152953623042307640e+00,1.219062542295448193e-01,1.000000000000000048e-04,3.893275487193072593e+01,5.000000000000000278e-02
2.362490695538091323e+00,-8.592979710224790679e-01,8.668240920481431466e-01,1.000000000000000048e-04,4.380625532875529160e+01,5.000000000000000278e-02
-2.311139761081811628e+00,-9.878587096200518447e-01,1.714592919476081168e-01,1.000000000000000048e-04,3.964464232262784549e+01,5.000000000000000278e-02
-2.951640097410360930e+00,-3.535519816951075978e-01,8.428033520288222835e-01,1.000000000000000048e-04,4.371733321737297473e+01,5.000000000000000278e-02
2.403773371537920589e+00,-4.337996065682936386e-01,7.379300595440325683e-01,1.000000000000000048e-04,4.339169943697655896e+01,5.000000000000000278e-02
-2.665110324659329510e+00,-5.003740251010062590e-01,7.332697294611052463e-01,1.000000000000000048e-04,4.335795960756609446e+01,5.000000000000000278e-02
8.897865377977023371e-01,-3.524866614220487637e-01,3.505296682542982101e-01,1.000000000000000048e-04,4.144561905548184910e+01,5.000000000000000278e-02
-8.087586895202454329e-01,-7.347442291441103057e-01,3.717768205908635881e-01,1.000000000000000048e-04,4.146181912482046528e+01,5.000000000000000278e-02
-2.768138738134568566e+00,4.611105220329902998e-01,4.133666160880642426e-01,1.000000000000000048e-04,4.184464286292490698e+01,5.000000000000000278e-02
2.952351299843222421e+00,-6.337091297126005163e-01,2.857564851595977284e-01,1.000000000000000048e-04,4.080137980913704610e+01,5.000000000000000278e-02
5.763145541969194596e-02,1.049996886878513447e+00,3.616513196395279017e-01,1.000000000000000048e-04,4.144823402992641803e+01,5.000000000000000278e-02
-2.685161497351291615e+00,-5.745069976882836160e-01,5.098427817112951566e-01,1.000000000000000048e-04,4.238622439925210728e+01,5.000000000000000278e-02
3.053384205832201381e-01,-6.218238447453066087e-01,9.385730198213355635e-01,1.000000000000000048e-04,4.395376865352672979e+01,5.000000000000000278e-02
-2.632922552165442909e+00,-9.156138977599408424e-01,7.415894818137576117e-01,1.000000000000000048e-04,4.332099655605415478e+01,5.000000000000000278e-02
-1.128318889131032066e+00,2.462908022304959310e-01,3.710636041738799573e-01,1.000000000000000048e-04,4.147490381212774935e+01,5.000000000000000278e-02
2.235223880217320769e-01,-9.116950246455534090e-01,2.941930613450065568e-01,1.000000000000000048e-04,4.085040484445966769e+01,5.000000000000000278e-02
-6.791338395191433008e-01,3.836282937359070111e-02,7.675803921718815648e-01,1.000000000000000048e-04,4.332969129066776759e+01,5.000000000000000278e-02
2.242999486668388442e+00,7.646449608262564368e-01,8.266957354823341042e-01,1.000000000000000048e-04,4.366585761198404469e+01,5.000000000000000278e-02
2.521716181211203001e+00,8.131084866328213145e-01,5.828558522223248328e-01,1.000000000000000048e-04,4.270046296624177984e+01,5.000000000000000278e-02
8.632869471906889913e-01,7.936931217058784682e-01,3.076737974132026654e-01,1.000000000000000048e-04,4.100743343645664396e+01,5.000000000000000278e-02
4.592944420086215729e-01,9.188609541933590030e-01,3.508126362067527371e-01,1.000000000000000048e-04,4.142270059783226088e+01,5.000000000000000278e-02
1.880917552178297925e+00,-1.196928418885521372e+00,2.996132874799726231e-01,1.000000000000000048e-04,4.099363780800079837e+01,5.000000000000000278e-02
4.649621904388583360e-01,-2.692076544391692750e-01,4.828414922768420325e-01,1.000000000000000048e-04,4.220312409149924093e+01,5.000000000000000278e-02
-1.321298697545653544e+00,-3.204922950982849184e-01,4.492859426054511829e-01,1.000000000000000048e-04,4.199732634364297468e+01,5.000000000000000278e-02
5.360116130713046267e-01,-4.200518749586383827e-01,4.098237346313757801e-01,1.000000000000000048e-04,4.179790994908671564e+01,5.000000000000000278e-02
-3.585590072138411522e-01,-2.360295944695391945e-01,9.466510599999460318e-01,1.000000000000000048e-04,4.390760414835116876e+01,5.000000000000000278e-02
-1.800454389490761864e+00,-7.517097212671065565e-01,9.228134960763907380e-01,1.000000000000000048e-04,4.388949832156234265e+01,5.000000000000000278e-02
-6.316139452018965095e-01,-9.553813433430174973e-01,7.669916942412238203e-01,1.000000000000000048e-04,4.339418144671667221e+01,5.000000000000000278e-02
-2.751832297083635304e+00,7.302675642614397944e-02,3.852893613463332922e-01,1.000000000000000048e-04,4.158764873638764215e+01,5.000000000000000278e-02
-9.452174434609825759e-01,-4.150460526964991903e-01,8.446237236290699002e-01,1.000000000000000048e-04,4.368575143749669110e+01,5.000000000000000278e-02
5.866716579615709470e-01,6.791743624560231396e-02,1.009766173384625265e-01,1.000000000000000048e-04,3.838760553288836519e+01,5.000000000000000278e-02
3.265313237090552434e-01,-2.216874520905269819e-01,6.785229048146803610e-01,1.000000000000000048e-04,4.312578076741230859e+01,5.000000000000000278e-02
4.104566979268122751e-01,-2.336343141315511129e-01,6.713059410361077450e-01,1.000000000000000048e-04,4.309259033112776649e+01,5.000000000000000278e-02
1.652252395013314334e+00,1.591316642439029039e-01,1.237204208656286220e-01,1.000000000000000048e-04,3.874032023752636889e+01,5.000000000000000278e-02
2.094274088543965462e+00,2.215986254990656157e-01,5.534503794694645151e-02,1.000000000000000048e-04,3.699634381029400743e+01,5.000000000000000278e-02
-1.738260836158813660e-01,-3.778216266237972576e-01,2.623771775651029259e-01,1.000000000000000048e-04,4.070973492215872369e+01,5.000000000000000278e-02
1.121483448069810152e+00,7.907759036446404544e-01,6.494867986420225225e-01,1.000000000000000048e-04,4.308642689604907616e+01,5.000000000000000278e-02
-1.986727177920579734e-01,3.760254018778763641e-01,6.450179370681603519e-01,1.000000000000000048e-04,4.298322482186624427e+01,5.000000000000000278e-02
2.998270850514510144e+00,9.324290933248331470e-01,6.797404606657531101e-01,1.000000000000000048e-04,4.305081539350990028e+01,5.000000000000000278e-02
1.344197250956561618e+00,-8.469710692342408143e-01,6.064441823952453348e-01,1.000000000000000048e-04,4.277062751880082203e+01,5.000000000000000278e-02
-1.990486082940124524e+00,-5.800187884221963408e-02,5.266422789215166045e-01,1.000000000000000048e-04,4.246335869279180741e+01,5.000000000000000278e-02
7.392764560054052581e-01,1.257834852636223744e-01,1.994149954617192577e-01,1.000000000000000048e-04,3.992851551750096206e+01,5.000000000000000278e-02
-1.966204023728954198e+00,-4.405823938499202619e-01,3.725323844392385286e-01,1.000000000000000048e-04,4.153226653464918883e+01,5.000000000000000278e-02
1.701349034892012391e-01,2.356552232303581462e-01,8.587180426427647451e-01,1.000000000000000048e-04,4.374603786225143409e+01,5.000000000000000278e-02
1.701445219201493941e+00,6.405883516411559064e-01,3.497192147457348632e-01,1.000000000000000048e-04,4.129270733795451065e+01,5.000000000000000278e-02
-1.206507552895093482e+00,8.216494697875873499e-01,3.200008076573821469e-01,1.000000000000000048e-04,4.117270164155920043e+01,5.000000000000000278e-02
1.756848942285116344e+00,-2.241002791299164798e-01,4.386183894871076294e-01,1.000000000000000048e-04,4.204485907515145726e+01,5.000000000000000278e-02
-2.371027031491945269e+00,2.911058503633137118e-01,2.874358449807676852e-01,1.000000000000000048e-04,4.094386503219806883e+01,5.000000000000000278e-02
1.595525644393477549e+00,1.376289757647096046e+00,4.868085926858514156e-01,1.000000000000000048e-04,4.219542661871259526e+01,5.000000000000000278e-02
-2.389678646183184707e+00,1.030484520913814706e+00,6.413364196200976863e-02,1.000000000000000048e-04,3.736166007574300352e+01,5.000000000000000278e-02
5.047956863013385309e-01,1.067124641580054600e+00,3.557393037409766201e-01,1.000000000000000048e-04,4.131572366369361760e+01,5.000000000000000278e-02
1.752056447357616342e+00,1.199124262588389112e-01,8.554990691100516909e-01,1.000000000000000048e-04,4.377164030529692695e+01,5.000000000000000278e-02
-1.476529871853033304e+00,1.036886310712917147e+00,6.110284262742085026e-01,1.000000000000000048e-04,4.284577125137779063e+01,5.000000000000000278e-02
1.435333176846630643e+00,-2.519046103048125929e-01,6.174895698330007399e-02,1.000000000000000048e-04,3.720210315286618652e+01,5.000000000000000278e-02
2.932731111063461960e+00,-6.387906785515728991e-02,8.800043660582743676e-01,1.000000000000000048e-04,4.376102095220488053e+01,5.000000000000000278e-02
1.561231882933584281e+00,3.681294087937665438e-01,2.982450436805899052e-01,1.000000000000000048e-04,4.097790640193145606e+01,5.000000000000000278e-02
1.898354891936750555e+00,-7.786193887503269906e-01,5.760833962378155704e-01,1.000000000000000048e-04,4.263290843040398670e+01,5.000000000000000278e-02
2.903329453369253521e+00,3.048560435128018220e-01,4.309488658139748463e-01,1.000000000000000048e-04,4.192865329046880873e+01,5.000000000000000278e-02
3.126001115908470851e+00,-5.997890537530295996e-01,5.441478207838070791e-01,1.000000000000000048e-04,4.245041272962873791e+01,5.000000000000000278e-02
1.625913386822555040e+00,1.139960212900168024e+00,7.076756310724252597e-01,1.000000000000000048e-04,4.316476462751273147e+01,5.000000000000000278e-02
2.672345055699758554e-01,2.593503465643580697e-01,5.743067073751688678e-01,1.000000000000000048e-04,4.277223967925817760e+01,5.000000000000000278e-02
-2.559060071681833914e+00,-2.806970356954674450e-02,1.510958124650592094e-01,1.000000000000000048e-04,3.924782849283603525e+01,5.000000000000000278e-02
2.836278238402996088e+00,-1.563242914696849617e-01,4.750805639877688780e-01,1.000000000000000048e-04,4.213137025860103790e+01,5.000000000000000278e-02
1.693252519980534387e+00,6.032590133659558873e-01,9.324971417755025804e-01,1.000000000000000048e-04,4.394489296888566798e+01,5.000000000000000278e-02
-2.684985830600864265e+00,-8.009062684623230455e-01,6.305222582339538029e-01,1.000000000000000048e-04,4.295650771796996992e+01,5.000000000000000278e-02
-4.837622877298088930e-01,-8.586662268465909964e-01,4.203692929310611781e-01,1.000000000000000048e-04,4.188992426122899815e+01,5.000000000000000278e-02
3.058665076038089126e+00,3.524241591751884339e-01,7.312648388161935298e-01,1.000000000000000048e-04,4.327566588658285696e+01,5.000000000000000278e-02
-2.348829006778157868e+00,-7.860694220859762993e-01,8.848075772315917575e-01,1.000000000000000048e-04,4.378466763330249734e+01,5.000000000000000278e-02
-4.884556352960256476e-03,-6.032533904265149349e-01,2.392983425151202770e-01,1.000000000000000048e-04,4.041771035123660738e+01,5.000000000000000278e-02
-2.586300136180829767e+00,-3.154761561931942460e-01,4.980320244340912250e-01,1.000000000000000048e-04,4.231763071751712602e+01,5.000000000000000278e-02
-2.523533816014373432e+00,1.233476427667073327e+00,6.075894832234429721e-02,1.000000000000000048e-04,3.718781042957227356e+01,5.000000000000000278e-02
-1.789964481553777409e+00,3.522798498305212966e-01,3.747766937422676303e-01,1.000000000000000048e-04,4.158657863229316121e+01,5.000000000000000278e-02
-2.408923574445935412e+00,-5.826095661273589243e-02,2.244216791438333747e-01,1.000000000000000048e-04,4.017692767311599056e+01,5.000000000000000278e-02
3.129895855166716423e+00,-1.388289795936989979e-01,7.581908353950932433e-01,1.000000000000000048e-04,4.338958352431564691e+01,5.000000000000000278e-02
-1.174904916171287450e+00,-1.228895321465086621e-01,8.681023776564871230e-01,1.000000000000000048e-04,4.378617708873213132e+01,5.000000000000000278e-02
-1.962474474756422449e+00,2.595129291569677754e-01,8.717499343903620801e-01,1.000000000000000048e-04,4.373969171179909665e+01,5.000000000000000278e-02
-2.799245629084914366e+00,-8.945232751261368298e-01,2.809845774148702624e-01,1.000000000000000048e-04,4.078881759129902917e+01,5.000000000000000278e-02
1.516230708693965035e+00,-3.479141879833367312e-01,6.543602892365807389e-01,1.000000000000000048e-04,4.298496083169786885e+01,5.000000000000000278e-02
-2.333982314220852228e+00,2.888077004437681339e-01,8.249541557218025289e-01,1.000000000000000048e-04,4.360580380495564867e+01,5.000000000000000278e-02
2.726859895269458711e+00,-6.539683675001439767e-02,1.183962621772314261e-01,1.000000000000000048e-04,3.876434091728061304e+01,5.000000000000000278e-02
-1.863621580390409038e+00,-8.068019746447699925e-01,4.246744856140107771e-01,1.000000000000000048e-04,4.182347179264600356e+01,5.000000000000000278e-02
-2.672466886734561342e+00,-4.533378789976592049e-01,8.154900867348622295e-01,1.000000000000000048e-04,4.358225499860425600e+01,5.000000000000000278e-02
-1.917496805549596672e+00,-4.339377784912752389e-01,7.739263287406976666e-01,1.000000000000000048e-04,4.345173950107061955e+01,5.000000000000000278e-02
-1.527336669868398111e+00,-8.323249423783307677e-01,7.655847672716515895e-01,1.000000000000000048e-04,4.344425041432554480e+01,5.000000000000000278e-02
4.705853752366611076e-01,-2.411732574400671236e-01,7.141776163392958843e-01,1.000000000000000048e-04,4.317939162386817742e+01,5.000000000000000278e-02
2.039925058694264770e+00,-1.064543992696673769e+00,1.960334056440857786e-01,1.000000000000000048e-04,3.988794877198370159e+01,5.000000000000000278e-02
-2.972496648016098142e+00,-3.722308588315688116e-01,2.854269706323750988e-01,1.000000000000000048e-04,4.080847551187241606e+01,5.000000000000000278e-02
-2.622993817939830663e+00,1.357189523159108901e+00,5.067444788345307760e-01,1.000000000000000048e-04,4.234428349042230622e+01,5.000000000000000278e-02
-4.671999796099246538e-02,-8.189901991653147917e-03,5.649494649525339529e-01,1.000000000000000048e-04,4.256373076962816526e+01,5.000000000000000278e-02
-3.130834626971322088e+00,2.065141199646953751e-01,1.264515170338289529e-01,1.000000000000000048e-04,3.887045062948433127e+01,5.000000000000000278e-02
-2.627451188977488528e+00,7.385980192453458493e-01,7.404748437212362866e-01,1.000000000000000048e-04,4.330698003214135383e+01,5.000000000000000278e-02
4.402516628485688699e-01,-3.498809171483117098e-01,1.681353777372336378e-01,1.000000000000000048e-04,3.950659081931278394e+01,5.000000000000000278e-02
-1.941699528706606115e+00,-1.884762714332000044e-01,7.916632134152707945e-01,1.000000000000000048e-04,4.348554892009222783e+01,5.000000000000000278e-02
1.691052968078587959e+00,-4.692125490135321542e-01,3.591857724658995554e-01,1.000000000000000048e-04,4.145796700448776306e+01,5.000000000000000278e-02
-2.804254476180263467e+00,1.291588538651316842e+00,5.558198659741651060e-01,1.000000000000000048e-04,4.246314434332938959e+01,5.000000000000000278e-02
2.084392941280338363e+00,-3.319242566762115043e-01,1.376720299867295605e-01,1.000000000000000048e-04,3.903864008322852897e+01,5.000000000000000278e-02
-9.427253874294345692e-01,2.426134410515869977e-01,5.926260033791626025e-01,1.000000000000000048e-04,4.264061037289358325e+01,5.000000000000000278e-02
-1.001909635111139618e+00,-7.004706806903285843e-01,7.254192825733651873e-01,1.000000000000000048e-04,4.333569229596360373e+01,5.000000000000000278e-02
6.676915174751316684e-01,-6.650805734977738304e-01,9.289902737287072387e-01,1.000000000000000048e-04,4.396740544695525443e+01,5.000000000000000278e-02
-2.066605528767111011e+00,8.502414541226528399e-01,8.917906036206013631e-01,1.000000000000000048e-04,4.376647447792686307e+01,5.000000000000000278e-02
7.849501833968548503e-01,7.111564152402523042e-01,8.744174282311654167e-01,1.000000000000000048e-04,4.382442915580148934e+01,5.000000000000000278e-02
1.782654576746002029e+00,9.462528645414480799e-01,5.016809985075247891e-01,1.000000000000000048e-04,4.236415848319297339e+01,5.000000000000000278e-02
1.348754947118740333e+00,1.202472962321980976e-01,1.290775046539760496e-01,1.000000000000000048e-04,3.886578881293507237e+01,5.000000000000000278e-02
-2.942309331580574838e+00,3.854517280123803680e-02,3.867172989447293929e-01,1.000000000000000048e-04,4.166836550792996974e+01,5.000000000000000278e-02
2.204305494467373450e+00,9.328020943297725687e-01,8.143029331335664978e-01,1.000000000000000048e-04,4.353035287863175284e+01,5.000000000000000278e-02
1.543841447381988807e+00,1.400738663284421648e+00,7.600763315519292185e-01,1.000000000000000048e-04,4.343556903203694475e+01,5.000000000000000278e-02
-1.503558467822556199e+00,-3.080557999093531674e-01,4.117137840378419789e-01,1.000000000000000048e-04,4.178009402039953812e+01,5.000000000000000278e-02
1.847005378560195865e-01,-8.665234087963693543e-01,9.079973986669758190e-01,1.000000000000000048e-04,4.387861543911089512e+01,5.000000000000000278e-02
-1.159546525027667974e+00,4.323490221957952961e-01,1.020868966869745709e-01,1.000000000000000048e-04,3.826377503027479321e+01,5.000000000000000278e-02
-3.089415874930859562e+00,-3.080550817485185888e-01,2.985223711590574425e-01,1.000000000000000048e-04,4.099778827762021649e+01,5.000000000000000278e-02
1.416883061755792816e+00,6.336542343113067410e-01,1.608183588305416301e-01,1.000000000000000048e-04,3.949575062592328578e+01,5.000000000000000278e-02
-2.576560893340727798e+00,1.844311248487020549e-01,1.562416591700173107e-01,1.000000000000000048e-04,3.936056339615838340e+01,5.000000000000000278e-02
1.691151588804759243e+00,-1.163541384668342893e-01,7.945471158667973821e-01,1.000000000000000048e-04,4.349268349336735184e+01,5.000000000000000278e-02
5.875906732472468974e-02,1.255068535255918771e-01,8.832980936726664289e-01,1.000000000000000048e-04,4.369071281112277916e+01,5.000000000000000278e-02
1.141974589521084660e+00,-1.679113750751115575e-02,7.689407383129751583e-01,1.000000000000000048e-04,4.339566769822214098e+01,5.000000000000000278e-02
-2.480527436175493428e+00,-6.498422147136692084e-01,5.126090087160202202e-01,1.000000000000000048e-04,4.237594349519853409e+01,5.000000000000000278e-02
-3.066944944257604000e+00,-4.512110650175131799e-01,8.529560663514075269e-01,1.000000000000000048e-04,4.372794316959115690e+01,5.000000000000000278e-02
2.438378489600633969e+00,3.547798690050907311e-01,7.283926002099316843e-01,1.000000000000000048e-04,4.313064476226526267e+01,5.000000000000000278e-02
1.172051411388955522e+00,8.353421432999956764e-01,2.492191149886515689e-01,1.000000000000000048e-04,4.051324276542700176e+01,5.000000000000000278e-02
2.618703325567891760e+00,4.580666903669503576e-01,7.869335075355996523e-01,1.000000000000000048e-04,4.345268788953802641e+01,5.000000000000000278e-02
-2.286548026254372701e+00,5.079619333508733625e-01,5.325714474762952566e-01,1.000000000000000048e-04,4.246941497258726628e+01,5.000000000000000278e-02
1.330912197240654571e+00,8.565470875896483705e-01,2.407142773747807940e-01,1.000000000000000048e-04,4.044360555619079634e+01,5.000000000000000278e-02
5.061027196895073743e-02,1.551076690421335780e-01,8.002387857867918619e-01,1.000000000000000048e-04,4.357033451482914899e+01,5.000000000000000278e-02
1.375906983020460217e+00,-7.875958009513883695e-02,4.000562673546852466e-01,1.000000000000000048e-04,4.168964562768793058e+01,5.000000000000000278e-02
-8.283030638719366401e-01,8.281477725175365734e-01,9.142869862877598397e-01,1.000000000000000048e-04,4.384531438420592053e+01,5.000000000000000278e-02
1.525038970461942256e+00,-3.919132446429645089e-01,2.041930872128370211e-01,1.000000000000000048e-04,4.000892615010878473e+01,5.000000000000000278e-02
-2.498784032149372614e-01,5.193609221174915191e-01,5.468946748208829423e-01,1.000000000000000048e-04,4.247500983358195015e+01,5.000000000000000278e-02
2.239128690923111620e+00,1.273583793462606639e+00,4.536476620150131644e-01,1.000000000000000048e-04,4.204944833228499590e+01,5.000000000000000278e-02
2.495809722497875249e+00,1.418695866007699813e-01,7.699436834545481112e-01,1.000000000000000048e-04,4.345924007932757860e+01,5.000000000000000278e-02
-1.112708199190671987e+00,-4.897152410228486907e-01,4.496660116553270470e-01,1.000000000000000048e-04,4.195805928539804341e+01,5.000000000000000278e-02
-2.406934629178334895e+00,4.969020464685414140e-01,6.701996295661034608e-01,1.000000000000000048e-04,4.300483158921872473e+01,5.000000000000000278e-02
-8.891278534497040198e-01,-4.027970683600694546e-01,3.584832665107380301e-01,1.000000000000000048e-04,4.129631041654162260e+01,5.000000000000000278e-02
6.932893236892518907e-01,6.230672258885738835e-01,7.994858272914100450e-01,1.000000000000000048e-04,4.347317669944974483e+01,5.000000000000000278e-02
1.609131613657807769e+00,6.474167799685730529e-01,3.274825666086347287e-01,1.000000000000000048e-04,4.112971822594570170e+01,5.000000000000000278e-02
1.635300292216271600e+00,7.268981805293828202e-01,6.446920947861671802e-01,1.000000000000000048e-04,4.300415965108604865e+01,5.000000000000000278e-02
2.877504815858082488e+00,-8.341407251905266218e-01,3.394730526322153885e-01,1.000000000000000048e-04,4.125993861301116539e+01,5.000000000000000278e-02
-1.976330624741532649e+00,2.799612226283469951e-01,1.505068488573857444e-01,1.000000000000000048e-04,3.927750531344518237e+01,5.000000000000000278e-02
1.292560460851963633e+00,1.402540810926085069e+00,8.326213204877266350e-01,1.000000000000000048e-04,4.359463863850407961e+01,5.000000000000000278e-02
-2.536557516356318320e+00,3.827731884947627172e-02,2.038471502632788201e-01,1.000000000000000048e-04,4.003381414478630518e+01,5.000000000000000278e-02
1.753433672024506507e+00,2.772373600306963226e-01,4.235412443024983986e-01,1.000000000000000048e-04,4.187589071355539261e+01,5.000000000000000278e-02
-9.143273490783476731e-01,5.190495094424769640e-01,1.681329282330108477e-01,1.000000000000000048e-04,3.959639997553286150e+01,5.000000000000000278e-02
-2.162220757262957260e+00,-4.372349367141414866e-02,4.792614243955437558e-01,1.000000000000000048e-04,4.213532110470821834e+01,5.000000000000000278e-02
3.981838192054798498e-01,3.518497661747055361e-02,6.107343571164243201e-01,1.000000000000000048e-04,4.286376471900387486e+01,5.000000000000000278e-02
2.646158762555126387e+00,-2.127723187493766321e-01,7.537515574696189713e-01,1.000000000000000048e-04,4.335371551895210018e+01,5.000000000000000278e-02
4.322002629726826584e-01,2.644532413689109074e-01,6.658927987477012422e-01,1.000000000000000048e-04,4.304756182807614096e+01,5.000000000000000278e-02
3.753819740866597421e-01,-4.540049066204547845e-01,3.890994253807174008e-01,1.000000000000000048e-04,4.168851424430850727e+01,5.000000000000000278e-02
-1.807440190713738071e+00,2.966582082052591218e-01,7.092395683477441537e-01,1.000000000000000048e-04,4.317479457831122147e+01,5.000000000000000278e-02
-2.528298614442190839e+00,-6.670532650336332692e-01,4.436162429744587854e-01,1.000000000000000048e-04,4.192860476701980588e+01,5.000000000000000278e-02
9.031773003438861025e-01,-4.320536948857123249e-02,3.659696169683315237e-01,1.000000000000000048e-04,4.152979129787143364e+01,5.000000000000000278e-02
-3.141149679276453721e+00,-2.689630591530729475e-01,8.018204156344501676e-01,1.000000000000000048e-04,4.358729807103350851e+01,5.000000000000000278e-02
-1.225791007679610800e-03,1.794457579141006676e-01,6.346221680571886292e-01,1.000000000000000048e-04,4.294124273545396164e+01,5.000000000000000278e-02
-2.730753105233802991e-01,-2.800249647596708691e-01,5.948134758167540337e-01,1.000000000000000048e-04,4.272798183250634452e+01,5.000000000000000278e-02
1.059883449052015258e+00,7.950578625191249138e-01,6.287205016581747241e-01,1.000000000000000048e-04,4.284062616955981184e+01,5.000000000000000278e-02
6.428754329999044614e-01,6.339502993419023902e-01,3.696011183995064897e-01,1.000000000000000048e-04,4.148104448259516630e+01,5.000000000000000278e-02
2.463177090277009817e+00,-8.450196529941707002e-01,3.142564262374296646e-01,1.000000000000000048e-04,4.102464105663182892e+01,5.000000000000000278e-02
1.056712967354759058e+00,7.499391837151341278e-01,5.294951316379774564e-01,1.000000000000000048e-04,4.246502160191656827e+01,5.000000000000000278e-02
2.560974174551951421e+00,1.390692452482396035e+00,7.779309733780581659e-01,1.000000000000000048e-04,4.343501258483043870e+01,5.000000000000000278e-02
-1.661488441321340215e+00,-8.294154033129190751e-01,8.323218799949996249e-01,1.000000000000000048e-04,4.359724795384520490e+01,5.000000000000000278e-02
-1.059149925670521686e+00,7.447586892284920879e-01,9.265934126788528680e-01,1.000000000000000048e-04,4.404480727643280602e+01,5.000000000000000278e-02
1.818114634610326519e+00,1.699293085113766644e-01,6.486653738978691575e-01,1.000000000000000048e-04,4.288163189607568171e+01,5.000000000000000278e-02
-1.162508293099762779e+00,6.033793918692746949e-01,6.268782921948450326e-01,1.000000000000000048e-04,4.282534854967275351e+01,5.000000000000000278e-02
2.075302418197421339e+00,4.979400383656717999e-02,4.308801254832828054e-01,1.000000000000000048e-04,4.185503978766430322e+01,5.000000000000000278e-02
2.486996191698520597e+00,-2.983316852438742117e-01,7.838217163513103714e-01,1.000000000000000048e-04,4.351897926508092240e+01,5.000000000000000278e-02
1.141698163793686938e+00,-1.222775091764410904e+00,8.410257585549172354e-01,1.000000000000000048e-04,4.370102787981066683e+01,5.000000000000000278e-02
-3.368950474050045329e-01,-4.464579855233103967e-01,2.057641301548513990e-01,1.000000000000000048e-04,4.007666483497717280e+01,5.000000000000000278e-02
-2.293285961193124223e+00,3.611746759802092477e-02,7.461426411178320173e-01,1.000000000000000048e-04,4.334981506634921544e+01,5.000000000000000278e-02
1.399839509659974723e-01,5.702146765211439927e-01,7.502539104995289421e-01,1.000000000000000048e-04,4.337453900063830048e+01,5.000000000000000278e-02
-9.928339341376060112e-01,-5.159645591420476407e-01,8.163806789833454314e-01,1.000000000000000048e-04,4.350804133408824725e+01,5.000000000000000278e-02
-1.444902459336051770e+00,-7.164211971086399400e-01,8.766961981413494698e-01,1.000000000000000048e-04,4.384850743595966094e+01,5.000000000000000278e-02
-1.262220966218428941e+00,-6.016997824853690391e-01,8.247242434261734534e-01,1.000000000000000048e-04,4.359608925103084687e+01,5.000000000000000278e-02
-2.550470913202064427e+00,-4.590998863205406622e-01,9.014668559247422941e-01,1.000000000000000048e-04,4.383913530214125132e+01,5.000000000000000278e-02
-1.717625830374947871e+00,1.611669740726395794e-01,7.977516617176867442e-01,1.000000000000000048e-04,4.351996568506589824e+01,5.000000000000000278e-02
-1.706038886156348022e+00,-3.709709024180216641e-01,9.230098630547229899e-01,1.000000000000000048e-04,4.384513405985966017e+01,5.000000000000000278e-02
1.229969187078920001e+00,1.060295960642716473e+00,4.608190377455603226e-01,1.000000000000000048e-04,4.204614337864972384e+01,5.000000000000000278e-02
7.996743877089684815e-01,-1.233526705379661692e-02,7.709528735720407866e-01,1.000000000000000048e-04,4.341627652333828991e+01,5.000000000000000278e-02
1.653057313477251711e+00,-3.404766703132862116e-01,1.672338855029698035e-01,1.000000000000000048e-04,3.939713895501122209e+01,5.000000000000000278e-02
-1.540362864552976108e+00,-5.169291210030757533e-02,6.521020100994221469e-01,1.000000000000000048e-04,4.303354735351169325e+01,5.000000000000000278e-02
2.446442468594756114e+00,1.448011854223585360e-01,2.034253655515132486e-01,1.000000000000000048e-04,3.993596493801747016e+01,5.000000000000000278e-02
3.033329709651891193e+00,-2.685396241910726900e-01,6.494363237436675540e-01,1.000000000000000048e-04,4.299643818517957783e+01,5.000000000000000278e-02
1.622553649277270971e+00,-1.054028265678556897e+00,5.625126218245919407e-01,1.000000000000000048e-04,4.254078655520526553e+01,5.000000000000000278e-02
1.208488670149281852e+00,5.158041423206927156e-01,6.499078676184402159e-01,1.000000000000000048e-04,4.302259244901197377e+01,5.000000000000000278e-02
2.514392799976360671e+00,1.566156388878852113e-01,7.282519163908358628e-01,1.000000000000000048e-04,4.328146060676031937e+01,5.000000000000000278e-02
5.390826169327223027e-01,-6.929237791172669914e-01,2.760476914167369067e-01,1.000000000000000048e-04,4.067044553423094300e+01,5.000000000000000278e-02
3.138218961086280956e+00,7.341927588353414080e-02,7.490440153002009271e-01,1.000000000000000048e-04,4.347178574317949540e+01,5.000000000000000278e-02
-6.112037927380780111e-01,-9.149498691729706090e-01,1.036538479073769725e-01,1.000000000000000048e-04,3.848074070838910643e+01,5.000000000000000278e-02
1.424477399854757742e-01,-9.680190946193534263e-01,2.370083527048136851e-01,1.000000000000000048e-04,4.033139109820389479e+01,5.000000000000000278e-02
-2.295494579238394284e+00,6.642250749848410685e-01,8.344698390131426446e-01,1.000000000000000048e-04,4.363956566563356887e+01,5.000000000000000278e-02
-3.691809665502088222e-02,-1.220666953632260965e+00,6.788420602138174331e-01,1.000000000000000048e-04,4.313909825482058835e+01,5.000000000000000278e-02
-2.155930428933330312e+00,2.782594830563605015e-01,1.349040391860081289e-01,1.000000000000000048e-04,3.897849814056712603e+01,5.000000000000000278e-02
-1.735350238816687929e+00,4.614496936294387730e-01,7.788009706701526369e-01,1.000000000000000048e-04,4.343017324705027704e+01,5.000000000000000278e-02
1.437114951793731166e+00,6.766506572062280789e-01,5.211931934408011724e-01,1.000000000000000048e-04,4.236472927668835098e+01,5.000000000000000278e-02
1.551000135537656810e+00,-4.505836594816334806e-01,7.766208036257808978e-01,1.000000000000000048e-04,4.347737309232416436e+01,5.000000000000000278e-02
2.012590461751289972e+00,-8.419287382565920907e-02,2.512632029923693722e-01,1.000000000000000048e-04,4.056330847980789400e+01,5.000000000000000278e-02
-2.281587984149184400e+00,-7.759429845124232727e-02,3.026949187377532269e-01,1.000000000000000048e-04,4.103420670863374653e+01,5.000000000000000278e-02
5.175381801826501871e-01,4.234991008931372480e-01,7.596982265149607727e-01,1.000000000000000048e-04,4.337421848159933546e+01,5.000000000000000278e-02
-1.949681049147820033e+00,2.309835161370796808e-01,1.136795074510799086e-01,1.000000000000000048e-04,3.859147811650789350e+01,5.000000000000000278e-02
5.155855883849072008e-01,-8.366226459442738239e-02,5.214694431030801880e-01,1.000000000000000048e-04,4.238294636611482247e+01,5.000000000000000278e-02
-1.810621965143765610e+00,4.908091462794459403e-01,5.016102414793908171e-01,1.000000000000000048e-04,4.232903292956831365e+01,5.000000000000000278e-02
-1.910541171765100854e+00,6.991388946424961226e-01,3.423291981976517295e-01,1.000000000000000048e-04,4.130888466006008741e+01,5.000000000000000278e-02
-3.099477954883882891e+00,-6.122759866865356004e-01,4.499403456957997705e-01,1.000000000000000048e-04,4.208477336307105787e+01,5.000000000000000278e-02
-4.758305137263985074e-01,-2.719427342602900310e-01,2.078473060481205170e-01,1.000000000000000048e-04,4.006685288214753626e+01,5.000000000000000278e-02
-3.079287859432509045e+00,2.027212651523164766e-01,6.778628891427067593e-01,1.000000000000000048e-04,4.309211286243447603e+01,5.000000000000000278e-02
-2.178261438614487844e+00,1.131286073486103216e+00,7.755238803096797806e-01,1.000000000000000048e-04,4.356516360202363813e+01,5.000000000000000278e-02
-1.057707744502288438e+00,4.321058542772058253e-01,6.637194043274128319e-01,1.000000000000000048e-04,4.295186730492680738e+01,5.000000000000000278e-02
-2.799144521354612891e+00,1.149036665970386117e+00,7.803912398584569310e-01,1.000000000000000048e-04,4.347254787349866945e+01,5.000000000000000278e-02
1.152193700133321563e+00,-1.000484791405695795e-01,8.828962900186727580e-01,1.000000000000000048e-04,4.372183720691515418e+01,5.000000000000000278e-02
1.430222067894610483e+00,8.523653805690667440e-01,8.757254429153449315e-01,1.000000000000000048e-04,4.373896504757593817e+01,5.000000000000000278e-02
2.818960047492502063e+00,-1.343518118639404069e-01,7.375699262059813854e-01,1.000000000000000048e-04,4.320255151039219044e+01,5.000000000000000278e-02
1.997218647703505212e+00,1.258969666004386312e+00,1.416477721993074645e-01,1.000000000000000048e-04,3.909759662186851870e+01,5.000000000000000278e-02
-2.305628998395218510e+00,1.904963759159845615e-01,7.172986965113758995e-01,1.000000000000000048e-04,4.325384058182639535e+01,5.000000000000000278e-02
-1.241232116436499888e+00,-5.387085659010015792e-01,9.042355567007227535e-01,1.000000000000000048e-04,4.392488530639177213e+01,5.000000000000000278e-02
-2.009983691935773642e+00,5.976566250101216227e-01,4.418137586347252732e-01,1.000000000000000048e-04,4.192051820893524905e+01,5.000000000000000278e-02
-2.417401339214614087e+00,6.331172577675032720e-01,8.445136117576699242e-01,1.000000000000000048e-04,4.368406427542741710e+01,5.000000000000000278e-02
1.134893564316838521e+00,-9.023508785633849172e-03,8.443525487108487493e-01,1.000000000000000048e-04,4.358153188171169035e+01,5.000000000000000278e-02
-1.998900909856522690e+00,1.867821511719145455e-01,8.442106560307491847e-01,1.000000000000000048e-04,4.371675207737763458e+01,5.000000000000000278e-02
9.982218189168001743e-01,-8.758743962036894537e-01,9.111514571353573899e-01,1.000000000000000048e-04,4.383985229235606340e+01,5.000000000000000278e-02
-1.099068296963796598e-01,-2.529610026290747271e-01,3.484076365192521063e-01,1.000000000000000048e-04,4.133613658496368970e+01,5.000000000000000278e-02
-1.905178049723814659e+00,6.050014939107519751e-01,7.564290563440101423e-01,1.000000000000000048e-04,4.341957664751534907e+01,5.000000000000000278e-02
-1.639423905201552012e+00,-1.469848056492105481e+00,7.292572858127568391e-01,1.000000000000000048e-04,4.335498771629601578e+01,5.000000000000000278e-02
1.162398177155876233e+00,-7.385166570876140479e-01,5.581612612892246084e-01,1.000000000000000048e-04,4.261458050202874404e+01,5.000000000000000278e-02
-8.101859814900977952e-01,4.248433309315027273e-01,6.779360173792547961e-02,1.000000000000000048e-04,3.744527784384644065e+01,5.000000000000000278e-02
-2.321834931697465798e+00,6.535761635277119730e-01,8.417514144637028295e-02,1.000000000000000048e-04,3.791154655312000443e+01,5.000000000000000278e-02
2.335462512349190334e+00,5.076161622648962535e-01,4.204613018812077829e-01,1.000000000000000048e-04,4.180285979021846998e+01,5.000000000000000278e-02
2.800525829426833369e+00,6.069421634242213592e-01,5.372234117322134406e-01,1.000000000000000048e-04,4.252835305839318636e+01,5.000000000000000278e-02
-1.993797202540871227e+00,4.916380649499365596e-01,5.430118980395803874e-01,1.000000000000000048e-04,4.243915331763999887e+01,5.000000000000000278e-02
2.862395499752254935e+00,7.645883726920383872e-01,6.634331998449958245e-01,1.000000000000000048e-04,4.293248295611957843e+01,5.000000000000000278e-02
2.432071905630974307e+00,1.070574918394247899e+00,3.667480181746551882e-01,1.000000000000000048e-04,4.147794472948973521e+01,5.000000000000000278e-02
3.118479991158481290e+00,-6.013041581806063407e-01,1.364925635707667784e-01,1.000000000000000048e-04,3.902818154827387787e+01,5.000000000000000278e-02
-4.689226383659113040e-01,-2.011152237905726725e-01,2.686670355190834414e-01,1.000000000000000048e-04,4.069902896895979438e+01,5.000000000000000278e-02
2.321557492664632072e+00,1.034265596008956400e-01,3.080033461279851892e-01,1.000000000000000048e-04,4.103127143875801153e+01,5.000000000000000278e-02
-2.416540588439130666e+00,-1.092934433071553801e+00,8.827486564459505747e-01,1.000000000000000048e-04,4.379271095199911201e+01,5.000000000000000278e-02
-1.055459256842743887e+00,4.774788071090014796e-01,4.812593432421354844e-01,1.000000000000000048e-04,4.211420108035584065e+01,5.000000000000000278e-02
-1.428323995042327432e+00,4.564306197175049817e-02,2.937180356953543736e-01,1.000000000000000048e-04,4.094875134452457388e+01,5.000000000000000278e-02
-1.900429995917283010e+00,8.520931645162441725e-01,3.564343726621552744e-01,1.000000000000000048e-04,4.144936027313550397e+01,5.000000000000000278e-02
1.860588887575703509e+00,5.067578919986206465e-01,3.973743822360706890e-01,1.000000000000000048e-04,4.162266684147803630e+01,5.000000000000000278e-02
3.128120310031736295e+00,1.982003450440190662e-01,4.767461914636614839e-01,1.000000000000000048e-04,4.211925131950216183e+01,5.000000000000000278e-02
-2.592134170957867578e+00,-6.952237739652539217e-01,7.422798885644212863e-01,1.000000000000000048e-04,4.341079074135683413e+01,5.000000000000000278e-02
1.274508090456823339e+00,-1.125791635984980887e+00,1.026259625013321575e-01,1.000000000000000048e-04,3.833970816569409124e+01,5.000000000000000278e-02
2.315775911646060337e+00,4.603399051958305677e-01,3.777992692078595560e-01,1.000000000000000048e-04,4.146716475203557906e+01,5.000000000000000278e-02
2.613578397065273506e+00,2.937691304967611217e-01,2.938241282089459894e-01,1.000000000000000048e-04,4.088552689768057036e+01,5.000000000000000278e-02
-1.473483067394758095e+00,1.243159656442483829e+00,4.686967887888426887e-01,1.000000000000000048e-04,4.208769947388226029e+01,5.000000000000000278e-02
-1.265332485145463259e+00,1.122212015891867587e+00,7.235127841119266545e-01,1.000000000000000048e-04,4.329223268467485752e+01,5.000000000000000278e-02
1.471854024761743318e+00,1.154120727067417640e+00,2.855301264020422281e-01,1.000000000000000048e-04,4.080365425145028979e+01,5.000000000000000278e-02
2.742686936540128073e+00,3.311195078888995447e-02,7.126603527060639820e-01,1.000000000000000048e-04,4.326014022259215608e+01,5.000000000000000278e-02
-2.849712704088709803e+00,4.438456965501629270e-01,5.703898584878008826e-01,1.000000000000000048e-04,4.262512721418836037e+01,5.000000000000000278e-02
1.424560517449555697e+00,5.385125129423626866e-01,3.479500287098100664e-01,1.000000000000000048e-04,4.144272477036514601e+01,5.000000000000000278e-02
-2.006764528985364393e+00,5.431191671912638519e-01,1.186680920198333045e-01,1.000000000000000048e-04,3.873999928423273786e+01,5.000000000000000278e-02
-1.815783785502550263e+00,-8.917651448884467147e-01,2.151620247955980947e-01,1.000000000000000048e-04,4.016671473190840658e+01,5.000000000000000278e-02
-2.528838629137845739e+00,-1.127064069625925313e+00,4.150626779589137172e-01,1.000000000000000048e-04,4.176114136686496892e+01,5.000000000000000278e-02
-5.889297825285431109e-01,-2.939426286839403879e-01,1.588823755648227642e-01,1.000000000000000048e-04,3.952478387972984564e+01,5.000000000000000278e-02
-1.570707545479412159e+00,4.995248517856749615e-01,6.227252443696229545e-01,1.000000000000000048e-04,4.277010392694604235e+01,5.000000000000000278e-02
6.706295318818398243e-01,-2.611083780500260687e-01,3.506422687314021402e-01,1.000000000000000048e-04,4.144162574493417850e+01,5.000000000000000278e-02
1.984376163927771941e+00,-1.216006448494533210e-01,7.928249673098852757e-01,1.000000000000000048e-04,4.349756464801829736e+01,5.000000000000000278e-02
-1.787717752532889115e-01,-5.063116222388461818e-01,4.357203650203798073e-01,1.000000000000000048e-04,4.199868145672861175e+01,5.000000000000000278e-02
-2.273468255638681157e+00,-8.277354269446296486e-01,2.004746224273181721e-01,1.000000000000000048e-04,4.005941083613167564e+01,5.000000000000000278e-02
7.773219356558502824e-01,-3.307206895829142290e-01,2.813517012892905456e-01,1.000000000000000048e-04,4.079432353876754291e+01,5.000000000000000278e-02
-6.910640774680678611e-01,3.692568054254397047e-02,9.154508257873521515e-01,1.000000000000000048e-04,4.397169944855004076e+01,5.000000000000000278e-02
-7.786964174765436120e-01,-5.496440795358501497e-01,2.880330963919546239e-01,1.000000000000000048e-04,4.081890047634534113e+01,5.000000000000000278e-02
-2.791216849806859024e+00,2.434601790933497156e-01,5.237315302322742561e-01,1.000000000000000048e-04,4.242077620103238900e+01,5.000000000000000278e-02
-9.661169267179112730e-01,-3.128432224901407377e-01,1.746659541629262957e-01,1.000000000000000048e-04,3.971034236932049311e+01,5.000000000000000278e-02
8.923807279827169481e-01,-5.503820191774402293e-01,7.093730986691342277e-01,1.000000000000000048e-04,4.321702278934478869e+01,5.000000000000000278e-02
2.822802229232465265e+00,-9.723818135358739401e-01,5.002629606009612040e-01,1.000000000000000048e-04,4.232852546717201392e+01,5.000000000000000278e-02
1.734189211951241205e+00,-1.322693938891607468e+00,1.997118538201259064e-01,1.000000000000000048e-04,3.991071811959313465e+01,5.000000000000000278e-02
4.704718304706640986e-01,7.147851460088343600e-01,8.495303297530740760e-01,1.000000000000000048e-04,4.371430113028122122e+01,5.000000000000000278e-02
-2.838176858903892708e+00,1.217228179447330305e+00,1.122980890118323583e-01,1.000000000000000048e-04,3.853653364181442242e+01,5.000000000000000278e-02
9.905689586574162320e-01,-3.953880403204967919e-01,2.603769295284776852e-01,1.000000000000000048e-04,4.062697700651307997e+01,5.000000000000000278e-02
-2.276477217866952785e+00,-1.719045519713069403e-01,4.442506445910572310e-01,1.000000000000000048e-04,4.196985150251187946e+01,5.000000000000000278e-02
1.259574957819215690e+00,-5.719451963474292411e-01,2.518646765257066544e-01,1.000000000000000048e-04,4.056123181833097391e+01,5.000000000000000278e-02
-7.505805309867641384e-02,-1.263058596183098903e+00,9.271851670352577734e-01,1.000000000000000048e-04,4.394434048512886903e+01,5.000000000000000278e-02
-2.499389252780052750e+00,-7.465910238582316172e-01,1.166860387233430441e-01,1.000000000000000048e-04,3.870125877761590516e+01,5.000000000000000278e-02
-2.152987296828045682e+00,-6.590809388437879335e-02,7.290074472562764196e-01,1.000000000000000048e-04,4.331253139366776139e+01,5.000000000000000278e-02
4.411402620619080395e-01,8.812332654287424738e-01,1.247886802488096247e-01,1.000000000000000048e-04,3.873645382153066663e+01,5.000000000000000278e-02
1.597607884470356510e+00,2.441605990856305919e-01,5.523788270488130259e-01,1.000000000000000048e-04,4.246304356035027183e+01,5.000000000000000278e-02
-2.281092968979376856e+00,3.531925695366051610e-01,4.988511179403647411e-01,1.000000000000000048e-04,4.231260409594160876e+01,5.000000000000000278e-02
-1.499414207246732467e+00,-7.281585810985851115e-01,9.373192992105483512e-02,1.000000000000000048e-04,3.820192613040277507e+01,5.000000000000000278e-02
-2.023632063407569071e+00,6.226036920444482092e-01,3.551399436774576035e-01,1.000000000000000048e-04,4.144494905286892816e+01,5.000000000000000278e-02
2.555466876150492617e+00,-4.203999261217274963e-01,7.600604891482574121e-01,1.000000000000000048e-04,4.349575635130342732e+01,5.000000000000000278e-02
-2.563824758143030458e+00,2.351229748535788033e-01,4.664174776076288609e-01,1.000000000000000048e-04,4.209640106791954395e+01,5.000000000000000278e-02
-1.213679047735794603e+00,-1.045302423273176018e+00,4.455052532066714477e-01,1.000000000000000048e-04,4.182225445204012715e+01,5.000000000000000278e-02
-2.745179371940270396e+00,-1.074239693004708229e-01,7.125892420739314836e-01,1.000000000000000048e-04,4.325452131362538921e+01,5.000000000000000278e-02
-6.204648571185211736e-02,1.176509330326321212e+00,1.062077333139765933e-01,1.000000000000000048e-04,3.851205595695640227e+01,5.000000000000000278e-02
2.817354036831516417e-01,-1.260753337960202725e+00,5.693614707477987480e-01,1.000000000000000048e-04,4.261925008889672029e+01,5.000000000000000278e-02
1.437847432377205692e+00,9.047018795620416221e-01,6.790248736074164793e-01,1.000000000000000048e-04,4.312210643272978672e+01,5.000000000000000278e-02
-1.845876814641937314e+00,-4.638001306595123108e-01,2.234382483757753057e-01,1.000000000000000048e-04,4.026431535408249118e+01,5.000000000000000278e-02
1.189747852635947289e+00,1.076256206851056163e-01,6.763354966764953957e-01,1.000000000000000048e-04,4.312435033159299991e+01,5.000000000000000278e-02
3.216120159962225777e-01,9.498661507524741587e-01,1.270373821340435860e-01,1.000000000000000048e-04,3.886047407554876543e+01,5.000000000000000278e-02
2.477430911824697546e+00,-4.406534930118994886e-01,5.114580516796634058e-01,1.000000000000000048e-04,4.233372452881673098e+01,5.000000000000000278e-02
3.002542210676678813e+00,-3.734816984049718069e-01,3.175931165908445486e-01,1.000000000000000048e-04,4.115490596259812861e+01,5.000000000000000278e-02
2.927101939144266751e+00,-5.431406622477832347e-01,1.966335631847038190e-01,1.000000000000000048e-04,3.987365295853062719e+01,5.000000000000000278e-02
-2.805863837023241381e-01,-3.299601507825455915e-01,4.746489760200847119e-01,1.000000000000000048e-04,4.217265897800323415e+01,5.000000000000000278e-02
-1.004162087284393934e+00,-1.197119286021321560e+00,5.650739519710954450e-01,1.000000000000000048e-04,4.253629994737919162e+01,5.000000000000000278e-02
1.849019184968211604e+00,-4.414480552362431975e-01,6.801145261144230236e-01,1.000000000000000048e-04,4.302413947782540049e+01,5.000000000000000278e-02
-1.785801292753216307e+00,-6.380977092486972424e-01,6.571323551911936178e-01,1.000000000000000048e-04,4.296960238144434641e+01,5.000000000000000278e-02
-3.748720121123478854e-01,4.714362040524058273e-01,2.606353941140282515e-01,1.000000000000000048e-04,4.058915050391777868e+01,5.000000000000000278e-02
1.117477709887904069e+00,-1.261583658149176834e+00,2.144310749732449839e-01,1.000000000000000048e-04,4.009562056234159400e+01,5.000000000000000278e-02
2.563780742372161470e+00,2.069669616771865339e-01,1.248890370681021711e-01,1.000000000000000048e-04,3.889612632168544337e+01,5.000000000000000278e-02
1.093670166079961703e+00,8.793504386123829342e-02,2.300948176428183611e-01,1.000000000000000048e-04,4.040088094832679388e+01,5.000000000000000278e-02
-1.583412318154774345e+00,6.051385436188296829e-01,7.209663701749331466e-01,1.000000000000000048e-04,4.333932245564767527e+01,5.000000000000000278e-02
-2.086735923637025536e+00,-3.354532517749451159e-01,7.157990836934671197e-01,1.000000000000000048e-04,4.316152226169189987e+01,5.000000000000000278e-02
1.348905739089667932e+00,5.539562701541567158e-02,1.982697308857290786e-01,1.000000000000000048e-04,3.996657868704836147e+01,5.000000000000000278e-02
-2.559175612414523293e+00,4.227439665238699185e-01,2.885606519116186153e-01,1.000000000000000048e-04,4.080829947124651369e+01,5.000000000000000278e-02
-1.640682105408112434e+00,1.108858807117044432e+00,6.314093135392240264e-02,1.000000000000000048e-04,3.717592534929904957e+01,5.000000000000000278e-02
-1.608983686834325244e+00,-2.942423663339310824e-01,6.796171049546639864e-01,1.000000000000000048e-04,4.311584170263809312e+01,5.000000000000000278e-02
1.649283805518679813e-01,-8.834355903330494142e-01,9.365833102174871971e-01,1.000000000000000048e-04,4.397984528459218012e+01,5.000000000000000278e-02
-2.818582134763107927e+00,6.880447937259432933e-01,3.746529477516893358e-01,1.000000000000000048e-04,4.143722109403493903e+01,5.000000000000000278e-02
-2.691291044023505385e+00,-1.341827477947058700e+00,9.236120789969992639e-01,1.000000000000000048e-04,4.394604098299727468e+01,5.000000000000000278e-02
7.790371932351587425e-01,8.793627365112492988e-01,4.317300043403375920e-01,1.000000000000000048e-04,4.188883007310325013e+01,5.000000000000000278e-02
-4.354992821673859815e-01,-3.528873525441560410e-01,3.924924603937423040e-01,1.000000000000000048e-04,4.169501051284992599e+01,5.000000000000000278e-02
-1.472065171926177252e+00,-1.548615127222998655e-01,5.167658422230616555e-01,1.000000000000000048e-04,4.236437069965041502e+01,5.000000000000000278e-02
-4.204721862394098508e-01,-8.373542273697132110e-02,2.486885963728620030e-01,1.000000000000000048e-04,4.059578453411688059e+01,5.000000000000000278e-02
-2.926529741203554025e+00,5.884225287755850964e-02,4.800783669904027384e-01,1.000000000000000048e-04,4.223050238717461013e+01,5.000000000000000278e-02
4.960398880788887688e-01,-2.868859048208847184e-01,1.322379025849773626e-01,1.000000000000000048e-04,3.899592775327294447e+01,5.000000000000000278e-02
1.255878532733223807e+00,2.199229308763994695e-01,4.808959293046248806e-01,1.000000000000000048e-04,4.219151536029360727e+01,5.000000000000000278e-02
-2.562800455609422379e+00,4.612039424627374373e-01,2.839372269205657773e-01,1.000000000000000048e-04,4.071930157627998170e+01,5.000000000000000278e-02
-1.812267214647177216e+00,3.419190494859505325e-01,3.109333502702669172e-01,1.000000000000000048e-04,4.091893261688395711e+01,5.000000000000000278e-02
2.974341049189681563e+00,4.900721499943143655e-01,9.481136697311005612e-01,1.000000000000000048e-04,4.402952425810729409e+01,5.000000000000000278e-02
3.060154744224271361e+00,-9.486685664521713468e-01,4.416351450047015792e-01,1.000000000000000048e-04,4.190525783924352510e+01,5.000000000000000278e-02
1.879900400710664776e+00,-2.395700468845645137e-01,4.184621760106328470e-01,1.000000000000000048e-04,4.181310939368321300e+01,5.000000000000000278e-02
1.888548371542850823e+00,8.909005685367472616e-01,8.391966589345298821e-01,1.000000000000000048e-04,4.371749782166954645e+01,5.000000000000000278e-02
-7.515514904825377762e-01,-2.408903000131508154e-01,5.277750246405419343e-01,1.000000000000000048e-04,4.236354476099584332e+01,5.000000000000000278e-02
2.625533980703772308e+00,6.330343673359464240e-01,6.469438041017494534e-01,1.000000000000000048e-04,4.289244585233959839e+01,5.000000000000000278e-02
-4.295246801154859462e-01,3.435520621980887590e-01,7.897717971435853634e-01,1.000000000000000048e-04,4.349886240714685215e+01,5.000000000000000278e-02
-2.522892552905702246e-01,-1.806064994816503066e-02,6.181475067733277484e-02,1.000000000000000048e-04,3.712374497279908780e+01,5.000000000000000278e-02
-4.641109557163112243e-01,6.543395298071530419e-02,7.720932300622012079e-01,1.000000000000000048e-04,4.341625181786679377e+01,5.000000000000000278e-02
1.461480762067285610e+00,-3.566778974750459685e-01,9.289508434367756973e-01,1.000000000000000048e-04,4.390478383766799197e+01,5.000000000000000278e-02
1.339903204098639833e+00,1.723340059531119906e-03,4.438805065847553077e-01,1.000000000000000048e-04,4.193164828540589895e+01,5.000000000000000278e-02
-2.071095457242646987e+00,-8.214923816883747953e-01,6.754061047024215725e-01,1.000000000000000048e-04,4.296701189274036636e+01,5.000000000000000278e-02
-2.917878275956614420e+00,-2.382848981359890761e-01,4.541550322561362929e-01,1.000000000000000048e-04,4.201560615500233808e+01,5.000000000000000278e-02
-1.654706056191819208e-01,-7.328580462732769973e-02,6.989417555993111542e-01,1.000000000000000048e-04,4.324885240330396385e+01,5.000000000000000278e-02
1.509687182973094011e-01,6.458825438763726723e-01,1.079155452805442561e-01,1.000000000000000048e-04,3.847662064280088856e+01,5.000000000000000278e-02
2.110351858569050165e+00,5.045368151470421836e-01,3.481456878192521476e-01,1.000000000000000048e-04,4.128994311983970533e+01,5.000000000000000278e-02
-5.208525187773354048e-01,-8.079313534547193365e-01,1.969922102985985912e-01,1.000000000000000048e-04,3.999022740063579562e+01,5.000000000000000278e-02
