-1.598279621179586663e+00,2.779993629999999993e-01,1.415609241229720539e-02,1.000000000000000048e-04,3.323468974919246932e+01,1.700000000000000122e-01
-1.710562538179586589e+00,-1.402302595000000096e+00,1.116656625583578588e-02,1.000000000000000048e-04,3.354309023078028673e+01,2.000000000000000111e-01
-2.771840681795865180e-01,-1.115655276000000029e+00,1.760125882109742079e-02,1.000000000000000048e-04,3.451295568275723724e+01,1.700000000000000122e-01
-1.608432286179586335e+00,-6.514894359999999773e-01,1.965067659956409862e-02,1.000000000000000048e-04,3.439647908343937388e+01,1.600000000000000033e-01
-1.490451089179586575e+00,-3.201959389999999850e-01,2.350382762808211901e-02,1.000000000000000048e-04,3.488688418658272639e+01,1.700000000000000122e-01
-1.995144670179586299e+00,-1.040863893000000040e+00,1.078298765480978361e-02,1.000000000000000048e-04,3.334125418724097045e+01,1.799999999999999933e-01
-2.211919791795864398e-01,-6.717550429999999961e-01,2.450671542098237232e-02,1.000000000000000048e-04,3.566447910128325560e+01,2.200000000000000011e-01
-8.294029241795861651e-01,6.699244909999999553e-01,2.914739784203401740e-02,1.000000000000000048e-04,3.547240895660513615e+01,1.799999999999999933e-01
-1.123871723179585835e+00,1.275958498999999913e+00,3.668809648737036966e-02,1.000000000000000048e-04,3.609796206516032413e+01,1.900000000000000022e-01
-5.094723721795864080e-01,-7.371415260000000469e-01,3.377680818167072552e-02,1.000000000000000048e-04,3.576003258433795651e+01,1.600000000000000033e-01
6.571342580000000266e-01,4.949370419999999937e-01,2.647304015855911352e-02,1.000000000000000048e-04,3.525445867309472447e+01,1.700000000000000122e-01
-1.010588552179585875e+00,4.063959939999999826e-01,2.327139593402183237e-02,1.000000000000000048e-04,3.473866811661270759e+01,1.400000000000000133e-01
-5.300352171795861267e-01,-4.198024320000000031e-01,1.149690786803203579e-02,1.000000000000000048e-04,3.350226154148688806e+01,1.499999999999999944e-01
-3.959305511795863097e-01,-4.514385590000000170e-01,4.722626254234407739e-02,1.000000000000000048e-04,3.655560509727187934e+01,1.600000000000000033e-01
-1.302326638179586382e+00,4.891699640000000127e-01,2.487905028066128565e-02,1.000000000000000048e-04,3.501736473635089908e+01,8.999999999999999667e-02
-8.169037861795862554e-01,4.857709299999999897e-01,2.309322297772697929e-02,1.000000000000000048e-04,3.465668426921548217e+01,1.000000000000000056e-01
-1.156602994179586119e+00,7.039336720000000103e-01,1.929000260137625489e-02,1.000000000000000048e-04,3.433618589568231272e+01,1.100000000000000006e-01
2.500120207999999788e+00,-3.403989430000000094e-01,2.077230493384885079e-02,1.000000000000000048e-04,3.512092331876252160e+01,1.100000000000000006e-01
2.397122115999999803e+00,-8.283729720000000407e-01,3.074466207228931935e-02,1.000000000000000048e-04,3.581969205436298154e+01,1.700000000000000122e-01
-4.391142381795862804e-01,9.199097720000000145e-01,3.611073284880417233e-02,1.000000000000000048e-04,3.592278439764068310e+01,2.200000000000000011e-01
-1.356814123179586495e+00,1.335301293999999972e+00,2.849854697246678725e-02,1.000000000000000048e-04,3.487628671427475524e+01,2.600000000000000089e-01
2.612804049999999823e+00,3.003891830000000041e-01,2.878479335139649820e-02,1.000000000000000048e-04,3.556507561935892170e+01,1.700000000000000122e-01
-1.192441121179586005e+00,1.100105410000000061e+00,2.489332122842435879e-02,1.000000000000000048e-04,3.497090901346343372e+01,1.799999999999999933e-01
-3.012917491179586182e+00,1.485957493999999990e+00,4.897483229327614929e-02,1.000000000000000048e-04,3.650786088685038777e+01,2.200000000000000011e-01
-7.329138461795858817e-01,1.044356909000000000e+00,3.810354744786015324e-02,1.000000000000000048e-04,3.572805742985936917e+01,1.700000000000000122e-01
1.024371087000000013e+00,-9.607604419999999923e-01,2.011323979783363747e-02,1.000000000000000048e-04,3.496701299310256417e+01,1.600000000000000033e-01
2.960998206000000188e+00,-8.548671270000000044e-01,2.064561743343507061e-02,1.000000000000000048e-04,3.472765877531931977e+01,1.900000000000000022e-01
-3.017579355179586198e+00,-3.780387199999999948e-01,3.288920811523055043e-02,1.000000000000000048e-04,3.588600583278721246e+01,2.399999999999999911e-01
-2.268575282179586594e+00,6.921453520000000470e-01,1.317341265708216191e-02,1.000000000000000048e-04,3.314109495434139063e+01,3.699999999999999956e-01
2.478186394000000181e+00,5.281495040000000474e-01,1.201687444946575312e-02,1.000000000000000048e-04,3.381168765141724464e+01,2.399999999999999911e-01
1.941716173999999961e+00,9.578325640000000529e-01,2.720678261733433523e-02,1.000000000000000048e-04,3.499609496962963817e+01,3.800000000000000044e-01
2.041827891000000061e+00,-8.953703119999999460e-01,3.396621371321772997e-02,1.000000000000000048e-04,3.612718392684527657e+01,1.700000000000000122e-01
2.521229080999999983e+00,-8.544186950000000058e-01,2.210675750751289748e-02,1.000000000000000048e-04,3.490162562216779207e+01,2.000000000000000111e-01
2.745955969000000163e+00,3.136627880000000257e-01,1.988971013781282160e-02,1.000000000000000048e-04,3.487834043663586669e+01,2.099999999999999922e-01
1.738295793999999894e+00,1.134430556000000090e+00,2.111503243704371258e-02,1.000000000000000048e-04,3.465788120223569990e+01,1.799999999999999933e-01
-8.687814521795864664e-01,6.221710379999999541e-01,3.189406422089402504e-02,1.000000000000000048e-04,3.560890074999108634e+01,3.499999999999999778e-01
-1.857013858179586308e+00,3.937075449999999921e-01,1.969696040110324731e-02,1.000000000000000048e-04,3.479732103995178960e+01,2.999999999999999889e-01
-2.894431473179586156e+00,2.701405689999999971e-01,3.356532813709600660e-02,1.000000000000000048e-04,3.520088254959442509e+01,2.300000000000000100e-01
2.213600608000000136e+00,-5.295933369999999973e-01,1.488523974218658452e-02,1.000000000000000048e-04,3.422423276845005091e+01,2.500000000000000000e-01
9.327636729999999599e-01,4.069681829999999834e-01,1.493620751430424498e-02,1.000000000000000048e-04,3.426909105031811009e+01,2.300000000000000100e-01
1.743234563999999986e+00,7.359057650000000450e-01,1.661694103648825305e-02,1.000000000000000048e-04,3.447948311279414924e+01,2.200000000000000011e-01
-2.812965047179586175e+00,5.929882829999999494e-01,1.827094817494590018e-02,1.000000000000000048e-04,3.437111340163721707e+01,2.399999999999999911e-01
-2.977583888179586413e+00,-1.437144969999999966e-01,1.729528009444503134e-02,1.000000000000000048e-04,3.441788761657871021e+01,2.700000000000000178e-01
2.276564226000000080e+00,-5.051809499999999620e-01,7.836323497282249306e-03,1.000000000000000048e-04,3.299150365271290042e+01,2.800000000000000266e-01
2.667465888000000174e+00,-6.260506340000000502e-01,6.415207666950806242e-03,1.000000000000000048e-04,3.316845313485395508e+01,2.600000000000000089e-01
1.041358068000000081e+00,8.506585119999999778e-01,3.287509904738916688e-02,1.000000000000000048e-04,3.576440400689431698e+01,2.300000000000000100e-01
2.499030525999999863e+00,-9.629979760000000333e-01,2.521447663700682185e-02,1.000000000000000048e-04,3.495169507895368355e+01,3.099999999999999978e-01
1.334501084000000004e+00,-7.340646360000000481e-01,1.194146379537075475e-02,1.000000000000000048e-04,3.411066136474851618e+01,2.300000000000000100e-01
2.196979751999999841e+00,-5.334639439999999677e-01,1.945947896080291173e-02,1.000000000000000048e-04,3.531523516840574217e+01,2.500000000000000000e-01
1.445572062999999963e+00,-8.838676049999999451e-01,1.074649447008901859e-02,1.000000000000000048e-04,3.400072178848672877e+01,3.499999999999999778e-01
7.246286520000000397e-01,-7.843460709999999780e-01,3.104145137040981162e-02,1.000000000000000048e-04,3.571027939510309324e+01,3.099999999999999978e-01
2.179180484000000195e+00,1.312341798999999920e+00,2.356591616348024942e-02,1.000000000000000048e-04,3.469533493041902261e+01,2.200000000000000011e-01
7.669035910000000511e-01,2.329377750000000136e-01,2.203943975067756966e-02,1.000000000000000048e-04,3.486051527368569225e+01,2.500000000000000000e-01
2.984436029999999906e+00,4.410184999999999800e-01,3.132635235726577427e-02,1.000000000000000048e-04,3.544659684365433350e+01,2.999999999999999889e-01
1.808380389999999949e+00,-5.931087419999999666e-01,5.222839441115123549e-03,1.000000000000000048e-04,3.299176450292646479e+01,2.200000000000000011e-01
2.378694356000000010e+00,6.891218140000000547e-01,3.389264744302034060e-02,1.000000000000000048e-04,3.582393131111868456e+01,3.099999999999999978e-01
-1.027171309179585990e+00,8.938185499999999895e-01,1.778868273519718102e-02,1.000000000000000048e-04,3.425715978368859282e+01,3.099999999999999978e-01
2.177629786999999872e+00,1.088514723000000073e+00,2.252426183043221286e-02,1.000000000000000048e-04,3.518194862674293688e+01,2.500000000000000000e-01
2.446904437000000154e+00,4.505237189999999892e-01,3.321151041108216795e-02,1.000000000000000048e-04,3.561964212340745206e+01,2.700000000000000178e-01
-2.745075452179586151e+00,5.290477460000000409e-01,4.824145490920539459e-02,1.000000000000000048e-04,3.632636304585478371e+01,1.600000000000000033e-01
3.470126559999999749e-01,6.971221490000000243e-01,1.228960334018780465e-02,1.000000000000000048e-04,3.374691899872965450e+01,2.399999999999999911e-01
-1.741234469179586242e+00,8.281857209999999858e-01,1.802527614445792459e-02,1.000000000000000048e-04,3.431664340044873995e+01,1.000000000000000056e-01
6.278667869999999818e-01,1.201237362999999947e+00,3.447065478873390099e-02,1.000000000000000048e-04,3.563571771058901305e+01,1.799999999999999933e-01
1.901542252999999905e+00,5.984822429999999693e-01,3.020186910777056255e-02,1.000000000000000048e-04,3.582069210248535285e+01,1.700000000000000122e-01
9.102462569999999475e-01,3.833152009999999943e-01,3.363477990162322406e-02,1.000000000000000048e-04,3.589277188940100416e+01,2.200000000000000011e-01
4.621894529999999723e-01,4.355896570000000190e-01,2.604433453153220945e-02,1.000000000000000048e-04,3.519664155051313514e+01,2.399999999999999911e-01
1.731299603999999936e+00,-9.087058740000000245e-01,1.053863099530527592e-02,1.000000000000000048e-04,3.391010278981237036e+01,2.200000000000000011e-01
2.307708166999999921e+00,-3.555306579999999994e-01,7.912092803977976985e-03,1.000000000000000048e-04,3.314620029647567634e+01,1.700000000000000122e-01
2.284880370000000216e+00,-4.942566800000000038e-01,3.026809025832766231e-02,1.000000000000000048e-04,3.575314022268194947e+01,2.200000000000000011e-01
-2.729734007179586364e+00,-4.808223520000000084e-01,1.653582128616459812e-02,1.000000000000000048e-04,3.409348947691810849e+01,2.300000000000000100e-01
-2.728058296179586062e+00,8.181749999999999856e-01,3.006781279917114524e-02,1.000000000000000048e-04,3.583950745009117611e+01,2.200000000000000011e-01
1.539636916000000078e+00,-6.652033799999999830e-02,1.678995398360427771e-02,1.000000000000000048e-04,3.466198306922118633e+01,2.999999999999999889e-01
2.937620158000000092e+00,7.383732379999999873e-01,1.957503930440540607e-02,1.000000000000000048e-04,3.472045448394174372e+01,2.200000000000000011e-01
2.624384770999999894e+00,8.339422930000000012e-01,3.084194511173476982e-02,1.000000000000000048e-04,3.547816084951558224e+01,1.799999999999999933e-01
-2.594453966179586235e+00,1.052220571999999965e+00,1.862102313333324766e-02,1.000000000000000048e-04,3.448954421847948737e+01,1.900000000000000022e-01
-2.462277587179586114e+00,1.356652656000000068e+00,1.773905710712386785e-02,1.000000000000000048e-04,3.402767030627473588e+01,2.099999999999999922e-01
2.730654787000000194e+00,8.741146779999999783e-01,1.660060506121463497e-02,1.000000000000000048e-04,3.397186430846797123e+01,1.900000000000000022e-01
1.629450376000000089e+00,2.068732899999999875e-01,7.026677959393490269e-03,1.000000000000000048e-04,3.320036655969362727e+01,2.899999999999999800e-01
1.142160569999999958e-01,6.858846720000000285e-01,1.791356544488387215e-02,1.000000000000000048e-04,3.407880716038302893e+01,1.799999999999999933e-01
-4.383495451795864639e-01,9.198101690000000108e-01,3.193754158113892849e-02,1.000000000000000048e-04,3.535551226672541958e+01,2.600000000000000089e-01
1.001193188000000012e+00,8.013430529999999719e-01,2.297109508028416514e-02,1.000000000000000048e-04,3.473477869994712108e+01,1.799999999999999933e-01
-8.746654461795859703e-01,7.515327899999999506e-01,2.151173663752570242e-02,1.000000000000000048e-04,3.485799333782063059e+01,2.600000000000000089e-01
1.319662558000000097e+00,1.070340469999999933e-01,3.154891006398452546e-02,1.000000000000000048e-04,3.587408043642233935e+01,2.399999999999999911e-01
1.726021762000000015e+00,-6.377623550000000030e-01,2.076688512421775989e-02,1.000000000000000048e-04,3.525116094487084695e+01,2.600000000000000089e-01
-2.754219137179586330e+00,-9.277945709999999568e-01,2.797478681016873914e-02,1.000000000000000048e-04,3.575767798687450494e+01,3.699999999999999956e-01
1.691977534999999921e+00,1.434503057999999998e+00,2.536306705188140498e-02,1.000000000000000048e-04,3.513637567604235556e+01,2.099999999999999922e-01
8.272144390000000236e-01,-4.428667319999999852e-01,1.770718043828667376e-02,1.000000000000000048e-04,3.440615867995553145e+01,2.300000000000000100e-01
-2.185785446179585811e+00,4.040310730000000183e-01,2.278829327413212091e-02,1.000000000000000048e-04,3.488727424459917614e+01,1.799999999999999933e-01
2.680919170000000129e+00,5.929394510000000063e-01,8.656852748047283441e-03,1.000000000000000048e-04,3.278876425819849061e+01,1.799999999999999933e-01
2.468528393999999793e+00,-3.885411739999999892e-01,4.125491379083379151e-02,1.000000000000000048e-04,3.637352555791977693e+01,1.700000000000000122e-01
1.824819092000000031e+00,-9.187566499999999525e-01,7.218628402604121419e-03,1.000000000000000048e-04,3.321381690583041291e+01,2.099999999999999922e-01
2.252174823999999909e+00,-3.842870769999999769e-01,1.503465231242695488e-02,1.000000000000000048e-04,3.439078798760624522e+01,2.000000000000000111e-01
2.889947965000000174e+00,3.184077100000000105e-01,1.284698234512049453e-02,1.000000000000000048e-04,3.396464313628676734e+01,2.000000000000000111e-01
-2.666621499179586241e+00,1.790417820000000104e-01,1.577776738627090225e-02,1.000000000000000048e-04,3.385516307729322705e+01,1.900000000000000022e-01
2.353249148999999818e+00,9.653535600000000549e-01,2.232693464655088889e-02,1.000000000000000048e-04,3.510993145737894139e+01,1.799999999999999933e-01
1.765869402999999949e+00,9.288119630000000182e-01,3.807937312650411243e-02,1.000000000000000048e-04,3.581759970634849566e+01,3.599999999999999867e-01
1.931340567999999980e+00,-5.991437729999999906e-01,4.214489884302707878e-02,1.000000000000000048e-04,3.664855321422759005e+01,2.000000000000000111e-01
2.835991935000000019e+00,-7.109363199999999550e-01,4.104518182731387022e-02,1.000000000000000048e-04,3.658741005502198362e+01,1.900000000000000022e-01
-2.852520529179586095e+00,8.667541789999999580e-01,2.938867641230458183e-02,1.000000000000000048e-04,3.558233698134115741e+01,1.799999999999999933e-01
-2.458251249179586040e+00,-2.796002539999999925e-01,2.109014657051577757e-02,1.000000000000000048e-04,3.479136584250382924e+01,3.300000000000000155e-01
1.596378985000000084e+00,5.944120290000000084e-01,1.186306609457132843e-02,1.000000000000000048e-04,3.402914612273739436e+01,1.900000000000000022e-01
-2.484014184179586415e+00,8.016642189999999557e-01,2.700325059727259891e-02,1.000000000000000048e-04,3.499992390895100414e+01,1.900000000000000022e-01
-2.431723812179586108e+00,1.223750555999999934e+00,2.739652672208769957e-02,1.000000000000000048e-04,3.516117182835652955e+01,1.700000000000000122e-01
-2.378598255179586118e+00,1.197731727999999940e+00,3.434300382708999066e-02,1.000000000000000048e-04,3.608493314031468913e+01,1.900000000000000022e-01
1.739429998000000088e+00,2.494783479999999887e-01,2.605946693776051148e-02,1.000000000000000048e-04,3.549120943432229325e+01,3.099999999999999978e-01
-2.377494960179586059e+00,9.562939099999999693e-01,2.198730922256530995e-02,1.000000000000000048e-04,3.482300617664076015e+01,1.799999999999999933e-01
-9.021677017958662503e-02,6.959221140000000361e-01,1.355895660778694278e-02,1.000000000000000048e-04,3.367142603537292445e+01,3.499999999999999778e-01
2.021336933000000169e+00,8.510789659999999923e-01,3.011151576739079516e-02,1.000000000000000048e-04,3.567323870620016635e+01,2.800000000000000266e-01
2.573899695999999793e+00,-5.247218830000000001e-01,9.654074583588911906e-03,1.000000000000000048e-04,3.381198348466941894e+01,1.700000000000000122e-01
2.346925623000000183e+00,-7.496726200000000118e-01,1.525112522297900064e-02,1.000000000000000048e-04,3.444687527954282302e+01,1.700000000000000122e-01
2.543651012999999850e+00,-2.555195920000000176e-01,2.303872107494675525e-02,1.000000000000000048e-04,3.537087908866044472e+01,1.900000000000000022e-01
2.457771880000000131e+00,-4.383329890000000062e-01,1.495967260543529243e-02,1.000000000000000048e-04,3.421788857093395819e+01,1.700000000000000122e-01
-2.749033603179586116e+00,5.277091179999999770e-01,1.170167964210677702e-02,1.000000000000000048e-04,3.313177337495854857e+01,1.799999999999999933e-01
-3.021446786179586397e+00,6.716344440000000526e-01,2.065437837432226864e-02,1.000000000000000048e-04,3.476009310900394667e+01,1.799999999999999933e-01
2.390319493999999878e+00,1.427533710000000067e+00,3.364062007955359590e-02,1.000000000000000048e-04,3.550847064748251114e+01,1.799999999999999933e-01
2.491619029000000207e+00,8.136863199999999630e-01,4.125590132643930374e-02,1.000000000000000048e-04,3.619417331247895220e+01,1.900000000000000022e-01
2.336721559999999975e+00,1.049041915000000103e+00,4.603535115272805456e-02,1.000000000000000048e-04,3.645889474550031650e+01,1.700000000000000122e-01
1.201678150000000000e+00,3.331923239999999842e-01,7.068870319919540179e-03,1.000000000000000048e-04,3.302235310615957786e+01,1.900000000000000022e-01
-3.811893421795859993e-01,1.284308205000000092e+00,3.487032142756163466e-02,1.000000000000000048e-04,3.611512573412113625e+01,2.000000000000000111e-01
5.879284790000000038e-01,8.245620540000000442e-01,3.699084427677878928e-02,1.000000000000000048e-04,3.601570723915927630e+01,1.700000000000000122e-01
-1.085925731795862603e-01,9.806715139999999664e-01,3.539258300839609461e-02,1.000000000000000048e-04,3.561560408346510087e+01,1.799999999999999933e-01
1.189812670000000017e+00,8.219376269999999485e-01,3.289957152575717636e-02,1.000000000000000048e-04,3.571067691903024865e+01,1.700000000000000122e-01
2.896526737999999934e+00,1.048685354999999930e+00,2.855674437020638834e-02,1.000000000000000048e-04,3.524137696487830596e+01,1.700000000000000122e-01
8.784667550000000436e-01,-5.840451829999999678e-01,1.405488094364404361e-02,1.000000000000000048e-04,3.447979937583222210e+01,2.099999999999999922e-01
-2.025603206179586557e+00,1.419180792999999996e+00,2.201712740556294179e-02,1.000000000000000048e-04,3.493304716175317282e+01,1.799999999999999933e-01
1.097118803000000087e+00,1.428367445999999985e+00,4.568771724544751223e-02,1.000000000000000048e-04,3.668820145221050666e+01,1.799999999999999933e-01
-1.923054671795858539e-01,8.268694330000000425e-01,2.163598364623742221e-02,1.000000000000000048e-04,3.489121683207513769e+01,2.000000000000000111e-01
1.974446608000000047e+00,-1.250497374000000050e+00,8.492060184701388792e-03,1.000000000000000048e-04,3.365818973929764724e+01,2.000000000000000111e-01
1.714471547999999901e+00,-4.841846819999999774e-01,6.846230558354537976e-03,1.000000000000000048e-04,3.308856081924024295e+01,1.700000000000000122e-01
1.635209042000000057e+00,-1.499680316999999929e+00,1.800656634751485186e-02,1.000000000000000048e-04,3.490958648776786077e+01,1.900000000000000022e-01
-3.085878636179586021e+00,-8.156760069999999807e-01,2.952865663909842731e-02,1.000000000000000048e-04,3.565038228835801704e+01,1.799999999999999933e-01
1.583648911999999909e+00,-4.051170720000000225e-01,1.055013130597437510e-02,1.000000000000000048e-04,3.381671097162336537e+01,1.700000000000000122e-01
3.116144028999999982e+00,-6.233618589999999626e-01,2.508770072949584318e-02,1.000000000000000048e-04,3.531631934953923491e+01,2.000000000000000111e-01
2.580853791000000008e+00,2.126606490000000071e-01,2.641000646727631462e-02,1.000000000000000048e-04,3.586254319105854194e+01,2.200000000000000011e-01
2.791070910999999821e+00,-3.375241600000000036e-02,1.128996230428658265e-02,1.000000000000000048e-04,3.319099493748003482e+01,2.999999999999999889e-01
2.126664376999999995e+00,-4.630033630000000011e-01,2.583407508735491298e-02,1.000000000000000048e-04,3.539806907722056195e+01,1.799999999999999933e-01
1.264160699999999915e+00,6.289837299999999631e-01,2.073809522172442854e-02,1.000000000000000048e-04,3.475925848084990832e+01,1.900000000000000022e-01
2.608192676999999904e+00,3.485897410000000085e-01,1.520619113366228348e-02,1.000000000000000048e-04,3.423404615200424672e+01,2.200000000000000011e-01
2.816578843999999915e+00,-6.539336449999999523e-01,2.342989515468540951e-02,1.000000000000000048e-04,3.534511642038120982e+01,1.799999999999999933e-01
2.816545334000000178e+00,5.529564630000000092e-01,9.487176238919037274e-03,1.000000000000000048e-04,3.335489233498557837e+01,1.700000000000000122e-01
2.293480610000000031e+00,1.430186356999999964e+00,1.663572874115204492e-02,1.000000000000000048e-04,3.407833103758540716e+01,1.700000000000000122e-01
1.900048696999999898e+00,-6.695785770000000081e-01,1.049146106846010618e-02,1.000000000000000048e-04,3.357740250056649245e+01,1.900000000000000022e-01
2.402973735999999860e+00,-4.293495210000000117e-01,1.816586308786694026e-02,1.000000000000000048e-04,3.503069341383307744e+01,2.200000000000000011e-01
3.123677135999999965e+00,5.597831170000000522e-01,2.009049736153900589e-02,1.000000000000000048e-04,3.472282970098565613e+01,1.700000000000000122e-01
-2.603733431795864917e-01,9.574212720000000454e-01,1.162782886418489703e-02,1.000000000000000048e-04,3.283927817986722175e+01,3.800000000000000044e-01
-1.216980031795857897e-01,3.678993019999999836e-01,1.944346190218881887e-02,1.000000000000000048e-04,3.461929985557665646e+01,1.900000000000000022e-01
2.921580513999999962e+00,4.108407450000000072e-01,1.079443072985153407e-02,1.000000000000000048e-04,3.341840880790851998e+01,1.900000000000000022e-01
-2.362072097179586105e+00,1.187667234999999932e+00,4.380176882398956195e-02,1.000000000000000048e-04,3.651797448662793499e+01,1.900000000000000022e-01
-2.337569846179586186e+00,3.756736769999999837e-01,2.879560154443017161e-02,1.000000000000000048e-04,3.519124230142808329e+01,1.700000000000000122e-01
-1.563533060179586265e+00,8.298117619999999528e-01,1.910136612212576246e-02,1.000000000000000048e-04,3.371411545158090206e+01,3.300000000000000155e-01
-7.514201781795861734e-01,8.148208550000000105e-01,4.414815391897519703e-02,1.000000000000000048e-04,3.621795089554871083e+01,2.099999999999999922e-01
-2.172991007179586376e+00,1.278564443000000050e+00,3.435936820033624883e-02,1.000000000000000048e-04,3.558600859837184061e+01,2.000000000000000111e-01
1.004972830999999900e+00,3.284388160000000223e-01,1.633577141436881597e-02,1.000000000000000048e-04,3.453656824803623948e+01,1.799999999999999933e-01
-1.050913719179586536e+00,7.925907810000000220e-01,1.840460619615047477e-02,1.000000000000000048e-04,3.446138446767643870e+01,2.899999999999999800e-01
1.174967896000000067e+00,-7.032179160000000540e-01,2.291098234921884469e-02,1.000000000000000048e-04,3.528971926911730606e+01,1.799999999999999933e-01
2.063754460999999818e+00,1.158898511999999936e+00,1.132381974374507827e-02,1.000000000000000048e-04,3.340677731100184644e+01,1.799999999999999933e-01
1.355273345999999934e+00,1.034050206000000083e+00,3.125480587201567850e-02,1.000000000000000048e-04,3.580160547671544435e+01,1.700000000000000122e-01
1.878516419999999965e+00,-5.891517790000000421e-01,1.678032017044239765e-02,1.000000000000000048e-04,3.443871648298378574e+01,1.799999999999999933e-01
3.042909537999999969e+00,4.914006550000000195e-01,2.266511961538464348e-02,1.000000000000000048e-04,3.538620204144237391e+01,1.700000000000000122e-01
-2.192876876179585821e+00,7.571444160000000423e-01,3.590229086412954906e-02,1.000000000000000048e-04,3.575531935863573807e+01,2.099999999999999922e-01
-1.274335216179586006e+00,7.393028099999999769e-01,2.394399568891381058e-02,1.000000000000000048e-04,3.483476250069016800e+01,3.599999999999999867e-01
3.513372269999999742e-01,1.023017258000000096e+00,1.502961539614067199e-02,1.000000000000000048e-04,3.396152655118213204e+01,1.799999999999999933e-01
-2.045215730179585911e+00,1.346705497999999945e+00,1.886504815301393023e-02,1.000000000000000048e-04,3.417624557643858196e+01,1.799999999999999933e-01
2.622131355000000053e+00,-2.378520580000000051e-01,2.724284129482690275e-02,1.000000000000000048e-04,3.523651185556245480e+01,2.099999999999999922e-01
1.499565373000000035e+00,-5.833961840000000398e-01,1.321180250268061407e-02,1.000000000000000048e-04,3.412223914788412316e+01,1.199999999999999956e-01
9.453780529999999960e-01,-3.014802610000000271e-01,2.803270506671240447e-02,1.000000000000000048e-04,3.586361790931024274e+01,1.799999999999999933e-01
1.003030738000000088e+00,-6.679498139999999751e-01,1.843669950117998724e-02,1.000000000000000048e-04,3.441481211006255592e+01,1.799999999999999933e-01
-2.858957567179586157e+00,-2.878047879999999781e-01,2.703089062289976141e-02,1.000000000000000048e-04,3.551255909809712108e+01,1.300000000000000044e-01
-2.653655062179586022e+00,5.464710109999999510e-01,3.412844146750559915e-02,1.000000000000000048e-04,3.578045759493785738e+01,1.300000000000000044e-01
-1.077960778179586576e+00,1.305029642999999906e+00,2.833515082508974992e-02,1.000000000000000048e-04,3.541993874706381717e+01,1.100000000000000006e-01
2.996279555000000094e+00,-9.792432829999999644e-01,1.098984589708340565e-02,1.000000000000000048e-04,3.399798006411736395e+01,1.600000000000000033e-01
-7.405109531795863731e-01,5.344760480000000369e-01,2.063349490921084772e-02,1.000000000000000048e-04,3.434997168311076621e+01,1.900000000000000022e-01
-1.986221938179586033e+00,3.858849830000000147e-01,2.987652463801970804e-02,1.000000000000000048e-04,3.513823723017152645e+01,2.600000000000000089e-01
-1.660796187179585992e+00,1.337702168000000080e+00,1.446134665979470491e-02,1.000000000000000048e-04,3.354144552196377305e+01,1.300000000000000044e-01
-1.008319883179586540e+00,9.035811799999999838e-01,1.249039852449196353e-02,1.000000000000000048e-04,3.310555410422503542e+01,1.799999999999999933e-01
-2.859227719179586291e+00,-3.383984709999999785e-01,1.892246517915818771e-02,1.000000000000000048e-04,3.461636463884237003e+01,1.799999999999999933e-01
-3.008470453179586279e+00,-9.028608339999999455e-01,1.762372653289245861e-02,1.000000000000000048e-04,3.459149854342999220e+01,1.300000000000000044e-01
2.720373041999999852e+00,-1.026937239000000002e+00,1.059483568148422705e-02,1.000000000000000048e-04,3.378772559797837971e+01,1.100000000000000006e-01
1.131806215999999976e+00,-1.312634394000000038e+00,7.412777329658615244e-03,1.000000000000000048e-04,3.318990012345434337e+01,1.199999999999999956e-01
1.262497049000000038e+00,-7.576738640000000302e-01,2.730535443546133756e-02,1.000000000000000048e-04,3.541000962964844234e+01,1.900000000000000022e-01
-2.150308364179585929e+00,9.473204419999999848e-01,2.644209336931835352e-02,1.000000000000000048e-04,3.535534095822613665e+01,1.499999999999999944e-01
-2.672281993179586035e+00,8.065802300000000091e-01,1.286799808772065568e-02,1.000000000000000048e-04,3.318304004530259022e+01,1.400000000000000133e-01
-2.768228307179586345e+00,1.501965110000000048e-01,1.413286001654001645e-02,1.000000000000000048e-04,3.393893238059338557e+01,1.300000000000000044e-01
2.456608391000000058e+00,-6.815239560000000418e-01,2.341096580173651631e-02,1.000000000000000048e-04,3.532642103073659712e+01,2.899999999999999800e-01
-1.538735822179586599e+00,7.895792169999999999e-01,2.106457613556900199e-02,1.000000000000000048e-04,3.445356988915446550e+01,1.600000000000000033e-01
-6.811844061795859773e-01,-7.989239399999999991e-01,2.082697313985026888e-02,1.000000000000000048e-04,3.471239801362779076e+01,2.300000000000000100e-01
-9.881069141795864041e-01,9.266642769999999807e-01,2.252766178694454169e-02,1.000000000000000048e-04,3.476573706925193363e+01,2.500000000000000000e-01
9.533575850000000074e-01,-5.868324440000000086e-01,1.165430929556787731e-02,1.000000000000000048e-04,3.406792991021671924e+01,1.199999999999999956e-01
-1.550854682179585886e+00,1.341867675000000037e+00,1.155812873518469175e-02,1.000000000000000048e-04,3.307640047228264990e+01,3.599999999999999867e-01
1.284766933000000000e+00,-9.049604909999999780e-01,2.118881181900555966e-02,1.000000000000000048e-04,3.528358812009900447e+01,1.300000000000000044e-01
