-1.598279621179586663e+00,2.779993629999999993e-01,2.500395611509711458e-01,1.000000000000000048e-04,4.060620105817981340e+01,1.700000000000000122e-01
-8.306753881795865269e-01,5.048130450000000158e-01,5.438651447840994191e-01,1.000000000000000048e-04,4.230463951003564915e+01,1.600000000000000033e-01
-1.512887194179586281e+00,3.571169940000000209e-01,6.243158050897885669e-01,1.000000000000000048e-04,4.264485289580846938e+01,1.600000000000000033e-01
-2.094054222179586588e+00,-9.657747650000000350e-01,1.808941424679826326e-01,1.000000000000000048e-04,3.968376145038240566e+01,1.600000000000000033e-01
-1.256550916179586252e+00,-1.037146153999999987e+00,8.908674361894897142e-01,1.000000000000000048e-04,4.371804376011890270e+01,1.900000000000000022e-01
-2.638489419179586015e+00,-8.917870300000000361e-01,2.093359686092401972e-01,1.000000000000000048e-04,4.042851457112941205e+01,1.600000000000000033e-01
3.095686500000000008e-02,-1.139960520999999893e+00,1.600304695467789085e-01,1.000000000000000048e-04,3.917899190955765931e+01,1.700000000000000122e-01
-4.765590681795863759e-01,-7.328014390000000544e-01,1.565429180555777400e-01,1.000000000000000048e-04,3.936477731163147098e+01,1.600000000000000033e-01
7.532392530000000530e-01,9.936355940000000109e-01,1.124548095945983928e+00,1.000000000000000048e-04,4.480120706142135845e+01,1.600000000000000033e-01
1.355624495999999901e+00,4.654212710000000253e-01,6.035086785591929903e-01,1.000000000000000048e-04,4.284930272721736344e+01,2.200000000000000011e-01
-2.027672372179586624e+00,-3.494576850000000179e-01,8.528342541103541841e-01,1.000000000000000048e-04,4.365840537050421233e+01,8.999999999999999667e-02
-2.243457714179585949e+00,5.735296930000000071e-01,3.768926756278303536e-01,1.000000000000000048e-04,4.147826600545045750e+01,8.000000000000000167e-02
-1.661352162179586145e+00,7.473004210000000480e-01,1.206112986705386803e+00,1.000000000000000048e-04,4.477856971877039172e+01,1.100000000000000006e-01
-1.046494641179585905e+00,9.839422859999999993e-01,1.572680458065844888e-01,1.000000000000000048e-04,3.945037859464674312e+01,1.600000000000000033e-01
-1.357076630179586019e+00,8.591991679999999576e-01,2.230350655440260788e-01,1.000000000000000048e-04,4.021229352135135571e+01,1.300000000000000044e-01
-1.489161381179585852e+00,8.733460579999999807e-01,1.796693586228423900e-01,1.000000000000000048e-04,3.983486543866349194e+01,8.999999999999999667e-02
2.602874990000000111e+00,9.865781270000000269e-01,6.108597396484667374e-01,1.000000000000000048e-04,4.278953044370157244e+01,2.099999999999999922e-01
2.011122450999999867e+00,-1.257182417000000108e+00,6.302086163019009479e-01,1.000000000000000048e-04,4.293637479314855909e+01,1.799999999999999933e-01
2.487812089999999809e+00,-1.095252646999999913e+00,5.072540959241915726e-01,1.000000000000000048e-04,4.226593651092566972e+01,1.600000000000000033e-01
-2.060955814179585843e+00,9.020563839999999889e-01,3.703569906701598136e-01,1.000000000000000048e-04,4.137094687082561961e+01,1.799999999999999933e-01
-1.552222439179586466e+00,1.270289940999999923e+00,7.522235030956696544e-01,1.000000000000000048e-04,4.331592510485754133e+01,1.600000000000000033e-01
-3.584264691795864266e-01,1.112498557000000110e+00,2.273187616810381506e-01,1.000000000000000048e-04,3.977227061014134080e+01,2.000000000000000111e-01
1.187793541000000008e+00,1.533334508000000040e+00,2.788027271681456920e-01,1.000000000000000048e-04,4.060542886178951250e+01,1.700000000000000122e-01
9.029304540000000490e-01,-5.888661819999999603e-01,1.568767776949882009e-01,1.000000000000000048e-04,3.957463447823426606e+01,1.700000000000000122e-01
2.675488564000000125e+00,-1.029758079000000048e+00,7.887107801826245268e-01,1.000000000000000048e-04,4.357918663850821162e+01,1.700000000000000122e-01
9.979371630000000160e-01,-7.076351440000000492e-01,1.777582325135642627e-01,1.000000000000000048e-04,3.976093087999726094e+01,2.000000000000000111e-01
-2.809922836179586270e+00,-1.219770695000000016e+00,1.718197081837231632e-01,1.000000000000000048e-04,3.958696977524066085e+01,1.900000000000000022e-01
1.945616433999999950e+00,5.533621010000000506e-01,4.447662205772640043e-01,1.000000000000000048e-04,4.197146358985363435e+01,1.700000000000000122e-01
1.369802210000000131e-01,9.686457469999999459e-01,3.680564655761124904e-01,1.000000000000000048e-04,4.154970567447610108e+01,1.000000000000000056e-01
2.377785852000000144e+00,-1.071983155000000076e+00,3.244136347200525794e-01,1.000000000000000048e-04,4.111476992651031992e+01,1.000000000000000056e-01
1.194530383000000029e+00,-8.514353350000000153e-01,2.232638198344876201e-01,1.000000000000000048e-04,4.035749715761916434e+01,1.100000000000000006e-01
2.328991532999999947e+00,-1.085498080000000032e+00,4.751005809308204153e-01,1.000000000000000048e-04,4.211078236930526231e+01,1.199999999999999956e-01
3.099662444999999877e+00,-8.173274409999999879e-01,8.437705201206504579e-01,1.000000000000000048e-04,4.382149088141602533e+01,1.300000000000000044e-01
1.008677688999999988e+00,-7.224949280000000362e-01,1.835007454569574925e-01,1.000000000000000048e-04,3.979837719487669290e+01,1.199999999999999956e-01
1.116317643999999998e+00,-8.188746820000000204e-01,1.970733279906031754e-01,1.000000000000000048e-04,3.986996867739482298e+01,1.499999999999999944e-01
1.368634144999999913e+00,-9.746537960000000167e-01,1.927535611514450409e-01,1.000000000000000048e-04,3.988066512923635543e+01,2.200000000000000011e-01
2.840707745000000006e+00,-9.874777999999999611e-01,1.249282732713359323e-01,1.000000000000000048e-04,3.885303057822920181e+01,1.199999999999999956e-01
1.164831654000000105e+00,-8.361433499999999519e-01,4.853233664385330215e-01,1.000000000000000048e-04,4.197123726168788238e+01,1.600000000000000033e-01
9.274529849999999520e-01,-5.648102149999999488e-01,3.944409867764933075e-01,1.000000000000000048e-04,4.187229821059766977e+01,2.200000000000000011e-01
1.803806121999999901e+00,-1.051757271000000049e+00,2.528201539527650255e-01,1.000000000000000048e-04,4.064125906611268135e+01,2.200000000000000011e-01
1.910407339000000038e+00,-1.096340147000000043e+00,3.691626200047013473e-01,1.000000000000000048e-04,4.149361618737933810e+01,1.300000000000000044e-01
-2.994395329179586174e+00,-6.874333790000000111e-01,2.936566049295805669e-01,1.000000000000000048e-04,4.084969359656601995e+01,1.600000000000000033e-01
2.004169926999999962e+00,-1.114377941999999955e+00,3.769795352510108000e-01,1.000000000000000048e-04,4.178827704331258275e+01,2.099999999999999922e-01
2.993884073999999895e+00,-9.067153500000000310e-01,8.252947779310271237e-01,1.000000000000000048e-04,4.365496435709106038e+01,2.000000000000000111e-01
2.896584697999999847e+00,-6.981149509999999836e-01,7.891329791323358211e-01,1.000000000000000048e-04,4.351861563868749272e+01,2.000000000000000111e-01
2.644964143999999795e+00,-1.038456438999999953e+00,2.550290495256977152e-01,1.000000000000000048e-04,4.096540275257362396e+01,2.500000000000000000e-01
1.395029569000000080e+00,-9.673563530000000021e-01,1.006264366812747557e+00,1.000000000000000048e-04,4.395412881258032201e+01,2.200000000000000011e-01
1.133893306999999906e+00,-8.234022290000000410e-01,4.807437586311082978e-01,1.000000000000000048e-04,4.240823250998661820e+01,1.199999999999999956e-01
9.542908199999999841e-01,-6.210129070000000029e-01,1.668877140634827949e-01,1.000000000000000048e-04,3.960914468196467908e+01,1.400000000000000133e-01
1.112357503999999997e+00,-7.717409769999999947e-01,1.711716041432262969e-01,1.000000000000000048e-04,3.967787027915040454e+01,1.400000000000000133e-01
1.392129267000000059e+00,-9.489503049999999940e-01,1.187343501228175224e-01,1.000000000000000048e-04,3.848700371990098290e+01,1.100000000000000006e-01
3.104633763999999907e+00,-8.563587980000000321e-01,2.207311789520349787e-01,1.000000000000000048e-04,4.033897860897455701e+01,1.199999999999999956e-01
-1.581672989179586430e+00,-6.726275419999999672e-01,1.404086665082480145e-01,1.000000000000000048e-04,3.924754456245428003e+01,2.000000000000000111e-01
8.758714749999999549e-01,-5.394949780000000139e-01,1.633553081250145311e-01,1.000000000000000048e-04,3.968429095636027171e+01,1.199999999999999956e-01
1.027821937999999991e+00,-6.897361509999999640e-01,8.580693826578262851e-01,1.000000000000000048e-04,4.377988340404454704e+01,1.499999999999999944e-01
8.011105990000000343e-01,-4.568120419999999737e-01,2.610702775183073587e-01,1.000000000000000048e-04,4.062223361816580791e+01,1.499999999999999944e-01
8.044453879999999835e-01,-4.591503659999999765e-01,5.408622695343456854e-01,1.000000000000000048e-04,4.247311991671931963e+01,1.100000000000000006e-01
8.290542589999999601e-01,-4.498624509999999965e-01,1.285023320474647512e+00,1.000000000000000048e-04,4.458135827326319145e+01,1.199999999999999956e-01
2.306908324000000121e+00,-1.093655438999999951e+00,1.505882878765441024e-01,1.000000000000000048e-04,3.902003803000314974e+01,1.300000000000000044e-01
-3.090495873179586184e+00,-7.974218849999999970e-01,3.523929720481613348e-01,1.000000000000000048e-04,4.152703362049683022e+01,1.300000000000000044e-01
2.850739061000000074e+00,-9.724982730000000242e-01,5.109747018068158120e-01,1.000000000000000048e-04,4.225895448968109491e+01,1.100000000000000006e-01
1.925211972000000049e+00,-1.067349442999999898e+00,3.073742557134366837e-01,1.000000000000000048e-04,4.080253451423997291e+01,1.600000000000000033e-01
3.010706126000000094e+00,-9.149326070000000088e-01,2.305417917488215007e-01,1.000000000000000048e-04,4.050242280853640864e+01,1.199999999999999956e-01
1.754869720000000077e+00,-1.052947148999999971e+00,2.093068509973379232e-01,1.000000000000000048e-04,4.002829639689437613e+01,1.300000000000000044e-01
3.028086770999999899e+00,-8.725603690000000023e-01,2.851859753176035905e-01,1.000000000000000048e-04,4.084518396719828104e+01,1.199999999999999956e-01
2.780301081000000174e+00,-1.010780400000000023e+00,2.653954887668212859e-01,1.000000000000000048e-04,4.092171481098482388e+01,1.700000000000000122e-01
3.096540631999999960e+00,-8.261897350000000362e-01,7.174917162350260558e-01,1.000000000000000048e-04,4.326242662349481094e+01,1.100000000000000006e-01
-3.043596368179586342e+00,-7.656326449999999451e-01,7.748669830589482999e-01,1.000000000000000048e-04,4.340281606461665120e+01,1.100000000000000006e-01
2.593403560000000052e+00,-1.068240442000000012e+00,4.658280091887099239e-01,1.000000000000000048e-04,4.199924228045541952e+01,1.199999999999999956e-01
1.277663320999999907e+00,-8.910532270000000032e-01,2.061378139279861355e-01,1.000000000000000048e-04,3.973969061482764431e+01,1.499999999999999944e-01
8.729576639999999665e-01,-5.017517409999999733e-01,9.937652797220419831e-01,1.000000000000000048e-04,4.418140223128450828e+01,1.199999999999999956e-01
2.323316692000000128e+00,-1.072994334000000105e+00,2.400574828699291174e-01,1.000000000000000048e-04,4.050917716912261568e+01,1.400000000000000133e-01
-3.012222731179586166e+00,-7.219820959999999621e-01,2.070069313081399631e-01,1.000000000000000048e-04,4.008943668454361386e+01,1.199999999999999956e-01
2.306010604999999991e+00,-1.110345181000000014e+00,8.272487730378967896e-01,1.000000000000000048e-04,4.374687758710305729e+01,1.100000000000000006e-01
2.437557496999999795e+00,-1.097151527000000071e+00,1.098456152707967703e+00,1.000000000000000048e-04,4.428505241958946925e+01,1.100000000000000006e-01
1.098420291999999909e+00,-7.444727049999999569e-01,3.816370188195701285e-01,1.000000000000000048e-04,4.170739540528113309e+01,1.300000000000000044e-01
8.241628739999999897e-01,-4.611620249999999754e-01,7.901892391591824882e-01,1.000000000000000048e-04,4.331961112237254952e+01,1.400000000000000133e-01
1.017317494999999905e+00,-7.027905669999999771e-01,4.243351273356459341e-01,1.000000000000000048e-04,4.179867832449831866e+01,1.199999999999999956e-01
2.728679550999999925e+00,-1.007430967999999982e+00,3.487836122427090402e-01,1.000000000000000048e-04,4.140884170160145317e+01,1.100000000000000006e-01
2.848837458999999850e+00,-9.622339979999999793e-01,2.867188738285479932e-01,1.000000000000000048e-04,4.067915491865443300e+01,1.199999999999999956e-01
-3.065525731179586266e+00,-7.207210450000000046e-01,8.185576773345091262e-01,1.000000000000000048e-04,4.385808266942805744e+01,1.199999999999999956e-01
1.103969978000000074e+00,-7.587182380000000448e-01,2.600749495399952149e-01,1.000000000000000048e-04,4.069924864175375490e+01,1.300000000000000044e-01
1.112034854000000017e+00,-7.675460100000000008e-01,7.384552681960765419e-01,1.000000000000000048e-04,4.328062638441952004e+01,1.199999999999999956e-01
2.373162053000000160e+00,-1.072487750000000073e+00,2.508330364794446599e-01,1.000000000000000048e-04,4.051281571128770054e+01,1.100000000000000006e-01
2.221583438000000132e+00,-1.096064289000000080e+00,2.356860098041959617e-01,1.000000000000000048e-04,4.033229970952322674e+01,1.199999999999999956e-01
2.775251189000000007e+00,-1.013244017000000108e+00,1.470059564516004169e-01,1.000000000000000048e-04,3.924382163283981839e+01,1.700000000000000122e-01
1.527128894000000070e+00,-9.963611940000000056e-01,1.222434277748818410e-01,1.000000000000000048e-04,3.866794588949960598e+01,1.400000000000000133e-01
-1.936135624179586401e+00,1.327891944000000102e+00,6.933251134703488638e-01,1.000000000000000048e-04,4.298465643434098382e+01,1.199999999999999956e-01
2.120951332999999828e+00,-1.112975437000000012e+00,4.163327494705211240e-01,1.000000000000000048e-04,4.174077986873512458e+01,1.600000000000000033e-01
2.950704906999999988e+00,-9.277153000000000205e-01,3.316597392429094793e-01,1.000000000000000048e-04,4.094341023246705191e+01,1.700000000000000122e-01
2.461302839000000020e+00,-1.064109841000000056e+00,2.273965147666030528e-01,1.000000000000000048e-04,4.037075603978991012e+01,1.499999999999999944e-01
1.687800213000000049e+00,-1.037844004000000098e+00,2.157353573486247011e-01,1.000000000000000048e-04,3.996965475884854868e+01,1.100000000000000006e-01
-3.069023128179586113e+00,-7.343218900000000327e-01,4.092748010420244054e-01,1.000000000000000048e-04,4.162361338243840692e+01,2.000000000000000111e-01
7.655655390000000171e-01,-3.825025819999999799e-01,1.134174043754742289e+00,1.000000000000000048e-04,4.448641722777232843e+01,1.300000000000000044e-01
-3.051736326179586012e+00,-7.690870560000000467e-01,9.239611809131031972e-01,1.000000000000000048e-04,4.392934780903113534e+01,1.499999999999999944e-01
-3.116938176179586240e+00,-7.920766919999999711e-01,6.430271306860144698e-01,1.000000000000000048e-04,4.290850740480607328e+01,1.100000000000000006e-01
1.020863690000000101e+00,-6.877910739999999468e-01,1.313162874343860587e-01,1.000000000000000048e-04,3.873508630761732974e+01,1.199999999999999956e-01
1.792785233999999894e+00,-1.066474936999999956e+00,5.807294295375924342e-01,1.000000000000000048e-04,4.260954732106128517e+01,1.100000000000000006e-01
1.805689748000000039e+00,-1.066896787999999985e+00,2.234777036226476277e-01,1.000000000000000048e-04,4.011872174704713956e+01,1.100000000000000006e-01
1.773248071000000037e+00,-1.046601056999999946e+00,3.644113566932214443e-01,1.000000000000000048e-04,4.148247063248560806e+01,2.099999999999999922e-01
1.076689889999999927e+00,-7.549444410000000216e-01,2.507305355524005464e-01,1.000000000000000048e-04,4.035755861879091810e+01,1.199999999999999956e-01
2.336456505000000128e+00,-1.089906792000000069e+00,2.477086708587765695e-01,1.000000000000000048e-04,4.069111502761988675e+01,1.199999999999999956e-01
2.522083900000000156e+00,-1.078852812999999911e+00,1.607053519513741424e-01,1.000000000000000048e-04,3.936080164649687418e+01,1.199999999999999956e-01
3.676074389999999803e-01,1.100614297999999991e+00,3.885156887879026577e-01,1.000000000000000048e-04,4.171225795713995410e+01,1.700000000000000122e-01
2.099931574000000190e+00,-1.082223048999999993e+00,1.230700712934226448e+00,1.000000000000000048e-04,4.464728691322608256e+01,1.100000000000000006e-01
8.155488279999999479e-01,-4.642700679999999802e-01,1.865989968948784661e-01,1.000000000000000048e-04,3.974775306217316739e+01,2.099999999999999922e-01
9.861636230000000447e-01,-6.881834650000000497e-01,1.233871930602741251e-01,1.000000000000000048e-04,3.890677143084960221e+01,1.300000000000000044e-01
1.864254864999999928e+00,-1.086684659999999969e+00,7.428661517927146463e-01,1.000000000000000048e-04,4.327647730763991518e+01,1.199999999999999956e-01
2.873066016000000111e+00,-9.753574739999999466e-01,6.212286433274074593e-01,1.000000000000000048e-04,4.289102747595376286e+01,1.300000000000000044e-01
2.270287562000000037e+00,-1.085086717999999895e+00,2.967556923799838930e-01,1.000000000000000048e-04,4.070289964551272277e+01,1.799999999999999933e-01
8.268071609999999572e-01,-4.587794940000000099e-01,1.415976195718746666e-01,1.000000000000000048e-04,3.909747359283575463e+01,1.199999999999999956e-01
-3.050869045179586347e+00,-7.648855789999999821e-01,7.210150101803503020e-01,1.000000000000000048e-04,4.327789366219764844e+01,1.199999999999999956e-01
1.101963728999999947e+00,-7.466317359999999903e-01,1.600474085265761737e-01,1.000000000000000048e-04,3.933851191255514124e+01,1.900000000000000022e-01
1.745116724000000064e+00,-1.056563783000000090e+00,5.481208129954417974e-01,1.000000000000000048e-04,4.261215518329528607e+01,1.300000000000000044e-01
7.889769570000000343e-01,-3.846565690000000037e-01,5.898613489276751665e-01,1.000000000000000048e-04,4.288280756331653265e+01,1.499999999999999944e-01
1.385818830999999918e+00,-9.278259679999999454e-01,2.190682795040124198e-01,1.000000000000000048e-04,4.003350259200093575e+01,1.499999999999999944e-01
1.138484923000000038e+00,-8.197145099999999518e-01,3.563059231406970895e-01,1.000000000000000048e-04,4.156126117733824543e+01,1.400000000000000133e-01
1.783410439000000069e+00,-1.080958507999999929e+00,5.480837515273635496e-01,1.000000000000000048e-04,4.269008571437788646e+01,1.400000000000000133e-01
2.617653461000000181e+00,-1.025884226000000066e+00,2.545340055587028694e-01,1.000000000000000048e-04,4.061751406966579481e+01,1.199999999999999956e-01
8.270197009999999960e-01,-4.157453939999999903e-01,5.754240828106813588e-01,1.000000000000000048e-04,4.258074352576967669e+01,1.199999999999999956e-01
3.128792493000000174e+00,-8.522697870000000009e-01,6.243235932945445654e-01,1.000000000000000048e-04,4.281048899191245738e+01,1.100000000000000006e-01
1.366158207000000013e+00,-9.614226009999999878e-01,1.910490069872921026e-01,1.000000000000000048e-04,4.008039476533554790e+01,1.100000000000000006e-01
2.846286316000000038e+00,-9.688357899999999745e-01,5.125297703440097052e-01,1.000000000000000048e-04,4.256508960342884507e+01,1.400000000000000133e-01
9.208216280000000031e-01,-6.185352929999999860e-01,4.438066154200783764e-01,1.000000000000000048e-04,4.199586561588564138e+01,1.499999999999999944e-01
7.622987450000000553e-01,-3.411912120000000215e-01,6.486869690043854941e-01,1.000000000000000048e-04,4.294291946183592046e+01,1.199999999999999956e-01
9.277931750000000255e-01,-5.813990460000000304e-01,6.177986867297229345e-01,1.000000000000000048e-04,4.284268557003145617e+01,2.099999999999999922e-01
1.010173165000000095e+00,-6.808591280000000356e-01,5.352925996384165774e-01,1.000000000000000048e-04,4.265314315324015837e+01,1.300000000000000044e-01
1.661181446000000062e+00,-1.029160687999999935e+00,2.543710592737835618e-01,1.000000000000000048e-04,4.053141481525604206e+01,1.400000000000000133e-01
2.089878704000000198e+00,-1.077863170999999953e+00,3.404096011042689884e-01,1.000000000000000048e-04,4.118278031051670496e+01,1.199999999999999956e-01
9.321550429999999610e-01,-6.212176799999999943e-01,2.101749794731961885e-01,1.000000000000000048e-04,4.022530210850262478e+01,1.199999999999999956e-01
2.944595597000000176e+00,-9.127602249999999806e-01,6.823309528411449776e-01,1.000000000000000048e-04,4.320037240664881040e+01,1.100000000000000006e-01
1.288081913999999939e+00,-9.113959929999999598e-01,2.364410482980048300e-01,1.000000000000000048e-04,4.029306153475801011e+01,1.300000000000000044e-01
1.398731861999999992e+00,-9.625033109999999725e-01,2.638717604882876433e-01,1.000000000000000048e-04,4.051649538312684484e+01,1.199999999999999956e-01
1.714165549000000066e+00,-1.043104095999999981e+00,8.507940173230632563e-01,1.000000000000000048e-04,4.368517953915901586e+01,1.199999999999999956e-01
1.014018395999999989e+00,-6.788913789999999615e-01,4.821376235247047948e-01,1.000000000000000048e-04,4.209970189935174290e+01,1.300000000000000044e-01
8.887761809999999985e-01,-5.541821719999999729e-01,1.459776726442669759e-01,1.000000000000000048e-04,3.902401587894753021e+01,1.300000000000000044e-01
1.026278256999999972e+00,-6.961882160000000264e-01,8.376357385565915692e-01,1.000000000000000048e-04,4.370633557132504876e+01,1.199999999999999956e-01
1.824970581999999952e+00,-1.080428363000000003e+00,1.212251345009940362e-01,1.000000000000000048e-04,3.892525395421720447e+01,1.199999999999999956e-01
1.839979185000000017e+00,-1.082878103999999952e+00,1.164894044079337387e+00,1.000000000000000048e-04,4.451940991580716656e+01,1.300000000000000044e-01
-3.070118813179586237e+00,-7.641942569999999879e-01,1.270243000567941039e-01,1.000000000000000048e-04,3.889171764784811103e+01,1.199999999999999956e-01
2.250776613000000204e+00,-1.110438553999999911e+00,1.758564362863783703e-01,1.000000000000000048e-04,3.959331366675053232e+01,1.199999999999999956e-01
2.613802471000000072e+00,-1.066258922999999914e+00,2.889208964646299282e-01,1.000000000000000048e-04,4.115477956720484087e+01,1.199999999999999956e-01
8.050150120000000298e-01,-4.193234060000000096e-01,4.788702887802558372e-01,1.000000000000000048e-04,4.210759891399039390e+01,1.499999999999999944e-01
2.809576177999999924e+00,-9.952447749999999704e-01,5.346309900018650918e-01,1.000000000000000048e-04,4.244943246528369230e+01,1.199999999999999956e-01
8.523447290000000232e-01,-4.773689010000000121e-01,1.789388982488753221e-01,1.000000000000000048e-04,4.009679850333284890e+01,2.000000000000000111e-01
2.975142320999999868e+00,-8.986192680000000266e-01,2.556453638325382194e-01,1.000000000000000048e-04,4.063370734457653555e+01,2.000000000000000111e-01
2.960578484000000010e+00,-9.174235720000000205e-01,3.461952407299766499e-01,1.000000000000000048e-04,4.141776747162396077e+01,1.400000000000000133e-01
1.589239559999999996e+00,-1.046132274999999945e+00,3.640173254485565835e-01,1.000000000000000048e-04,4.144186845615285364e+01,1.199999999999999956e-01
1.095136271999999966e+00,-7.909478989999999543e-01,2.945241004015772823e-01,1.000000000000000048e-04,4.097235130427353766e+01,1.300000000000000044e-01
3.045277111999999953e+00,-8.831592660000000539e-01,3.276263713399409916e-01,1.000000000000000048e-04,4.094975668234401667e+01,1.799999999999999933e-01
3.011317304999999944e+00,-8.969173430000000335e-01,4.863401637771427310e-01,1.000000000000000048e-04,4.216980927566915227e+01,1.499999999999999944e-01
1.946036051000000100e+00,-1.101857058000000000e+00,3.431351044607875433e-01,1.000000000000000048e-04,4.140890426030927784e+01,1.100000000000000006e-01
9.659444579999999503e-01,-6.400164339999999674e-01,5.915734508622327859e-01,1.000000000000000048e-04,4.286485332645924728e+01,1.199999999999999956e-01
1.142944595999999979e+00,-8.229314749999999679e-01,2.549398615392266532e-01,1.000000000000000048e-04,4.032568193808224066e+01,1.499999999999999944e-01
1.336859599999999926e+00,-9.462661719999999610e-01,8.139321606700975487e-01,1.000000000000000048e-04,4.368229658814058780e+01,1.900000000000000022e-01
2.386695267999999981e+00,-1.099692616000000012e+00,2.154598731756141028e-01,1.000000000000000048e-04,4.024829982187007715e+01,1.799999999999999933e-01
1.122946417999999946e+00,-7.871106610000000448e-01,5.609749679803455180e-01,1.000000000000000048e-04,4.240661293767323770e+01,1.499999999999999944e-01
1.038511049000000019e+00,-6.836743480000000428e-01,1.289886549286785034e-01,1.000000000000000048e-04,3.896943843352824643e+01,1.499999999999999944e-01
-1.865548755179585960e+00,5.988235499999999822e-01,6.769082609451029242e-01,1.000000000000000048e-04,4.335655443882009763e+01,3.599999999999999867e-01
-1.208774007179585830e+00,1.086301519000000049e+00,1.251137893795508660e+00,1.000000000000000048e-04,4.481206172707786095e+01,3.900000000000000133e-01
-1.451351928179586359e+00,1.047303024999999943e+00,5.032994294700710025e-01,1.000000000000000048e-04,4.297053924928562907e+01,3.900000000000000133e-01
-1.863787002179586594e+00,5.986409590000000280e-01,7.295558281719409788e-01,1.000000000000000048e-04,4.335177293394347942e+01,3.099999999999999978e-01
-2.367107747179586053e+00,3.570653329999999848e-01,2.406882208282432600e-01,1.000000000000000048e-04,4.075355738852152854e+01,3.300000000000000155e-01
3.110012692999999828e+00,-8.816387980000000013e-01,9.332593418115968653e-01,1.000000000000000048e-04,4.527853947200039642e+01,4.000000000000000222e-01
1.208427087000000011e+00,6.391205479999999550e-01,1.766352387888334707e-01,1.000000000000000048e-04,4.019498014896480242e+01,3.200000000000000067e-01
2.195568135999999893e+00,9.530612539999999688e-01,8.891187032150593694e-01,1.000000000000000048e-04,4.444173438243304020e+01,3.200000000000000067e-01
-1.746303855179585973e+00,7.561700099999999480e-01,1.705906363126556968e-01,1.000000000000000048e-04,3.975075848728440775e+01,3.599999999999999867e-01
-2.613733020179586308e+00,3.020363409999999860e-01,2.048456363611779185e-01,1.000000000000000048e-04,3.992359127052389312e+01,2.399999999999999911e-01
3.080075141000000016e+00,6.813462000000000129e-01,6.903503519568379154e-01,1.000000000000000048e-04,4.292694174405537666e+01,2.999999999999999889e-01
3.084152930000000126e+00,6.750201959999999612e-01,2.887942336627287165e-01,1.000000000000000048e-04,4.071599924011178473e+01,2.399999999999999911e-01
-2.831540824179586302e+00,-5.193198470000000011e-01,5.082982732387633096e-01,1.000000000000000048e-04,4.246668648553496439e+01,2.899999999999999800e-01
2.921667255000000019e+00,-9.403574120000000036e-01,2.084247232638631875e-01,1.000000000000000048e-04,3.985779292869396784e+01,2.899999999999999800e-01
2.610543199999999953e+00,9.294079060000000059e-01,4.994891833696868400e-01,1.000000000000000048e-04,4.215974430222985347e+01,2.899999999999999800e-01
2.614058957000000127e+00,9.310355519999999885e-01,5.611700594060864411e-01,1.000000000000000048e-04,4.286584302539649372e+01,3.699999999999999956e-01
-2.614313936179586406e+00,3.105085300000000048e-01,3.041318785843694084e-01,1.000000000000000048e-04,4.066853956161768480e+01,2.300000000000000100e-01
-2.614275993179586255e+00,3.084493819999999942e-01,7.349532111400804979e-01,1.000000000000000048e-04,4.312127743328399987e+01,2.000000000000000111e-01
3.080236718000000096e+00,6.852664600000000217e-01,3.856418159847141425e-01,1.000000000000000048e-04,4.234148692708244255e+01,3.800000000000000044e-01
3.085135451000000195e+00,6.840520260000000352e-01,7.686490419415472619e-01,1.000000000000000048e-04,4.297524784734299175e+01,2.300000000000000100e-01
-2.829361723179586452e+00,-5.190188390000000096e-01,1.513038440889968861e-01,1.000000000000000048e-04,3.946694100578118025e+01,3.900000000000000133e-01
-2.833706243179586082e+00,-5.260186759999999628e-01,2.371826280193278791e-01,1.000000000000000048e-04,4.023391482209829917e+01,2.200000000000000011e-01
1.286414458000000094e+00,-9.076167339999999806e-01,5.565133630476335469e-01,1.000000000000000048e-04,4.249596694138035247e+01,2.399999999999999911e-01
2.295144749999999956e+00,-1.095028292000000070e+00,2.072799006578209813e-01,1.000000000000000048e-04,3.983447341139210351e+01,2.000000000000000111e-01
2.312115046000000174e+00,-1.091482969000000081e+00,1.828060367575250478e-01,1.000000000000000048e-04,3.997874111689181831e+01,1.900000000000000022e-01
2.535381049000000164e+00,-1.063602453999999975e+00,1.151437639984708827e+00,1.000000000000000048e-04,4.456248257961819803e+01,2.600000000000000089e-01
2.549902755000000187e+00,-1.059649137999999935e+00,2.984281763160865353e-01,1.000000000000000048e-04,4.086960444270641801e+01,1.900000000000000022e-01
-2.980466121795863899e-01,1.081935794000000062e+00,3.852835715260292115e-01,1.000000000000000048e-04,4.180063714643413419e+01,1.000000000000000056e-01
-4.562223411795862660e-01,1.078420874000000085e+00,1.236702263924011724e+00,1.000000000000000048e-04,4.480089382810326271e+01,1.400000000000000133e-01
-4.727696341795866175e-01,1.076427226000000070e+00,1.976763743707634635e-01,1.000000000000000048e-04,3.983384017509561659e+01,1.900000000000000022e-01
-4.909850281795860028e-01,1.086050390999999893e+00,1.952604204458545656e-01,1.000000000000000048e-04,3.996737890566102891e+01,1.499999999999999944e-01
-1.809890014179586615e+00,8.554848849999999727e-01,1.548152295136786538e-01,1.000000000000000048e-04,3.956163404138294482e+01,1.900000000000000022e-01
-1.804843805179586091e+00,8.509932909999999850e-01,4.657699821548599850e-01,1.000000000000000048e-04,4.200479673137307657e+01,1.700000000000000122e-01
-1.798315402179586187e+00,8.389159160000000393e-01,8.191273789682336215e-01,1.000000000000000048e-04,4.339157117426807275e+01,1.100000000000000006e-01
-1.820018681179586650e+00,8.404092629999999620e-01,1.982499579161856040e-01,1.000000000000000048e-04,3.979864046662592614e+01,2.000000000000000111e-01
-2.435936564179586039e+00,3.767214549999999829e-01,4.465790531430833266e-01,1.000000000000000048e-04,4.183388808556313876e+01,1.700000000000000122e-01
-2.738532057179586143e+00,-4.670391260000000266e-01,3.688150363085611616e-01,1.000000000000000048e-04,4.141343649682873007e+01,1.100000000000000006e-01
-2.750126147179586145e+00,-4.750163370000000107e-01,2.980290984177915714e-01,1.000000000000000048e-04,4.099138146743911193e+01,1.700000000000000122e-01
6.777063359999999648e-01,-9.284162910000000046e-01,4.429609338856292933e-01,1.000000000000000048e-04,4.219798012344535465e+01,1.600000000000000033e-01
6.755664329999999662e-01,-9.242990760000000527e-01,3.998454768026364903e-01,1.000000000000000048e-04,4.182190330193457584e+01,2.200000000000000011e-01
1.666277256000000095e+00,1.035703752000000089e+00,2.704843464708022172e-01,1.000000000000000048e-04,4.062003190178665335e+01,2.800000000000000266e-01
1.679531192000000006e+00,1.034147155999999956e+00,5.152217521803499345e-01,1.000000000000000048e-04,4.212477092241359600e+01,2.099999999999999922e-01
1.669961188000000041e+00,1.045784459000000055e+00,3.652129072812628774e-01,1.000000000000000048e-04,4.097511819764085317e+01,2.899999999999999800e-01
1.666612017000000057e+00,1.035903760999999923e+00,4.269836536963860230e-01,1.000000000000000048e-04,4.191987973291611524e+01,1.400000000000000133e-01
1.676630470000000095e+00,1.049302589999999924e+00,3.133812727593590086e-01,1.000000000000000048e-04,4.080648957559255052e+01,1.600000000000000033e-01
1.678871634000000057e+00,1.037439988999999896e+00,7.771224663171809599e-01,1.000000000000000048e-04,4.354722826416651316e+01,2.099999999999999922e-01
-2.159653925179585876e+00,7.341517600000000421e-01,2.405833551854417163e-01,1.000000000000000048e-04,4.021388254635905213e+01,2.600000000000000089e-01
-2.155609593179586447e+00,7.327229189999999726e-01,9.105821442736468097e-01,1.000000000000000048e-04,4.364782340074464884e+01,1.400000000000000133e-01
2.989279821999999864e+00,-1.014333855000000062e+00,5.298755474081000560e-01,1.000000000000000048e-04,4.246084119598320683e+01,1.600000000000000033e-01
6.962963009999999509e-01,-9.242906640000000396e-01,6.209565428782046759e-01,1.000000000000000048e-04,4.294037733119232314e+01,2.000000000000000111e-01
6.831622830000000368e-01,-9.295060950000000322e-01,2.428550783853045125e-01,1.000000000000000048e-04,4.005257784696213719e+01,2.099999999999999922e-01
6.813526220000000189e-01,-9.196739680000000083e-01,1.260107284805718209e-01,1.000000000000000048e-04,3.908079569946544751e+01,1.700000000000000122e-01
1.667475545999999920e+00,1.039138789999999979e+00,3.937668476665234785e-01,1.000000000000000048e-04,4.162900809070308838e+01,1.499999999999999944e-01
1.669072946000000002e+00,1.039627206000000026e+00,2.380762213740375000e-01,1.000000000000000048e-04,4.019297085600136654e+01,1.700000000000000122e-01
2.992464221000000091e+00,-1.009427984000000000e+00,5.312125639812899092e-01,1.000000000000000048e-04,4.263926832179382842e+01,1.400000000000000133e-01
3.013377762000000182e+00,-1.015725085999999999e+00,3.399736939817852299e-01,1.000000000000000048e-04,4.132247415141269897e+01,1.499999999999999944e-01
6.857830799999999893e-01,-9.290922369999999875e-01,2.112665895152103790e-01,1.000000000000000048e-04,4.029015198264777808e+01,3.400000000000000244e-01
6.874880420000000214e-01,-9.251381180000000093e-01,1.240893742039268943e+00,1.000000000000000048e-04,4.464880899846775719e+01,1.700000000000000122e-01
1.659686511000000086e+00,1.040101345999999927e+00,1.215079817377837657e-01,1.000000000000000048e-04,3.890671131064048893e+01,1.400000000000000133e-01
1.692629780999999944e+00,1.043637506000000048e+00,4.182494278604735882e-01,1.000000000000000048e-04,4.146047490846059702e+01,1.799999999999999933e-01
1.682450028999999958e+00,1.049226146999999942e+00,3.383026156601787182e-01,1.000000000000000048e-04,4.109568799616862123e+01,1.900000000000000022e-01
1.675255906999999933e+00,1.048468626000000015e+00,4.639901037115192750e-01,1.000000000000000048e-04,4.202681943082104254e+01,1.499999999999999944e-01
1.692145135000000078e+00,1.039981480000000014e+00,5.202326937430838960e-01,1.000000000000000048e-04,4.257292161114092721e+01,1.700000000000000122e-01
-2.139768073179586061e+00,7.360294179999999908e-01,1.786854315847823393e-01,1.000000000000000048e-04,3.981115988915700399e+01,1.600000000000000033e-01
-2.138731675179585956e+00,7.369836659999999817e-01,1.323511899497856081e+00,1.000000000000000048e-04,4.476818350443264904e+01,1.499999999999999944e-01
6.888283630000000546e-01,-9.193630990000000169e-01,2.449478427380085144e-01,1.000000000000000048e-04,4.014442350864643316e+01,1.700000000000000122e-01
6.776433490000000059e-01,-9.225326109999999469e-01,1.942968091530405950e-01,1.000000000000000048e-04,4.001627040168049376e+01,1.600000000000000033e-01
6.820513620000000499e-01,-9.162569579999999547e-01,3.938914394480363956e-01,1.000000000000000048e-04,4.168454619276769080e+01,2.899999999999999800e-01
6.832637360000000104e-01,-9.208365670000000502e-01,3.700083170464005811e-01,1.000000000000000048e-04,4.154222266882000270e+01,1.400000000000000133e-01
1.683256381999999940e+00,1.050427892999999946e+00,4.231994336108320098e-01,1.000000000000000048e-04,4.180361840632505732e+01,1.499999999999999944e-01
2.987248335999999949e+00,-1.011507587000000097e+00,4.134074343071612034e-01,1.000000000000000048e-04,4.172954406183108489e+01,1.900000000000000022e-01
2.994879214000000012e+00,-1.020537374999999969e+00,9.094826936481390511e-01,1.000000000000000048e-04,4.377200177249707025e+01,2.500000000000000000e-01
2.997056848999999801e+00,-1.020797841000000039e+00,2.333747649601554119e-01,1.000000000000000048e-04,4.032312542519496645e+01,1.499999999999999944e-01
6.981827720000000070e-01,-9.201470600000000166e-01,6.740913125771177405e-01,1.000000000000000048e-04,4.297060998326676895e+01,2.099999999999999922e-01
1.675679171999999939e+00,1.042232051000000048e+00,6.783891909800001674e-01,1.000000000000000048e-04,4.309622204352493213e+01,1.900000000000000022e-01
1.682732345000000018e+00,1.051774148000000020e+00,8.364714219780566840e-01,1.000000000000000048e-04,4.312390475343521956e+01,2.099999999999999922e-01
1.655763980999999996e+00,1.041789395999999979e+00,4.020539781945364766e-01,1.000000000000000048e-04,4.155168931029449908e+01,2.099999999999999922e-01
1.658505131999999938e+00,1.042043577999999915e+00,3.680540082788890111e-01,1.000000000000000048e-04,4.152695963564946169e+01,1.499999999999999944e-01
1.679931540999999973e+00,1.044700675999999939e+00,1.315494640821481820e+00,1.000000000000000048e-04,4.472429747873140826e+01,1.400000000000000133e-01
1.681131209999999987e+00,1.046558263000000100e+00,7.837558758383393887e-01,1.000000000000000048e-04,4.324981021703946027e+01,3.800000000000000044e-01
-2.147380102179586636e+00,7.248191320000000326e-01,6.256728185226962946e-01,1.000000000000000048e-04,4.250037898127340696e+01,2.200000000000000011e-01
-2.137481690179586558e+00,7.386978770000000027e-01,3.375101328787664112e-01,1.000000000000000048e-04,4.143705009243164739e+01,1.499999999999999944e-01
3.007533192999999994e+00,-1.006434849999999992e+00,3.481792493157274127e-01,1.000000000000000048e-04,4.138782050202638629e+01,1.700000000000000122e-01
6.766177190000000063e-01,-9.309161569999999664e-01,2.505673415966354067e-01,1.000000000000000048e-04,4.053601101258477257e+01,1.700000000000000122e-01
6.879719020000000240e-01,-9.170357009999999809e-01,7.316078121050870742e-01,1.000000000000000048e-04,4.318609384452426525e+01,2.600000000000000089e-01
6.868192690000000100e-01,-9.190749710000000183e-01,2.259617775138487161e-01,1.000000000000000048e-04,4.052599118131823985e+01,2.800000000000000266e-01
1.680927606000000019e+00,1.043199457999999913e+00,9.199844865674096095e-01,1.000000000000000048e-04,4.396889182603342761e+01,1.799999999999999933e-01
1.680733408999999901e+00,1.046110547000000057e+00,6.095690538907891920e-01,1.000000000000000048e-04,4.294664284165025236e+01,1.499999999999999944e-01
3.003205794999999956e+00,-1.007960921000000010e+00,1.671725008983218075e-01,1.000000000000000048e-04,3.927619734762915016e+01,2.200000000000000011e-01
3.013387552999999830e+00,-1.018013843000000085e+00,9.700051425681646133e-01,1.000000000000000048e-04,4.464488120592161380e+01,2.000000000000000111e-01
2.991633154000000072e+00,-1.018575491000000000e+00,3.247886381509301756e-01,1.000000000000000048e-04,4.107268160555964442e+01,1.600000000000000033e-01
6.810583510000000063e-01,-9.216344210000000370e-01,2.030208991622959314e-01,1.000000000000000048e-04,3.987655575910068251e+01,1.600000000000000033e-01
1.670069762000000013e+00,1.048284639000000018e+00,8.185114046543426891e-01,1.000000000000000048e-04,4.341356822846116614e+01,2.099999999999999922e-01
1.699713636000000028e+00,1.040243690999999915e+00,3.704821810072105315e-01,1.000000000000000048e-04,4.142232516498879136e+01,2.899999999999999800e-01
1.686195045999999920e+00,1.048540513999999924e+00,1.557987630162269710e-01,1.000000000000000048e-04,3.915761824277402781e+01,1.400000000000000133e-01
1.667162669999999958e+00,1.044746053999999980e+00,2.711714307737762564e-01,1.000000000000000048e-04,4.057197928372658424e+01,2.700000000000000178e-01
1.689467040999999892e+00,1.036330184999999959e+00,2.844947092357625884e-01,1.000000000000000048e-04,4.069274506250408763e+01,1.300000000000000044e-01
1.683799076999999977e+00,1.043385784000000038e+00,5.193522665478094158e-01,1.000000000000000048e-04,4.225187692213356172e+01,1.700000000000000122e-01
-2.151455832179586025e+00,7.398983139999999459e-01,3.232904750478469147e-01,1.000000000000000048e-04,4.110896437774732703e+01,2.500000000000000000e-01
-2.141944958179585967e+00,7.302793560000000461e-01,4.173161534720080112e-01,1.000000000000000048e-04,4.173501887215383732e+01,1.400000000000000133e-01
3.012489310999999947e+00,-1.019874449000000016e+00,7.411042729966672571e-01,1.000000000000000048e-04,4.289017044724585759e+01,1.900000000000000022e-01
6.824463880000000149e-01,-9.193269539999999740e-01,4.759002186504259768e-01,1.000000000000000048e-04,4.199313988224224659e+01,1.600000000000000033e-01
6.933168330000000212e-01,-9.307474239999999899e-01,1.884733780296188321e-01,1.000000000000000048e-04,3.977070948481385670e+01,1.600000000000000033e-01
7.005346909999999871e-01,-9.247541049999999929e-01,2.083473038297385393e-01,1.000000000000000048e-04,4.000931895035437691e+01,2.700000000000000178e-01
1.674988617999999985e+00,1.042237757999999959e+00,1.689794547753988851e-01,1.000000000000000048e-04,3.955639132440494876e+01,1.499999999999999944e-01
1.672026148000000045e+00,1.039374368000000048e+00,4.147021373000279176e-01,1.000000000000000048e-04,4.171307976407322826e+01,1.600000000000000033e-01
2.993618983999999816e+00,-1.008517228000000099e+00,4.298741623987831773e-01,1.000000000000000048e-04,4.199286417536642801e+01,1.700000000000000122e-01
2.992837709999999873e+00,-1.014889098000000045e+00,6.595382396487323717e-01,1.000000000000000048e-04,4.311170143871841987e+01,2.800000000000000266e-01
2.980621672999999916e+00,-1.012535224000000067e+00,6.073969746109970647e-01,1.000000000000000048e-04,4.295020532312395289e+01,1.499999999999999944e-01
3.118379398000000080e+00,-1.044341935000000055e+00,1.246599995405430761e-01,1.000000000000000048e-04,3.948071169652074275e+01,3.099999999999999978e-01
3.132904315000000217e+00,-1.046896950999999909e+00,2.500315102522747690e-01,1.000000000000000048e-04,4.057653841774634174e+01,2.200000000000000011e-01
1.248659997999999938e+00,-1.117162079000000086e+00,6.721664981096437952e-01,1.000000000000000048e-04,4.336751013902895835e+01,2.700000000000000178e-01
2.302446713000000145e+00,-1.091359299000000060e+00,7.666935033976436387e-01,1.000000000000000048e-04,4.366167826107159300e+01,2.899999999999999800e-01
3.133486173000000097e+00,-1.061461677999999909e+00,2.547102789751163332e-01,1.000000000000000048e-04,4.086488237068303420e+01,3.099999999999999978e-01
1.251013366000000016e+00,-1.102704651999999896e+00,7.790116197324181702e-01,1.000000000000000048e-04,4.319688042997930211e+01,2.300000000000000100e-01
1.232341668999999973e+00,-1.105349812000000043e+00,5.837738383232842221e-01,1.000000000000000048e-04,4.272719527135792816e+01,2.200000000000000011e-01
2.330538756999999794e+00,-1.086213730999999960e+00,2.417073758900250002e-01,1.000000000000000048e-04,4.077565144372945127e+01,2.300000000000000100e-01
3.104372880000000112e+00,-1.050765708999999992e+00,5.010329606646930500e-01,1.000000000000000048e-04,4.243490701138237142e+01,2.200000000000000011e-01
3.122794933000000217e+00,-1.050942575000000101e+00,3.731807502576396374e-01,1.000000000000000048e-04,4.181533220312685017e+01,2.099999999999999922e-01
3.135928428000000157e+00,-1.044986675000000087e+00,5.512387285249504831e-01,1.000000000000000048e-04,4.264939404459208561e+01,2.300000000000000100e-01
3.135701593999999925e+00,-1.049448040999999998e+00,3.697521156840808398e-01,1.000000000000000048e-04,4.166926133137677368e+01,2.399999999999999911e-01
2.902190216000000156e+00,-1.054666754000000095e+00,1.467567464873058558e-01,1.000000000000000048e-04,3.919169377367946794e+01,2.099999999999999922e-01
1.219278212000000083e+00,-1.102494101000000004e+00,3.544661725922753082e-01,1.000000000000000048e-04,4.124535629788018554e+01,2.399999999999999911e-01
2.314258420999999899e+00,-1.073777474999999981e+00,2.955358449838316748e-01,1.000000000000000048e-04,4.069246423693461878e+01,2.399999999999999911e-01
3.138600745000000192e+00,-1.056209613999999908e+00,5.764384630008549948e-01,1.000000000000000048e-04,4.249653732145138463e+01,2.800000000000000266e-01
2.873014373000000177e+00,-1.047336534999999902e+00,3.689383656766156427e-01,1.000000000000000048e-04,4.128335452695558416e+01,2.000000000000000111e-01
2.890150627000000139e+00,-1.045368942999999939e+00,4.031314483259822445e-01,1.000000000000000048e-04,4.215997649438006079e+01,2.200000000000000011e-01
-3.136513490179586139e+00,-1.038988312000000080e+00,2.964840482811572642e-01,1.000000000000000048e-04,4.098196189026472069e+01,2.800000000000000266e-01
3.120369102000000172e+00,-1.042910143999999928e+00,2.259928950197822584e-01,1.000000000000000048e-04,4.052241630012925810e+01,2.399999999999999911e-01
3.132773262000000170e+00,-1.048570620000000009e+00,5.026877709924211235e-01,1.000000000000000048e-04,4.216507326929603039e+01,2.300000000000000100e-01
3.132934141999999866e+00,-1.046888051000000042e+00,8.110702328566412600e-01,1.000000000000000048e-04,4.384028632515590829e+01,2.200000000000000011e-01
3.134455274000000014e+00,-1.046257098000000108e+00,2.810632252647988771e-01,1.000000000000000048e-04,4.066913190435440839e+01,2.200000000000000011e-01
2.910504301000000016e+00,-1.063930792999999930e+00,7.440255394336243722e-01,1.000000000000000048e-04,4.356560152912112471e+01,2.399999999999999911e-01
2.301930878999999930e+00,-1.084305269999999988e+00,3.587191287517419447e-01,1.000000000000000048e-04,4.128617508577728046e+01,3.099999999999999978e-01
2.314913878000000036e+00,-1.104421796000000011e+00,9.176319148999718678e-01,1.000000000000000048e-04,4.404476881539195432e+01,2.600000000000000089e-01
1.232494258000000009e+00,-1.089556776000000005e+00,1.709321824250378263e-01,1.000000000000000048e-04,3.962649141117837814e+01,3.099999999999999978e-01
-3.138875270179586341e+00,-1.027091259999999950e+00,3.299523619340487546e-01,1.000000000000000048e-04,4.097936333796965869e+01,3.800000000000000044e-01
1.277748142000000087e+00,-1.105660628999999950e+00,4.988236397662411115e-01,1.000000000000000048e-04,4.233759592324108922e+01,2.500000000000000000e-01
2.339694710999999927e+00,-1.083680948999999893e+00,1.781620099855987238e-01,1.000000000000000048e-04,3.956624728386853462e+01,2.300000000000000100e-01
3.085408954000000037e+00,-1.045989441999999991e+00,6.204436902637260332e-01,1.000000000000000048e-04,4.323873700917171448e+01,2.800000000000000266e-01
3.122183823999999941e+00,-1.053540683000000033e+00,2.184739644863031849e-01,1.000000000000000048e-04,3.933536858380627166e+01,3.699999999999999956e-01
1.263417701000000060e+00,-1.099941301000000093e+00,2.745275750021565209e-01,1.000000000000000048e-04,4.100542248875881057e+01,2.200000000000000011e-01
1.238769020999999970e+00,-1.122513239999999968e+00,8.156845705116073653e-01,1.000000000000000048e-04,4.387386316428873556e+01,2.600000000000000089e-01
1.225778744000000087e+00,-1.107856694000000086e+00,2.674588833814355304e-01,1.000000000000000048e-04,4.031943362414474308e+01,2.500000000000000000e-01
2.356185176999999964e+00,-1.090954028000000076e+00,5.011889147223782537e-01,1.000000000000000048e-04,4.279847907965216081e+01,2.700000000000000178e-01
1.231078855000000027e+00,-1.109460918999999990e+00,1.527514695479890161e-01,1.000000000000000048e-04,3.942600915699800623e+01,2.300000000000000100e-01
2.350025410999999842e+00,-1.078254897999999962e+00,7.461475419690790645e-01,1.000000000000000048e-04,4.318070863685198191e+01,2.300000000000000100e-01
2.889344674999999807e+00,-1.054064458000000037e+00,1.340614055307610464e+00,1.000000000000000048e-04,4.490383470181368608e+01,3.200000000000000067e-01
1.260972444000000081e+00,-1.102168519999999985e+00,1.209257823912361918e+00,1.000000000000000048e-04,4.397302999398166179e+01,2.899999999999999800e-01
3.138597202000000141e+00,-1.049455424000000026e+00,8.194868168902851302e-01,1.000000000000000048e-04,4.352683516609962311e+01,2.600000000000000089e-01
1.280173519000000093e+00,-1.106045986000000036e+00,1.178101602285538618e+00,1.000000000000000048e-04,4.411029911421041305e+01,2.899999999999999800e-01
3.140421104000000074e+00,-1.048273016000000002e+00,1.319601692378400415e+00,1.000000000000000048e-04,4.502830641882241025e+01,2.700000000000000178e-01
2.887571490000000018e+00,-1.060290981000000077e+00,3.142796383056414289e-01,1.000000000000000048e-04,4.092130909341286582e+01,2.300000000000000100e-01
3.117377486000000086e+00,-1.048849812999999909e+00,6.620017265789186478e-01,1.000000000000000048e-04,4.319937571058328274e+01,2.800000000000000266e-01
3.139331405000000075e+00,-1.045946368000000071e+00,5.752777160886359820e-01,1.000000000000000048e-04,4.287752394941362866e+01,2.300000000000000100e-01
2.901812189000000153e+00,-1.070407117000000019e+00,6.839183372429773478e-01,1.000000000000000048e-04,4.289935612821619770e+01,2.200000000000000011e-01
2.874698792999999863e+00,-1.069280417999999955e+00,1.005486074378045824e+00,1.000000000000000048e-04,4.406775211417745908e+01,2.200000000000000011e-01
3.126790450000000110e+00,-1.053686536000000062e+00,8.922393623372142368e-01,1.000000000000000048e-04,4.381664826827706349e+01,2.099999999999999922e-01
1.253234667999999941e+00,-1.096167120000000050e+00,1.793030591376130189e-01,1.000000000000000048e-04,3.983472520471283929e+01,2.200000000000000011e-01
1.242189800000000011e+00,-1.095888138000000067e+00,9.595360867086086820e-01,1.000000000000000048e-04,4.459809410505221194e+01,2.899999999999999800e-01
2.358704259000000025e+00,-1.096119858000000002e+00,5.693566228371611526e-01,1.000000000000000048e-04,4.292828331793439389e+01,2.099999999999999922e-01
3.090657074000000115e+00,-1.046905049999999893e+00,2.469631075928988562e-01,1.000000000000000048e-04,4.019410669632593169e+01,2.300000000000000100e-01
2.350320292999999783e+00,-1.077642637000000070e+00,2.602795850985311077e-01,1.000000000000000048e-04,4.043543859032612886e+01,3.300000000000000155e-01
3.120911620999999858e+00,-1.047605429999999949e+00,4.411366994324852353e-01,1.000000000000000048e-04,4.186897088877331896e+01,2.899999999999999800e-01
2.310418793000000193e+00,-1.091478047999999923e+00,9.320175701367421350e-01,1.000000000000000048e-04,4.383714444580413527e+01,3.300000000000000155e-01
2.888242410000000149e+00,-1.055260810999999910e+00,6.203793628028282381e-01,1.000000000000000048e-04,4.273687234146804315e+01,2.999999999999999889e-01
2.313880778000000138e+00,-1.089056457000000089e+00,7.790792984529353316e-01,1.000000000000000048e-04,4.319914101000947682e+01,2.600000000000000089e-01
3.096505394999999883e+00,-1.050897790999999915e+00,3.668197314709202850e-01,1.000000000000000048e-04,4.118260704263576599e+01,3.300000000000000155e-01
1.264206060000000020e+00,-1.108314516000000083e+00,4.227450958254801439e-01,1.000000000000000048e-04,4.190510613873534851e+01,2.500000000000000000e-01
2.317080779999999951e+00,-1.080569537999999996e+00,3.723608392428645608e-01,1.000000000000000048e-04,4.135146224174437890e+01,2.399999999999999911e-01
2.308161032000000112e+00,-1.080284865999999955e+00,8.197399813448014161e-01,1.000000000000000048e-04,4.457738198795996709e+01,3.900000000000000133e-01
1.213089824000000094e+00,-1.095999417000000031e+00,6.128760899939726947e-01,1.000000000000000048e-04,4.291854348779252604e+01,2.700000000000000178e-01
3.095344697999999894e+00,-1.044259242999999948e+00,8.792236332021010625e-01,1.000000000000000048e-04,4.388859432245545378e+01,2.200000000000000011e-01
3.093500166000000107e+00,-1.047656949999999920e+00,1.425776135961502877e-01,1.000000000000000048e-04,3.925110032510274749e+01,2.300000000000000100e-01
2.871266652000000086e+00,-1.064917746999999970e+00,4.443958781451022855e-01,1.000000000000000048e-04,4.181336215370750864e+01,2.500000000000000000e-01
2.872879009000000039e+00,-1.076645507999999918e+00,3.738893078660867619e-01,1.000000000000000048e-04,4.129637038095443557e+01,2.099999999999999922e-01
1.241294699000000001e+00,-1.109043570000000090e+00,5.314571524327433849e-01,1.000000000000000048e-04,4.298045522560995124e+01,2.099999999999999922e-01
1.238788393000000099e+00,-1.083197141000000085e+00,1.491941529438338687e-01,1.000000000000000048e-04,3.966188396640022518e+01,2.999999999999999889e-01
-3.140928712179586135e+00,-1.049943351000000025e+00,3.063047164488583718e-01,1.000000000000000048e-04,4.155884074498157332e+01,2.200000000000000011e-01
2.897074545000000168e+00,-1.050668165000000043e+00,1.275463620337980775e+00,1.000000000000000048e-04,4.494813488267221402e+01,2.099999999999999922e-01
3.133488720999999977e+00,-1.053899826000000095e+00,7.971483527544966918e-01,1.000000000000000048e-04,4.337657192548038410e+01,2.300000000000000100e-01
2.854965548000000020e+00,-1.051119023000000041e+00,2.217603022856899919e-01,1.000000000000000048e-04,4.017522334473061818e+01,3.200000000000000067e-01
2.846666281000000076e+00,-1.061494909000000098e+00,7.864041269806463230e-01,1.000000000000000048e-04,4.324838663788064252e+01,2.600000000000000089e-01
1.477625364000000108e+00,-9.892628350000000070e-01,2.076096523031438768e-01,1.000000000000000048e-04,4.004936411120920781e+01,2.000000000000000111e-01
-2.998301261179586064e+00,-5.567642400000000213e-01,7.179669601342639762e-01,1.000000000000000048e-04,4.336687035865458739e+01,1.799999999999999933e-01
2.915910107000000195e+00,-9.248875840000000403e-01,9.110423078084126658e-01,1.000000000000000048e-04,4.352990010401551757e+01,2.999999999999999889e-01
2.904218159000000021e+00,-9.279150130000000107e-01,2.447036145543557417e-01,1.000000000000000048e-04,4.060775451614141218e+01,2.399999999999999911e-01
2.945746643000000109e+00,-9.241091030000000428e-01,2.124271426877015756e-01,1.000000000000000048e-04,4.032975655130091752e+01,2.300000000000000100e-01
2.195221751000000054e+00,9.567984520000000215e-01,3.072155697908349747e-01,1.000000000000000048e-04,4.127392382375555258e+01,2.200000000000000011e-01
-2.382074272179586227e+00,-9.504311730000000180e-01,2.510341665172912684e-01,1.000000000000000048e-04,4.042013402062006122e+01,2.300000000000000100e-01
2.197803225999999999e+00,9.560313849999999558e-01,2.157648998483356895e-01,1.000000000000000048e-04,4.014353027953696795e+01,2.300000000000000100e-01
-2.380846050179586282e+00,-9.512843520000000552e-01,1.227374093096299745e+00,1.000000000000000048e-04,4.446451982049536156e+01,2.600000000000000089e-01
-2.382960995179586039e+00,-9.501026420000000527e-01,3.785983500887346587e-01,1.000000000000000048e-04,4.173670042080070175e+01,2.099999999999999922e-01
2.192165822000000208e+00,9.554729659999999791e-01,1.310018601823603746e+00,1.000000000000000048e-04,4.482310515277116281e+01,2.899999999999999800e-01
-2.383512939179586176e+00,-9.505219620000000535e-01,3.802381521495981076e-01,1.000000000000000048e-04,4.159409385605005838e+01,2.000000000000000111e-01
2.197044292000000176e+00,9.582492320000000063e-01,1.538054615054904595e-01,1.000000000000000048e-04,3.919669319189514312e+01,2.500000000000000000e-01
2.198013217999999824e+00,9.570721989999999568e-01,2.283656508024947129e-01,1.000000000000000048e-04,4.041862979306390713e+01,2.099999999999999922e-01
2.198391541999999976e+00,9.561199929999999458e-01,1.735142041607842245e-01,1.000000000000000048e-04,3.980042049450347719e+01,2.300000000000000100e-01
2.199218732999999926e+00,9.570277640000000030e-01,2.291666472852931236e-01,1.000000000000000048e-04,4.050880064841547323e+01,2.200000000000000011e-01
2.196667974999999995e+00,9.569524729999999701e-01,7.152723798651829945e-01,1.000000000000000048e-04,4.323501690184185975e+01,2.399999999999999911e-01
2.196400267000000017e+00,9.571105250000000453e-01,7.502014910964265315e-01,1.000000000000000048e-04,4.315185681167920251e+01,2.500000000000000000e-01
2.195980999000000100e+00,9.563170869999999546e-01,1.788880758770472479e-01,1.000000000000000048e-04,3.967970166521472208e+01,2.200000000000000011e-01
2.198886345000000020e+00,9.574225640000000315e-01,1.336484393569479234e-01,1.000000000000000048e-04,3.912829702461590387e+01,3.300000000000000155e-01
-2.382942164179586264e+00,-9.487821469999999646e-01,2.247830116094398090e-01,1.000000000000000048e-04,4.026291268528194678e+01,2.000000000000000111e-01
2.197058621000000045e+00,9.568337070000000333e-01,8.461839990951176560e-01,1.000000000000000048e-04,4.348715476316472461e+01,2.600000000000000089e-01
2.196754174000000059e+00,9.569828230000000380e-01,6.545968452034554019e-01,1.000000000000000048e-04,4.293776256481147868e+01,2.399999999999999911e-01
-2.381905888179586039e+00,-9.494029419999999719e-01,3.125183205352388693e-01,1.000000000000000048e-04,4.135974380481634682e+01,2.399999999999999911e-01
-2.382353656179586388e+00,-9.501919130000000546e-01,2.520096023592992562e-01,1.000000000000000048e-04,4.026415520976883045e+01,2.600000000000000089e-01
-2.385313647179586383e+00,-9.492824659999999914e-01,1.591092384300498708e-01,1.000000000000000048e-04,3.897482479541857714e+01,2.399999999999999911e-01
-2.383308463179586223e+00,-9.502672559999999491e-01,3.117450401701551410e-01,1.000000000000000048e-04,4.101275418789295912e+01,2.000000000000000111e-01
2.194446376000000143e+00,9.548028840000000184e-01,4.450773745111400448e-01,1.000000000000000048e-04,4.225912086435690895e+01,3.699999999999999956e-01
-2.377678389179586294e+00,-9.493284189999999789e-01,6.270526024916189822e-01,1.000000000000000048e-04,4.300156968016334957e+01,3.099999999999999978e-01
2.195048706000000127e+00,9.553664520000000326e-01,2.330350656413078259e-01,1.000000000000000048e-04,4.041874109772408730e+01,2.399999999999999911e-01
2.194988459000000169e+00,9.569281090000000267e-01,3.332737684132167644e-01,1.000000000000000048e-04,4.131437931923129980e+01,2.099999999999999922e-01
2.198773670000000013e+00,9.585742720000000050e-01,2.847709314961541782e-01,1.000000000000000048e-04,4.106685588313651891e+01,2.800000000000000266e-01
2.196007632000000154e+00,9.574002940000000406e-01,4.124795696598828609e-01,1.000000000000000048e-04,4.134935292435068277e+01,2.800000000000000266e-01
2.193610842000000005e+00,9.569156829999999614e-01,8.593838638579116562e-01,1.000000000000000048e-04,4.362546950968294368e+01,2.099999999999999922e-01
2.194846306000000080e+00,9.574700699999999509e-01,5.708123043586872392e-01,1.000000000000000048e-04,4.261139515251056764e+01,2.300000000000000100e-01
-2.901318991795864832e-01,1.086903570000000041e+00,6.090607127129514797e-01,1.000000000000000048e-04,4.278179921081209613e+01,2.000000000000000111e-01
-2.914486071795865385e-01,1.085909494999999891e+00,2.966557374862102137e-01,1.000000000000000048e-04,4.097281800727952827e+01,1.000000000000000056e-01
-2.954610881795858290e-01,1.084462065999999947e+00,4.978139244256138962e-01,1.000000000000000048e-04,4.223428867249381824e+01,1.199999999999999956e-01
-3.403197011795864313e-01,1.090760651000000081e+00,6.866189063710281815e-01,1.000000000000000048e-04,4.317450025765359811e+01,8.999999999999999667e-02
-3.429455761795860980e-01,1.087892671000000089e+00,6.468374687589688588e-01,1.000000000000000048e-04,4.297507911826873794e+01,1.400000000000000133e-01
6.896152909999999636e-01,-9.249195220000000495e-01,1.655829563580408781e-01,1.000000000000000048e-04,3.952663273594045279e+01,2.000000000000000111e-01
1.024453132999999960e+00,1.182715689999999986e+00,4.141853971268316670e-01,1.000000000000000048e-04,4.176937758481317076e+01,1.900000000000000022e-01
1.006083177000000051e+00,1.165244638999999971e+00,1.835749070903767155e-01,1.000000000000000048e-04,3.946877661671415183e+01,1.700000000000000122e-01
9.905969959999999519e-01,1.153001898999999941e+00,1.299077053253224534e+00,1.000000000000000048e-04,4.527568297833052213e+01,3.499999999999999778e-01
2.950804928999999799e+00,-1.010655210999999998e+00,5.363735201999348945e-01,1.000000000000000048e-04,4.247825235235001884e+01,1.700000000000000122e-01
2.951637304000000128e+00,-1.010683065999999908e+00,3.762770327526443470e-01,1.000000000000000048e-04,4.176273933978268360e+01,1.900000000000000022e-01
-2.349248843179586377e+00,-9.322901449999999590e-01,1.682853790695781893e-01,1.000000000000000048e-04,3.953523139815477094e+01,1.900000000000000022e-01
