7.014473677544876828e-01,5.864484995747685225e-01,2.124131371269004642e-01,1.000000000000000048e-04,4.015237353921992280e+01,1.700000000000000122e-01
1.302967723075604489e+00,1.351797855062170761e+00,2.419560894545529361e-01,1.000000000000000048e-04,4.027867316829885880e+01,1.600000000000000033e-01
-3.923933266239223450e-01,8.893487655233247580e-01,7.216561029936541249e-01,1.000000000000000048e-04,4.360601188310749166e+01,1.600000000000000033e-01
-5.480403193986207455e-01,-1.593028603104262864e-01,5.057980926106406816e-01,1.000000000000000048e-04,4.247823836075804849e+01,1.600000000000000033e-01
-1.586668568145646940e+00,3.311670190394622182e-02,4.962626891730042011e-01,1.000000000000000048e-04,4.214406083670459680e+01,1.900000000000000022e-01
4.358845060197138466e-01,-1.192820296386817747e+00,3.797308491155340082e-01,1.000000000000000048e-04,4.137297295699607957e+01,1.600000000000000033e-01
-2.115012218573708580e-02,-1.324617928820906787e+00,2.914120755292579634e-01,1.000000000000000048e-04,4.078238242120775681e+01,1.700000000000000122e-01
1.825968835570201065e+00,-1.104325693851549772e+00,6.143536829108449115e-01,1.000000000000000048e-04,4.267442449869551524e+01,1.600000000000000033e-01
2.757348861294723008e+00,5.630221730161970584e-01,2.620662281316594733e-01,1.000000000000000048e-04,4.073329986377440548e+01,1.600000000000000033e-01
-1.126604928690488894e+00,3.694147785779178239e-01,1.628709059602035936e-01,1.000000000000000048e-04,3.976277637078494109e+01,2.200000000000000011e-01
1.566299762825075881e+00,-1.088603715685210860e+00,4.339491230724146220e-01,1.000000000000000048e-04,4.179416266687795201e+01,8.999999999999999667e-02
2.855203120993564880e+00,1.736420766300403873e-01,2.707384776278101146e-01,1.000000000000000048e-04,4.062806549685954849e+01,8.000000000000000167e-02
1.228874573854055186e-02,-1.054644203117417689e+00,4.884032529245918575e-01,1.000000000000000048e-04,4.215774244428776996e+01,1.100000000000000006e-01
-6.231527365570865840e-03,-2.083968800959563605e-01,2.854003982803852146e-01,1.000000000000000048e-04,4.085851507861134024e+01,1.600000000000000033e-01
2.456748239703069991e+00,-7.991053830713734651e-01,3.962873953591081744e-01,1.000000000000000048e-04,4.170112420769360284e+01,1.300000000000000044e-01
1.703179686801885140e+00,8.291833143958511343e-01,1.559484586192156907e-01,1.000000000000000048e-04,3.936189430277778456e+01,8.999999999999999667e-02
3.253969406006911314e-01,4.489829946179679787e-01,5.960799566638845803e-01,1.000000000000000048e-04,4.304003479394686593e+01,2.099999999999999922e-01
-4.755261200963984969e-01,-8.173307103538097751e-01,1.868464042709629958e-01,1.000000000000000048e-04,3.962099886722045028e+01,1.799999999999999933e-01
-3.080764820789935854e+00,-6.186697216446268577e-02,5.170708279179496714e-01,1.000000000000000048e-04,4.210042687073151768e+01,1.600000000000000033e-01
6.822875810572779365e-01,1.436044431583928915e+00,7.197492659217252786e-01,1.000000000000000048e-04,4.327838913692593792e+01,1.799999999999999933e-01
-1.537126348295388079e+00,-6.575494237326395819e-03,1.849296290669335541e-01,1.000000000000000048e-04,3.992195367813258144e+01,1.600000000000000033e-01
-1.031434784285258477e+00,1.213631324561131652e+00,8.192588607282806912e-01,1.000000000000000048e-04,4.380133251526824978e+01,2.000000000000000111e-01
1.477576135897664678e+00,1.259806704387091081e+00,2.204248690175307779e-01,1.000000000000000048e-04,4.006668962712829796e+01,1.700000000000000122e-01
2.652845559609176007e+00,2.364503438720122475e-02,2.425744915416454539e-01,1.000000000000000048e-04,4.055279434237306901e+01,1.700000000000000122e-01
1.076671804239547114e+00,-1.999321471600750133e-01,4.929891763765485990e-01,1.000000000000000048e-04,4.203506561225556482e+01,1.700000000000000122e-01
2.479304945942475413e-01,6.157153585726886647e-01,6.759948484392925838e-01,1.000000000000000048e-04,4.315624469974898147e+01,2.000000000000000111e-01
-2.297153395904398820e-01,-6.899219251289110399e-01,1.226951175189328058e+00,1.000000000000000048e-04,4.444905528878604883e+01,1.900000000000000022e-01
5.182848754564033378e-01,-9.916016431585452651e-01,6.189488306428452269e-01,1.000000000000000048e-04,4.281622300237033585e+01,1.700000000000000122e-01
-1.012203449050441684e+00,-1.209418519181002960e+00,1.839057585269991968e-01,1.000000000000000048e-04,3.981112002918511195e+01,1.000000000000000056e-01
-2.431119393112467719e+00,1.123696240956019388e+00,1.334903632259391681e+00,1.000000000000000048e-04,4.497452147979245041e+01,1.000000000000000056e-01
-2.106970082567208635e+00,5.487392234722836548e-01,5.823651181973221735e-01,1.000000000000000048e-04,4.270460730636025204e+01,1.100000000000000006e-01
-1.562837052060520593e+00,-3.678514533784877916e-01,3.100752254880123626e-01,1.000000000000000048e-04,4.099167367159286357e+01,1.199999999999999956e-01
-9.610268223994791192e-01,-7.230456568154035590e-01,7.554155069353645224e-01,1.000000000000000048e-04,4.341241557557201247e+01,1.300000000000000044e-01
-2.826615346455997990e+00,3.127677528854357902e-01,3.898183809658986032e-01,1.000000000000000048e-04,4.170273067227493158e+01,1.199999999999999956e-01
1.613050640909113653e+00,-7.479323264338189059e-01,7.304893465873714131e-01,1.000000000000000048e-04,4.322832734552959977e+01,1.499999999999999944e-01
1.927121071348518733e+00,-8.099855920709964074e-02,1.016922715569517965e+00,1.000000000000000048e-04,4.392285763107519614e+01,2.200000000000000011e-01
-2.832847311550488634e+00,5.011632487983010975e-01,1.559756796327005368e-01,1.000000000000000048e-04,3.952923100727820582e+01,1.199999999999999956e-01
1.192752284841422039e+00,-1.007792837372956107e-01,4.811454331756175318e-01,1.000000000000000048e-04,4.239095501044561587e+01,1.600000000000000033e-01
-1.584872261272076699e-01,6.096924311606666258e-01,5.375324134629368977e-01,1.000000000000000048e-04,4.226894740874140410e+01,2.200000000000000011e-01
-2.398862468622330102e+00,-4.361306103069684248e-02,3.159919721365223033e-01,1.000000000000000048e-04,4.118149171374006556e+01,2.200000000000000011e-01
-8.797912013079551841e-01,-2.226632716458001315e-01,2.828342565410399967e-01,1.000000000000000048e-04,4.074535306554471248e+01,1.300000000000000044e-01
2.562112891306642659e+00,-9.859378914157623797e-02,6.297091008413797653e-01,1.000000000000000048e-04,4.279994520646879153e+01,1.600000000000000033e-01
-1.862910528516672493e+00,4.439528995551187407e-01,1.715112116914740970e-01,1.000000000000000048e-04,3.947108151649144503e+01,2.099999999999999922e-01
2.764725582466478926e+00,-8.861766302924645178e-01,1.890135372228043398e-01,1.000000000000000048e-04,4.007199486208647699e+01,2.000000000000000111e-01
-1.614544286763280656e+00,4.624678188691353498e-01,4.504301603514129226e-01,1.000000000000000048e-04,4.192414587233817969e+01,2.000000000000000111e-01
-2.187026447478326752e+00,9.735560064759263277e-02,8.740362338356135741e-01,1.000000000000000048e-04,4.397184573198671131e+01,2.500000000000000000e-01
-2.913462014890328966e-01,-4.739391670350630026e-01,6.155758284058745478e-01,1.000000000000000048e-04,4.288543830332077533e+01,2.200000000000000011e-01
2.221021539657064281e+00,-8.317867494279381768e-01,4.785669665046456966e-01,1.000000000000000048e-04,4.222503153727573988e+01,1.199999999999999956e-01
-1.394340890945607869e+00,3.131073246392317433e-01,1.122918939206369870e+00,1.000000000000000048e-04,4.442470737071997178e+01,1.400000000000000133e-01
-3.006639138636368447e+00,-5.198144158195874276e-01,6.854188752006376006e-01,1.000000000000000048e-04,4.311258190912842991e+01,1.400000000000000133e-01
-2.587449348377147018e+00,-8.575602127841986944e-01,3.618396570513311428e-01,1.000000000000000048e-04,4.144660605861712099e+01,1.100000000000000006e-01
1.981097185399233851e+00,1.232924598233675617e-01,2.561178942780764078e-01,1.000000000000000048e-04,4.059506501184718275e+01,1.199999999999999956e-01
1.679137792881558511e+00,5.509790394444640249e-01,1.267330873029248739e-01,1.000000000000000048e-04,3.884462229905501829e+01,2.000000000000000111e-01
-5.418457224274662032e-01,6.112852598361238066e-01,1.944414011246122787e-01,1.000000000000000048e-04,3.980597037483576628e+01,1.199999999999999956e-01
-7.259767900468379054e-01,3.592222879870916596e-01,3.216670151340990103e-01,1.000000000000000048e-04,4.117561557425965191e+01,1.499999999999999944e-01
-3.014311044562152819e+00,-1.109370212709416936e+00,2.607140677898647230e-01,1.000000000000000048e-04,4.065939802435102024e+01,1.499999999999999944e-01
4.089378759682342768e-01,-4.545165431772548725e-01,9.474441724671234244e-01,1.000000000000000048e-04,4.404847543647765917e+01,1.100000000000000006e-01
5.069677950440056868e-01,-7.592996080948336557e-01,1.766453405521248854e-01,1.000000000000000048e-04,3.965439961407088276e+01,1.199999999999999956e-01
-1.493257035115718168e-01,-7.073727601600080517e-01,4.682691576688049473e-01,1.000000000000000048e-04,4.215289295002542502e+01,1.300000000000000044e-01
4.042043828865544697e-01,9.407118685349553644e-01,3.049217269130448660e-01,1.000000000000000048e-04,4.109375316616207385e+01,1.300000000000000044e-01
8.905313163691950251e-01,-3.824231345008954897e-01,1.294546744213060485e+00,1.000000000000000048e-04,4.473673848686950549e+01,1.100000000000000006e-01
2.030171185553312441e+00,-2.636926551929250628e-01,2.672576935660022635e-01,1.000000000000000048e-04,4.062685020557519522e+01,1.600000000000000033e-01
-3.054289385922928091e+00,-1.373236924533355552e+00,5.011142660657557091e-01,1.000000000000000048e-04,4.235580460885893217e+01,1.199999999999999956e-01
2.179293112620513284e+00,-1.012605809511595290e-01,4.382426213980117335e-01,1.000000000000000048e-04,4.191208759009609253e+01,1.300000000000000044e-01
-1.818513214778816334e-01,-5.912285132736497806e-01,2.168636210690515487e-01,1.000000000000000048e-04,4.029800140808397657e+01,1.199999999999999956e-01
6.375524488641279852e-01,8.788616884462263634e-01,2.017105991615031346e-01,1.000000000000000048e-04,3.981319792564941906e+01,1.700000000000000122e-01
8.621928931077302849e-01,-1.163063977741379373e+00,6.800370124444958808e-01,1.000000000000000048e-04,4.303444279203992551e+01,1.100000000000000006e-01
-7.350823636745751344e-02,-6.782932919692421514e-01,4.079464079472860938e-01,1.000000000000000048e-04,4.189731612518373538e+01,1.100000000000000006e-01
-1.454814590256482854e+00,-1.228846798322457801e+00,2.277122359826377895e-01,1.000000000000000048e-04,4.010826204450367527e+01,1.199999999999999956e-01
-1.421197772342434051e+00,-1.375091708726561279e-01,1.659772626640749760e-01,1.000000000000000048e-04,3.955316030252776471e+01,1.499999999999999944e-01
9.749532850361113390e-01,-5.204804269086404922e-02,3.425554149990617248e-01,1.000000000000000048e-04,4.144385817530121585e+01,1.199999999999999956e-01
-1.132842766944852642e-01,-4.422583997605415984e-01,8.617210701340103363e-01,1.000000000000000048e-04,4.364446496216051230e+01,1.400000000000000133e-01
-3.056535106953333081e+00,1.344919224150974646e+00,7.070006980804104391e-01,1.000000000000000048e-04,4.335371697319852302e+01,1.199999999999999956e-01
-2.005602683639951866e+00,-1.166499766855632725e+00,4.763043768670611744e-01,1.000000000000000048e-04,4.221732663521490991e+01,1.100000000000000006e-01
-3.526307343405612471e-01,1.752795945662954935e-01,8.998380811337904905e-01,1.000000000000000048e-04,4.386162655731496329e+01,1.100000000000000006e-01
-1.348293440531133092e+00,7.985854139769892335e-01,1.508935014016741238e-01,1.000000000000000048e-04,3.924162619594407175e+01,1.300000000000000044e-01
-1.213894172049138076e+00,-2.852358835225650147e-01,4.537584087858552717e-01,1.000000000000000048e-04,4.215633359611383213e+01,1.400000000000000133e-01
8.732660054607945810e-01,6.822354357042561546e-01,1.565451011299894279e-01,1.000000000000000048e-04,3.946128892928778953e+01,1.199999999999999956e-01
-1.607655209461439805e+00,7.571788988627106143e-01,1.048094850266435785e+00,1.000000000000000048e-04,4.407500899479488510e+01,1.100000000000000006e-01
-2.713126166379401294e+00,-2.574509516152700961e-01,3.829321770476372677e-01,1.000000000000000048e-04,4.135791508484631152e+01,1.199999999999999956e-01
2.614015407650885692e+00,-8.210973321469494657e-02,2.603716189228215683e-01,1.000000000000000048e-04,4.064662773249652616e+01,1.199999999999999956e-01
-2.847948132030951651e+00,-8.358172871610102250e-01,2.655735341672535998e-01,1.000000000000000048e-04,4.050240143731091536e+01,1.300000000000000044e-01
1.971705900186812244e+00,-1.120352268660631090e+00,5.773435410448504168e-01,1.000000000000000048e-04,4.252748557160555265e+01,1.199999999999999956e-01
3.061705636712500400e+00,1.381234211660103295e+00,5.205486820621632038e-01,1.000000000000000048e-04,4.225618503519988423e+01,1.100000000000000006e-01
4.542615533770746339e-01,-7.864437963028895195e-01,9.339498773836667489e-01,1.000000000000000048e-04,4.373506069416852426e+01,1.199999999999999956e-01
-1.921359511030428457e+00,5.801735913351881990e-01,4.475281434208790987e-01,1.000000000000000048e-04,4.191923197239091081e+01,1.700000000000000122e-01
3.072868719087612277e+00,-1.016074172211964832e-01,2.301819016025812292e-01,1.000000000000000048e-04,4.042897616227830326e+01,1.400000000000000133e-01
2.737775149496036953e+00,-2.697624833999385796e-01,3.207472830838506983e-01,1.000000000000000048e-04,4.108610658435673457e+01,1.199999999999999956e-01
6.976246303585504904e-01,4.885611026279601532e-04,3.759038033532391410e-01,1.000000000000000048e-04,4.125530756164911850e+01,1.600000000000000033e-01
-2.148159174634036273e+00,9.413220813202727300e-03,2.784808830891629672e-01,1.000000000000000048e-04,4.039952435242631168e+01,1.700000000000000122e-01
-1.948986061243360712e+00,-6.625077090584822193e-01,3.141673199019792140e-01,1.000000000000000048e-04,4.094323077647312914e+01,1.499999999999999944e-01
2.726441487906066108e-01,7.264564034225906575e-01,1.046886044250416425e+00,1.000000000000000048e-04,4.426813037102092352e+01,1.100000000000000006e-01
1.047171169166579929e+00,5.287936315571584167e-02,6.187516029284341190e-01,1.000000000000000048e-04,4.312860203252161995e+01,2.000000000000000111e-01
3.118501649208511139e+00,-2.375071696051449521e-01,5.478195139333037478e-01,1.000000000000000048e-04,4.273708645112138527e+01,1.300000000000000044e-01
-2.374603185929139215e+00,3.679601666477374522e-01,5.757543560600966170e-01,1.000000000000000048e-04,4.243550705216473773e+01,1.499999999999999944e-01
2.114024298748328867e+00,-4.593425737164673617e-01,6.848935650883933857e-01,1.000000000000000048e-04,4.297789649958897940e+01,1.100000000000000006e-01
-2.320915599482940905e+00,1.988838273369935017e-01,1.900656570968524139e-01,1.000000000000000048e-04,4.005235819290730603e+01,1.199999999999999956e-01
-2.815153187107107602e+00,4.622985199720814897e-01,1.274727257259747226e+00,1.000000000000000048e-04,4.462474371339465762e+01,1.100000000000000006e-01
2.952244566918561297e+00,-7.508141388646828451e-01,4.939923850111909154e-01,1.000000000000000048e-04,4.232142008194610128e+01,1.100000000000000006e-01
-3.374266285956837308e-01,7.044522283616352354e-01,3.010745178985689829e-01,1.000000000000000048e-04,4.061387556318886283e+01,2.099999999999999922e-01
-1.438166512416775511e+00,4.104046296017003215e-01,1.482759463922718179e-01,1.000000000000000048e-04,3.901598827225540589e+01,1.199999999999999956e-01
-1.822708613089585095e+00,-7.101873545729736614e-01,3.000562567899947020e-01,1.000000000000000048e-04,4.087544784889748684e+01,1.199999999999999956e-01
-2.816444573890819036e+00,-1.764476122967257865e-01,7.110556433995589565e-01,1.000000000000000048e-04,4.286745906919129823e+01,1.199999999999999956e-01
2.460934302317292044e+00,-4.404363116217835383e-01,5.365571010587186773e-01,1.000000000000000048e-04,4.220891505327830373e+01,1.700000000000000122e-01
1.918092981958550602e+00,1.074988334882631680e-01,1.262253052410119647e+00,1.000000000000000048e-04,4.468153463934461200e+01,1.100000000000000006e-01
7.937998717517396052e-01,2.507970887583219621e-01,3.616508033132801447e-01,1.000000000000000048e-04,4.177275744566819071e+01,2.099999999999999922e-01
-2.578006931546068081e+00,6.577013108699971689e-01,1.494324675228817512e-01,1.000000000000000048e-04,3.934305902506521591e+01,1.300000000000000044e-01
7.663039676851082227e-01,3.357248081528789729e-01,2.724535319804952671e-01,1.000000000000000048e-04,4.073221354493104229e+01,1.199999999999999956e-01
3.753591891880159181e-01,4.193049279667215856e-02,4.400304283237030933e-01,1.000000000000000048e-04,4.202570162680409283e+01,1.300000000000000044e-01
-1.903703978239519756e+00,5.293556814293536306e-01,2.170323478357265579e-01,1.000000000000000048e-04,4.024688861330307788e+01,1.799999999999999933e-01
-3.552287047696101041e-01,-2.136475167893372440e-01,6.390937478317086917e-01,1.000000000000000048e-04,4.314695545934562659e+01,1.199999999999999956e-01
2.224677837051598495e+00,1.092858857494189095e+00,1.313887122416319553e+00,1.000000000000000048e-04,4.493825881109504650e+01,1.199999999999999956e-01
-2.241038130818121310e+00,-2.119790848266476235e-01,1.490505577016805194e-01,1.000000000000000048e-04,3.925656483349130355e+01,1.900000000000000022e-01
-1.354329480418589693e+00,2.806181630628439283e-01,1.926199798319119250e-01,1.000000000000000048e-04,3.993991157929612257e+01,1.300000000000000044e-01
-1.057588587286057091e+00,6.017420559768158483e-01,1.751587206084126436e-01,1.000000000000000048e-04,3.953394381996369589e+01,1.499999999999999944e-01
4.491861142188926515e-01,2.837952402894783344e-01,3.316673610323344068e-01,1.000000000000000048e-04,4.143043631956244610e+01,1.499999999999999944e-01
1.175620301473101037e+00,1.258375445844042151e-01,5.048043960060573099e-01,1.000000000000000048e-04,4.245638119006161304e+01,1.400000000000000133e-01
-7.513092899161510907e-01,-3.674048284417288368e-01,4.638455277386857034e-01,1.000000000000000048e-04,4.237490599354021725e+01,1.400000000000000133e-01
-7.646998716055293244e-01,1.464203856122192615e-01,1.393317870440640149e-01,1.000000000000000048e-04,3.909570798890693055e+01,1.199999999999999956e-01
-2.626744165467850056e+00,-8.785961859603380608e-01,3.481959472784978971e-01,1.000000000000000048e-04,4.144845079683786082e+01,1.199999999999999956e-01
-2.016448155728231217e+00,-2.627153207091850184e-01,4.458651288512669453e-01,1.000000000000000048e-04,4.207049356385675765e+01,1.100000000000000006e-01
-2.138176314246587939e+00,-5.638412854565995058e-01,1.778037456504570901e-01,1.000000000000000048e-04,3.956273322385929703e+01,1.100000000000000006e-01
-1.366613590788382515e+00,6.471151472122240733e-01,4.000560286270686827e-01,1.000000000000000048e-04,4.178018459545481278e+01,1.400000000000000133e-01
2.538719807596018008e+00,-9.410277887251550233e-02,5.913680859404373269e-01,1.000000000000000048e-04,4.291321972881731739e+01,1.499999999999999944e-01
-2.023904308804601815e+00,8.729868465496055663e-01,8.704281881640492102e-01,1.000000000000000048e-04,4.355652101643224228e+01,1.199999999999999956e-01
5.023498084903148531e-01,-2.486827972934406716e-01,6.228292127940404654e-01,1.000000000000000048e-04,4.284747401472282036e+01,2.099999999999999922e-01
1.559827382841332266e-01,-1.155309768997138553e+00,1.061467600836787817e+00,1.000000000000000048e-04,4.441649346133472420e+01,1.300000000000000044e-01
-4.278509243084283042e-01,-3.574471520142576964e-01,5.113842187678652174e-01,1.000000000000000048e-04,4.227781220191461387e+01,1.400000000000000133e-01
-1.694690166003052445e+00,-3.708191863609464622e-01,8.805487508344262970e-01,1.000000000000000048e-04,4.383183613018414349e+01,1.199999999999999956e-01
2.538778453861804785e+00,9.704233759320217700e-01,1.187370684485256067e-01,1.000000000000000048e-04,3.861854755347309975e+01,1.199999999999999956e-01
-1.381884441670471642e+00,4.281931760594066549e-01,2.263443486750402744e-01,1.000000000000000048e-04,4.029171211586870527e+01,1.100000000000000006e-01
-2.672216891299283859e-02,9.118763706695109938e-01,1.059036195643745515e+00,1.000000000000000048e-04,4.428728805862568407e+01,1.300000000000000044e-01
2.965865485669832324e+00,4.200332370952282179e-01,3.832817272067514658e-01,1.000000000000000048e-04,4.145368672039148095e+01,1.199999999999999956e-01
-4.229747032796589146e-01,-8.108785394143267489e-01,3.816440476991977970e-01,1.000000000000000048e-04,4.145686446080009802e+01,1.199999999999999956e-01
-1.545687782139806954e+00,-5.719341936539013016e-01,5.063447922960637726e-01,1.000000000000000048e-04,4.226889444295122900e+01,1.300000000000000044e-01
-1.452358887930712550e+00,-7.162442650868141580e-01,1.664108140521434187e-01,1.000000000000000048e-04,3.958170342305111689e+01,1.300000000000000044e-01
-7.771146863738715993e-01,-2.871071625498133884e-01,7.148487498165612131e-01,1.000000000000000048e-04,4.321479448614181962e+01,1.199999999999999956e-01
-9.648670127917484685e-01,2.757725798248578108e-02,6.351053231712668889e-01,1.000000000000000048e-04,4.271079116793813313e+01,1.199999999999999956e-01
-1.080134202816299016e+00,7.077474480204277718e-01,3.577348226197105685e-01,1.000000000000000048e-04,4.124044955926480327e+01,1.300000000000000044e-01
-2.063199328051985137e+00,-4.796316694849922513e-02,2.417575970824634712e-01,1.000000000000000048e-04,4.032777209621065850e+01,1.199999999999999956e-01
-2.814667853035916156e+00,5.032431420889516005e-02,3.615057009927460374e-01,1.000000000000000048e-04,4.148924348156911179e+01,1.199999999999999956e-01
-4.676036249605424189e-01,3.106227460656147965e-01,1.536745633293903346e-01,1.000000000000000048e-04,3.930427376222004909e+01,1.199999999999999956e-01
3.453073243115261093e-01,-2.010307603005740962e-01,3.598346924124484758e-01,1.000000000000000048e-04,4.134842914157138694e+01,1.499999999999999944e-01
-1.017989823782821990e+00,-2.038493559104872510e-01,6.755677978743883649e-01,1.000000000000000048e-04,4.336768675389620853e+01,1.199999999999999956e-01
2.006719454486001197e+00,-7.777926521764617629e-01,7.718864284082476157e-01,1.000000000000000048e-04,4.345831013467508086e+01,2.000000000000000111e-01
3.811823289006177617e-01,-2.021379059185781646e-01,1.209577664036665112e-01,1.000000000000000048e-04,3.858907359531332304e+01,2.000000000000000111e-01
1.176755497139009954e+00,3.656129167709583072e-01,1.516010854879390468e-01,1.000000000000000048e-04,3.942993533743425871e+01,1.400000000000000133e-01
-3.322021019463798908e-01,-7.964331515258110672e-01,2.603143820399389519e-01,1.000000000000000048e-04,4.061687481248870313e+01,1.199999999999999956e-01
1.488638341145998467e+00,-5.802176646517244185e-01,6.286782312982452936e-01,1.000000000000000048e-04,4.290983993202011249e+01,1.300000000000000044e-01
1.324859451525673748e+00,2.418206107892528767e-01,2.103542150109620756e-01,1.000000000000000048e-04,4.011495925494923398e+01,1.799999999999999933e-01
1.618981583577949301e+00,3.272426574756381878e-01,8.669975698275700360e-01,1.000000000000000048e-04,4.360102100086268706e+01,1.499999999999999944e-01
1.003297842785071836e+00,6.006477180957223716e-01,2.059065314292753968e-01,1.000000000000000048e-04,4.002278961483339970e+01,1.100000000000000006e-01
-1.923409574730628124e+00,1.362187502844500742e-01,3.682715784959786909e-01,1.000000000000000048e-04,4.142987752209653252e+01,1.199999999999999956e-01
-1.800552903536209337e+00,-5.420344822819895825e-01,5.110943948489503619e-01,1.000000000000000048e-04,4.235839336137773614e+01,1.499999999999999944e-01
1.745186100809879903e+00,-1.115218772500776057e+00,1.805600092241255172e-01,1.000000000000000048e-04,3.993691651030012935e+01,1.900000000000000022e-01
2.795062883382088081e+00,-1.191847824486580443e-01,4.449163722013929068e-01,1.000000000000000048e-04,4.217380492012127036e+01,1.799999999999999933e-01
-1.245535045337601732e+00,3.914611388063953257e-01,2.243879006385323116e-01,1.000000000000000048e-04,4.032884282517039054e+01,1.499999999999999944e-01
2.988004051906951730e-01,3.548939009281408818e-01,4.792489350915918322e-01,1.000000000000000048e-04,4.240042651883828739e+01,1.499999999999999944e-01
-1.511898724924972237e+00,7.720854817506106471e-01,6.797908366793365964e-01,1.000000000000000048e-04,4.243550676016721468e+01,3.599999999999999867e-01
1.681094402917676867e+00,-3.263749567958234010e-01,1.202027830933680708e-01,1.000000000000000048e-04,3.817973353274683745e+01,3.900000000000000133e-01
1.444401389565591387e+00,9.169331115861645287e-02,7.934353055888867523e-01,1.000000000000000048e-04,4.291972779936241977e+01,3.900000000000000133e-01
-7.678802587812367797e-01,5.866888449784855020e-01,7.654301074575273756e-01,1.000000000000000048e-04,4.349710135960202706e+01,3.099999999999999978e-01
-1.600373487948422158e+00,-3.099823971224313635e-01,3.351764512212331848e-01,1.000000000000000048e-04,4.154777931310481165e+01,3.300000000000000155e-01
4.678051593713816736e-01,6.064472448323452447e-01,2.462533636720518615e-01,1.000000000000000048e-04,4.005295359268944111e+01,4.000000000000000222e-01
-2.997782375882024120e+00,4.172439446172733213e-01,7.480135863130836782e-01,1.000000000000000048e-04,4.351744265312805027e+01,3.200000000000000067e-01
-1.695856406082106638e+00,4.550929535562002748e-01,6.132298879703697025e-01,1.000000000000000048e-04,4.269656590059862822e+01,3.200000000000000067e-01
1.440382174066603405e+00,2.258138351124054921e-01,1.750787589914473141e-01,1.000000000000000048e-04,3.998532969372008239e+01,3.599999999999999867e-01
1.172696739286754664e+00,5.568522814757606021e-01,3.067963423361195208e-01,1.000000000000000048e-04,4.072704714900749678e+01,2.399999999999999911e-01
3.034541958949077411e-01,8.329499095944017384e-01,4.786714107583793787e-01,1.000000000000000048e-04,4.250311964055616443e+01,2.999999999999999889e-01
2.819620438593092970e+00,-7.667201251632641545e-01,1.838355813792140747e-01,1.000000000000000048e-04,3.994748423992578523e+01,2.399999999999999911e-01
2.826736997972336241e+00,-9.226270966108675031e-01,1.479298004840476910e-01,1.000000000000000048e-04,3.911709921626318476e+01,2.899999999999999800e-01
2.562033852535551937e+00,3.558004721219196753e-01,5.116808829133911996e-01,1.000000000000000048e-04,4.271412255954741255e+01,2.899999999999999800e-01
-1.391987564386760745e-01,-8.838106804642120728e-01,3.980478742535564773e-01,1.000000000000000048e-04,4.184590102358076535e+01,2.899999999999999800e-01
2.648175800996363627e+00,8.382167933976027996e-01,8.992532389471961096e-01,1.000000000000000048e-04,4.375320800611339678e+01,3.699999999999999956e-01
2.319697958071849087e-01,9.505333600235110758e-01,2.286280549075316859e-01,1.000000000000000048e-04,4.026328286245357901e+01,2.300000000000000100e-01
2.336385488075835681e+00,-3.677156696501229227e-01,8.901437502667695068e-01,1.000000000000000048e-04,4.372994893752169787e+01,2.000000000000000111e-01
-3.103918101569383303e+00,-7.387520942872082275e-01,8.778799451524497144e-01,1.000000000000000048e-04,4.328986988601761254e+01,3.800000000000000044e-01
1.142264859611183070e+00,-1.680738345775549814e-01,5.190338115023811483e-01,1.000000000000000048e-04,4.239364958292049579e+01,2.300000000000000100e-01
1.838768793542068458e+00,-8.332111298748431372e-01,6.790833741142443536e-01,1.000000000000000048e-04,4.304809521429471175e+01,3.900000000000000133e-01
1.178767367063335847e-01,-1.267652172158695301e-02,1.494383784341619670e-01,1.000000000000000048e-04,3.958806368561383238e+01,2.200000000000000011e-01
-1.192558954844683106e+00,-1.394987328614827993e+00,8.425079908998291955e-01,1.000000000000000048e-04,4.343406175626772381e+01,2.399999999999999911e-01
6.399578055843018198e-01,6.083729408971163544e-01,4.657336805812093417e-01,1.000000000000000048e-04,4.214872229058713771e+01,2.000000000000000111e-01
-1.179687186109017460e+00,4.731729260021366734e-01,4.475901141779490278e-01,1.000000000000000048e-04,4.211538142081440839e+01,1.900000000000000022e-01
2.196955343389407567e+00,-3.664805259859245101e-01,4.884164274207563050e-01,1.000000000000000048e-04,4.204895214720357899e+01,2.600000000000000089e-01
-4.480469749117239608e-01,-2.400991482621261941e-01,2.234390357583764253e-01,1.000000000000000048e-04,4.020462655311816036e+01,1.900000000000000022e-01
2.823457884050810662e+00,4.498053865700737397e-01,2.538069302109982051e-01,1.000000000000000048e-04,4.049122093081609819e+01,1.000000000000000056e-01
-2.933246131921278366e+00,-3.026768593855422296e-02,7.690287229150332138e-01,1.000000000000000048e-04,4.351222280867454373e+01,1.400000000000000133e-01
9.062243697916496643e-01,-3.081198620958902623e-02,2.978301039773116887e-01,1.000000000000000048e-04,4.068173750770733932e+01,1.900000000000000022e-01
-2.841200070209530359e+00,4.336252837635714563e-01,4.869950197380481516e-01,1.000000000000000048e-04,4.218564477561285031e+01,1.499999999999999944e-01
2.667781508541780866e+00,-2.660995751926640285e-01,1.268802843629615040e-01,1.000000000000000048e-04,3.867258001441398818e+01,1.900000000000000022e-01
1.754904955145121015e+00,-6.143172413811629484e-01,7.870140305000448144e-01,1.000000000000000048e-04,4.333025209270205380e+01,1.700000000000000122e-01
2.235400539251179985e-01,-1.186927056434903927e+00,1.642679777533941898e-01,1.000000000000000048e-04,3.953067816876306750e+01,1.100000000000000006e-01
-1.048259035968910791e+00,3.850943705083116342e-01,3.666960905677139060e-01,1.000000000000000048e-04,4.133443614846366643e+01,2.000000000000000111e-01
3.960916638474842877e-01,-5.261504484569099471e-01,3.509388991409636560e-01,1.000000000000000048e-04,4.117708195312719255e+01,1.700000000000000122e-01
2.942599977024444868e+00,-4.881282665791639719e-01,5.844514636639197569e-01,1.000000000000000048e-04,4.267566456713030476e+01,1.100000000000000006e-01
-2.330431386361015100e+00,-7.443471573444448985e-01,4.958736805718653162e-01,1.000000000000000048e-04,4.209726608191407848e+01,1.700000000000000122e-01
-5.469127346676123658e-01,-1.000345558218358022e+00,5.722829499455588387e-01,1.000000000000000048e-04,4.293489170957867174e+01,1.600000000000000033e-01
7.893673131492242590e-01,4.722913809621331893e-01,1.184013652772251124e-01,1.000000000000000048e-04,3.878960440098848039e+01,2.200000000000000011e-01
1.375133391726461873e-01,1.307615228991954037e-01,1.686576355566771213e-01,1.000000000000000048e-04,3.980216438008208968e+01,2.800000000000000266e-01
-4.276110467111475799e-01,-1.150486388445196129e+00,2.369602791662561714e-01,1.000000000000000048e-04,4.044130708475800162e+01,2.099999999999999922e-01
-2.806182899361028049e+00,-5.306525192164468496e-01,6.311179110826659056e-01,1.000000000000000048e-04,4.347974645414386430e+01,2.899999999999999800e-01
-1.387693702474082080e-01,-5.368996633487308490e-01,4.904993837937219325e-01,1.000000000000000048e-04,4.238935512261193139e+01,1.400000000000000133e-01
-2.753961021985920521e+00,3.176576597286175918e-01,1.933337509584760472e-01,1.000000000000000048e-04,3.975202213805629725e+01,1.600000000000000033e-01
1.542589005390467172e+00,9.700136132084820062e-01,3.569161118803847454e-01,1.000000000000000048e-04,4.148260437277388490e+01,2.099999999999999922e-01
1.641980154311744045e+00,-1.652318547779272340e-01,2.745652376181006993e-01,1.000000000000000048e-04,4.099106270926076689e+01,2.600000000000000089e-01
-2.804755578859697618e+00,9.948178155676252743e-01,4.949815545275590978e-01,1.000000000000000048e-04,4.225928709022982588e+01,1.400000000000000133e-01
7.674074257221215056e-01,-7.537196474818756986e-01,2.833224164311625159e-01,1.000000000000000048e-04,4.106449935443762200e+01,1.600000000000000033e-01
-2.894719366270526617e+00,-9.934570882111563028e-01,2.710506214867893782e-01,1.000000000000000048e-04,4.075768564880704758e+01,2.000000000000000111e-01
2.106148837400631635e+00,2.430877598880900603e-01,7.435401253492721629e-01,1.000000000000000048e-04,4.327265458288819389e+01,2.099999999999999922e-01
3.106517184759814754e+00,-3.432148094317140075e-01,3.833523941036856009e-01,1.000000000000000048e-04,4.153280945782172040e+01,1.700000000000000122e-01
-1.826861186779850099e+00,-1.371909884865669671e+00,1.915554794799350091e-01,1.000000000000000048e-04,3.970823680465728955e+01,1.499999999999999944e-01
-2.341626957267006759e-01,5.164097673857717119e-01,9.632410697514506293e-01,1.000000000000000048e-04,4.440538767175640800e+01,1.700000000000000122e-01
-1.737871605131367403e+00,-2.808973055863912549e-01,6.120897181292777045e-01,1.000000000000000048e-04,4.293420690334906453e+01,1.400000000000000133e-01
-2.353268593793347740e+00,-7.836073706072834710e-01,7.597254180024495263e-01,1.000000000000000048e-04,4.348753156472422887e+01,1.499999999999999944e-01
8.204697407021397382e-01,-4.231257142325648424e-01,4.684092356310582961e-01,1.000000000000000048e-04,4.168065010225893019e+01,3.400000000000000244e-01
-2.841627365708924380e+00,-1.114064224334011755e+00,4.563793619129243861e-01,1.000000000000000048e-04,4.189677551240271924e+01,1.700000000000000122e-01
-1.157000205328978293e+00,9.219896101327873517e-01,1.450770632308036046e-01,1.000000000000000048e-04,3.935681826325834720e+01,1.400000000000000133e-01
2.292239579876335753e+00,-6.681485347792235352e-01,4.284576834337832096e-01,1.000000000000000048e-04,4.191385130899795541e+01,1.799999999999999933e-01
2.620805660747532073e+00,-5.791692872579939921e-01,3.691906359592773690e-01,1.000000000000000048e-04,4.148878367796496747e+01,1.900000000000000022e-01
-2.193013657547099982e+00,-1.084374187679937540e+00,2.395527579426999232e-01,1.000000000000000048e-04,4.047533290419431040e+01,1.499999999999999944e-01
2.280891925617327232e+00,-4.500120867118195811e-01,3.299974442473014857e-01,1.000000000000000048e-04,4.157555098167195951e+01,1.700000000000000122e-01
-2.360905388200155386e+00,-2.896524891667457968e-01,9.949564142320137528e-01,1.000000000000000048e-04,4.417938229308483500e+01,1.600000000000000033e-01
1.437550480424287791e+00,-5.919919738089920447e-01,3.070934541883172386e-01,1.000000000000000048e-04,4.108564812434710944e+01,1.499999999999999944e-01
1.379018336021947455e+00,-1.469968751729487488e+00,6.582897477152300780e-01,1.000000000000000048e-04,4.275549870818086617e+01,1.700000000000000122e-01
9.626628010912572364e-01,-7.441528827519205969e-02,6.783590668478252095e-01,1.000000000000000048e-04,4.307094940766081947e+01,1.600000000000000033e-01
2.442594586574875493e+00,-1.445634912076644962e+00,1.216880969225628828e+00,1.000000000000000048e-04,4.466046278051982910e+01,2.899999999999999800e-01
-1.200839423184040911e+00,-2.224520191287204796e-01,1.944588615689346600e-01,1.000000000000000048e-04,3.995845747582519181e+01,1.400000000000000133e-01
-1.929774734249378731e-01,-1.130548437957876740e+00,7.382248406319436018e-01,1.000000000000000048e-04,4.333477479567951463e+01,1.499999999999999944e-01
1.658030873098988778e+00,-3.437301665277692209e-02,4.988199298936535353e-01,1.000000000000000048e-04,4.220179106193602081e+01,1.900000000000000022e-01
-1.237978773496996698e+00,6.147396693940954115e-02,3.220976295250990162e-01,1.000000000000000048e-04,4.136252941352608303e+01,2.500000000000000000e-01
-3.131560441904241987e+00,5.379818128550506451e-02,7.248723037584927642e-01,1.000000000000000048e-04,4.347036601310971093e+01,1.499999999999999944e-01
-2.766674903486680659e+00,-8.922566288172628646e-02,2.011209825988209410e-01,1.000000000000000048e-04,4.007788542501947404e+01,2.099999999999999922e-01
1.097102515689964086e+00,4.669426392322906239e-01,1.255589386849083056e-01,1.000000000000000048e-04,3.897766160122440482e+01,1.900000000000000022e-01
5.809031075273609623e-01,6.490986572399948251e-02,2.457538656533169164e-01,1.000000000000000048e-04,4.012836494981225854e+01,2.099999999999999922e-01
1.528139708753961656e+00,-1.309992035495657348e-01,3.462952877082847714e-01,1.000000000000000048e-04,4.123984800923992822e+01,2.099999999999999922e-01
-2.370473811779722606e+00,-1.584101826522372747e-01,2.165042710198046283e-01,1.000000000000000048e-04,4.023912757887322300e+01,1.499999999999999944e-01
-3.064310630541405178e+00,7.253400398265519300e-02,5.137894763965797917e-01,1.000000000000000048e-04,4.210432372784703858e+01,1.400000000000000133e-01
-1.957172160838025254e+00,-8.523476465265654722e-01,3.461580070195604542e-01,1.000000000000000048e-04,4.096607117300091261e+01,3.800000000000000044e-01
-2.450322525391237960e+00,-1.070980602175983565e+00,1.936455771545877447e-01,1.000000000000000048e-04,3.978560583692541286e+01,2.200000000000000011e-01
-4.342974104836252458e-01,-9.308788679105339803e-02,8.547379221593724985e-01,1.000000000000000048e-04,4.386889726045397708e+01,1.499999999999999944e-01
-1.344238042928474819e+00,7.432601505100611128e-02,3.923567137101429125e-01,1.000000000000000048e-04,4.175943631000568956e+01,1.700000000000000122e-01
1.550077749074278977e+00,3.395855637580271758e-01,2.371794210201509934e-01,1.000000000000000048e-04,4.047947579504191395e+01,1.700000000000000122e-01
1.842801746127106455e+00,-5.387140624663728783e-01,2.610902686835820941e-01,1.000000000000000048e-04,4.074652273071425412e+01,2.600000000000000089e-01
-1.186333111012016994e+00,-7.438601632450603240e-02,1.257800224849496384e+00,1.000000000000000048e-04,4.524998749305825640e+01,2.800000000000000266e-01
-1.573203424101137005e+00,-1.172603080046574986e+00,3.325912031537321401e-01,1.000000000000000048e-04,4.111968825378383485e+01,1.799999999999999933e-01
-1.645034199255253737e+00,-9.425366519961810852e-01,1.046148029583457539e+00,1.000000000000000048e-04,4.425851882356472800e+01,1.499999999999999944e-01
1.533217367566558131e+00,-3.190047453054956073e-02,7.980388355217200580e-01,1.000000000000000048e-04,4.338824942155172693e+01,2.200000000000000011e-01
-1.811560631043851899e+00,1.109306729742408404e+00,3.137593460697019054e-01,1.000000000000000048e-04,4.132821140759193668e+01,2.000000000000000111e-01
-1.723180288827278916e+00,1.126124424099564703e+00,5.003253709472512689e-01,1.000000000000000048e-04,4.230119490610898225e+01,1.600000000000000033e-01
6.868858901092709246e-01,7.053373999294088037e-01,5.013260324051163064e-01,1.000000000000000048e-04,4.185197552094246021e+01,1.600000000000000033e-01
2.122548807179368779e+00,1.076854925414315378e+00,5.800107358123431922e-01,1.000000000000000048e-04,4.313833003074860528e+01,2.099999999999999922e-01
-5.517812669384678514e-01,-8.642711256212348703e-01,2.372917588454814819e-01,1.000000000000000048e-04,4.066187307105155213e+01,2.899999999999999800e-01
1.411518423226305607e-01,8.801251323564676099e-01,3.843509861835681107e-01,1.000000000000000048e-04,4.150503591315063545e+01,1.400000000000000133e-01
-2.373323576413552516e+00,-9.573730867745523510e-01,2.009849985341347622e-01,1.000000000000000048e-04,3.965233191004842439e+01,2.700000000000000178e-01
1.493788722344590703e+00,5.554848222310595496e-01,1.202121228602610614e-01,1.000000000000000048e-04,3.886993592237830342e+01,1.300000000000000044e-01
2.480552877258674016e+00,2.809429002528698316e-01,2.739431434443491131e-01,1.000000000000000048e-04,4.050670640412306511e+01,1.700000000000000122e-01
-2.794214817495778824e+00,-1.054211614603710601e-01,6.265625066880240457e-01,1.000000000000000048e-04,4.311130439201097886e+01,2.500000000000000000e-01
-1.608370006610586600e+00,-4.353731574058568032e-01,5.062967297688603097e-01,1.000000000000000048e-04,4.211799902044832322e+01,1.400000000000000133e-01
-1.370190908090261672e+00,-3.380069700709036340e-01,4.868876917147215710e-01,1.000000000000000048e-04,4.194868392861805262e+01,1.900000000000000022e-01
-1.327004518146616130e+00,-1.643100515439370746e-01,1.196371520773849007e-01,1.000000000000000048e-04,3.889367518866770013e+01,1.600000000000000033e-01
1.008690441414947792e+00,4.770385664245027080e-01,1.162646484219419296e+00,1.000000000000000048e-04,4.450388591535569560e+01,1.600000000000000033e-01
-1.785644919539687514e+00,-2.589038114403683366e-01,4.671102393057775526e-01,1.000000000000000048e-04,4.241965571217573228e+01,2.700000000000000178e-01
2.165236881655083323e+00,-8.078527458471269629e-01,4.726745373551697327e-01,1.000000000000000048e-04,4.231382900853012785e+01,1.499999999999999944e-01
-2.278231980921827216e+00,7.508206122116503067e-01,6.515921865554612502e-01,1.000000000000000048e-04,4.314289972869894996e+01,1.600000000000000033e-01
-3.816317531730204493e-01,4.580549735043040194e-01,4.979109841098676714e-01,1.000000000000000048e-04,4.196195945344155831e+01,1.700000000000000122e-01
-7.620241092642054959e-01,-4.365893314725293184e-01,4.581877577765736120e-01,1.000000000000000048e-04,4.216865590494276006e+01,2.800000000000000266e-01
9.421821239052468044e-01,-8.343434522747885662e-01,1.715267450555701956e-01,1.000000000000000048e-04,3.956749889857800184e+01,1.499999999999999944e-01
-7.593122633043041247e-01,-4.792084076783869051e-01,6.146274036789991513e-01,1.000000000000000048e-04,4.332392880919331901e+01,3.099999999999999978e-01
1.293316097447456237e+00,-7.566094620228865919e-01,4.742380681755815619e-01,1.000000000000000048e-04,4.226500528338934259e+01,2.200000000000000011e-01
-1.181749952129241166e+00,-5.854482335478564670e-01,9.946605605426526164e-01,1.000000000000000048e-04,4.438722686236823733e+01,2.700000000000000178e-01
2.217686496580340894e+00,-5.035322703736717642e-01,5.859344434414766045e-01,1.000000000000000048e-04,4.292252724515166307e+01,2.899999999999999800e-01
1.287586389315093172e+00,1.944273568384602413e-01,5.819845525914391082e-01,1.000000000000000048e-04,4.285958150112024612e+01,3.099999999999999978e-01
1.909519445317100939e+00,-6.327255799306170658e-01,5.033823750723689372e-01,1.000000000000000048e-04,4.251028083924684609e+01,2.300000000000000100e-01
-1.856904548953299150e+00,5.461845953136146292e-01,7.290900989549635725e-01,1.000000000000000048e-04,4.355455097226666084e+01,2.200000000000000011e-01
1.930041301277864996e+00,-9.879969507187279509e-01,7.782950440632105948e-01,1.000000000000000048e-04,4.375556728118310446e+01,2.300000000000000100e-01
-7.941688950420497939e-01,1.149397285973163818e-01,3.555714480194214211e-01,1.000000000000000048e-04,4.145678947844256612e+01,2.200000000000000011e-01
2.503654175979688645e+00,1.801593740636855401e-01,8.639727894791056073e-01,1.000000000000000048e-04,4.367324141549904937e+01,2.099999999999999922e-01
-1.452788584797375382e+00,-1.407641190827033206e+00,6.202491679860615559e-01,1.000000000000000048e-04,4.340328838484488472e+01,2.300000000000000100e-01
-2.323614586999633858e+00,-8.552526024494455648e-02,2.714503771429994661e-01,1.000000000000000048e-04,4.130134359916372944e+01,2.399999999999999911e-01
2.053548200062462747e+00,-1.347644816899788989e-01,1.699946055768954967e-01,1.000000000000000048e-04,3.969353459503957993e+01,2.099999999999999922e-01
1.423061760523300912e+00,-5.547369802234098923e-01,9.346883716089871008e-01,1.000000000000000048e-04,4.400472085671660949e+01,2.399999999999999911e-01
2.322479257237914929e+00,9.022244550971270094e-01,1.365195632392790515e-01,1.000000000000000048e-04,3.934455826061750372e+01,2.399999999999999911e-01
1.532643010167138442e+00,2.295525530471576037e-01,3.168433900264056025e-01,1.000000000000000048e-04,4.110548336641217304e+01,2.800000000000000266e-01
-1.353951773964954697e+00,-6.861476976484733870e-01,4.904977684975662111e-01,1.000000000000000048e-04,4.211270376261442294e+01,2.000000000000000111e-01
-1.373177644258209318e+00,5.877039942388915250e-01,6.376422018779706047e-01,1.000000000000000048e-04,4.303699305336305514e+01,2.200000000000000011e-01
-8.292692749348118397e-02,1.819942705267358907e-01,2.746827365738999660e-01,1.000000000000000048e-04,4.081351345189180790e+01,2.800000000000000266e-01
2.029601613216090783e+00,8.505986601815624937e-01,3.621174033145682092e-01,1.000000000000000048e-04,4.150319971180219625e+01,2.399999999999999911e-01
-2.592417776739177171e+00,-1.098860657054138823e+00,3.137542058269919831e-01,1.000000000000000048e-04,4.092092189765757837e+01,2.300000000000000100e-01
-1.573425472432068428e+00,-2.439056252905307254e-01,1.925948148958103179e-01,1.000000000000000048e-04,3.966059423050393207e+01,2.200000000000000011e-01
-1.665968653058471638e+00,-1.300539871281754190e+00,4.926778845326864609e-01,1.000000000000000048e-04,4.255080470129428249e+01,2.200000000000000011e-01
4.898161398251721366e-02,-7.670465427473072140e-01,5.616402404589790898e-01,1.000000000000000048e-04,4.320412375305075159e+01,2.399999999999999911e-01
1.128800921400141988e+00,-3.005672130962178112e-01,3.712404322401106072e-01,1.000000000000000048e-04,4.142034944123685847e+01,3.099999999999999978e-01
-9.701701558349986598e-01,-4.350585385388006099e-01,2.847713844734114375e-01,1.000000000000000048e-04,4.090970876635844178e+01,2.600000000000000089e-01
3.112965251434878233e-01,-1.025977673695788184e-01,4.567953853330333214e-01,1.000000000000000048e-04,4.260301481690745362e+01,3.099999999999999978e-01
1.014764464794379428e+00,-8.410034885753826517e-01,4.479241026265521342e-01,1.000000000000000048e-04,4.270723368527092134e+01,3.800000000000000044e-01
-5.253310938341160252e-02,3.205670733590293420e-01,1.409128393743317442e-01,1.000000000000000048e-04,3.893706065449012499e+01,2.500000000000000000e-01
-2.370661981229627013e+00,-1.489833073970245891e-01,2.581014450953664774e-01,1.000000000000000048e-04,4.063573743353539669e+01,2.300000000000000100e-01
-1.443668144566781164e+00,8.783018792460741686e-01,1.902191741407592840e-01,1.000000000000000048e-04,4.043470284653884050e+01,2.800000000000000266e-01
1.216699940167198513e-01,-1.173803010637631594e+00,5.069366842272093887e-01,1.000000000000000048e-04,4.172376827123627407e+01,3.699999999999999956e-01
1.730100177578736798e+00,1.754406627605304969e-01,2.307423732748723477e-01,1.000000000000000048e-04,4.057356816126187482e+01,2.200000000000000011e-01
-3.075234109858446363e+00,2.665764529196557042e-02,4.649631094286901245e-01,1.000000000000000048e-04,4.240036376280685460e+01,2.600000000000000089e-01
-2.056690101086391387e-01,9.487570292168920894e-01,4.896473485199599462e-01,1.000000000000000048e-04,4.180319052943118407e+01,2.500000000000000000e-01
-5.593398312723394383e-01,7.007204129326560782e-02,5.042126446492696257e-01,1.000000000000000048e-04,4.238419070796309285e+01,2.700000000000000178e-01
-5.356625215610129054e-01,-6.380228852581603105e-01,8.077504894353693121e-01,1.000000000000000048e-04,4.364648326618934249e+01,2.300000000000000100e-01
1.342229376931812546e+00,-5.798274186192157176e-01,1.459941041010648366e-01,1.000000000000000048e-04,3.902335649668946616e+01,2.300000000000000100e-01
2.038603177023089685e+00,-4.838662349369726723e-01,1.933979907809120213e-01,1.000000000000000048e-04,4.003020783016959427e+01,3.200000000000000067e-01
-2.043628449823037929e+00,5.840555785776331277e-01,4.962308212099426630e-01,1.000000000000000048e-04,4.227380142236395955e+01,2.899999999999999800e-01
2.683492075201203697e-01,6.526447924362122066e-02,2.108756696032452194e-01,1.000000000000000048e-04,3.982410863786724775e+01,2.600000000000000089e-01
2.842122951748574877e+00,-5.017755018614611373e-02,8.667194963817781428e-01,1.000000000000000048e-04,4.398678753108180217e+01,2.899999999999999800e-01
1.422548854220348602e+00,-2.307078424653250526e-01,7.157205712652219276e-01,1.000000000000000048e-04,4.305256139472428600e+01,2.700000000000000178e-01
-1.715636201455811749e+00,5.298262268506293005e-01,3.139924585412010583e-01,1.000000000000000048e-04,4.118887524461304395e+01,2.300000000000000100e-01
3.108766299819420986e+00,3.306547595578608334e-01,6.029715572666018986e-01,1.000000000000000048e-04,4.296865213239336612e+01,2.800000000000000266e-01
-2.641343480044839431e+00,1.064032942884823640e+00,8.727215101027983035e-01,1.000000000000000048e-04,4.379224747594028599e+01,2.300000000000000100e-01
4.955259312684305861e-01,1.003408753950438381e+00,1.336789901638976819e+00,1.000000000000000048e-04,4.500539961731737293e+01,2.200000000000000011e-01
-3.083090646646384325e+00,-1.594307090543440886e-01,3.007043917395133548e-01,1.000000000000000048e-04,4.112500663248852817e+01,2.200000000000000011e-01
1.016797036500470597e+00,7.087092742047551575e-02,5.443143037372919490e-01,1.000000000000000048e-04,4.224402394204366828e+01,2.099999999999999922e-01
-1.932458612195994130e+00,-7.174702509842546538e-01,1.268463971328102513e+00,1.000000000000000048e-04,4.502919374345845682e+01,2.200000000000000011e-01
3.080932138756314664e+00,3.976237285459185422e-01,1.221483089136901956e+00,1.000000000000000048e-04,4.474309911940546414e+01,2.899999999999999800e-01
-7.802852026014641673e-01,1.009470643938197743e+00,4.205834226635807305e-01,1.000000000000000048e-04,4.194380126181741275e+01,2.099999999999999922e-01
1.498361249151196617e+00,-1.352769400177964210e+00,4.801538529346651707e-01,1.000000000000000048e-04,4.205196616187292591e+01,2.300000000000000100e-01
1.672819245025025658e+00,-4.097742779081408049e-01,3.552173495848081064e-01,1.000000000000000048e-04,4.204009184035096780e+01,3.300000000000000155e-01
-2.339319969132400701e-01,1.022791276227771107e+00,3.677792823649810305e-01,1.000000000000000048e-04,4.168687179451656277e+01,2.899999999999999800e-01
2.624880092381083330e+00,8.237120215507909293e-01,2.034921076186131383e-01,1.000000000000000048e-04,4.045570315590960320e+01,3.300000000000000155e-01
-1.680387846716849376e+00,1.637638029319097299e-01,3.177351258592722161e-01,1.000000000000000048e-04,4.046053897690156731e+01,2.999999999999999889e-01
-6.719624381442379502e-01,1.051150359948946011e+00,1.011284483507022269e+00,1.000000000000000048e-04,4.428667378422878187e+01,2.600000000000000089e-01
-7.116583929646931317e-01,9.434114723461028973e-01,4.080016037714948585e-01,1.000000000000000048e-04,4.197584602960103695e+01,3.300000000000000155e-01
1.600047205229619074e+00,-6.249481024880310098e-01,5.173408980735507701e-01,1.000000000000000048e-04,4.211231876612865221e+01,2.500000000000000000e-01
-2.450728446396823301e+00,6.211427873761774521e-01,4.222665512518191111e-01,1.000000000000000048e-04,4.153202850235736321e+01,2.399999999999999911e-01
-2.899772209039527482e+00,-5.816719757131543211e-01,6.267314549927909262e-01,1.000000000000000048e-04,4.302249218203520087e+01,3.900000000000000133e-01
-1.659832650015115485e+00,-1.347155674456019359e+00,9.216800406612823959e-01,1.000000000000000048e-04,4.428042459376412410e+01,2.700000000000000178e-01
1.625974336183879210e+00,-1.194937566278628349e+00,3.369433723443637785e-01,1.000000000000000048e-04,4.149004003166595567e+01,2.200000000000000011e-01
-3.136691722866871590e+00,7.635256755947184004e-01,4.718273127165564240e-01,1.000000000000000048e-04,4.220322577770117789e+01,2.300000000000000100e-01
-5.066241878194310821e-01,3.138560821034275250e-02,2.471760315892999049e-01,1.000000000000000048e-04,4.036745197222712278e+01,2.500000000000000000e-01
-2.211634458921190927e+00,-4.028905034221228476e-01,6.251575276903775791e-01,1.000000000000000048e-04,4.296652421102887587e+01,2.099999999999999922e-01
-2.089774160080396292e+00,5.292889153953366232e-01,2.198374187423155490e-01,1.000000000000000048e-04,3.995298433446600228e+01,2.099999999999999922e-01
1.788884429199680604e+00,-6.205761180700108959e-02,2.349356287346937577e-01,1.000000000000000048e-04,4.051659749122622145e+01,2.999999999999999889e-01
-4.737730608420038791e-01,-3.450857856482711927e-01,1.194062329830156699e-01,1.000000000000000048e-04,3.887493650608818285e+01,2.200000000000000011e-01
-9.787000993439853858e-02,-7.061644625026898270e-01,2.987746720791470967e-01,1.000000000000000048e-04,4.112981103399043548e+01,2.099999999999999922e-01
3.719640999450808394e-01,2.064968229704808866e-01,4.106458219504964813e-01,1.000000000000000048e-04,4.202104973761004914e+01,2.300000000000000100e-01
1.996912257201688412e+00,1.246834870415520324e+00,3.157683011689516039e-01,1.000000000000000048e-04,4.111947885831881422e+01,3.200000000000000067e-01
1.810646391767835262e+00,-6.934415349012669205e-01,6.388435568333949988e-01,1.000000000000000048e-04,4.324120017666916027e+01,2.600000000000000089e-01
-4.982860745699144722e-01,2.625679929305830829e-01,3.733319867983233564e-01,1.000000000000000048e-04,4.143868058041333313e+01,2.000000000000000111e-01
2.635689494628076446e+00,5.632684649665891108e-01,1.652117229034897328e-01,1.000000000000000048e-04,3.946934503364602875e+01,1.799999999999999933e-01
1.950691651334595988e+00,3.664630012624188193e-01,3.389379054112198197e-01,1.000000000000000048e-04,4.088171975743109243e+01,2.999999999999999889e-01
2.956360017791388906e+00,4.493915356453030974e-01,3.093582304638140545e-01,1.000000000000000048e-04,4.041738728088107280e+01,2.399999999999999911e-01
1.799523314913806793e-01,-3.430343827924597910e-02,1.634476196411309701e-01,1.000000000000000048e-04,3.964334324304937951e+01,2.300000000000000100e-01
-1.715262187348177703e+00,7.751968788924048503e-01,1.788063244069550972e-01,1.000000000000000048e-04,3.970068268941540879e+01,2.200000000000000011e-01
-1.881589277663322957e+00,-1.206157143362951878e+00,2.884071914302797079e-01,1.000000000000000048e-04,4.062588848246158335e+01,2.300000000000000100e-01
-5.609221614779977827e-01,-4.476491566476774597e-01,4.155666445480654669e-01,1.000000000000000048e-04,4.145398824816076910e+01,2.300000000000000100e-01
-1.785908537297545839e+00,6.469113151993886035e-01,3.571653579811562285e-01,1.000000000000000048e-04,4.120250830807147935e+01,2.600000000000000089e-01
2.327174455356716187e+00,-2.200917829305155671e-01,2.919640853220537569e-01,1.000000000000000048e-04,4.103637377033467004e+01,2.099999999999999922e-01
8.859031014971838758e-01,-1.907716926822839998e-01,1.893380281556054090e-01,1.000000000000000048e-04,3.984417141658428818e+01,2.899999999999999800e-01
-1.405375147729366336e+00,-8.387041069414923333e-01,5.130023965008585485e-01,1.000000000000000048e-04,4.213708504085219886e+01,2.000000000000000111e-01
-2.469533012901512947e+00,-4.892810599258892168e-01,4.364710613035036602e-01,1.000000000000000048e-04,4.181722686085083751e+01,2.500000000000000000e-01
5.423004022435513605e-01,9.722071235814384593e-01,1.201303235984886086e+00,1.000000000000000048e-04,4.438045166589023438e+01,2.099999999999999922e-01
-2.990631081460207508e+00,-2.910722167835342322e-01,2.202332413200729366e-01,1.000000000000000048e-04,4.022842988673874487e+01,2.300000000000000100e-01
-2.457583216660930603e+00,1.163866027464541375e+00,2.924048782935628754e-01,1.000000000000000048e-04,4.071766919864055012e+01,2.200000000000000011e-01
1.679258285035135856e+00,4.366749276306105543e-01,1.640156759296649280e-01,1.000000000000000048e-04,3.966634932886348963e+01,2.399999999999999911e-01
-2.003620509184943721e+00,-7.546235493336261868e-01,4.213706863505968236e-01,1.000000000000000048e-04,4.187888750867366383e+01,2.500000000000000000e-01
1.581178296726641008e+00,-1.488765007640734828e+00,3.653881959752400821e-01,1.000000000000000048e-04,4.107065806986717149e+01,2.200000000000000011e-01
-9.325885799096012008e-01,3.667930178047296152e-02,8.046393388078765252e-01,1.000000000000000048e-04,4.361956317380067816e+01,3.300000000000000155e-01
1.206282584909414979e+00,-6.859631109925676817e-01,8.661953390713716949e-01,1.000000000000000048e-04,4.398852451180171386e+01,2.000000000000000111e-01
8.711313572659209470e-01,6.944316540784245539e-01,4.568231275592757878e-01,1.000000000000000048e-04,4.235802296736296313e+01,2.600000000000000089e-01
3.063667180317426464e+00,-4.387430172791024763e-01,8.235199411984790441e-01,1.000000000000000048e-04,4.334671564875273475e+01,2.399999999999999911e-01
1.865203580197192679e+00,-6.839636771139204763e-01,1.874531698956893866e-01,1.000000000000000048e-04,3.954713295456820532e+01,2.399999999999999911e-01
-2.756079184251624348e+00,-6.885109406550392608e-01,5.255702923320837439e-01,1.000000000000000048e-04,4.247759261276968346e+01,2.600000000000000089e-01
-3.466357560947130878e-01,9.119343041219161172e-01,9.460006105469285220e-01,1.000000000000000048e-04,4.403683833843967932e+01,2.399999999999999911e-01
-9.764518645499671301e-01,4.098463460563506189e-01,5.586767919236756974e-01,1.000000000000000048e-04,4.273541059496006511e+01,2.000000000000000111e-01
2.910893004090890912e+00,7.563902324173885638e-01,7.919592782107027773e-01,1.000000000000000048e-04,4.308341302642002546e+01,3.699999999999999956e-01
-3.028383536311662461e+00,6.855526384309018617e-01,5.203598162103186819e-01,1.000000000000000048e-04,4.230766138179868818e+01,3.099999999999999978e-01
6.583252726680077771e-02,8.476539073904119093e-01,7.463236367935348614e-01,1.000000000000000048e-04,4.357948487737748167e+01,2.399999999999999911e-01
2.468354037821756108e-01,9.651502473170538998e-01,3.229525520232390257e-01,1.000000000000000048e-04,4.144396425988916377e+01,2.099999999999999922e-01
-9.530624091918573626e-01,-2.242266043204255155e-02,1.276670818483538028e+00,1.000000000000000048e-04,4.503132674317493667e+01,2.800000000000000266e-01
2.447444701191290761e+00,6.295197150210025683e-01,1.888195914919867935e-01,1.000000000000000048e-04,3.972134301156270908e+01,2.800000000000000266e-01
-2.362985211426873455e+00,9.729867685516144782e-01,2.106991504988726671e-01,1.000000000000000048e-04,4.040530809942189450e+01,2.099999999999999922e-01
-3.155803477036616123e-01,8.038472746954532511e-01,4.563290241811912562e-01,1.000000000000000048e-04,4.196295835533582164e+01,2.300000000000000100e-01
6.785298530642611681e-01,1.213973605032535374e+00,1.073157754090380500e+00,1.000000000000000048e-04,4.433567533367853741e+01,2.000000000000000111e-01
-1.371000101791907122e+00,1.382029687242815719e+00,3.492985470965164208e-01,1.000000000000000048e-04,4.139668814336101121e+01,1.000000000000000056e-01
-2.014723970770690542e+00,1.055373454329020078e+00,3.678279664177828145e-01,1.000000000000000048e-04,4.122773998260720418e+01,1.199999999999999956e-01
-6.639835303589380899e-02,-4.569781948013122985e-01,3.108932677999598493e-01,1.000000000000000048e-04,4.109494578547338506e+01,8.999999999999999667e-02
1.141918775153807353e+00,-4.880475937247819029e-01,2.266797445358919028e-01,1.000000000000000048e-04,4.039729956634247543e+01,1.400000000000000133e-01
1.114675929699497026e+00,6.682815370151962142e-01,1.076172102228877936e+00,1.000000000000000048e-04,4.412916980867692018e+01,2.000000000000000111e-01
-2.654011485427679506e+00,-7.787971720735521464e-01,3.411582010140761234e-01,1.000000000000000048e-04,4.124212026105051621e+01,1.900000000000000022e-01
-1.146595220734763609e+00,-3.984978957243270337e-01,1.035956619376384058e+00,1.000000000000000048e-04,4.431837003697764743e+01,1.700000000000000122e-01
-1.788746067243847548e+00,2.152106587004247729e-01,3.525823638692819895e-01,1.000000000000000048e-04,4.123705089372906940e+01,3.499999999999999778e-01
2.181275962908713062e-01,-6.728723291673555096e-02,5.992351831043287724e-01,1.000000000000000048e-04,4.275423008874638953e+01,1.700000000000000122e-01
2.911314429727894115e+00,3.945584867540798957e-01,1.591489759398507786e-01,1.000000000000000048e-04,3.907868025249968014e+01,1.900000000000000022e-01
2.300787435566440386e+00,4.693574582895232439e-01,1.604752845384809223e-01,1.000000000000000048e-04,3.981087391114675000e+01,1.900000000000000022e-01
