3.054272990954432387e+00,2.712713647873070677e-01,2.824585319928785143e-01,1.000000000000000048e-04,4.078066380673735125e+01,5.000000000000000278e-02
-1.536260663900597345e+00,2.486196954148978122e-01,4.315184772938773783e-01,1.000000000000000048e-04,4.195169079032024229e+01,5.000000000000000278e-02
-1.131872666706907005e+00,-3.649917268739972798e-01,8.688575483837432945e-01,1.000000000000000048e-04,4.377878939259484525e+01,5.000000000000000278e-02
2.694421935208893615e+00,-7.265057913468169204e-01,1.918360176011115747e-01,1.000000000000000048e-04,3.984273048523304794e+01,5.000000000000000278e-02
-4.046887921496939988e-01,2.752341767900312597e-01,5.985972599861244525e-02,1.000000000000000048e-04,3.710748416394540072e+01,5.000000000000000278e-02
-2.956181046075817775e+00,-1.063094300445283302e+00,2.125704444922409397e-01,1.000000000000000048e-04,4.008692253652842652e+01,5.000000000000000278e-02
-3.227566469694083118e-01,1.217316536720583375e+00,8.024295196302106969e-01,1.000000000000000048e-04,4.352235102123081845e+01,5.000000000000000278e-02
-5.173767446281374305e-02,-1.177869025084120169e+00,1.460000574035131837e-01,1.000000000000000048e-04,3.926100881911511209e+01,5.000000000000000278e-02
1.003629041334441752e-02,8.224896462521731344e-01,2.229344074770949202e-01,1.000000000000000048e-04,4.026807042228961819e+01,5.000000000000000278e-02
-1.071578705165849854e-01,1.474416939125733794e+00,7.550028503025134619e-01,1.000000000000000048e-04,4.326288728963216812e+01,5.000000000000000278e-02
1.286238134088725893e+00,-9.047775439072525128e-01,4.351092097028153027e-01,1.000000000000000048e-04,4.194251910792277727e+01,5.000000000000000278e-02
1.244166854638750763e+00,7.158489871559128304e-01,4.135221973730740519e-01,1.000000000000000048e-04,4.171552283921638349e+01,5.000000000000000278e-02
-3.179150682857998511e-01,1.312645837066130472e+00,6.697128468888053909e-01,1.000000000000000048e-04,4.307423610394654645e+01,5.000000000000000278e-02
1.090901379927706749e+00,8.004739687826836203e-01,8.864603694325892125e-01,1.000000000000000048e-04,4.387162346041090188e+01,5.000000000000000278e-02
2.275597073148289518e+00,-1.331055802249119235e+00,2.459108194533199399e-01,1.000000000000000048e-04,4.057690928317378365e+01,5.000000000000000278e-02
3.630244963790287827e-01,-1.186122778535955380e+00,7.714815892422792754e-01,1.000000000000000048e-04,4.338439652250953316e+01,5.000000000000000278e-02
2.581306176938631403e+00,-1.446604172666995813e+00,7.538218833835330646e-01,1.000000000000000048e-04,4.333208940516660590e+01,5.000000000000000278e-02
1.183727712434089696e+00,-1.211245759463353000e-01,1.234772768350260730e-01,1.000000000000000048e-04,3.895295810173494289e+01,5.000000000000000278e-02
1.636750227212032449e+00,1.024983867693347594e+00,4.318509921629325454e-01,1.000000000000000048e-04,4.190449647130988353e+01,5.000000000000000278e-02
-8.926672856295501113e-01,4.798372687310559215e-02,1.253333568552317256e-01,1.000000000000000048e-04,3.885950290061830970e+01,5.000000000000000278e-02
1.031920381544367160e+00,4.597333376418477613e-02,8.806249992609964661e-01,1.000000000000000048e-04,4.381279355736464254e+01,5.000000000000000278e-02
-1.274443475977309781e+00,-1.201397186477053181e+00,1.973440600438374215e-01,1.000000000000000048e-04,3.993709313411684292e+01,5.000000000000000278e-02
-3.025873727397695223e+00,-1.364904170108420578e+00,5.605635645463069583e-01,1.000000000000000048e-04,4.265125120283526172e+01,5.000000000000000278e-02
4.187233261045775201e-01,1.291702635554701217e+00,5.361667047623819293e-01,1.000000000000000048e-04,4.249354081556400331e+01,5.000000000000000278e-02
-2.918083793569151485e+00,-4.322480473426579817e-01,6.043166403250546104e-01,1.000000000000000048e-04,4.274291123224726618e+01,5.000000000000000278e-02
1.065978337767263362e+00,5.750556324375235562e-01,3.483597864931466948e-01,1.000000000000000048e-04,4.125899533025059185e+01,5.000000000000000278e-02
-6.810231396459736075e-01,5.649623000520671567e-01,4.584741751995049519e-01,1.000000000000000048e-04,4.198134742759845750e+01,5.000000000000000278e-02
-2.006080065368382570e+00,8.911199844450385932e-01,7.740363847264721819e-01,1.000000000000000048e-04,4.347082207041879798e+01,5.000000000000000278e-02
-3.063083011564413649e+00,3.976771761144186623e-01,7.046684492571524405e-01,1.000000000000000048e-04,4.317901421117370830e+01,5.000000000000000278e-02
-4.449897314729667208e-01,-5.216555951610934994e-01,3.717946703177554824e-01,1.000000000000000048e-04,4.145001751565526149e+01,5.000000000000000278e-02
1.042772395272507424e+00,6.982279257280561424e-01,7.145578828899707968e-01,1.000000000000000048e-04,4.322456148419354349e+01,5.000000000000000278e-02
2.410683440797854793e+00,-5.360750518919488172e-03,2.872878701138952273e-01,1.000000000000000048e-04,4.076769987775043802e+01,5.000000000000000278e-02
-2.741780923233990475e+00,1.002515708324567267e-01,3.804478640712531945e-01,1.000000000000000048e-04,4.155273659699743405e+01,5.000000000000000278e-02
-3.049714477992792716e+00,-4.892698218263300536e-01,5.298097001345132284e-01,1.000000000000000048e-04,4.252781388806555185e+01,5.000000000000000278e-02
1.103866519902893195e+00,-6.210303022034527887e-01,7.308765844367308695e-01,1.000000000000000048e-04,4.322137468450311815e+01,5.000000000000000278e-02
1.661659526658350039e+00,-5.240016896680299574e-02,4.878801809514654586e-01,1.000000000000000048e-04,4.226926203349496802e+01,5.000000000000000278e-02
-8.345107856332489860e-01,7.868467683252906575e-01,5.683137481315885253e-01,1.000000000000000048e-04,4.255771762810339709e+01,5.000000000000000278e-02
-6.155322718409608207e-01,-9.655465040330780679e-01,1.701529490177204895e-01,1.000000000000000048e-04,3.957211068072224691e+01,5.000000000000000278e-02
-4.742113105092342629e-01,7.218220643891615218e-02,9.395595066655975103e-01,1.000000000000000048e-04,4.385991700492073164e+01,5.000000000000000278e-02
-7.738627749352784413e-01,-1.375905756372177047e+00,1.365600770419448384e-01,1.000000000000000048e-04,3.913865852437171355e+01,5.000000000000000278e-02
-3.039538681356903638e+00,3.169176367374317849e-01,4.300843513775314264e-01,1.000000000000000048e-04,4.194340634514524169e+01,5.000000000000000278e-02
-9.090404490151358097e-01,-5.289915643727767236e-01,2.199454910844464983e-01,1.000000000000000048e-04,4.024185927305023114e+01,5.000000000000000278e-02
-1.303560072191913832e+00,4.039951423148298026e-01,1.310492757705197242e-01,1.000000000000000048e-04,3.896404573158283569e+01,5.000000000000000278e-02
-1.533799209455523060e+00,7.178564934835005573e-01,5.107925191060971315e-01,1.000000000000000048e-04,4.229632113233569157e+01,5.000000000000000278e-02
-1.768314040241411034e+00,-6.366434089738118862e-01,2.080874013669657963e-01,1.000000000000000048e-04,3.999500712751902398e+01,5.000000000000000278e-02
1.145227678476558708e+00,-9.664270474881851980e-01,4.239301408819826644e-01,1.000000000000000048e-04,4.177248804946893301e+01,5.000000000000000278e-02
1.560395076333234599e+00,5.209549331126348548e-01,2.567098840573953655e-01,1.000000000000000048e-04,4.058046253550632088e+01,5.000000000000000278e-02
-3.006169641972867179e+00,5.780319613197097972e-01,9.104417462802638639e-01,1.000000000000000048e-04,4.385981623110540539e+01,5.000000000000000278e-02
1.791752616225370076e+00,-1.230601583709782787e-01,2.444390693928339964e-01,1.000000000000000048e-04,4.053510544799944171e+01,5.000000000000000278e-02
2.110465288141163853e+00,3.565561957328631237e-01,7.394979302465634063e-01,1.000000000000000048e-04,4.333191635735099823e+01,5.000000000000000278e-02
6.819544600170193149e-01,1.053626240290435057e+00,5.281840181310439863e-01,1.000000000000000048e-04,4.242289728798247950e+01,5.000000000000000278e-02
-1.310511928136251614e+00,-1.051718145676566074e+00,4.974981526540807053e-01,1.000000000000000048e-04,4.223275706928114914e+01,5.000000000000000278e-02
5.732111271844657630e-01,-8.298794013475820908e-01,3.264596860170356774e-01,1.000000000000000048e-04,4.123689035779627687e+01,5.000000000000000278e-02
9.083914248024571592e-01,-5.138118765776338304e-01,2.118503388048122993e-01,1.000000000000000048e-04,4.013324499345349494e+01,5.000000000000000278e-02
-2.217434183385293522e+00,-1.049672233014611766e+00,7.030153060530439646e-01,1.000000000000000048e-04,4.314383589671943042e+01,5.000000000000000278e-02
8.693243977657116872e-01,-5.328471323361338996e-02,7.433458218407686946e-01,1.000000000000000048e-04,4.322929506360564744e+01,5.000000000000000278e-02
1.471370460807738034e+00,8.004380466699050345e-01,9.080431507016863968e-01,1.000000000000000048e-04,4.379494491894088526e+01,5.000000000000000278e-02
9.727507166119009341e-02,4.311757732617627070e-01,7.301580796396711648e-01,1.000000000000000048e-04,4.325722302808846820e+01,5.000000000000000278e-02
2.219177941481695449e+00,2.393079618931177599e-01,2.227960489967499846e-01,1.000000000000000048e-04,4.024345125254963307e+01,5.000000000000000278e-02
-1.957037817861054130e+00,7.350339649414214804e-01,1.019128576943941766e-01,1.000000000000000048e-04,3.834468759781761094e+01,5.000000000000000278e-02
9.083468687369782302e-01,-1.716614824385165328e-02,6.703462437147433839e-01,1.000000000000000048e-04,4.308246567177636877e+01,5.000000000000000278e-02
-9.898716669411333768e-02,1.154547922866086207e+00,3.935616123276730605e-01,1.000000000000000048e-04,4.159239919457778711e+01,5.000000000000000278e-02
-1.083801434855150791e+00,-7.804717465377956076e-01,7.312802485293823374e-01,1.000000000000000048e-04,4.332294923909318385e+01,5.000000000000000278e-02
-2.839556874122862951e+00,1.026458468109737066e+00,8.379468683857886901e-01,1.000000000000000048e-04,4.363649292470229568e+01,5.000000000000000278e-02
1.713197091428662056e-01,1.366633824533976860e+00,1.724863754746097655e-01,1.000000000000000048e-04,3.961988444834315715e+01,5.000000000000000278e-02
-2.253566862530690162e+00,1.106348636174747213e+00,7.617104471313096425e-01,1.000000000000000048e-04,4.342614620593102615e+01,5.000000000000000278e-02
4.118755688237025758e-01,8.965327057047836057e-01,5.194370721637393551e-01,1.000000000000000048e-04,4.233288853759852088e+01,5.000000000000000278e-02
-2.595681715490600894e-01,-8.859961286756692367e-01,4.595010376054577961e-01,1.000000000000000048e-04,4.196165847291199213e+01,5.000000000000000278e-02
-5.904757576817147857e-01,5.644293582588333358e-02,3.884563268173766293e-01,1.000000000000000048e-04,4.161193721108710974e+01,5.000000000000000278e-02
-5.135221806854346482e-01,-6.011615366671360094e-01,1.271782236617526873e-01,1.000000000000000048e-04,3.887262950776081993e+01,5.000000000000000278e-02
2.749724485505974592e+00,-4.539862163181327404e-01,8.546582889916174430e-01,1.000000000000000048e-04,4.369872608057676189e+01,5.000000000000000278e-02
2.055070297847944261e+00,6.710549670351668716e-01,2.884171657611505069e-01,1.000000000000000048e-04,4.080874968445920814e+01,5.000000000000000278e-02
-1.937906553341604665e+00,5.947791308134418031e-01,3.932284382881916507e-01,1.000000000000000048e-04,4.166424642015380186e+01,5.000000000000000278e-02
2.714521986013741284e+00,-7.279242257642081215e-01,8.443476558530020881e-01,1.000000000000000048e-04,4.368756454062153693e+01,5.000000000000000278e-02
-1.134736192041708502e+00,1.926423470323870291e-01,6.011740857118534898e-01,1.000000000000000048e-04,4.280000826321418117e+01,5.000000000000000278e-02
-9.431055148711533498e-01,-1.118598382753166476e-01,6.238204815758927602e-01,1.000000000000000048e-04,4.288480009777313740e+01,5.000000000000000278e-02
5.056024047205647243e-01,1.498372515452940146e+00,3.936564044588350963e-01,1.000000000000000048e-04,4.161107256663543552e+01,5.000000000000000278e-02
-2.832367647818956335e+00,1.121496488519172274e+00,6.236550745436666432e-01,1.000000000000000048e-04,4.287716690683123488e+01,5.000000000000000278e-02
2.103713629669251794e+00,8.999722179858160587e-01,9.194530709969894744e-01,1.000000000000000048e-04,4.386258387897477462e+01,5.000000000000000278e-02
-1.560828501809689239e+00,7.738608197588670023e-02,6.091376994952635293e-02,1.000000000000000048e-04,3.710446678915572249e+01,5.000000000000000278e-02
1.952023967333955667e+00,-2.815017622926476726e-01,8.656048729003311681e-01,1.000000000000000048e-04,4.371366459867812182e+01,5.000000000000000278e-02
4.884158936337423818e-01,-1.066397210078640079e-01,3.532519178822148831e-01,1.000000000000000048e-04,4.136493076839197158e+01,5.000000000000000278e-02
-2.259741157370668052e+00,-1.100272925035750804e+00,6.260000917941104248e-01,1.000000000000000048e-04,4.285892734287844519e+01,5.000000000000000278e-02
-1.736899029666355565e+00,2.418465290649431942e-01,8.488835578203937082e-01,1.000000000000000048e-04,4.370915483580053262e+01,5.000000000000000278e-02
2.444842410500448260e+00,1.076810257753884059e+00,9.392492523843456453e-01,1.000000000000000048e-04,4.396771836378889020e+01,5.000000000000000278e-02
5.789858282877657913e-02,-1.046528401621156901e+00,7.772843363366246372e-01,1.000000000000000048e-04,4.350925605005954111e+01,5.000000000000000278e-02
1.705291318495520514e+00,6.366583903385532039e-01,8.232293543011497405e-01,1.000000000000000048e-04,4.357052082077028388e+01,5.000000000000000278e-02
-2.437420939166867306e+00,9.613754073592315486e-01,8.198654128684805809e-01,1.000000000000000048e-04,4.359468040888173590e+01,5.000000000000000278e-02
9.825255572698106121e-01,-6.680205952142550530e-01,4.004591746921160045e-01,1.000000000000000048e-04,4.167797339988415217e+01,5.000000000000000278e-02
-2.826139503440960432e+00,1.027395210872515730e+00,3.358673905194524689e-01,1.000000000000000048e-04,4.117730208172085327e+01,5.000000000000000278e-02
5.706082639088125852e-01,-6.222591265900486723e-01,3.539795885556913380e-01,1.000000000000000048e-04,4.139376737387195959e+01,5.000000000000000278e-02
2.973355531835060184e+00,6.597829528924328280e-01,9.215140013218894310e-01,1.000000000000000048e-04,4.393140522989878605e+01,5.000000000000000278e-02
-2.511670904240592250e+00,-8.810591873147219921e-01,9.252121574061702436e-01,1.000000000000000048e-04,4.399659273733477960e+01,5.000000000000000278e-02
-1.510677694324941811e+00,-7.932792221949306333e-01,3.204970256439105825e-01,1.000000000000000048e-04,4.103201771428219757e+01,5.000000000000000278e-02
-2.235932927750003074e+00,1.353627795161207459e-01,7.181355420621176044e-01,1.000000000000000048e-04,4.326748560315064651e+01,5.000000000000000278e-02
2.286093496152887816e+00,-5.070122802703380671e-02,4.277275106674620631e-01,1.000000000000000048e-04,4.187932512569221188e+01,5.000000000000000278e-02
3.991261734328928057e-01,-9.119105394270041742e-01,6.847079306648307107e-01,1.000000000000000048e-04,4.303259422735644790e+01,5.000000000000000278e-02
1.007682123747732028e+00,-1.164612797511771491e+00,2.677200121878779981e-01,1.000000000000000048e-04,4.067694469618794528e+01,5.000000000000000278e-02
-3.149134388100449655e-01,-4.978001504348017470e-02,1.625209845939670217e-01,1.000000000000000048e-04,3.946226234008399558e+01,5.000000000000000278e-02
-4.714735154850315801e-01,1.458221980730249889e-01,6.954506927475183620e-01,1.000000000000000048e-04,4.313730086699625588e+01,5.000000000000000278e-02
1.335271021915982459e+00,7.461204728718566770e-01,4.229171182814541741e-01,1.000000000000000048e-04,4.190665800614401348e+01,5.000000000000000278e-02
-4.326701329662117068e-01,-1.374829160204704692e-02,4.720099039191569812e-01,1.000000000000000048e-04,4.210904610616782406e+01,5.000000000000000278e-02
-1.023021986184449172e+00,-4.067453860674845600e-01,8.046177801827631981e-01,1.000000000000000048e-04,4.360410269720132703e+01,5.000000000000000278e-02
-2.514609630146977359e+00,-6.962307819945473542e-01,7.879407040512453886e-01,1.000000000000000048e-04,4.350607920219164981e+01,5.000000000000000278e-02
3.041904655276749914e+00,1.186213222636090414e+00,1.058689421821976673e-01,1.000000000000000048e-04,3.843404869722818518e+01,5.000000000000000278e-02
1.030321131660569378e+00,2.044426814770379242e-01,6.404037954668777566e-01,1.000000000000000048e-04,4.288935137506076956e+01,5.000000000000000278e-02
-2.648203369434458665e+00,1.053872081478257172e+00,2.694863389543953325e-01,1.000000000000000048e-04,4.076061986234924461e+01,5.000000000000000278e-02
2.083777051594513097e+00,-7.612605777192625878e-01,9.041552082664645607e-01,1.000000000000000048e-04,4.382819590615073224e+01,5.000000000000000278e-02
-1.244705801086261054e-01,-7.819217721377410557e-01,1.051030380125470565e-01,1.000000000000000048e-04,3.849453695648617924e+01,5.000000000000000278e-02
6.262082847137948605e-01,-3.674134817514254081e-01,3.835441749556789404e-01,1.000000000000000048e-04,4.164303917506912001e+01,5.000000000000000278e-02
-2.701825090147313979e-01,-1.077873173525877970e+00,5.782621259190441343e-01,1.000000000000000048e-04,4.268127312307807841e+01,5.000000000000000278e-02
-4.777194548203924640e-01,-3.650941734381882853e-01,3.717384907259724258e-01,1.000000000000000048e-04,4.153638140394970435e+01,5.000000000000000278e-02
-5.385090476980005647e-01,-1.424959216933820105e+00,7.417230017622977734e-01,1.000000000000000048e-04,4.331621175309278726e+01,5.000000000000000278e-02
-8.317706869270522496e-01,1.282762627495570573e-01,6.144781742701423966e-01,1.000000000000000048e-04,4.279091178614114455e+01,5.000000000000000278e-02
1.320761213467882556e+00,-1.937332127771236312e-01,6.316316137404245357e-01,1.000000000000000048e-04,4.278485334253016248e+01,5.000000000000000278e-02
-7.840592714724725631e-01,-3.548230408405046443e-01,5.341810903172059533e-01,1.000000000000000048e-04,4.250372457057859776e+01,5.000000000000000278e-02
-2.359752034287875944e+00,5.228324150257090963e-03,1.118484617938424464e-01,1.000000000000000048e-04,3.859563289253387808e+01,5.000000000000000278e-02
2.609479459104043997e+00,-1.166623021350396527e+00,8.774352224364061481e-01,1.000000000000000048e-04,4.379250627758533909e+01,5.000000000000000278e-02
-2.921288006022398687e+00,-6.269276569973852853e-01,7.063939809414820914e-01,1.000000000000000048e-04,4.314636961690977301e+01,5.000000000000000278e-02
-1.930095687032104435e+00,2.010364690459454096e-01,1.937375596781190090e-01,1.000000000000000048e-04,3.994228259819298188e+01,5.000000000000000278e-02
7.202174805283512171e-02,9.700041838199582322e-01,8.242693931178990407e-01,1.000000000000000048e-04,4.361723133192079871e+01,5.000000000000000278e-02
9.488863178446660385e-01,-1.228328609757992407e+00,8.936478437784494133e-01,1.000000000000000048e-04,4.382261336121447926e+01,5.000000000000000278e-02
-3.040546537639198021e+00,2.892063180354291774e-01,1.971041301065046270e-01,1.000000000000000048e-04,3.998740348606249029e+01,5.000000000000000278e-02
-2.806296893927411773e+00,-1.657094842818982450e-01,4.396201696214607768e-01,1.000000000000000048e-04,4.186076189430027483e+01,5.000000000000000278e-02
2.708402774334660812e+00,8.704561710723086598e-01,6.303605132813880907e-01,1.000000000000000048e-04,4.288649367091428388e+01,5.000000000000000278e-02
-1.276067225815262551e+00,2.643703316932355385e-01,1.987060925254771071e-01,1.000000000000000048e-04,3.994031402590073299e+01,5.000000000000000278e-02
1.738397521134471546e-02,-1.127314072834681768e+00,6.709811269636469788e-01,1.000000000000000048e-04,4.302217356517348890e+01,5.000000000000000278e-02
6.067375045916612031e-01,-2.661650528777899094e-01,8.354684130859668656e-02,1.000000000000000048e-04,3.790937455422658786e+01,5.000000000000000278e-02
-1.802693683357194931e+00,-6.798543597476326417e-01,1.995550604479596757e-01,1.000000000000000048e-04,3.994547494927999054e+01,5.000000000000000278e-02
1.430510992291010197e+00,1.475154896969272933e-01,7.815317440098306090e-01,1.000000000000000048e-04,4.351796201819693977e+01,5.000000000000000278e-02
8.713802644982724388e-01,6.689278160803140416e-01,2.925589653806242030e-01,1.000000000000000048e-04,4.088765242867595617e+01,5.000000000000000278e-02
1.728950984054373308e+00,4.590158751310604579e-01,1.515257346162097729e-01,1.000000000000000048e-04,3.938240433334262747e+01,5.000000000000000278e-02
-2.563513372111096977e-01,2.917235289742328153e-01,4.182514014855081008e-01,1.000000000000000048e-04,4.185522489758499631e+01,5.000000000000000278e-02
1.081273016806293619e+00,-2.416461889637000482e-01,1.396041739376803203e-01,1.000000000000000048e-04,3.902844019711831436e+01,5.000000000000000278e-02
1.186434802549785061e-01,-7.283190579786213981e-02,1.242813931479158640e-01,1.000000000000000048e-04,3.878334592232131683e+01,5.000000000000000278e-02
8.851089613291760472e-01,-3.913519749126321834e-01,4.857959035429266770e-01,1.000000000000000048e-04,4.226789355700740458e+01,5.000000000000000278e-02
-2.619399329929576137e+00,-2.494613459575067971e-02,4.235745245132467307e-01,1.000000000000000048e-04,4.184510392099930698e+01,5.000000000000000278e-02
-2.965315567121269424e+00,1.213824529955172427e+00,6.524288007158651759e-02,1.000000000000000048e-04,3.731202180748967834e+01,5.000000000000000278e-02
2.751708088644114092e+00,-1.705181737400189856e-01,1.892702212246644144e-01,1.000000000000000048e-04,3.988031610239860925e+01,5.000000000000000278e-02
-1.843748616193209733e+00,-1.289203486891558725e+00,7.474091259281978594e-02,1.000000000000000048e-04,3.767146058602639158e+01,5.000000000000000278e-02
3.112658951741176239e-01,-1.717180231696822101e-01,9.228889523128611660e-01,1.000000000000000048e-04,4.400154509374068823e+01,5.000000000000000278e-02
-2.240428683987211400e+00,2.324787406202175610e-01,7.990198227258911157e-01,1.000000000000000048e-04,4.356421576911053961e+01,5.000000000000000278e-02
-2.951691380530291564e+00,7.428534931175789779e-02,3.754549549812173925e-01,1.000000000000000048e-04,4.155561839971318960e+01,5.000000000000000278e-02
2.298789817212300690e+00,1.033122686902312903e+00,8.447040427733860657e-01,1.000000000000000048e-04,4.356773079429200379e+01,5.000000000000000278e-02
4.579369216200088744e-01,-4.367369988009384141e-01,6.046760363693368667e-01,1.000000000000000048e-04,4.278400519122842383e+01,5.000000000000000278e-02
6.919884593188743160e-01,6.820227254020214680e-01,3.816265732012071865e-01,1.000000000000000048e-04,4.156547152898534137e+01,5.000000000000000278e-02
-4.557056042578970789e-01,8.282264057709980420e-01,9.298532397342773592e-01,1.000000000000000048e-04,4.395132105429976832e+01,5.000000000000000278e-02
-7.416167792809327253e-01,1.924056372608229371e-01,2.016806824482015870e-01,1.000000000000000048e-04,4.000083166922549793e+01,5.000000000000000278e-02
1.408809516543851004e+00,-3.910332430269951587e-01,6.960775116819881703e-01,1.000000000000000048e-04,4.313088182047376051e+01,5.000000000000000278e-02
-7.735168901637772265e-01,3.341639042416733041e-01,7.917712378801693429e-01,1.000000000000000048e-04,4.336427006124941386e+01,5.000000000000000278e-02
-2.627589641613976124e+00,-5.674546312220707378e-02,8.515628865044893026e-01,1.000000000000000048e-04,4.366296990218371832e+01,5.000000000000000278e-02
-2.678222786002628641e+00,1.128244312307521202e+00,6.362665051811540184e-01,1.000000000000000048e-04,4.290294190797857965e+01,5.000000000000000278e-02
4.363039455891009055e-01,-8.848644594803656283e-01,8.790936875746087065e-01,1.000000000000000048e-04,4.376982464807867501e+01,5.000000000000000278e-02
-1.631192255073488973e+00,-1.123982880365504311e+00,6.804189827603173146e-01,1.000000000000000048e-04,4.306056803681921963e+01,5.000000000000000278e-02
1.471158215437933237e-01,5.501667261649618723e-01,4.196333218453536240e-01,1.000000000000000048e-04,4.183437487927742637e+01,5.000000000000000278e-02
1.976949058098651513e-01,-1.470223872285183031e+00,2.501678969439100619e-01,1.000000000000000048e-04,4.041216722760594138e+01,5.000000000000000278e-02
-1.217271922606705692e+00,-1.395590627600826750e-01,8.402305218495933481e-01,1.000000000000000048e-04,4.367631245700070508e+01,5.000000000000000278e-02
2.546116960906774196e+00,6.772156766199968203e-01,1.328777231778328627e-01,1.000000000000000048e-04,3.896621570707193172e+01,5.000000000000000278e-02
-8.714657139613279924e-03,-2.422265502613292210e-01,9.342386477079218654e-01,1.000000000000000048e-04,4.388380207138892786e+01,5.000000000000000278e-02
-2.139025279088992093e+00,6.968304396500148989e-01,7.666655484517617136e-01,1.000000000000000048e-04,4.345210896173914961e+01,5.000000000000000278e-02
9.838117874724243705e-01,1.033607740448368784e+00,9.162825673059358245e-01,1.000000000000000048e-04,4.390835051691023949e+01,5.000000000000000278e-02
1.306514047597852723e+00,1.458728358671042447e+00,4.454939389410572659e-01,1.000000000000000048e-04,4.200183441864961509e+01,5.000000000000000278e-02
1.094329325097653793e+00,-1.193435659695821771e+00,1.533434130835569231e-01,1.000000000000000048e-04,3.938691755783080595e+01,5.000000000000000278e-02
-5.740631895131276252e-02,8.217242301602856180e-02,4.764828350905867538e-01,1.000000000000000048e-04,4.216393925147330890e+01,5.000000000000000278e-02
3.911543213378010364e-01,3.081977735351704162e-02,8.668690781950558755e-01,1.000000000000000048e-04,4.372204685637462518e+01,5.000000000000000278e-02
2.337886570290168997e+00,6.396354874594791795e-01,6.822985258970197808e-01,1.000000000000000048e-04,4.313500720045391290e+01,5.000000000000000278e-02
-1.299682564832130405e+00,-2.286426037713784609e-01,8.029155154985643250e-01,1.000000000000000048e-04,4.353938029522376496e+01,5.000000000000000278e-02
2.811107008873299229e+00,1.152953623042307640e+00,4.538323217604045556e-01,1.000000000000000048e-04,4.199156735241823668e+01,5.000000000000000278e-02
2.362490695538091323e+00,-8.592979710224790679e-01,7.828860411818470144e-01,1.000000000000000048e-04,4.350681660336243084e+01,5.000000000000000278e-02
-2.311139761081811628e+00,-9.878587096200518447e-01,4.657434108307358933e-01,1.000000000000000048e-04,4.211733464267715021e+01,5.000000000000000278e-02
-2.951640097410360930e+00,-3.535519816951075978e-01,2.733844469503061703e-01,1.000000000000000048e-04,4.081015418083914881e+01,5.000000000000000278e-02
2.403773371537920589e+00,-4.337996065682936386e-01,9.030541865982391059e-01,1.000000000000000048e-04,4.378942025659982562e+01,5.000000000000000278e-02
-2.665110324659329510e+00,-5.003740251010062590e-01,8.874326818004019124e-02,1.000000000000000048e-04,3.798567259032301280e+01,5.000000000000000278e-02
8.897865377977023371e-01,-3.524866614220487637e-01,4.811014047723263243e-01,1.000000000000000048e-04,4.217395960787168008e+01,5.000000000000000278e-02
-8.087586895202454329e-01,-7.347442291441103057e-01,3.638416051702826337e-01,1.000000000000000048e-04,4.154094758670079557e+01,5.000000000000000278e-02
-2.768138738134568566e+00,4.611105220329902998e-01,9.116954803084578174e-01,1.000000000000000048e-04,4.398076783726391881e+01,5.000000000000000278e-02
2.952351299843222421e+00,-6.337091297126005163e-01,5.772224921735509273e-01,1.000000000000000048e-04,4.263396243569020072e+01,5.000000000000000278e-02
5.763145541969194596e-02,1.049996886878513447e+00,8.036799068805580148e-01,1.000000000000000048e-04,4.357347157979413055e+01,5.000000000000000278e-02
-2.685161497351291615e+00,-5.745069976882836160e-01,6.072389136933882270e-01,1.000000000000000048e-04,4.283651859001510331e+01,5.000000000000000278e-02
3.053384205832201381e-01,-6.218238447453066087e-01,7.013805530694574575e-01,1.000000000000000048e-04,4.319413196990257831e+01,5.000000000000000278e-02
-2.632922552165442909e+00,-9.156138977599408424e-01,5.474938528357171652e-01,1.000000000000000048e-04,4.249094301654407246e+01,5.000000000000000278e-02
-1.128318889131032066e+00,2.462908022304959310e-01,6.891711173780308286e-01,1.000000000000000048e-04,4.305344865595098724e+01,5.000000000000000278e-02
2.235223880217320769e-01,-9.116950246455534090e-01,8.244584273749748782e-01,1.000000000000000048e-04,4.364963965085317454e+01,5.000000000000000278e-02
-6.791338395191433008e-01,3.836282937359070111e-02,6.881333946680481262e-01,1.000000000000000048e-04,4.321137180378097042e+01,5.000000000000000278e-02
2.242999486668388442e+00,7.646449608262564368e-01,5.374127775702559617e-01,1.000000000000000048e-04,4.244761703292222421e+01,5.000000000000000278e-02
2.521716181211203001e+00,8.131084866328213145e-01,5.462082221430986095e-01,1.000000000000000048e-04,4.253480672115975381e+01,5.000000000000000278e-02
8.632869471906889913e-01,7.936931217058784682e-01,4.307029368225279153e-01,1.000000000000000048e-04,4.192091437271530907e+01,5.000000000000000278e-02
4.592944420086215729e-01,9.188609541933590030e-01,6.843221657798657098e-01,1.000000000000000048e-04,4.310847298478844891e+01,5.000000000000000278e-02
1.880917552178297925e+00,-1.196928418885521372e+00,5.277314040718499299e-01,1.000000000000000048e-04,4.235638419252969555e+01,5.000000000000000278e-02
4.649621904388583360e-01,-2.692076544391692750e-01,6.258185680663206352e-01,1.000000000000000048e-04,4.293271103620759277e+01,5.000000000000000278e-02
-1.321298697545653544e+00,-3.204922950982849184e-01,6.675712757517004992e-01,1.000000000000000048e-04,4.300480790782955864e+01,5.000000000000000278e-02
5.360116130713046267e-01,-4.200518749586383827e-01,3.251762835235043614e-01,1.000000000000000048e-04,4.116404637732450311e+01,5.000000000000000278e-02
-3.585590072138411522e-01,-2.360295944695391945e-01,4.111182711653442734e-01,1.000000000000000048e-04,4.176970948356379409e+01,5.000000000000000278e-02
-1.800454389490761864e+00,-7.517097212671065565e-01,3.052594925641622936e-01,1.000000000000000048e-04,4.099100038639333121e+01,5.000000000000000278e-02
-6.316139452018965095e-01,-9.553813433430174973e-01,3.781550313385229067e-01,1.000000000000000048e-04,4.159865788023362398e+01,5.000000000000000278e-02
-2.751832297083635304e+00,7.302675642614397944e-02,3.335234817013574826e-01,1.000000000000000048e-04,4.125533504022615006e+01,5.000000000000000278e-02
-9.452174434609825759e-01,-4.150460526964991903e-01,8.015058126991287946e-01,1.000000000000000048e-04,4.349152894783539836e+01,5.000000000000000278e-02
5.866716579615709470e-01,6.791743624560231396e-02,3.613066307868539884e-01,1.000000000000000048e-04,4.143108688743683388e+01,5.000000000000000278e-02
3.265313237090552434e-01,-2.216874520905269819e-01,4.734348226568849682e-01,1.000000000000000048e-04,4.207880101311044285e+01,5.000000000000000278e-02
4.104566979268122751e-01,-2.336343141315511129e-01,4.332229767096758000e-01,1.000000000000000048e-04,4.181370559094445127e+01,5.000000000000000278e-02
1.652252395013314334e+00,1.591316642439029039e-01,7.128219989743962426e-01,1.000000000000000048e-04,4.320945215493091496e+01,5.000000000000000278e-02
2.094274088543965462e+00,2.215986254990656157e-01,2.563923022371283889e-01,1.000000000000000048e-04,4.051154070039363120e+01,5.000000000000000278e-02
-1.738260836158813660e-01,-3.778216266237972576e-01,7.542363555148738907e-01,1.000000000000000048e-04,4.335314911691418160e+01,5.000000000000000278e-02
1.121483448069810152e+00,7.907759036446404544e-01,7.320155432631294534e-01,1.000000000000000048e-04,4.332202981767066063e+01,5.000000000000000278e-02
-1.986727177920579734e-01,3.760254018778763641e-01,4.021437644554399782e-01,1.000000000000000048e-04,4.168982902946150659e+01,5.000000000000000278e-02
2.998270850514510144e+00,9.324290933248331470e-01,5.358583458523238363e-01,1.000000000000000048e-04,4.247857665572087171e+01,5.000000000000000278e-02
1.344197250956561618e+00,-8.469710692342408143e-01,1.731802961009560882e-01,1.000000000000000048e-04,3.957455448426232891e+01,5.000000000000000278e-02
-1.990486082940124524e+00,-5.800187884221963408e-02,9.110326794622103375e-01,1.000000000000000048e-04,4.390738105182719409e+01,5.000000000000000278e-02
7.392764560054052581e-01,1.257834852636223744e-01,3.020861605956424167e-01,1.000000000000000048e-04,4.104548910313803844e+01,5.000000000000000278e-02
-1.966204023728954198e+00,-4.405823938499202619e-01,6.990880921945026305e-01,1.000000000000000048e-04,4.314979249209288525e+01,5.000000000000000278e-02
1.701349034892012391e-01,2.356552232303581462e-01,6.098433267629399523e-02,1.000000000000000048e-04,3.714854486828883040e+01,5.000000000000000278e-02
1.701445219201493941e+00,6.405883516411559064e-01,4.283442136095723107e-01,1.000000000000000048e-04,4.193328357047758459e+01,5.000000000000000278e-02
-1.206507552895093482e+00,8.216494697875873499e-01,5.394946965882738699e-01,1.000000000000000048e-04,4.252662023413685688e+01,5.000000000000000278e-02
1.756848942285116344e+00,-2.241002791299164798e-01,6.239284012986390238e-01,1.000000000000000048e-04,4.289116014996918125e+01,5.000000000000000278e-02
-2.371027031491945269e+00,2.911058503633137118e-01,3.360503933669898302e-01,1.000000000000000048e-04,4.123096167970356873e+01,5.000000000000000278e-02
1.595525644393477549e+00,1.376289757647096046e+00,2.168260160008821380e-01,1.000000000000000048e-04,4.016005629347261419e+01,5.000000000000000278e-02
-2.389678646183184707e+00,1.030484520913814706e+00,2.925779806601238597e-01,1.000000000000000048e-04,4.097931307499965214e+01,5.000000000000000278e-02
5.047956863013385309e-01,1.067124641580054600e+00,6.669045712518613112e-01,1.000000000000000048e-04,4.297138430732832859e+01,5.000000000000000278e-02
1.752056447357616342e+00,1.199124262588389112e-01,6.898914613947195740e-01,1.000000000000000048e-04,4.313186892811044970e+01,5.000000000000000278e-02
-1.476529871853033304e+00,1.036886310712917147e+00,8.701015275187169440e-01,1.000000000000000048e-04,4.378205138532579355e+01,5.000000000000000278e-02
1.435333176846630643e+00,-2.519046103048125929e-01,6.340739083197282078e-01,1.000000000000000048e-04,4.297493801815490855e+01,5.000000000000000278e-02
2.932731111063461960e+00,-6.387906785515728991e-02,7.184546764219359449e-01,1.000000000000000048e-04,4.320056445873906625e+01,5.000000000000000278e-02
1.561231882933584281e+00,3.681294087937665438e-01,6.009727949211720599e-01,1.000000000000000048e-04,4.275204265915752444e+01,5.000000000000000278e-02
1.898354891936750555e+00,-7.786193887503269906e-01,5.843623926648027211e-01,1.000000000000000048e-04,4.256936716936919396e+01,5.000000000000000278e-02
2.903329453369253521e+00,3.048560435128018220e-01,6.630508421779737205e-01,1.000000000000000048e-04,4.302921164937488641e+01,5.000000000000000278e-02
3.126001115908470851e+00,-5.997890537530295996e-01,9.866954533529215254e-02,1.000000000000000048e-04,3.832209300577028444e+01,5.000000000000000278e-02
1.625913386822555040e+00,1.139960212900168024e+00,8.256498654271648974e-02,1.000000000000000048e-04,3.786402399729268353e+01,5.000000000000000278e-02
2.672345055699758554e-01,2.593503465643580697e-01,9.293109764777678361e-01,1.000000000000000048e-04,4.402589958291535766e+01,5.000000000000000278e-02
-2.559060071681833914e+00,-2.806970356954674450e-02,4.124555017449529348e-01,1.000000000000000048e-04,4.179911266850974982e+01,5.000000000000000278e-02
2.836278238402996088e+00,-1.563242914696849617e-01,6.982437709491426947e-01,1.000000000000000048e-04,4.316053292658954632e+01,5.000000000000000278e-02
1.693252519980534387e+00,6.032590133659558873e-01,2.826096922590779492e-01,1.000000000000000048e-04,4.073872119816172699e+01,5.000000000000000278e-02
-2.684985830600864265e+00,-8.009062684623230455e-01,7.205824714532487185e-01,1.000000000000000048e-04,4.320388702565002603e+01,5.000000000000000278e-02
-4.837622877298088930e-01,-8.586662268465909964e-01,9.650316431525207683e-02,1.000000000000000048e-04,3.829039254615871357e+01,5.000000000000000278e-02
3.058665076038089126e+00,3.524241591751884339e-01,9.679814021851762540e-02,1.000000000000000048e-04,3.825083019670324802e+01,5.000000000000000278e-02
-2.348829006778157868e+00,-7.860694220859762993e-01,5.831363233848678718e-01,1.000000000000000048e-04,4.261870303962975726e+01,5.000000000000000278e-02
-4.884556352960256476e-03,-6.032533904265149349e-01,1.634494683381999547e-01,1.000000000000000048e-04,3.957301746729414305e+01,5.000000000000000278e-02
-2.586300136180829767e+00,-3.154761561931942460e-01,3.597209661232254607e-01,1.000000000000000048e-04,4.140497296531448512e+01,5.000000000000000278e-02
-2.523533816014373432e+00,1.233476427667073327e+00,6.181185064465011259e-01,1.000000000000000048e-04,4.274867141756455169e+01,5.000000000000000278e-02
-1.789964481553777409e+00,3.522798498305212966e-01,5.838280142822707131e-01,1.000000000000000048e-04,4.270662017889649320e+01,5.000000000000000278e-02
-2.408923574445935412e+00,-5.826095661273589243e-02,5.817118514527075401e-01,1.000000000000000048e-04,4.265763631546462875e+01,5.000000000000000278e-02
3.129895855166716423e+00,-1.388289795936989979e-01,8.472089309971890803e-01,1.000000000000000048e-04,4.372713311430214134e+01,5.000000000000000278e-02
-1.174904916171287450e+00,-1.228895321465086621e-01,1.835108199433250764e-01,1.000000000000000048e-04,3.980671133729332922e+01,5.000000000000000278e-02
-1.962474474756422449e+00,2.595129291569677754e-01,5.106069221447433470e-01,1.000000000000000048e-04,4.244587816651930012e+01,5.000000000000000278e-02
-2.799245629084914366e+00,-8.945232751261368298e-01,2.077221775574227269e-01,1.000000000000000048e-04,3.997738521174716908e+01,5.000000000000000278e-02
1.516230708693965035e+00,-3.479141879833367312e-01,5.831257058848475783e-01,1.000000000000000048e-04,4.270141859228495917e+01,5.000000000000000278e-02
-2.333982314220852228e+00,2.888077004437681339e-01,1.979036096264799038e-01,1.000000000000000048e-04,4.001387810220966657e+01,5.000000000000000278e-02
2.726859895269458711e+00,-6.539683675001439767e-02,6.846504363390848447e-02,1.000000000000000048e-04,3.748470626584119714e+01,5.000000000000000278e-02
-1.863621580390409038e+00,-8.068019746447699925e-01,3.608123682788613173e-01,1.000000000000000048e-04,4.151044974101695573e+01,5.000000000000000278e-02
-2.672466886734561342e+00,-4.533378789976592049e-01,3.839443441375109956e-01,1.000000000000000048e-04,4.168509871914004350e+01,5.000000000000000278e-02
-1.917496805549596672e+00,-4.339377784912752389e-01,4.501974720924932782e-01,1.000000000000000048e-04,4.206797199485604466e+01,5.000000000000000278e-02
-1.527336669868398111e+00,-8.323249423783307677e-01,6.287412262582356970e-01,1.000000000000000048e-04,4.290933738242889461e+01,5.000000000000000278e-02
4.705853752366611076e-01,-2.411732574400671236e-01,5.893931457256245121e-01,1.000000000000000048e-04,4.262292360239939626e+01,5.000000000000000278e-02
2.039925058694264770e+00,-1.064543992696673769e+00,9.395383185227876854e-01,1.000000000000000048e-04,4.384104246213995992e+01,5.000000000000000278e-02
-2.972496648016098142e+00,-3.722308588315688116e-01,7.443643287825296717e-02,1.000000000000000048e-04,3.768597964441189418e+01,5.000000000000000278e-02
-2.622993817939830663e+00,1.357189523159108901e+00,6.807432257881265159e-01,1.000000000000000048e-04,4.306472576802428875e+01,5.000000000000000278e-02
-4.671999796099246538e-02,-8.189901991653147917e-03,3.321003463177802928e-01,1.000000000000000048e-04,4.123852157300569843e+01,5.000000000000000278e-02
-3.130834626971322088e+00,2.065141199646953751e-01,4.243189201415753509e-01,1.000000000000000048e-04,4.182530757345509187e+01,5.000000000000000278e-02
-2.627451188977488528e+00,7.385980192453458493e-01,6.279953760319052503e-01,1.000000000000000048e-04,4.287693193035450179e+01,5.000000000000000278e-02
4.402516628485688699e-01,-3.498809171483117098e-01,2.340537822780137667e-01,1.000000000000000048e-04,4.033373375767992286e+01,5.000000000000000278e-02
-1.941699528706606115e+00,-1.884762714332000044e-01,7.555024830334744479e-01,1.000000000000000048e-04,4.324203937932776398e+01,5.000000000000000278e-02
1.691052968078587959e+00,-4.692125490135321542e-01,2.726817928087745813e-01,1.000000000000000048e-04,4.076640576377229763e+01,5.000000000000000278e-02
-2.804254476180263467e+00,1.291588538651316842e+00,7.574591595758226603e-01,1.000000000000000048e-04,4.345065368539791706e+01,5.000000000000000278e-02
2.084392941280338363e+00,-3.319242566762115043e-01,2.054750280300698950e-01,1.000000000000000048e-04,4.007407848899684666e+01,5.000000000000000278e-02
-9.427253874294345692e-01,2.426134410515869977e-01,2.102499085008930901e-01,1.000000000000000048e-04,4.007712855677620212e+01,5.000000000000000278e-02
-1.001909635111139618e+00,-7.004706806903285843e-01,9.460428093232300384e-01,1.000000000000000048e-04,4.392659325881795951e+01,5.000000000000000278e-02
6.676915174751316684e-01,-6.650805734977738304e-01,8.926244798039872919e-02,1.000000000000000048e-04,3.803599394589688387e+01,5.000000000000000278e-02
-2.066605528767111011e+00,8.502414541226528399e-01,5.006045911416852068e-01,1.000000000000000048e-04,4.222677318488998566e+01,5.000000000000000278e-02
7.849501833968548503e-01,7.111564152402523042e-01,8.077260755306230333e-01,1.000000000000000048e-04,4.358581126863313671e+01,5.000000000000000278e-02
1.782654576746002029e+00,9.462528645414480799e-01,1.784874907038815905e-01,1.000000000000000048e-04,3.966989726480877465e+01,5.000000000000000278e-02
1.348754947118740333e+00,1.202472962321980976e-01,6.777677339089474007e-01,1.000000000000000048e-04,4.315834339572582223e+01,5.000000000000000278e-02
-2.942309331580574838e+00,3.854517280123803680e-02,3.592655573652949741e-01,1.000000000000000048e-04,4.147217334180038506e+01,5.000000000000000278e-02
2.204305494467373450e+00,9.328020943297725687e-01,6.766681190734005202e-01,1.000000000000000048e-04,4.310030251840616700e+01,5.000000000000000278e-02
1.543841447381988807e+00,1.400738663284421648e+00,9.086784655054405135e-01,1.000000000000000048e-04,4.385716488256026224e+01,5.000000000000000278e-02
-1.503558467822556199e+00,-3.080557999093531674e-01,7.996691374438915645e-01,1.000000000000000048e-04,4.352974476068548881e+01,5.000000000000000278e-02
1.847005378560195865e-01,-8.665234087963693543e-01,2.421698760731878508e-01,1.000000000000000048e-04,4.034245495222887712e+01,5.000000000000000278e-02
-1.159546525027667974e+00,4.323490221957952961e-01,3.707574889589175804e-01,1.000000000000000048e-04,4.144195018487162230e+01,5.000000000000000278e-02
-3.089415874930859562e+00,-3.080550817485185888e-01,1.757491921750740094e-01,1.000000000000000048e-04,3.964427481408998233e+01,5.000000000000000278e-02
1.416883061755792816e+00,6.336542343113067410e-01,4.261538618205102935e-01,1.000000000000000048e-04,4.180185262827261283e+01,5.000000000000000278e-02
-2.576560893340727798e+00,1.844311248487020549e-01,6.266432146776004242e-01,1.000000000000000048e-04,4.285046470649051997e+01,5.000000000000000278e-02
1.691151588804759243e+00,-1.163541384668342893e-01,5.581180699456771421e-01,1.000000000000000048e-04,4.258144110513303815e+01,5.000000000000000278e-02
5.875906732472468974e-02,1.255068535255918771e-01,7.268089300233331329e-01,1.000000000000000048e-04,4.322112620269617622e+01,5.000000000000000278e-02
1.141974589521084660e+00,-1.679113750751115575e-02,4.134009381295911112e-01,1.000000000000000048e-04,4.174282724161714242e+01,5.000000000000000278e-02
-2.480527436175493428e+00,-6.498422147136692084e-01,7.113872972246106929e-01,1.000000000000000048e-04,4.322497147939402851e+01,5.000000000000000278e-02
-3.066944944257604000e+00,-4.512110650175131799e-01,2.696392790252024607e-01,1.000000000000000048e-04,4.068859103874527250e+01,5.000000000000000278e-02
2.438378489600633969e+00,3.547798690050907311e-01,4.353794160108630518e-01,1.000000000000000048e-04,4.194418489654890436e+01,5.000000000000000278e-02
1.172051411388955522e+00,8.353421432999956764e-01,6.750621815401225412e-01,1.000000000000000048e-04,4.307505530068090849e+01,5.000000000000000278e-02
2.618703325567891760e+00,4.580666903669503576e-01,2.402402958023992507e-01,1.000000000000000048e-04,4.036372971018543154e+01,5.000000000000000278e-02
-2.286548026254372701e+00,5.079619333508733625e-01,8.136028188047117471e-01,1.000000000000000048e-04,4.360080180910883740e+01,5.000000000000000278e-02
1.330912197240654571e+00,8.565470875896483705e-01,1.740470176228350319e-01,1.000000000000000048e-04,3.966177149476030905e+01,5.000000000000000278e-02
5.061027196895073743e-02,1.551076690421335780e-01,5.895943861555617005e-01,1.000000000000000048e-04,4.274148463479956916e+01,5.000000000000000278e-02
1.375906983020460217e+00,-7.875958009513883695e-02,5.588054802178497038e-01,1.000000000000000048e-04,4.264005839554943122e+01,5.000000000000000278e-02
-8.283030638719366401e-01,8.281477725175365734e-01,3.547382778668581871e-01,1.000000000000000048e-04,4.135829621722908911e+01,5.000000000000000278e-02
1.525038970461942256e+00,-3.919132446429645089e-01,7.640118532503441529e-01,1.000000000000000048e-04,4.344688090856008955e+01,5.000000000000000278e-02
-2.498784032149372614e-01,5.193609221174915191e-01,1.183050979972066763e-01,1.000000000000000048e-04,3.861732354744449225e+01,5.000000000000000278e-02
2.239128690923111620e+00,1.273583793462606639e+00,9.126184070791236724e-01,1.000000000000000048e-04,4.394863754104709841e+01,5.000000000000000278e-02
2.495809722497875249e+00,1.418695866007699813e-01,5.306219924162647317e-01,1.000000000000000048e-04,4.244240435961935276e+01,5.000000000000000278e-02
-1.112708199190671987e+00,-4.897152410228486907e-01,5.148978938857704524e-01,1.000000000000000048e-04,4.232768012588084616e+01,5.000000000000000278e-02
-2.406934629178334895e+00,4.969020464685414140e-01,8.984690398520671639e-01,1.000000000000000048e-04,4.386529470078931325e+01,5.000000000000000278e-02
-8.891278534497040198e-01,-4.027970683600694546e-01,5.522552327720653409e-01,1.000000000000000048e-04,4.261005529952392124e+01,5.000000000000000278e-02
6.932893236892518907e-01,6.230672258885738835e-01,2.196510093838996980e-01,1.000000000000000048e-04,4.025461113970873583e+01,5.000000000000000278e-02
1.609131613657807769e+00,6.474167799685730529e-01,8.269579608069792531e-01,1.000000000000000048e-04,4.360543531644530901e+01,5.000000000000000278e-02
1.635300292216271600e+00,7.268981805293828202e-01,6.911530098623150931e-01,1.000000000000000048e-04,4.305022938412282940e+01,5.000000000000000278e-02
2.877504815858082488e+00,-8.341407251905266218e-01,3.845880765594740236e-01,1.000000000000000048e-04,4.157156054590193861e+01,5.000000000000000278e-02
-1.976330624741532649e+00,2.799612226283469951e-01,1.563840667757567804e-01,1.000000000000000048e-04,3.936253345647523361e+01,5.000000000000000278e-02
1.292560460851963633e+00,1.402540810926085069e+00,1.531059011193638408e-01,1.000000000000000048e-04,3.924933621442088594e+01,5.000000000000000278e-02
-2.536557516356318320e+00,3.827731884947627172e-02,2.109128862398168547e-01,1.000000000000000048e-04,4.015092574095449152e+01,5.000000000000000278e-02
1.753433672024506507e+00,2.772373600306963226e-01,4.364357932532301199e-01,1.000000000000000048e-04,4.188910685761389630e+01,5.000000000000000278e-02
-9.143273490783476731e-01,5.190495094424769640e-01,4.392856638575228789e-01,1.000000000000000048e-04,4.193834180350521024e+01,5.000000000000000278e-02
-2.162220757262957260e+00,-4.372349367141414866e-02,8.228976255507056692e-01,1.000000000000000048e-04,4.356529498685241464e+01,5.000000000000000278e-02
3.981838192054798498e-01,3.518497661747055361e-02,6.018722281226247528e-01,1.000000000000000048e-04,4.275941646551327580e+01,5.000000000000000278e-02
2.646158762555126387e+00,-2.127723187493766321e-01,6.891781814965618480e-01,1.000000000000000048e-04,4.316955908788079199e+01,5.000000000000000278e-02
4.322002629726826584e-01,2.644532413689109074e-01,7.247970137848531724e-01,1.000000000000000048e-04,4.336514585381663522e+01,5.000000000000000278e-02
3.753819740866597421e-01,-4.540049066204547845e-01,6.601187993611188354e-01,1.000000000000000048e-04,4.296367801006821452e+01,5.000000000000000278e-02
-1.807440190713738071e+00,2.966582082052591218e-01,8.645552016233510884e-01,1.000000000000000048e-04,4.372771531913599574e+01,5.000000000000000278e-02
-2.528298614442190839e+00,-6.670532650336332692e-01,2.972966004278168040e-01,1.000000000000000048e-04,4.092161635485962279e+01,5.000000000000000278e-02
9.031773003438861025e-01,-4.320536948857123249e-02,1.501701005891284968e-01,1.000000000000000048e-04,3.927635739294171202e+01,5.000000000000000278e-02
-3.141149679276453721e+00,-2.689630591530729475e-01,8.915746726117657062e-02,1.000000000000000048e-04,3.808332189407089885e+01,5.000000000000000278e-02
-1.225791007679610800e-03,1.794457579141006676e-01,6.057456322472036803e-01,1.000000000000000048e-04,4.274710834971651252e+01,5.000000000000000278e-02
-2.730753105233802991e-01,-2.800249647596708691e-01,1.777001941307521093e-01,1.000000000000000048e-04,3.972599502576251496e+01,5.000000000000000278e-02
1.059883449052015258e+00,7.950578625191249138e-01,9.943460825385797008e-02,1.000000000000000048e-04,3.833809903742280767e+01,5.000000000000000278e-02
6.428754329999044614e-01,6.339502993419023902e-01,2.773221756270711769e-01,1.000000000000000048e-04,4.077333028894388889e+01,5.000000000000000278e-02
2.463177090277009817e+00,-8.450196529941707002e-01,1.457157903004444588e-01,1.000000000000000048e-04,3.922345397097311803e+01,5.000000000000000278e-02
1.056712967354759058e+00,7.499391837151341278e-01,5.490491821520722127e-01,1.000000000000000048e-04,4.256749529373012564e+01,5.000000000000000278e-02
2.560974174551951421e+00,1.390692452482396035e+00,7.241605319441530852e-01,1.000000000000000048e-04,4.322804216810436628e+01,5.000000000000000278e-02
-1.661488441321340215e+00,-8.294154033129190751e-01,1.251390191439607502e-01,1.000000000000000048e-04,3.879625342151291534e+01,5.000000000000000278e-02
-1.059149925670521686e+00,7.447586892284920879e-01,4.671290510219805459e-01,1.000000000000000048e-04,4.216376692005169247e+01,5.000000000000000278e-02
1.818114634610326519e+00,1.699293085113766644e-01,8.188000199983349603e-01,1.000000000000000048e-04,4.352741233011196442e+01,5.000000000000000278e-02
-1.162508293099762779e+00,6.033793918692746949e-01,3.444153718931677322e-01,1.000000000000000048e-04,4.127940932977865884e+01,5.000000000000000278e-02
2.075302418197421339e+00,4.979400383656717999e-02,9.206149181962735017e-01,1.000000000000000048e-04,4.390746370552695765e+01,5.000000000000000278e-02
2.486996191698520597e+00,-2.983316852438742117e-01,7.098494119814864334e-01,1.000000000000000048e-04,4.311757900881944039e+01,5.000000000000000278e-02
1.141698163793686938e+00,-1.222775091764410904e+00,2.320262883473893645e-01,1.000000000000000048e-04,4.033677633575020138e+01,5.000000000000000278e-02
-3.368950474050045329e-01,-4.464579855233103967e-01,6.875416946063217516e-02,1.000000000000000048e-04,3.752774401041295960e+01,5.000000000000000278e-02
-2.293285961193124223e+00,3.611746759802092477e-02,7.415366737476687398e-01,1.000000000000000048e-04,4.326075489510916583e+01,5.000000000000000278e-02
1.399839509659974723e-01,5.702146765211439927e-01,6.821554491271115683e-01,1.000000000000000048e-04,4.314304363201407000e+01,5.000000000000000278e-02
-9.928339341376060112e-01,-5.159645591420476407e-01,2.024917408646433881e-01,1.000000000000000048e-04,3.993375944115855702e+01,5.000000000000000278e-02
-1.444902459336051770e+00,-7.164211971086399400e-01,4.849588079973272681e-01,1.000000000000000048e-04,4.222158126873227957e+01,5.000000000000000278e-02
-1.262220966218428941e+00,-6.016997824853690391e-01,1.955344999843500187e-01,1.000000000000000048e-04,3.996890071501153585e+01,5.000000000000000278e-02
-2.550470913202064427e+00,-4.590998863205406622e-01,2.013519137472217224e-01,1.000000000000000048e-04,4.002311148473931723e+01,5.000000000000000278e-02
-1.717625830374947871e+00,1.611669740726395794e-01,3.823089606713765409e-01,1.000000000000000048e-04,4.158242496905271679e+01,5.000000000000000278e-02
-1.706038886156348022e+00,-3.709709024180216641e-01,5.210405158054796093e-01,1.000000000000000048e-04,4.235558277310349951e+01,5.000000000000000278e-02
1.229969187078920001e+00,1.060295960642716473e+00,6.890976888260027522e-01,1.000000000000000048e-04,4.311119927691634501e+01,5.000000000000000278e-02
7.996743877089684815e-01,-1.233526705379661692e-02,4.071447506710681452e-01,1.000000000000000048e-04,4.173190369993471194e+01,5.000000000000000278e-02
1.653057313477251711e+00,-3.404766703132862116e-01,7.286730666468317352e-01,1.000000000000000048e-04,4.327750084466168801e+01,5.000000000000000278e-02
-1.540362864552976108e+00,-5.169291210030757533e-02,8.492455590298271240e-01,1.000000000000000048e-04,4.368528359330431243e+01,5.000000000000000278e-02
2.446442468594756114e+00,1.448011854223585360e-01,7.368653243897653748e-01,1.000000000000000048e-04,4.331451720720889398e+01,5.000000000000000278e-02
3.033329709651891193e+00,-2.685396241910726900e-01,6.710546458184856178e-01,1.000000000000000048e-04,4.312031784046764216e+01,5.000000000000000278e-02
1.622553649277270971e+00,-1.054028265678556897e+00,5.086297673306126033e-01,1.000000000000000048e-04,4.232760142672812975e+01,5.000000000000000278e-02
1.208488670149281852e+00,5.158041423206927156e-01,2.889211564873102045e-01,1.000000000000000048e-04,4.089629661501214031e+01,5.000000000000000278e-02
2.514392799976360671e+00,1.566156388878852113e-01,3.928384692304633941e-01,1.000000000000000048e-04,4.165989134688255291e+01,5.000000000000000278e-02
5.390826169327223027e-01,-6.929237791172669914e-01,2.226607324510052610e-01,1.000000000000000048e-04,4.022749144792159370e+01,5.000000000000000278e-02
3.138218961086280956e+00,7.341927588353414080e-02,8.923845792714193426e-01,1.000000000000000048e-04,4.386926516394981235e+01,5.000000000000000278e-02
-6.112037927380780111e-01,-9.149498691729706090e-01,2.442202595988713920e-01,1.000000000000000048e-04,4.039276541114453778e+01,5.000000000000000278e-02
1.424477399854757742e-01,-9.680190946193534263e-01,2.567265479597400368e-01,1.000000000000000048e-04,4.060663331118846742e+01,5.000000000000000278e-02
-2.295494579238394284e+00,6.642250749848410685e-01,5.443395186745880743e-01,1.000000000000000048e-04,4.250332191598272402e+01,5.000000000000000278e-02
-3.691809665502088222e-02,-1.220666953632260965e+00,5.423015534237747293e-01,1.000000000000000048e-04,4.238170552988965056e+01,5.000000000000000278e-02
-2.155930428933330312e+00,2.782594830563605015e-01,4.495928364812098454e-01,1.000000000000000048e-04,4.192739712772553418e+01,5.000000000000000278e-02
-1.735350238816687929e+00,4.614496936294387730e-01,3.634961460189716220e-01,1.000000000000000048e-04,4.141002059362740795e+01,5.000000000000000278e-02
1.437114951793731166e+00,6.766506572062280789e-01,4.506005290758925419e-01,1.000000000000000048e-04,4.189506722537968386e+01,5.000000000000000278e-02
1.551000135537656810e+00,-4.505836594816334806e-01,1.279910117159572813e-01,1.000000000000000048e-04,3.890887239769558192e+01,5.000000000000000278e-02
2.012590461751289972e+00,-8.419287382565920907e-02,5.748313481000701941e-01,1.000000000000000048e-04,4.263482590914121317e+01,5.000000000000000278e-02
-2.281587984149184400e+00,-7.759429845124232727e-02,1.822609532044268121e-01,1.000000000000000048e-04,3.983382553596796782e+01,5.000000000000000278e-02
5.175381801826501871e-01,4.234991008931372480e-01,7.310376644751745978e-01,1.000000000000000048e-04,4.323008121347464083e+01,5.000000000000000278e-02
-1.949681049147820033e+00,2.309835161370796808e-01,6.737478941298342683e-01,1.000000000000000048e-04,4.307376536106135489e+01,5.000000000000000278e-02
5.155855883849072008e-01,-8.366226459442738239e-02,4.588983156207864234e-01,1.000000000000000048e-04,4.207200450952110771e+01,5.000000000000000278e-02
-1.810621965143765610e+00,4.908091462794459403e-01,4.338141620077635707e-01,1.000000000000000048e-04,4.190450481579043185e+01,5.000000000000000278e-02
-1.910541171765100854e+00,6.991388946424961226e-01,1.737972385100294836e-01,1.000000000000000048e-04,3.967796029275601200e+01,5.000000000000000278e-02
-3.099477954883882891e+00,-6.122759866865356004e-01,6.285032988092331685e-02,1.000000000000000048e-04,3.721476198344186059e+01,5.000000000000000278e-02
-4.758305137263985074e-01,-2.719427342602900310e-01,2.412960571908995266e-01,1.000000000000000048e-04,4.043253068585455878e+01,5.000000000000000278e-02
-3.079287859432509045e+00,2.027212651523164766e-01,4.962731307909045153e-01,1.000000000000000048e-04,4.220398297253735365e+01,5.000000000000000278e-02
-2.178261438614487844e+00,1.131286073486103216e+00,5.924163292222350830e-01,1.000000000000000048e-04,4.277836901039820816e+01,5.000000000000000278e-02
-1.057707744502288438e+00,4.321058542772058253e-01,7.703825621206481511e-01,1.000000000000000048e-04,4.341215035600099981e+01,5.000000000000000278e-02
-2.799144521354612891e+00,1.149036665970386117e+00,8.996093074171007675e-01,1.000000000000000048e-04,4.381534703924318563e+01,5.000000000000000278e-02
1.152193700133321563e+00,-1.000484791405695795e-01,3.945406159105910859e-01,1.000000000000000048e-04,4.169029695484367437e+01,5.000000000000000278e-02
1.430222067894610483e+00,8.523653805690667440e-01,7.123020640987431928e-01,1.000000000000000048e-04,4.323668484081969154e+01,5.000000000000000278e-02
2.818960047492502063e+00,-1.343518118639404069e-01,7.777165973407289545e-01,1.000000000000000048e-04,4.348666875952956445e+01,5.000000000000000278e-02
1.997218647703505212e+00,1.258969666004386312e+00,4.207017787019853294e-01,1.000000000000000048e-04,4.178098963541880551e+01,5.000000000000000278e-02
-2.305628998395218510e+00,1.904963759159845615e-01,2.887934959714599792e-01,1.000000000000000048e-04,4.086941706912242012e+01,5.000000000000000278e-02
-1.241232116436499888e+00,-5.387085659010015792e-01,6.089190760772471567e-01,1.000000000000000048e-04,4.287942470149492635e+01,5.000000000000000278e-02
-2.009983691935773642e+00,5.976566250101216227e-01,6.213671068318942226e-01,1.000000000000000048e-04,4.290280332526855034e+01,5.000000000000000278e-02
-2.417401339214614087e+00,6.331172577675032720e-01,2.063469924121181798e-01,1.000000000000000048e-04,4.009105141207497525e+01,5.000000000000000278e-02
1.134893564316838521e+00,-9.023508785633849172e-03,7.173598953393489630e-01,1.000000000000000048e-04,4.330920586400923611e+01,5.000000000000000278e-02
-1.998900909856522690e+00,1.867821511719145455e-01,1.137675327451432850e-01,1.000000000000000048e-04,3.861748767687881667e+01,5.000000000000000278e-02
9.982218189168001743e-01,-8.758743962036894537e-01,7.222601029029842579e-01,1.000000000000000048e-04,4.322594708851629974e+01,5.000000000000000278e-02
-1.099068296963796598e-01,-2.529610026290747271e-01,3.795343106347808249e-01,1.000000000000000048e-04,4.161246934563796174e+01,5.000000000000000278e-02
-1.905178049723814659e+00,6.050014939107519751e-01,8.687099270619840219e-01,1.000000000000000048e-04,4.369996128138814839e+01,5.000000000000000278e-02
-1.639423905201552012e+00,-1.469848056492105481e+00,9.268968782633764114e-01,1.000000000000000048e-04,4.396312061631012824e+01,5.000000000000000278e-02
1.162398177155876233e+00,-7.385166570876140479e-01,9.056296726974277789e-02,1.000000000000000048e-04,3.811195946391133305e+01,5.000000000000000278e-02
-8.101859814900977952e-01,4.248433309315027273e-01,3.720418478652605110e-01,1.000000000000000048e-04,4.147946823446409326e+01,5.000000000000000278e-02
-2.321834931697465798e+00,6.535761635277119730e-01,4.989312064472668506e-01,1.000000000000000048e-04,4.231899027356320886e+01,5.000000000000000278e-02
2.335462512349190334e+00,5.076161622648962535e-01,9.027703278991645597e-01,1.000000000000000048e-04,4.383082756584511230e+01,5.000000000000000278e-02
2.800525829426833369e+00,6.069421634242213592e-01,5.768811510526372643e-02,1.000000000000000048e-04,3.707329683255673558e+01,5.000000000000000278e-02
-1.993797202540871227e+00,4.916380649499365596e-01,1.056781653231477769e-01,1.000000000000000048e-04,3.853321350387024324e+01,5.000000000000000278e-02
2.862395499752254935e+00,7.645883726920383872e-01,4.560503007195486624e-01,1.000000000000000048e-04,4.198939536888669011e+01,5.000000000000000278e-02
2.432071905630974307e+00,1.070574918394247899e+00,9.293691609024163913e-01,1.000000000000000048e-04,4.395927349832998487e+01,5.000000000000000278e-02
3.118479991158481290e+00,-6.013041581806063407e-01,9.592224943693250516e-02,1.000000000000000048e-04,3.821447449385328099e+01,5.000000000000000278e-02
-4.689226383659113040e-01,-2.011152237905726725e-01,1.025349299468227837e-01,1.000000000000000048e-04,3.823491616034828411e+01,5.000000000000000278e-02
2.321557492664632072e+00,1.034265596008956400e-01,2.711552738299454202e-01,1.000000000000000048e-04,4.076477123125198432e+01,5.000000000000000278e-02
-2.416540588439130666e+00,-1.092934433071553801e+00,7.471033639273290117e-01,1.000000000000000048e-04,4.328276547824363263e+01,5.000000000000000278e-02
-1.055459256842743887e+00,4.774788071090014796e-01,5.784985812017373608e-01,1.000000000000000048e-04,4.267621303376747477e+01,5.000000000000000278e-02
-1.428323995042327432e+00,4.564306197175049817e-02,3.961417015571744304e-01,1.000000000000000048e-04,4.166967398338463369e+01,5.000000000000000278e-02
-1.900429995917283010e+00,8.520931645162441725e-01,9.262401173515442121e-01,1.000000000000000048e-04,4.391307057776293021e+01,5.000000000000000278e-02
1.860588887575703509e+00,5.067578919986206465e-01,8.904824796679866594e-02,1.000000000000000048e-04,3.812598064379573515e+01,5.000000000000000278e-02
3.128120310031736295e+00,1.982003450440190662e-01,2.229921513670043431e-01,1.000000000000000048e-04,4.026998107044778408e+01,5.000000000000000278e-02
-2.592134170957867578e+00,-6.952237739652539217e-01,2.862512485843824450e-01,1.000000000000000048e-04,4.080454658151931824e+01,5.000000000000000278e-02
1.274508090456823339e+00,-1.125791635984980887e+00,4.187559845602222275e-01,1.000000000000000048e-04,4.184305394418169044e+01,5.000000000000000278e-02
2.315775911646060337e+00,4.603399051958305677e-01,8.116631705408776654e-01,1.000000000000000048e-04,4.356062786549933463e+01,5.000000000000000278e-02
2.613578397065273506e+00,2.937691304967611217e-01,4.116736101572748829e-01,1.000000000000000048e-04,4.171556634155781040e+01,5.000000000000000278e-02
-1.473483067394758095e+00,1.243159656442483829e+00,3.188547852469758581e-01,1.000000000000000048e-04,4.107945553979758557e+01,5.000000000000000278e-02
-1.265332485145463259e+00,1.122212015891867587e+00,6.743078948671172856e-01,1.000000000000000048e-04,4.299782456093799965e+01,5.000000000000000278e-02
1.471854024761743318e+00,1.154120727067417640e+00,6.022300355642296044e-01,1.000000000000000048e-04,4.280935236369640506e+01,5.000000000000000278e-02
2.742686936540128073e+00,3.311195078888995447e-02,9.123800273143078954e-02,1.000000000000000048e-04,3.816022103320517544e+01,5.000000000000000278e-02
-2.849712704088709803e+00,4.438456965501629270e-01,9.021137153818825638e-02,1.000000000000000048e-04,3.796468639820088953e+01,5.000000000000000278e-02
1.424560517449555697e+00,5.385125129423626866e-01,7.382474289567253489e-01,1.000000000000000048e-04,4.321846719654556068e+01,5.000000000000000278e-02
-2.006764528985364393e+00,5.431191671912638519e-01,2.404084661327394734e-01,1.000000000000000048e-04,4.045649477208434064e+01,5.000000000000000278e-02
-1.815783785502550263e+00,-8.917651448884467147e-01,1.206801389897911303e-01,1.000000000000000048e-04,3.878710771370608512e+01,5.000000000000000278e-02
-2.528838629137845739e+00,-1.127064069625925313e+00,7.966143447084861329e-01,1.000000000000000048e-04,4.350489675680807267e+01,5.000000000000000278e-02
-5.889297825285431109e-01,-2.939426286839403879e-01,5.859746003506427492e-02,1.000000000000000048e-04,3.707329766562495621e+01,5.000000000000000278e-02
-1.570707545479412159e+00,4.995248517856749615e-01,1.268067621866377781e-01,1.000000000000000048e-04,3.887447065258317025e+01,5.000000000000000278e-02
6.706295318818398243e-01,-2.611083780500260687e-01,5.612100045279007077e-01,1.000000000000000048e-04,4.252665075450471477e+01,5.000000000000000278e-02
1.984376163927771941e+00,-1.216006448494533210e-01,9.273631743780594849e-01,1.000000000000000048e-04,4.383125532229475141e+01,5.000000000000000278e-02
-1.787717752532889115e-01,-5.063116222388461818e-01,8.712866963984478019e-02,1.000000000000000048e-04,3.802927389580974449e+01,5.000000000000000278e-02
-2.273468255638681157e+00,-8.277354269446296486e-01,4.320229100999586347e-01,1.000000000000000048e-04,4.187245056069944127e+01,5.000000000000000278e-02
7.773219356558502824e-01,-3.307206895829142290e-01,4.996174699812043762e-01,1.000000000000000048e-04,4.234477169936547369e+01,5.000000000000000278e-02
-6.910640774680678611e-01,3.692568054254397047e-02,7.283569910843605832e-01,1.000000000000000048e-04,4.321615479687476125e+01,5.000000000000000278e-02
-7.786964174765436120e-01,-5.496440795358501497e-01,3.788474003893533837e-01,1.000000000000000048e-04,4.152690176915918130e+01,5.000000000000000278e-02
-2.791216849806859024e+00,2.434601790933497156e-01,3.542678122557814113e-01,1.000000000000000048e-04,4.144808640450345649e+01,5.000000000000000278e-02
-9.661169267179112730e-01,-3.128432224901407377e-01,8.312456610900202936e-01,1.000000000000000048e-04,4.359841025701716433e+01,5.000000000000000278e-02
8.923807279827169481e-01,-5.503820191774402293e-01,6.953030267359354699e-01,1.000000000000000048e-04,4.317725811630195665e+01,5.000000000000000278e-02
2.822802229232465265e+00,-9.723818135358739401e-01,5.023034949945979211e-01,1.000000000000000048e-04,4.227407374262752882e+01,5.000000000000000278e-02
1.734189211951241205e+00,-1.322693938891607468e+00,2.300516122615205994e-01,1.000000000000000048e-04,4.027927210988482187e+01,5.000000000000000278e-02
4.704718304706640986e-01,7.147851460088343600e-01,2.604590672514823790e-01,1.000000000000000048e-04,4.058056227363844215e+01,5.000000000000000278e-02
-2.838176858903892708e+00,1.217228179447330305e+00,7.151401818800766641e-01,1.000000000000000048e-04,4.322405298269136864e+01,5.000000000000000278e-02
9.905689586574162320e-01,-3.953880403204967919e-01,5.325668822454920903e-01,1.000000000000000048e-04,4.236518278002576920e+01,5.000000000000000278e-02
-2.276477217866952785e+00,-1.719045519713069403e-01,1.434098408516264467e-01,1.000000000000000048e-04,3.907814712118160116e+01,5.000000000000000278e-02
1.259574957819215690e+00,-5.719451963474292411e-01,7.748244894882150291e-02,1.000000000000000048e-04,3.775871998552146636e+01,5.000000000000000278e-02
-7.505805309867641384e-02,-1.263058596183098903e+00,8.616049974012438550e-01,1.000000000000000048e-04,4.371964355495653365e+01,5.000000000000000278e-02
-2.499389252780052750e+00,-7.465910238582316172e-01,6.884722622079957333e-01,1.000000000000000048e-04,4.310840823554590173e+01,5.000000000000000278e-02
-2.152987296828045682e+00,-6.590809388437879335e-02,1.263541612467913300e-01,1.000000000000000048e-04,3.888154914120745076e+01,5.000000000000000278e-02
4.411402620619080395e-01,8.812332654287424738e-01,5.369838413593164272e-01,1.000000000000000048e-04,4.241240511948308978e+01,5.000000000000000278e-02
1.597607884470356510e+00,2.441605990856305919e-01,1.026256353119712195e-01,1.000000000000000048e-04,3.837070723854365184e+01,5.000000000000000278e-02
-2.281092968979376856e+00,3.531925695366051610e-01,1.725184723456378855e-01,1.000000000000000048e-04,3.962182830988344051e+01,5.000000000000000278e-02
-1.499414207246732467e+00,-7.281585810985851115e-01,7.924570045622689740e-01,1.000000000000000048e-04,4.347106875454449693e+01,5.000000000000000278e-02
-2.023632063407569071e+00,6.226036920444482092e-01,4.743373520496911855e-01,1.000000000000000048e-04,4.216324658131851777e+01,5.000000000000000278e-02
2.555466876150492617e+00,-4.203999261217274963e-01,1.965380873401645356e-01,1.000000000000000048e-04,3.991677880493918451e+01,5.000000000000000278e-02
-2.563824758143030458e+00,2.351229748535788033e-01,7.711496108453161913e-01,1.000000000000000048e-04,4.349029595645195911e+01,5.000000000000000278e-02
-1.213679047735794603e+00,-1.045302423273176018e+00,8.079466647293809256e-01,1.000000000000000048e-04,4.357757866697833293e+01,5.000000000000000278e-02
-2.745179371940270396e+00,-1.074239693004708229e-01,2.045519915998454952e-01,1.000000000000000048e-04,3.999635899525570437e+01,5.000000000000000278e-02
-6.204648571185211736e-02,1.176509330326321212e+00,7.277575372567146594e-01,1.000000000000000048e-04,4.330385700714067099e+01,5.000000000000000278e-02
2.817354036831516417e-01,-1.260753337960202725e+00,2.638153706446240143e-01,1.000000000000000048e-04,4.067282402948292486e+01,5.000000000000000278e-02
1.437847432377205692e+00,9.047018795620416221e-01,8.157119970725790203e-01,1.000000000000000048e-04,4.350554244822001948e+01,5.000000000000000278e-02
-1.845876814641937314e+00,-4.638001306595123108e-01,5.205376583287468772e-01,1.000000000000000048e-04,4.238119667028300341e+01,5.000000000000000278e-02
1.189747852635947289e+00,1.076256206851056163e-01,9.153558742147309690e-01,1.000000000000000048e-04,4.391814777815586979e+01,5.000000000000000278e-02
3.216120159962225777e-01,9.498661507524741587e-01,7.813777526231777681e-01,1.000000000000000048e-04,4.348185315251222249e+01,5.000000000000000278e-02
2.477430911824697546e+00,-4.406534930118994886e-01,7.046457219383841508e-01,1.000000000000000048e-04,4.321207984922192935e+01,5.000000000000000278e-02
3.002542210676678813e+00,-3.734816984049718069e-01,6.466616578022483797e-01,1.000000000000000048e-04,4.279953206638430174e+01,5.000000000000000278e-02
2.927101939144266751e+00,-5.431406622477832347e-01,7.284839593915064526e-01,1.000000000000000048e-04,4.334098318812865358e+01,5.000000000000000278e-02
-2.805863837023241381e-01,-3.299601507825455915e-01,7.698262822921364545e-02,1.000000000000000048e-04,3.765780323483760128e+01,5.000000000000000278e-02
-1.004162087284393934e+00,-1.197119286021321560e+00,1.951255629057544461e-01,1.000000000000000048e-04,3.997763535074991381e+01,5.000000000000000278e-02
1.849019184968211604e+00,-4.414480552362431975e-01,3.672738056994198086e-01,1.000000000000000048e-04,4.157062699316209375e+01,5.000000000000000278e-02
-1.785801292753216307e+00,-6.380977092486972424e-01,1.219872428091606231e-01,1.000000000000000048e-04,3.873022361296912663e+01,5.000000000000000278e-02
-3.748720121123478854e-01,4.714362040524058273e-01,6.997095986518209187e-02,1.000000000000000048e-04,3.745407174622818047e+01,5.000000000000000278e-02
1.117477709887904069e+00,-1.261583658149176834e+00,2.893193028844436299e-01,1.000000000000000048e-04,4.085413763558606348e+01,5.000000000000000278e-02
2.563780742372161470e+00,2.069669616771865339e-01,3.870711057430558100e-01,1.000000000000000048e-04,4.165393900062833410e+01,5.000000000000000278e-02
1.093670166079961703e+00,8.793504386123829342e-02,5.061142589145244397e-01,1.000000000000000048e-04,4.214192621122002436e+01,5.000000000000000278e-02
-1.583412318154774345e+00,6.051385436188296829e-01,4.779906634826405210e-01,1.000000000000000048e-04,4.221223948335315868e+01,5.000000000000000278e-02
-2.086735923637025536e+00,-3.354532517749451159e-01,7.599458475677016711e-01,1.000000000000000048e-04,4.336745328537469391e+01,5.000000000000000278e-02
1.348905739089667932e+00,5.539562701541567158e-02,8.384145906873399223e-01,1.000000000000000048e-04,4.369419828799721728e+01,5.000000000000000278e-02
-2.559175612414523293e+00,4.227439665238699185e-01,4.092476209998789916e-01,1.000000000000000048e-04,4.167602987811285686e+01,5.000000000000000278e-02
-1.640682105408112434e+00,1.108858807117044432e+00,1.685213024479128574e-01,1.000000000000000048e-04,3.954125997592220898e+01,5.000000000000000278e-02
-1.608983686834325244e+00,-2.942423663339310824e-01,5.739207869545748242e-01,1.000000000000000048e-04,4.266216098398953704e+01,5.000000000000000278e-02
1.649283805518679813e-01,-8.834355903330494142e-01,7.145277616920377994e-01,1.000000000000000048e-04,4.325432255591066877e+01,5.000000000000000278e-02
-2.818582134763107927e+00,6.880447937259432933e-01,1.642863000702772247e-01,1.000000000000000048e-04,3.939272344338689180e+01,5.000000000000000278e-02
-2.691291044023505385e+00,-1.341827477947058700e+00,4.725739718780490595e-01,1.000000000000000048e-04,4.210901132192554996e+01,5.000000000000000278e-02
7.790371932351587425e-01,8.793627365112492988e-01,4.288333655247931198e-01,1.000000000000000048e-04,4.178271217763916923e+01,5.000000000000000278e-02
-4.354992821673859815e-01,-3.528873525441560410e-01,5.201810011693654978e-01,1.000000000000000048e-04,4.240245779387080916e+01,5.000000000000000278e-02
-1.472065171926177252e+00,-1.548615127222998655e-01,5.382189357590618783e-01,1.000000000000000048e-04,4.238508016188907845e+01,5.000000000000000278e-02
-4.204721862394098508e-01,-8.373542273697132110e-02,5.972756113421047175e-01,1.000000000000000048e-04,4.270567053568288429e+01,5.000000000000000278e-02
-2.926529741203554025e+00,5.884225287755850964e-02,1.286971992601899650e-01,1.000000000000000048e-04,3.885357910061262743e+01,5.000000000000000278e-02
4.960398880788887688e-01,-2.868859048208847184e-01,1.239517207599734050e-01,1.000000000000000048e-04,3.887011732927128094e+01,5.000000000000000278e-02
1.255878532733223807e+00,2.199229308763994695e-01,8.199926706509137464e-01,1.000000000000000048e-04,4.356909376744152951e+01,5.000000000000000278e-02
-2.562800455609422379e+00,4.612039424627374373e-01,9.474668909896952762e-01,1.000000000000000048e-04,4.398226746435148016e+01,5.000000000000000278e-02
-1.812267214647177216e+00,3.419190494859505325e-01,5.458222846944436046e-01,1.000000000000000048e-04,4.260689080009159113e+01,5.000000000000000278e-02
2.974341049189681563e+00,4.900721499943143655e-01,4.878306837491039882e-01,1.000000000000000048e-04,4.232283278333547116e+01,5.000000000000000278e-02
3.060154744224271361e+00,-9.486685664521713468e-01,3.914952758065286531e-01,1.000000000000000048e-04,4.164752032975336249e+01,5.000000000000000278e-02
1.879900400710664776e+00,-2.395700468845645137e-01,9.339575964316804146e-02,1.000000000000000048e-04,3.818866183109422963e+01,5.000000000000000278e-02
1.888548371542850823e+00,8.909005685367472616e-01,6.590366941351011310e-01,1.000000000000000048e-04,4.304257216132523212e+01,5.000000000000000278e-02
-7.515514904825377762e-01,-2.408903000131508154e-01,1.828776256742410400e-01,1.000000000000000048e-04,3.968495166130352914e+01,5.000000000000000278e-02
2.625533980703772308e+00,6.330343673359464240e-01,8.264313198233612656e-01,1.000000000000000048e-04,4.366967497188241509e+01,5.000000000000000278e-02
-4.295246801154859462e-01,3.435520621980887590e-01,7.967923710972963924e-01,1.000000000000000048e-04,4.344240846443010895e+01,5.000000000000000278e-02
-2.522892552905702246e-01,-1.806064994816503066e-02,1.276170311954161196e-01,1.000000000000000048e-04,3.887742326887189392e+01,5.000000000000000278e-02
-4.641109557163112243e-01,6.543395298071530419e-02,5.793711725778682986e-01,1.000000000000000048e-04,4.264999950281997343e+01,5.000000000000000278e-02
1.461480762067285610e+00,-3.566778974750459685e-01,1.395556779109918821e-01,1.000000000000000048e-04,3.916843294247561147e+01,5.000000000000000278e-02
1.339903204098639833e+00,1.723340059531119906e-03,6.535198910025543650e-01,1.000000000000000048e-04,4.300696841451442509e+01,5.000000000000000278e-02
-2.071095457242646987e+00,-8.214923816883747953e-01,2.492821065097576838e-01,1.000000000000000048e-04,4.042328877749712746e+01,5.000000000000000278e-02
-2.917878275956614420e+00,-2.382848981359890761e-01,3.907684860952727046e-01,1.000000000000000048e-04,4.156203104603945775e+01,5.000000000000000278e-02
-1.654706056191819208e-01,-7.328580462732769973e-02,6.893970228988630655e-01,1.000000000000000048e-04,4.312535779232236877e+01,5.000000000000000278e-02
1.509687182973094011e-01,6.458825438763726723e-01,2.547209242740429147e-01,1.000000000000000048e-04,4.059699336204755582e+01,5.000000000000000278e-02
2.110351858569050165e+00,5.045368151470421836e-01,1.417655253150253980e-01,1.000000000000000048e-04,3.925295895111791822e+01,5.000000000000000278e-02
-5.208525187773354048e-01,-8.079313534547193365e-01,2.580361890537532510e-01,1.000000000000000048e-04,4.060024929918615300e+01,5.000000000000000278e-02
