-1.598279621179586663e+00,2.779993629999999993e-01,5.409245818488219726e-01,1.000000000000000048e-04,4.265936262958653913e+01,1.700000000000000122e-01
-8.306753881795865269e-01,5.048130450000000158e-01,6.989529036014587859e-01,1.000000000000000048e-04,4.303439675422762889e+01,1.600000000000000033e-01
-1.512887194179586281e+00,3.571169940000000209e-01,7.148004303518626923e-01,1.000000000000000048e-04,4.343068192064155397e+01,1.600000000000000033e-01
-2.094054222179586588e+00,-9.657747650000000350e-01,3.016294337737468467e-01,1.000000000000000048e-04,4.093703587457500248e+01,1.600000000000000033e-01
-1.256550916179586252e+00,-1.037146153999999987e+00,2.299494540422948319e-01,1.000000000000000048e-04,4.045142562459228230e+01,1.900000000000000022e-01
-2.638489419179586015e+00,-8.917870300000000361e-01,5.022059267654777059e-01,1.000000000000000048e-04,4.243071470410087898e+01,1.600000000000000033e-01
3.095686500000000008e-02,-1.139960520999999893e+00,2.448898102059735571e-01,1.000000000000000048e-04,4.054816579348965888e+01,1.700000000000000122e-01
-4.765590681795863759e-01,-7.328014390000000544e-01,5.753867331334172608e-01,1.000000000000000048e-04,4.256291611180271417e+01,1.600000000000000033e-01
7.532392530000000530e-01,9.936355940000000109e-01,7.513195471291447269e-01,1.000000000000000048e-04,4.313785931529764639e+01,1.600000000000000033e-01
1.355624495999999901e+00,4.654212710000000253e-01,4.527601767224938012e-01,1.000000000000000048e-04,4.194613690783128135e+01,2.200000000000000011e-01
-2.027672372179586624e+00,-3.494576850000000179e-01,2.193628216321359403e-01,1.000000000000000048e-04,4.000500396447650076e+01,8.999999999999999667e-02
-2.243457714179585949e+00,5.735296930000000071e-01,1.615234739346957937e-01,1.000000000000000048e-04,3.940451107578357437e+01,8.000000000000000167e-02
-1.661352162179586145e+00,7.473004210000000480e-01,6.878315448035383639e-01,1.000000000000000048e-04,4.298547888721814303e+01,1.100000000000000006e-01
-1.046494641179585905e+00,9.839422859999999993e-01,1.603865894916527424e-01,1.000000000000000048e-04,3.925392184876768198e+01,1.600000000000000033e-01
-1.357076630179586019e+00,8.591991679999999576e-01,2.098286050243522993e-01,1.000000000000000048e-04,3.994666682757140563e+01,1.300000000000000044e-01
-1.489161381179585852e+00,8.733460579999999807e-01,4.064243377237664046e-01,1.000000000000000048e-04,4.163891626653336431e+01,8.999999999999999667e-02
2.602874990000000111e+00,9.865781270000000269e-01,1.219361821015265690e-01,1.000000000000000048e-04,3.877757032009996863e+01,2.099999999999999922e-01
2.011122450999999867e+00,-1.257182417000000108e+00,2.482698614559075700e-01,1.000000000000000048e-04,4.049249483189633736e+01,1.799999999999999933e-01
2.487812089999999809e+00,-1.095252646999999913e+00,4.805908329817816238e-01,1.000000000000000048e-04,4.224822921846871537e+01,1.600000000000000033e-01
-2.060955814179585843e+00,9.020563839999999889e-01,3.070878930409211005e-01,1.000000000000000048e-04,4.088340891304310531e+01,1.799999999999999933e-01
-1.552222439179586466e+00,1.270289940999999923e+00,1.741079489523089663e-01,1.000000000000000048e-04,3.972973623752484684e+01,1.600000000000000033e-01
-3.584264691795864266e-01,1.112498557000000110e+00,2.546723536549266864e-01,1.000000000000000048e-04,4.052633998063186738e+01,2.000000000000000111e-01
1.187793541000000008e+00,1.533334508000000040e+00,1.582484045708145715e-01,1.000000000000000048e-04,3.966467414391372159e+01,1.700000000000000122e-01
9.029304540000000490e-01,-5.888661819999999603e-01,2.416099742362434188e-01,1.000000000000000048e-04,4.047203624876812000e+01,1.700000000000000122e-01
2.675488564000000125e+00,-1.029758079000000048e+00,1.374112309448396463e-01,1.000000000000000048e-04,3.891909488344358437e+01,1.700000000000000122e-01
9.979371630000000160e-01,-7.076351440000000492e-01,1.519116791368888553e-01,1.000000000000000048e-04,3.924979769838299148e+01,2.000000000000000111e-01
-2.809922836179586270e+00,-1.219770695000000016e+00,4.503568143480547459e-01,1.000000000000000048e-04,4.197787133243068070e+01,1.900000000000000022e-01
1.945616433999999950e+00,5.533621010000000506e-01,4.431605077182170227e-01,1.000000000000000048e-04,4.150946678411960278e+01,1.700000000000000122e-01
1.369802210000000131e-01,9.686457469999999459e-01,2.549410217622942731e-01,1.000000000000000048e-04,4.051932820470138807e+01,1.000000000000000056e-01
2.377785852000000144e+00,-1.071983155000000076e+00,2.428645692173998505e-01,1.000000000000000048e-04,4.031035987506076168e+01,1.000000000000000056e-01
1.194530383000000029e+00,-8.514353350000000153e-01,1.044026848029508514e+00,1.000000000000000048e-04,4.439988764225559947e+01,1.100000000000000006e-01
2.328991532999999947e+00,-1.085498080000000032e+00,1.944855627399697529e-01,1.000000000000000048e-04,3.977929383567765598e+01,1.199999999999999956e-01
3.099662444999999877e+00,-8.173274409999999879e-01,7.584957191638375118e-01,1.000000000000000048e-04,4.343520938776148199e+01,1.300000000000000044e-01
1.008677688999999988e+00,-7.224949280000000362e-01,3.545255289409474653e-01,1.000000000000000048e-04,4.136380514157335853e+01,1.199999999999999956e-01
1.116317643999999998e+00,-8.188746820000000204e-01,3.336569864479410619e-01,1.000000000000000048e-04,4.109275193248183911e+01,1.499999999999999944e-01
1.368634144999999913e+00,-9.746537960000000167e-01,3.681458066367790938e-01,1.000000000000000048e-04,4.132237259572166721e+01,2.200000000000000011e-01
2.840707745000000006e+00,-9.874777999999999611e-01,9.545676817500299283e-01,1.000000000000000048e-04,4.391640592034753610e+01,1.199999999999999956e-01
1.164831654000000105e+00,-8.361433499999999519e-01,8.038012761608679391e-01,1.000000000000000048e-04,4.349514219902670220e+01,1.600000000000000033e-01
9.274529849999999520e-01,-5.648102149999999488e-01,1.690008851750288699e-01,1.000000000000000048e-04,3.986172258599955853e+01,2.200000000000000011e-01
1.803806121999999901e+00,-1.051757271000000049e+00,2.011932893531709343e-01,1.000000000000000048e-04,4.001292132094414455e+01,2.200000000000000011e-01
1.910407339000000038e+00,-1.096340147000000043e+00,4.155449308702092726e-01,1.000000000000000048e-04,4.169229426895599033e+01,1.300000000000000044e-01
-2.994395329179586174e+00,-6.874333790000000111e-01,4.250258507683963849e-01,1.000000000000000048e-04,4.173462835364018986e+01,1.600000000000000033e-01
2.004169926999999962e+00,-1.114377941999999955e+00,1.740351268138340401e-01,1.000000000000000048e-04,3.962985962347003266e+01,2.099999999999999922e-01
2.993884073999999895e+00,-9.067153500000000310e-01,9.201434072150229682e-01,1.000000000000000048e-04,4.362286148819304543e+01,2.000000000000000111e-01
2.896584697999999847e+00,-6.981149509999999836e-01,6.838861825662969629e-01,1.000000000000000048e-04,4.315984245325534374e+01,2.000000000000000111e-01
2.644964143999999795e+00,-1.038456438999999953e+00,8.801956884302375439e-01,1.000000000000000048e-04,4.395519388092046142e+01,2.500000000000000000e-01
1.395029569000000080e+00,-9.673563530000000021e-01,1.295850386500444706e+00,1.000000000000000048e-04,4.468858855472754499e+01,2.200000000000000011e-01
1.133893306999999906e+00,-8.234022290000000410e-01,5.652926191755343055e-01,1.000000000000000048e-04,4.258708873035416076e+01,1.199999999999999956e-01
9.542908199999999841e-01,-6.210129070000000029e-01,6.389549605821238654e-01,1.000000000000000048e-04,4.289687097971368246e+01,1.400000000000000133e-01
1.112357503999999997e+00,-7.717409769999999947e-01,2.576717548609031017e-01,1.000000000000000048e-04,4.066931378397142538e+01,1.400000000000000133e-01
1.392129267000000059e+00,-9.489503049999999940e-01,1.019320300928552303e+00,1.000000000000000048e-04,4.422617293818490225e+01,1.100000000000000006e-01
3.104633763999999907e+00,-8.563587980000000321e-01,2.044441993121977053e-01,1.000000000000000048e-04,4.009119286141554994e+01,1.199999999999999956e-01
-1.581672989179586430e+00,-6.726275419999999672e-01,3.875387810199109051e-01,1.000000000000000048e-04,4.156075957926515940e+01,2.000000000000000111e-01
8.758714749999999549e-01,-5.394949780000000139e-01,3.866811492861652599e-01,1.000000000000000048e-04,4.139666230560997207e+01,1.199999999999999956e-01
1.027821937999999991e+00,-6.897361509999999640e-01,5.652915046986484171e-01,1.000000000000000048e-04,4.258926803170706421e+01,1.499999999999999944e-01
8.011105990000000343e-01,-4.568120419999999737e-01,2.724848798779166970e-01,1.000000000000000048e-04,4.090594461131945536e+01,1.499999999999999944e-01
8.044453879999999835e-01,-4.591503659999999765e-01,1.988444705187653039e-01,1.000000000000000048e-04,3.999682184820981945e+01,1.100000000000000006e-01
8.290542589999999601e-01,-4.498624509999999965e-01,9.439635309515324035e-01,1.000000000000000048e-04,4.429754809281465810e+01,1.199999999999999956e-01
2.306908324000000121e+00,-1.093655438999999951e+00,4.219554643264424865e-01,1.000000000000000048e-04,4.186507626984408148e+01,1.300000000000000044e-01
-3.090495873179586184e+00,-7.974218849999999970e-01,5.578005886036601080e-01,1.000000000000000048e-04,4.253886988465366414e+01,1.300000000000000044e-01
2.850739061000000074e+00,-9.724982730000000242e-01,2.774282228996183264e-01,1.000000000000000048e-04,4.055694661178850424e+01,1.100000000000000006e-01
1.925211972000000049e+00,-1.067349442999999898e+00,2.255798117493672539e-01,1.000000000000000048e-04,4.019497274459283886e+01,1.600000000000000033e-01
3.010706126000000094e+00,-9.149326070000000088e-01,5.027994820922574437e-01,1.000000000000000048e-04,4.222275735608536706e+01,1.199999999999999956e-01
1.754869720000000077e+00,-1.052947148999999971e+00,3.388773544895133938e-01,1.000000000000000048e-04,4.119749316404980988e+01,1.300000000000000044e-01
3.028086770999999899e+00,-8.725603690000000023e-01,9.006855905578015076e-01,1.000000000000000048e-04,4.362510206414367531e+01,1.199999999999999956e-01
2.780301081000000174e+00,-1.010780400000000023e+00,4.110330550356433577e-01,1.000000000000000048e-04,4.169538344610372604e+01,1.700000000000000122e-01
3.096540631999999960e+00,-8.261897350000000362e-01,6.150336307040360495e-01,1.000000000000000048e-04,4.279671022625922205e+01,1.100000000000000006e-01
-3.043596368179586342e+00,-7.656326449999999451e-01,5.515915517132303769e-01,1.000000000000000048e-04,4.249648436783599692e+01,1.100000000000000006e-01
2.593403560000000052e+00,-1.068240442000000012e+00,5.681836475473613923e-01,1.000000000000000048e-04,4.246201410651271857e+01,1.199999999999999956e-01
1.277663320999999907e+00,-8.910532270000000032e-01,3.379188062610436472e-01,1.000000000000000048e-04,4.142257309078692629e+01,1.499999999999999944e-01
8.729576639999999665e-01,-5.017517409999999733e-01,1.006722560399203381e+00,1.000000000000000048e-04,4.413778197772181500e+01,1.199999999999999956e-01
2.323316692000000128e+00,-1.072994334000000105e+00,3.999521298767663158e-01,1.000000000000000048e-04,4.172542862591350143e+01,1.400000000000000133e-01
-3.012222731179586166e+00,-7.219820959999999621e-01,1.049441930995004046e+00,1.000000000000000048e-04,4.423245501382312028e+01,1.199999999999999956e-01
2.306010604999999991e+00,-1.110345181000000014e+00,3.618413087151497454e-01,1.000000000000000048e-04,4.148032792131551361e+01,1.100000000000000006e-01
2.437557496999999795e+00,-1.097151527000000071e+00,7.077937063587094180e-01,1.000000000000000048e-04,4.326497803273353782e+01,1.100000000000000006e-01
1.098420291999999909e+00,-7.444727049999999569e-01,4.638812325464820585e-01,1.000000000000000048e-04,4.216332428414784772e+01,1.300000000000000044e-01
8.241628739999999897e-01,-4.611620249999999754e-01,1.270795478404616041e-01,1.000000000000000048e-04,3.896501361916921979e+01,1.400000000000000133e-01
1.017317494999999905e+00,-7.027905669999999771e-01,9.475934639984207042e-01,1.000000000000000048e-04,4.390432200434276666e+01,1.199999999999999956e-01
2.728679550999999925e+00,-1.007430967999999982e+00,9.957807926122785869e-01,1.000000000000000048e-04,4.403273061191545423e+01,1.100000000000000006e-01
2.848837458999999850e+00,-9.622339979999999793e-01,7.900679693794192548e-01,1.000000000000000048e-04,4.329435243148498813e+01,1.199999999999999956e-01
-3.065525731179586266e+00,-7.207210450000000046e-01,7.017634096665470445e-01,1.000000000000000048e-04,4.319750071810462799e+01,1.199999999999999956e-01
1.103969978000000074e+00,-7.587182380000000448e-01,1.633773379623422173e-01,1.000000000000000048e-04,3.941730589678018504e+01,1.300000000000000044e-01
1.112034854000000017e+00,-7.675460100000000008e-01,4.884897216169583611e-01,1.000000000000000048e-04,4.198544228427511626e+01,1.199999999999999956e-01
2.373162053000000160e+00,-1.072487750000000073e+00,9.568812797099568446e-01,1.000000000000000048e-04,4.387868381008998142e+01,1.100000000000000006e-01
2.221583438000000132e+00,-1.096064289000000080e+00,2.462445506497559222e-01,1.000000000000000048e-04,4.037753085027060251e+01,1.199999999999999956e-01
2.775251189000000007e+00,-1.013244017000000108e+00,5.181124102669933951e-01,1.000000000000000048e-04,4.247132490027561857e+01,1.700000000000000122e-01
1.527128894000000070e+00,-9.963611940000000056e-01,5.985640598048127536e-01,1.000000000000000048e-04,4.268319675293111004e+01,1.400000000000000133e-01
-1.936135624179586401e+00,1.327891944000000102e+00,1.603768250634236558e-01,1.000000000000000048e-04,3.939493274900550546e+01,1.199999999999999956e-01
2.120951332999999828e+00,-1.112975437000000012e+00,6.605585516635423815e-01,1.000000000000000048e-04,4.290158955796434270e+01,1.600000000000000033e-01
2.950704906999999988e+00,-9.277153000000000205e-01,9.357752393849021466e-01,1.000000000000000048e-04,4.387264002924753470e+01,1.700000000000000122e-01
2.461302839000000020e+00,-1.064109841000000056e+00,8.724882449295021658e-01,1.000000000000000048e-04,4.359584251689749124e+01,1.499999999999999944e-01
1.687800213000000049e+00,-1.037844004000000098e+00,2.594317187445323025e-01,1.000000000000000048e-04,4.050741430937664234e+01,1.100000000000000006e-01
-3.069023128179586113e+00,-7.343218900000000327e-01,4.751429914398639376e-01,1.000000000000000048e-04,4.234579875389196957e+01,2.000000000000000111e-01
7.655655390000000171e-01,-3.825025819999999799e-01,7.318235248447131358e-01,1.000000000000000048e-04,4.324126588409539806e+01,1.300000000000000044e-01
-3.051736326179586012e+00,-7.690870560000000467e-01,1.690402261303671771e-01,1.000000000000000048e-04,3.973250575677864305e+01,1.499999999999999944e-01
-3.116938176179586240e+00,-7.920766919999999711e-01,3.945902048762774950e-01,1.000000000000000048e-04,4.176703458999936203e+01,1.100000000000000006e-01
1.020863690000000101e+00,-6.877910739999999468e-01,3.672086947777513100e-01,1.000000000000000048e-04,4.131018453756412612e+01,1.199999999999999956e-01
1.792785233999999894e+00,-1.066474936999999956e+00,6.659529389006551003e-01,1.000000000000000048e-04,4.303983105696666911e+01,1.100000000000000006e-01
1.805689748000000039e+00,-1.066896787999999985e+00,2.236251527859434152e-01,1.000000000000000048e-04,4.008855247574958724e+01,1.100000000000000006e-01
1.773248071000000037e+00,-1.046601056999999946e+00,4.515675006404633596e-01,1.000000000000000048e-04,4.167150591715093810e+01,2.099999999999999922e-01
1.076689889999999927e+00,-7.549444410000000216e-01,3.276688550801918343e-01,1.000000000000000048e-04,4.117842514529718301e+01,1.199999999999999956e-01
2.336456505000000128e+00,-1.089906792000000069e+00,2.387887081395831945e-01,1.000000000000000048e-04,4.051311904916545359e+01,1.199999999999999956e-01
2.522083900000000156e+00,-1.078852812999999911e+00,3.531976688025411093e-01,1.000000000000000048e-04,4.150896465241248734e+01,1.199999999999999956e-01
3.676074389999999803e-01,1.100614297999999991e+00,6.087017808351622428e-01,1.000000000000000048e-04,4.283625203534908366e+01,1.700000000000000122e-01
2.099931574000000190e+00,-1.082223048999999993e+00,1.978614785167875922e-01,1.000000000000000048e-04,4.009706229526155852e+01,1.100000000000000006e-01
8.155488279999999479e-01,-4.642700679999999802e-01,4.950674641293115741e-01,1.000000000000000048e-04,4.215483158773863437e+01,2.099999999999999922e-01
9.861636230000000447e-01,-6.881834650000000497e-01,1.291476896436629662e+00,1.000000000000000048e-04,4.490455973077241936e+01,1.300000000000000044e-01
1.864254864999999928e+00,-1.086684659999999969e+00,8.791875797241117674e-01,1.000000000000000048e-04,4.365658306871147687e+01,1.199999999999999956e-01
2.873066016000000111e+00,-9.753574739999999466e-01,6.118932094369202712e-01,1.000000000000000048e-04,4.305083203442623585e+01,1.300000000000000044e-01
2.270287562000000037e+00,-1.085086717999999895e+00,2.317634785028357403e-01,1.000000000000000048e-04,4.035932650619249529e+01,1.799999999999999933e-01
8.268071609999999572e-01,-4.587794940000000099e-01,2.221647677847498059e-01,1.000000000000000048e-04,4.000004416269461416e+01,1.199999999999999956e-01
-3.050869045179586347e+00,-7.648855789999999821e-01,2.328164012786306802e-01,1.000000000000000048e-04,4.019871126934246774e+01,1.199999999999999956e-01
1.101963728999999947e+00,-7.466317359999999903e-01,7.262764010871631815e-01,1.000000000000000048e-04,4.327020165428277210e+01,1.900000000000000022e-01
1.745116724000000064e+00,-1.056563783000000090e+00,3.736125030961645610e-01,1.000000000000000048e-04,4.158118818318563825e+01,1.300000000000000044e-01
7.889769570000000343e-01,-3.846565690000000037e-01,4.892916586821878244e-01,1.000000000000000048e-04,4.217527724455364080e+01,1.499999999999999944e-01
1.385818830999999918e+00,-9.278259679999999454e-01,1.299849872786460470e-01,1.000000000000000048e-04,3.891776680164793589e+01,1.499999999999999944e-01
1.138484923000000038e+00,-8.197145099999999518e-01,4.395563664462327491e-01,1.000000000000000048e-04,4.207717508381759330e+01,1.400000000000000133e-01
1.783410439000000069e+00,-1.080958507999999929e+00,4.476784765053281046e-01,1.000000000000000048e-04,4.186237313163764640e+01,1.400000000000000133e-01
2.617653461000000181e+00,-1.025884226000000066e+00,2.502945897927759678e-01,1.000000000000000048e-04,4.052765465260393540e+01,1.199999999999999956e-01
8.270197009999999960e-01,-4.157453939999999903e-01,2.425789015975803320e-01,1.000000000000000048e-04,4.034152584344844428e+01,1.199999999999999956e-01
3.128792493000000174e+00,-8.522697870000000009e-01,2.110126874143738451e-01,1.000000000000000048e-04,4.006079632287848824e+01,1.100000000000000006e-01
1.366158207000000013e+00,-9.614226009999999878e-01,4.606808933994352984e-01,1.000000000000000048e-04,4.205965347924108499e+01,1.100000000000000006e-01
2.846286316000000038e+00,-9.688357899999999745e-01,7.337413851077447813e-01,1.000000000000000048e-04,4.329325675348999880e+01,1.400000000000000133e-01
9.208216280000000031e-01,-6.185352929999999860e-01,3.329049695577412926e-01,1.000000000000000048e-04,4.120485679554521141e+01,1.499999999999999944e-01
7.622987450000000553e-01,-3.411912120000000215e-01,2.961196300481816479e-01,1.000000000000000048e-04,4.126491889477448183e+01,1.199999999999999956e-01
9.277931750000000255e-01,-5.813990460000000304e-01,2.106210894622175811e-01,1.000000000000000048e-04,4.029719910259785109e+01,2.099999999999999922e-01
1.010173165000000095e+00,-6.808591280000000356e-01,1.036552515998200974e+00,1.000000000000000048e-04,4.434526428059596981e+01,1.300000000000000044e-01
1.661181446000000062e+00,-1.029160687999999935e+00,9.596122879925441662e-01,1.000000000000000048e-04,4.389698940026659812e+01,1.400000000000000133e-01
2.089878704000000198e+00,-1.077863170999999953e+00,2.220514146514747100e-01,1.000000000000000048e-04,4.022355478354372593e+01,1.199999999999999956e-01
9.321550429999999610e-01,-6.212176799999999943e-01,1.295732754535327214e+00,1.000000000000000048e-04,4.460490329925394093e+01,1.199999999999999956e-01
2.944595597000000176e+00,-9.127602249999999806e-01,1.714716970581366962e-01,1.000000000000000048e-04,3.945316056809266314e+01,1.100000000000000006e-01
1.288081913999999939e+00,-9.113959929999999598e-01,8.557092886098531803e-01,1.000000000000000048e-04,4.371357933268438956e+01,1.300000000000000044e-01
1.398731861999999992e+00,-9.625033109999999725e-01,3.262346021920565775e-01,1.000000000000000048e-04,4.120457916849552760e+01,1.199999999999999956e-01
1.714165549000000066e+00,-1.043104095999999981e+00,4.312595657957338791e-01,1.000000000000000048e-04,4.194696240724483260e+01,1.199999999999999956e-01
1.014018395999999989e+00,-6.788913789999999615e-01,3.112964282787717973e-01,1.000000000000000048e-04,4.110921610631564960e+01,1.300000000000000044e-01
8.887761809999999985e-01,-5.541821719999999729e-01,4.147538127654779583e-01,1.000000000000000048e-04,4.183392159805251964e+01,1.300000000000000044e-01
1.026278256999999972e+00,-6.961882160000000264e-01,6.662092261332532850e-01,1.000000000000000048e-04,4.293580810971754147e+01,1.199999999999999956e-01
1.824970581999999952e+00,-1.080428363000000003e+00,8.495739988325954339e-01,1.000000000000000048e-04,4.384811689495418108e+01,1.199999999999999956e-01
1.839979185000000017e+00,-1.082878103999999952e+00,2.225007028293779499e-01,1.000000000000000048e-04,4.016114479128025039e+01,1.300000000000000044e-01
-3.070118813179586237e+00,-7.641942569999999879e-01,1.598698309667023754e-01,1.000000000000000048e-04,3.945450069033903873e+01,1.199999999999999956e-01
2.250776613000000204e+00,-1.110438553999999911e+00,5.137835650916857677e-01,1.000000000000000048e-04,4.219111192830713009e+01,1.199999999999999956e-01
2.613802471000000072e+00,-1.066258922999999914e+00,2.612133439526516110e-01,1.000000000000000048e-04,4.075567938549288272e+01,1.199999999999999956e-01
8.050150120000000298e-01,-4.193234060000000096e-01,3.230925577388672476e-01,1.000000000000000048e-04,4.105296189672155549e+01,1.499999999999999944e-01
2.809576177999999924e+00,-9.952447749999999704e-01,2.606261919914876213e-01,1.000000000000000048e-04,4.058064632694259899e+01,1.199999999999999956e-01
8.523447290000000232e-01,-4.773689010000000121e-01,3.544691621301647722e-01,1.000000000000000048e-04,4.147229361420335891e+01,2.000000000000000111e-01
2.975142320999999868e+00,-8.986192680000000266e-01,1.345255368038066557e+00,1.000000000000000048e-04,4.496124826818275011e+01,2.000000000000000111e-01
2.960578484000000010e+00,-9.174235720000000205e-01,4.684725964537594933e-01,1.000000000000000048e-04,4.200239523377391038e+01,1.400000000000000133e-01
1.589239559999999996e+00,-1.046132274999999945e+00,3.074257041214703001e-01,1.000000000000000048e-04,4.091099569859549945e+01,1.199999999999999956e-01
1.095136271999999966e+00,-7.909478989999999543e-01,3.889789078240981635e-01,1.000000000000000048e-04,4.167477147286144401e+01,1.300000000000000044e-01
3.045277111999999953e+00,-8.831592660000000539e-01,5.705588372370131722e-01,1.000000000000000048e-04,4.242292840288205724e+01,1.799999999999999933e-01
3.011317304999999944e+00,-8.969173430000000335e-01,6.591219916339401408e-01,1.000000000000000048e-04,4.312191516904071165e+01,1.499999999999999944e-01
1.946036051000000100e+00,-1.101857058000000000e+00,9.730469475795151535e-01,1.000000000000000048e-04,4.398099891468010725e+01,1.100000000000000006e-01
9.659444579999999503e-01,-6.400164339999999674e-01,3.367387605046270327e-01,1.000000000000000048e-04,4.116287441177068018e+01,1.199999999999999956e-01
1.142944595999999979e+00,-8.229314749999999679e-01,5.279270795797803562e-01,1.000000000000000048e-04,4.226184724863117737e+01,1.499999999999999944e-01
1.336859599999999926e+00,-9.462661719999999610e-01,5.307951355221414147e-01,1.000000000000000048e-04,4.243836795444914856e+01,1.900000000000000022e-01
2.386695267999999981e+00,-1.099692616000000012e+00,6.284326522537213577e-01,1.000000000000000048e-04,4.293700102453331624e+01,1.799999999999999933e-01
1.122946417999999946e+00,-7.871106610000000448e-01,2.292860914541863249e-01,1.000000000000000048e-04,4.031682605728294533e+01,1.499999999999999944e-01
1.038511049000000019e+00,-6.836743480000000428e-01,4.718571817250976075e-01,1.000000000000000048e-04,4.185151279365672394e+01,1.499999999999999944e-01
-1.865548755179585960e+00,5.988235499999999822e-01,7.736329427024077887e-01,1.000000000000000048e-04,4.326256495900930332e+01,3.599999999999999867e-01
-1.208774007179585830e+00,1.086301519000000049e+00,2.102503111245623835e-01,1.000000000000000048e-04,4.055647887516072814e+01,3.900000000000000133e-01
-1.451351928179586359e+00,1.047303024999999943e+00,1.579180318764272783e-01,1.000000000000000048e-04,3.879629567697590886e+01,3.900000000000000133e-01
-1.863787002179586594e+00,5.986409590000000280e-01,1.500254059090302405e-01,1.000000000000000048e-04,3.877820742574947843e+01,3.099999999999999978e-01
-2.367107747179586053e+00,3.570653329999999848e-01,5.634065834416510654e-01,1.000000000000000048e-04,4.265081432292905816e+01,3.300000000000000155e-01
3.110012692999999828e+00,-8.816387980000000013e-01,3.173826301943822870e-01,1.000000000000000048e-04,4.151652660008853246e+01,4.000000000000000222e-01
1.208427087000000011e+00,6.391205479999999550e-01,2.655796279052324849e-01,1.000000000000000048e-04,4.089432170419971158e+01,3.200000000000000067e-01
2.195568135999999893e+00,9.530612539999999688e-01,2.136722266907011836e-01,1.000000000000000048e-04,4.014145452350432208e+01,3.200000000000000067e-01
-1.746303855179585973e+00,7.561700099999999480e-01,2.801965915099591253e-01,1.000000000000000048e-04,4.024317383555652583e+01,3.599999999999999867e-01
-2.613733020179586308e+00,3.020363409999999860e-01,6.427977591102740362e-01,1.000000000000000048e-04,4.315913034724444231e+01,2.399999999999999911e-01
3.080075141000000016e+00,6.813462000000000129e-01,2.305851541629702073e-01,1.000000000000000048e-04,3.990315110504737106e+01,2.999999999999999889e-01
3.084152930000000126e+00,6.750201959999999612e-01,7.515099340590654098e-01,1.000000000000000048e-04,4.384777145621271899e+01,2.399999999999999911e-01
-2.831540824179586302e+00,-5.193198470000000011e-01,4.055544248993552259e-01,1.000000000000000048e-04,4.158269712389451200e+01,2.899999999999999800e-01
2.921667255000000019e+00,-9.403574120000000036e-01,4.876232293205644552e-01,1.000000000000000048e-04,4.217215303686277394e+01,2.899999999999999800e-01
2.610543199999999953e+00,9.294079060000000059e-01,1.307537875080599932e-01,1.000000000000000048e-04,3.872443425369139902e+01,2.899999999999999800e-01
2.614058957000000127e+00,9.310355519999999885e-01,4.919435247295662617e-01,1.000000000000000048e-04,4.206856280425783012e+01,3.699999999999999956e-01
-2.614313936179586406e+00,3.105085300000000048e-01,7.522578886462245595e-01,1.000000000000000048e-04,4.326434625057534333e+01,2.300000000000000100e-01
-2.614275993179586255e+00,3.084493819999999942e-01,2.016004192308260556e-01,1.000000000000000048e-04,3.998550729884196642e+01,2.000000000000000111e-01
3.080236718000000096e+00,6.852664600000000217e-01,2.757308614701374783e-01,1.000000000000000048e-04,4.002278996679482503e+01,3.800000000000000044e-01
3.085135451000000195e+00,6.840520260000000352e-01,3.941167606367865783e-01,1.000000000000000048e-04,4.167687922248680366e+01,2.300000000000000100e-01
-2.829361723179586452e+00,-5.190188390000000096e-01,6.581858704774365965e-01,1.000000000000000048e-04,4.287068949842527843e+01,3.900000000000000133e-01
-2.833706243179586082e+00,-5.260186759999999628e-01,3.973806366061412021e-01,1.000000000000000048e-04,4.176147335045752840e+01,2.200000000000000011e-01
1.286414458000000094e+00,-9.076167339999999806e-01,1.325092896295292366e-01,1.000000000000000048e-04,3.886639571122216807e+01,2.399999999999999911e-01
2.295144749999999956e+00,-1.095028292000000070e+00,5.540722939997129171e-01,1.000000000000000048e-04,4.267462696810454048e+01,2.000000000000000111e-01
2.312115046000000174e+00,-1.091482969000000081e+00,4.458421815013022815e-01,1.000000000000000048e-04,4.196217381825772463e+01,1.900000000000000022e-01
2.535381049000000164e+00,-1.063602453999999975e+00,4.204518040217097852e-01,1.000000000000000048e-04,4.185184126260816129e+01,2.600000000000000089e-01
2.549902755000000187e+00,-1.059649137999999935e+00,4.744372262718870026e-01,1.000000000000000048e-04,4.252078580065997926e+01,1.900000000000000022e-01
-2.980466121795863899e-01,1.081935794000000062e+00,1.016087537028856236e+00,1.000000000000000048e-04,4.422677754926932892e+01,1.000000000000000056e-01
-4.562223411795862660e-01,1.078420874000000085e+00,3.025626095926186032e-01,1.000000000000000048e-04,4.094039658738608267e+01,1.400000000000000133e-01
-4.727696341795866175e-01,1.076427226000000070e+00,3.765491300800467567e-01,1.000000000000000048e-04,4.155704217448805338e+01,1.900000000000000022e-01
-4.909850281795860028e-01,1.086050390999999893e+00,7.395237417207973785e-01,1.000000000000000048e-04,4.330409564839535363e+01,1.499999999999999944e-01
-1.809890014179586615e+00,8.554848849999999727e-01,3.566194246150065084e-01,1.000000000000000048e-04,4.151514953862390200e+01,1.900000000000000022e-01
-1.804843805179586091e+00,8.509932909999999850e-01,1.322862759503652175e+00,1.000000000000000048e-04,4.477917044200784602e+01,1.700000000000000122e-01
-1.798315402179586187e+00,8.389159160000000393e-01,5.359428985671521595e-01,1.000000000000000048e-04,4.246070919597583071e+01,1.100000000000000006e-01
-1.820018681179586650e+00,8.404092629999999620e-01,9.443760242729095644e-01,1.000000000000000048e-04,4.379247983096072261e+01,2.000000000000000111e-01
-2.435936564179586039e+00,3.767214549999999829e-01,2.146474104409006323e-01,1.000000000000000048e-04,3.979687462649241070e+01,1.700000000000000122e-01
-2.738532057179586143e+00,-4.670391260000000266e-01,2.524196996958094630e-01,1.000000000000000048e-04,4.033889504205547638e+01,1.100000000000000006e-01
-2.750126147179586145e+00,-4.750163370000000107e-01,7.701548391205597088e-01,1.000000000000000048e-04,4.320659012605227645e+01,1.700000000000000122e-01
6.777063359999999648e-01,-9.284162910000000046e-01,4.166147472250891770e-01,1.000000000000000048e-04,4.161244737538593341e+01,1.600000000000000033e-01
6.755664329999999662e-01,-9.242990760000000527e-01,7.591422488020189707e-01,1.000000000000000048e-04,4.336688808972817100e+01,2.200000000000000011e-01
1.666277256000000095e+00,1.035703752000000089e+00,3.388916584778816077e-01,1.000000000000000048e-04,4.114074691433739872e+01,2.800000000000000266e-01
1.679531192000000006e+00,1.034147155999999956e+00,3.510683422042331081e-01,1.000000000000000048e-04,4.142693654734693354e+01,2.099999999999999922e-01
1.669961188000000041e+00,1.045784459000000055e+00,6.597483540060518070e-01,1.000000000000000048e-04,4.284406452471996118e+01,2.899999999999999800e-01
1.666612017000000057e+00,1.035903760999999923e+00,1.667872751913885843e-01,1.000000000000000048e-04,3.953905176684457246e+01,1.400000000000000133e-01
1.676630470000000095e+00,1.049302589999999924e+00,1.021027109516794429e+00,1.000000000000000048e-04,4.426088374497217615e+01,1.600000000000000033e-01
1.678871634000000057e+00,1.037439988999999896e+00,2.244164928272172066e-01,1.000000000000000048e-04,4.030574770992109279e+01,2.099999999999999922e-01
-2.159653925179585876e+00,7.341517600000000421e-01,7.345926928197525907e-01,1.000000000000000048e-04,4.318544779924859256e+01,2.600000000000000089e-01
-2.155609593179586447e+00,7.327229189999999726e-01,2.462839048138154574e-01,1.000000000000000048e-04,4.033951208665758514e+01,1.400000000000000133e-01
2.989279821999999864e+00,-1.014333855000000062e+00,8.821332952140865657e-01,1.000000000000000048e-04,4.389148343180407608e+01,1.600000000000000033e-01
6.962963009999999509e-01,-9.242906640000000396e-01,5.498402910886257544e-01,1.000000000000000048e-04,4.237827975112920598e+01,2.000000000000000111e-01
6.831622830000000368e-01,-9.295060950000000322e-01,4.861164207914383528e-01,1.000000000000000048e-04,4.216079895092747876e+01,2.099999999999999922e-01
6.813526220000000189e-01,-9.196739680000000083e-01,5.852802349589447672e-01,1.000000000000000048e-04,4.285788356383381625e+01,1.700000000000000122e-01
1.667475545999999920e+00,1.039138789999999979e+00,4.968059284738548520e-01,1.000000000000000048e-04,4.221969202501372109e+01,1.499999999999999944e-01
1.669072946000000002e+00,1.039627206000000026e+00,2.962362307627768310e-01,1.000000000000000048e-04,4.093355387227497744e+01,1.700000000000000122e-01
2.992464221000000091e+00,-1.009427984000000000e+00,2.608537623977313924e-01,1.000000000000000048e-04,4.047792512517401065e+01,1.400000000000000133e-01
3.013377762000000182e+00,-1.015725085999999999e+00,7.935639572966433075e-01,1.000000000000000048e-04,4.369340120687417794e+01,1.499999999999999944e-01
6.857830799999999893e-01,-9.290922369999999875e-01,3.702361399883156157e-01,1.000000000000000048e-04,4.130882125003818572e+01,3.400000000000000244e-01
6.874880420000000214e-01,-9.251381180000000093e-01,4.481835215592568922e-01,1.000000000000000048e-04,4.210877089894016478e+01,1.700000000000000122e-01
1.659686511000000086e+00,1.040101345999999927e+00,3.842076956937778842e-01,1.000000000000000048e-04,4.158582322366828521e+01,1.400000000000000133e-01
1.692629780999999944e+00,1.043637506000000048e+00,1.007873732763591157e+00,1.000000000000000048e-04,4.413728706847095395e+01,1.799999999999999933e-01
1.682450028999999958e+00,1.049226146999999942e+00,5.482882569197833345e-01,1.000000000000000048e-04,4.294218514519420182e+01,1.900000000000000022e-01
1.675255906999999933e+00,1.048468626000000015e+00,3.778457266576484841e-01,1.000000000000000048e-04,4.145068467469011608e+01,1.499999999999999944e-01
1.692145135000000078e+00,1.039981480000000014e+00,1.283974679068509150e-01,1.000000000000000048e-04,3.870182445957604500e+01,1.700000000000000122e-01
-2.139768073179586061e+00,7.360294179999999908e-01,3.547802532979773549e-01,1.000000000000000048e-04,4.152093692335800768e+01,1.600000000000000033e-01
-2.138731675179585956e+00,7.369836659999999817e-01,7.896679012435716682e-01,1.000000000000000048e-04,4.365713455545783717e+01,1.499999999999999944e-01
6.888283630000000546e-01,-9.193630990000000169e-01,3.906561583902175006e-01,1.000000000000000048e-04,4.172334269653588024e+01,1.700000000000000122e-01
6.776433490000000059e-01,-9.225326109999999469e-01,2.754518009429076653e-01,1.000000000000000048e-04,4.059370904400583413e+01,1.600000000000000033e-01
6.820513620000000499e-01,-9.162569579999999547e-01,3.610075691344389881e-01,1.000000000000000048e-04,4.130089904050230132e+01,2.899999999999999800e-01
6.832637360000000104e-01,-9.208365670000000502e-01,2.264283764947370159e-01,1.000000000000000048e-04,4.004862348433709229e+01,1.400000000000000133e-01
1.683256381999999940e+00,1.050427892999999946e+00,6.549712337325297451e-01,1.000000000000000048e-04,4.311113675857590977e+01,1.499999999999999944e-01
2.987248335999999949e+00,-1.011507587000000097e+00,1.207135596081331474e+00,1.000000000000000048e-04,4.471431663066580597e+01,1.900000000000000022e-01
2.994879214000000012e+00,-1.020537374999999969e+00,3.440300555011239769e-01,1.000000000000000048e-04,4.108671998973407113e+01,2.500000000000000000e-01
2.997056848999999801e+00,-1.020797841000000039e+00,2.263075478183753653e-01,1.000000000000000048e-04,4.038167020997979506e+01,1.499999999999999944e-01
6.981827720000000070e-01,-9.201470600000000166e-01,2.038847377111363546e-01,1.000000000000000048e-04,4.015138263242653949e+01,2.099999999999999922e-01
1.675679171999999939e+00,1.042232051000000048e+00,1.644162238254311958e-01,1.000000000000000048e-04,3.949221295734106008e+01,1.900000000000000022e-01
1.682732345000000018e+00,1.051774148000000020e+00,2.403612543161950388e-01,1.000000000000000048e-04,4.020159680874863994e+01,2.099999999999999922e-01
1.655763980999999996e+00,1.041789395999999979e+00,4.472750709510180389e-01,1.000000000000000048e-04,4.192012049135366425e+01,2.099999999999999922e-01
1.658505131999999938e+00,1.042043577999999915e+00,3.495101192570753135e-01,1.000000000000000048e-04,4.107729182765167764e+01,1.499999999999999944e-01
1.679931540999999973e+00,1.044700675999999939e+00,1.806552570407058411e-01,1.000000000000000048e-04,3.976175251772799157e+01,1.400000000000000133e-01
1.681131209999999987e+00,1.046558263000000100e+00,1.212113430609427223e-01,1.000000000000000048e-04,3.855441629356593580e+01,3.800000000000000044e-01
-2.147380102179586636e+00,7.248191320000000326e-01,1.356526645908118223e-01,1.000000000000000048e-04,3.893259027150069329e+01,2.200000000000000011e-01
-2.137481690179586558e+00,7.386978770000000027e-01,1.078125570774101316e+00,1.000000000000000048e-04,4.426308556693916074e+01,1.499999999999999944e-01
3.007533192999999994e+00,-1.006434849999999992e+00,1.732355122663555846e-01,1.000000000000000048e-04,3.957460803295928997e+01,1.700000000000000122e-01
6.766177190000000063e-01,-9.309161569999999664e-01,3.674344035894252514e-01,1.000000000000000048e-04,4.195135584654742189e+01,1.700000000000000122e-01
6.879719020000000240e-01,-9.170357009999999809e-01,1.197384055348411636e-01,1.000000000000000048e-04,3.861823546155696363e+01,2.600000000000000089e-01
6.868192690000000100e-01,-9.190749710000000183e-01,5.347028925936281318e-01,1.000000000000000048e-04,4.261287304645717455e+01,2.800000000000000266e-01
1.680927606000000019e+00,1.043199457999999913e+00,4.553015689061723492e-01,1.000000000000000048e-04,4.216959050975179224e+01,1.799999999999999933e-01
1.680733408999999901e+00,1.046110547000000057e+00,6.010280769595575112e-01,1.000000000000000048e-04,4.305146511655475905e+01,1.499999999999999944e-01
3.003205794999999956e+00,-1.007960921000000010e+00,1.015204675845573057e+00,1.000000000000000048e-04,4.443637056538599239e+01,2.200000000000000011e-01
3.013387552999999830e+00,-1.018013843000000085e+00,3.983044848364973856e-01,1.000000000000000048e-04,4.180554642972109747e+01,2.000000000000000111e-01
2.991633154000000072e+00,-1.018575491000000000e+00,3.788763211392252028e-01,1.000000000000000048e-04,4.140681676779896492e+01,1.600000000000000033e-01
6.810583510000000063e-01,-9.216344210000000370e-01,5.007071697390972354e-01,1.000000000000000048e-04,4.218653050713707842e+01,1.600000000000000033e-01
1.670069762000000013e+00,1.048284639000000018e+00,3.837446307451490846e-01,1.000000000000000048e-04,4.178538981363644211e+01,2.099999999999999922e-01
1.699713636000000028e+00,1.040243690999999915e+00,5.748810124301730884e-01,1.000000000000000048e-04,4.286813656209707091e+01,2.899999999999999800e-01
1.686195045999999920e+00,1.048540513999999924e+00,2.423744234138143216e-01,1.000000000000000048e-04,4.044218738322045681e+01,1.400000000000000133e-01
1.667162669999999958e+00,1.044746053999999980e+00,2.213274648329530692e-01,1.000000000000000048e-04,4.063527416076851040e+01,2.700000000000000178e-01
1.689467040999999892e+00,1.036330184999999959e+00,9.057610759884915375e-01,1.000000000000000048e-04,4.397819602982605858e+01,1.300000000000000044e-01
1.683799076999999977e+00,1.043385784000000038e+00,5.223654269565856101e-01,1.000000000000000048e-04,4.271746470994764877e+01,1.700000000000000122e-01
-2.151455832179586025e+00,7.398983139999999459e-01,1.829781886024759441e-01,1.000000000000000048e-04,3.990718747408999434e+01,2.500000000000000000e-01
-2.141944958179585967e+00,7.302793560000000461e-01,1.231027948489054058e-01,1.000000000000000048e-04,3.903671480452428000e+01,1.400000000000000133e-01
3.012489310999999947e+00,-1.019874449000000016e+00,4.537856222132201633e-01,1.000000000000000048e-04,4.186724550861814009e+01,1.900000000000000022e-01
6.824463880000000149e-01,-9.193269539999999740e-01,3.793096683981307393e-01,1.000000000000000048e-04,4.153668825427330802e+01,1.600000000000000033e-01
6.933168330000000212e-01,-9.307474239999999899e-01,6.420403022873073517e-01,1.000000000000000048e-04,4.297130164762671711e+01,1.600000000000000033e-01
7.005346909999999871e-01,-9.247541049999999929e-01,1.805860785040998007e-01,1.000000000000000048e-04,3.976187273801775035e+01,2.700000000000000178e-01
1.674988617999999985e+00,1.042237757999999959e+00,3.235300752037473249e-01,1.000000000000000048e-04,4.087916518945520750e+01,1.499999999999999944e-01
1.672026148000000045e+00,1.039374368000000048e+00,2.332129176365069778e-01,1.000000000000000048e-04,4.064457750084149978e+01,1.600000000000000033e-01
2.993618983999999816e+00,-1.008517228000000099e+00,2.227664640534490204e-01,1.000000000000000048e-04,4.040504640472728681e+01,1.700000000000000122e-01
2.992837709999999873e+00,-1.014889098000000045e+00,3.568328701967222738e-01,1.000000000000000048e-04,4.162763582677978746e+01,2.800000000000000266e-01
2.980621672999999916e+00,-1.012535224000000067e+00,4.044803042905815715e-01,1.000000000000000048e-04,4.167019026643079371e+01,1.499999999999999944e-01
3.118379398000000080e+00,-1.044341935000000055e+00,9.872467192531961810e-01,1.000000000000000048e-04,4.408143146267563850e+01,3.099999999999999978e-01
3.132904315000000217e+00,-1.046896950999999909e+00,5.680974266810603357e-01,1.000000000000000048e-04,4.257407502016761924e+01,2.200000000000000011e-01
1.248659997999999938e+00,-1.117162079000000086e+00,1.728766869595010913e-01,1.000000000000000048e-04,3.981114450469124222e+01,2.700000000000000178e-01
2.302446713000000145e+00,-1.091359299000000060e+00,2.225933722165018835e-01,1.000000000000000048e-04,4.058197082220269181e+01,2.899999999999999800e-01
3.133486173000000097e+00,-1.061461677999999909e+00,2.263746714084178269e-01,1.000000000000000048e-04,3.998696344718261741e+01,3.099999999999999978e-01
1.251013366000000016e+00,-1.102704651999999896e+00,8.434413022580193875e-01,1.000000000000000048e-04,4.367753638381297776e+01,2.300000000000000100e-01
1.232341668999999973e+00,-1.105349812000000043e+00,1.028857353706446265e+00,1.000000000000000048e-04,4.424437436467096063e+01,2.200000000000000011e-01
2.330538756999999794e+00,-1.086213730999999960e+00,2.174195849981497286e-01,1.000000000000000048e-04,4.031326717269742943e+01,2.300000000000000100e-01
3.104372880000000112e+00,-1.050765708999999992e+00,1.749738536992460070e-01,1.000000000000000048e-04,3.947749735812183758e+01,2.200000000000000011e-01
3.122794933000000217e+00,-1.050942575000000101e+00,3.185439313471318812e-01,1.000000000000000048e-04,4.135609337410487996e+01,2.099999999999999922e-01
3.135928428000000157e+00,-1.044986675000000087e+00,6.610989106493738721e-01,1.000000000000000048e-04,4.309285463917182568e+01,2.300000000000000100e-01
3.135701593999999925e+00,-1.049448040999999998e+00,3.709807303717223004e-01,1.000000000000000048e-04,4.161897655449185152e+01,2.399999999999999911e-01
2.902190216000000156e+00,-1.054666754000000095e+00,1.654471422820034121e-01,1.000000000000000048e-04,3.982055275660934512e+01,2.099999999999999922e-01
1.219278212000000083e+00,-1.102494101000000004e+00,1.715825246599369525e-01,1.000000000000000048e-04,4.001825460657023115e+01,2.399999999999999911e-01
2.314258420999999899e+00,-1.073777474999999981e+00,1.499121796972047171e-01,1.000000000000000048e-04,3.968962652152868031e+01,2.399999999999999911e-01
3.138600745000000192e+00,-1.056209613999999908e+00,2.629038317634226907e-01,1.000000000000000048e-04,4.097157145707097214e+01,2.800000000000000266e-01
2.873014373000000177e+00,-1.047336534999999902e+00,4.133339091674606003e-01,1.000000000000000048e-04,4.178568142513127270e+01,2.000000000000000111e-01
2.890150627000000139e+00,-1.045368942999999939e+00,4.284043187585651058e-01,1.000000000000000048e-04,4.176724195181039079e+01,2.200000000000000011e-01
-3.136513490179586139e+00,-1.038988312000000080e+00,1.600980409421235429e-01,1.000000000000000048e-04,3.901223452563745298e+01,2.800000000000000266e-01
3.120369102000000172e+00,-1.042910143999999928e+00,1.475983239196025920e-01,1.000000000000000048e-04,3.908223684362231154e+01,2.399999999999999911e-01
3.132773262000000170e+00,-1.048570620000000009e+00,1.927114856063758541e-01,1.000000000000000048e-04,4.009818335728311212e+01,2.300000000000000100e-01
3.132934141999999866e+00,-1.046888051000000042e+00,1.357558168696131329e-01,1.000000000000000048e-04,3.883726031826914493e+01,2.200000000000000011e-01
3.134455274000000014e+00,-1.046257098000000108e+00,1.283545401287199628e+00,1.000000000000000048e-04,4.455315381804198438e+01,2.200000000000000011e-01
2.910504301000000016e+00,-1.063930792999999930e+00,4.550478228390264501e-01,1.000000000000000048e-04,4.198435356913141447e+01,2.399999999999999911e-01
2.301930878999999930e+00,-1.084305269999999988e+00,6.885387951658596961e-01,1.000000000000000048e-04,4.288336822209186749e+01,3.099999999999999978e-01
2.314913878000000036e+00,-1.104421796000000011e+00,1.054942188275528547e+00,1.000000000000000048e-04,4.432756431337561764e+01,2.600000000000000089e-01
1.232494258000000009e+00,-1.089556776000000005e+00,1.324210438400621914e+00,1.000000000000000048e-04,4.496321536764227744e+01,3.099999999999999978e-01
-3.138875270179586341e+00,-1.027091259999999950e+00,2.771029728644449630e-01,1.000000000000000048e-04,4.069415833605383170e+01,3.800000000000000044e-01
1.277748142000000087e+00,-1.105660628999999950e+00,3.296478198930272718e-01,1.000000000000000048e-04,4.103291539663113952e+01,2.500000000000000000e-01
2.339694710999999927e+00,-1.083680948999999893e+00,3.042644191275052368e-01,1.000000000000000048e-04,4.082596304728161840e+01,2.300000000000000100e-01
3.085408954000000037e+00,-1.045989441999999991e+00,3.170758371500006501e-01,1.000000000000000048e-04,4.147043702289822420e+01,2.800000000000000266e-01
3.122183823999999941e+00,-1.053540683000000033e+00,3.018538231204359601e-01,1.000000000000000048e-04,4.109149570328313672e+01,3.699999999999999956e-01
1.263417701000000060e+00,-1.099941301000000093e+00,3.323957903353091936e-01,1.000000000000000048e-04,4.136876581314136558e+01,2.200000000000000011e-01
1.238769020999999970e+00,-1.122513239999999968e+00,2.160544804782777994e-01,1.000000000000000048e-04,4.015940180066943554e+01,2.600000000000000089e-01
1.225778744000000087e+00,-1.107856694000000086e+00,6.450437418268983869e-01,1.000000000000000048e-04,4.255896299725412035e+01,2.500000000000000000e-01
2.356185176999999964e+00,-1.090954028000000076e+00,6.466795572063037678e-01,1.000000000000000048e-04,4.286070150719697125e+01,2.700000000000000178e-01
1.231078855000000027e+00,-1.109460918999999990e+00,6.882863394831957304e-01,1.000000000000000048e-04,4.350683790255145311e+01,2.300000000000000100e-01
2.350025410999999842e+00,-1.078254897999999962e+00,9.440471063895068404e-01,1.000000000000000048e-04,4.442309075770517524e+01,2.300000000000000100e-01
2.889344674999999807e+00,-1.054064458000000037e+00,7.501988659009120042e-01,1.000000000000000048e-04,4.252819040158058073e+01,3.200000000000000067e-01
1.260972444000000081e+00,-1.102168519999999985e+00,7.150307825083008773e-01,1.000000000000000048e-04,4.313695051022433802e+01,2.899999999999999800e-01
3.138597202000000141e+00,-1.049455424000000026e+00,1.067158525332996266e+00,1.000000000000000048e-04,4.408092078801774960e+01,2.600000000000000089e-01
1.280173519000000093e+00,-1.106045986000000036e+00,2.179178888465027608e-01,1.000000000000000048e-04,4.006348291133289052e+01,2.899999999999999800e-01
3.140421104000000074e+00,-1.048273016000000002e+00,5.867460681849094861e-01,1.000000000000000048e-04,4.249600721513967017e+01,2.700000000000000178e-01
2.887571490000000018e+00,-1.060290981000000077e+00,4.630452093082320086e-01,1.000000000000000048e-04,4.224376973190209128e+01,2.300000000000000100e-01
3.117377486000000086e+00,-1.048849812999999909e+00,2.345636074917170077e-01,1.000000000000000048e-04,4.040196565050463562e+01,2.800000000000000266e-01
3.139331405000000075e+00,-1.045946368000000071e+00,4.333081151693389810e-01,1.000000000000000048e-04,4.205336469721663661e+01,2.300000000000000100e-01
2.901812189000000153e+00,-1.070407117000000019e+00,4.544601257001932293e-01,1.000000000000000048e-04,4.204766955086194002e+01,2.200000000000000011e-01
2.874698792999999863e+00,-1.069280417999999955e+00,5.636654370791140956e-01,1.000000000000000048e-04,4.253622903262039046e+01,2.200000000000000011e-01
3.126790450000000110e+00,-1.053686536000000062e+00,2.071370714590665685e-01,1.000000000000000048e-04,4.002141739948322652e+01,2.099999999999999922e-01
1.253234667999999941e+00,-1.096167120000000050e+00,6.910085396860234930e-01,1.000000000000000048e-04,4.326531040219093427e+01,2.200000000000000011e-01
1.242189800000000011e+00,-1.095888138000000067e+00,3.116375119943572969e-01,1.000000000000000048e-04,4.111783526015850754e+01,2.899999999999999800e-01
2.358704259000000025e+00,-1.096119858000000002e+00,5.114645877993810874e-01,1.000000000000000048e-04,4.240380991426396662e+01,2.099999999999999922e-01
3.090657074000000115e+00,-1.046905049999999893e+00,3.921265661036370531e-01,1.000000000000000048e-04,4.134210141151722695e+01,2.300000000000000100e-01
2.350320292999999783e+00,-1.077642637000000070e+00,2.648950741955524713e-01,1.000000000000000048e-04,4.051509062175732367e+01,3.300000000000000155e-01
3.120911620999999858e+00,-1.047605429999999949e+00,1.263797279784228955e+00,1.000000000000000048e-04,4.474795815919110709e+01,2.899999999999999800e-01
2.310418793000000193e+00,-1.091478047999999923e+00,3.777955627359843582e-01,1.000000000000000048e-04,4.187652111518757891e+01,3.300000000000000155e-01
2.888242410000000149e+00,-1.055260810999999910e+00,4.402776131423449257e-01,1.000000000000000048e-04,4.115569949907875014e+01,2.999999999999999889e-01
2.313880778000000138e+00,-1.089056457000000089e+00,2.876937048191776647e-01,1.000000000000000048e-04,4.120495896958982485e+01,2.600000000000000089e-01
3.096505394999999883e+00,-1.050897790999999915e+00,2.413578261976681016e-01,1.000000000000000048e-04,4.026374562946412539e+01,3.300000000000000155e-01
1.264206060000000020e+00,-1.108314516000000083e+00,7.075401469888928929e-01,1.000000000000000048e-04,4.328616217095760277e+01,2.500000000000000000e-01
2.317080779999999951e+00,-1.080569537999999996e+00,4.920605070541652637e-01,1.000000000000000048e-04,4.236375583566731962e+01,2.399999999999999911e-01
2.308161032000000112e+00,-1.080284865999999955e+00,7.240579035267422636e-01,1.000000000000000048e-04,4.338966658753195560e+01,3.900000000000000133e-01
1.213089824000000094e+00,-1.095999417000000031e+00,1.815980792693772106e-01,1.000000000000000048e-04,3.934621821539075626e+01,2.700000000000000178e-01
3.095344697999999894e+00,-1.044259242999999948e+00,5.862400018217979181e-01,1.000000000000000048e-04,4.255448325315150271e+01,2.200000000000000011e-01
3.093500166000000107e+00,-1.047656949999999920e+00,2.729127463708060919e-01,1.000000000000000048e-04,4.042311145948157503e+01,2.300000000000000100e-01
2.871266652000000086e+00,-1.064917746999999970e+00,5.315583822980070039e-01,1.000000000000000048e-04,4.256620282592440674e+01,2.500000000000000000e-01
2.872879009000000039e+00,-1.076645507999999918e+00,4.866124169337056049e-01,1.000000000000000048e-04,4.241457552992871172e+01,2.099999999999999922e-01
1.241294699000000001e+00,-1.109043570000000090e+00,2.423002780776055687e-01,1.000000000000000048e-04,4.021996269345889630e+01,2.099999999999999922e-01
1.238788393000000099e+00,-1.083197141000000085e+00,1.570306558370087036e-01,1.000000000000000048e-04,3.936291606270211219e+01,2.999999999999999889e-01
-3.140928712179586135e+00,-1.049943351000000025e+00,7.262753358439071327e-01,1.000000000000000048e-04,4.365045294937849008e+01,2.200000000000000011e-01
2.897074545000000168e+00,-1.050668165000000043e+00,9.319566988080192349e-01,1.000000000000000048e-04,4.414921441120384316e+01,2.099999999999999922e-01
3.133488720999999977e+00,-1.053899826000000095e+00,7.316085460236239069e-01,1.000000000000000048e-04,4.341138139086355352e+01,2.300000000000000100e-01
2.854965548000000020e+00,-1.051119023000000041e+00,2.105173838199747571e-01,1.000000000000000048e-04,4.032326326550714413e+01,3.200000000000000067e-01
2.846666281000000076e+00,-1.061494909000000098e+00,3.527985881982573790e-01,1.000000000000000048e-04,4.113741757160881463e+01,2.600000000000000089e-01
1.477625364000000108e+00,-9.892628350000000070e-01,2.861056702450346378e-01,1.000000000000000048e-04,4.053657038755667941e+01,2.000000000000000111e-01
-2.998301261179586064e+00,-5.567642400000000213e-01,6.898116158076852411e-01,1.000000000000000048e-04,4.309481962666579591e+01,1.799999999999999933e-01
2.915910107000000195e+00,-9.248875840000000403e-01,3.553896914757166403e-01,1.000000000000000048e-04,4.130598175123235904e+01,2.999999999999999889e-01
2.904218159000000021e+00,-9.279150130000000107e-01,6.200884282756182753e-01,1.000000000000000048e-04,4.260902243528310862e+01,2.399999999999999911e-01
2.945746643000000109e+00,-9.241091030000000428e-01,6.928059903058385594e-01,1.000000000000000048e-04,4.344049697114903807e+01,2.300000000000000100e-01
2.195221751000000054e+00,9.567984520000000215e-01,1.759593046045446751e-01,1.000000000000000048e-04,3.934200878235416354e+01,2.200000000000000011e-01
-2.382074272179586227e+00,-9.504311730000000180e-01,1.723487530829554970e-01,1.000000000000000048e-04,3.940987776986381164e+01,2.300000000000000100e-01
2.197803225999999999e+00,9.560313849999999558e-01,2.061561599237924369e-01,1.000000000000000048e-04,3.914230517955875399e+01,2.300000000000000100e-01
-2.380846050179586282e+00,-9.512843520000000552e-01,2.441705658992376904e-01,1.000000000000000048e-04,4.054783729107531798e+01,2.600000000000000089e-01
-2.382960995179586039e+00,-9.501026420000000527e-01,3.004113552857878844e-01,1.000000000000000048e-04,4.090013332879924235e+01,2.099999999999999922e-01
2.192165822000000208e+00,9.554729659999999791e-01,9.687225197746047733e-01,1.000000000000000048e-04,4.395577904193832808e+01,2.899999999999999800e-01
-2.383512939179586176e+00,-9.505219620000000535e-01,1.825511739913474596e-01,1.000000000000000048e-04,4.001715742291361977e+01,2.000000000000000111e-01
2.197044292000000176e+00,9.582492320000000063e-01,3.724560885577907765e-01,1.000000000000000048e-04,4.115952241807362100e+01,2.500000000000000000e-01
2.198013217999999824e+00,9.570721989999999568e-01,1.370012088171475018e-01,1.000000000000000048e-04,3.924199015212072794e+01,2.099999999999999922e-01
2.198391541999999976e+00,9.561199929999999458e-01,7.438747651293979857e-01,1.000000000000000048e-04,4.371493491956456978e+01,2.300000000000000100e-01
2.199218732999999926e+00,9.570277640000000030e-01,4.736854722938017570e-01,1.000000000000000048e-04,4.212374232594851264e+01,2.200000000000000011e-01
2.196667974999999995e+00,9.569524729999999701e-01,8.272350484090769118e-01,1.000000000000000048e-04,4.376650038014691546e+01,2.399999999999999911e-01
2.196400267000000017e+00,9.571105250000000453e-01,2.752758539866937415e-01,1.000000000000000048e-04,4.034470667338651850e+01,2.500000000000000000e-01
2.195980999000000100e+00,9.563170869999999546e-01,5.863256579621012321e-01,1.000000000000000048e-04,4.242561798872102230e+01,2.200000000000000011e-01
2.198886345000000020e+00,9.574225640000000315e-01,2.871353029949954561e-01,1.000000000000000048e-04,4.053898307701925319e+01,3.300000000000000155e-01
-2.382942164179586264e+00,-9.487821469999999646e-01,2.080529527135313028e-01,1.000000000000000048e-04,4.012083199021514446e+01,2.000000000000000111e-01
2.197058621000000045e+00,9.568337070000000333e-01,7.485488894375544877e-01,1.000000000000000048e-04,4.345679924296346286e+01,2.600000000000000089e-01
2.196754174000000059e+00,9.569828230000000380e-01,1.035349015211352697e+00,1.000000000000000048e-04,4.463328430277027081e+01,2.399999999999999911e-01
-2.381905888179586039e+00,-9.494029419999999719e-01,2.176929465269390462e-01,1.000000000000000048e-04,4.034224256184373303e+01,2.399999999999999911e-01
-2.382353656179586388e+00,-9.501919130000000546e-01,2.563993160966475671e-01,1.000000000000000048e-04,4.023962121729240948e+01,2.600000000000000089e-01
-2.385313647179586383e+00,-9.492824659999999914e-01,4.285354988092080486e-01,1.000000000000000048e-04,4.180351191804658839e+01,2.399999999999999911e-01
-2.383308463179586223e+00,-9.502672559999999491e-01,1.403068838920709105e-01,1.000000000000000048e-04,3.919502887017358717e+01,2.000000000000000111e-01
2.194446376000000143e+00,9.548028840000000184e-01,9.800735705299143952e-01,1.000000000000000048e-04,4.477117807785958092e+01,3.699999999999999956e-01
-2.377678389179586294e+00,-9.493284189999999789e-01,4.986666697660693259e-01,1.000000000000000048e-04,4.235310321550505108e+01,3.099999999999999978e-01
2.195048706000000127e+00,9.553664520000000326e-01,3.977572535765336870e-01,1.000000000000000048e-04,4.130670344769925606e+01,2.399999999999999911e-01
2.194988459000000169e+00,9.569281090000000267e-01,1.375882051822869823e-01,1.000000000000000048e-04,3.907875818483182684e+01,2.099999999999999922e-01
2.198773670000000013e+00,9.585742720000000050e-01,6.679305205819590086e-01,1.000000000000000048e-04,4.345303142629958870e+01,2.800000000000000266e-01
2.196007632000000154e+00,9.574002940000000406e-01,6.937836607036969028e-01,1.000000000000000048e-04,4.333555108657082400e+01,2.800000000000000266e-01
2.193610842000000005e+00,9.569156829999999614e-01,7.581611426643548590e-01,1.000000000000000048e-04,4.358954232887801794e+01,2.099999999999999922e-01
2.194846306000000080e+00,9.574700699999999509e-01,7.337769651350263267e-01,1.000000000000000048e-04,4.303169580471051603e+01,2.300000000000000100e-01
-2.901318991795864832e-01,1.086903570000000041e+00,7.210295429401045730e-01,1.000000000000000048e-04,4.297624911166417405e+01,2.000000000000000111e-01
-2.914486071795865385e-01,1.085909494999999891e+00,4.972554143352223566e-01,1.000000000000000048e-04,4.216351770354420125e+01,1.000000000000000056e-01
-2.954610881795858290e-01,1.084462065999999947e+00,8.232882386567768052e-01,1.000000000000000048e-04,4.348592633600338786e+01,1.199999999999999956e-01
-3.403197011795864313e-01,1.090760651000000081e+00,3.059838188943519999e-01,1.000000000000000048e-04,4.099243326784705488e+01,8.999999999999999667e-02
-3.429455761795860980e-01,1.087892671000000089e+00,1.224180611511846983e-01,1.000000000000000048e-04,3.859293803546074031e+01,1.400000000000000133e-01
6.896152909999999636e-01,-9.249195220000000495e-01,8.368488961399362935e-01,1.000000000000000048e-04,4.367289075646905872e+01,2.000000000000000111e-01
1.024453132999999960e+00,1.182715689999999986e+00,7.707447064513111012e-01,1.000000000000000048e-04,4.351415397579275890e+01,1.900000000000000022e-01
1.006083177000000051e+00,1.165244638999999971e+00,1.869550207519057317e-01,1.000000000000000048e-04,3.961473850924438267e+01,1.700000000000000122e-01
9.905969959999999519e-01,1.153001898999999941e+00,4.524015102421199419e-01,1.000000000000000048e-04,4.258619850654575600e+01,3.499999999999999778e-01
2.950804928999999799e+00,-1.010655210999999998e+00,1.793279801932323725e-01,1.000000000000000048e-04,3.973002906940306644e+01,1.700000000000000122e-01
2.951637304000000128e+00,-1.010683065999999908e+00,2.449587559191641617e-01,1.000000000000000048e-04,4.041544703865449861e+01,1.900000000000000022e-01
-2.349248843179586377e+00,-9.322901449999999590e-01,3.298526224377038574e-01,1.000000000000000048e-04,4.103098686999454259e+01,1.900000000000000022e-01
