-1.598279621179586663e+00,2.779993629999999993e-01,3.204692344094706158e-02,1.000000000000000048e-04,3.555506119151542777e+01,1.700000000000000122e-01
-1.710562538179586589e+00,-1.402302595000000096e+00,4.277687273912511579e-02,1.000000000000000048e-04,3.615519976623886578e+01,2.000000000000000111e-01
-2.771840681795865180e-01,-1.115655276000000029e+00,2.203894037266906913e-02,1.000000000000000048e-04,3.498339938625518641e+01,1.700000000000000122e-01
-1.608432286179586335e+00,-6.514894359999999773e-01,2.437817795758467909e-02,1.000000000000000048e-04,3.533199234899637986e+01,1.600000000000000033e-01
-1.490451089179586575e+00,-3.201959389999999850e-01,2.524667447898276684e-02,1.000000000000000048e-04,3.461343478286715936e+01,1.700000000000000122e-01
-1.995144670179586299e+00,-1.040863893000000040e+00,2.981425159363926269e-02,1.000000000000000048e-04,3.554110180225701043e+01,1.799999999999999933e-01
-2.211919791795864398e-01,-6.717550429999999961e-01,3.707980616658290707e-02,1.000000000000000048e-04,3.593921782577350399e+01,2.200000000000000011e-01
-8.294029241795861651e-01,6.699244909999999553e-01,3.181243255324450736e-02,1.000000000000000048e-04,3.523496964115887664e+01,1.799999999999999933e-01
-1.123871723179585835e+00,1.275958498999999913e+00,1.916799452985196162e-02,1.000000000000000048e-04,3.471583472158840067e+01,1.900000000000000022e-01
-5.094723721795864080e-01,-7.371415260000000469e-01,3.434810855973391419e-02,1.000000000000000048e-04,3.601195363747160627e+01,1.600000000000000033e-01
6.571342580000000266e-01,4.949370419999999937e-01,2.738846430547425825e-02,1.000000000000000048e-04,3.567493300473111617e+01,1.700000000000000122e-01
-1.010588552179585875e+00,4.063959939999999826e-01,1.423189478049313728e-02,1.000000000000000048e-04,3.361830576570409335e+01,1.400000000000000133e-01
-5.300352171795861267e-01,-4.198024320000000031e-01,2.859123590984502528e-02,1.000000000000000048e-04,3.550738058227106109e+01,1.499999999999999944e-01
-3.959305511795863097e-01,-4.514385590000000170e-01,2.391405902492005353e-02,1.000000000000000048e-04,3.524293422091648154e+01,1.600000000000000033e-01
-1.302326638179586382e+00,4.891699640000000127e-01,1.600277252656590044e-02,1.000000000000000048e-04,3.409354455976068010e+01,8.999999999999999667e-02
-8.169037861795862554e-01,4.857709299999999897e-01,4.057439079867930509e-02,1.000000000000000048e-04,3.631089767058096385e+01,1.000000000000000056e-01
-1.156602994179586119e+00,7.039336720000000103e-01,1.613599640658458512e-02,1.000000000000000048e-04,3.420360274787577737e+01,1.100000000000000006e-01
2.500120207999999788e+00,-3.403989430000000094e-01,3.155627280453443539e-02,1.000000000000000048e-04,3.584121929359617553e+01,1.100000000000000006e-01
2.397122115999999803e+00,-8.283729720000000407e-01,2.227586339255216430e-02,1.000000000000000048e-04,3.523808970676586938e+01,1.700000000000000122e-01
-4.391142381795862804e-01,9.199097720000000145e-01,2.261425504585545809e-02,1.000000000000000048e-04,3.505666163036174510e+01,2.200000000000000011e-01
-1.356814123179586495e+00,1.335301293999999972e+00,1.486413006810316517e-02,1.000000000000000048e-04,3.361629598135260721e+01,2.600000000000000089e-01
2.612804049999999823e+00,3.003891830000000041e-01,4.182907504935551302e-02,1.000000000000000048e-04,3.624199943053788076e+01,1.700000000000000122e-01
-1.192441121179586005e+00,1.100105410000000061e+00,1.507193394225692096e-02,1.000000000000000048e-04,3.415087443507767517e+01,1.799999999999999933e-01
-3.012917491179586182e+00,1.485957493999999990e+00,2.139619932458547424e-02,1.000000000000000048e-04,3.501374178193378839e+01,2.200000000000000011e-01
-7.329138461795858817e-01,1.044356909000000000e+00,3.217470983221426550e-02,1.000000000000000048e-04,3.553988408916219299e+01,1.700000000000000122e-01
1.024371087000000013e+00,-9.607604419999999923e-01,2.333320861561505311e-02,1.000000000000000048e-04,3.479451513382888095e+01,1.600000000000000033e-01
2.960998206000000188e+00,-8.548671270000000044e-01,1.162157146445896849e-02,1.000000000000000048e-04,3.413522809632161170e+01,1.900000000000000022e-01
-3.017579355179586198e+00,-3.780387199999999948e-01,2.983325976718087524e-02,1.000000000000000048e-04,3.577873772442254818e+01,2.399999999999999911e-01
-2.268575282179586594e+00,6.921453520000000470e-01,1.593717095174795872e-02,1.000000000000000048e-04,3.349765271232590891e+01,3.699999999999999956e-01
2.478186394000000181e+00,5.281495040000000474e-01,2.954149196041000458e-02,1.000000000000000048e-04,3.589688738682714586e+01,2.399999999999999911e-01
1.941716173999999961e+00,9.578325640000000529e-01,4.190041055652593549e-02,1.000000000000000048e-04,3.663568884858430152e+01,3.800000000000000044e-01
2.041827891000000061e+00,-8.953703119999999460e-01,2.477831229326477036e-02,1.000000000000000048e-04,3.530530308869180800e+01,1.700000000000000122e-01
2.521229080999999983e+00,-8.544186950000000058e-01,2.919194493345922403e-02,1.000000000000000048e-04,3.584708957472750512e+01,2.000000000000000111e-01
2.745955969000000163e+00,3.136627880000000257e-01,3.073035538340374018e-02,1.000000000000000048e-04,3.539086312349067498e+01,2.099999999999999922e-01
1.738295793999999894e+00,1.134430556000000090e+00,2.202921647814837236e-02,1.000000000000000048e-04,3.506433772740281540e+01,1.799999999999999933e-01
-8.687814521795864664e-01,6.221710379999999541e-01,1.256077967262836381e-02,1.000000000000000048e-04,3.335382712727324162e+01,3.499999999999999778e-01
-1.857013858179586308e+00,3.937075449999999921e-01,1.772765951720023381e-02,1.000000000000000048e-04,3.467836323632038642e+01,2.999999999999999889e-01
-2.894431473179586156e+00,2.701405689999999971e-01,4.085614327147513158e-02,1.000000000000000048e-04,3.590976814316973531e+01,2.300000000000000100e-01
2.213600608000000136e+00,-5.295933369999999973e-01,1.871588314557270927e-02,1.000000000000000048e-04,3.481471456977774892e+01,2.500000000000000000e-01
9.327636729999999599e-01,4.069681829999999834e-01,1.489513454984203733e-02,1.000000000000000048e-04,3.416933864498599860e+01,2.300000000000000100e-01
1.743234563999999986e+00,7.359057650000000450e-01,2.307721058182621299e-02,1.000000000000000048e-04,3.496594447296853048e+01,2.200000000000000011e-01
-2.812965047179586175e+00,5.929882829999999494e-01,1.059001582221696935e-02,1.000000000000000048e-04,3.314146576053713034e+01,2.399999999999999911e-01
-2.977583888179586413e+00,-1.437144969999999966e-01,2.328514168907180881e-02,1.000000000000000048e-04,3.473584007937678564e+01,2.700000000000000178e-01
2.276564226000000080e+00,-5.051809499999999620e-01,1.464838180219274477e-02,1.000000000000000048e-04,3.390274647316414303e+01,2.800000000000000266e-01
2.667465888000000174e+00,-6.260506340000000502e-01,1.634477663283595561e-02,1.000000000000000048e-04,3.438189502672726405e+01,2.600000000000000089e-01
1.041358068000000081e+00,8.506585119999999778e-01,2.072933124721787479e-02,1.000000000000000048e-04,3.452956734936682892e+01,2.300000000000000100e-01
2.499030525999999863e+00,-9.629979760000000333e-01,2.765023412338774023e-02,1.000000000000000048e-04,3.535598660377950608e+01,3.099999999999999978e-01
1.334501084000000004e+00,-7.340646360000000481e-01,1.544319756663115051e-02,1.000000000000000048e-04,3.477456999988628894e+01,2.300000000000000100e-01
2.196979751999999841e+00,-5.334639439999999677e-01,2.129583211881769245e-02,1.000000000000000048e-04,3.482392527517725256e+01,2.500000000000000000e-01
1.445572062999999963e+00,-8.838676049999999451e-01,1.586751107155226492e-02,1.000000000000000048e-04,3.479016954270539941e+01,3.499999999999999778e-01
7.246286520000000397e-01,-7.843460709999999780e-01,7.790756560233091932e-03,1.000000000000000048e-04,3.265587411319782518e+01,3.099999999999999978e-01
2.179180484000000195e+00,1.312341798999999920e+00,2.705748049104106379e-02,1.000000000000000048e-04,3.538221960539706856e+01,2.200000000000000011e-01
7.669035910000000511e-01,2.329377750000000136e-01,2.972419063915388016e-02,1.000000000000000048e-04,3.560462780876788003e+01,2.500000000000000000e-01
2.984436029999999906e+00,4.410184999999999800e-01,2.176329343884764178e-02,1.000000000000000048e-04,3.468075298829090514e+01,2.999999999999999889e-01
1.808380389999999949e+00,-5.931087419999999666e-01,3.016770928113099437e-02,1.000000000000000048e-04,3.569600348291128000e+01,2.200000000000000011e-01
2.378694356000000010e+00,6.891218140000000547e-01,3.485849940099750022e-02,1.000000000000000048e-04,3.612096527674020763e+01,3.099999999999999978e-01
-1.027171309179585990e+00,8.938185499999999895e-01,3.372901255886562311e-02,1.000000000000000048e-04,3.575510927113134585e+01,3.099999999999999978e-01
2.177629786999999872e+00,1.088514723000000073e+00,1.948289726068597183e-02,1.000000000000000048e-04,3.482598378197526046e+01,2.500000000000000000e-01
2.446904437000000154e+00,4.505237189999999892e-01,4.359338246136568173e-02,1.000000000000000048e-04,3.670076350094397100e+01,2.700000000000000178e-01
-2.745075452179586151e+00,5.290477460000000409e-01,1.367735887589094368e-02,1.000000000000000048e-04,3.369487232284515699e+01,1.600000000000000033e-01
3.470126559999999749e-01,6.971221490000000243e-01,2.839054531722418062e-02,1.000000000000000048e-04,3.577457876777893375e+01,2.399999999999999911e-01
-1.741234469179586242e+00,8.281857209999999858e-01,3.532820003235537243e-02,1.000000000000000048e-04,3.578246189403212441e+01,1.000000000000000056e-01
6.278667869999999818e-01,1.201237362999999947e+00,2.136921711362060883e-02,1.000000000000000048e-04,3.464709612778180770e+01,1.799999999999999933e-01
1.901542252999999905e+00,5.984822429999999693e-01,1.885142920023330504e-02,1.000000000000000048e-04,3.469585279178848225e+01,1.700000000000000122e-01
9.102462569999999475e-01,3.833152009999999943e-01,2.564879204340941854e-02,1.000000000000000048e-04,3.487456470880146497e+01,2.200000000000000011e-01
4.621894529999999723e-01,4.355896570000000190e-01,2.725247747385006747e-02,1.000000000000000048e-04,3.506767681943340165e+01,2.399999999999999911e-01
1.731299603999999936e+00,-9.087058740000000245e-01,1.893169351114587506e-02,1.000000000000000048e-04,3.483074979617337164e+01,2.200000000000000011e-01
2.307708166999999921e+00,-3.555306579999999994e-01,1.475380608587939513e-02,1.000000000000000048e-04,3.372177686299011867e+01,1.700000000000000122e-01
2.284880370000000216e+00,-4.942566800000000038e-01,1.714009886977163610e-02,1.000000000000000048e-04,3.467033978428382568e+01,2.200000000000000011e-01
-2.729734007179586364e+00,-4.808223520000000084e-01,1.505261801305213254e-02,1.000000000000000048e-04,3.388172999561415821e+01,2.300000000000000100e-01
-2.728058296179586062e+00,8.181749999999999856e-01,1.544865242297821517e-02,1.000000000000000048e-04,3.390227920111058779e+01,2.200000000000000011e-01
1.539636916000000078e+00,-6.652033799999999830e-02,2.187848669320846540e-02,1.000000000000000048e-04,3.460496103385518296e+01,2.999999999999999889e-01
2.937620158000000092e+00,7.383732379999999873e-01,1.531812410859734186e-02,1.000000000000000048e-04,3.402474348701558426e+01,2.200000000000000011e-01
2.624384770999999894e+00,8.339422930000000012e-01,2.677067528866627910e-02,1.000000000000000048e-04,3.537261571305354835e+01,1.799999999999999933e-01
-2.594453966179586235e+00,1.052220571999999965e+00,2.796497011260257182e-02,1.000000000000000048e-04,3.596639620856104358e+01,1.900000000000000022e-01
-2.462277587179586114e+00,1.356652656000000068e+00,2.471515230645437988e-02,1.000000000000000048e-04,3.502560649848705054e+01,2.099999999999999922e-01
2.730654787000000194e+00,8.741146779999999783e-01,2.998431712404081573e-02,1.000000000000000048e-04,3.558130359625330641e+01,1.900000000000000022e-01
1.629450376000000089e+00,2.068732899999999875e-01,3.279210011100652800e-02,1.000000000000000048e-04,3.589817588209756849e+01,2.899999999999999800e-01
1.142160569999999958e-01,6.858846720000000285e-01,2.116468209132027489e-02,1.000000000000000048e-04,3.447805544887700790e+01,1.799999999999999933e-01
-4.383495451795864639e-01,9.198101690000000108e-01,3.122731299305914199e-02,1.000000000000000048e-04,3.537877400824014984e+01,2.600000000000000089e-01
1.001193188000000012e+00,8.013430529999999719e-01,1.034932714966174672e-02,1.000000000000000048e-04,3.326542264327744647e+01,1.799999999999999933e-01
-8.746654461795859703e-01,7.515327899999999506e-01,4.791816543424265440e-02,1.000000000000000048e-04,3.637801877139786200e+01,2.600000000000000089e-01
1.319662558000000097e+00,1.070340469999999933e-01,1.958621666911519732e-02,1.000000000000000048e-04,3.454895172213735322e+01,2.399999999999999911e-01
1.726021762000000015e+00,-6.377623550000000030e-01,1.593160154868367151e-02,1.000000000000000048e-04,3.403561805993359712e+01,2.600000000000000089e-01
-2.754219137179586330e+00,-9.277945709999999568e-01,1.605329236273855820e-02,1.000000000000000048e-04,3.407028849529304182e+01,3.699999999999999956e-01
1.691977534999999921e+00,1.434503057999999998e+00,1.542501552168795698e-02,1.000000000000000048e-04,3.398762058194699165e+01,2.099999999999999922e-01
8.272144390000000236e-01,-4.428667319999999852e-01,4.468750447361502509e-02,1.000000000000000048e-04,3.657635090734710559e+01,2.300000000000000100e-01
-2.185785446179585811e+00,4.040310730000000183e-01,2.229894347991367987e-02,1.000000000000000048e-04,3.506922845411655487e+01,1.799999999999999933e-01
2.680919170000000129e+00,5.929394510000000063e-01,1.692264688925115834e-02,1.000000000000000048e-04,3.425609699526374641e+01,1.799999999999999933e-01
2.468528393999999793e+00,-3.885411739999999892e-01,7.792596123962658439e-03,1.000000000000000048e-04,3.297231956601219593e+01,1.700000000000000122e-01
1.824819092000000031e+00,-9.187566499999999525e-01,2.463619782654768997e-02,1.000000000000000048e-04,3.508751275539812298e+01,2.099999999999999922e-01
2.252174823999999909e+00,-3.842870769999999769e-01,1.269864231914619168e-02,1.000000000000000048e-04,3.361896764593840459e+01,2.000000000000000111e-01
2.889947965000000174e+00,3.184077100000000105e-01,3.175942180521218461e-02,1.000000000000000048e-04,3.604226805881691575e+01,2.000000000000000111e-01
-2.666621499179586241e+00,1.790417820000000104e-01,9.379256007316927324e-03,1.000000000000000048e-04,3.274824579040512873e+01,1.900000000000000022e-01
2.353249148999999818e+00,9.653535600000000549e-01,1.592516323704251668e-02,1.000000000000000048e-04,3.429003715877095715e+01,1.799999999999999933e-01
1.765869402999999949e+00,9.288119630000000182e-01,1.660396482233728044e-02,1.000000000000000048e-04,3.460091802775529857e+01,3.599999999999999867e-01
1.931340567999999980e+00,-5.991437729999999906e-01,1.096152665346350474e-02,1.000000000000000048e-04,3.382810841791358314e+01,2.000000000000000111e-01
2.835991935000000019e+00,-7.109363199999999550e-01,2.752919555263311224e-02,1.000000000000000048e-04,3.533007722261894656e+01,1.900000000000000022e-01
-2.852520529179586095e+00,8.667541789999999580e-01,2.234038012326777789e-02,1.000000000000000048e-04,3.495151344462795606e+01,1.799999999999999933e-01
-2.458251249179586040e+00,-2.796002539999999925e-01,3.331199861851774635e-02,1.000000000000000048e-04,3.596515954889419930e+01,3.300000000000000155e-01
1.596378985000000084e+00,5.944120290000000084e-01,2.436194558039539437e-02,1.000000000000000048e-04,3.496246517866821790e+01,1.900000000000000022e-01
-2.484014184179586415e+00,8.016642189999999557e-01,1.157479722892440499e-02,1.000000000000000048e-04,3.328194332548110168e+01,1.900000000000000022e-01
-2.431723812179586108e+00,1.223750555999999934e+00,2.378574862381865884e-02,1.000000000000000048e-04,3.499190851034430949e+01,1.700000000000000122e-01
-2.378598255179586118e+00,1.197731727999999940e+00,2.870590295229136224e-02,1.000000000000000048e-04,3.535824516051377486e+01,1.900000000000000022e-01
1.739429998000000088e+00,2.494783479999999887e-01,3.434384689683867009e-02,1.000000000000000048e-04,3.602586917680861944e+01,3.099999999999999978e-01
-2.377494960179586059e+00,9.562939099999999693e-01,2.255347930054374395e-02,1.000000000000000048e-04,3.478961664080092220e+01,1.799999999999999933e-01
-9.021677017958662503e-02,6.959221140000000361e-01,2.507516644816365492e-02,1.000000000000000048e-04,3.498676137812456943e+01,3.499999999999999778e-01
2.021336933000000169e+00,8.510789659999999923e-01,2.255926346265901827e-02,1.000000000000000048e-04,3.459807819990322741e+01,2.800000000000000266e-01
2.573899695999999793e+00,-5.247218830000000001e-01,1.272237083887883813e-02,1.000000000000000048e-04,3.396839987389096649e+01,1.700000000000000122e-01
2.346925623000000183e+00,-7.496726200000000118e-01,2.559990530422195931e-02,1.000000000000000048e-04,3.545053966987597249e+01,1.700000000000000122e-01
2.543651012999999850e+00,-2.555195920000000176e-01,1.902086609705699871e-02,1.000000000000000048e-04,3.480429429743860936e+01,1.900000000000000022e-01
2.457771880000000131e+00,-4.383329890000000062e-01,1.221809043152388696e-02,1.000000000000000048e-04,3.380229640509899980e+01,1.700000000000000122e-01
-2.749033603179586116e+00,5.277091179999999770e-01,3.086555503670695977e-02,1.000000000000000048e-04,3.554111078247572664e+01,1.799999999999999933e-01
-3.021446786179586397e+00,6.716344440000000526e-01,1.285176876169669136e-02,1.000000000000000048e-04,3.374659064897915783e+01,1.799999999999999933e-01
2.390319493999999878e+00,1.427533710000000067e+00,2.510864790401345914e-02,1.000000000000000048e-04,3.507136627309184718e+01,1.799999999999999933e-01
2.491619029000000207e+00,8.136863199999999630e-01,9.196989490368512321e-03,1.000000000000000048e-04,3.291015470053827841e+01,1.900000000000000022e-01
2.336721559999999975e+00,1.049041915000000103e+00,4.314277387698828292e-02,1.000000000000000048e-04,3.629822599651671311e+01,1.700000000000000122e-01
1.201678150000000000e+00,3.331923239999999842e-01,1.529066109256072004e-02,1.000000000000000048e-04,3.426336496342611326e+01,1.900000000000000022e-01
-3.811893421795859993e-01,1.284308205000000092e+00,3.279323822770763286e-02,1.000000000000000048e-04,3.559422127610016418e+01,2.000000000000000111e-01
5.879284790000000038e-01,8.245620540000000442e-01,3.317367302205398438e-02,1.000000000000000048e-04,3.576790128601733443e+01,1.700000000000000122e-01
-1.085925731795862603e-01,9.806715139999999664e-01,1.256748500679805147e-02,1.000000000000000048e-04,3.363384738984245104e+01,1.799999999999999933e-01
1.189812670000000017e+00,8.219376269999999485e-01,2.356619329010056774e-02,1.000000000000000048e-04,3.519542245605016006e+01,1.700000000000000122e-01
2.896526737999999934e+00,1.048685354999999930e+00,3.519300927129975776e-02,1.000000000000000048e-04,3.593130872265741971e+01,1.700000000000000122e-01
8.784667550000000436e-01,-5.840451829999999678e-01,2.422722534633470204e-02,1.000000000000000048e-04,3.493327526561643737e+01,2.099999999999999922e-01
-2.025603206179586557e+00,1.419180792999999996e+00,4.775568653815098763e-02,1.000000000000000048e-04,3.678033718086305726e+01,1.799999999999999933e-01
1.097118803000000087e+00,1.428367445999999985e+00,1.971765414069892586e-02,1.000000000000000048e-04,3.469148421324521792e+01,1.799999999999999933e-01
-1.923054671795858539e-01,8.268694330000000425e-01,3.377152050230147751e-02,1.000000000000000048e-04,3.584727404093772662e+01,2.000000000000000111e-01
1.974446608000000047e+00,-1.250497374000000050e+00,7.492915546468248422e-03,1.000000000000000048e-04,3.252792182685511335e+01,2.000000000000000111e-01
1.714471547999999901e+00,-4.841846819999999774e-01,2.674058339219875791e-02,1.000000000000000048e-04,3.564253127447597080e+01,1.700000000000000122e-01
1.635209042000000057e+00,-1.499680316999999929e+00,1.868848719882798548e-02,1.000000000000000048e-04,3.494791421610863580e+01,1.900000000000000022e-01
-3.085878636179586021e+00,-8.156760069999999807e-01,3.053349985710962500e-02,1.000000000000000048e-04,3.558589836815788487e+01,1.799999999999999933e-01
1.583648911999999909e+00,-4.051170720000000225e-01,4.001002142719412014e-02,1.000000000000000048e-04,3.618927887671889465e+01,1.700000000000000122e-01
3.116144028999999982e+00,-6.233618589999999626e-01,1.743924363994131532e-02,1.000000000000000048e-04,3.432798216768497213e+01,2.000000000000000111e-01
2.580853791000000008e+00,2.126606490000000071e-01,2.354869273578796829e-02,1.000000000000000048e-04,3.540244287653271016e+01,2.200000000000000011e-01
2.791070910999999821e+00,-3.375241600000000036e-02,3.394842954513555000e-02,1.000000000000000048e-04,3.589207097225391152e+01,2.999999999999999889e-01
2.126664376999999995e+00,-4.630033630000000011e-01,1.021123142976221310e-02,1.000000000000000048e-04,3.325593726835528940e+01,1.799999999999999933e-01
1.264160699999999915e+00,6.289837299999999631e-01,1.573036115253700906e-02,1.000000000000000048e-04,3.438026448706923333e+01,1.900000000000000022e-01
2.608192676999999904e+00,3.485897410000000085e-01,3.011397426403172872e-02,1.000000000000000048e-04,3.546937134655362911e+01,2.200000000000000011e-01
2.816578843999999915e+00,-6.539336449999999523e-01,2.097561319454066542e-02,1.000000000000000048e-04,3.480137457333058393e+01,1.799999999999999933e-01
2.816545334000000178e+00,5.529564630000000092e-01,2.469167179840825455e-02,1.000000000000000048e-04,3.508306009412019932e+01,1.700000000000000122e-01
2.293480610000000031e+00,1.430186356999999964e+00,3.095244653443995908e-02,1.000000000000000048e-04,3.562326650406056672e+01,1.700000000000000122e-01
1.900048696999999898e+00,-6.695785770000000081e-01,2.353740939725712522e-02,1.000000000000000048e-04,3.504078152990526007e+01,1.900000000000000022e-01
2.402973735999999860e+00,-4.293495210000000117e-01,1.520521756166748339e-02,1.000000000000000048e-04,3.441424873863883960e+01,2.200000000000000011e-01
3.123677135999999965e+00,5.597831170000000522e-01,1.514194957036374412e-02,1.000000000000000048e-04,3.407381745336784462e+01,1.700000000000000122e-01
-2.603733431795864917e-01,9.574212720000000454e-01,2.869162554256443620e-02,1.000000000000000048e-04,3.584804118218580271e+01,3.800000000000000044e-01
-1.216980031795857897e-01,3.678993019999999836e-01,3.320997117846169466e-02,1.000000000000000048e-04,3.553530372199794130e+01,1.900000000000000022e-01
2.921580513999999962e+00,4.108407450000000072e-01,1.287463512764608353e-02,1.000000000000000048e-04,3.393672408702692422e+01,1.900000000000000022e-01
-2.362072097179586105e+00,1.187667234999999932e+00,1.950434186976601758e-02,1.000000000000000048e-04,3.427444190205449814e+01,1.900000000000000022e-01
-2.337569846179586186e+00,3.756736769999999837e-01,1.260898686338407515e-02,1.000000000000000048e-04,3.333501490757468844e+01,1.700000000000000122e-01
-1.563533060179586265e+00,8.298117619999999528e-01,3.390569740078563932e-02,1.000000000000000048e-04,3.596401380463640862e+01,3.300000000000000155e-01
-7.514201781795861734e-01,8.148208550000000105e-01,1.201222962532932925e-02,1.000000000000000048e-04,3.330610294779133795e+01,2.099999999999999922e-01
-2.172991007179586376e+00,1.278564443000000050e+00,2.701234046483502738e-02,1.000000000000000048e-04,3.528946348768416641e+01,2.000000000000000111e-01
1.004972830999999900e+00,3.284388160000000223e-01,9.581975242352491762e-03,1.000000000000000048e-04,3.320939162961413871e+01,1.799999999999999933e-01
-1.050913719179586536e+00,7.925907810000000220e-01,2.863260564159131327e-02,1.000000000000000048e-04,3.533130481107255605e+01,2.899999999999999800e-01
1.174967896000000067e+00,-7.032179160000000540e-01,1.227336557600988698e-02,1.000000000000000048e-04,3.382264383588729117e+01,1.799999999999999933e-01
2.063754460999999818e+00,1.158898511999999936e+00,4.192967019366977688e-02,1.000000000000000048e-04,3.628521571658387046e+01,1.799999999999999933e-01
1.355273345999999934e+00,1.034050206000000083e+00,2.789683374569329466e-02,1.000000000000000048e-04,3.564353926435322251e+01,1.700000000000000122e-01
1.878516419999999965e+00,-5.891517790000000421e-01,2.681866462764914694e-02,1.000000000000000048e-04,3.560937865599253627e+01,1.799999999999999933e-01
3.042909537999999969e+00,4.914006550000000195e-01,4.609374145053646288e-02,1.000000000000000048e-04,3.673811050250927224e+01,1.700000000000000122e-01
-2.192876876179585821e+00,7.571444160000000423e-01,1.075214165672067068e-02,1.000000000000000048e-04,3.344105636006542426e+01,2.099999999999999922e-01
-1.274335216179586006e+00,7.393028099999999769e-01,3.155210650642104042e-02,1.000000000000000048e-04,3.534151813921852892e+01,3.599999999999999867e-01
3.513372269999999742e-01,1.023017258000000096e+00,4.239901068234974701e-02,1.000000000000000048e-04,3.625592676611335463e+01,1.799999999999999933e-01
-2.045215730179585911e+00,1.346705497999999945e+00,2.090773039131432753e-02,1.000000000000000048e-04,3.452249377594237245e+01,1.799999999999999933e-01
2.622131355000000053e+00,-2.378520580000000051e-01,1.974971631969046904e-02,1.000000000000000048e-04,3.486336388180015433e+01,2.099999999999999922e-01
1.499565373000000035e+00,-5.833961840000000398e-01,2.911903031431273270e-02,1.000000000000000048e-04,3.560427416428426284e+01,1.199999999999999956e-01
9.453780529999999960e-01,-3.014802610000000271e-01,2.629633662362418356e-02,1.000000000000000048e-04,3.530390259112319029e+01,1.799999999999999933e-01
1.003030738000000088e+00,-6.679498139999999751e-01,2.023856257407263826e-02,1.000000000000000048e-04,3.460481101028265272e+01,1.799999999999999933e-01
-2.858957567179586157e+00,-2.878047879999999781e-01,2.013077672646468308e-02,1.000000000000000048e-04,3.482883246335333638e+01,1.300000000000000044e-01
-2.653655062179586022e+00,5.464710109999999510e-01,4.195393562542837351e-02,1.000000000000000048e-04,3.657144453121925665e+01,1.300000000000000044e-01
-1.077960778179586576e+00,1.305029642999999906e+00,3.433229233698553706e-02,1.000000000000000048e-04,3.573039378745770023e+01,1.100000000000000006e-01
2.996279555000000094e+00,-9.792432829999999644e-01,1.641838452416166660e-02,1.000000000000000048e-04,3.438998065107480073e+01,1.600000000000000033e-01
-7.405109531795863731e-01,5.344760480000000369e-01,1.805741950377237615e-02,1.000000000000000048e-04,3.432819678998772872e+01,1.900000000000000022e-01
-1.986221938179586033e+00,3.858849830000000147e-01,2.702832194629678497e-02,1.000000000000000048e-04,3.549898280421693642e+01,2.600000000000000089e-01
-1.660796187179585992e+00,1.337702168000000080e+00,4.334878848885570513e-02,1.000000000000000048e-04,3.644636627983506827e+01,1.300000000000000044e-01
-1.008319883179586540e+00,9.035811799999999838e-01,2.975455027495921279e-02,1.000000000000000048e-04,3.578611513143071932e+01,1.799999999999999933e-01
-2.859227719179586291e+00,-3.383984709999999785e-01,3.941165915010391707e-02,1.000000000000000048e-04,3.614929037960003910e+01,1.799999999999999933e-01
-3.008470453179586279e+00,-9.028608339999999455e-01,1.632047510059275730e-02,1.000000000000000048e-04,3.444959654168708596e+01,1.300000000000000044e-01
2.720373041999999852e+00,-1.026937239000000002e+00,1.969921658946161003e-02,1.000000000000000048e-04,3.468817235532368670e+01,1.100000000000000006e-01
1.131806215999999976e+00,-1.312634394000000038e+00,1.759223991720904046e-02,1.000000000000000048e-04,3.461226655326788659e+01,1.199999999999999956e-01
1.262497049000000038e+00,-7.576738640000000302e-01,1.692587696096148342e-02,1.000000000000000048e-04,3.468307073365170368e+01,1.900000000000000022e-01
-2.150308364179585929e+00,9.473204419999999848e-01,1.462028609115861855e-02,1.000000000000000048e-04,3.365215176165406774e+01,1.499999999999999944e-01
-2.672281993179586035e+00,8.065802300000000091e-01,2.455582281639379083e-02,1.000000000000000048e-04,3.497979269311264261e+01,1.400000000000000133e-01
-2.768228307179586345e+00,1.501965110000000048e-01,3.025240174783005997e-02,1.000000000000000048e-04,3.547602382096589224e+01,1.300000000000000044e-01
2.456608391000000058e+00,-6.815239560000000418e-01,1.038353308271688924e-02,1.000000000000000048e-04,3.399533797500469490e+01,2.899999999999999800e-01
-1.538735822179586599e+00,7.895792169999999999e-01,2.718082792850884388e-02,1.000000000000000048e-04,3.539780690831916843e+01,1.600000000000000033e-01
-6.811844061795859773e-01,-7.989239399999999991e-01,2.135070923940163290e-02,1.000000000000000048e-04,3.435512113948847457e+01,2.300000000000000100e-01
-9.881069141795864041e-01,9.266642769999999807e-01,2.779029748108841069e-02,1.000000000000000048e-04,3.543278145773690824e+01,2.500000000000000000e-01
9.533575850000000074e-01,-5.868324440000000086e-01,7.948495050732917733e-03,1.000000000000000048e-04,3.306735272024935313e+01,1.199999999999999956e-01
-1.550854682179585886e+00,1.341867675000000037e+00,2.795173207043344377e-02,1.000000000000000048e-04,3.489350301101142549e+01,3.599999999999999867e-01
1.284766933000000000e+00,-9.049604909999999780e-01,1.177270095280835704e-02,1.000000000000000048e-04,3.364576508531511223e+01,1.300000000000000044e-01
