-1.598279621179586663e+00,2.779993629999999993e-01,1.606766280623683762e-02,1.000000000000000048e-04,3.380749090156905368e+01,1.700000000000000122e-01
-1.710562538179586589e+00,-1.402302595000000096e+00,4.381816767124635525e-02,1.000000000000000048e-04,3.640899195461035731e+01,2.000000000000000111e-01
-2.771840681795865180e-01,-1.115655276000000029e+00,3.269638619506287647e-02,1.000000000000000048e-04,3.586107726705238008e+01,1.700000000000000122e-01
-1.608432286179586335e+00,-6.514894359999999773e-01,2.550406870116095348e-02,1.000000000000000048e-04,3.512106457875354693e+01,1.600000000000000033e-01
-1.490451089179586575e+00,-3.201959389999999850e-01,2.475079515952804954e-02,1.000000000000000048e-04,3.522919601714940541e+01,1.700000000000000122e-01
-1.995144670179586299e+00,-1.040863893000000040e+00,2.387709761788303631e-02,1.000000000000000048e-04,3.489971976514591745e+01,1.799999999999999933e-01
-2.211919791795864398e-01,-6.717550429999999961e-01,1.824131828400910038e-02,1.000000000000000048e-04,3.504285342843442663e+01,2.200000000000000011e-01
-8.294029241795861651e-01,6.699244909999999553e-01,2.645356835581336163e-02,1.000000000000000048e-04,3.543631803113049017e+01,1.799999999999999933e-01
-1.123871723179585835e+00,1.275958498999999913e+00,1.544809543721203937e-02,1.000000000000000048e-04,3.433097369314912584e+01,1.900000000000000022e-01
-5.094723721795864080e-01,-7.371415260000000469e-01,3.173266024695609033e-02,1.000000000000000048e-04,3.551549825123900916e+01,1.600000000000000033e-01
6.571342580000000266e-01,4.949370419999999937e-01,3.292493229802206933e-02,1.000000000000000048e-04,3.597611452287444678e+01,1.700000000000000122e-01
-1.010588552179585875e+00,4.063959939999999826e-01,3.584183492415071726e-02,1.000000000000000048e-04,3.580460662855939091e+01,1.400000000000000133e-01
-5.300352171795861267e-01,-4.198024320000000031e-01,3.302561514284207966e-02,1.000000000000000048e-04,3.612809172901690147e+01,1.499999999999999944e-01
-3.959305511795863097e-01,-4.514385590000000170e-01,4.625260986639356808e-02,1.000000000000000048e-04,3.656234962540684563e+01,1.600000000000000033e-01
-1.302326638179586382e+00,4.891699640000000127e-01,1.561036477907173925e-02,1.000000000000000048e-04,3.391477201119043627e+01,8.999999999999999667e-02
-8.169037861795862554e-01,4.857709299999999897e-01,2.484095110955464314e-02,1.000000000000000048e-04,3.497592919128705802e+01,1.000000000000000056e-01
-1.156602994179586119e+00,7.039336720000000103e-01,4.717522786371564081e-02,1.000000000000000048e-04,3.656443802988982839e+01,1.100000000000000006e-01
2.500120207999999788e+00,-3.403989430000000094e-01,3.052405042387862366e-02,1.000000000000000048e-04,3.566593622432407784e+01,1.100000000000000006e-01
2.397122115999999803e+00,-8.283729720000000407e-01,4.582918905424926415e-02,1.000000000000000048e-04,3.630682314651680542e+01,1.700000000000000122e-01
-4.391142381795862804e-01,9.199097720000000145e-01,2.247717701174511973e-02,1.000000000000000048e-04,3.503055229478628263e+01,2.200000000000000011e-01
-1.356814123179586495e+00,1.335301293999999972e+00,2.787201289462548637e-02,1.000000000000000048e-04,3.494538818927825474e+01,2.600000000000000089e-01
2.612804049999999823e+00,3.003891830000000041e-01,9.037511439142997816e-03,1.000000000000000048e-04,3.296170305738161943e+01,1.700000000000000122e-01
-1.192441121179586005e+00,1.100105410000000061e+00,3.926509491149343667e-02,1.000000000000000048e-04,3.610895343310607331e+01,1.799999999999999933e-01
-3.012917491179586182e+00,1.485957493999999990e+00,1.747706909924251484e-02,1.000000000000000048e-04,3.393563521069425803e+01,2.200000000000000011e-01
-7.329138461795858817e-01,1.044356909000000000e+00,9.579434603230962963e-03,1.000000000000000048e-04,3.307187209148186469e+01,1.700000000000000122e-01
1.024371087000000013e+00,-9.607604419999999923e-01,1.765815033432671655e-02,1.000000000000000048e-04,3.457893132363160049e+01,1.600000000000000033e-01
2.960998206000000188e+00,-8.548671270000000044e-01,2.404332153400279282e-02,1.000000000000000048e-04,3.513856598159398459e+01,1.900000000000000022e-01
-3.017579355179586198e+00,-3.780387199999999948e-01,1.492546522031368283e-02,1.000000000000000048e-04,3.405555553204617780e+01,2.399999999999999911e-01
-2.268575282179586594e+00,6.921453520000000470e-01,3.325924980378713869e-02,1.000000000000000048e-04,3.555688534403319068e+01,3.699999999999999956e-01
2.478186394000000181e+00,5.281495040000000474e-01,1.980423921885909877e-02,1.000000000000000048e-04,3.450329991710064093e+01,2.399999999999999911e-01
1.941716173999999961e+00,9.578325640000000529e-01,1.465152401858715869e-02,1.000000000000000048e-04,3.395104744525190910e+01,3.800000000000000044e-01
2.041827891000000061e+00,-8.953703119999999460e-01,2.968246173456279280e-02,1.000000000000000048e-04,3.549390721268267157e+01,1.700000000000000122e-01
2.521229080999999983e+00,-8.544186950000000058e-01,2.021852425917125551e-02,1.000000000000000048e-04,3.481244067896892602e+01,2.000000000000000111e-01
2.745955969000000163e+00,3.136627880000000257e-01,3.224708125492115052e-02,1.000000000000000048e-04,3.615607314745847134e+01,2.099999999999999922e-01
1.738295793999999894e+00,1.134430556000000090e+00,1.826216275903447261e-02,1.000000000000000048e-04,3.437455313942243151e+01,1.799999999999999933e-01
-8.687814521795864664e-01,6.221710379999999541e-01,1.220453667167786804e-02,1.000000000000000048e-04,3.287618856609768159e+01,3.499999999999999778e-01
-1.857013858179586308e+00,3.937075449999999921e-01,3.782869033176883278e-02,1.000000000000000048e-04,3.647557587055568717e+01,2.999999999999999889e-01
-2.894431473179586156e+00,2.701405689999999971e-01,3.701082719236392649e-02,1.000000000000000048e-04,3.593924940951149694e+01,2.300000000000000100e-01
2.213600608000000136e+00,-5.295933369999999973e-01,3.295595465056688766e-02,1.000000000000000048e-04,3.566704120107679188e+01,2.500000000000000000e-01
9.327636729999999599e-01,4.069681829999999834e-01,3.869025342164977843e-02,1.000000000000000048e-04,3.602424470955974556e+01,2.300000000000000100e-01
1.743234563999999986e+00,7.359057650000000450e-01,3.193056054102383357e-02,1.000000000000000048e-04,3.580504923240687276e+01,2.200000000000000011e-01
-2.812965047179586175e+00,5.929882829999999494e-01,1.680933192581179902e-02,1.000000000000000048e-04,3.442946292824726839e+01,2.399999999999999911e-01
-2.977583888179586413e+00,-1.437144969999999966e-01,1.607206631781799011e-02,1.000000000000000048e-04,3.455053749490731718e+01,2.700000000000000178e-01
2.276564226000000080e+00,-5.051809499999999620e-01,1.908887181449725468e-02,1.000000000000000048e-04,3.501261387191861019e+01,2.800000000000000266e-01
2.667465888000000174e+00,-6.260506340000000502e-01,2.513267707849919930e-02,1.000000000000000048e-04,3.509158411180684567e+01,2.600000000000000089e-01
1.041358068000000081e+00,8.506585119999999778e-01,1.044862072166719003e-02,1.000000000000000048e-04,3.313540982124296619e+01,2.300000000000000100e-01
2.499030525999999863e+00,-9.629979760000000333e-01,2.226263854654808583e-02,1.000000000000000048e-04,3.536547795544507267e+01,3.099999999999999978e-01
1.334501084000000004e+00,-7.340646360000000481e-01,3.319248174830669029e-02,1.000000000000000048e-04,3.615026331269459803e+01,2.300000000000000100e-01
2.196979751999999841e+00,-5.334639439999999677e-01,1.814889870478886280e-02,1.000000000000000048e-04,3.436782756876115741e+01,2.500000000000000000e-01
1.445572062999999963e+00,-8.838676049999999451e-01,2.646349882342979853e-02,1.000000000000000048e-04,3.522392731760032802e+01,3.499999999999999778e-01
7.246286520000000397e-01,-7.843460709999999780e-01,2.698055764920725963e-02,1.000000000000000048e-04,3.539079021367736289e+01,3.099999999999999978e-01
2.179180484000000195e+00,1.312341798999999920e+00,2.420359209162037395e-02,1.000000000000000048e-04,3.497118595577069300e+01,2.200000000000000011e-01
7.669035910000000511e-01,2.329377750000000136e-01,8.156874821767079453e-03,1.000000000000000048e-04,3.293349627589734752e+01,2.500000000000000000e-01
2.984436029999999906e+00,4.410184999999999800e-01,4.306140398118030177e-02,1.000000000000000048e-04,3.638714529751665339e+01,2.999999999999999889e-01
1.808380389999999949e+00,-5.931087419999999666e-01,2.805186175952623095e-02,1.000000000000000048e-04,3.560720960019041570e+01,2.200000000000000011e-01
2.378694356000000010e+00,6.891218140000000547e-01,9.216459704088020288e-03,1.000000000000000048e-04,3.225817380128276568e+01,3.099999999999999978e-01
-1.027171309179585990e+00,8.938185499999999895e-01,1.571633390248816653e-02,1.000000000000000048e-04,3.378014663968365028e+01,3.099999999999999978e-01
2.177629786999999872e+00,1.088514723000000073e+00,3.844835684063907522e-02,1.000000000000000048e-04,3.623087001887402891e+01,2.500000000000000000e-01
2.446904437000000154e+00,4.505237189999999892e-01,3.289424561890963439e-02,1.000000000000000048e-04,3.615990874102455166e+01,2.700000000000000178e-01
-2.745075452179586151e+00,5.290477460000000409e-01,3.193279790188796596e-02,1.000000000000000048e-04,3.581193902711584087e+01,1.600000000000000033e-01
3.470126559999999749e-01,6.971221490000000243e-01,2.241720930151558377e-02,1.000000000000000048e-04,3.520973808259741133e+01,2.399999999999999911e-01
-1.741234469179586242e+00,8.281857209999999858e-01,3.473872287018808791e-02,1.000000000000000048e-04,3.565220728065877864e+01,1.000000000000000056e-01
6.278667869999999818e-01,1.201237362999999947e+00,1.551296392024403836e-02,1.000000000000000048e-04,3.402416096797063716e+01,1.799999999999999933e-01
1.901542252999999905e+00,5.984822429999999693e-01,1.051167156401033864e-02,1.000000000000000048e-04,3.310375371215128126e+01,1.700000000000000122e-01
9.102462569999999475e-01,3.833152009999999943e-01,9.654511034647539347e-03,1.000000000000000048e-04,3.311271799105983860e+01,2.200000000000000011e-01
4.621894529999999723e-01,4.355896570000000190e-01,3.589773688668040919e-02,1.000000000000000048e-04,3.594643721635578970e+01,2.399999999999999911e-01
1.731299603999999936e+00,-9.087058740000000245e-01,1.182774370987260681e-02,1.000000000000000048e-04,3.384567444107623402e+01,2.200000000000000011e-01
2.307708166999999921e+00,-3.555306579999999994e-01,7.893483594192618469e-03,1.000000000000000048e-04,3.295394994794448706e+01,1.700000000000000122e-01
2.284880370000000216e+00,-4.942566800000000038e-01,1.796512126347105109e-02,1.000000000000000048e-04,3.434785528824198764e+01,2.200000000000000011e-01
-2.729734007179586364e+00,-4.808223520000000084e-01,1.391122239206632472e-02,1.000000000000000048e-04,3.367997230278781018e+01,2.300000000000000100e-01
-2.728058296179586062e+00,8.181749999999999856e-01,1.429400410226033813e-02,1.000000000000000048e-04,3.354411619540958611e+01,2.200000000000000011e-01
1.539636916000000078e+00,-6.652033799999999830e-02,2.208824056090974430e-02,1.000000000000000048e-04,3.527742411680331713e+01,2.999999999999999889e-01
2.937620158000000092e+00,7.383732379999999873e-01,2.159071255261646449e-02,1.000000000000000048e-04,3.470829626756476927e+01,2.200000000000000011e-01
2.624384770999999894e+00,8.339422930000000012e-01,3.149276525302258101e-02,1.000000000000000048e-04,3.568119613509084331e+01,1.799999999999999933e-01
-2.594453966179586235e+00,1.052220571999999965e+00,4.744849361740044458e-02,1.000000000000000048e-04,3.642821277478149256e+01,1.900000000000000022e-01
-2.462277587179586114e+00,1.356652656000000068e+00,1.732601900990471400e-02,1.000000000000000048e-04,3.410100994390008111e+01,2.099999999999999922e-01
2.730654787000000194e+00,8.741146779999999783e-01,1.047294328948789044e-02,1.000000000000000048e-04,3.336419224661847949e+01,1.900000000000000022e-01
1.629450376000000089e+00,2.068732899999999875e-01,3.140028914613246513e-02,1.000000000000000048e-04,3.588854211982159370e+01,2.899999999999999800e-01
1.142160569999999958e-01,6.858846720000000285e-01,2.942190969735847261e-02,1.000000000000000048e-04,3.546601140801580243e+01,1.799999999999999933e-01
-4.383495451795864639e-01,9.198101690000000108e-01,2.523133722544179669e-02,1.000000000000000048e-04,3.544639227463779463e+01,2.600000000000000089e-01
1.001193188000000012e+00,8.013430529999999719e-01,1.571275874454269861e-02,1.000000000000000048e-04,3.429696140906435886e+01,1.799999999999999933e-01
-8.746654461795859703e-01,7.515327899999999506e-01,1.607759593759872097e-02,1.000000000000000048e-04,3.412340428324427677e+01,2.600000000000000089e-01
1.319662558000000097e+00,1.070340469999999933e-01,1.750214899987700967e-02,1.000000000000000048e-04,3.428148459295465500e+01,2.399999999999999911e-01
1.726021762000000015e+00,-6.377623550000000030e-01,2.303640555670805057e-02,1.000000000000000048e-04,3.548410686329389563e+01,2.600000000000000089e-01
-2.754219137179586330e+00,-9.277945709999999568e-01,2.071657574702423510e-02,1.000000000000000048e-04,3.424418804059383348e+01,3.699999999999999956e-01
1.691977534999999921e+00,1.434503057999999998e+00,3.290476566472344544e-02,1.000000000000000048e-04,3.580505976789441291e+01,2.099999999999999922e-01
8.272144390000000236e-01,-4.428667319999999852e-01,3.329079072988072596e-02,1.000000000000000048e-04,3.558660749967103953e+01,2.300000000000000100e-01
-2.185785446179585811e+00,4.040310730000000183e-01,2.006567158790839578e-02,1.000000000000000048e-04,3.457290635153346159e+01,1.799999999999999933e-01
2.680919170000000129e+00,5.929394510000000063e-01,3.353780643357739955e-02,1.000000000000000048e-04,3.569199668875524623e+01,1.799999999999999933e-01
2.468528393999999793e+00,-3.885411739999999892e-01,4.163392805855892220e-02,1.000000000000000048e-04,3.659220998385487889e+01,1.700000000000000122e-01
1.824819092000000031e+00,-9.187566499999999525e-01,2.833416159861235073e-02,1.000000000000000048e-04,3.530391106795519107e+01,2.099999999999999922e-01
2.252174823999999909e+00,-3.842870769999999769e-01,4.313502445843875321e-02,1.000000000000000048e-04,3.642468479077417953e+01,2.000000000000000111e-01
2.889947965000000174e+00,3.184077100000000105e-01,1.014276007851133699e-02,1.000000000000000048e-04,3.324929176427892941e+01,2.000000000000000111e-01
-2.666621499179586241e+00,1.790417820000000104e-01,2.876639881872145033e-02,1.000000000000000048e-04,3.553597028009154712e+01,1.900000000000000022e-01
2.353249148999999818e+00,9.653535600000000549e-01,1.045145692998095122e-02,1.000000000000000048e-04,3.335009581195944151e+01,1.799999999999999933e-01
1.765869402999999949e+00,9.288119630000000182e-01,2.850268817984047409e-02,1.000000000000000048e-04,3.481020271663938814e+01,3.599999999999999867e-01
1.931340567999999980e+00,-5.991437729999999906e-01,1.681110058253465489e-02,1.000000000000000048e-04,3.436932179627063988e+01,2.000000000000000111e-01
2.835991935000000019e+00,-7.109363199999999550e-01,3.811365827387946936e-02,1.000000000000000048e-04,3.596805113426351852e+01,1.900000000000000022e-01
-2.852520529179586095e+00,8.667541789999999580e-01,2.166133459913965886e-02,1.000000000000000048e-04,3.521673103661457560e+01,1.799999999999999933e-01
-2.458251249179586040e+00,-2.796002539999999925e-01,1.445091856106439643e-02,1.000000000000000048e-04,3.385954564791916965e+01,3.300000000000000155e-01
1.596378985000000084e+00,5.944120290000000084e-01,3.306443486427790290e-02,1.000000000000000048e-04,3.552965615834887814e+01,1.900000000000000022e-01
-2.484014184179586415e+00,8.016642189999999557e-01,1.479413738424106839e-02,1.000000000000000048e-04,3.341048354044711033e+01,1.900000000000000022e-01
-2.431723812179586108e+00,1.223750555999999934e+00,1.476853393166477346e-02,1.000000000000000048e-04,3.395175577353342078e+01,1.700000000000000122e-01
-2.378598255179586118e+00,1.197731727999999940e+00,2.773063680892895455e-02,1.000000000000000048e-04,3.511199423523344620e+01,1.900000000000000022e-01
1.739429998000000088e+00,2.494783479999999887e-01,1.464523525235494894e-02,1.000000000000000048e-04,3.443847656553025161e+01,3.099999999999999978e-01
-2.377494960179586059e+00,9.562939099999999693e-01,3.033541478443368966e-02,1.000000000000000048e-04,3.562575047523499450e+01,1.799999999999999933e-01
-9.021677017958662503e-02,6.959221140000000361e-01,1.669651860103082974e-02,1.000000000000000048e-04,3.404602733281335247e+01,3.499999999999999778e-01
2.021336933000000169e+00,8.510789659999999923e-01,4.646125135892531510e-02,1.000000000000000048e-04,3.626055529178437098e+01,2.800000000000000266e-01
2.573899695999999793e+00,-5.247218830000000001e-01,2.790839007853107567e-02,1.000000000000000048e-04,3.513031162273932750e+01,1.700000000000000122e-01
2.346925623000000183e+00,-7.496726200000000118e-01,1.320007320913441085e-02,1.000000000000000048e-04,3.383365823278873563e+01,1.700000000000000122e-01
2.543651012999999850e+00,-2.555195920000000176e-01,1.374510202581724627e-02,1.000000000000000048e-04,3.401135877869985791e+01,1.900000000000000022e-01
2.457771880000000131e+00,-4.383329890000000062e-01,1.196346054400532211e-02,1.000000000000000048e-04,3.364557618892965962e+01,1.700000000000000122e-01
-2.749033603179586116e+00,5.277091179999999770e-01,3.424162036529598829e-02,1.000000000000000048e-04,3.577052516650493175e+01,1.799999999999999933e-01
-3.021446786179586397e+00,6.716344440000000526e-01,3.314067288687660984e-02,1.000000000000000048e-04,3.581214187483802647e+01,1.799999999999999933e-01
2.390319493999999878e+00,1.427533710000000067e+00,2.631813127903370741e-02,1.000000000000000048e-04,3.516920378980209705e+01,1.799999999999999933e-01
2.491619029000000207e+00,8.136863199999999630e-01,1.598020495851582012e-02,1.000000000000000048e-04,3.395720013730890940e+01,1.900000000000000022e-01
2.336721559999999975e+00,1.049041915000000103e+00,2.940167974054008759e-02,1.000000000000000048e-04,3.539033947411679293e+01,1.700000000000000122e-01
1.201678150000000000e+00,3.331923239999999842e-01,1.291675082915166861e-02,1.000000000000000048e-04,3.386666998074065305e+01,1.900000000000000022e-01
-3.811893421795859993e-01,1.284308205000000092e+00,1.666693393365425990e-02,1.000000000000000048e-04,3.446838392425389941e+01,2.000000000000000111e-01
5.879284790000000038e-01,8.245620540000000442e-01,3.092824349837330900e-02,1.000000000000000048e-04,3.571056440608559512e+01,1.700000000000000122e-01
-1.085925731795862603e-01,9.806715139999999664e-01,1.706381741092788396e-02,1.000000000000000048e-04,3.451935766773664938e+01,1.799999999999999933e-01
1.189812670000000017e+00,8.219376269999999485e-01,2.463010220930117455e-02,1.000000000000000048e-04,3.511769012837661563e+01,1.700000000000000122e-01
2.896526737999999934e+00,1.048685354999999930e+00,1.470213380966378658e-02,1.000000000000000048e-04,3.390449907609949776e+01,1.700000000000000122e-01
8.784667550000000436e-01,-5.840451829999999678e-01,2.831218229500565009e-02,1.000000000000000048e-04,3.565374037900855342e+01,2.099999999999999922e-01
-2.025603206179586557e+00,1.419180792999999996e+00,1.210944051976836633e-02,1.000000000000000048e-04,3.350458051392413239e+01,1.799999999999999933e-01
1.097118803000000087e+00,1.428367445999999985e+00,1.061104758234154843e-02,1.000000000000000048e-04,3.319081982359526961e+01,1.799999999999999933e-01
-1.923054671795858539e-01,8.268694330000000425e-01,1.612055106486653955e-02,1.000000000000000048e-04,3.410484845120426201e+01,2.000000000000000111e-01
1.974446608000000047e+00,-1.250497374000000050e+00,2.538183687853079462e-02,1.000000000000000048e-04,3.523417758729249982e+01,2.000000000000000111e-01
1.714471547999999901e+00,-4.841846819999999774e-01,2.939094885397053325e-02,1.000000000000000048e-04,3.588817938179141720e+01,1.700000000000000122e-01
1.635209042000000057e+00,-1.499680316999999929e+00,2.092946241949600328e-02,1.000000000000000048e-04,3.503918003396568537e+01,1.900000000000000022e-01
-3.085878636179586021e+00,-8.156760069999999807e-01,1.838189706968340609e-02,1.000000000000000048e-04,3.440203029992247963e+01,1.799999999999999933e-01
1.583648911999999909e+00,-4.051170720000000225e-01,7.876711171897365915e-03,1.000000000000000048e-04,3.294520340653298263e+01,1.700000000000000122e-01
3.116144028999999982e+00,-6.233618589999999626e-01,2.111285819164199218e-02,1.000000000000000048e-04,3.476149824353342410e+01,2.000000000000000111e-01
2.580853791000000008e+00,2.126606490000000071e-01,1.869968872125560289e-02,1.000000000000000048e-04,3.437454835412368936e+01,2.200000000000000011e-01
2.791070910999999821e+00,-3.375241600000000036e-02,3.524087378690676786e-02,1.000000000000000048e-04,3.594288903111073097e+01,2.999999999999999889e-01
2.126664376999999995e+00,-4.630033630000000011e-01,7.618656572493165413e-03,1.000000000000000048e-04,3.316138863141416948e+01,1.799999999999999933e-01
1.264160699999999915e+00,6.289837299999999631e-01,8.668112442064446199e-03,1.000000000000000048e-04,3.326201287600017054e+01,1.900000000000000022e-01
2.608192676999999904e+00,3.485897410000000085e-01,4.357038916776634352e-02,1.000000000000000048e-04,3.648654609451766362e+01,2.200000000000000011e-01
2.816578843999999915e+00,-6.539336449999999523e-01,1.475593190064050653e-02,1.000000000000000048e-04,3.440416931856461957e+01,1.799999999999999933e-01
2.816545334000000178e+00,5.529564630000000092e-01,2.487386809597302850e-02,1.000000000000000048e-04,3.510434520315291707e+01,1.700000000000000122e-01
2.293480610000000031e+00,1.430186356999999964e+00,1.919525178062109205e-02,1.000000000000000048e-04,3.437139743006935788e+01,1.700000000000000122e-01
1.900048696999999898e+00,-6.695785770000000081e-01,1.353907211530858135e-02,1.000000000000000048e-04,3.402882341741396743e+01,1.900000000000000022e-01
2.402973735999999860e+00,-4.293495210000000117e-01,3.822290164295516490e-02,1.000000000000000048e-04,3.620794872552184529e+01,2.200000000000000011e-01
3.123677135999999965e+00,5.597831170000000522e-01,3.738194202815003919e-02,1.000000000000000048e-04,3.621176728639066056e+01,1.700000000000000122e-01
-2.603733431795864917e-01,9.574212720000000454e-01,2.188903867871339060e-02,1.000000000000000048e-04,3.426392394059677571e+01,3.800000000000000044e-01
-1.216980031795857897e-01,3.678993019999999836e-01,1.902548474936138767e-02,1.000000000000000048e-04,3.464646836648297779e+01,1.900000000000000022e-01
2.921580513999999962e+00,4.108407450000000072e-01,2.867190780130068894e-02,1.000000000000000048e-04,3.553091216504144256e+01,1.900000000000000022e-01
-2.362072097179586105e+00,1.187667234999999932e+00,1.845482908564100022e-02,1.000000000000000048e-04,3.437141577495543743e+01,1.900000000000000022e-01
-2.337569846179586186e+00,3.756736769999999837e-01,2.829802832429395565e-02,1.000000000000000048e-04,3.537053089392768612e+01,1.700000000000000122e-01
-1.563533060179586265e+00,8.298117619999999528e-01,4.044356492867295927e-02,1.000000000000000048e-04,3.628403359307257858e+01,3.300000000000000155e-01
-7.514201781795861734e-01,8.148208550000000105e-01,9.699815145202350664e-03,1.000000000000000048e-04,3.294480112300804109e+01,2.099999999999999922e-01
-2.172991007179586376e+00,1.278564443000000050e+00,2.533393597541899744e-02,1.000000000000000048e-04,3.487440903501298095e+01,2.000000000000000111e-01
1.004972830999999900e+00,3.284388160000000223e-01,1.766680259214115090e-02,1.000000000000000048e-04,3.452530952028325117e+01,1.799999999999999933e-01
-1.050913719179586536e+00,7.925907810000000220e-01,2.194017759342381524e-02,1.000000000000000048e-04,3.494065068989032596e+01,2.899999999999999800e-01
1.174967896000000067e+00,-7.032179160000000540e-01,2.466029167354966134e-02,1.000000000000000048e-04,3.530662854827725994e+01,1.799999999999999933e-01
2.063754460999999818e+00,1.158898511999999936e+00,3.794660211025702168e-02,1.000000000000000048e-04,3.629499761100222344e+01,1.799999999999999933e-01
1.355273345999999934e+00,1.034050206000000083e+00,3.123894781178493396e-02,1.000000000000000048e-04,3.526807666678073616e+01,1.700000000000000122e-01
1.878516419999999965e+00,-5.891517790000000421e-01,9.130676889068212176e-03,1.000000000000000048e-04,3.349919718681611158e+01,1.799999999999999933e-01
3.042909537999999969e+00,4.914006550000000195e-01,4.245935120463850687e-02,1.000000000000000048e-04,3.631034334805412556e+01,1.700000000000000122e-01
-2.192876876179585821e+00,7.571444160000000423e-01,1.834092063214454171e-02,1.000000000000000048e-04,3.465882147919889888e+01,2.099999999999999922e-01
-1.274335216179586006e+00,7.393028099999999769e-01,9.841542590504515076e-03,1.000000000000000048e-04,3.262111689776101286e+01,3.599999999999999867e-01
3.513372269999999742e-01,1.023017258000000096e+00,1.246161522784294817e-02,1.000000000000000048e-04,3.336357096530954891e+01,1.799999999999999933e-01
-2.045215730179585911e+00,1.346705497999999945e+00,3.130955060890561192e-02,1.000000000000000048e-04,3.557096420892899147e+01,1.799999999999999933e-01
2.622131355000000053e+00,-2.378520580000000051e-01,1.358789368860358060e-02,1.000000000000000048e-04,3.418068106011634200e+01,2.099999999999999922e-01
1.499565373000000035e+00,-5.833961840000000398e-01,4.458832073991625400e-02,1.000000000000000048e-04,3.648528777870264150e+01,1.199999999999999956e-01
9.453780529999999960e-01,-3.014802610000000271e-01,3.443486568147480220e-02,1.000000000000000048e-04,3.612235937101523575e+01,1.799999999999999933e-01
1.003030738000000088e+00,-6.679498139999999751e-01,1.486536375584868175e-02,1.000000000000000048e-04,3.435331996094825513e+01,1.799999999999999933e-01
-2.858957567179586157e+00,-2.878047879999999781e-01,1.549672094038090364e-02,1.000000000000000048e-04,3.427360456780110809e+01,1.300000000000000044e-01
-2.653655062179586022e+00,5.464710109999999510e-01,3.545681315954007928e-02,1.000000000000000048e-04,3.597457579798018656e+01,1.300000000000000044e-01
-1.077960778179586576e+00,1.305029642999999906e+00,9.616446704170833470e-03,1.000000000000000048e-04,3.288814058674654461e+01,1.100000000000000006e-01
2.996279555000000094e+00,-9.792432829999999644e-01,1.974500339543716620e-02,1.000000000000000048e-04,3.467382473288392220e+01,1.600000000000000033e-01
-7.405109531795863731e-01,5.344760480000000369e-01,3.165473141157937320e-02,1.000000000000000048e-04,3.543370406913637538e+01,1.900000000000000022e-01
-1.986221938179586033e+00,3.858849830000000147e-01,3.506203309193245410e-02,1.000000000000000048e-04,3.647227189056134478e+01,2.600000000000000089e-01
-1.660796187179585992e+00,1.337702168000000080e+00,4.262336062424898486e-02,1.000000000000000048e-04,3.644373543011450778e+01,1.300000000000000044e-01
-1.008319883179586540e+00,9.035811799999999838e-01,1.079581507905880144e-02,1.000000000000000048e-04,3.277631812661596911e+01,1.799999999999999933e-01
-2.859227719179586291e+00,-3.383984709999999785e-01,2.199422815015772414e-02,1.000000000000000048e-04,3.506547834907269134e+01,1.799999999999999933e-01
-3.008470453179586279e+00,-9.028608339999999455e-01,9.328436142583829138e-03,1.000000000000000048e-04,3.328556982897219996e+01,1.300000000000000044e-01
2.720373041999999852e+00,-1.026937239000000002e+00,2.833352948912937208e-02,1.000000000000000048e-04,3.542010837492033204e+01,1.100000000000000006e-01
1.131806215999999976e+00,-1.312634394000000038e+00,2.945572410891594828e-02,1.000000000000000048e-04,3.551503370703770202e+01,1.199999999999999956e-01
1.262497049000000038e+00,-7.576738640000000302e-01,2.585907342908955187e-02,1.000000000000000048e-04,3.542357360505254604e+01,1.900000000000000022e-01
-2.150308364179585929e+00,9.473204419999999848e-01,1.847131002589486037e-02,1.000000000000000048e-04,3.462369347663940999e+01,1.499999999999999944e-01
-2.672281993179586035e+00,8.065802300000000091e-01,2.379314569811086244e-02,1.000000000000000048e-04,3.499504481820078894e+01,1.400000000000000133e-01
-2.768228307179586345e+00,1.501965110000000048e-01,1.930929990190222156e-02,1.000000000000000048e-04,3.448240073402030248e+01,1.300000000000000044e-01
2.456608391000000058e+00,-6.815239560000000418e-01,2.903050358077385873e-02,1.000000000000000048e-04,3.559682103180687562e+01,2.899999999999999800e-01
-1.538735822179586599e+00,7.895792169999999999e-01,2.582606879845372738e-02,1.000000000000000048e-04,3.521933973253977257e+01,1.600000000000000033e-01
-6.811844061795859773e-01,-7.989239399999999991e-01,3.320222314993337420e-02,1.000000000000000048e-04,3.595261261944390441e+01,2.300000000000000100e-01
-9.881069141795864041e-01,9.266642769999999807e-01,2.857422004906950974e-02,1.000000000000000048e-04,3.558976835973343356e+01,2.500000000000000000e-01
9.533575850000000074e-01,-5.868324440000000086e-01,3.897545748023523160e-02,1.000000000000000048e-04,3.636528171414312993e+01,1.199999999999999956e-01
-1.550854682179585886e+00,1.341867675000000037e+00,2.713300343434332795e-02,1.000000000000000048e-04,3.591086158694020014e+01,3.599999999999999867e-01
1.284766933000000000e+00,-9.049604909999999780e-01,1.322998490461846366e-02,1.000000000000000048e-04,3.412147365678657707e+01,1.300000000000000044e-01
