-1.598279621179586663e+00,2.779993629999999993e-01,8.417243238568767882e-01,1.000000000000000048e-04,4.345635406839007686e+01,1.700000000000000122e-01
-8.306753881795865269e-01,5.048130450000000158e-01,1.780693514147964063e-01,1.000000000000000048e-04,3.976721067091276041e+01,1.600000000000000033e-01
-1.512887194179586281e+00,3.571169940000000209e-01,8.028988682078805894e-01,1.000000000000000048e-04,4.324230234581352050e+01,1.600000000000000033e-01
-2.094054222179586588e+00,-9.657747650000000350e-01,2.060628294276019012e-01,1.000000000000000048e-04,3.986459197753107020e+01,1.600000000000000033e-01
-1.256550916179586252e+00,-1.037146153999999987e+00,3.198883298021040211e-01,1.000000000000000048e-04,4.130631655398762092e+01,1.900000000000000022e-01
-2.638489419179586015e+00,-8.917870300000000361e-01,7.832151139006806595e-01,1.000000000000000048e-04,4.363348111478411084e+01,1.600000000000000033e-01
3.095686500000000008e-02,-1.139960520999999893e+00,3.862042793920967831e-01,1.000000000000000048e-04,4.140619418061739054e+01,1.700000000000000122e-01
-4.765590681795863759e-01,-7.328014390000000544e-01,5.266103183029766654e-01,1.000000000000000048e-04,4.248062401729352899e+01,1.600000000000000033e-01
7.532392530000000530e-01,9.936355940000000109e-01,4.914572934518426361e-01,1.000000000000000048e-04,4.226164086815261101e+01,1.600000000000000033e-01
1.355624495999999901e+00,4.654212710000000253e-01,2.047589690478972546e-01,1.000000000000000048e-04,3.967424399693980774e+01,2.200000000000000011e-01
-2.027672372179586624e+00,-3.494576850000000179e-01,2.855773697606918127e-01,1.000000000000000048e-04,4.087178385476362763e+01,8.999999999999999667e-02
-2.243457714179585949e+00,5.735296930000000071e-01,2.900757513021379186e-01,1.000000000000000048e-04,4.084513559836813812e+01,8.000000000000000167e-02
-1.661352162179586145e+00,7.473004210000000480e-01,3.367083539265935954e-01,1.000000000000000048e-04,4.135574866754598844e+01,1.100000000000000006e-01
-1.046494641179585905e+00,9.839422859999999993e-01,1.935342627735536780e-01,1.000000000000000048e-04,4.016791148531000033e+01,1.600000000000000033e-01
-1.357076630179586019e+00,8.591991679999999576e-01,3.448008901566534945e-01,1.000000000000000048e-04,4.117894085666055304e+01,1.300000000000000044e-01
-1.489161381179585852e+00,8.733460579999999807e-01,3.367369511083841971e-01,1.000000000000000048e-04,4.128404513919941365e+01,8.999999999999999667e-02
2.602874990000000111e+00,9.865781270000000269e-01,1.044560226669271952e+00,1.000000000000000048e-04,4.428182875853214284e+01,2.099999999999999922e-01
2.011122450999999867e+00,-1.257182417000000108e+00,6.505339941480583477e-01,1.000000000000000048e-04,4.302657832538704952e+01,1.799999999999999933e-01
2.487812089999999809e+00,-1.095252646999999913e+00,1.457266024445169617e-01,1.000000000000000048e-04,3.914659531789070712e+01,1.600000000000000033e-01
-2.060955814179585843e+00,9.020563839999999889e-01,3.696965376965253292e-01,1.000000000000000048e-04,4.148081285487802461e+01,1.799999999999999933e-01
-1.552222439179586466e+00,1.270289940999999923e+00,4.437111152497277278e-01,1.000000000000000048e-04,4.203872295543759208e+01,1.600000000000000033e-01
-3.584264691795864266e-01,1.112498557000000110e+00,2.445772659043559116e-01,1.000000000000000048e-04,4.033991655380738450e+01,2.000000000000000111e-01
1.187793541000000008e+00,1.533334508000000040e+00,4.594991636167522486e-01,1.000000000000000048e-04,4.203016533433153512e+01,1.700000000000000122e-01
9.029304540000000490e-01,-5.888661819999999603e-01,4.422100341433945481e-01,1.000000000000000048e-04,4.181040557679796166e+01,1.700000000000000122e-01
2.675488564000000125e+00,-1.029758079000000048e+00,3.273911076102518081e-01,1.000000000000000048e-04,4.102020454758572754e+01,1.700000000000000122e-01
9.979371630000000160e-01,-7.076351440000000492e-01,1.907859354060041923e-01,1.000000000000000048e-04,4.000614887133330910e+01,2.000000000000000111e-01
-2.809922836179586270e+00,-1.219770695000000016e+00,4.944825842468492105e-01,1.000000000000000048e-04,4.218601491354251465e+01,1.900000000000000022e-01
1.945616433999999950e+00,5.533621010000000506e-01,6.502917324496713114e-01,1.000000000000000048e-04,4.266202505075087004e+01,1.700000000000000122e-01
1.369802210000000131e-01,9.686457469999999459e-01,5.005337066749344643e-01,1.000000000000000048e-04,4.232719329683855136e+01,1.000000000000000056e-01
2.377785852000000144e+00,-1.071983155000000076e+00,3.627463115158258145e-01,1.000000000000000048e-04,4.142116279161641756e+01,1.000000000000000056e-01
1.194530383000000029e+00,-8.514353350000000153e-01,2.092755980423204321e-01,1.000000000000000048e-04,4.017525584469083100e+01,1.100000000000000006e-01
2.328991532999999947e+00,-1.085498080000000032e+00,3.846383869574205860e-01,1.000000000000000048e-04,4.155210947250870390e+01,1.199999999999999956e-01
3.099662444999999877e+00,-8.173274409999999879e-01,1.496703780820229923e-01,1.000000000000000048e-04,3.928769943433565714e+01,1.300000000000000044e-01
1.008677688999999988e+00,-7.224949280000000362e-01,2.194716900718349795e-01,1.000000000000000048e-04,4.034265220052624557e+01,1.199999999999999956e-01
1.116317643999999998e+00,-8.188746820000000204e-01,1.050666150877012761e+00,1.000000000000000048e-04,4.399554794666828172e+01,1.499999999999999944e-01
1.368634144999999913e+00,-9.746537960000000167e-01,1.115470992414708817e+00,1.000000000000000048e-04,4.470827423464249506e+01,2.200000000000000011e-01
2.840707745000000006e+00,-9.874777999999999611e-01,2.155039435248045088e-01,1.000000000000000048e-04,4.019762697063077184e+01,1.199999999999999956e-01
1.164831654000000105e+00,-8.361433499999999519e-01,1.386083698927933483e-01,1.000000000000000048e-04,3.916986796383524450e+01,1.600000000000000033e-01
9.274529849999999520e-01,-5.648102149999999488e-01,3.146161670295102297e-01,1.000000000000000048e-04,4.114103452986207543e+01,2.200000000000000011e-01
1.803806121999999901e+00,-1.051757271000000049e+00,8.426672183144798822e-01,1.000000000000000048e-04,4.374138658728978157e+01,2.200000000000000011e-01
1.910407339000000038e+00,-1.096340147000000043e+00,7.860593247860387933e-01,1.000000000000000048e-04,4.334373997473692697e+01,1.300000000000000044e-01
-2.994395329179586174e+00,-6.874333790000000111e-01,3.003463157018635421e-01,1.000000000000000048e-04,4.073043544127886406e+01,1.600000000000000033e-01
2.004169926999999962e+00,-1.114377941999999955e+00,2.362741678237987308e-01,1.000000000000000048e-04,4.027245794042717364e+01,2.099999999999999922e-01
2.993884073999999895e+00,-9.067153500000000310e-01,6.018891013006781865e-01,1.000000000000000048e-04,4.310622079419618302e+01,2.000000000000000111e-01
2.896584697999999847e+00,-6.981149509999999836e-01,2.594189675998168632e-01,1.000000000000000048e-04,4.065609073837174492e+01,2.000000000000000111e-01
2.644964143999999795e+00,-1.038456438999999953e+00,5.808001249040146696e-01,1.000000000000000048e-04,4.269222719571202163e+01,2.500000000000000000e-01
1.395029569000000080e+00,-9.673563530000000021e-01,7.229078397537622713e-01,1.000000000000000048e-04,4.310633644346160054e+01,2.200000000000000011e-01
1.133893306999999906e+00,-8.234022290000000410e-01,2.465651971783686669e-01,1.000000000000000048e-04,4.039217545116297714e+01,1.199999999999999956e-01
9.542908199999999841e-01,-6.210129070000000029e-01,1.997832554527350091e-01,1.000000000000000048e-04,4.011861257837259842e+01,1.400000000000000133e-01
1.112357503999999997e+00,-7.717409769999999947e-01,2.431886257867859058e-01,1.000000000000000048e-04,4.062681492189537380e+01,1.400000000000000133e-01
1.392129267000000059e+00,-9.489503049999999940e-01,8.339882189332730178e-01,1.000000000000000048e-04,4.366106853452377123e+01,1.100000000000000006e-01
3.104633763999999907e+00,-8.563587980000000321e-01,3.063749773252308906e-01,1.000000000000000048e-04,4.080485965976782836e+01,1.199999999999999956e-01
-1.581672989179586430e+00,-6.726275419999999672e-01,9.608345095851298368e-01,1.000000000000000048e-04,4.417511160790657954e+01,2.000000000000000111e-01
8.758714749999999549e-01,-5.394949780000000139e-01,2.157802689053178735e-01,1.000000000000000048e-04,4.004828580652487346e+01,1.199999999999999956e-01
1.027821937999999991e+00,-6.897361509999999640e-01,6.684554450010802285e-01,1.000000000000000048e-04,4.307750972252041777e+01,1.499999999999999944e-01
8.011105990000000343e-01,-4.568120419999999737e-01,3.368168081086801990e-01,1.000000000000000048e-04,4.122300463358308065e+01,1.499999999999999944e-01
8.044453879999999835e-01,-4.591503659999999765e-01,7.565080346729586847e-01,1.000000000000000048e-04,4.333520501927900881e+01,1.100000000000000006e-01
8.290542589999999601e-01,-4.498624509999999965e-01,1.187105242480310796e-01,1.000000000000000048e-04,3.868841858806847256e+01,1.199999999999999956e-01
2.306908324000000121e+00,-1.093655438999999951e+00,1.667342241307381290e-01,1.000000000000000048e-04,3.976863784217465536e+01,1.300000000000000044e-01
-3.090495873179586184e+00,-7.974218849999999970e-01,6.241667382135596132e-01,1.000000000000000048e-04,4.274449818911734411e+01,1.300000000000000044e-01
2.850739061000000074e+00,-9.724982730000000242e-01,8.778145041085116951e-01,1.000000000000000048e-04,4.375739773110448283e+01,1.100000000000000006e-01
1.925211972000000049e+00,-1.067349442999999898e+00,4.099162511468898984e-01,1.000000000000000048e-04,4.161762658943087700e+01,1.600000000000000033e-01
3.010706126000000094e+00,-9.149326070000000088e-01,2.047788399730474662e-01,1.000000000000000048e-04,4.006930955324192922e+01,1.199999999999999956e-01
1.754869720000000077e+00,-1.052947148999999971e+00,6.431204420038014735e-01,1.000000000000000048e-04,4.310471400078201754e+01,1.300000000000000044e-01
3.028086770999999899e+00,-8.725603690000000023e-01,1.050552167256177949e+00,1.000000000000000048e-04,4.421407117601655301e+01,1.199999999999999956e-01
2.780301081000000174e+00,-1.010780400000000023e+00,7.234836599552219027e-01,1.000000000000000048e-04,4.315966416377434456e+01,1.700000000000000122e-01
3.096540631999999960e+00,-8.261897350000000362e-01,2.268515631868752713e-01,1.000000000000000048e-04,4.035134981772454665e+01,1.100000000000000006e-01
-3.043596368179586342e+00,-7.656326449999999451e-01,4.484267960753633986e-01,1.000000000000000048e-04,4.186221320216903763e+01,1.100000000000000006e-01
2.593403560000000052e+00,-1.068240442000000012e+00,9.632480242157996919e-01,1.000000000000000048e-04,4.430589906195253036e+01,1.199999999999999956e-01
1.277663320999999907e+00,-8.910532270000000032e-01,4.060618036039360668e-01,1.000000000000000048e-04,4.159031782700273538e+01,1.499999999999999944e-01
8.729576639999999665e-01,-5.017517409999999733e-01,1.606732214347397214e-01,1.000000000000000048e-04,3.957795406720634901e+01,1.199999999999999956e-01
2.323316692000000128e+00,-1.072994334000000105e+00,2.315300021890878135e-01,1.000000000000000048e-04,4.035309687392657452e+01,1.400000000000000133e-01
-3.012222731179586166e+00,-7.219820959999999621e-01,8.070887201299723479e-01,1.000000000000000048e-04,4.358126268974906736e+01,1.199999999999999956e-01
2.306010604999999991e+00,-1.110345181000000014e+00,1.347060470997636372e-01,1.000000000000000048e-04,3.904542993796810890e+01,1.100000000000000006e-01
2.437557496999999795e+00,-1.097151527000000071e+00,2.563517643394672696e-01,1.000000000000000048e-04,4.079254367165727047e+01,1.100000000000000006e-01
1.098420291999999909e+00,-7.444727049999999569e-01,5.074919994193600736e-01,1.000000000000000048e-04,4.239161548016063108e+01,1.300000000000000044e-01
8.241628739999999897e-01,-4.611620249999999754e-01,2.044769492116718101e-01,1.000000000000000048e-04,4.012419575951410167e+01,1.400000000000000133e-01
1.017317494999999905e+00,-7.027905669999999771e-01,1.426123610386846874e-01,1.000000000000000048e-04,3.911343849953026819e+01,1.199999999999999956e-01
2.728679550999999925e+00,-1.007430967999999982e+00,4.123374844610747658e-01,1.000000000000000048e-04,4.164513511824587511e+01,1.100000000000000006e-01
2.848837458999999850e+00,-9.622339979999999793e-01,2.783088545582264040e-01,1.000000000000000048e-04,4.078427336909833656e+01,1.199999999999999956e-01
-3.065525731179586266e+00,-7.207210450000000046e-01,1.341217577534590255e+00,1.000000000000000048e-04,4.479082190652327000e+01,1.199999999999999956e-01
1.103969978000000074e+00,-7.587182380000000448e-01,5.783548060230438992e-01,1.000000000000000048e-04,4.259156529766492838e+01,1.300000000000000044e-01
1.112034854000000017e+00,-7.675460100000000008e-01,3.147718001149519829e-01,1.000000000000000048e-04,4.105288141453262796e+01,1.199999999999999956e-01
2.373162053000000160e+00,-1.072487750000000073e+00,7.643977392975320750e-01,1.000000000000000048e-04,4.336583055492273076e+01,1.100000000000000006e-01
2.221583438000000132e+00,-1.096064289000000080e+00,4.128594285008893028e-01,1.000000000000000048e-04,4.200094682466810525e+01,1.199999999999999956e-01
2.775251189000000007e+00,-1.013244017000000108e+00,6.560145704454569682e-01,1.000000000000000048e-04,4.304458506227327774e+01,1.700000000000000122e-01
1.527128894000000070e+00,-9.963611940000000056e-01,2.404946546399600038e-01,1.000000000000000048e-04,4.057141193332562779e+01,1.400000000000000133e-01
-1.936135624179586401e+00,1.327891944000000102e+00,1.411308438888725370e-01,1.000000000000000048e-04,3.915027056077508405e+01,1.199999999999999956e-01
2.120951332999999828e+00,-1.112975437000000012e+00,3.031681010178353119e-01,1.000000000000000048e-04,4.091633799643507530e+01,1.600000000000000033e-01
2.950704906999999988e+00,-9.277153000000000205e-01,6.315555845882088182e-01,1.000000000000000048e-04,4.256247680148720747e+01,1.700000000000000122e-01
2.461302839000000020e+00,-1.064109841000000056e+00,3.889077983818387541e-01,1.000000000000000048e-04,4.162746774314474862e+01,1.499999999999999944e-01
1.687800213000000049e+00,-1.037844004000000098e+00,8.634069620211834994e-01,1.000000000000000048e-04,4.381449450790016442e+01,1.100000000000000006e-01
-3.069023128179586113e+00,-7.343218900000000327e-01,4.596940435897669541e-01,1.000000000000000048e-04,4.176529711395209432e+01,2.000000000000000111e-01
7.655655390000000171e-01,-3.825025819999999799e-01,7.983416985776048413e-01,1.000000000000000048e-04,4.348694757805419187e+01,1.300000000000000044e-01
-3.051736326179586012e+00,-7.690870560000000467e-01,5.844326587087183000e-01,1.000000000000000048e-04,4.287833477232620538e+01,1.499999999999999944e-01
-3.116938176179586240e+00,-7.920766919999999711e-01,2.879956444737281629e-01,1.000000000000000048e-04,4.074387763872382351e+01,1.100000000000000006e-01
1.020863690000000101e+00,-6.877910739999999468e-01,1.738169949375529821e-01,1.000000000000000048e-04,3.978778599421254825e+01,1.199999999999999956e-01
1.792785233999999894e+00,-1.066474936999999956e+00,7.554321097207334912e-01,1.000000000000000048e-04,4.323431771362571396e+01,1.100000000000000006e-01
1.805689748000000039e+00,-1.066896787999999985e+00,8.533897227163644850e-01,1.000000000000000048e-04,4.375098256512706030e+01,1.100000000000000006e-01
1.773248071000000037e+00,-1.046601056999999946e+00,5.864879779216107814e-01,1.000000000000000048e-04,4.272232265086847747e+01,2.099999999999999922e-01
1.076689889999999927e+00,-7.549444410000000216e-01,1.272921276555964987e-01,1.000000000000000048e-04,3.905279462936847068e+01,1.199999999999999956e-01
2.336456505000000128e+00,-1.089906792000000069e+00,3.356325455171016436e-01,1.000000000000000048e-04,4.137377813844200602e+01,1.199999999999999956e-01
2.522083900000000156e+00,-1.078852812999999911e+00,5.448286772895329921e-01,1.000000000000000048e-04,4.233481370743930228e+01,1.199999999999999956e-01
3.676074389999999803e-01,1.100614297999999991e+00,5.578040717671464144e-01,1.000000000000000048e-04,4.290904435831141228e+01,1.700000000000000122e-01
2.099931574000000190e+00,-1.082223048999999993e+00,6.739151149292066378e-01,1.000000000000000048e-04,4.311916453893846324e+01,1.100000000000000006e-01
8.155488279999999479e-01,-4.642700679999999802e-01,5.128001502487236074e-01,1.000000000000000048e-04,4.270375061055410981e+01,2.099999999999999922e-01
9.861636230000000447e-01,-6.881834650000000497e-01,3.731950542528159609e-01,1.000000000000000048e-04,4.160073654622615180e+01,1.300000000000000044e-01
1.864254864999999928e+00,-1.086684659999999969e+00,2.486946491607688881e-01,1.000000000000000048e-04,4.045591151273367814e+01,1.199999999999999956e-01
2.873066016000000111e+00,-9.753574739999999466e-01,1.820359038671988117e-01,1.000000000000000048e-04,3.970840992520417956e+01,1.300000000000000044e-01
2.270287562000000037e+00,-1.085086717999999895e+00,1.054302935317047663e+00,1.000000000000000048e-04,4.403673949605575899e+01,1.799999999999999933e-01
8.268071609999999572e-01,-4.587794940000000099e-01,2.374836423328101631e-01,1.000000000000000048e-04,4.055150450372542537e+01,1.199999999999999956e-01
-3.050869045179586347e+00,-7.648855789999999821e-01,1.536968868242474251e-01,1.000000000000000048e-04,3.927894843857804830e+01,1.199999999999999956e-01
1.101963728999999947e+00,-7.466317359999999903e-01,2.080940278986114222e-01,1.000000000000000048e-04,3.994760909088652312e+01,1.900000000000000022e-01
1.745116724000000064e+00,-1.056563783000000090e+00,1.699960105489133344e-01,1.000000000000000048e-04,3.966570559035310595e+01,1.300000000000000044e-01
7.889769570000000343e-01,-3.846565690000000037e-01,2.206834786923499436e-01,1.000000000000000048e-04,4.010186885052917205e+01,1.499999999999999944e-01
1.385818830999999918e+00,-9.278259679999999454e-01,2.887677645372490609e-01,1.000000000000000048e-04,4.076986639477811281e+01,1.499999999999999944e-01
1.138484923000000038e+00,-8.197145099999999518e-01,8.500318203422221330e-01,1.000000000000000048e-04,4.369642259007859764e+01,1.400000000000000133e-01
1.783410439000000069e+00,-1.080958507999999929e+00,1.851949579781355659e-01,1.000000000000000048e-04,3.967690862898700033e+01,1.400000000000000133e-01
2.617653461000000181e+00,-1.025884226000000066e+00,4.089387152576842155e-01,1.000000000000000048e-04,4.195165647653142571e+01,1.199999999999999956e-01
8.270197009999999960e-01,-4.157453939999999903e-01,2.541919498012883416e-01,1.000000000000000048e-04,4.063368012152339759e+01,1.199999999999999956e-01
3.128792493000000174e+00,-8.522697870000000009e-01,4.894688071909263360e-01,1.000000000000000048e-04,4.220705143200482468e+01,1.100000000000000006e-01
1.366158207000000013e+00,-9.614226009999999878e-01,8.369978594177642783e-01,1.000000000000000048e-04,4.369323530735751859e+01,1.100000000000000006e-01
2.846286316000000038e+00,-9.688357899999999745e-01,6.947342406232408507e-01,1.000000000000000048e-04,4.337449153604737973e+01,1.400000000000000133e-01
9.208216280000000031e-01,-6.185352929999999860e-01,1.231909615320208040e+00,1.000000000000000048e-04,4.478428207349193002e+01,1.499999999999999944e-01
7.622987450000000553e-01,-3.411912120000000215e-01,2.489680669991263251e-01,1.000000000000000048e-04,4.060104083339162884e+01,1.199999999999999956e-01
9.277931750000000255e-01,-5.813990460000000304e-01,2.919062932556135692e-01,1.000000000000000048e-04,4.091010880350435741e+01,2.099999999999999922e-01
1.010173165000000095e+00,-6.808591280000000356e-01,1.495564532115523093e-01,1.000000000000000048e-04,3.925050777777639865e+01,1.300000000000000044e-01
1.661181446000000062e+00,-1.029160687999999935e+00,1.632760593304367625e-01,1.000000000000000048e-04,3.920542215030734923e+01,1.400000000000000133e-01
2.089878704000000198e+00,-1.077863170999999953e+00,1.141161200726343861e+00,1.000000000000000048e-04,4.461237327537089925e+01,1.199999999999999956e-01
9.321550429999999610e-01,-6.212176799999999943e-01,8.733743741766539781e-01,1.000000000000000048e-04,4.377410262042176470e+01,1.199999999999999956e-01
2.944595597000000176e+00,-9.127602249999999806e-01,3.947422403315385964e-01,1.000000000000000048e-04,4.177478055538816903e+01,1.100000000000000006e-01
1.288081913999999939e+00,-9.113959929999999598e-01,1.232931200661529836e+00,1.000000000000000048e-04,4.462197546804050319e+01,1.300000000000000044e-01
1.398731861999999992e+00,-9.625033109999999725e-01,1.599831189758573746e-01,1.000000000000000048e-04,3.931826994805756215e+01,1.199999999999999956e-01
1.714165549000000066e+00,-1.043104095999999981e+00,7.937073385911692647e-01,1.000000000000000048e-04,4.358177147585189459e+01,1.199999999999999956e-01
1.014018395999999989e+00,-6.788913789999999615e-01,4.131716939925902388e-01,1.000000000000000048e-04,4.186289020160902652e+01,1.300000000000000044e-01
8.887761809999999985e-01,-5.541821719999999729e-01,8.463148999689695806e-01,1.000000000000000048e-04,4.373102110498821560e+01,1.300000000000000044e-01
1.026278256999999972e+00,-6.961882160000000264e-01,2.345356741924948807e-01,1.000000000000000048e-04,4.024995920014760031e+01,1.199999999999999956e-01
1.824970581999999952e+00,-1.080428363000000003e+00,2.311360659012633434e-01,1.000000000000000048e-04,4.022473481981486998e+01,1.199999999999999956e-01
1.839979185000000017e+00,-1.082878103999999952e+00,1.246544513236834018e+00,1.000000000000000048e-04,4.458712790755978972e+01,1.300000000000000044e-01
-3.070118813179586237e+00,-7.641942569999999879e-01,9.064117022190449902e-01,1.000000000000000048e-04,4.382408887693714661e+01,1.199999999999999956e-01
2.250776613000000204e+00,-1.110438553999999911e+00,6.109854262799607749e-01,1.000000000000000048e-04,4.292851114913487010e+01,1.199999999999999956e-01
2.613802471000000072e+00,-1.066258922999999914e+00,4.524369642414394210e-01,1.000000000000000048e-04,4.205943398185973336e+01,1.199999999999999956e-01
8.050150120000000298e-01,-4.193234060000000096e-01,1.728656035160205384e-01,1.000000000000000048e-04,3.957931495698488078e+01,1.499999999999999944e-01
2.809576177999999924e+00,-9.952447749999999704e-01,4.593578100282755816e-01,1.000000000000000048e-04,4.209047917524770810e+01,1.199999999999999956e-01
8.523447290000000232e-01,-4.773689010000000121e-01,1.387002025287966678e-01,1.000000000000000048e-04,3.937162497150505658e+01,2.000000000000000111e-01
2.975142320999999868e+00,-8.986192680000000266e-01,3.222789055449402085e-01,1.000000000000000048e-04,4.118865790229572355e+01,2.000000000000000111e-01
2.960578484000000010e+00,-9.174235720000000205e-01,6.904571861975838942e-01,1.000000000000000048e-04,4.279846845502991215e+01,1.400000000000000133e-01
1.589239559999999996e+00,-1.046132274999999945e+00,4.009174266824573341e-01,1.000000000000000048e-04,4.171209641680092517e+01,1.199999999999999956e-01
1.095136271999999966e+00,-7.909478989999999543e-01,7.530318692993911434e-01,1.000000000000000048e-04,4.324667361815623678e+01,1.300000000000000044e-01
3.045277111999999953e+00,-8.831592660000000539e-01,3.052713142101759480e-01,1.000000000000000048e-04,4.122442985432110873e+01,1.799999999999999933e-01
3.011317304999999944e+00,-8.969173430000000335e-01,8.373818000144994667e-01,1.000000000000000048e-04,4.378022603439906391e+01,1.499999999999999944e-01
1.946036051000000100e+00,-1.101857058000000000e+00,4.165894495888962101e-01,1.000000000000000048e-04,4.163254405455808183e+01,1.100000000000000006e-01
9.659444579999999503e-01,-6.400164339999999674e-01,2.552135095012271204e-01,1.000000000000000048e-04,4.069067303460334983e+01,1.199999999999999956e-01
1.142944595999999979e+00,-8.229314749999999679e-01,4.909114649542913877e-01,1.000000000000000048e-04,4.209326774513285585e+01,1.499999999999999944e-01
1.336859599999999926e+00,-9.462661719999999610e-01,5.633901506180167829e-01,1.000000000000000048e-04,4.245890858439679505e+01,1.900000000000000022e-01
2.386695267999999981e+00,-1.099692616000000012e+00,4.938934996156632007e-01,1.000000000000000048e-04,4.215842154479595649e+01,1.799999999999999933e-01
1.122946417999999946e+00,-7.871106610000000448e-01,6.174122718806716037e-01,1.000000000000000048e-04,4.305092530780062532e+01,1.499999999999999944e-01
1.038511049000000019e+00,-6.836743480000000428e-01,1.368820825293393106e-01,1.000000000000000048e-04,3.904847744226712791e+01,1.499999999999999944e-01
-1.865548755179585960e+00,5.988235499999999822e-01,1.051079317322560769e+00,1.000000000000000048e-04,4.371417833424104771e+01,3.599999999999999867e-01
-1.208774007179585830e+00,1.086301519000000049e+00,4.427777057844273223e-01,1.000000000000000048e-04,4.163553810971468039e+01,3.900000000000000133e-01
-1.451351928179586359e+00,1.047303024999999943e+00,4.357144263490291269e-01,1.000000000000000048e-04,4.212864657040550753e+01,3.900000000000000133e-01
-1.863787002179586594e+00,5.986409590000000280e-01,1.293683258865030439e+00,1.000000000000000048e-04,4.469086341893083159e+01,3.099999999999999978e-01
-2.367107747179586053e+00,3.570653329999999848e-01,4.612814656417487669e-01,1.000000000000000048e-04,4.169918679301874676e+01,3.300000000000000155e-01
3.110012692999999828e+00,-8.816387980000000013e-01,2.846627498246936394e-01,1.000000000000000048e-04,4.087920877760034699e+01,4.000000000000000222e-01
1.208427087000000011e+00,6.391205479999999550e-01,1.331404128420037303e-01,1.000000000000000048e-04,3.861058355223214278e+01,3.200000000000000067e-01
2.195568135999999893e+00,9.530612539999999688e-01,1.125383588360634679e+00,1.000000000000000048e-04,4.386418891446250967e+01,3.200000000000000067e-01
-1.746303855179585973e+00,7.561700099999999480e-01,2.208759633193451144e-01,1.000000000000000048e-04,3.984839556935702376e+01,3.599999999999999867e-01
-2.613733020179586308e+00,3.020363409999999860e-01,6.880067543719592393e-01,1.000000000000000048e-04,4.312353591553530663e+01,2.399999999999999911e-01
3.080075141000000016e+00,6.813462000000000129e-01,3.622232661255158082e-01,1.000000000000000048e-04,4.152185241256769643e+01,2.999999999999999889e-01
3.084152930000000126e+00,6.750201959999999612e-01,5.299193012174070461e-01,1.000000000000000048e-04,4.209896756153626285e+01,2.399999999999999911e-01
-2.831540824179586302e+00,-5.193198470000000011e-01,1.315026273703656656e-01,1.000000000000000048e-04,3.879427304172693880e+01,2.899999999999999800e-01
2.921667255000000019e+00,-9.403574120000000036e-01,8.933940904673125516e-01,1.000000000000000048e-04,4.364376130755636751e+01,2.899999999999999800e-01
2.610543199999999953e+00,9.294079060000000059e-01,1.935504337980860079e-01,1.000000000000000048e-04,3.952085024352087572e+01,2.899999999999999800e-01
2.614058957000000127e+00,9.310355519999999885e-01,4.112837211187165831e-01,1.000000000000000048e-04,4.151796985415582242e+01,3.699999999999999956e-01
-2.614313936179586406e+00,3.105085300000000048e-01,1.796124187147487561e-01,1.000000000000000048e-04,3.947752683448894828e+01,2.300000000000000100e-01
-2.614275993179586255e+00,3.084493819999999942e-01,9.343309382145135178e-01,1.000000000000000048e-04,4.406996107237586102e+01,2.000000000000000111e-01
3.080236718000000096e+00,6.852664600000000217e-01,1.770772150748802787e-01,1.000000000000000048e-04,3.971746042163876211e+01,3.800000000000000044e-01
3.085135451000000195e+00,6.840520260000000352e-01,6.806508872201275651e-01,1.000000000000000048e-04,4.298551772383672898e+01,2.300000000000000100e-01
-2.829361723179586452e+00,-5.190188390000000096e-01,3.200626741884597948e-01,1.000000000000000048e-04,4.098817588307674242e+01,3.900000000000000133e-01
-2.833706243179586082e+00,-5.260186759999999628e-01,3.879583470580525439e-01,1.000000000000000048e-04,4.179689471039871052e+01,2.200000000000000011e-01
1.286414458000000094e+00,-9.076167339999999806e-01,3.034912105340894506e-01,1.000000000000000048e-04,4.075755973910293051e+01,2.399999999999999911e-01
2.295144749999999956e+00,-1.095028292000000070e+00,3.283941612124976483e-01,1.000000000000000048e-04,4.069090850059983211e+01,2.000000000000000111e-01
2.312115046000000174e+00,-1.091482969000000081e+00,2.275519457494610265e-01,1.000000000000000048e-04,4.021468046843495614e+01,1.900000000000000022e-01
2.535381049000000164e+00,-1.063602453999999975e+00,2.400240812007194968e-01,1.000000000000000048e-04,4.069089058348678378e+01,2.600000000000000089e-01
2.549902755000000187e+00,-1.059649137999999935e+00,2.207270697061867182e-01,1.000000000000000048e-04,4.018225915720926622e+01,1.900000000000000022e-01
-2.980466121795863899e-01,1.081935794000000062e+00,6.744448698086138450e-01,1.000000000000000048e-04,4.305292085335809560e+01,1.000000000000000056e-01
-4.562223411795862660e-01,1.078420874000000085e+00,5.162735144570529400e-01,1.000000000000000048e-04,4.252072112723632813e+01,1.400000000000000133e-01
-4.727696341795866175e-01,1.076427226000000070e+00,1.276979975633005804e-01,1.000000000000000048e-04,3.865965993781185261e+01,1.900000000000000022e-01
-4.909850281795860028e-01,1.086050390999999893e+00,7.254508669097403661e-01,1.000000000000000048e-04,4.326792649243122924e+01,1.499999999999999944e-01
-1.809890014179586615e+00,8.554848849999999727e-01,5.549907242982343725e-01,1.000000000000000048e-04,4.244170089907880339e+01,1.900000000000000022e-01
-1.804843805179586091e+00,8.509932909999999850e-01,3.072673933895608833e-01,1.000000000000000048e-04,4.121241303908460196e+01,1.700000000000000122e-01
-1.798315402179586187e+00,8.389159160000000393e-01,3.692025739490434333e-01,1.000000000000000048e-04,4.150648341167235600e+01,1.100000000000000006e-01
-1.820018681179586650e+00,8.404092629999999620e-01,1.188485977883084743e+00,1.000000000000000048e-04,4.452454943290619127e+01,2.000000000000000111e-01
-2.435936564179586039e+00,3.767214549999999829e-01,2.001884121901404967e-01,1.000000000000000048e-04,3.967155093731320648e+01,1.700000000000000122e-01
-2.738532057179586143e+00,-4.670391260000000266e-01,4.209896826706089890e-01,1.000000000000000048e-04,4.184541842520522437e+01,1.100000000000000006e-01
-2.750126147179586145e+00,-4.750163370000000107e-01,7.163471632175921755e-01,1.000000000000000048e-04,4.326216574891986255e+01,1.700000000000000122e-01
6.777063359999999648e-01,-9.284162910000000046e-01,2.141134760483991428e-01,1.000000000000000048e-04,4.009450633229128869e+01,1.600000000000000033e-01
6.755664329999999662e-01,-9.242990760000000527e-01,6.215048906330915557e-01,1.000000000000000048e-04,4.307289207470521575e+01,2.200000000000000011e-01
1.666277256000000095e+00,1.035703752000000089e+00,1.331730755054552962e+00,1.000000000000000048e-04,4.501863007364629254e+01,2.800000000000000266e-01
1.679531192000000006e+00,1.034147155999999956e+00,2.476316672828215992e-01,1.000000000000000048e-04,4.065431143793787072e+01,2.099999999999999922e-01
1.669961188000000041e+00,1.045784459000000055e+00,8.423484095907540770e-01,1.000000000000000048e-04,4.336022909500177747e+01,2.899999999999999800e-01
1.666612017000000057e+00,1.035903760999999923e+00,2.312575774008878149e-01,1.000000000000000048e-04,4.024440720035008212e+01,1.400000000000000133e-01
1.676630470000000095e+00,1.049302589999999924e+00,3.150062991128941281e-01,1.000000000000000048e-04,4.132317053397289186e+01,1.600000000000000033e-01
1.678871634000000057e+00,1.037439988999999896e+00,4.049874326456168738e-01,1.000000000000000048e-04,4.171351876207114628e+01,2.099999999999999922e-01
-2.159653925179585876e+00,7.341517600000000421e-01,3.709433099323253824e-01,1.000000000000000048e-04,4.125387376242042592e+01,2.600000000000000089e-01
-2.155609593179586447e+00,7.327229189999999726e-01,1.797824004099917161e-01,1.000000000000000048e-04,3.967854435908594724e+01,1.400000000000000133e-01
2.989279821999999864e+00,-1.014333855000000062e+00,1.828754492322530734e-01,1.000000000000000048e-04,3.990758223630406576e+01,1.600000000000000033e-01
6.962963009999999509e-01,-9.242906640000000396e-01,3.736734297683508288e-01,1.000000000000000048e-04,4.132404233661485904e+01,2.000000000000000111e-01
6.831622830000000368e-01,-9.295060950000000322e-01,3.330940125609331837e-01,1.000000000000000048e-04,4.106360070550824304e+01,2.099999999999999922e-01
6.813526220000000189e-01,-9.196739680000000083e-01,3.615790744446836236e-01,1.000000000000000048e-04,4.141451882409870677e+01,1.700000000000000122e-01
1.667475545999999920e+00,1.039138789999999979e+00,3.184425316238019832e-01,1.000000000000000048e-04,4.132602384798840944e+01,1.499999999999999944e-01
1.669072946000000002e+00,1.039627206000000026e+00,1.385656821198140154e-01,1.000000000000000048e-04,3.883014391482552696e+01,1.700000000000000122e-01
2.992464221000000091e+00,-1.009427984000000000e+00,6.310983326773804691e-01,1.000000000000000048e-04,4.279452845936205563e+01,1.400000000000000133e-01
3.013377762000000182e+00,-1.015725085999999999e+00,1.659261083944545412e-01,1.000000000000000048e-04,3.951036339904297989e+01,1.499999999999999944e-01
6.857830799999999893e-01,-9.290922369999999875e-01,1.421481192962943396e-01,1.000000000000000048e-04,3.930820187771684004e+01,3.400000000000000244e-01
6.874880420000000214e-01,-9.251381180000000093e-01,4.483041340626259252e-01,1.000000000000000048e-04,4.187066605705131650e+01,1.700000000000000122e-01
1.659686511000000086e+00,1.040101345999999927e+00,8.225772089302663126e-01,1.000000000000000048e-04,4.357185823354031129e+01,1.400000000000000133e-01
1.692629780999999944e+00,1.043637506000000048e+00,2.174221429241183223e-01,1.000000000000000048e-04,4.049175413545872004e+01,1.799999999999999933e-01
1.682450028999999958e+00,1.049226146999999942e+00,5.000752849120537746e-01,1.000000000000000048e-04,4.231237736412276718e+01,1.900000000000000022e-01
1.675255906999999933e+00,1.048468626000000015e+00,3.727715705213634489e-01,1.000000000000000048e-04,4.154493334784883984e+01,1.499999999999999944e-01
1.692145135000000078e+00,1.039981480000000014e+00,3.982657319757771930e-01,1.000000000000000048e-04,4.140477826066576483e+01,1.700000000000000122e-01
-2.139768073179586061e+00,7.360294179999999908e-01,3.208399664145742403e-01,1.000000000000000048e-04,4.116017868696548732e+01,1.600000000000000033e-01
-2.138731675179585956e+00,7.369836659999999817e-01,2.956239774705813339e-01,1.000000000000000048e-04,4.102680822321941179e+01,1.499999999999999944e-01
6.888283630000000546e-01,-9.193630990000000169e-01,5.492535388155079801e-01,1.000000000000000048e-04,4.242286375361743467e+01,1.700000000000000122e-01
6.776433490000000059e-01,-9.225326109999999469e-01,3.328961068334930218e-01,1.000000000000000048e-04,4.089880037585717076e+01,1.600000000000000033e-01
6.820513620000000499e-01,-9.162569579999999547e-01,1.511059357100039691e-01,1.000000000000000048e-04,3.912498495648924290e+01,2.899999999999999800e-01
6.832637360000000104e-01,-9.208365670000000502e-01,6.458526096404837435e-01,1.000000000000000048e-04,4.277044644536475460e+01,1.400000000000000133e-01
1.683256381999999940e+00,1.050427892999999946e+00,3.717522089414186937e-01,1.000000000000000048e-04,4.140072264253475964e+01,1.499999999999999944e-01
2.987248335999999949e+00,-1.011507587000000097e+00,8.274146730920990400e-01,1.000000000000000048e-04,4.373478189472957212e+01,1.900000000000000022e-01
2.994879214000000012e+00,-1.020537374999999969e+00,8.271479893609474665e-01,1.000000000000000048e-04,4.376911029180077861e+01,2.500000000000000000e-01
2.997056848999999801e+00,-1.020797841000000039e+00,6.182785443139182657e-01,1.000000000000000048e-04,4.280187655056901974e+01,1.499999999999999944e-01
6.981827720000000070e-01,-9.201470600000000166e-01,2.916701846861351477e-01,1.000000000000000048e-04,4.100064794481382080e+01,2.099999999999999922e-01
1.675679171999999939e+00,1.042232051000000048e+00,2.037184078602907178e-01,1.000000000000000048e-04,4.008055653682033181e+01,1.900000000000000022e-01
1.682732345000000018e+00,1.051774148000000020e+00,1.884498763602526772e-01,1.000000000000000048e-04,3.972669225294858109e+01,2.099999999999999922e-01
1.655763980999999996e+00,1.041789395999999979e+00,2.656581083455356040e-01,1.000000000000000048e-04,4.038465105361068908e+01,2.099999999999999922e-01
1.658505131999999938e+00,1.042043577999999915e+00,8.240001640651959391e-01,1.000000000000000048e-04,4.358649996028270834e+01,1.499999999999999944e-01
1.679931540999999973e+00,1.044700675999999939e+00,2.676466806892998651e-01,1.000000000000000048e-04,4.114152943127974993e+01,1.400000000000000133e-01
1.681131209999999987e+00,1.046558263000000100e+00,2.881119629200679100e-01,1.000000000000000048e-04,4.123757754405173159e+01,3.800000000000000044e-01
-2.147380102179586636e+00,7.248191320000000326e-01,3.951397345980538489e-01,1.000000000000000048e-04,4.163511462548551378e+01,2.200000000000000011e-01
-2.137481690179586558e+00,7.386978770000000027e-01,4.368986968838504126e-01,1.000000000000000048e-04,4.172122088839589793e+01,1.499999999999999944e-01
3.007533192999999994e+00,-1.006434849999999992e+00,1.286173430448426025e+00,1.000000000000000048e-04,4.475188830811288199e+01,1.700000000000000122e-01
6.766177190000000063e-01,-9.309161569999999664e-01,5.564775447624945581e-01,1.000000000000000048e-04,4.256163693347026822e+01,1.700000000000000122e-01
6.879719020000000240e-01,-9.170357009999999809e-01,2.400336750929035201e-01,1.000000000000000048e-04,4.025162075334845468e+01,2.600000000000000089e-01
6.868192690000000100e-01,-9.190749710000000183e-01,4.234191654548966621e-01,1.000000000000000048e-04,4.146315610144602459e+01,2.800000000000000266e-01
1.680927606000000019e+00,1.043199457999999913e+00,3.729018078573673733e-01,1.000000000000000048e-04,4.111641834995479172e+01,1.799999999999999933e-01
1.680733408999999901e+00,1.046110547000000057e+00,3.875234428798384201e-01,1.000000000000000048e-04,4.156574457946486234e+01,1.499999999999999944e-01
3.003205794999999956e+00,-1.007960921000000010e+00,7.668892592802887265e-01,1.000000000000000048e-04,4.370618079030813163e+01,2.200000000000000011e-01
3.013387552999999830e+00,-1.018013843000000085e+00,2.810955920809865560e-01,1.000000000000000048e-04,4.072122875767755801e+01,2.000000000000000111e-01
2.991633154000000072e+00,-1.018575491000000000e+00,4.407760873518375977e-01,1.000000000000000048e-04,4.177059763733299036e+01,1.600000000000000033e-01
6.810583510000000063e-01,-9.216344210000000370e-01,1.011767627531843683e+00,1.000000000000000048e-04,4.418665474676192417e+01,1.600000000000000033e-01
1.670069762000000013e+00,1.048284639000000018e+00,8.637240877361387348e-01,1.000000000000000048e-04,4.385947206360625472e+01,2.099999999999999922e-01
1.699713636000000028e+00,1.040243690999999915e+00,1.334573381269579251e+00,1.000000000000000048e-04,4.496386382702337414e+01,2.899999999999999800e-01
1.686195045999999920e+00,1.048540513999999924e+00,1.592818448160200351e-01,1.000000000000000048e-04,3.938032467957290095e+01,1.400000000000000133e-01
1.667162669999999958e+00,1.044746053999999980e+00,4.381277179784750508e-01,1.000000000000000048e-04,4.194749608367144589e+01,2.700000000000000178e-01
1.689467040999999892e+00,1.036330184999999959e+00,3.248961603371729456e-01,1.000000000000000048e-04,4.121706152844392079e+01,1.300000000000000044e-01
1.683799076999999977e+00,1.043385784000000038e+00,1.001736145353177232e+00,1.000000000000000048e-04,4.403126795242818758e+01,1.700000000000000122e-01
-2.151455832179586025e+00,7.398983139999999459e-01,4.217226259467756755e-01,1.000000000000000048e-04,4.187079922856574399e+01,2.500000000000000000e-01
-2.141944958179585967e+00,7.302793560000000461e-01,1.259137590686751018e+00,1.000000000000000048e-04,4.482813611775774376e+01,1.400000000000000133e-01
3.012489310999999947e+00,-1.019874449000000016e+00,4.351480924982817911e-01,1.000000000000000048e-04,4.193414114480589916e+01,1.900000000000000022e-01
6.824463880000000149e-01,-9.193269539999999740e-01,1.234998917849220668e+00,1.000000000000000048e-04,4.471191595960821985e+01,1.600000000000000033e-01
6.933168330000000212e-01,-9.307474239999999899e-01,2.676180089008304286e-01,1.000000000000000048e-04,4.063969416299076443e+01,1.600000000000000033e-01
7.005346909999999871e-01,-9.247541049999999929e-01,4.180872443636158842e-01,1.000000000000000048e-04,4.190893227610204974e+01,2.700000000000000178e-01
1.674988617999999985e+00,1.042237757999999959e+00,7.515862195592348804e-01,1.000000000000000048e-04,4.323797898140230700e+01,1.499999999999999944e-01
1.672026148000000045e+00,1.039374368000000048e+00,7.797594767062401289e-01,1.000000000000000048e-04,4.351880832216964734e+01,1.600000000000000033e-01
2.993618983999999816e+00,-1.008517228000000099e+00,2.224105758870300598e-01,1.000000000000000048e-04,3.994483778906193550e+01,1.700000000000000122e-01
2.992837709999999873e+00,-1.014889098000000045e+00,8.260353021399149398e-01,1.000000000000000048e-04,4.362094985496040067e+01,2.800000000000000266e-01
2.980621672999999916e+00,-1.012535224000000067e+00,6.418981830238545960e-01,1.000000000000000048e-04,4.327312876421571275e+01,1.499999999999999944e-01
3.118379398000000080e+00,-1.044341935000000055e+00,2.759083548215879311e-01,1.000000000000000048e-04,4.108594264500820259e+01,3.099999999999999978e-01
3.132904315000000217e+00,-1.046896950999999909e+00,3.856858531306970317e-01,1.000000000000000048e-04,4.154117167592388427e+01,2.200000000000000011e-01
1.248659997999999938e+00,-1.117162079000000086e+00,5.873365479031338321e-01,1.000000000000000048e-04,4.271249592961926567e+01,2.700000000000000178e-01
2.302446713000000145e+00,-1.091359299000000060e+00,2.254990538102294995e-01,1.000000000000000048e-04,4.010952512152358196e+01,2.899999999999999800e-01
3.133486173000000097e+00,-1.061461677999999909e+00,6.797896294487579816e-01,1.000000000000000048e-04,4.354231294999996038e+01,3.099999999999999978e-01
1.251013366000000016e+00,-1.102704651999999896e+00,1.238595957622956156e+00,1.000000000000000048e-04,4.456783284414367330e+01,2.300000000000000100e-01
1.232341668999999973e+00,-1.105349812000000043e+00,2.045713265508757317e-01,1.000000000000000048e-04,4.004258652789921769e+01,2.200000000000000011e-01
2.330538756999999794e+00,-1.086213730999999960e+00,2.498779351436439811e-01,1.000000000000000048e-04,4.020834348178874507e+01,2.300000000000000100e-01
3.104372880000000112e+00,-1.050765708999999992e+00,7.960688790852137320e-01,1.000000000000000048e-04,4.339391720616202264e+01,2.200000000000000011e-01
3.122794933000000217e+00,-1.050942575000000101e+00,1.311372124333310296e+00,1.000000000000000048e-04,4.486375486863049389e+01,2.099999999999999922e-01
3.135928428000000157e+00,-1.044986675000000087e+00,6.546633857854544658e-01,1.000000000000000048e-04,4.312839967846478118e+01,2.300000000000000100e-01
3.135701593999999925e+00,-1.049448040999999998e+00,1.800021818463954926e-01,1.000000000000000048e-04,3.966157935739958873e+01,2.399999999999999911e-01
2.902190216000000156e+00,-1.054666754000000095e+00,1.214895699655420547e-01,1.000000000000000048e-04,3.857080197167027080e+01,2.099999999999999922e-01
1.219278212000000083e+00,-1.102494101000000004e+00,1.982985077204439950e-01,1.000000000000000048e-04,3.999137420128425902e+01,2.399999999999999911e-01
2.314258420999999899e+00,-1.073777474999999981e+00,1.073048739639606453e+00,1.000000000000000048e-04,4.417079852729708733e+01,2.399999999999999911e-01
3.138600745000000192e+00,-1.056209613999999908e+00,1.358048208783673161e-01,1.000000000000000048e-04,3.927121123597768104e+01,2.800000000000000266e-01
2.873014373000000177e+00,-1.047336534999999902e+00,9.087902486044638906e-01,1.000000000000000048e-04,4.446415601794251415e+01,2.000000000000000111e-01
2.890150627000000139e+00,-1.045368942999999939e+00,5.000402672212476141e-01,1.000000000000000048e-04,4.226367279085521744e+01,2.200000000000000011e-01
-3.136513490179586139e+00,-1.038988312000000080e+00,4.729587933536407718e-01,1.000000000000000048e-04,4.191247231222092040e+01,2.800000000000000266e-01
3.120369102000000172e+00,-1.042910143999999928e+00,7.676331509779763529e-01,1.000000000000000048e-04,4.329072143252152216e+01,2.399999999999999911e-01
3.132773262000000170e+00,-1.048570620000000009e+00,5.810192166092771338e-01,1.000000000000000048e-04,4.276326257014842014e+01,2.300000000000000100e-01
3.132934141999999866e+00,-1.046888051000000042e+00,1.303970687242128612e-01,1.000000000000000048e-04,3.915528851394032728e+01,2.200000000000000011e-01
3.134455274000000014e+00,-1.046257098000000108e+00,7.472351079482597580e-01,1.000000000000000048e-04,4.315903373176492863e+01,2.200000000000000011e-01
2.910504301000000016e+00,-1.063930792999999930e+00,1.542124966349289750e-01,1.000000000000000048e-04,3.941974310541171178e+01,2.399999999999999911e-01
2.301930878999999930e+00,-1.084305269999999988e+00,1.508728726280936794e-01,1.000000000000000048e-04,3.907935322980569737e+01,3.099999999999999978e-01
2.314913878000000036e+00,-1.104421796000000011e+00,4.821481930139519534e-01,1.000000000000000048e-04,4.212976481217825864e+01,2.600000000000000089e-01
1.232494258000000009e+00,-1.089556776000000005e+00,1.192348650516741326e-01,1.000000000000000048e-04,3.867126167157214667e+01,3.099999999999999978e-01
-3.138875270179586341e+00,-1.027091259999999950e+00,3.563430086585457346e-01,1.000000000000000048e-04,4.158896757229139496e+01,3.800000000000000044e-01
1.277748142000000087e+00,-1.105660628999999950e+00,6.909283594822639429e-01,1.000000000000000048e-04,4.312362988809109510e+01,2.500000000000000000e-01
2.339694710999999927e+00,-1.083680948999999893e+00,8.856299115635506425e-01,1.000000000000000048e-04,4.357861482365922257e+01,2.300000000000000100e-01
3.085408954000000037e+00,-1.045989441999999991e+00,3.837681144909366182e-01,1.000000000000000048e-04,4.115856661713113596e+01,2.800000000000000266e-01
3.122183823999999941e+00,-1.053540683000000033e+00,4.851151058107521230e-01,1.000000000000000048e-04,4.184282349777717513e+01,3.699999999999999956e-01
1.263417701000000060e+00,-1.099941301000000093e+00,7.179414997671185183e-01,1.000000000000000048e-04,4.319648243917367836e+01,2.200000000000000011e-01
1.238769020999999970e+00,-1.122513239999999968e+00,3.670390438630561913e-01,1.000000000000000048e-04,4.156488387420029085e+01,2.600000000000000089e-01
1.225778744000000087e+00,-1.107856694000000086e+00,1.265298294561088444e+00,1.000000000000000048e-04,4.497707934753687908e+01,2.500000000000000000e-01
2.356185176999999964e+00,-1.090954028000000076e+00,2.602477269673402205e-01,1.000000000000000048e-04,4.060546993583368192e+01,2.700000000000000178e-01
1.231078855000000027e+00,-1.109460918999999990e+00,1.671666720479143553e-01,1.000000000000000048e-04,3.946158139710690449e+01,2.300000000000000100e-01
2.350025410999999842e+00,-1.078254897999999962e+00,7.264139491672616522e-01,1.000000000000000048e-04,4.299799277723936797e+01,2.300000000000000100e-01
2.889344674999999807e+00,-1.054064458000000037e+00,3.348895579794768373e-01,1.000000000000000048e-04,4.153568866065543830e+01,3.200000000000000067e-01
1.260972444000000081e+00,-1.102168519999999985e+00,6.597966601304692258e-01,1.000000000000000048e-04,4.296866274737293168e+01,2.899999999999999800e-01
3.138597202000000141e+00,-1.049455424000000026e+00,3.010426593257682359e-01,1.000000000000000048e-04,4.112239844100685815e+01,2.600000000000000089e-01
1.280173519000000093e+00,-1.106045986000000036e+00,5.349828568603147705e-01,1.000000000000000048e-04,4.250298309396664109e+01,2.899999999999999800e-01
3.140421104000000074e+00,-1.048273016000000002e+00,3.095914816080347354e-01,1.000000000000000048e-04,4.062734779203609037e+01,2.700000000000000178e-01
2.887571490000000018e+00,-1.060290981000000077e+00,3.362689312916480322e-01,1.000000000000000048e-04,4.152709640354758847e+01,2.300000000000000100e-01
3.117377486000000086e+00,-1.048849812999999909e+00,4.462336544124125837e-01,1.000000000000000048e-04,4.186752512486565792e+01,2.800000000000000266e-01
3.139331405000000075e+00,-1.045946368000000071e+00,1.826175881525731182e-01,1.000000000000000048e-04,3.989301434759444476e+01,2.300000000000000100e-01
2.901812189000000153e+00,-1.070407117000000019e+00,1.805174391741204420e-01,1.000000000000000048e-04,3.989978600318399771e+01,2.200000000000000011e-01
2.874698792999999863e+00,-1.069280417999999955e+00,6.362826429945589446e-01,1.000000000000000048e-04,4.269176166952696860e+01,2.200000000000000011e-01
3.126790450000000110e+00,-1.053686536000000062e+00,5.816679873607468743e-01,1.000000000000000048e-04,4.243920590646040125e+01,2.099999999999999922e-01
1.253234667999999941e+00,-1.096167120000000050e+00,1.518402693883031951e-01,1.000000000000000048e-04,3.930275968461612734e+01,2.200000000000000011e-01
1.242189800000000011e+00,-1.095888138000000067e+00,2.407833325466959273e-01,1.000000000000000048e-04,4.058325118452860636e+01,2.899999999999999800e-01
2.358704259000000025e+00,-1.096119858000000002e+00,1.461365245934689305e-01,1.000000000000000048e-04,3.933023509587415134e+01,2.099999999999999922e-01
3.090657074000000115e+00,-1.046905049999999893e+00,2.018233219194858208e-01,1.000000000000000048e-04,3.989719278263339675e+01,2.300000000000000100e-01
2.350320292999999783e+00,-1.077642637000000070e+00,1.484682127452696676e-01,1.000000000000000048e-04,3.964366933680668836e+01,3.300000000000000155e-01
3.120911620999999858e+00,-1.047605429999999949e+00,6.026115013340582749e-01,1.000000000000000048e-04,4.220229572092073056e+01,2.899999999999999800e-01
2.310418793000000193e+00,-1.091478047999999923e+00,3.032793558870390260e-01,1.000000000000000048e-04,4.159436173612196086e+01,3.300000000000000155e-01
2.888242410000000149e+00,-1.055260810999999910e+00,4.045024747341525728e-01,1.000000000000000048e-04,4.163823428735876320e+01,2.999999999999999889e-01
2.313880778000000138e+00,-1.089056457000000089e+00,5.358929151486973019e-01,1.000000000000000048e-04,4.228337996167160640e+01,2.600000000000000089e-01
3.096505394999999883e+00,-1.050897790999999915e+00,5.958940244500166017e-01,1.000000000000000048e-04,4.360886239189760971e+01,3.300000000000000155e-01
1.264206060000000020e+00,-1.108314516000000083e+00,4.803241129009963029e-01,1.000000000000000048e-04,4.198162248678022479e+01,2.500000000000000000e-01
2.317080779999999951e+00,-1.080569537999999996e+00,1.408803752689247180e-01,1.000000000000000048e-04,3.884208679546114951e+01,2.399999999999999911e-01
2.308161032000000112e+00,-1.080284865999999955e+00,6.757549755498157840e-01,1.000000000000000048e-04,4.356830006542842426e+01,3.900000000000000133e-01
1.213089824000000094e+00,-1.095999417000000031e+00,2.615161490520283571e-01,1.000000000000000048e-04,4.054242334016030469e+01,2.700000000000000178e-01
3.095344697999999894e+00,-1.044259242999999948e+00,6.029801859453807200e-01,1.000000000000000048e-04,4.275369779255206026e+01,2.200000000000000011e-01
3.093500166000000107e+00,-1.047656949999999920e+00,1.779915326958065869e-01,1.000000000000000048e-04,3.974145445081990147e+01,2.300000000000000100e-01
2.871266652000000086e+00,-1.064917746999999970e+00,3.948720484803605046e-01,1.000000000000000048e-04,4.177016872937453940e+01,2.500000000000000000e-01
2.872879009000000039e+00,-1.076645507999999918e+00,1.474124482006633485e-01,1.000000000000000048e-04,3.926682827181770108e+01,2.099999999999999922e-01
1.241294699000000001e+00,-1.109043570000000090e+00,8.052731469450820079e-01,1.000000000000000048e-04,4.383939157588973501e+01,2.099999999999999922e-01
1.238788393000000099e+00,-1.083197141000000085e+00,2.833581683378505467e-01,1.000000000000000048e-04,4.076575867629523486e+01,2.999999999999999889e-01
-3.140928712179586135e+00,-1.049943351000000025e+00,8.397009947614513248e-01,1.000000000000000048e-04,4.377992271559588033e+01,2.200000000000000011e-01
2.897074545000000168e+00,-1.050668165000000043e+00,6.405232219975431907e-01,1.000000000000000048e-04,4.303038777768173873e+01,2.099999999999999922e-01
3.133488720999999977e+00,-1.053899826000000095e+00,1.508068186776472253e-01,1.000000000000000048e-04,3.930339894495149622e+01,2.300000000000000100e-01
2.854965548000000020e+00,-1.051119023000000041e+00,1.053161668715287380e+00,1.000000000000000048e-04,4.419025443616492055e+01,3.200000000000000067e-01
2.846666281000000076e+00,-1.061494909000000098e+00,1.017340551695030904e+00,1.000000000000000048e-04,4.428381646567783037e+01,2.600000000000000089e-01
1.477625364000000108e+00,-9.892628350000000070e-01,2.258700387494756434e-01,1.000000000000000048e-04,4.010178018845925152e+01,2.000000000000000111e-01
-2.998301261179586064e+00,-5.567642400000000213e-01,5.702082163151966920e-01,1.000000000000000048e-04,4.263412177227876754e+01,1.799999999999999933e-01
2.915910107000000195e+00,-9.248875840000000403e-01,4.560479160230661577e-01,1.000000000000000048e-04,4.191564486977186021e+01,2.999999999999999889e-01
2.904218159000000021e+00,-9.279150130000000107e-01,2.465955723484407613e-01,1.000000000000000048e-04,4.058100648775965169e+01,2.399999999999999911e-01
2.945746643000000109e+00,-9.241091030000000428e-01,2.903069812679575090e-01,1.000000000000000048e-04,4.077849957588167484e+01,2.300000000000000100e-01
2.195221751000000054e+00,9.567984520000000215e-01,2.935748373383679777e-01,1.000000000000000048e-04,4.084974961104263969e+01,2.200000000000000011e-01
-2.382074272179586227e+00,-9.504311730000000180e-01,2.655822368716695969e-01,1.000000000000000048e-04,4.081640328545961438e+01,2.300000000000000100e-01
2.197803225999999999e+00,9.560313849999999558e-01,4.563163027711711894e-01,1.000000000000000048e-04,4.183820026348413279e+01,2.300000000000000100e-01
-2.380846050179586282e+00,-9.512843520000000552e-01,3.863292583258679525e-01,1.000000000000000048e-04,4.171612760874805304e+01,2.600000000000000089e-01
-2.382960995179586039e+00,-9.501026420000000527e-01,1.949253815819289581e-01,1.000000000000000048e-04,3.992352381403618722e+01,2.099999999999999922e-01
2.192165822000000208e+00,9.554729659999999791e-01,4.558010904584235412e-01,1.000000000000000048e-04,4.178896736556324498e+01,2.899999999999999800e-01
-2.383512939179586176e+00,-9.505219620000000535e-01,1.749938712951153441e-01,1.000000000000000048e-04,3.973971584978845328e+01,2.000000000000000111e-01
2.197044292000000176e+00,9.582492320000000063e-01,5.544663181466993329e-01,1.000000000000000048e-04,4.287154161916849660e+01,2.500000000000000000e-01
2.198013217999999824e+00,9.570721989999999568e-01,2.265027584646528425e-01,1.000000000000000048e-04,4.067446367278067498e+01,2.099999999999999922e-01
2.198391541999999976e+00,9.561199929999999458e-01,7.918119901434967911e-01,1.000000000000000048e-04,4.336948460598260624e+01,2.300000000000000100e-01
2.199218732999999926e+00,9.570277640000000030e-01,5.223007495413884982e-01,1.000000000000000048e-04,4.242957740703562308e+01,2.200000000000000011e-01
2.196667974999999995e+00,9.569524729999999701e-01,9.676512792855584966e-01,1.000000000000000048e-04,4.427950566474118688e+01,2.399999999999999911e-01
2.196400267000000017e+00,9.571105250000000453e-01,1.655260199305050861e-01,1.000000000000000048e-04,3.917316446180374356e+01,2.500000000000000000e-01
2.195980999000000100e+00,9.563170869999999546e-01,3.319117184684809985e-01,1.000000000000000048e-04,4.112688276928128772e+01,2.200000000000000011e-01
2.198886345000000020e+00,9.574225640000000315e-01,3.203692760151914953e-01,1.000000000000000048e-04,4.096371860987971303e+01,3.300000000000000155e-01
-2.382942164179586264e+00,-9.487821469999999646e-01,1.412567923635896783e-01,1.000000000000000048e-04,3.891955455306849387e+01,2.000000000000000111e-01
2.197058621000000045e+00,9.568337070000000333e-01,7.713006560458670613e-01,1.000000000000000048e-04,4.354447029533318414e+01,2.600000000000000089e-01
2.196754174000000059e+00,9.569828230000000380e-01,1.783824332079271269e-01,1.000000000000000048e-04,3.954561352737389512e+01,2.399999999999999911e-01
-2.381905888179586039e+00,-9.494029419999999719e-01,2.334594249944268451e-01,1.000000000000000048e-04,4.053913808543195074e+01,2.399999999999999911e-01
-2.382353656179586388e+00,-9.501919130000000546e-01,6.372282692552930783e-01,1.000000000000000048e-04,4.306882603665378895e+01,2.600000000000000089e-01
-2.385313647179586383e+00,-9.492824659999999914e-01,7.024719962022087927e-01,1.000000000000000048e-04,4.289321455530924965e+01,2.399999999999999911e-01
-2.383308463179586223e+00,-9.502672559999999491e-01,7.276750224810264456e-01,1.000000000000000048e-04,4.334709760376209431e+01,2.000000000000000111e-01
2.194446376000000143e+00,9.548028840000000184e-01,2.608697426594082103e-01,1.000000000000000048e-04,4.086362504454371702e+01,3.699999999999999956e-01
-2.377678389179586294e+00,-9.493284189999999789e-01,6.884287647421711842e-01,1.000000000000000048e-04,4.367439933765788140e+01,3.099999999999999978e-01
2.195048706000000127e+00,9.553664520000000326e-01,2.517294944185930472e-01,1.000000000000000048e-04,4.053593255889762759e+01,2.399999999999999911e-01
2.194988459000000169e+00,9.569281090000000267e-01,5.145433148370952559e-01,1.000000000000000048e-04,4.222217655552719151e+01,2.099999999999999922e-01
2.198773670000000013e+00,9.585742720000000050e-01,1.262668646204136991e-01,1.000000000000000048e-04,3.930530514798189046e+01,2.800000000000000266e-01
2.196007632000000154e+00,9.574002940000000406e-01,3.206825304100504592e-01,1.000000000000000048e-04,4.110071743034855984e+01,2.800000000000000266e-01
2.193610842000000005e+00,9.569156829999999614e-01,5.660407654012822309e-01,1.000000000000000048e-04,4.273416069031949860e+01,2.099999999999999922e-01
2.194846306000000080e+00,9.574700699999999509e-01,3.158467146789580848e-01,1.000000000000000048e-04,4.101105924920099710e+01,2.300000000000000100e-01
-2.901318991795864832e-01,1.086903570000000041e+00,7.278648205625641854e-01,1.000000000000000048e-04,4.337463919708697802e+01,2.000000000000000111e-01
-2.914486071795865385e-01,1.085909494999999891e+00,7.084879479768129151e-01,1.000000000000000048e-04,4.318521538211904698e+01,1.000000000000000056e-01
-2.954610881795858290e-01,1.084462065999999947e+00,5.067526362803782547e-01,1.000000000000000048e-04,4.242549579648273550e+01,1.199999999999999956e-01
-3.403197011795864313e-01,1.090760651000000081e+00,1.437857051841155975e-01,1.000000000000000048e-04,3.921711450521625864e+01,8.999999999999999667e-02
-3.429455761795860980e-01,1.087892671000000089e+00,8.160317389223150641e-01,1.000000000000000048e-04,4.366358718658123905e+01,1.400000000000000133e-01
6.896152909999999636e-01,-9.249195220000000495e-01,1.188096489944951095e+00,1.000000000000000048e-04,4.468265226952892988e+01,2.000000000000000111e-01
1.024453132999999960e+00,1.182715689999999986e+00,2.853456204925837181e-01,1.000000000000000048e-04,4.071764606465886516e+01,1.900000000000000022e-01
1.006083177000000051e+00,1.165244638999999971e+00,2.557296469870438127e-01,1.000000000000000048e-04,4.053588979053782282e+01,1.700000000000000122e-01
9.905969959999999519e-01,1.153001898999999941e+00,1.269300917284370556e+00,1.000000000000000048e-04,4.487727073997618987e+01,3.499999999999999778e-01
2.950804928999999799e+00,-1.010655210999999998e+00,3.328641394606437487e-01,1.000000000000000048e-04,4.121524296521339181e+01,1.700000000000000122e-01
2.951637304000000128e+00,-1.010683065999999908e+00,7.055923695373396143e-01,1.000000000000000048e-04,4.336934821471951551e+01,1.900000000000000022e-01
-2.349248843179586377e+00,-9.322901449999999590e-01,2.566001077352968451e-01,1.000000000000000048e-04,4.043923156366410865e+01,1.900000000000000022e-01
