-1.598279621179586663e+00,2.779993629999999993e-01,1.628836742865145126e-01,1.000000000000000048e-04,3.944192123932847949e+01,1.700000000000000122e-01
-8.306753881795865269e-01,5.048130450000000158e-01,8.240725730670050986e-01,1.000000000000000048e-04,4.373985431741439811e+01,1.600000000000000033e-01
-1.512887194179586281e+00,3.571169940000000209e-01,5.297301800326270627e-01,1.000000000000000048e-04,4.242267748506846914e+01,1.600000000000000033e-01
-2.094054222179586588e+00,-9.657747650000000350e-01,2.862679084893533510e-01,1.000000000000000048e-04,4.060933187032841118e+01,1.600000000000000033e-01
-1.256550916179586252e+00,-1.037146153999999987e+00,1.037672798019836584e+00,1.000000000000000048e-04,4.393632716202026245e+01,1.900000000000000022e-01
-2.638489419179586015e+00,-8.917870300000000361e-01,2.711639145320376976e-01,1.000000000000000048e-04,4.080900436982683743e+01,1.600000000000000033e-01
3.095686500000000008e-02,-1.139960520999999893e+00,1.866745785660484103e-01,1.000000000000000048e-04,4.005881405239799875e+01,1.700000000000000122e-01
-4.765590681795863759e-01,-7.328014390000000544e-01,2.074910502466957851e-01,1.000000000000000048e-04,4.021951252797770593e+01,1.600000000000000033e-01
7.532392530000000530e-01,9.936355940000000109e-01,2.735703629169237150e-01,1.000000000000000048e-04,4.068987739184495211e+01,1.600000000000000033e-01
1.355624495999999901e+00,4.654212710000000253e-01,6.311790751190193838e-01,1.000000000000000048e-04,4.299579892381534307e+01,2.200000000000000011e-01
-2.027672372179586624e+00,-3.494576850000000179e-01,3.691219335399422707e-01,1.000000000000000048e-04,4.150609430464112393e+01,8.999999999999999667e-02
-2.243457714179585949e+00,5.735296930000000071e-01,4.864410007876738273e-01,1.000000000000000048e-04,4.204311562092863852e+01,8.000000000000000167e-02
-1.661352162179586145e+00,7.473004210000000480e-01,2.430862396510160561e-01,1.000000000000000048e-04,4.058431691693967736e+01,1.100000000000000006e-01
-1.046494641179585905e+00,9.839422859999999993e-01,8.427689517841794320e-01,1.000000000000000048e-04,4.384813380007849304e+01,1.600000000000000033e-01
-1.357076630179586019e+00,8.591991679999999576e-01,3.585791252177428223e-01,1.000000000000000048e-04,4.112894263725493005e+01,1.300000000000000044e-01
-1.489161381179585852e+00,8.733460579999999807e-01,3.176335540243926392e-01,1.000000000000000048e-04,4.129999788283313933e+01,8.999999999999999667e-02
2.602874990000000111e+00,9.865781270000000269e-01,8.588535905298320117e-01,1.000000000000000048e-04,4.366213051542631973e+01,2.099999999999999922e-01
2.011122450999999867e+00,-1.257182417000000108e+00,1.739712640910524577e-01,1.000000000000000048e-04,3.959176696600870571e+01,1.799999999999999933e-01
2.487812089999999809e+00,-1.095252646999999913e+00,9.172491121492272192e-01,1.000000000000000048e-04,4.362499996558896243e+01,1.600000000000000033e-01
-2.060955814179585843e+00,9.020563839999999889e-01,1.902611948084769189e-01,1.000000000000000048e-04,4.005872195088384302e+01,1.799999999999999933e-01
-1.552222439179586466e+00,1.270289940999999923e+00,6.228006504428860168e-01,1.000000000000000048e-04,4.271107926829886736e+01,1.600000000000000033e-01
-3.584264691795864266e-01,1.112498557000000110e+00,7.749970085381836515e-01,1.000000000000000048e-04,4.369745759465006074e+01,2.000000000000000111e-01
1.187793541000000008e+00,1.533334508000000040e+00,8.355839759603891359e-01,1.000000000000000048e-04,4.373173544779058375e+01,1.700000000000000122e-01
9.029304540000000490e-01,-5.888661819999999603e-01,3.211175504241303713e-01,1.000000000000000048e-04,4.099412961733965233e+01,1.700000000000000122e-01
2.675488564000000125e+00,-1.029758079000000048e+00,2.782300770946986024e-01,1.000000000000000048e-04,4.059863619905338084e+01,1.700000000000000122e-01
9.979371630000000160e-01,-7.076351440000000492e-01,3.854210733245251319e-01,1.000000000000000048e-04,4.158158292871558359e+01,2.000000000000000111e-01
-2.809922836179586270e+00,-1.219770695000000016e+00,2.119619938349028843e-01,1.000000000000000048e-04,3.980203844984959716e+01,1.900000000000000022e-01
1.945616433999999950e+00,5.533621010000000506e-01,3.161736252315163753e-01,1.000000000000000048e-04,4.090929856655384356e+01,1.700000000000000122e-01
1.369802210000000131e-01,9.686457469999999459e-01,2.536397553594917920e-01,1.000000000000000048e-04,4.056114144103078445e+01,1.000000000000000056e-01
2.377785852000000144e+00,-1.071983155000000076e+00,3.337647011736508684e-01,1.000000000000000048e-04,4.122177180876887093e+01,1.000000000000000056e-01
1.194530383000000029e+00,-8.514353350000000153e-01,5.081987888459842395e-01,1.000000000000000048e-04,4.226540911921058097e+01,1.100000000000000006e-01
2.328991532999999947e+00,-1.085498080000000032e+00,1.947329092514258342e-01,1.000000000000000048e-04,3.973833116144914612e+01,1.199999999999999956e-01
3.099662444999999877e+00,-8.173274409999999879e-01,1.235933978135879130e-01,1.000000000000000048e-04,3.909201687529554903e+01,1.300000000000000044e-01
1.008677688999999988e+00,-7.224949280000000362e-01,7.356699175728065310e-01,1.000000000000000048e-04,4.325798362487006443e+01,1.199999999999999956e-01
1.116317643999999998e+00,-8.188746820000000204e-01,2.095018011952640702e-01,1.000000000000000048e-04,3.998006294353815804e+01,1.499999999999999944e-01
1.368634144999999913e+00,-9.746537960000000167e-01,1.304853955345968153e-01,1.000000000000000048e-04,3.898724217508222267e+01,2.200000000000000011e-01
2.840707745000000006e+00,-9.874777999999999611e-01,2.958481279819851206e-01,1.000000000000000048e-04,4.082329691492601142e+01,1.199999999999999956e-01
1.164831654000000105e+00,-8.361433499999999519e-01,2.993885501795734427e-01,1.000000000000000048e-04,4.097028125163466683e+01,1.600000000000000033e-01
9.274529849999999520e-01,-5.648102149999999488e-01,1.281445214167868940e-01,1.000000000000000048e-04,3.866199541258114891e+01,2.200000000000000011e-01
1.803806121999999901e+00,-1.051757271000000049e+00,6.394506936912680573e-01,1.000000000000000048e-04,4.278581179658373657e+01,2.200000000000000011e-01
1.910407339000000038e+00,-1.096340147000000043e+00,1.238446231472139836e+00,1.000000000000000048e-04,4.463070339963553579e+01,1.300000000000000044e-01
-2.994395329179586174e+00,-6.874333790000000111e-01,3.328065409482556802e-01,1.000000000000000048e-04,4.168563834506998944e+01,1.600000000000000033e-01
2.004169926999999962e+00,-1.114377941999999955e+00,1.818104785367196108e-01,1.000000000000000048e-04,3.987800293596584567e+01,2.099999999999999922e-01
2.993884073999999895e+00,-9.067153500000000310e-01,6.733619245988848867e-01,1.000000000000000048e-04,4.316671760320895856e+01,2.000000000000000111e-01
2.896584697999999847e+00,-6.981149509999999836e-01,4.775908342400674300e-01,1.000000000000000048e-04,4.233054410315437366e+01,2.000000000000000111e-01
2.644964143999999795e+00,-1.038456438999999953e+00,1.007278745554050836e+00,1.000000000000000048e-04,4.436924375704980150e+01,2.500000000000000000e-01
1.395029569000000080e+00,-9.673563530000000021e-01,5.831945412282348862e-01,1.000000000000000048e-04,4.283926915064093777e+01,2.200000000000000011e-01
1.133893306999999906e+00,-8.234022290000000410e-01,6.734020959144757512e-01,1.000000000000000048e-04,4.303631830333681307e+01,1.199999999999999956e-01
9.542908199999999841e-01,-6.210129070000000029e-01,1.862511463588008009e-01,1.000000000000000048e-04,3.974707760175366644e+01,1.400000000000000133e-01
1.112357503999999997e+00,-7.717409769999999947e-01,3.872727657023182779e-01,1.000000000000000048e-04,4.147781253945278479e+01,1.400000000000000133e-01
1.392129267000000059e+00,-9.489503049999999940e-01,1.507223487850444243e-01,1.000000000000000048e-04,3.907286641264185789e+01,1.100000000000000006e-01
3.104633763999999907e+00,-8.563587980000000321e-01,4.198658574252482900e-01,1.000000000000000048e-04,4.179508423753447488e+01,1.199999999999999956e-01
-1.581672989179586430e+00,-6.726275419999999672e-01,8.971572934167806324e-01,1.000000000000000048e-04,4.363884820508641837e+01,2.000000000000000111e-01
8.758714749999999549e-01,-5.394949780000000139e-01,3.871696963378281620e-01,1.000000000000000048e-04,4.168650614508939611e+01,1.199999999999999956e-01
1.027821937999999991e+00,-6.897361509999999640e-01,1.340184210079508720e+00,1.000000000000000048e-04,4.489887707652336957e+01,1.499999999999999944e-01
8.011105990000000343e-01,-4.568120419999999737e-01,8.403145184618778796e-01,1.000000000000000048e-04,4.381380584085370344e+01,1.499999999999999944e-01
8.044453879999999835e-01,-4.591503659999999765e-01,6.682324810847026786e-01,1.000000000000000048e-04,4.324332519540406139e+01,1.100000000000000006e-01
8.290542589999999601e-01,-4.498624509999999965e-01,3.226696348421573823e-01,1.000000000000000048e-04,4.113443219845654397e+01,1.199999999999999956e-01
2.306908324000000121e+00,-1.093655438999999951e+00,4.786696727866845968e-01,1.000000000000000048e-04,4.213977559419588204e+01,1.300000000000000044e-01
-3.090495873179586184e+00,-7.974218849999999970e-01,4.869765547781805815e-01,1.000000000000000048e-04,4.223843756831168861e+01,1.300000000000000044e-01
2.850739061000000074e+00,-9.724982730000000242e-01,2.175861967116388129e-01,1.000000000000000048e-04,4.018045544832595795e+01,1.100000000000000006e-01
1.925211972000000049e+00,-1.067349442999999898e+00,6.313806104231471927e-01,1.000000000000000048e-04,4.284362193161696553e+01,1.600000000000000033e-01
3.010706126000000094e+00,-9.149326070000000088e-01,2.303081421453105904e-01,1.000000000000000048e-04,4.028556352070669533e+01,1.199999999999999956e-01
1.754869720000000077e+00,-1.052947148999999971e+00,3.612695280212625537e-01,1.000000000000000048e-04,4.164721424376892855e+01,1.300000000000000044e-01
3.028086770999999899e+00,-8.725603690000000023e-01,6.899525434808901903e-01,1.000000000000000048e-04,4.320989917753173160e+01,1.199999999999999956e-01
2.780301081000000174e+00,-1.010780400000000023e+00,2.994098106310263407e-01,1.000000000000000048e-04,4.127644316092839460e+01,1.700000000000000122e-01
3.096540631999999960e+00,-8.261897350000000362e-01,3.557294209474617386e-01,1.000000000000000048e-04,4.136439363000535252e+01,1.100000000000000006e-01
-3.043596368179586342e+00,-7.656326449999999451e-01,1.222595935678623125e-01,1.000000000000000048e-04,3.872107556935102934e+01,1.100000000000000006e-01
2.593403560000000052e+00,-1.068240442000000012e+00,2.461669122389562592e-01,1.000000000000000048e-04,4.016745892444891552e+01,1.199999999999999956e-01
1.277663320999999907e+00,-8.910532270000000032e-01,3.651397661154520691e-01,1.000000000000000048e-04,4.146723860958104524e+01,1.499999999999999944e-01
8.729576639999999665e-01,-5.017517409999999733e-01,2.770418923785926690e-01,1.000000000000000048e-04,4.064816076687787216e+01,1.199999999999999956e-01
2.323316692000000128e+00,-1.072994334000000105e+00,1.315618658076890490e+00,1.000000000000000048e-04,4.477348351168296858e+01,1.400000000000000133e-01
-3.012222731179586166e+00,-7.219820959999999621e-01,3.176131631543204215e-01,1.000000000000000048e-04,4.110935359207503126e+01,1.199999999999999956e-01
2.306010604999999991e+00,-1.110345181000000014e+00,2.892010660413524281e-01,1.000000000000000048e-04,4.078599194798816541e+01,1.100000000000000006e-01
2.437557496999999795e+00,-1.097151527000000071e+00,6.531694476323111065e-01,1.000000000000000048e-04,4.303928301619318830e+01,1.100000000000000006e-01
1.098420291999999909e+00,-7.444727049999999569e-01,2.976634758718619267e-01,1.000000000000000048e-04,4.094273395550794703e+01,1.300000000000000044e-01
8.241628739999999897e-01,-4.611620249999999754e-01,3.630629997815573162e-01,1.000000000000000048e-04,4.143058909441067783e+01,1.400000000000000133e-01
1.017317494999999905e+00,-7.027905669999999771e-01,2.379946371924661630e-01,1.000000000000000048e-04,4.034605749740784830e+01,1.199999999999999956e-01
2.728679550999999925e+00,-1.007430967999999982e+00,1.562472632533145056e-01,1.000000000000000048e-04,3.924985763555213936e+01,1.100000000000000006e-01
2.848837458999999850e+00,-9.622339979999999793e-01,6.909252750651222463e-01,1.000000000000000048e-04,4.300063457161591174e+01,1.199999999999999956e-01
-3.065525731179586266e+00,-7.207210450000000046e-01,4.336782546517818915e-01,1.000000000000000048e-04,4.208329837620375713e+01,1.199999999999999956e-01
1.103969978000000074e+00,-7.587182380000000448e-01,3.481391278112022647e-01,1.000000000000000048e-04,4.121755109766402825e+01,1.300000000000000044e-01
1.112034854000000017e+00,-7.675460100000000008e-01,7.763046841985046242e-01,1.000000000000000048e-04,4.372489867156738086e+01,1.199999999999999956e-01
2.373162053000000160e+00,-1.072487750000000073e+00,2.854118208662741463e-01,1.000000000000000048e-04,4.081023339747049761e+01,1.100000000000000006e-01
2.221583438000000132e+00,-1.096064289000000080e+00,2.267878641950982210e-01,1.000000000000000048e-04,4.033219355703939613e+01,1.199999999999999956e-01
2.775251189000000007e+00,-1.013244017000000108e+00,1.789364061891369762e-01,1.000000000000000048e-04,3.958421548273701518e+01,1.700000000000000122e-01
1.527128894000000070e+00,-9.963611940000000056e-01,3.044626555347984542e-01,1.000000000000000048e-04,4.100309219778735326e+01,1.400000000000000133e-01
-1.936135624179586401e+00,1.327891944000000102e+00,1.276958332121160833e-01,1.000000000000000048e-04,3.890190953187730827e+01,1.199999999999999956e-01
2.120951332999999828e+00,-1.112975437000000012e+00,7.116500974111799049e-01,1.000000000000000048e-04,4.303124501004472791e+01,1.600000000000000033e-01
2.950704906999999988e+00,-9.277153000000000205e-01,1.068921863847385190e+00,1.000000000000000048e-04,4.452318153940277767e+01,1.700000000000000122e-01
2.461302839000000020e+00,-1.064109841000000056e+00,1.594710125918092913e-01,1.000000000000000048e-04,3.938891253119708580e+01,1.499999999999999944e-01
1.687800213000000049e+00,-1.037844004000000098e+00,1.272454353054652820e-01,1.000000000000000048e-04,3.876690443315592205e+01,1.100000000000000006e-01
-3.069023128179586113e+00,-7.343218900000000327e-01,3.883906468745912388e-01,1.000000000000000048e-04,4.164144490486214067e+01,2.000000000000000111e-01
7.655655390000000171e-01,-3.825025819999999799e-01,4.551863163119393985e-01,1.000000000000000048e-04,4.201509392993109060e+01,1.300000000000000044e-01
-3.051736326179586012e+00,-7.690870560000000467e-01,5.442891091943713455e-01,1.000000000000000048e-04,4.235580688800357763e+01,1.499999999999999944e-01
-3.116938176179586240e+00,-7.920766919999999711e-01,1.757734330954887625e-01,1.000000000000000048e-04,3.981833347810658807e+01,1.100000000000000006e-01
1.020863690000000101e+00,-6.877910739999999468e-01,1.852340338883968762e-01,1.000000000000000048e-04,4.003792743375955610e+01,1.199999999999999956e-01
1.792785233999999894e+00,-1.066474936999999956e+00,1.246321005821751093e-01,1.000000000000000048e-04,3.877524134720864879e+01,1.100000000000000006e-01
1.805689748000000039e+00,-1.066896787999999985e+00,2.642429246626851747e-01,1.000000000000000048e-04,4.059216333629774454e+01,1.100000000000000006e-01
1.773248071000000037e+00,-1.046601056999999946e+00,9.248637391565122101e-01,1.000000000000000048e-04,4.392103785166842300e+01,2.099999999999999922e-01
1.076689889999999927e+00,-7.549444410000000216e-01,4.331952847561946207e-01,1.000000000000000048e-04,4.198361500416048386e+01,1.199999999999999956e-01
2.336456505000000128e+00,-1.089906792000000069e+00,4.518462133918053070e-01,1.000000000000000048e-04,4.197701680927504242e+01,1.199999999999999956e-01
2.522083900000000156e+00,-1.078852812999999911e+00,8.804410313444321901e-01,1.000000000000000048e-04,4.380907143860810038e+01,1.199999999999999956e-01
3.676074389999999803e-01,1.100614297999999991e+00,5.354777966772714670e-01,1.000000000000000048e-04,4.233886299420882438e+01,1.700000000000000122e-01
2.099931574000000190e+00,-1.082223048999999993e+00,1.878323285726568592e-01,1.000000000000000048e-04,3.987727003729909114e+01,1.100000000000000006e-01
8.155488279999999479e-01,-4.642700679999999802e-01,2.914217195362429624e-01,1.000000000000000048e-04,4.105961706688968604e+01,2.099999999999999922e-01
9.861636230000000447e-01,-6.881834650000000497e-01,1.300206602319562421e-01,1.000000000000000048e-04,3.896558310957067306e+01,1.300000000000000044e-01
1.864254864999999928e+00,-1.086684659999999969e+00,1.872010015450087383e-01,1.000000000000000048e-04,3.992447685123319445e+01,1.199999999999999956e-01
2.873066016000000111e+00,-9.753574739999999466e-01,6.153696647024307076e-01,1.000000000000000048e-04,4.280497121110065706e+01,1.300000000000000044e-01
2.270287562000000037e+00,-1.085086717999999895e+00,4.943561358679480211e-01,1.000000000000000048e-04,4.210500097531230068e+01,1.799999999999999933e-01
8.268071609999999572e-01,-4.587794940000000099e-01,9.375401125572320193e-01,1.000000000000000048e-04,4.406363459568408558e+01,1.199999999999999956e-01
-3.050869045179586347e+00,-7.648855789999999821e-01,3.682575456390579927e-01,1.000000000000000048e-04,4.186139128559991462e+01,1.199999999999999956e-01
1.101963728999999947e+00,-7.466317359999999903e-01,3.564542127410899042e-01,1.000000000000000048e-04,4.152794850263100557e+01,1.900000000000000022e-01
1.745116724000000064e+00,-1.056563783000000090e+00,2.084984510969958293e-01,1.000000000000000048e-04,4.010042070077378185e+01,1.300000000000000044e-01
7.889769570000000343e-01,-3.846565690000000037e-01,4.360031598794806840e-01,1.000000000000000048e-04,4.210720618513691704e+01,1.499999999999999944e-01
1.385818830999999918e+00,-9.278259679999999454e-01,6.493571316661166382e-01,1.000000000000000048e-04,4.324084660936495794e+01,1.499999999999999944e-01
1.138484923000000038e+00,-8.197145099999999518e-01,5.053837532654108511e-01,1.000000000000000048e-04,4.209081025555399691e+01,1.400000000000000133e-01
1.783410439000000069e+00,-1.080958507999999929e+00,2.827728278899168668e-01,1.000000000000000048e-04,4.078255916124184921e+01,1.400000000000000133e-01
2.617653461000000181e+00,-1.025884226000000066e+00,1.570439034125765687e-01,1.000000000000000048e-04,3.957749350690937717e+01,1.199999999999999956e-01
8.270197009999999960e-01,-4.157453939999999903e-01,1.008440886084713828e+00,1.000000000000000048e-04,4.401272351755278578e+01,1.199999999999999956e-01
3.128792493000000174e+00,-8.522697870000000009e-01,1.636958262021519506e-01,1.000000000000000048e-04,3.949164945739018151e+01,1.100000000000000006e-01
1.366158207000000013e+00,-9.614226009999999878e-01,6.249395089486118327e-01,1.000000000000000048e-04,4.278560236704046105e+01,1.100000000000000006e-01
2.846286316000000038e+00,-9.688357899999999745e-01,3.710521297498075022e-01,1.000000000000000048e-04,4.135106762903611610e+01,1.400000000000000133e-01
9.208216280000000031e-01,-6.185352929999999860e-01,2.779452945914302475e-01,1.000000000000000048e-04,4.087982515700495867e+01,1.499999999999999944e-01
7.622987450000000553e-01,-3.411912120000000215e-01,6.549827275979487329e-01,1.000000000000000048e-04,4.297191942630522732e+01,1.199999999999999956e-01
9.277931750000000255e-01,-5.813990460000000304e-01,6.951255140506313879e-01,1.000000000000000048e-04,4.335422498413196735e+01,2.099999999999999922e-01
1.010173165000000095e+00,-6.808591280000000356e-01,5.424257651428372462e-01,1.000000000000000048e-04,4.250278585692355193e+01,1.300000000000000044e-01
1.661181446000000062e+00,-1.029160687999999935e+00,6.741113154756122050e-01,1.000000000000000048e-04,4.307188211716730564e+01,1.400000000000000133e-01
2.089878704000000198e+00,-1.077863170999999953e+00,3.586696001277236423e-01,1.000000000000000048e-04,4.157513188222907985e+01,1.199999999999999956e-01
9.321550429999999610e-01,-6.212176799999999943e-01,2.924643815614744735e-01,1.000000000000000048e-04,4.078478794526908757e+01,1.199999999999999956e-01
2.944595597000000176e+00,-9.127602249999999806e-01,5.721681695584408534e-01,1.000000000000000048e-04,4.250464075702331002e+01,1.100000000000000006e-01
1.288081913999999939e+00,-9.113959929999999598e-01,2.040039844620495924e-01,1.000000000000000048e-04,4.000510849465788965e+01,1.300000000000000044e-01
1.398731861999999992e+00,-9.625033109999999725e-01,3.253331984778682351e-01,1.000000000000000048e-04,4.092009446723040611e+01,1.199999999999999956e-01
1.714165549000000066e+00,-1.043104095999999981e+00,4.761582145029688018e-01,1.000000000000000048e-04,4.200998669940790364e+01,1.199999999999999956e-01
1.014018395999999989e+00,-6.788913789999999615e-01,3.176350706267947466e-01,1.000000000000000048e-04,4.110319363363775835e+01,1.300000000000000044e-01
8.887761809999999985e-01,-5.541821719999999729e-01,1.052105549727212264e+00,1.000000000000000048e-04,4.425268127166579291e+01,1.300000000000000044e-01
1.026278256999999972e+00,-6.961882160000000264e-01,6.632041365694247848e-01,1.000000000000000048e-04,4.300067850517272205e+01,1.199999999999999956e-01
1.824970581999999952e+00,-1.080428363000000003e+00,7.532767087861762523e-01,1.000000000000000048e-04,4.343778665099890191e+01,1.199999999999999956e-01
1.839979185000000017e+00,-1.082878103999999952e+00,1.911917122558681736e-01,1.000000000000000048e-04,3.982834458651988996e+01,1.300000000000000044e-01
-3.070118813179586237e+00,-7.641942569999999879e-01,1.309714996921322872e-01,1.000000000000000048e-04,3.903928457237538652e+01,1.199999999999999956e-01
2.250776613000000204e+00,-1.110438553999999911e+00,6.462247226307575865e-01,1.000000000000000048e-04,4.284715957197435898e+01,1.199999999999999956e-01
2.613802471000000072e+00,-1.066258922999999914e+00,6.625116099839325479e-01,1.000000000000000048e-04,4.297774615894777384e+01,1.199999999999999956e-01
8.050150120000000298e-01,-4.193234060000000096e-01,1.547141225673716036e-01,1.000000000000000048e-04,3.924518628944315424e+01,1.499999999999999944e-01
2.809576177999999924e+00,-9.952447749999999704e-01,2.836023116677877098e-01,1.000000000000000048e-04,4.094349283792777783e+01,1.199999999999999956e-01
8.523447290000000232e-01,-4.773689010000000121e-01,2.144327280877851294e-01,1.000000000000000048e-04,3.980413053889834174e+01,2.000000000000000111e-01
2.975142320999999868e+00,-8.986192680000000266e-01,1.124458803821605457e+00,1.000000000000000048e-04,4.447730027299669331e+01,2.000000000000000111e-01
2.960578484000000010e+00,-9.174235720000000205e-01,3.737606643074402601e-01,1.000000000000000048e-04,4.138642012921772562e+01,1.400000000000000133e-01
1.589239559999999996e+00,-1.046132274999999945e+00,6.260289150052888996e-01,1.000000000000000048e-04,4.301833061260419555e+01,1.199999999999999956e-01
1.095136271999999966e+00,-7.909478989999999543e-01,1.476102351679233760e-01,1.000000000000000048e-04,3.922244180637569144e+01,1.300000000000000044e-01
3.045277111999999953e+00,-8.831592660000000539e-01,1.203960341434779924e-01,1.000000000000000048e-04,3.871876090594226127e+01,1.799999999999999933e-01
3.011317304999999944e+00,-8.969173430000000335e-01,2.023549433232196826e-01,1.000000000000000048e-04,3.999940053282778507e+01,1.499999999999999944e-01
1.946036051000000100e+00,-1.101857058000000000e+00,3.931815395040854089e-01,1.000000000000000048e-04,4.168872305861766847e+01,1.100000000000000006e-01
9.659444579999999503e-01,-6.400164339999999674e-01,2.218118817278014188e-01,1.000000000000000048e-04,4.039645241382203977e+01,1.199999999999999956e-01
1.142944595999999979e+00,-8.229314749999999679e-01,2.517939440854322086e-01,1.000000000000000048e-04,4.077896365101108245e+01,1.499999999999999944e-01
1.336859599999999926e+00,-9.462661719999999610e-01,2.592582266440011107e-01,1.000000000000000048e-04,4.095003017882214635e+01,1.900000000000000022e-01
2.386695267999999981e+00,-1.099692616000000012e+00,5.756015688809845710e-01,1.000000000000000048e-04,4.264959385280607052e+01,1.799999999999999933e-01
1.122946417999999946e+00,-7.871106610000000448e-01,2.772652317673856004e-01,1.000000000000000048e-04,4.072256589143416505e+01,1.499999999999999944e-01
1.038511049000000019e+00,-6.836743480000000428e-01,1.046648359719974497e+00,1.000000000000000048e-04,4.418311980125583460e+01,1.499999999999999944e-01
-1.865548755179585960e+00,5.988235499999999822e-01,1.028450312233675223e+00,1.000000000000000048e-04,4.414847124992926553e+01,3.599999999999999867e-01
-1.208774007179585830e+00,1.086301519000000049e+00,3.929214026730727394e-01,1.000000000000000048e-04,4.187534590308056437e+01,3.900000000000000133e-01
-1.451351928179586359e+00,1.047303024999999943e+00,1.496040051493015000e-01,1.000000000000000048e-04,3.937990491779326874e+01,3.900000000000000133e-01
-1.863787002179586594e+00,5.986409590000000280e-01,1.367065746882791810e-01,1.000000000000000048e-04,3.890389111570893022e+01,3.099999999999999978e-01
-2.367107747179586053e+00,3.570653329999999848e-01,2.855126054571834882e-01,1.000000000000000048e-04,4.078267783743147135e+01,3.300000000000000155e-01
3.110012692999999828e+00,-8.816387980000000013e-01,8.589500989352225613e-01,1.000000000000000048e-04,4.438804541890231548e+01,4.000000000000000222e-01
1.208427087000000011e+00,6.391205479999999550e-01,4.770351597564124191e-01,1.000000000000000048e-04,4.196971419263353908e+01,3.200000000000000067e-01
2.195568135999999893e+00,9.530612539999999688e-01,1.337858093890087474e-01,1.000000000000000048e-04,3.856222016320379709e+01,3.200000000000000067e-01
-1.746303855179585973e+00,7.561700099999999480e-01,9.039358067132376995e-01,1.000000000000000048e-04,4.330929140643583963e+01,3.599999999999999867e-01
-2.613733020179586308e+00,3.020363409999999860e-01,2.217032150169608862e-01,1.000000000000000048e-04,4.062194984510496454e+01,2.399999999999999911e-01
3.080075141000000016e+00,6.813462000000000129e-01,3.526625657446849083e-01,1.000000000000000048e-04,4.119900784967278895e+01,2.999999999999999889e-01
3.084152930000000126e+00,6.750201959999999612e-01,4.538651848446328962e-01,1.000000000000000048e-04,4.216907606472684478e+01,2.399999999999999911e-01
-2.831540824179586302e+00,-5.193198470000000011e-01,1.240885721007156217e+00,1.000000000000000048e-04,4.461671396139763601e+01,2.899999999999999800e-01
2.921667255000000019e+00,-9.403574120000000036e-01,6.558626422689832758e-01,1.000000000000000048e-04,4.306605690906778250e+01,2.899999999999999800e-01
2.610543199999999953e+00,9.294079060000000059e-01,5.689116116807246826e-01,1.000000000000000048e-04,4.243613844413653879e+01,2.899999999999999800e-01
2.614058957000000127e+00,9.310355519999999885e-01,1.599804683843466524e-01,1.000000000000000048e-04,3.969139059168418981e+01,3.699999999999999956e-01
-2.614313936179586406e+00,3.105085300000000048e-01,1.662521163908010635e-01,1.000000000000000048e-04,3.941341653647294407e+01,2.300000000000000100e-01
-2.614275993179586255e+00,3.084493819999999942e-01,1.561870413626149645e-01,1.000000000000000048e-04,3.936914023210376712e+01,2.000000000000000111e-01
3.080236718000000096e+00,6.852664600000000217e-01,5.685508099437499574e-01,1.000000000000000048e-04,4.233050046563910485e+01,3.800000000000000044e-01
3.085135451000000195e+00,6.840520260000000352e-01,1.512984437706932361e-01,1.000000000000000048e-04,3.928058580061276217e+01,2.300000000000000100e-01
-2.829361723179586452e+00,-5.190188390000000096e-01,4.014468885187529867e-01,1.000000000000000048e-04,4.161766373781136252e+01,3.900000000000000133e-01
-2.833706243179586082e+00,-5.260186759999999628e-01,2.358424143568724762e-01,1.000000000000000048e-04,4.043275676463012758e+01,2.200000000000000011e-01
1.286414458000000094e+00,-9.076167339999999806e-01,7.591200428801680999e-01,1.000000000000000048e-04,4.331795689440633623e+01,2.399999999999999911e-01
2.295144749999999956e+00,-1.095028292000000070e+00,1.694206925527699248e-01,1.000000000000000048e-04,3.947136272771234644e+01,2.000000000000000111e-01
2.312115046000000174e+00,-1.091482969000000081e+00,1.983405526770378735e-01,1.000000000000000048e-04,4.018183774046504908e+01,1.900000000000000022e-01
2.535381049000000164e+00,-1.063602453999999975e+00,4.042050278071021019e-01,1.000000000000000048e-04,4.173480638974020707e+01,2.600000000000000089e-01
2.549902755000000187e+00,-1.059649137999999935e+00,9.358588558208691399e-01,1.000000000000000048e-04,4.389231203825331562e+01,1.900000000000000022e-01
-2.980466121795863899e-01,1.081935794000000062e+00,1.637633896956471879e-01,1.000000000000000048e-04,3.951779436567915127e+01,1.000000000000000056e-01
-4.562223411795862660e-01,1.078420874000000085e+00,6.580136717152511583e-01,1.000000000000000048e-04,4.286653037287557311e+01,1.400000000000000133e-01
-4.727696341795866175e-01,1.076427226000000070e+00,1.218526389968173529e+00,1.000000000000000048e-04,4.443828714037024952e+01,1.900000000000000022e-01
-4.909850281795860028e-01,1.086050390999999893e+00,1.441523637584176676e-01,1.000000000000000048e-04,3.915943843505778688e+01,1.499999999999999944e-01
-1.809890014179586615e+00,8.554848849999999727e-01,2.315985765383876682e-01,1.000000000000000048e-04,3.993529446278407846e+01,1.900000000000000022e-01
-1.804843805179586091e+00,8.509932909999999850e-01,2.477672734797116139e-01,1.000000000000000048e-04,4.021570850866444147e+01,1.700000000000000122e-01
-1.798315402179586187e+00,8.389159160000000393e-01,7.580047648326597720e-01,1.000000000000000048e-04,4.338003232395388409e+01,1.100000000000000006e-01
-1.820018681179586650e+00,8.404092629999999620e-01,2.068219587176403085e-01,1.000000000000000048e-04,4.013152693286287587e+01,2.000000000000000111e-01
-2.435936564179586039e+00,3.767214549999999829e-01,2.048657002962539497e-01,1.000000000000000048e-04,4.018808803097174120e+01,1.700000000000000122e-01
-2.738532057179586143e+00,-4.670391260000000266e-01,3.875930980518922375e-01,1.000000000000000048e-04,4.163577498325355464e+01,1.100000000000000006e-01
-2.750126147179586145e+00,-4.750163370000000107e-01,3.921326523473929182e-01,1.000000000000000048e-04,4.179803315035493938e+01,1.700000000000000122e-01
6.777063359999999648e-01,-9.284162910000000046e-01,6.166527208321370690e-01,1.000000000000000048e-04,4.304270777201129050e+01,1.600000000000000033e-01
6.755664329999999662e-01,-9.242990760000000527e-01,4.617703980554892507e-01,1.000000000000000048e-04,4.226538156381528921e+01,2.200000000000000011e-01
1.666277256000000095e+00,1.035703752000000089e+00,2.143457433576798632e-01,1.000000000000000048e-04,4.103127158768667471e+01,2.800000000000000266e-01
1.679531192000000006e+00,1.034147155999999956e+00,3.340012718490392718e-01,1.000000000000000048e-04,4.115605308996398293e+01,2.099999999999999922e-01
1.669961188000000041e+00,1.045784459000000055e+00,4.212901242829614201e-01,1.000000000000000048e-04,4.209417205393366856e+01,2.899999999999999800e-01
1.666612017000000057e+00,1.035903760999999923e+00,6.195274378596753451e-01,1.000000000000000048e-04,4.283079326012001786e+01,1.400000000000000133e-01
1.676630470000000095e+00,1.049302589999999924e+00,8.694977291796197605e-01,1.000000000000000048e-04,4.382523126641684996e+01,1.600000000000000033e-01
1.678871634000000057e+00,1.037439988999999896e+00,4.148773334101247823e-01,1.000000000000000048e-04,4.154975428808580773e+01,2.099999999999999922e-01
-2.159653925179585876e+00,7.341517600000000421e-01,1.194850729874699091e-01,1.000000000000000048e-04,3.889171265645710918e+01,2.600000000000000089e-01
-2.155609593179586447e+00,7.327229189999999726e-01,1.293082652621387219e+00,1.000000000000000048e-04,4.483652951082029858e+01,1.400000000000000133e-01
2.989279821999999864e+00,-1.014333855000000062e+00,1.372197534774868277e-01,1.000000000000000048e-04,3.885437088637669234e+01,1.600000000000000033e-01
6.962963009999999509e-01,-9.242906640000000396e-01,6.782159781518308783e-01,1.000000000000000048e-04,4.286005098259470003e+01,2.000000000000000111e-01
6.831622830000000368e-01,-9.295060950000000322e-01,1.730100216154502046e-01,1.000000000000000048e-04,3.943027489041831757e+01,2.099999999999999922e-01
6.813526220000000189e-01,-9.196739680000000083e-01,6.412225582374297961e-01,1.000000000000000048e-04,4.312744063906468739e+01,1.700000000000000122e-01
1.667475545999999920e+00,1.039138789999999979e+00,1.641633442337997462e-01,1.000000000000000048e-04,3.955722546461439038e+01,1.499999999999999944e-01
1.669072946000000002e+00,1.039627206000000026e+00,1.112002137312022576e+00,1.000000000000000048e-04,4.444302139393029449e+01,1.700000000000000122e-01
2.992464221000000091e+00,-1.009427984000000000e+00,7.927635158056676179e-01,1.000000000000000048e-04,4.358747607940459545e+01,1.400000000000000133e-01
3.013377762000000182e+00,-1.015725085999999999e+00,3.790932909515116744e-01,1.000000000000000048e-04,4.160524922286143124e+01,1.499999999999999944e-01
6.857830799999999893e-01,-9.290922369999999875e-01,1.946571509928178845e-01,1.000000000000000048e-04,3.986783425272329850e+01,3.400000000000000244e-01
6.874880420000000214e-01,-9.251381180000000093e-01,6.138208469571175829e-01,1.000000000000000048e-04,4.292882400095500373e+01,1.700000000000000122e-01
1.659686511000000086e+00,1.040101345999999927e+00,5.412375977762637902e-01,1.000000000000000048e-04,4.269130172212143748e+01,1.400000000000000133e-01
1.692629780999999944e+00,1.043637506000000048e+00,3.949878350346227585e-01,1.000000000000000048e-04,4.197206960156786693e+01,1.799999999999999933e-01
1.682450028999999958e+00,1.049226146999999942e+00,1.948753645737151263e-01,1.000000000000000048e-04,3.986849789273139066e+01,1.900000000000000022e-01
1.675255906999999933e+00,1.048468626000000015e+00,9.580098357449253754e-01,1.000000000000000048e-04,4.374978290382861701e+01,1.499999999999999944e-01
1.692145135000000078e+00,1.039981480000000014e+00,2.276222872101432149e-01,1.000000000000000048e-04,4.053539802202610787e+01,1.700000000000000122e-01
-2.139768073179586061e+00,7.360294179999999908e-01,6.566297130988434372e-01,1.000000000000000048e-04,4.296196645931244973e+01,1.600000000000000033e-01
-2.138731675179585956e+00,7.369836659999999817e-01,2.574079417069705666e-01,1.000000000000000048e-04,4.060816710133825325e+01,1.499999999999999944e-01
6.888283630000000546e-01,-9.193630990000000169e-01,2.445122967037300921e-01,1.000000000000000048e-04,4.045474034479600078e+01,1.700000000000000122e-01
6.776433490000000059e-01,-9.225326109999999469e-01,9.473431272150441007e-01,1.000000000000000048e-04,4.397183404992966871e+01,1.600000000000000033e-01
6.820513620000000499e-01,-9.162569579999999547e-01,5.754306058151197334e-01,1.000000000000000048e-04,4.277759580112763160e+01,2.899999999999999800e-01
6.832637360000000104e-01,-9.208365670000000502e-01,2.491899382558269149e-01,1.000000000000000048e-04,4.044104038491855846e+01,1.400000000000000133e-01
1.683256381999999940e+00,1.050427892999999946e+00,1.572550080590537913e-01,1.000000000000000048e-04,3.921679146543334582e+01,1.499999999999999944e-01
2.987248335999999949e+00,-1.011507587000000097e+00,6.875393280148665021e-01,1.000000000000000048e-04,4.352878877840579008e+01,1.900000000000000022e-01
2.994879214000000012e+00,-1.020537374999999969e+00,5.615054205804914655e-01,1.000000000000000048e-04,4.257705307613425560e+01,2.500000000000000000e-01
2.997056848999999801e+00,-1.020797841000000039e+00,2.375641260885754669e-01,1.000000000000000048e-04,4.066425247050968039e+01,1.499999999999999944e-01
6.981827720000000070e-01,-9.201470600000000166e-01,4.121223537373770451e-01,1.000000000000000048e-04,4.168353878359185671e+01,2.099999999999999922e-01
1.675679171999999939e+00,1.042232051000000048e+00,2.220935180565104528e-01,1.000000000000000048e-04,4.035278866769448314e+01,1.900000000000000022e-01
1.682732345000000018e+00,1.051774148000000020e+00,4.149951247256449260e-01,1.000000000000000048e-04,4.186045615147707366e+01,2.099999999999999922e-01
1.655763980999999996e+00,1.041789395999999979e+00,1.088692993959358812e+00,1.000000000000000048e-04,4.451270124889625635e+01,2.099999999999999922e-01
1.658505131999999938e+00,1.042043577999999915e+00,2.929854522529220517e-01,1.000000000000000048e-04,4.092567713316427813e+01,1.499999999999999944e-01
1.679931540999999973e+00,1.044700675999999939e+00,2.926715435507623031e-01,1.000000000000000048e-04,4.073975172111256882e+01,1.400000000000000133e-01
1.681131209999999987e+00,1.046558263000000100e+00,2.139338178019629666e-01,1.000000000000000048e-04,4.019954512060643026e+01,3.800000000000000044e-01
-2.147380102179586636e+00,7.248191320000000326e-01,2.215636806353666888e-01,1.000000000000000048e-04,3.972077665223099530e+01,2.200000000000000011e-01
-2.137481690179586558e+00,7.386978770000000027e-01,4.490486047924118207e-01,1.000000000000000048e-04,4.214633512380393654e+01,1.499999999999999944e-01
3.007533192999999994e+00,-1.006434849999999992e+00,1.263533256491803591e+00,1.000000000000000048e-04,4.483765974819936417e+01,1.700000000000000122e-01
6.766177190000000063e-01,-9.309161569999999664e-01,1.947794378461380482e-01,1.000000000000000048e-04,3.992197166568407596e+01,1.700000000000000122e-01
6.879719020000000240e-01,-9.170357009999999809e-01,4.898593025971313963e-01,1.000000000000000048e-04,4.207999248866626374e+01,2.600000000000000089e-01
6.868192690000000100e-01,-9.190749710000000183e-01,1.247735361502905871e+00,1.000000000000000048e-04,4.482912874407069381e+01,2.800000000000000266e-01
1.680927606000000019e+00,1.043199457999999913e+00,2.674327364056190426e-01,1.000000000000000048e-04,4.044924061051889908e+01,1.799999999999999933e-01
1.680733408999999901e+00,1.046110547000000057e+00,2.520864985233286504e-01,1.000000000000000048e-04,4.037915193724013818e+01,1.499999999999999944e-01
3.003205794999999956e+00,-1.007960921000000010e+00,3.497723799553482671e-01,1.000000000000000048e-04,4.186116359562613809e+01,2.200000000000000011e-01
3.013387552999999830e+00,-1.018013843000000085e+00,4.631774890467132977e-01,1.000000000000000048e-04,4.203045533155013658e+01,2.000000000000000111e-01
2.991633154000000072e+00,-1.018575491000000000e+00,1.382686313232670550e-01,1.000000000000000048e-04,3.922684025513543560e+01,1.600000000000000033e-01
6.810583510000000063e-01,-9.216344210000000370e-01,2.594741478206832319e-01,1.000000000000000048e-04,4.046839185028327535e+01,1.600000000000000033e-01
1.670069762000000013e+00,1.048284639000000018e+00,3.201050551507091946e-01,1.000000000000000048e-04,4.092531764105567760e+01,2.099999999999999922e-01
1.699713636000000028e+00,1.040243690999999915e+00,3.492640589686666353e-01,1.000000000000000048e-04,4.180183301964537179e+01,2.899999999999999800e-01
1.686195045999999920e+00,1.048540513999999924e+00,3.472990441301473385e-01,1.000000000000000048e-04,4.130858331926388871e+01,1.400000000000000133e-01
1.667162669999999958e+00,1.044746053999999980e+00,2.440021678509873837e-01,1.000000000000000048e-04,4.012887652748781164e+01,2.700000000000000178e-01
1.689467040999999892e+00,1.036330184999999959e+00,5.637334267620079942e-01,1.000000000000000048e-04,4.254419951481816753e+01,1.300000000000000044e-01
1.683799076999999977e+00,1.043385784000000038e+00,3.201746400251472835e-01,1.000000000000000048e-04,4.125824811626463884e+01,1.700000000000000122e-01
-2.151455832179586025e+00,7.398983139999999459e-01,8.915667205501807135e-01,1.000000000000000048e-04,4.373099321110524329e+01,2.500000000000000000e-01
-2.141944958179585967e+00,7.302793560000000461e-01,4.939291583423923715e-01,1.000000000000000048e-04,4.225386373854464495e+01,1.400000000000000133e-01
3.012489310999999947e+00,-1.019874449000000016e+00,2.171529731009944619e-01,1.000000000000000048e-04,4.021367562466616619e+01,1.900000000000000022e-01
6.824463880000000149e-01,-9.193269539999999740e-01,4.746586374777415074e-01,1.000000000000000048e-04,4.233963910694042454e+01,1.600000000000000033e-01
6.933168330000000212e-01,-9.307474239999999899e-01,7.028453869434423407e-01,1.000000000000000048e-04,4.310036079225962169e+01,1.600000000000000033e-01
7.005346909999999871e-01,-9.247541049999999929e-01,3.172557613272706245e-01,1.000000000000000048e-04,4.135367000090916889e+01,2.700000000000000178e-01
1.674988617999999985e+00,1.042237757999999959e+00,1.886962446788420511e-01,1.000000000000000048e-04,3.973214861669863041e+01,1.499999999999999944e-01
1.672026148000000045e+00,1.039374368000000048e+00,1.393587004782188554e-01,1.000000000000000048e-04,3.895569343570602427e+01,1.600000000000000033e-01
2.993618983999999816e+00,-1.008517228000000099e+00,4.040313991969015639e-01,1.000000000000000048e-04,4.152722710116788818e+01,1.700000000000000122e-01
2.992837709999999873e+00,-1.014889098000000045e+00,7.103964298218903295e-01,1.000000000000000048e-04,4.345078933945014654e+01,2.800000000000000266e-01
2.980621672999999916e+00,-1.012535224000000067e+00,5.051520768953372542e-01,1.000000000000000048e-04,4.229974455433909952e+01,1.499999999999999944e-01
3.118379398000000080e+00,-1.044341935000000055e+00,1.269929547386351221e+00,1.000000000000000048e-04,4.509917115026478029e+01,3.099999999999999978e-01
3.132904315000000217e+00,-1.046896950999999909e+00,3.893250192169148693e-01,1.000000000000000048e-04,4.204458502073290305e+01,2.200000000000000011e-01
1.248659997999999938e+00,-1.117162079000000086e+00,2.115131000168228859e-01,1.000000000000000048e-04,4.014898207550243114e+01,2.700000000000000178e-01
2.302446713000000145e+00,-1.091359299000000060e+00,2.245175145017499485e-01,1.000000000000000048e-04,4.025766550113706188e+01,2.899999999999999800e-01
3.133486173000000097e+00,-1.061461677999999909e+00,1.137960782725368603e+00,1.000000000000000048e-04,4.489137462400097434e+01,3.099999999999999978e-01
1.251013366000000016e+00,-1.102704651999999896e+00,2.264167383903481490e-01,1.000000000000000048e-04,4.001253822061182319e+01,2.300000000000000100e-01
1.232341668999999973e+00,-1.105349812000000043e+00,1.259961520937301405e+00,1.000000000000000048e-04,4.490118567755161649e+01,2.200000000000000011e-01
2.330538756999999794e+00,-1.086213730999999960e+00,2.450668515475979969e-01,1.000000000000000048e-04,4.082457183995483518e+01,2.300000000000000100e-01
3.104372880000000112e+00,-1.050765708999999992e+00,3.751033613549121792e-01,1.000000000000000048e-04,4.115384110366291281e+01,2.200000000000000011e-01
3.122794933000000217e+00,-1.050942575000000101e+00,3.314304889425168099e-01,1.000000000000000048e-04,4.126509046725352192e+01,2.099999999999999922e-01
3.135928428000000157e+00,-1.044986675000000087e+00,6.867339962363778749e-01,1.000000000000000048e-04,4.301311399476816177e+01,2.300000000000000100e-01
3.135701593999999925e+00,-1.049448040999999998e+00,2.989022195748014532e-01,1.000000000000000048e-04,4.114929206698714381e+01,2.399999999999999911e-01
2.902190216000000156e+00,-1.054666754000000095e+00,2.624910424339075288e-01,1.000000000000000048e-04,4.044608348482372406e+01,2.099999999999999922e-01
1.219278212000000083e+00,-1.102494101000000004e+00,4.578279573946324454e-01,1.000000000000000048e-04,4.191191027295815275e+01,2.399999999999999911e-01
2.314258420999999899e+00,-1.073777474999999981e+00,9.584600923209027901e-01,1.000000000000000048e-04,4.417650252190152571e+01,2.399999999999999911e-01
3.138600745000000192e+00,-1.056209613999999908e+00,5.195430915593832744e-01,1.000000000000000048e-04,4.180089417762560089e+01,2.800000000000000266e-01
2.873014373000000177e+00,-1.047336534999999902e+00,5.009897123797073526e-01,1.000000000000000048e-04,4.196211045158135988e+01,2.000000000000000111e-01
2.890150627000000139e+00,-1.045368942999999939e+00,7.439756990836319250e-01,1.000000000000000048e-04,4.338958373955171055e+01,2.200000000000000011e-01
-3.136513490179586139e+00,-1.038988312000000080e+00,8.549571201944192733e-01,1.000000000000000048e-04,4.330301291618413728e+01,2.800000000000000266e-01
3.120369102000000172e+00,-1.042910143999999928e+00,9.118288661402917938e-01,1.000000000000000048e-04,4.364264218769684334e+01,2.399999999999999911e-01
3.132773262000000170e+00,-1.048570620000000009e+00,1.409675948224271558e-01,1.000000000000000048e-04,3.889563510887279563e+01,2.300000000000000100e-01
3.132934141999999866e+00,-1.046888051000000042e+00,2.702468122206973522e-01,1.000000000000000048e-04,4.044368596194613730e+01,2.200000000000000011e-01
3.134455274000000014e+00,-1.046257098000000108e+00,2.071944865857766604e-01,1.000000000000000048e-04,4.013894460343036030e+01,2.200000000000000011e-01
2.910504301000000016e+00,-1.063930792999999930e+00,2.542415416592571642e-01,1.000000000000000048e-04,4.070565604672077598e+01,2.399999999999999911e-01
2.301930878999999930e+00,-1.084305269999999988e+00,7.862795344651316576e-01,1.000000000000000048e-04,4.421451774869306206e+01,3.099999999999999978e-01
2.314913878000000036e+00,-1.104421796000000011e+00,1.660890109348747146e-01,1.000000000000000048e-04,3.942785340289997720e+01,2.600000000000000089e-01
1.232494258000000009e+00,-1.089556776000000005e+00,3.858267532197972027e-01,1.000000000000000048e-04,4.129242645722754190e+01,3.099999999999999978e-01
-3.138875270179586341e+00,-1.027091259999999950e+00,4.349838520895035199e-01,1.000000000000000048e-04,4.171893652442214773e+01,3.800000000000000044e-01
1.277748142000000087e+00,-1.105660628999999950e+00,2.248289480750227387e-01,1.000000000000000048e-04,4.033162823474498992e+01,2.500000000000000000e-01
2.339694710999999927e+00,-1.083680948999999893e+00,1.679450600872922639e-01,1.000000000000000048e-04,3.976837225155669842e+01,2.300000000000000100e-01
3.085408954000000037e+00,-1.045989441999999991e+00,3.260807290607590225e-01,1.000000000000000048e-04,4.105335678545634437e+01,2.800000000000000266e-01
3.122183823999999941e+00,-1.053540683000000033e+00,2.273149048969385078e-01,1.000000000000000048e-04,4.068399949243914193e+01,3.699999999999999956e-01
1.263417701000000060e+00,-1.099941301000000093e+00,6.282066674629920300e-01,1.000000000000000048e-04,4.319293380677716954e+01,2.200000000000000011e-01
1.238769020999999970e+00,-1.122513239999999968e+00,1.194371704976109339e-01,1.000000000000000048e-04,3.879885798966783028e+01,2.600000000000000089e-01
1.225778744000000087e+00,-1.107856694000000086e+00,3.189026314291072417e-01,1.000000000000000048e-04,4.108903077239980206e+01,2.500000000000000000e-01
2.356185176999999964e+00,-1.090954028000000076e+00,9.365283208163341921e-01,1.000000000000000048e-04,4.372599116229947214e+01,2.700000000000000178e-01
1.231078855000000027e+00,-1.109460918999999990e+00,2.035783237039197058e-01,1.000000000000000048e-04,3.995617183901230618e+01,2.300000000000000100e-01
2.350025410999999842e+00,-1.078254897999999962e+00,5.693025327594332108e-01,1.000000000000000048e-04,4.256180694320005387e+01,2.300000000000000100e-01
2.889344674999999807e+00,-1.054064458000000037e+00,3.334751517562279943e-01,1.000000000000000048e-04,4.103689929947112347e+01,3.200000000000000067e-01
1.260972444000000081e+00,-1.102168519999999985e+00,1.322733578491814832e-01,1.000000000000000048e-04,3.902771485585724065e+01,2.899999999999999800e-01
3.138597202000000141e+00,-1.049455424000000026e+00,9.632578702448930663e-01,1.000000000000000048e-04,4.387074062327046420e+01,2.600000000000000089e-01
1.280173519000000093e+00,-1.106045986000000036e+00,5.212339494037487864e-01,1.000000000000000048e-04,4.219786585660893508e+01,2.899999999999999800e-01
3.140421104000000074e+00,-1.048273016000000002e+00,2.387101108178935061e-01,1.000000000000000048e-04,4.027608347613171702e+01,2.700000000000000178e-01
2.887571490000000018e+00,-1.060290981000000077e+00,1.538385698645938771e-01,1.000000000000000048e-04,3.908660503342257897e+01,2.300000000000000100e-01
3.117377486000000086e+00,-1.048849812999999909e+00,5.224469899058636901e-01,1.000000000000000048e-04,4.279232196415328104e+01,2.800000000000000266e-01
3.139331405000000075e+00,-1.045946368000000071e+00,9.687498876255502545e-01,1.000000000000000048e-04,4.418369420360014033e+01,2.300000000000000100e-01
2.901812189000000153e+00,-1.070407117000000019e+00,6.359911091290240126e-01,1.000000000000000048e-04,4.288663739412494635e+01,2.200000000000000011e-01
2.874698792999999863e+00,-1.069280417999999955e+00,6.323535568258746853e-01,1.000000000000000048e-04,4.295659203890571831e+01,2.200000000000000011e-01
3.126790450000000110e+00,-1.053686536000000062e+00,4.237699835079915545e-01,1.000000000000000048e-04,4.201743983280709926e+01,2.099999999999999922e-01
1.253234667999999941e+00,-1.096167120000000050e+00,1.409024585378573224e-01,1.000000000000000048e-04,3.922777899358197828e+01,2.200000000000000011e-01
1.242189800000000011e+00,-1.095888138000000067e+00,3.083951835079712378e-01,1.000000000000000048e-04,4.151518278135667828e+01,2.899999999999999800e-01
2.358704259000000025e+00,-1.096119858000000002e+00,5.246599588937934655e-01,1.000000000000000048e-04,4.237431405243107463e+01,2.099999999999999922e-01
3.090657074000000115e+00,-1.046905049999999893e+00,4.917325522867370680e-01,1.000000000000000048e-04,4.175599081089963249e+01,2.300000000000000100e-01
2.350320292999999783e+00,-1.077642637000000070e+00,4.061215947923944025e-01,1.000000000000000048e-04,4.156783677753760742e+01,3.300000000000000155e-01
3.120911620999999858e+00,-1.047605429999999949e+00,5.578347955552196424e-01,1.000000000000000048e-04,4.292972947330550681e+01,2.899999999999999800e-01
2.310418793000000193e+00,-1.091478047999999923e+00,5.695071653835983572e-01,1.000000000000000048e-04,4.288938062506512949e+01,3.300000000000000155e-01
2.888242410000000149e+00,-1.055260810999999910e+00,4.435955033228244915e-01,1.000000000000000048e-04,4.159116595566358399e+01,2.999999999999999889e-01
2.313880778000000138e+00,-1.089056457000000089e+00,5.157992579849277615e-01,1.000000000000000048e-04,4.210315814578440552e+01,2.600000000000000089e-01
3.096505394999999883e+00,-1.050897790999999915e+00,8.986393238432506259e-01,1.000000000000000048e-04,4.400748999998521782e+01,3.300000000000000155e-01
1.264206060000000020e+00,-1.108314516000000083e+00,1.390181035659496800e-01,1.000000000000000048e-04,3.919300673920012912e+01,2.500000000000000000e-01
2.317080779999999951e+00,-1.080569537999999996e+00,3.229274821962995201e-01,1.000000000000000048e-04,4.116930902012514792e+01,2.399999999999999911e-01
2.308161032000000112e+00,-1.080284865999999955e+00,2.246631513972596750e-01,1.000000000000000048e-04,4.073352887033368575e+01,3.900000000000000133e-01
1.213089824000000094e+00,-1.095999417000000031e+00,4.000819693562165380e-01,1.000000000000000048e-04,4.141032853888935961e+01,2.700000000000000178e-01
3.095344697999999894e+00,-1.044259242999999948e+00,2.763754849433064376e-01,1.000000000000000048e-04,4.063291961812364406e+01,2.200000000000000011e-01
3.093500166000000107e+00,-1.047656949999999920e+00,4.639829701934439221e-01,1.000000000000000048e-04,4.197997623505207088e+01,2.300000000000000100e-01
2.871266652000000086e+00,-1.064917746999999970e+00,3.729407107041797786e-01,1.000000000000000048e-04,4.177625653284040652e+01,2.500000000000000000e-01
2.872879009000000039e+00,-1.076645507999999918e+00,3.185716498068198455e-01,1.000000000000000048e-04,4.115718831654292842e+01,2.099999999999999922e-01
1.241294699000000001e+00,-1.109043570000000090e+00,6.181402800200026526e-01,1.000000000000000048e-04,4.262666013357225836e+01,2.099999999999999922e-01
1.238788393000000099e+00,-1.083197141000000085e+00,2.830915332306851440e-01,1.000000000000000048e-04,4.044824098317395311e+01,2.999999999999999889e-01
-3.140928712179586135e+00,-1.049943351000000025e+00,1.226699390252906419e+00,1.000000000000000048e-04,4.476745257671588263e+01,2.200000000000000011e-01
2.897074545000000168e+00,-1.050668165000000043e+00,5.047588020942224141e-01,1.000000000000000048e-04,4.248877611132539300e+01,2.099999999999999922e-01
3.133488720999999977e+00,-1.053899826000000095e+00,4.930105738028511819e-01,1.000000000000000048e-04,4.217263151164066670e+01,2.300000000000000100e-01
2.854965548000000020e+00,-1.051119023000000041e+00,2.762239569859339383e-01,1.000000000000000048e-04,4.042575700323532573e+01,3.200000000000000067e-01
2.846666281000000076e+00,-1.061494909000000098e+00,2.351545108613648516e-01,1.000000000000000048e-04,4.013302934923933663e+01,2.600000000000000089e-01
1.477625364000000108e+00,-9.892628350000000070e-01,4.150518382463836975e-01,1.000000000000000048e-04,4.151374142078418572e+01,2.000000000000000111e-01
-2.998301261179586064e+00,-5.567642400000000213e-01,2.267556042657465909e-01,1.000000000000000048e-04,4.022601010344035899e+01,1.799999999999999933e-01
2.915910107000000195e+00,-9.248875840000000403e-01,1.905077137912327689e-01,1.000000000000000048e-04,3.979587429747209626e+01,2.999999999999999889e-01
2.904218159000000021e+00,-9.279150130000000107e-01,3.667650617160802540e-01,1.000000000000000048e-04,4.204438207827739404e+01,2.399999999999999911e-01
2.945746643000000109e+00,-9.241091030000000428e-01,6.080572232531995525e-01,1.000000000000000048e-04,4.261329250656367407e+01,2.300000000000000100e-01
2.195221751000000054e+00,9.567984520000000215e-01,1.501275527458996173e-01,1.000000000000000048e-04,3.907929619832616908e+01,2.200000000000000011e-01
-2.382074272179586227e+00,-9.504311730000000180e-01,2.738777865367481024e-01,1.000000000000000048e-04,4.025359944034228477e+01,2.300000000000000100e-01
2.197803225999999999e+00,9.560313849999999558e-01,5.654301118094220424e-01,1.000000000000000048e-04,4.248211214307494998e+01,2.300000000000000100e-01
-2.380846050179586282e+00,-9.512843520000000552e-01,7.308914387550524694e-01,1.000000000000000048e-04,4.333342095668236738e+01,2.600000000000000089e-01
-2.382960995179586039e+00,-9.501026420000000527e-01,3.636329609084600900e-01,1.000000000000000048e-04,4.136572888870892228e+01,2.099999999999999922e-01
2.192165822000000208e+00,9.554729659999999791e-01,3.108965630628608423e-01,1.000000000000000048e-04,4.137107594796799503e+01,2.899999999999999800e-01
-2.383512939179586176e+00,-9.505219620000000535e-01,3.921620658142839222e-01,1.000000000000000048e-04,4.134270884232108756e+01,2.000000000000000111e-01
2.197044292000000176e+00,9.582492320000000063e-01,9.376700107689222019e-01,1.000000000000000048e-04,4.383276170988440867e+01,2.500000000000000000e-01
2.198013217999999824e+00,9.570721989999999568e-01,4.267680747333308933e-01,1.000000000000000048e-04,4.202188766993814539e+01,2.099999999999999922e-01
2.198391541999999976e+00,9.561199929999999458e-01,2.425646824128577794e-01,1.000000000000000048e-04,4.102283950772523013e+01,2.300000000000000100e-01
2.199218732999999926e+00,9.570277640000000030e-01,7.568886838232566916e-01,1.000000000000000048e-04,4.334012203398814478e+01,2.200000000000000011e-01
2.196667974999999995e+00,9.569524729999999701e-01,1.344338790157784125e+00,1.000000000000000048e-04,4.484250381816060127e+01,2.399999999999999911e-01
2.196400267000000017e+00,9.571105250000000453e-01,6.420616333262136877e-01,1.000000000000000048e-04,4.353406452344012223e+01,2.500000000000000000e-01
2.195980999000000100e+00,9.563170869999999546e-01,8.261030990747471048e-01,1.000000000000000048e-04,4.345445433370294808e+01,2.200000000000000011e-01
2.198886345000000020e+00,9.574225640000000315e-01,2.892288778963503226e-01,1.000000000000000048e-04,4.101761382303423176e+01,3.300000000000000155e-01
-2.382942164179586264e+00,-9.487821469999999646e-01,1.242353984652337928e+00,1.000000000000000048e-04,4.469990439840362484e+01,2.000000000000000111e-01
2.197058621000000045e+00,9.568337070000000333e-01,5.787838503379452160e-01,1.000000000000000048e-04,4.277086523373495197e+01,2.600000000000000089e-01
2.196754174000000059e+00,9.569828230000000380e-01,7.920350762534755784e-01,1.000000000000000048e-04,4.316707868835914752e+01,2.399999999999999911e-01
-2.381905888179586039e+00,-9.494029419999999719e-01,2.471419335331674905e-01,1.000000000000000048e-04,4.049251159931397837e+01,2.399999999999999911e-01
-2.382353656179586388e+00,-9.501919130000000546e-01,1.344056471161725330e-01,1.000000000000000048e-04,3.871920235430088297e+01,2.600000000000000089e-01
-2.385313647179586383e+00,-9.492824659999999914e-01,5.943833971974183950e-01,1.000000000000000048e-04,4.241434505784359743e+01,2.399999999999999911e-01
-2.383308463179586223e+00,-9.502672559999999491e-01,3.479095684128989951e-01,1.000000000000000048e-04,4.108567301868554722e+01,2.000000000000000111e-01
2.194446376000000143e+00,9.548028840000000184e-01,1.979763183332605703e-01,1.000000000000000048e-04,4.009992138347259072e+01,3.699999999999999956e-01
-2.377678389179586294e+00,-9.493284189999999789e-01,4.635973777847386401e-01,1.000000000000000048e-04,4.245017827275778188e+01,3.099999999999999978e-01
2.195048706000000127e+00,9.553664520000000326e-01,1.204477482125102750e+00,1.000000000000000048e-04,4.471639515072353532e+01,2.399999999999999911e-01
2.194988459000000169e+00,9.569281090000000267e-01,2.200862754456829329e-01,1.000000000000000048e-04,4.064954053389841704e+01,2.099999999999999922e-01
2.198773670000000013e+00,9.585742720000000050e-01,6.550742370856732499e-01,1.000000000000000048e-04,4.336364161722282518e+01,2.800000000000000266e-01
2.196007632000000154e+00,9.574002940000000406e-01,1.977845835788654139e-01,1.000000000000000048e-04,3.992835084555242986e+01,2.800000000000000266e-01
2.193610842000000005e+00,9.569156829999999614e-01,2.778324357829895508e-01,1.000000000000000048e-04,4.057979562947981123e+01,2.099999999999999922e-01
2.194846306000000080e+00,9.574700699999999509e-01,5.121895371167712874e-01,1.000000000000000048e-04,4.218515260437317238e+01,2.300000000000000100e-01
-2.901318991795864832e-01,1.086903570000000041e+00,2.888746745966412899e-01,1.000000000000000048e-04,4.062111083683416979e+01,2.000000000000000111e-01
-2.914486071795865385e-01,1.085909494999999891e+00,1.582567290681458072e-01,1.000000000000000048e-04,3.931335456514197091e+01,1.000000000000000056e-01
-2.954610881795858290e-01,1.084462065999999947e+00,6.784303490884193710e-01,1.000000000000000048e-04,4.306378831087618408e+01,1.199999999999999956e-01
-3.403197011795864313e-01,1.090760651000000081e+00,2.211094040084866652e-01,1.000000000000000048e-04,4.024452215285404577e+01,8.999999999999999667e-02
-3.429455761795860980e-01,1.087892671000000089e+00,1.182340018910080115e+00,1.000000000000000048e-04,4.464897372959296717e+01,1.400000000000000133e-01
6.896152909999999636e-01,-9.249195220000000495e-01,2.957965942468501197e-01,1.000000000000000048e-04,4.095926720678559008e+01,2.000000000000000111e-01
1.024453132999999960e+00,1.182715689999999986e+00,2.514653792998458037e-01,1.000000000000000048e-04,4.029172462842403490e+01,1.900000000000000022e-01
1.006083177000000051e+00,1.165244638999999971e+00,2.072685178887005986e-01,1.000000000000000048e-04,4.000206748066349860e+01,1.700000000000000122e-01
9.905969959999999519e-01,1.153001898999999941e+00,1.494491536841717760e-01,1.000000000000000048e-04,3.951703784565960120e+01,3.499999999999999778e-01
2.950804928999999799e+00,-1.010655210999999998e+00,2.037061374414212978e-01,1.000000000000000048e-04,4.031163277646469822e+01,1.700000000000000122e-01
2.951637304000000128e+00,-1.010683065999999908e+00,6.712267995210381422e-01,1.000000000000000048e-04,4.301458674083436762e+01,1.900000000000000022e-01
-2.349248843179586377e+00,-9.322901449999999590e-01,1.472823660453081995e-01,1.000000000000000048e-04,3.935887464377535849e+01,1.900000000000000022e-01
