-1.598279621179586663e+00,2.779993629999999993e-01,9.749659018534952981e-01,1.000000000000000048e-04,4.377668791900259748e+01,1.700000000000000122e-01
-8.306753881795865269e-01,5.048130450000000158e-01,1.950617122446509644e-01,1.000000000000000048e-04,3.993599524852493943e+01,1.600000000000000033e-01
-1.512887194179586281e+00,3.571169940000000209e-01,2.639002912567516290e-01,1.000000000000000048e-04,4.068485074881829888e+01,1.600000000000000033e-01
-2.094054222179586588e+00,-9.657747650000000350e-01,9.035036251739156921e-01,1.000000000000000048e-04,4.386843407535292982e+01,1.600000000000000033e-01
-1.256550916179586252e+00,-1.037146153999999987e+00,3.274832098205964215e-01,1.000000000000000048e-04,4.120201510543700607e+01,1.900000000000000022e-01
-2.638489419179586015e+00,-8.917870300000000361e-01,1.228425195417675919e+00,1.000000000000000048e-04,4.497740222003573507e+01,1.600000000000000033e-01
3.095686500000000008e-02,-1.139960520999999893e+00,8.426756760786462408e-01,1.000000000000000048e-04,4.361638143872902162e+01,1.700000000000000122e-01
-4.765590681795863759e-01,-7.328014390000000544e-01,6.035109704740921899e-01,1.000000000000000048e-04,4.277140169127560654e+01,1.600000000000000033e-01
7.532392530000000530e-01,9.936355940000000109e-01,6.100495994666963462e-01,1.000000000000000048e-04,4.262799242269287703e+01,1.600000000000000033e-01
1.355624495999999901e+00,4.654212710000000253e-01,4.601928146492180183e-01,1.000000000000000048e-04,4.241455784646252880e+01,2.200000000000000011e-01
-2.027672372179586624e+00,-3.494576850000000179e-01,5.766219295441323833e-01,1.000000000000000048e-04,4.272055877886502628e+01,8.999999999999999667e-02
-2.243457714179585949e+00,5.735296930000000071e-01,8.506029055488479873e-01,1.000000000000000048e-04,4.367746287229796565e+01,8.000000000000000167e-02
-1.661352162179586145e+00,7.473004210000000480e-01,6.270682162201248744e-01,1.000000000000000048e-04,4.302988176147117372e+01,1.100000000000000006e-01
-1.046494641179585905e+00,9.839422859999999993e-01,1.917491812507436943e-01,1.000000000000000048e-04,3.975047768562095030e+01,1.600000000000000033e-01
-1.357076630179586019e+00,8.591991679999999576e-01,5.126942064710375835e-01,1.000000000000000048e-04,4.234192271539124164e+01,1.300000000000000044e-01
-1.489161381179585852e+00,8.733460579999999807e-01,8.220415792506030606e-01,1.000000000000000048e-04,4.363527055271106292e+01,8.999999999999999667e-02
2.602874990000000111e+00,9.865781270000000269e-01,5.170226036662639579e-01,1.000000000000000048e-04,4.234325209189705674e+01,2.099999999999999922e-01
2.011122450999999867e+00,-1.257182417000000108e+00,9.624239915036294502e-01,1.000000000000000048e-04,4.425808719231059030e+01,1.799999999999999933e-01
2.487812089999999809e+00,-1.095252646999999913e+00,2.807472024684742884e-01,1.000000000000000048e-04,4.093601309142981393e+01,1.600000000000000033e-01
-2.060955814179585843e+00,9.020563839999999889e-01,8.073071958108690716e-01,1.000000000000000048e-04,4.356065617668294010e+01,1.799999999999999933e-01
-1.552222439179586466e+00,1.270289940999999923e+00,2.524847297373145061e-01,1.000000000000000048e-04,4.060115266268248035e+01,1.600000000000000033e-01
-3.584264691795864266e-01,1.112498557000000110e+00,8.624816721211268078e-01,1.000000000000000048e-04,4.347584934591834127e+01,2.000000000000000111e-01
1.187793541000000008e+00,1.533334508000000040e+00,2.670752443344082128e-01,1.000000000000000048e-04,4.066964454908011817e+01,1.700000000000000122e-01
9.029304540000000490e-01,-5.888661819999999603e-01,8.847578862801233068e-01,1.000000000000000048e-04,4.379406889356231147e+01,1.700000000000000122e-01
2.675488564000000125e+00,-1.029758079000000048e+00,9.344439611533743584e-01,1.000000000000000048e-04,4.401206647035382957e+01,1.700000000000000122e-01
9.979371630000000160e-01,-7.076351440000000492e-01,2.719963290542866119e-01,1.000000000000000048e-04,4.091791016326680364e+01,2.000000000000000111e-01
-2.809922836179586270e+00,-1.219770695000000016e+00,6.974023749597355604e-01,1.000000000000000048e-04,4.304974374549303917e+01,1.900000000000000022e-01
1.945616433999999950e+00,5.533621010000000506e-01,9.963956791775721022e-01,1.000000000000000048e-04,4.395257761967029353e+01,1.700000000000000122e-01
1.369802210000000131e-01,9.686457469999999459e-01,4.790471367216329046e-01,1.000000000000000048e-04,4.202669821804215644e+01,1.000000000000000056e-01
2.377785852000000144e+00,-1.071983155000000076e+00,2.826609913999711399e-01,1.000000000000000048e-04,4.078067570295485922e+01,1.000000000000000056e-01
1.194530383000000029e+00,-8.514353350000000153e-01,5.877416089458524784e-01,1.000000000000000048e-04,4.275649140942894633e+01,1.100000000000000006e-01
2.328991532999999947e+00,-1.085498080000000032e+00,8.465084280072487921e-01,1.000000000000000048e-04,4.378860001188071038e+01,1.199999999999999956e-01
3.099662444999999877e+00,-8.173274409999999879e-01,2.365692027148560417e-01,1.000000000000000048e-04,4.051962733838319508e+01,1.300000000000000044e-01
1.008677688999999988e+00,-7.224949280000000362e-01,4.015849079067961291e-01,1.000000000000000048e-04,4.179138958002664594e+01,1.199999999999999956e-01
1.116317643999999998e+00,-8.188746820000000204e-01,2.984965224075526447e-01,1.000000000000000048e-04,4.089239722186573545e+01,1.499999999999999944e-01
1.368634144999999913e+00,-9.746537960000000167e-01,1.946336082488431263e-01,1.000000000000000048e-04,4.014305799898623661e+01,2.200000000000000011e-01
2.840707745000000006e+00,-9.874777999999999611e-01,2.704218463356129476e-01,1.000000000000000048e-04,4.057537470388865586e+01,1.199999999999999956e-01
1.164831654000000105e+00,-8.361433499999999519e-01,9.607190488464250056e-01,1.000000000000000048e-04,4.413813846377445316e+01,1.600000000000000033e-01
9.274529849999999520e-01,-5.648102149999999488e-01,1.249598406673595452e+00,1.000000000000000048e-04,4.441692809200356606e+01,2.200000000000000011e-01
1.803806121999999901e+00,-1.051757271000000049e+00,7.056253689480964653e-01,1.000000000000000048e-04,4.290042048119698137e+01,2.200000000000000011e-01
1.910407339000000038e+00,-1.096340147000000043e+00,1.063117779045206657e+00,1.000000000000000048e-04,4.451723458999010319e+01,1.300000000000000044e-01
-2.994395329179586174e+00,-6.874333790000000111e-01,3.452155415470237187e-01,1.000000000000000048e-04,4.147147931735886317e+01,1.600000000000000033e-01
2.004169926999999962e+00,-1.114377941999999955e+00,3.556367385316960839e-01,1.000000000000000048e-04,4.127587271019324078e+01,2.099999999999999922e-01
2.993884073999999895e+00,-9.067153500000000310e-01,1.238429375752795103e+00,1.000000000000000048e-04,4.485243937862390595e+01,2.000000000000000111e-01
2.896584697999999847e+00,-6.981149509999999836e-01,3.773613406471127973e-01,1.000000000000000048e-04,4.168705302280419289e+01,2.000000000000000111e-01
2.644964143999999795e+00,-1.038456438999999953e+00,1.941483741231408988e-01,1.000000000000000048e-04,3.976888044837667735e+01,2.500000000000000000e-01
1.395029569000000080e+00,-9.673563530000000021e-01,3.294604895967114810e-01,1.000000000000000048e-04,4.123369516289242398e+01,2.200000000000000011e-01
1.133893306999999906e+00,-8.234022290000000410e-01,1.498758555194321662e-01,1.000000000000000048e-04,3.934686885947542834e+01,1.199999999999999956e-01
9.542908199999999841e-01,-6.210129070000000029e-01,4.273907929842555298e-01,1.000000000000000048e-04,4.200128691877964826e+01,1.400000000000000133e-01
1.112357503999999997e+00,-7.717409769999999947e-01,4.258989164641926450e-01,1.000000000000000048e-04,4.188838219525354845e+01,1.400000000000000133e-01
1.392129267000000059e+00,-9.489503049999999940e-01,1.328474764593313484e+00,1.000000000000000048e-04,4.484350770283739251e+01,1.100000000000000006e-01
3.104633763999999907e+00,-8.563587980000000321e-01,1.967677424888161219e-01,1.000000000000000048e-04,3.989997895022764141e+01,1.199999999999999956e-01
-1.581672989179586430e+00,-6.726275419999999672e-01,4.353909373335396182e-01,1.000000000000000048e-04,4.173170017134199128e+01,2.000000000000000111e-01
8.758714749999999549e-01,-5.394949780000000139e-01,1.281560837623263449e-01,1.000000000000000048e-04,3.892276975906155201e+01,1.199999999999999956e-01
1.027821937999999991e+00,-6.897361509999999640e-01,4.196954994613253387e-01,1.000000000000000048e-04,4.203923445548311122e+01,1.499999999999999944e-01
8.011105990000000343e-01,-4.568120419999999737e-01,2.795146640748413791e-01,1.000000000000000048e-04,4.076209825273471665e+01,1.499999999999999944e-01
8.044453879999999835e-01,-4.591503659999999765e-01,7.411755427720738698e-01,1.000000000000000048e-04,4.336026420501156764e+01,1.100000000000000006e-01
8.290542589999999601e-01,-4.498624509999999965e-01,6.948455066953436177e-01,1.000000000000000048e-04,4.335326184832230467e+01,1.199999999999999956e-01
2.306908324000000121e+00,-1.093655438999999951e+00,1.295862690174108156e+00,1.000000000000000048e-04,4.464879759235719803e+01,1.300000000000000044e-01
-3.090495873179586184e+00,-7.974218849999999970e-01,1.442466182082831061e-01,1.000000000000000048e-04,3.935856182146709159e+01,1.300000000000000044e-01
2.850739061000000074e+00,-9.724982730000000242e-01,1.679726895087862992e-01,1.000000000000000048e-04,3.962363460383431857e+01,1.100000000000000006e-01
1.925211972000000049e+00,-1.067349442999999898e+00,1.684851541292879951e-01,1.000000000000000048e-04,3.984067345692005802e+01,1.600000000000000033e-01
3.010706126000000094e+00,-9.149326070000000088e-01,5.586987475693590000e-01,1.000000000000000048e-04,4.260294746391319620e+01,1.199999999999999956e-01
1.754869720000000077e+00,-1.052947148999999971e+00,6.990001898097633060e-01,1.000000000000000048e-04,4.305066827270972851e+01,1.300000000000000044e-01
3.028086770999999899e+00,-8.725603690000000023e-01,7.188310632066154948e-01,1.000000000000000048e-04,4.323821228770503211e+01,1.199999999999999956e-01
2.780301081000000174e+00,-1.010780400000000023e+00,8.492179435151081535e-01,1.000000000000000048e-04,4.371373289628218828e+01,1.700000000000000122e-01
3.096540631999999960e+00,-8.261897350000000362e-01,3.595441949689794914e-01,1.000000000000000048e-04,4.140814907959858715e+01,1.100000000000000006e-01
-3.043596368179586342e+00,-7.656326449999999451e-01,2.918672077196984294e-01,1.000000000000000048e-04,4.094253121414988783e+01,1.100000000000000006e-01
2.593403560000000052e+00,-1.068240442000000012e+00,7.285653208321432039e-01,1.000000000000000048e-04,4.311906592865610577e+01,1.199999999999999956e-01
1.277663320999999907e+00,-8.910532270000000032e-01,6.708070046839933465e-01,1.000000000000000048e-04,4.338446995142717100e+01,1.499999999999999944e-01
8.729576639999999665e-01,-5.017517409999999733e-01,6.545271181709977348e-01,1.000000000000000048e-04,4.276401208356736561e+01,1.199999999999999956e-01
2.323316692000000128e+00,-1.072994334000000105e+00,3.178305519942790092e-01,1.000000000000000048e-04,4.115281097855097414e+01,1.400000000000000133e-01
-3.012222731179586166e+00,-7.219820959999999621e-01,2.082331071473133566e-01,1.000000000000000048e-04,4.004602421404608492e+01,1.199999999999999956e-01
2.306010604999999991e+00,-1.110345181000000014e+00,1.940333561191953660e-01,1.000000000000000048e-04,3.980237243468020836e+01,1.100000000000000006e-01
2.437557496999999795e+00,-1.097151527000000071e+00,1.413184056915217646e-01,1.000000000000000048e-04,3.931200914800343327e+01,1.100000000000000006e-01
1.098420291999999909e+00,-7.444727049999999569e-01,1.431240114893732596e-01,1.000000000000000048e-04,3.887444509670059034e+01,1.300000000000000044e-01
8.241628739999999897e-01,-4.611620249999999754e-01,3.032544615919710029e-01,1.000000000000000048e-04,4.105195463813581114e+01,1.400000000000000133e-01
1.017317494999999905e+00,-7.027905669999999771e-01,1.845483946807375819e-01,1.000000000000000048e-04,3.973179931511231189e+01,1.199999999999999956e-01
2.728679550999999925e+00,-1.007430967999999982e+00,8.294528542653716308e-01,1.000000000000000048e-04,4.346908119255247271e+01,1.100000000000000006e-01
2.848837458999999850e+00,-9.622339979999999793e-01,1.018434808528789315e+00,1.000000000000000048e-04,4.407016965988328394e+01,1.199999999999999956e-01
-3.065525731179586266e+00,-7.207210450000000046e-01,1.297649650893407891e+00,1.000000000000000048e-04,4.469860784124765729e+01,1.199999999999999956e-01
1.103969978000000074e+00,-7.587182380000000448e-01,6.646704004067174321e-01,1.000000000000000048e-04,4.301042781702624040e+01,1.300000000000000044e-01
1.112034854000000017e+00,-7.675460100000000008e-01,8.341736316885506319e-01,1.000000000000000048e-04,4.363249836088717615e+01,1.199999999999999956e-01
2.373162053000000160e+00,-1.072487750000000073e+00,2.193856028040923611e-01,1.000000000000000048e-04,4.023239947873175737e+01,1.100000000000000006e-01
2.221583438000000132e+00,-1.096064289000000080e+00,3.895679538275138576e-01,1.000000000000000048e-04,4.151463904804314353e+01,1.199999999999999956e-01
2.775251189000000007e+00,-1.013244017000000108e+00,5.647099856537329821e-01,1.000000000000000048e-04,4.275369784197706480e+01,1.700000000000000122e-01
1.527128894000000070e+00,-9.963611940000000056e-01,2.308301637538825446e-01,1.000000000000000048e-04,4.034710812032618321e+01,1.400000000000000133e-01
-1.936135624179586401e+00,1.327891944000000102e+00,1.707958262692861329e-01,1.000000000000000048e-04,3.957623176907870999e+01,1.199999999999999956e-01
2.120951332999999828e+00,-1.112975437000000012e+00,9.849067690997304059e-01,1.000000000000000048e-04,4.385069014293068079e+01,1.600000000000000033e-01
2.950704906999999988e+00,-9.277153000000000205e-01,1.048992912472313854e+00,1.000000000000000048e-04,4.436909731338444374e+01,1.700000000000000122e-01
2.461302839000000020e+00,-1.064109841000000056e+00,1.089527901793434506e+00,1.000000000000000048e-04,4.441289145213143286e+01,1.499999999999999944e-01
1.687800213000000049e+00,-1.037844004000000098e+00,1.819209954900542492e-01,1.000000000000000048e-04,3.970950379838242839e+01,1.100000000000000006e-01
-3.069023128179586113e+00,-7.343218900000000327e-01,4.969257106290347892e-01,1.000000000000000048e-04,4.191766885759543015e+01,2.000000000000000111e-01
7.655655390000000171e-01,-3.825025819999999799e-01,1.259599424216755192e-01,1.000000000000000048e-04,3.882578715691256122e+01,1.300000000000000044e-01
-3.051736326179586012e+00,-7.690870560000000467e-01,3.289685551010661513e-01,1.000000000000000048e-04,4.104723362732823944e+01,1.499999999999999944e-01
-3.116938176179586240e+00,-7.920766919999999711e-01,1.820460862751409614e-01,1.000000000000000048e-04,3.986815714402296607e+01,1.100000000000000006e-01
1.020863690000000101e+00,-6.877910739999999468e-01,2.503230982616790889e-01,1.000000000000000048e-04,4.041984563416392007e+01,1.199999999999999956e-01
1.792785233999999894e+00,-1.066474936999999956e+00,3.616033878995446038e-01,1.000000000000000048e-04,4.144979634630184506e+01,1.100000000000000006e-01
1.805689748000000039e+00,-1.066896787999999985e+00,1.724725914466542775e-01,1.000000000000000048e-04,3.948607243221322705e+01,1.100000000000000006e-01
1.773248071000000037e+00,-1.046601056999999946e+00,1.566455535256991993e-01,1.000000000000000048e-04,3.930216036618684683e+01,2.099999999999999922e-01
1.076689889999999927e+00,-7.549444410000000216e-01,1.337846959945987901e+00,1.000000000000000048e-04,4.485962819929177670e+01,1.199999999999999956e-01
2.336456505000000128e+00,-1.089906792000000069e+00,3.158665479916369367e-01,1.000000000000000048e-04,4.101210343229700328e+01,1.199999999999999956e-01
2.522083900000000156e+00,-1.078852812999999911e+00,5.037851678361020547e-01,1.000000000000000048e-04,4.221026778226814002e+01,1.199999999999999956e-01
3.676074389999999803e-01,1.100614297999999991e+00,1.354058716423234277e-01,1.000000000000000048e-04,3.904708534118786645e+01,1.700000000000000122e-01
2.099931574000000190e+00,-1.082223048999999993e+00,3.124321734298551867e-01,1.000000000000000048e-04,4.089432874295800247e+01,1.100000000000000006e-01
8.155488279999999479e-01,-4.642700679999999802e-01,1.021741316608427486e+00,1.000000000000000048e-04,4.374598925419454787e+01,2.099999999999999922e-01
9.861636230000000447e-01,-6.881834650000000497e-01,7.951060942440266732e-01,1.000000000000000048e-04,4.333588594904929892e+01,1.300000000000000044e-01
1.864254864999999928e+00,-1.086684659999999969e+00,4.140209404723360631e-01,1.000000000000000048e-04,4.163987594757141864e+01,1.199999999999999956e-01
2.873066016000000111e+00,-9.753574739999999466e-01,1.288842610868787819e-01,1.000000000000000048e-04,3.880644741732130143e+01,1.300000000000000044e-01
2.270287562000000037e+00,-1.085086717999999895e+00,2.589348588993618527e-01,1.000000000000000048e-04,4.089563394822701525e+01,1.799999999999999933e-01
8.268071609999999572e-01,-4.587794940000000099e-01,6.662552284884621923e-01,1.000000000000000048e-04,4.305719729668516749e+01,1.199999999999999956e-01
-3.050869045179586347e+00,-7.648855789999999821e-01,3.661719714015132521e-01,1.000000000000000048e-04,4.143323633594651056e+01,1.199999999999999956e-01
1.101963728999999947e+00,-7.466317359999999903e-01,3.523366658468605195e-01,1.000000000000000048e-04,4.149460710837096400e+01,1.900000000000000022e-01
1.745116724000000064e+00,-1.056563783000000090e+00,2.786889702748240882e-01,1.000000000000000048e-04,4.072288885621743049e+01,1.300000000000000044e-01
7.889769570000000343e-01,-3.846565690000000037e-01,2.401629007530867721e-01,1.000000000000000048e-04,4.020574078772968107e+01,1.499999999999999944e-01
1.385818830999999918e+00,-9.278259679999999454e-01,8.958063022784354956e-01,1.000000000000000048e-04,4.377614272454091804e+01,1.499999999999999944e-01
1.138484923000000038e+00,-8.197145099999999518e-01,3.639078296482518571e-01,1.000000000000000048e-04,4.130899992943954402e+01,1.400000000000000133e-01
1.783410439000000069e+00,-1.080958507999999929e+00,3.924389749910197622e-01,1.000000000000000048e-04,4.167541775096827195e+01,1.400000000000000133e-01
2.617653461000000181e+00,-1.025884226000000066e+00,3.622069500452591573e-01,1.000000000000000048e-04,4.136466942302316596e+01,1.199999999999999956e-01
8.270197009999999960e-01,-4.157453939999999903e-01,8.012523249930001423e-01,1.000000000000000048e-04,4.359647501355800614e+01,1.199999999999999956e-01
3.128792493000000174e+00,-8.522697870000000009e-01,9.075343109785833917e-01,1.000000000000000048e-04,4.396959476735853656e+01,1.100000000000000006e-01
1.366158207000000013e+00,-9.614226009999999878e-01,2.197516101990708570e-01,1.000000000000000048e-04,4.022842350370313369e+01,1.100000000000000006e-01
2.846286316000000038e+00,-9.688357899999999745e-01,2.824692655204168457e-01,1.000000000000000048e-04,4.098808513731779612e+01,1.400000000000000133e-01
9.208216280000000031e-01,-6.185352929999999860e-01,5.899078203360494932e-01,1.000000000000000048e-04,4.271544632339418968e+01,1.499999999999999944e-01
7.622987450000000553e-01,-3.411912120000000215e-01,2.375301105234308707e-01,1.000000000000000048e-04,4.043425792672420727e+01,1.199999999999999956e-01
9.277931750000000255e-01,-5.813990460000000304e-01,4.805197673789409762e-01,1.000000000000000048e-04,4.233712265578845546e+01,2.099999999999999922e-01
1.010173165000000095e+00,-6.808591280000000356e-01,9.638901877671262053e-01,1.000000000000000048e-04,4.407011649448181601e+01,1.300000000000000044e-01
1.661181446000000062e+00,-1.029160687999999935e+00,1.060840850122175993e+00,1.000000000000000048e-04,4.442202496061259609e+01,1.400000000000000133e-01
2.089878704000000198e+00,-1.077863170999999953e+00,6.286846923083322380e-01,1.000000000000000048e-04,4.283055520031471985e+01,1.199999999999999956e-01
9.321550429999999610e-01,-6.212176799999999943e-01,2.756599120745930609e-01,1.000000000000000048e-04,4.073640080416575415e+01,1.199999999999999956e-01
2.944595597000000176e+00,-9.127602249999999806e-01,1.644530801121011354e-01,1.000000000000000048e-04,3.966596880369774425e+01,1.100000000000000006e-01
1.288081913999999939e+00,-9.113959929999999598e-01,2.365538029395521935e-01,1.000000000000000048e-04,4.060181018772050265e+01,1.300000000000000044e-01
1.398731861999999992e+00,-9.625033109999999725e-01,1.934022311308141173e-01,1.000000000000000048e-04,3.991669501267585218e+01,1.199999999999999956e-01
1.714165549000000066e+00,-1.043104095999999981e+00,4.570989090908483821e-01,1.000000000000000048e-04,4.218754500321724521e+01,1.199999999999999956e-01
1.014018395999999989e+00,-6.788913789999999615e-01,2.784781930282795859e-01,1.000000000000000048e-04,4.051591917897578554e+01,1.300000000000000044e-01
8.887761809999999985e-01,-5.541821719999999729e-01,3.869666357288348291e-01,1.000000000000000048e-04,4.143424543471203236e+01,1.300000000000000044e-01
1.026278256999999972e+00,-6.961882160000000264e-01,1.724526730044269041e-01,1.000000000000000048e-04,3.947575789061917106e+01,1.199999999999999956e-01
1.824970581999999952e+00,-1.080428363000000003e+00,1.213049038132291813e+00,1.000000000000000048e-04,4.441747688869443067e+01,1.199999999999999956e-01
1.839979185000000017e+00,-1.082878103999999952e+00,2.729078653693277623e-01,1.000000000000000048e-04,4.080465354573779990e+01,1.300000000000000044e-01
-3.070118813179586237e+00,-7.641942569999999879e-01,1.568575010713513240e-01,1.000000000000000048e-04,3.934152324155453329e+01,1.199999999999999956e-01
2.250776613000000204e+00,-1.110438553999999911e+00,2.259380092632423676e-01,1.000000000000000048e-04,4.032385973005727919e+01,1.199999999999999956e-01
2.613802471000000072e+00,-1.066258922999999914e+00,7.376957421929704051e-01,1.000000000000000048e-04,4.326773477537869184e+01,1.199999999999999956e-01
8.050150120000000298e-01,-4.193234060000000096e-01,5.875673219029142746e-01,1.000000000000000048e-04,4.256276034767950023e+01,1.499999999999999944e-01
2.809576177999999924e+00,-9.952447749999999704e-01,2.412569959851464940e-01,1.000000000000000048e-04,4.042057308082114986e+01,1.199999999999999956e-01
8.523447290000000232e-01,-4.773689010000000121e-01,5.730604642990768660e-01,1.000000000000000048e-04,4.232644286341636786e+01,2.000000000000000111e-01
2.975142320999999868e+00,-8.986192680000000266e-01,4.399635241378208050e-01,1.000000000000000048e-04,4.184958106565395042e+01,2.000000000000000111e-01
2.960578484000000010e+00,-9.174235720000000205e-01,2.391280030674252099e-01,1.000000000000000048e-04,4.069199700665920716e+01,1.400000000000000133e-01
1.589239559999999996e+00,-1.046132274999999945e+00,7.056448509565038663e-01,1.000000000000000048e-04,4.317272583400482233e+01,1.199999999999999956e-01
1.095136271999999966e+00,-7.909478989999999543e-01,2.128952167340993906e-01,1.000000000000000048e-04,4.008472668343574696e+01,1.300000000000000044e-01
3.045277111999999953e+00,-8.831592660000000539e-01,5.152482239107711859e-01,1.000000000000000048e-04,4.242224871964440780e+01,1.799999999999999933e-01
3.011317304999999944e+00,-8.969173430000000335e-01,9.230227301109570348e-01,1.000000000000000048e-04,4.395480566423858448e+01,1.499999999999999944e-01
1.946036051000000100e+00,-1.101857058000000000e+00,2.491147420524786327e-01,1.000000000000000048e-04,4.068838425774669076e+01,1.100000000000000006e-01
9.659444579999999503e-01,-6.400164339999999674e-01,1.395857130009552360e-01,1.000000000000000048e-04,3.909789334012504725e+01,1.199999999999999956e-01
1.142944595999999979e+00,-8.229314749999999679e-01,3.607868055913985295e-01,1.000000000000000048e-04,4.133945759860355196e+01,1.499999999999999944e-01
1.336859599999999926e+00,-9.462661719999999610e-01,2.893516612009068290e-01,1.000000000000000048e-04,4.050115025973851601e+01,1.900000000000000022e-01
2.386695267999999981e+00,-1.099692616000000012e+00,1.974773699175156327e-01,1.000000000000000048e-04,3.967218922844158158e+01,1.799999999999999933e-01
1.122946417999999946e+00,-7.871106610000000448e-01,5.692274698529715682e-01,1.000000000000000048e-04,4.260105488886730285e+01,1.499999999999999944e-01
1.038511049000000019e+00,-6.836743480000000428e-01,4.048017648539106172e-01,1.000000000000000048e-04,4.159301113627294200e+01,1.499999999999999944e-01
-1.865548755179585960e+00,5.988235499999999822e-01,5.973793831590552550e-01,1.000000000000000048e-04,4.298853448861795101e+01,3.599999999999999867e-01
-1.208774007179585830e+00,1.086301519000000049e+00,2.336763126286081071e-01,1.000000000000000048e-04,3.965322225864377259e+01,3.900000000000000133e-01
-1.451351928179586359e+00,1.047303024999999943e+00,6.201445575884998451e-01,1.000000000000000048e-04,4.264294193179193826e+01,3.900000000000000133e-01
-1.863787002179586594e+00,5.986409590000000280e-01,5.977279269528630312e-01,1.000000000000000048e-04,4.257753044855352442e+01,3.099999999999999978e-01
-2.367107747179586053e+00,3.570653329999999848e-01,3.210888014306687577e-01,1.000000000000000048e-04,4.105783441557196056e+01,3.300000000000000155e-01
3.110012692999999828e+00,-8.816387980000000013e-01,3.907827549843683190e-01,1.000000000000000048e-04,4.165277934431032492e+01,4.000000000000000222e-01
1.208427087000000011e+00,6.391205479999999550e-01,1.573976604381503996e-01,1.000000000000000048e-04,3.885475311928740183e+01,3.200000000000000067e-01
2.195568135999999893e+00,9.530612539999999688e-01,2.222948468453060933e-01,1.000000000000000048e-04,3.990323198501061341e+01,3.200000000000000067e-01
-1.746303855179585973e+00,7.561700099999999480e-01,7.335780415017281175e-01,1.000000000000000048e-04,4.317083124952119988e+01,3.599999999999999867e-01
-2.613733020179586308e+00,3.020363409999999860e-01,1.558560266844479791e-01,1.000000000000000048e-04,3.957608450320581284e+01,2.399999999999999911e-01
3.080075141000000016e+00,6.813462000000000129e-01,1.212247404261408423e-01,1.000000000000000048e-04,3.914941724126801859e+01,2.999999999999999889e-01
3.084152930000000126e+00,6.750201959999999612e-01,4.116396432018603058e-01,1.000000000000000048e-04,4.214159534961925146e+01,2.399999999999999911e-01
-2.831540824179586302e+00,-5.193198470000000011e-01,7.851962013619917524e-01,1.000000000000000048e-04,4.346053890362476579e+01,2.899999999999999800e-01
2.921667255000000019e+00,-9.403574120000000036e-01,6.485221751513383648e-01,1.000000000000000048e-04,4.274891470467836996e+01,2.899999999999999800e-01
2.610543199999999953e+00,9.294079060000000059e-01,1.394935030715256374e-01,1.000000000000000048e-04,3.889128116713212080e+01,2.899999999999999800e-01
2.614058957000000127e+00,9.310355519999999885e-01,7.124310362242074479e-01,1.000000000000000048e-04,4.300838155386840356e+01,3.699999999999999956e-01
-2.614313936179586406e+00,3.105085300000000048e-01,3.824208818450598457e-01,1.000000000000000048e-04,4.171197021531271787e+01,2.300000000000000100e-01
-2.614275993179586255e+00,3.084493819999999942e-01,5.674308223168897936e-01,1.000000000000000048e-04,4.236379599172074251e+01,2.000000000000000111e-01
3.080236718000000096e+00,6.852664600000000217e-01,4.944476719978219137e-01,1.000000000000000048e-04,4.170244789675572861e+01,3.800000000000000044e-01
3.085135451000000195e+00,6.840520260000000352e-01,9.482555815356517037e-01,1.000000000000000048e-04,4.413149757547786578e+01,2.300000000000000100e-01
-2.829361723179586452e+00,-5.190188390000000096e-01,2.619380760384135698e-01,1.000000000000000048e-04,4.087407639967537420e+01,3.900000000000000133e-01
-2.833706243179586082e+00,-5.260186759999999628e-01,1.617629615694582412e-01,1.000000000000000048e-04,3.939977185890982270e+01,2.200000000000000011e-01
1.286414458000000094e+00,-9.076167339999999806e-01,1.404875726394627655e-01,1.000000000000000048e-04,3.969152571775399707e+01,2.399999999999999911e-01
2.295144749999999956e+00,-1.095028292000000070e+00,5.163822536084918813e-01,1.000000000000000048e-04,4.221381884935864548e+01,2.000000000000000111e-01
2.312115046000000174e+00,-1.091482969000000081e+00,7.911794132856782014e-01,1.000000000000000048e-04,4.347583535280526235e+01,1.900000000000000022e-01
2.535381049000000164e+00,-1.063602453999999975e+00,7.003692006328714470e-01,1.000000000000000048e-04,4.312603395736982037e+01,2.600000000000000089e-01
2.549902755000000187e+00,-1.059649137999999935e+00,2.100727303125702328e-01,1.000000000000000048e-04,4.034396202466792403e+01,1.900000000000000022e-01
-2.980466121795863899e-01,1.081935794000000062e+00,3.147444947084814260e-01,1.000000000000000048e-04,4.096116008463732783e+01,1.000000000000000056e-01
-4.562223411795862660e-01,1.078420874000000085e+00,4.579553206328372816e-01,1.000000000000000048e-04,4.197470036468370580e+01,1.400000000000000133e-01
-4.727696341795866175e-01,1.076427226000000070e+00,7.369260293745523160e-01,1.000000000000000048e-04,4.358947517738178590e+01,1.900000000000000022e-01
-4.909850281795860028e-01,1.086050390999999893e+00,2.861074658281967942e-01,1.000000000000000048e-04,4.098383722462641998e+01,1.499999999999999944e-01
-1.809890014179586615e+00,8.554848849999999727e-01,4.730008066802326994e-01,1.000000000000000048e-04,4.193990590010034225e+01,1.900000000000000022e-01
-1.804843805179586091e+00,8.509932909999999850e-01,9.246222525724969721e-01,1.000000000000000048e-04,4.397727758214830374e+01,1.700000000000000122e-01
-1.798315402179586187e+00,8.389159160000000393e-01,1.531384868934209109e-01,1.000000000000000048e-04,3.947306773694999293e+01,1.100000000000000006e-01
-1.820018681179586650e+00,8.404092629999999620e-01,3.679553157386119544e-01,1.000000000000000048e-04,4.122342322484157506e+01,2.000000000000000111e-01
-2.435936564179586039e+00,3.767214549999999829e-01,9.011216701739190871e-01,1.000000000000000048e-04,4.400943705759137003e+01,1.700000000000000122e-01
-2.738532057179586143e+00,-4.670391260000000266e-01,3.622979657630900352e-01,1.000000000000000048e-04,4.149190624832059626e+01,1.100000000000000006e-01
-2.750126147179586145e+00,-4.750163370000000107e-01,6.030448514450994502e-01,1.000000000000000048e-04,4.265143503201858977e+01,1.700000000000000122e-01
6.777063359999999648e-01,-9.284162910000000046e-01,3.140042950646106945e-01,1.000000000000000048e-04,4.114059867088780464e+01,1.600000000000000033e-01
6.755664329999999662e-01,-9.242990760000000527e-01,6.596101699254772743e-01,1.000000000000000048e-04,4.311278445239171475e+01,2.200000000000000011e-01
1.666277256000000095e+00,1.035703752000000089e+00,2.513707725639071633e-01,1.000000000000000048e-04,4.069820649953398117e+01,2.800000000000000266e-01
1.679531192000000006e+00,1.034147155999999956e+00,6.370929418245643294e-01,1.000000000000000048e-04,4.296209717079289447e+01,2.099999999999999922e-01
1.669961188000000041e+00,1.045784459000000055e+00,2.902782139214004076e-01,1.000000000000000048e-04,4.117613729289720226e+01,2.899999999999999800e-01
1.666612017000000057e+00,1.035903760999999923e+00,3.675739300219709182e-01,1.000000000000000048e-04,4.137238149180420521e+01,1.400000000000000133e-01
1.676630470000000095e+00,1.049302589999999924e+00,5.309018722390390632e-01,1.000000000000000048e-04,4.238307092429494816e+01,1.600000000000000033e-01
1.678871634000000057e+00,1.037439988999999896e+00,3.412087508909136258e-01,1.000000000000000048e-04,4.126542815278531862e+01,2.099999999999999922e-01
-2.159653925179585876e+00,7.341517600000000421e-01,3.764309066735953557e-01,1.000000000000000048e-04,4.149271659605786766e+01,2.600000000000000089e-01
-2.155609593179586447e+00,7.327229189999999726e-01,5.969826493512897514e-01,1.000000000000000048e-04,4.288491502193424054e+01,1.400000000000000133e-01
2.989279821999999864e+00,-1.014333855000000062e+00,2.817135771061394234e-01,1.000000000000000048e-04,4.079778433234343282e+01,1.600000000000000033e-01
6.962963009999999509e-01,-9.242906640000000396e-01,4.842410614902656896e-01,1.000000000000000048e-04,4.236328934902852694e+01,2.000000000000000111e-01
6.831622830000000368e-01,-9.295060950000000322e-01,2.266276261128112868e-01,1.000000000000000048e-04,4.001415814885238831e+01,2.099999999999999922e-01
6.813526220000000189e-01,-9.196739680000000083e-01,1.053891071903198196e+00,1.000000000000000048e-04,4.429771436919166661e+01,1.700000000000000122e-01
1.667475545999999920e+00,1.039138789999999979e+00,1.267523990863328454e+00,1.000000000000000048e-04,4.492389853011516720e+01,1.499999999999999944e-01
1.669072946000000002e+00,1.039627206000000026e+00,2.856147208813950567e-01,1.000000000000000048e-04,4.082887785485126386e+01,1.700000000000000122e-01
2.992464221000000091e+00,-1.009427984000000000e+00,3.265055526890290327e-01,1.000000000000000048e-04,4.109594502293383300e+01,1.400000000000000133e-01
3.013377762000000182e+00,-1.015725085999999999e+00,1.873320198167867101e-01,1.000000000000000048e-04,3.962713575034387503e+01,1.499999999999999944e-01
6.857830799999999893e-01,-9.290922369999999875e-01,6.493973800563528354e-01,1.000000000000000048e-04,4.286299929544370002e+01,3.400000000000000244e-01
6.874880420000000214e-01,-9.251381180000000093e-01,7.639674067008301872e-01,1.000000000000000048e-04,4.340959216788912300e+01,1.700000000000000122e-01
1.659686511000000086e+00,1.040101345999999927e+00,1.210640950165506879e-01,1.000000000000000048e-04,3.880541899881346524e+01,1.400000000000000133e-01
1.692629780999999944e+00,1.043637506000000048e+00,1.889960905607324104e-01,1.000000000000000048e-04,3.972159342856819109e+01,1.799999999999999933e-01
1.682450028999999958e+00,1.049226146999999942e+00,3.745027018353612736e-01,1.000000000000000048e-04,4.157438116265284123e+01,1.900000000000000022e-01
1.675255906999999933e+00,1.048468626000000015e+00,9.265882871798181153e-01,1.000000000000000048e-04,4.397123606869917012e+01,1.499999999999999944e-01
1.692145135000000078e+00,1.039981480000000014e+00,5.899732206782373201e-01,1.000000000000000048e-04,4.278680500691628197e+01,1.700000000000000122e-01
-2.139768073179586061e+00,7.360294179999999908e-01,3.387694858753786953e-01,1.000000000000000048e-04,4.118255875941444799e+01,1.600000000000000033e-01
-2.138731675179585956e+00,7.369836659999999817e-01,2.552549053468715634e-01,1.000000000000000048e-04,4.063762012183275374e+01,1.499999999999999944e-01
6.888283630000000546e-01,-9.193630990000000169e-01,2.213425586266828393e-01,1.000000000000000048e-04,4.007421485176019615e+01,1.700000000000000122e-01
6.776433490000000059e-01,-9.225326109999999469e-01,6.368214928593081137e-01,1.000000000000000048e-04,4.267711679101523714e+01,1.600000000000000033e-01
6.820513620000000499e-01,-9.162569579999999547e-01,8.337753495157769201e-01,1.000000000000000048e-04,4.382473514329877418e+01,2.899999999999999800e-01
6.832637360000000104e-01,-9.208365670000000502e-01,2.043279863295035526e-01,1.000000000000000048e-04,3.994709362396855568e+01,1.400000000000000133e-01
1.683256381999999940e+00,1.050427892999999946e+00,1.757908135845174247e-01,1.000000000000000048e-04,3.981890099039193132e+01,1.499999999999999944e-01
2.987248335999999949e+00,-1.011507587000000097e+00,1.059920929840532544e+00,1.000000000000000048e-04,4.418914276168821686e+01,1.900000000000000022e-01
2.994879214000000012e+00,-1.020537374999999969e+00,3.859170986178128704e-01,1.000000000000000048e-04,4.148791000411186047e+01,2.500000000000000000e-01
2.997056848999999801e+00,-1.020797841000000039e+00,4.258842658638346546e-01,1.000000000000000048e-04,4.163143635301313594e+01,1.499999999999999944e-01
6.981827720000000070e-01,-9.201470600000000166e-01,2.643240916008045005e-01,1.000000000000000048e-04,4.091004013421754593e+01,2.099999999999999922e-01
1.675679171999999939e+00,1.042232051000000048e+00,3.941406868682710840e-01,1.000000000000000048e-04,4.194679617517547854e+01,1.900000000000000022e-01
1.682732345000000018e+00,1.051774148000000020e+00,1.475447266194693796e-01,1.000000000000000048e-04,3.901862429982643476e+01,2.099999999999999922e-01
1.655763980999999996e+00,1.041789395999999979e+00,1.830222859320134177e-01,1.000000000000000048e-04,3.979231194774742164e+01,2.099999999999999922e-01
1.658505131999999938e+00,1.042043577999999915e+00,4.345044125624570874e-01,1.000000000000000048e-04,4.179574719190168253e+01,1.499999999999999944e-01
1.679931540999999973e+00,1.044700675999999939e+00,3.231767526441284843e-01,1.000000000000000048e-04,4.099586802700090260e+01,1.400000000000000133e-01
1.681131209999999987e+00,1.046558263000000100e+00,5.961743745134102657e-01,1.000000000000000048e-04,4.343481586476295320e+01,3.800000000000000044e-01
-2.147380102179586636e+00,7.248191320000000326e-01,2.358842670755350035e-01,1.000000000000000048e-04,4.061720377220889588e+01,2.200000000000000011e-01
-2.137481690179586558e+00,7.386978770000000027e-01,3.526628725889888738e-01,1.000000000000000048e-04,4.141148107056812222e+01,1.499999999999999944e-01
3.007533192999999994e+00,-1.006434849999999992e+00,4.704692424439080867e-01,1.000000000000000048e-04,4.217577668144073044e+01,1.700000000000000122e-01
6.766177190000000063e-01,-9.309161569999999664e-01,1.257236494049125408e-01,1.000000000000000048e-04,3.902786741590790598e+01,1.700000000000000122e-01
6.879719020000000240e-01,-9.170357009999999809e-01,4.688407038227255796e-01,1.000000000000000048e-04,4.191744254077415377e+01,2.600000000000000089e-01
6.868192690000000100e-01,-9.190749710000000183e-01,8.161264827206327066e-01,1.000000000000000048e-04,4.334801562573835554e+01,2.800000000000000266e-01
1.680927606000000019e+00,1.043199457999999913e+00,4.878017372797676110e-01,1.000000000000000048e-04,4.217069046271341648e+01,1.799999999999999933e-01
1.680733408999999901e+00,1.046110547000000057e+00,1.866232391455353579e-01,1.000000000000000048e-04,3.983622826781415682e+01,1.499999999999999944e-01
3.003205794999999956e+00,-1.007960921000000010e+00,5.460226464711630534e-01,1.000000000000000048e-04,4.205498146509747670e+01,2.200000000000000011e-01
3.013387552999999830e+00,-1.018013843000000085e+00,1.225385347286174209e-01,1.000000000000000048e-04,3.849473485651608939e+01,2.000000000000000111e-01
2.991633154000000072e+00,-1.018575491000000000e+00,6.541441695728076322e-01,1.000000000000000048e-04,4.320678818090191697e+01,1.600000000000000033e-01
6.810583510000000063e-01,-9.216344210000000370e-01,3.960181974830170315e-01,1.000000000000000048e-04,4.180540827796361469e+01,1.600000000000000033e-01
1.670069762000000013e+00,1.048284639000000018e+00,8.639917006917834374e-01,1.000000000000000048e-04,4.412931031328517406e+01,2.099999999999999922e-01
1.699713636000000028e+00,1.040243690999999915e+00,1.440533722153030105e-01,1.000000000000000048e-04,3.962601088168368335e+01,2.899999999999999800e-01
1.686195045999999920e+00,1.048540513999999924e+00,3.069728899645511877e-01,1.000000000000000048e-04,4.102752401255991543e+01,1.400000000000000133e-01
1.667162669999999958e+00,1.044746053999999980e+00,3.016088600822717236e-01,1.000000000000000048e-04,4.036058748295045717e+01,2.700000000000000178e-01
1.689467040999999892e+00,1.036330184999999959e+00,1.198519384128355902e-01,1.000000000000000048e-04,3.867476369857243412e+01,1.300000000000000044e-01
1.683799076999999977e+00,1.043385784000000038e+00,1.415986589509827809e-01,1.000000000000000048e-04,3.916707574772923550e+01,1.700000000000000122e-01
-2.151455832179586025e+00,7.398983139999999459e-01,2.442774142922816694e-01,1.000000000000000048e-04,4.068237508002844294e+01,2.500000000000000000e-01
-2.141944958179585967e+00,7.302793560000000461e-01,3.373090326716152720e-01,1.000000000000000048e-04,4.120849015113032721e+01,1.400000000000000133e-01
3.012489310999999947e+00,-1.019874449000000016e+00,2.168760840409114099e-01,1.000000000000000048e-04,3.999211185280047687e+01,1.900000000000000022e-01
6.824463880000000149e-01,-9.193269539999999740e-01,2.744334105546750724e-01,1.000000000000000048e-04,4.058700755220451839e+01,1.600000000000000033e-01
6.933168330000000212e-01,-9.307474239999999899e-01,2.711069775949821459e-01,1.000000000000000048e-04,4.096578846032235788e+01,1.600000000000000033e-01
7.005346909999999871e-01,-9.247541049999999929e-01,1.968296070388895203e-01,1.000000000000000048e-04,3.958190373600124445e+01,2.700000000000000178e-01
1.674988617999999985e+00,1.042237757999999959e+00,7.256723012764250136e-01,1.000000000000000048e-04,4.301271057509768525e+01,1.499999999999999944e-01
1.672026148000000045e+00,1.039374368000000048e+00,4.483327859107764102e-01,1.000000000000000048e-04,4.202768974791962364e+01,1.600000000000000033e-01
2.993618983999999816e+00,-1.008517228000000099e+00,4.352706636748726599e-01,1.000000000000000048e-04,4.180872420517006560e+01,1.700000000000000122e-01
2.992837709999999873e+00,-1.014889098000000045e+00,3.636505116321731013e-01,1.000000000000000048e-04,4.168089185490308068e+01,2.800000000000000266e-01
2.980621672999999916e+00,-1.012535224000000067e+00,3.321218501525482480e-01,1.000000000000000048e-04,4.099051189278139162e+01,1.499999999999999944e-01
3.118379398000000080e+00,-1.044341935000000055e+00,2.537739247149588540e-01,1.000000000000000048e-04,4.095714066309777479e+01,3.099999999999999978e-01
3.132904315000000217e+00,-1.046896950999999909e+00,1.856379290748915167e-01,1.000000000000000048e-04,3.974577768467455741e+01,2.200000000000000011e-01
1.248659997999999938e+00,-1.117162079000000086e+00,3.857788672519975037e-01,1.000000000000000048e-04,4.174660380163138029e+01,2.700000000000000178e-01
2.302446713000000145e+00,-1.091359299000000060e+00,3.786233930609985698e-01,1.000000000000000048e-04,4.154056763563630028e+01,2.899999999999999800e-01
3.133486173000000097e+00,-1.061461677999999909e+00,1.796941292801292889e-01,1.000000000000000048e-04,3.976048701372333483e+01,3.099999999999999978e-01
1.251013366000000016e+00,-1.102704651999999896e+00,9.900237519681915899e-01,1.000000000000000048e-04,4.418949975811877806e+01,2.300000000000000100e-01
1.232341668999999973e+00,-1.105349812000000043e+00,6.427118978968828777e-01,1.000000000000000048e-04,4.312273860986621088e+01,2.200000000000000011e-01
2.330538756999999794e+00,-1.086213730999999960e+00,2.318798585115666722e-01,1.000000000000000048e-04,4.017696586883518250e+01,2.300000000000000100e-01
3.104372880000000112e+00,-1.050765708999999992e+00,1.982087874119733417e-01,1.000000000000000048e-04,3.979699823582637208e+01,2.200000000000000011e-01
3.122794933000000217e+00,-1.050942575000000101e+00,2.240799000932613971e-01,1.000000000000000048e-04,4.028525288084024680e+01,2.099999999999999922e-01
3.135928428000000157e+00,-1.044986675000000087e+00,2.041669887907116010e-01,1.000000000000000048e-04,4.019124583933781736e+01,2.300000000000000100e-01
3.135701593999999925e+00,-1.049448040999999998e+00,1.340039564422622842e+00,1.000000000000000048e-04,4.506997219698468626e+01,2.399999999999999911e-01
2.902190216000000156e+00,-1.054666754000000095e+00,2.461322564011876324e-01,1.000000000000000048e-04,4.034605914640774671e+01,2.099999999999999922e-01
1.219278212000000083e+00,-1.102494101000000004e+00,6.133682438512593205e-01,1.000000000000000048e-04,4.273964913119747422e+01,2.399999999999999911e-01
2.314258420999999899e+00,-1.073777474999999981e+00,1.061014128962068703e+00,1.000000000000000048e-04,4.437092595791769156e+01,2.399999999999999911e-01
3.138600745000000192e+00,-1.056209613999999908e+00,2.290250484974596379e-01,1.000000000000000048e-04,4.020068103266682868e+01,2.800000000000000266e-01
2.873014373000000177e+00,-1.047336534999999902e+00,5.875064005409538215e-01,1.000000000000000048e-04,4.269817256294080465e+01,2.000000000000000111e-01
2.890150627000000139e+00,-1.045368942999999939e+00,9.231142626214097202e-01,1.000000000000000048e-04,4.388162695778244426e+01,2.200000000000000011e-01
-3.136513490179586139e+00,-1.038988312000000080e+00,8.910057175824570574e-01,1.000000000000000048e-04,4.314303847519885693e+01,2.800000000000000266e-01
3.120369102000000172e+00,-1.042910143999999928e+00,1.021518318146704463e+00,1.000000000000000048e-04,4.452928452963293182e+01,2.399999999999999911e-01
3.132773262000000170e+00,-1.048570620000000009e+00,3.402719662184363614e-01,1.000000000000000048e-04,4.135461438444491478e+01,2.300000000000000100e-01
3.132934141999999866e+00,-1.046888051000000042e+00,6.843532420807991734e-01,1.000000000000000048e-04,4.308009708841594687e+01,2.200000000000000011e-01
3.134455274000000014e+00,-1.046257098000000108e+00,1.718542775873743711e-01,1.000000000000000048e-04,3.929091713898218785e+01,2.200000000000000011e-01
2.910504301000000016e+00,-1.063930792999999930e+00,5.268549532827984105e-01,1.000000000000000048e-04,4.248633655746127147e+01,2.399999999999999911e-01
2.301930878999999930e+00,-1.084305269999999988e+00,2.022770546425158855e-01,1.000000000000000048e-04,4.026613785910851107e+01,3.099999999999999978e-01
2.314913878000000036e+00,-1.104421796000000011e+00,6.058635263563072471e-01,1.000000000000000048e-04,4.304037995721309784e+01,2.600000000000000089e-01
1.232494258000000009e+00,-1.089556776000000005e+00,2.282005017366597333e-01,1.000000000000000048e-04,4.035946073007261958e+01,3.099999999999999978e-01
-3.138875270179586341e+00,-1.027091259999999950e+00,1.975438702867533536e-01,1.000000000000000048e-04,3.961979460390053731e+01,3.800000000000000044e-01
1.277748142000000087e+00,-1.105660628999999950e+00,3.396841854946084371e-01,1.000000000000000048e-04,4.090553542054014713e+01,2.500000000000000000e-01
2.339694710999999927e+00,-1.083680948999999893e+00,2.334581902098842310e-01,1.000000000000000048e-04,4.010892842201651121e+01,2.300000000000000100e-01
3.085408954000000037e+00,-1.045989441999999991e+00,9.600702848434268244e-01,1.000000000000000048e-04,4.402365102494074023e+01,2.800000000000000266e-01
3.122183823999999941e+00,-1.053540683000000033e+00,5.388511837007616823e-01,1.000000000000000048e-04,4.261151782425138634e+01,3.699999999999999956e-01
1.263417701000000060e+00,-1.099941301000000093e+00,9.575169421010252258e-01,1.000000000000000048e-04,4.386468991697113751e+01,2.200000000000000011e-01
1.238769020999999970e+00,-1.122513239999999968e+00,5.401854570469801775e-01,1.000000000000000048e-04,4.210042763243786368e+01,2.600000000000000089e-01
1.225778744000000087e+00,-1.107856694000000086e+00,5.954034687758633648e-01,1.000000000000000048e-04,4.272557141738072772e+01,2.500000000000000000e-01
2.356185176999999964e+00,-1.090954028000000076e+00,3.344948903082600733e-01,1.000000000000000048e-04,4.125540860704716550e+01,2.700000000000000178e-01
1.231078855000000027e+00,-1.109460918999999990e+00,7.983946694974664027e-01,1.000000000000000048e-04,4.325971426851313595e+01,2.300000000000000100e-01
2.350025410999999842e+00,-1.078254897999999962e+00,2.947495569755405054e-01,1.000000000000000048e-04,4.132648137070047767e+01,2.300000000000000100e-01
2.889344674999999807e+00,-1.054064458000000037e+00,1.532999780421404612e-01,1.000000000000000048e-04,3.953934662085156049e+01,3.200000000000000067e-01
1.260972444000000081e+00,-1.102168519999999985e+00,3.911286333425765260e-01,1.000000000000000048e-04,4.173177760351069310e+01,2.899999999999999800e-01
3.138597202000000141e+00,-1.049455424000000026e+00,2.445394743808848581e-01,1.000000000000000048e-04,4.040430469812645953e+01,2.600000000000000089e-01
1.280173519000000093e+00,-1.106045986000000036e+00,1.187881737038709584e-01,1.000000000000000048e-04,3.915962197317194438e+01,2.899999999999999800e-01
3.140421104000000074e+00,-1.048273016000000002e+00,5.430283612256250336e-01,1.000000000000000048e-04,4.237036662174706692e+01,2.700000000000000178e-01
2.887571490000000018e+00,-1.060290981000000077e+00,2.603706474487008649e-01,1.000000000000000048e-04,4.103927363026949848e+01,2.300000000000000100e-01
3.117377486000000086e+00,-1.048849812999999909e+00,9.738201797038064100e-01,1.000000000000000048e-04,4.390750993941116320e+01,2.800000000000000266e-01
3.139331405000000075e+00,-1.045946368000000071e+00,5.697826707310378325e-01,1.000000000000000048e-04,4.242269088428566448e+01,2.300000000000000100e-01
2.901812189000000153e+00,-1.070407117000000019e+00,1.223456474107174063e-01,1.000000000000000048e-04,3.861405199624905293e+01,2.200000000000000011e-01
2.874698792999999863e+00,-1.069280417999999955e+00,2.999454972308142064e-01,1.000000000000000048e-04,4.124495373420111122e+01,2.200000000000000011e-01
3.126790450000000110e+00,-1.053686536000000062e+00,1.552499865742242857e-01,1.000000000000000048e-04,3.930005756586406562e+01,2.099999999999999922e-01
1.253234667999999941e+00,-1.096167120000000050e+00,3.203484726773413449e-01,1.000000000000000048e-04,4.133709583870933812e+01,2.200000000000000011e-01
1.242189800000000011e+00,-1.095888138000000067e+00,8.354802701757539918e-01,1.000000000000000048e-04,4.375342378962935896e+01,2.899999999999999800e-01
2.358704259000000025e+00,-1.096119858000000002e+00,1.253044490319470405e-01,1.000000000000000048e-04,3.885123170848810048e+01,2.099999999999999922e-01
3.090657074000000115e+00,-1.046905049999999893e+00,7.531652193014684027e-01,1.000000000000000048e-04,4.315586004027335321e+01,2.300000000000000100e-01
2.350320292999999783e+00,-1.077642637000000070e+00,8.978327529592178280e-01,1.000000000000000048e-04,4.414800526598592256e+01,3.300000000000000155e-01
3.120911620999999858e+00,-1.047605429999999949e+00,5.647655303635907842e-01,1.000000000000000048e-04,4.242229437119210189e+01,2.899999999999999800e-01
2.310418793000000193e+00,-1.091478047999999923e+00,3.982091766026709667e-01,1.000000000000000048e-04,4.131152505677372488e+01,3.300000000000000155e-01
2.888242410000000149e+00,-1.055260810999999910e+00,5.667497783641750608e-01,1.000000000000000048e-04,4.270153783421026361e+01,2.999999999999999889e-01
2.313880778000000138e+00,-1.089056457000000089e+00,2.160419808086539994e-01,1.000000000000000048e-04,4.065478052274838916e+01,2.600000000000000089e-01
3.096505394999999883e+00,-1.050897790999999915e+00,1.887518580252927070e-01,1.000000000000000048e-04,3.907678790465796936e+01,3.300000000000000155e-01
1.264206060000000020e+00,-1.108314516000000083e+00,1.641657244684118222e-01,1.000000000000000048e-04,3.934729190365384000e+01,2.500000000000000000e-01
2.317080779999999951e+00,-1.080569537999999996e+00,4.872425320867981302e-01,1.000000000000000048e-04,4.262923822081092595e+01,2.399999999999999911e-01
2.308161032000000112e+00,-1.080284865999999955e+00,1.039268379421747657e+00,1.000000000000000048e-04,4.362144456501064127e+01,3.900000000000000133e-01
1.213089824000000094e+00,-1.095999417000000031e+00,8.640526806923920500e-01,1.000000000000000048e-04,4.334816285104768241e+01,2.700000000000000178e-01
3.095344697999999894e+00,-1.044259242999999948e+00,7.352190692315445641e-01,1.000000000000000048e-04,4.324527249224423286e+01,2.200000000000000011e-01
3.093500166000000107e+00,-1.047656949999999920e+00,1.697324553593173579e-01,1.000000000000000048e-04,3.967902474881523744e+01,2.300000000000000100e-01
2.871266652000000086e+00,-1.064917746999999970e+00,4.186875725779108937e-01,1.000000000000000048e-04,4.180607709304931774e+01,2.500000000000000000e-01
2.872879009000000039e+00,-1.076645507999999918e+00,7.974222089782609935e-01,1.000000000000000048e-04,4.329434030479015405e+01,2.099999999999999922e-01
1.241294699000000001e+00,-1.109043570000000090e+00,1.767384812748604705e-01,1.000000000000000048e-04,4.010270607041135804e+01,2.099999999999999922e-01
1.238788393000000099e+00,-1.083197141000000085e+00,4.542866992964260664e-01,1.000000000000000048e-04,4.143902715308036022e+01,2.999999999999999889e-01
-3.140928712179586135e+00,-1.049943351000000025e+00,6.168110070818875190e-01,1.000000000000000048e-04,4.295007703331356907e+01,2.200000000000000011e-01
2.897074545000000168e+00,-1.050668165000000043e+00,1.197445888953116988e-01,1.000000000000000048e-04,3.883676465495892671e+01,2.099999999999999922e-01
3.133488720999999977e+00,-1.053899826000000095e+00,2.778023301326237871e-01,1.000000000000000048e-04,4.059498536036062433e+01,2.300000000000000100e-01
2.854965548000000020e+00,-1.051119023000000041e+00,1.461466599321463722e-01,1.000000000000000048e-04,3.892014676512941662e+01,3.200000000000000067e-01
2.846666281000000076e+00,-1.061494909000000098e+00,6.166812713677216617e-01,1.000000000000000048e-04,4.311906782094219892e+01,2.600000000000000089e-01
1.477625364000000108e+00,-9.892628350000000070e-01,8.567339007774694704e-01,1.000000000000000048e-04,4.371416386453883263e+01,2.000000000000000111e-01
-2.998301261179586064e+00,-5.567642400000000213e-01,7.646429090809403473e-01,1.000000000000000048e-04,4.355890298105016711e+01,1.799999999999999933e-01
2.915910107000000195e+00,-9.248875840000000403e-01,1.967648678625872893e-01,1.000000000000000048e-04,4.004538648192299632e+01,2.999999999999999889e-01
2.904218159000000021e+00,-9.279150130000000107e-01,1.433620500146433052e-01,1.000000000000000048e-04,3.943470184623027563e+01,2.399999999999999911e-01
2.945746643000000109e+00,-9.241091030000000428e-01,3.209990903792494521e-01,1.000000000000000048e-04,4.098168788783583949e+01,2.300000000000000100e-01
2.195221751000000054e+00,9.567984520000000215e-01,2.502886042376513132e-01,1.000000000000000048e-04,4.063586683495443452e+01,2.200000000000000011e-01
-2.382074272179586227e+00,-9.504311730000000180e-01,1.668423592007948209e-01,1.000000000000000048e-04,3.974288054504442158e+01,2.300000000000000100e-01
2.197803225999999999e+00,9.560313849999999558e-01,8.470648986262916402e-01,1.000000000000000048e-04,4.417558791841393173e+01,2.300000000000000100e-01
-2.380846050179586282e+00,-9.512843520000000552e-01,2.108004412029684804e-01,1.000000000000000048e-04,4.019965985910859274e+01,2.600000000000000089e-01
-2.382960995179586039e+00,-9.501026420000000527e-01,1.608410350735538508e-01,1.000000000000000048e-04,3.937926272505988834e+01,2.099999999999999922e-01
2.192165822000000208e+00,9.554729659999999791e-01,5.817827852224168872e-01,1.000000000000000048e-04,4.310354457174128839e+01,2.899999999999999800e-01
-2.383512939179586176e+00,-9.505219620000000535e-01,1.265678273533125786e+00,1.000000000000000048e-04,4.474144792916518298e+01,2.000000000000000111e-01
2.197044292000000176e+00,9.582492320000000063e-01,1.163948147024649327e+00,1.000000000000000048e-04,4.466106610984274283e+01,2.500000000000000000e-01
2.198013217999999824e+00,9.570721989999999568e-01,2.385371187141183125e-01,1.000000000000000048e-04,4.025879741732172334e+01,2.099999999999999922e-01
2.198391541999999976e+00,9.561199929999999458e-01,3.074845265964880614e-01,1.000000000000000048e-04,4.105199412354834720e+01,2.300000000000000100e-01
2.199218732999999926e+00,9.570277640000000030e-01,1.223288466590244372e-01,1.000000000000000048e-04,3.860906652483811285e+01,2.200000000000000011e-01
2.196667974999999995e+00,9.569524729999999701e-01,2.912862080767750772e-01,1.000000000000000048e-04,4.079929727437163933e+01,2.399999999999999911e-01
2.196400267000000017e+00,9.571105250000000453e-01,4.665836592913406022e-01,1.000000000000000048e-04,4.202913014524812496e+01,2.500000000000000000e-01
2.195980999000000100e+00,9.563170869999999546e-01,2.447241740400782906e-01,1.000000000000000048e-04,4.034275222445788955e+01,2.200000000000000011e-01
2.198886345000000020e+00,9.574225640000000315e-01,4.516657390440714792e-01,1.000000000000000048e-04,4.106708920239091754e+01,3.300000000000000155e-01
-2.382942164179586264e+00,-9.487821469999999646e-01,5.379849606413757979e-01,1.000000000000000048e-04,4.281702140107439902e+01,2.000000000000000111e-01
2.197058621000000045e+00,9.568337070000000333e-01,3.563319637176567412e-01,1.000000000000000048e-04,4.137344114147428797e+01,2.600000000000000089e-01
2.196754174000000059e+00,9.569828230000000380e-01,2.290844706116947904e-01,1.000000000000000048e-04,4.041346936995193317e+01,2.399999999999999911e-01
-2.381905888179586039e+00,-9.494029419999999719e-01,6.051461739353170000e-01,1.000000000000000048e-04,4.300759303102547193e+01,2.399999999999999911e-01
-2.382353656179586388e+00,-9.501919130000000546e-01,4.482711399605245894e-01,1.000000000000000048e-04,4.212539451571397819e+01,2.600000000000000089e-01
-2.385313647179586383e+00,-9.492824659999999914e-01,1.816655234406681085e-01,1.000000000000000048e-04,3.990923289437177601e+01,2.399999999999999911e-01
-2.383308463179586223e+00,-9.502672559999999491e-01,5.038322981351759378e-01,1.000000000000000048e-04,4.206675420131184495e+01,2.000000000000000111e-01
2.194446376000000143e+00,9.548028840000000184e-01,2.078959135777493916e-01,1.000000000000000048e-04,3.953050760053692869e+01,3.699999999999999956e-01
-2.377678389179586294e+00,-9.493284189999999789e-01,4.288652401523171953e-01,1.000000000000000048e-04,4.196168689166772481e+01,3.099999999999999978e-01
2.195048706000000127e+00,9.553664520000000326e-01,4.494261623923485605e-01,1.000000000000000048e-04,4.195107264982189577e+01,2.399999999999999911e-01
2.194988459000000169e+00,9.569281090000000267e-01,2.644053572897795412e-01,1.000000000000000048e-04,4.088247811669485543e+01,2.099999999999999922e-01
2.198773670000000013e+00,9.585742720000000050e-01,2.214518723828804436e-01,1.000000000000000048e-04,4.016826783834941494e+01,2.800000000000000266e-01
2.196007632000000154e+00,9.574002940000000406e-01,1.371672181457259665e-01,1.000000000000000048e-04,3.955777638068450841e+01,2.800000000000000266e-01
2.193610842000000005e+00,9.569156829999999614e-01,3.263687936231618458e-01,1.000000000000000048e-04,4.143313486077812513e+01,2.099999999999999922e-01
2.194846306000000080e+00,9.574700699999999509e-01,4.077929979981782527e-01,1.000000000000000048e-04,4.200964338109388763e+01,2.300000000000000100e-01
-2.901318991795864832e-01,1.086903570000000041e+00,2.990863445206621840e-01,1.000000000000000048e-04,4.084133289464713101e+01,2.000000000000000111e-01
-2.914486071795865385e-01,1.085909494999999891e+00,3.494454509015256782e-01,1.000000000000000048e-04,4.143610701050547362e+01,1.000000000000000056e-01
-2.954610881795858290e-01,1.084462065999999947e+00,4.381996835800732182e-01,1.000000000000000048e-04,4.184409906384490796e+01,1.199999999999999956e-01
-3.403197011795864313e-01,1.090760651000000081e+00,2.527806998065236233e-01,1.000000000000000048e-04,4.059808424350124056e+01,8.999999999999999667e-02
-3.429455761795860980e-01,1.087892671000000089e+00,4.991111904687024481e-01,1.000000000000000048e-04,4.223094758431351892e+01,1.400000000000000133e-01
6.896152909999999636e-01,-9.249195220000000495e-01,2.131957838640363700e-01,1.000000000000000048e-04,4.030621693700419428e+01,2.000000000000000111e-01
1.024453132999999960e+00,1.182715689999999986e+00,3.898053365421163541e-01,1.000000000000000048e-04,4.147179021404748056e+01,1.900000000000000022e-01
1.006083177000000051e+00,1.165244638999999971e+00,6.824697719540093743e-01,1.000000000000000048e-04,4.304329360591357556e+01,1.700000000000000122e-01
9.905969959999999519e-01,1.153001898999999941e+00,3.090961484381560265e-01,1.000000000000000048e-04,4.121446327798211229e+01,3.499999999999999778e-01
2.950804928999999799e+00,-1.010655210999999998e+00,2.275615607113181671e-01,1.000000000000000048e-04,4.028657458593649210e+01,1.700000000000000122e-01
2.951637304000000128e+00,-1.010683065999999908e+00,2.852073650509887592e-01,1.000000000000000048e-04,4.074470526481670163e+01,1.900000000000000022e-01
-2.349248843179586377e+00,-9.322901449999999590e-01,3.710849674982936719e-01,1.000000000000000048e-04,4.161318094952892466e+01,1.900000000000000022e-01
