-1.598279621179586663e+00,2.779993629999999993e-01,1.445251496914743417e-01,1.000000000000000048e-04,3.948287547173632106e+01,1.700000000000000122e-01
-8.306753881795865269e-01,5.048130450000000158e-01,7.908395241610683968e-01,1.000000000000000048e-04,4.366236807579217327e+01,1.600000000000000033e-01
-1.512887194179586281e+00,3.571169940000000209e-01,2.321055627386905407e-01,1.000000000000000048e-04,4.027091184581933447e+01,1.600000000000000033e-01
-2.094054222179586588e+00,-9.657747650000000350e-01,6.239343136648352051e-01,1.000000000000000048e-04,4.272505927345358856e+01,1.600000000000000033e-01
-1.256550916179586252e+00,-1.037146153999999987e+00,5.031704296624306405e-01,1.000000000000000048e-04,4.238222231373596571e+01,1.900000000000000022e-01
-2.638489419179586015e+00,-8.917870300000000361e-01,5.624997619178340180e-01,1.000000000000000048e-04,4.257365672352356967e+01,1.600000000000000033e-01
-1.710562538179586589e+00,-1.402302595000000096e+00,4.120558696180360858e-01,1.000000000000000048e-04,4.207395159784077521e+01,2.000000000000000111e-01
-2.771840681795865180e-01,-1.115655276000000029e+00,1.423415870240578585e-01,1.000000000000000048e-04,3.880940478715046282e+01,1.700000000000000122e-01
-1.608432286179586335e+00,-6.514894359999999773e-01,8.807301839248649067e-02,1.000000000000000048e-04,3.791929381061252968e+01,1.600000000000000033e-01
-1.490451089179586575e+00,-3.201959389999999850e-01,1.489304020644843796e-01,1.000000000000000048e-04,3.931595513585015311e+01,1.700000000000000122e-01
-1.995144670179586299e+00,-1.040863893000000040e+00,2.997726619997722608e-01,1.000000000000000048e-04,4.109057289789038236e+01,1.799999999999999933e-01
3.095686500000000008e-02,-1.139960520999999893e+00,3.472466358768429018e-01,1.000000000000000048e-04,4.155987128406282238e+01,1.700000000000000122e-01
-2.211919791795864398e-01,-6.717550429999999961e-01,7.195784877257813683e-01,1.000000000000000048e-04,4.329756828915807887e+01,2.200000000000000011e-01
-8.294029241795861651e-01,6.699244909999999553e-01,4.021385711587592837e-01,1.000000000000000048e-04,4.164748835606874877e+01,1.799999999999999933e-01
-4.765590681795863759e-01,-7.328014390000000544e-01,3.054128052143696426e-01,1.000000000000000048e-04,4.109203689592342101e+01,1.600000000000000033e-01
-1.123871723179585835e+00,1.275958498999999913e+00,3.166925662204416181e-01,1.000000000000000048e-04,4.084997995279992722e+01,1.900000000000000022e-01
-5.094723721795864080e-01,-7.371415260000000469e-01,2.205001884146051694e-01,1.000000000000000048e-04,4.027747936713090127e+01,1.600000000000000033e-01
6.571342580000000266e-01,4.949370419999999937e-01,4.976473603583235761e-01,1.000000000000000048e-04,4.210063393926050423e+01,1.700000000000000122e-01
-1.010588552179585875e+00,4.063959939999999826e-01,3.038337507786450509e-01,1.000000000000000048e-04,4.083111910344330653e+01,1.400000000000000133e-01
-5.300352171795861267e-01,-4.198024320000000031e-01,8.969965979264604705e-02,1.000000000000000048e-04,3.783683480359112394e+01,1.499999999999999944e-01
-3.959305511795863097e-01,-4.514385590000000170e-01,8.334611689703819160e-02,1.000000000000000048e-04,3.758615583838443541e+01,1.600000000000000033e-01
-1.302326638179586382e+00,4.891699640000000127e-01,2.035685014222059497e-01,1.000000000000000048e-04,3.992762377298426202e+01,8.999999999999999667e-02
-8.169037861795862554e-01,4.857709299999999897e-01,6.227824305514428893e-01,1.000000000000000048e-04,4.295256562303259074e+01,1.000000000000000056e-01
-1.156602994179586119e+00,7.039336720000000103e-01,6.185428754124115969e-01,1.000000000000000048e-04,4.280236921991115651e+01,1.100000000000000006e-01
2.500120207999999788e+00,-3.403989430000000094e-01,1.231551582515622023e-01,1.000000000000000048e-04,3.883622040243415796e+01,1.100000000000000006e-01
2.397122115999999803e+00,-8.283729720000000407e-01,4.086540151572499724e-01,1.000000000000000048e-04,4.195648745107729383e+01,1.700000000000000122e-01
-4.391142381795862804e-01,9.199097720000000145e-01,1.295138933615844756e-01,1.000000000000000048e-04,3.901762824273512820e+01,2.200000000000000011e-01
-1.356814123179586495e+00,1.335301293999999972e+00,3.216909906303719868e-01,1.000000000000000048e-04,4.140631771463481670e+01,2.600000000000000089e-01
2.612804049999999823e+00,3.003891830000000041e-01,5.444112933376783481e-01,1.000000000000000048e-04,4.216041289707993656e+01,1.700000000000000122e-01
-1.192441121179586005e+00,1.100105410000000061e+00,5.933649126565103682e-01,1.000000000000000048e-04,4.287055128055642683e+01,1.799999999999999933e-01
-3.012917491179586182e+00,1.485957493999999990e+00,5.698934637231600764e-01,1.000000000000000048e-04,4.278041870589954243e+01,2.200000000000000011e-01
-7.329138461795858817e-01,1.044356909000000000e+00,2.505578301986648437e-01,1.000000000000000048e-04,4.040558588106312499e+01,1.700000000000000122e-01
1.024371087000000013e+00,-9.607604419999999923e-01,1.345009340540519460e-01,1.000000000000000048e-04,3.898792838827930751e+01,1.600000000000000033e-01
2.960998206000000188e+00,-8.548671270000000044e-01,4.844265102719154115e-01,1.000000000000000048e-04,4.231219434403666213e+01,1.900000000000000022e-01
-3.017579355179586198e+00,-3.780387199999999948e-01,9.304133578539488525e-01,1.000000000000000048e-04,4.442579471497110433e+01,2.399999999999999911e-01
-2.268575282179586594e+00,6.921453520000000470e-01,2.068662011726234429e-01,1.000000000000000048e-04,3.986409323744464217e+01,3.699999999999999956e-01
2.478186394000000181e+00,5.281495040000000474e-01,6.059438644188943623e-01,1.000000000000000048e-04,4.337966450462836576e+01,2.399999999999999911e-01
7.532392530000000530e-01,9.936355940000000109e-01,1.091249452286851440e+00,1.000000000000000048e-04,4.448007455644522423e+01,1.600000000000000033e-01
1.941716173999999961e+00,9.578325640000000529e-01,1.594516509196088894e-01,1.000000000000000048e-04,4.018189189832661157e+01,3.800000000000000044e-01
2.041827891000000061e+00,-8.953703119999999460e-01,3.625503368181135500e-01,1.000000000000000048e-04,4.142987532158292652e+01,1.700000000000000122e-01
2.521229080999999983e+00,-8.544186950000000058e-01,4.849062154745034103e-01,1.000000000000000048e-04,4.250567753105226387e+01,2.000000000000000111e-01
2.745955969000000163e+00,3.136627880000000257e-01,4.548429492085770409e-01,1.000000000000000048e-04,4.192384292339330898e+01,2.099999999999999922e-01
1.738295793999999894e+00,1.134430556000000090e+00,1.637054798581498716e-01,1.000000000000000048e-04,3.934446267550730880e+01,1.799999999999999933e-01
-8.687814521795864664e-01,6.221710379999999541e-01,1.479037556453328683e-01,1.000000000000000048e-04,3.906825731538994262e+01,3.499999999999999778e-01
-1.857013858179586308e+00,3.937075449999999921e-01,2.332197846748456094e-01,1.000000000000000048e-04,4.059050476522710937e+01,2.999999999999999889e-01
-2.894431473179586156e+00,2.701405689999999971e-01,1.022911224268123753e-01,1.000000000000000048e-04,3.870908194644573541e+01,2.300000000000000100e-01
2.213600608000000136e+00,-5.295933369999999973e-01,1.121597743808750547e+00,1.000000000000000048e-04,4.470193323440815902e+01,2.500000000000000000e-01
9.327636729999999599e-01,4.069681829999999834e-01,1.020021422536983025e-01,1.000000000000000048e-04,3.816284740450399227e+01,2.300000000000000100e-01
1.743234563999999986e+00,7.359057650000000450e-01,1.774073767239390254e-01,1.000000000000000048e-04,3.947833122951034568e+01,2.200000000000000011e-01
-2.812965047179586175e+00,5.929882829999999494e-01,1.454895624927212694e-01,1.000000000000000048e-04,3.897294827137810813e+01,2.399999999999999911e-01
-2.977583888179586413e+00,-1.437144969999999966e-01,7.370508083178011205e-01,1.000000000000000048e-04,4.301691667475220981e+01,2.700000000000000178e-01
2.276564226000000080e+00,-5.051809499999999620e-01,2.199590981911130338e-01,1.000000000000000048e-04,4.034994815506708932e+01,2.800000000000000266e-01
2.667465888000000174e+00,-6.260506340000000502e-01,2.297699504979342500e-01,1.000000000000000048e-04,4.023920001703431382e+01,2.600000000000000089e-01
1.041358068000000081e+00,8.506585119999999778e-01,4.565671002506390685e-01,1.000000000000000048e-04,4.238014855845926832e+01,2.300000000000000100e-01
2.499030525999999863e+00,-9.629979760000000333e-01,2.364262382464501488e-01,1.000000000000000048e-04,4.016273181351617438e+01,3.099999999999999978e-01
1.334501084000000004e+00,-7.340646360000000481e-01,6.527664277722486919e-01,1.000000000000000048e-04,4.287127401505919977e+01,2.300000000000000100e-01
2.196979751999999841e+00,-5.334639439999999677e-01,1.223082605395073852e-01,1.000000000000000048e-04,3.886082841093310236e+01,2.500000000000000000e-01
1.355624495999999901e+00,4.654212710000000253e-01,9.731440766863030944e-01,1.000000000000000048e-04,4.425017320545590849e+01,2.200000000000000011e-01
1.445572062999999963e+00,-8.838676049999999451e-01,4.497035650316418831e-01,1.000000000000000048e-04,4.216764054696889730e+01,3.499999999999999778e-01
7.246286520000000397e-01,-7.843460709999999780e-01,3.184952290650282514e-01,1.000000000000000048e-04,4.121187230935923651e+01,3.099999999999999978e-01
2.179180484000000195e+00,1.312341798999999920e+00,3.166211221949739585e-01,1.000000000000000048e-04,4.133324801749841271e+01,2.200000000000000011e-01
7.669035910000000511e-01,2.329377750000000136e-01,2.567932455307042616e-01,1.000000000000000048e-04,4.037105833052875425e+01,2.500000000000000000e-01
2.984436029999999906e+00,4.410184999999999800e-01,1.021731115807616330e+00,1.000000000000000048e-04,4.427001244256772594e+01,2.999999999999999889e-01
1.808380389999999949e+00,-5.931087419999999666e-01,5.179022940709239187e-01,1.000000000000000048e-04,4.226411170752197677e+01,2.200000000000000011e-01
2.378694356000000010e+00,6.891218140000000547e-01,2.839018197826925771e-01,1.000000000000000048e-04,4.080888476910690343e+01,3.099999999999999978e-01
-1.027171309179585990e+00,8.938185499999999895e-01,2.366861035118181800e-01,1.000000000000000048e-04,4.075902496806236996e+01,3.099999999999999978e-01
2.177629786999999872e+00,1.088514723000000073e+00,1.087518268705278679e-01,1.000000000000000048e-04,3.852771919970914638e+01,2.500000000000000000e-01
2.446904437000000154e+00,4.505237189999999892e-01,4.831229117088879921e-01,1.000000000000000048e-04,4.197334344516197291e+01,2.700000000000000178e-01
-2.745075452179586151e+00,5.290477460000000409e-01,1.085481396727459025e-01,1.000000000000000048e-04,3.866397965556100758e+01,1.600000000000000033e-01
3.470126559999999749e-01,6.971221490000000243e-01,7.036739724350795644e-01,1.000000000000000048e-04,4.276724779702872326e+01,2.399999999999999911e-01
-2.027672372179586624e+00,-3.494576850000000179e-01,3.177277030055978280e-01,1.000000000000000048e-04,4.117074673933640838e+01,8.999999999999999667e-02
-2.243457714179585949e+00,5.735296930000000071e-01,2.373668683958287673e-01,1.000000000000000048e-04,4.040031905789425082e+01,8.000000000000000167e-02
-1.741234469179586242e+00,8.281857209999999858e-01,4.142318954682298049e-01,1.000000000000000048e-04,4.184791402960220807e+01,1.000000000000000056e-01
-1.661352162179586145e+00,7.473004210000000480e-01,3.952647731199343539e-01,1.000000000000000048e-04,4.176082977436389143e+01,1.100000000000000006e-01
-1.046494641179585905e+00,9.839422859999999993e-01,4.583024017428336538e-01,1.000000000000000048e-04,4.199964938287441640e+01,1.600000000000000033e-01
-1.357076630179586019e+00,8.591991679999999576e-01,7.633559956724547124e-01,1.000000000000000048e-04,4.355158406259981518e+01,1.300000000000000044e-01
-1.489161381179585852e+00,8.733460579999999807e-01,3.404615950824316783e-01,1.000000000000000048e-04,4.145714361202875153e+01,8.999999999999999667e-02
2.602874990000000111e+00,9.865781270000000269e-01,2.124413736505483818e-01,1.000000000000000048e-04,4.024952177912497575e+01,2.099999999999999922e-01
6.278667869999999818e-01,1.201237362999999947e+00,1.964731228303884247e-01,1.000000000000000048e-04,4.010220859632708112e+01,1.799999999999999933e-01
1.901542252999999905e+00,5.984822429999999693e-01,2.638085005653920678e-01,1.000000000000000048e-04,4.088034487868478095e+01,1.700000000000000122e-01
9.102462569999999475e-01,3.833152009999999943e-01,1.778784427990323103e-01,1.000000000000000048e-04,4.001021042009052309e+01,2.200000000000000011e-01
4.621894529999999723e-01,4.355896570000000190e-01,4.482989168262445645e-01,1.000000000000000048e-04,4.217671595541339968e+01,2.399999999999999911e-01
1.731299603999999936e+00,-9.087058740000000245e-01,1.863833137694475006e-01,1.000000000000000048e-04,4.003682274645842654e+01,2.200000000000000011e-01
2.307708166999999921e+00,-3.555306579999999994e-01,5.195001521381765741e-01,1.000000000000000048e-04,4.227218137436772594e+01,1.700000000000000122e-01
2.284880370000000216e+00,-4.942566800000000038e-01,6.006425851937899907e-01,1.000000000000000048e-04,4.303927204481675517e+01,2.200000000000000011e-01
-2.729734007179586364e+00,-4.808223520000000084e-01,3.236285670071890053e-01,1.000000000000000048e-04,4.060661911806761992e+01,2.300000000000000100e-01
-2.728058296179586062e+00,8.181749999999999856e-01,7.923994890979977335e-01,1.000000000000000048e-04,4.378443233645573684e+01,2.200000000000000011e-01
1.539636916000000078e+00,-6.652033799999999830e-02,6.503783409089463063e-01,1.000000000000000048e-04,4.295973804481868541e+01,2.999999999999999889e-01
2.937620158000000092e+00,7.383732379999999873e-01,2.578922765887090574e-01,1.000000000000000048e-04,4.033667357285234800e+01,2.200000000000000011e-01
2.624384770999999894e+00,8.339422930000000012e-01,5.279538590633772177e-01,1.000000000000000048e-04,4.231191047644195180e+01,1.799999999999999933e-01
-2.594453966179586235e+00,1.052220571999999965e+00,4.304604144618011663e-01,1.000000000000000048e-04,4.180511707382309083e+01,1.900000000000000022e-01
-2.462277587179586114e+00,1.356652656000000068e+00,6.054058273004156998e-01,1.000000000000000048e-04,4.284827398462261527e+01,2.099999999999999922e-01
2.730654787000000194e+00,8.741146779999999783e-01,5.914837026330406200e-01,1.000000000000000048e-04,4.268783992679758654e+01,1.900000000000000022e-01
1.629450376000000089e+00,2.068732899999999875e-01,4.744982992603774541e-01,1.000000000000000048e-04,4.225372926585636435e+01,2.899999999999999800e-01
1.142160569999999958e-01,6.858846720000000285e-01,9.769288716811728168e-01,1.000000000000000048e-04,4.386543565127067268e+01,1.799999999999999933e-01
-4.383495451795864639e-01,9.198101690000000108e-01,6.906085840596580816e-01,1.000000000000000048e-04,4.323136689832472257e+01,2.600000000000000089e-01
1.001193188000000012e+00,8.013430529999999719e-01,3.140435608317220240e-01,1.000000000000000048e-04,4.098328513583815180e+01,1.799999999999999933e-01
-8.746654461795859703e-01,7.515327899999999506e-01,6.107130081897980123e-01,1.000000000000000048e-04,4.300315060489450758e+01,2.600000000000000089e-01
1.319662558000000097e+00,1.070340469999999933e-01,1.546537165661896474e-01,1.000000000000000048e-04,3.958441211565063611e+01,2.399999999999999911e-01
1.726021762000000015e+00,-6.377623550000000030e-01,4.508120935426849218e-01,1.000000000000000048e-04,4.232355176997035784e+01,2.600000000000000089e-01
-2.754219137179586330e+00,-9.277945709999999568e-01,1.813484435907488646e-01,1.000000000000000048e-04,3.959927704907610746e+01,3.699999999999999956e-01
1.691977534999999921e+00,1.434503057999999998e+00,2.937145336103332838e-01,1.000000000000000048e-04,4.132010969201420636e+01,2.099999999999999922e-01
8.272144390000000236e-01,-4.428667319999999852e-01,4.593831236743577406e-01,1.000000000000000048e-04,4.255043095544525045e+01,2.300000000000000100e-01
-2.185785446179585811e+00,4.040310730000000183e-01,2.993597501823124230e-01,1.000000000000000048e-04,4.105946711110946268e+01,1.799999999999999933e-01
2.680919170000000129e+00,5.929394510000000063e-01,1.806082237463708662e-01,1.000000000000000048e-04,3.970692810443027554e+01,1.799999999999999933e-01
2.468528393999999793e+00,-3.885411739999999892e-01,4.417547681373052981e-01,1.000000000000000048e-04,4.184517599271605803e+01,1.700000000000000122e-01
1.824819092000000031e+00,-9.187566499999999525e-01,4.917577758857882841e-01,1.000000000000000048e-04,4.240989898529217328e+01,2.099999999999999922e-01
2.252174823999999909e+00,-3.842870769999999769e-01,5.282022338631302549e-01,1.000000000000000048e-04,4.243237386916737108e+01,2.000000000000000111e-01
2.889947965000000174e+00,3.184077100000000105e-01,3.267633117082371363e-01,1.000000000000000048e-04,4.146772245338878804e+01,2.000000000000000111e-01
-2.666621499179586241e+00,1.790417820000000104e-01,4.975991973287272607e-01,1.000000000000000048e-04,4.219025934519105192e+01,1.900000000000000022e-01
2.353249148999999818e+00,9.653535600000000549e-01,7.610739256449918777e-01,1.000000000000000048e-04,4.353403681952313775e+01,1.799999999999999933e-01
1.765869402999999949e+00,9.288119630000000182e-01,5.308987727181595506e-01,1.000000000000000048e-04,4.203031701749892335e+01,3.599999999999999867e-01
2.011122450999999867e+00,-1.257182417000000108e+00,5.711331607479490646e-01,1.000000000000000048e-04,4.260257414101528894e+01,1.799999999999999933e-01
1.931340567999999980e+00,-5.991437729999999906e-01,7.463185881073610695e-01,1.000000000000000048e-04,4.318934902148399146e+01,2.000000000000000111e-01
2.835991935000000019e+00,-7.109363199999999550e-01,8.362627246114628932e-02,1.000000000000000048e-04,3.783087510396517672e+01,1.900000000000000022e-01
-2.852520529179586095e+00,8.667541789999999580e-01,1.264229930679752201e-01,1.000000000000000048e-04,3.947964917475027136e+01,1.799999999999999933e-01
-2.458251249179586040e+00,-2.796002539999999925e-01,9.011422450687645025e-01,1.000000000000000048e-04,4.421525163935846336e+01,3.300000000000000155e-01
1.596378985000000084e+00,5.944120290000000084e-01,1.332627976259982638e+00,1.000000000000000048e-04,4.471684049458513499e+01,1.900000000000000022e-01
-2.484014184179586415e+00,8.016642189999999557e-01,8.422606299450419165e-01,1.000000000000000048e-04,4.402727492431631617e+01,1.900000000000000022e-01
-2.431723812179586108e+00,1.223750555999999934e+00,9.456703092440732483e-02,1.000000000000000048e-04,3.807301369449549355e+01,1.700000000000000122e-01
-2.378598255179586118e+00,1.197731727999999940e+00,6.421933648147477580e-01,1.000000000000000048e-04,4.323670056972162712e+01,1.900000000000000022e-01
1.739429998000000088e+00,2.494783479999999887e-01,2.284722075404979069e-01,1.000000000000000048e-04,4.030787312533053068e+01,3.099999999999999978e-01
-2.377494960179586059e+00,9.562939099999999693e-01,5.420163012287164683e-01,1.000000000000000048e-04,4.248365328683579634e+01,1.799999999999999933e-01
-9.021677017958662503e-02,6.959221140000000361e-01,5.389668102033324804e-01,1.000000000000000048e-04,4.289347978401598738e+01,3.499999999999999778e-01
2.021336933000000169e+00,8.510789659999999923e-01,4.104259312238833779e-01,1.000000000000000048e-04,4.184582199665484126e+01,2.800000000000000266e-01
2.573899695999999793e+00,-5.247218830000000001e-01,3.703920954200350391e-01,1.000000000000000048e-04,4.150904809715249399e+01,1.700000000000000122e-01
2.346925623000000183e+00,-7.496726200000000118e-01,9.792264214213692863e-01,1.000000000000000048e-04,4.433567262990973035e+01,1.700000000000000122e-01
2.487812089999999809e+00,-1.095252646999999913e+00,1.276580677587586532e-01,1.000000000000000048e-04,3.889266496194745315e+01,1.600000000000000033e-01
2.543651012999999850e+00,-2.555195920000000176e-01,1.113945556579035934e+00,1.000000000000000048e-04,4.445035046595311456e+01,1.900000000000000022e-01
2.457771880000000131e+00,-4.383329890000000062e-01,8.107637667584022267e-02,1.000000000000000048e-04,3.788904852963643322e+01,1.700000000000000122e-01
-2.749033603179586116e+00,5.277091179999999770e-01,5.542055068069635659e-01,1.000000000000000048e-04,4.261639200184126253e+01,1.799999999999999933e-01
-3.021446786179586397e+00,6.716344440000000526e-01,6.073548459483339990e-01,1.000000000000000048e-04,4.258008045842800016e+01,1.799999999999999933e-01
2.390319493999999878e+00,1.427533710000000067e+00,7.072657168665394956e-01,1.000000000000000048e-04,4.300987707386101278e+01,1.799999999999999933e-01
-2.060955814179585843e+00,9.020563839999999889e-01,7.386667180764487917e-01,1.000000000000000048e-04,4.317971152053652872e+01,1.799999999999999933e-01
-1.552222439179586466e+00,1.270289940999999923e+00,1.104811634770439532e-01,1.000000000000000048e-04,3.848002775181073076e+01,1.600000000000000033e-01
2.491619029000000207e+00,8.136863199999999630e-01,5.593272756919145383e-01,1.000000000000000048e-04,4.246307568096251828e+01,1.900000000000000022e-01
2.336721559999999975e+00,1.049041915000000103e+00,1.763636738384952718e-01,1.000000000000000048e-04,3.979216404524346729e+01,1.700000000000000122e-01
1.201678150000000000e+00,3.331923239999999842e-01,1.318222062859002452e-01,1.000000000000000048e-04,3.876740530832431375e+01,1.900000000000000022e-01
-3.811893421795859993e-01,1.284308205000000092e+00,2.244038345867103157e-01,1.000000000000000048e-04,4.027822533625130319e+01,2.000000000000000111e-01
5.879284790000000038e-01,8.245620540000000442e-01,2.164691739565460793e-01,1.000000000000000048e-04,4.025567147544726510e+01,1.700000000000000122e-01
-3.584264691795864266e-01,1.112498557000000110e+00,1.213945259980524050e+00,1.000000000000000048e-04,4.471073938665511349e+01,2.000000000000000111e-01
-1.085925731795862603e-01,9.806715139999999664e-01,2.877789513372945862e-01,1.000000000000000048e-04,4.070812454161803373e+01,1.799999999999999933e-01
1.189812670000000017e+00,8.219376269999999485e-01,8.996041485964809681e-01,1.000000000000000048e-04,4.385201862675125994e+01,1.700000000000000122e-01
2.896526737999999934e+00,1.048685354999999930e+00,5.876352375613009826e-01,1.000000000000000048e-04,4.281957700643398113e+01,1.700000000000000122e-01
1.187793541000000008e+00,1.533334508000000040e+00,3.391809116952271275e-01,1.000000000000000048e-04,4.116241125136478018e+01,1.700000000000000122e-01
8.784667550000000436e-01,-5.840451829999999678e-01,2.592149936087273510e-01,1.000000000000000048e-04,4.073307064793797849e+01,2.099999999999999922e-01
-2.025603206179586557e+00,1.419180792999999996e+00,3.207548113805702705e-01,1.000000000000000048e-04,4.133547083118796905e+01,1.799999999999999933e-01
1.097118803000000087e+00,1.428367445999999985e+00,4.839697676608467614e-01,1.000000000000000048e-04,4.189030496208046372e+01,1.799999999999999933e-01
-1.923054671795858539e-01,8.268694330000000425e-01,3.189733623863826306e-01,1.000000000000000048e-04,4.111089219920722826e+01,2.000000000000000111e-01
1.974446608000000047e+00,-1.250497374000000050e+00,6.563077389854929944e-01,1.000000000000000048e-04,4.298318147228932418e+01,2.000000000000000111e-01
1.714471547999999901e+00,-4.841846819999999774e-01,1.255486126027589577e-01,1.000000000000000048e-04,3.871504773869302340e+01,1.700000000000000122e-01
1.635209042000000057e+00,-1.499680316999999929e+00,3.033355799027541710e-01,1.000000000000000048e-04,4.095291420663733106e+01,1.900000000000000022e-01
-3.085878636179586021e+00,-8.156760069999999807e-01,2.201642343944634206e-01,1.000000000000000048e-04,4.030001165442062927e+01,1.799999999999999933e-01
1.583648911999999909e+00,-4.051170720000000225e-01,1.059183092766531331e-01,1.000000000000000048e-04,3.820594093970854033e+01,1.700000000000000122e-01
3.116144028999999982e+00,-6.233618589999999626e-01,2.975862557664921138e-01,1.000000000000000048e-04,4.097885164530080715e+01,2.000000000000000111e-01
2.580853791000000008e+00,2.126606490000000071e-01,2.710900800418465373e-01,1.000000000000000048e-04,4.091310165062449755e+01,2.200000000000000011e-01
2.791070910999999821e+00,-3.375241600000000036e-02,1.488498386509187199e-01,1.000000000000000048e-04,3.972079577878613321e+01,2.999999999999999889e-01
2.126664376999999995e+00,-4.630033630000000011e-01,6.516538308730557283e-01,1.000000000000000048e-04,4.348637339480224284e+01,1.799999999999999933e-01
1.264160699999999915e+00,6.289837299999999631e-01,3.680427657960270160e-01,1.000000000000000048e-04,4.143290648191559455e+01,1.900000000000000022e-01
2.608192676999999904e+00,3.485897410000000085e-01,1.935797890951647116e-01,1.000000000000000048e-04,4.011746323051603014e+01,2.200000000000000011e-01
9.029304540000000490e-01,-5.888661819999999603e-01,2.434189249147711287e-01,1.000000000000000048e-04,4.033846050344434531e+01,1.700000000000000122e-01
2.675488564000000125e+00,-1.029758079000000048e+00,3.813186846716616341e-01,1.000000000000000048e-04,4.130757212659780464e+01,1.700000000000000122e-01
9.979371630000000160e-01,-7.076351440000000492e-01,2.698852958034290150e-01,1.000000000000000048e-04,4.067557666202991129e+01,2.000000000000000111e-01
2.816578843999999915e+00,-6.539336449999999523e-01,1.012603167388625991e-01,1.000000000000000048e-04,3.838033973733149651e+01,1.799999999999999933e-01
-2.809922836179586270e+00,-1.219770695000000016e+00,2.008430882230956005e-01,1.000000000000000048e-04,3.965112819141772604e+01,1.900000000000000022e-01
2.816545334000000178e+00,5.529564630000000092e-01,8.836862033731764932e-01,1.000000000000000048e-04,4.353277230285740274e+01,1.700000000000000122e-01
2.293480610000000031e+00,1.430186356999999964e+00,7.142277279488618014e-01,1.000000000000000048e-04,4.315399114628674226e+01,1.700000000000000122e-01
1.900048696999999898e+00,-6.695785770000000081e-01,2.077706851394889309e-01,1.000000000000000048e-04,4.003810219100819978e+01,1.900000000000000022e-01
2.402973735999999860e+00,-4.293495210000000117e-01,1.261191480817458022e+00,1.000000000000000048e-04,4.453910085696141152e+01,2.200000000000000011e-01
3.123677135999999965e+00,5.597831170000000522e-01,2.073077007575794273e-01,1.000000000000000048e-04,4.005264737329483893e+01,1.700000000000000122e-01
1.945616433999999950e+00,5.533621010000000506e-01,8.737959191016499982e-01,1.000000000000000048e-04,4.373016497239712663e+01,1.700000000000000122e-01
-2.603733431795864917e-01,9.574212720000000454e-01,1.904400818190112865e-01,1.000000000000000048e-04,3.994566803545686184e+01,3.800000000000000044e-01
-1.216980031795857897e-01,3.678993019999999836e-01,8.534663104905353403e-01,1.000000000000000048e-04,4.369251304610813946e+01,1.900000000000000022e-01
2.921580513999999962e+00,4.108407450000000072e-01,5.596212734784669074e-01,1.000000000000000048e-04,4.275133037954073956e+01,1.900000000000000022e-01
-2.362072097179586105e+00,1.187667234999999932e+00,1.972900787087430441e-01,1.000000000000000048e-04,3.982617335515497103e+01,1.900000000000000022e-01
-2.337569846179586186e+00,3.756736769999999837e-01,3.792961666967649137e-01,1.000000000000000048e-04,4.180461389561209273e+01,1.700000000000000122e-01
-1.563533060179586265e+00,8.298117619999999528e-01,3.089059356438841331e-01,1.000000000000000048e-04,4.093187649371944303e+01,3.300000000000000155e-01
-7.514201781795861734e-01,8.148208550000000105e-01,5.407191658231418341e-01,1.000000000000000048e-04,4.215105219236596668e+01,2.099999999999999922e-01
-2.172991007179586376e+00,1.278564443000000050e+00,1.929264284532514750e-01,1.000000000000000048e-04,3.994803197026821806e+01,2.000000000000000111e-01
1.004972830999999900e+00,3.284388160000000223e-01,2.409257132771818188e-01,1.000000000000000048e-04,4.065951353693422021e+01,1.799999999999999933e-01
-1.050913719179586536e+00,7.925907810000000220e-01,4.762204617114313976e-01,1.000000000000000048e-04,4.159250664282499343e+01,2.899999999999999800e-01
1.174967896000000067e+00,-7.032179160000000540e-01,1.131382377878027423e-01,1.000000000000000048e-04,3.845401269119818011e+01,1.799999999999999933e-01
2.063754460999999818e+00,1.158898511999999936e+00,4.001873896507428530e-01,1.000000000000000048e-04,4.163721912846437334e+01,1.799999999999999933e-01
1.355273345999999934e+00,1.034050206000000083e+00,8.262861654015809521e-01,1.000000000000000048e-04,4.360824818967861205e+01,1.700000000000000122e-01
1.878516419999999965e+00,-5.891517790000000421e-01,2.771593253420208125e-01,1.000000000000000048e-04,4.087780204710839627e+01,1.799999999999999933e-01
3.042909537999999969e+00,4.914006550000000195e-01,1.597721487862913126e-01,1.000000000000000048e-04,3.945302111072806639e+01,1.700000000000000122e-01
-2.192876876179585821e+00,7.571444160000000423e-01,1.670035198817134692e-01,1.000000000000000048e-04,3.960412696949198619e+01,2.099999999999999922e-01
-1.274335216179586006e+00,7.393028099999999769e-01,1.724236372832785857e-01,1.000000000000000048e-04,3.998686037761893175e+01,3.599999999999999867e-01
3.513372269999999742e-01,1.023017258000000096e+00,1.021560453118405931e+00,1.000000000000000048e-04,4.418161027414936370e+01,1.799999999999999933e-01
-2.045215730179585911e+00,1.346705497999999945e+00,9.822400249175653464e-01,1.000000000000000048e-04,4.402266542384987957e+01,1.799999999999999933e-01
2.622131355000000053e+00,-2.378520580000000051e-01,1.747110665338988955e-01,1.000000000000000048e-04,3.979560584750687724e+01,2.099999999999999922e-01
1.499565373000000035e+00,-5.833961840000000398e-01,8.241248693291591820e-01,1.000000000000000048e-04,4.374976567158578433e+01,1.199999999999999956e-01
9.453780529999999960e-01,-3.014802610000000271e-01,3.229211441186481402e-01,1.000000000000000048e-04,4.115824407891990688e+01,1.799999999999999933e-01
1.003030738000000088e+00,-6.679498139999999751e-01,2.172789847464782209e-01,1.000000000000000048e-04,4.045586068133204805e+01,1.799999999999999933e-01
-2.858957567179586157e+00,-2.878047879999999781e-01,5.319774489503585890e-01,1.000000000000000048e-04,4.241180660466858399e+01,1.300000000000000044e-01
-2.653655062179586022e+00,5.464710109999999510e-01,3.120219191355404487e-01,1.000000000000000048e-04,4.125178405703565687e+01,1.300000000000000044e-01
-1.077960778179586576e+00,1.305029642999999906e+00,3.133829828520524607e-01,1.000000000000000048e-04,4.082220860099835846e+01,1.100000000000000006e-01
2.996279555000000094e+00,-9.792432829999999644e-01,3.182006909717012277e-01,1.000000000000000048e-04,4.099440615856683934e+01,1.600000000000000033e-01
1.369802210000000131e-01,9.686457469999999459e-01,3.031502894678885784e-01,1.000000000000000048e-04,4.106283824127527993e+01,1.000000000000000056e-01
-7.405109531795863731e-01,5.344760480000000369e-01,1.239729000376885271e+00,1.000000000000000048e-04,4.454667644453400044e+01,1.900000000000000022e-01
-1.986221938179586033e+00,3.858849830000000147e-01,5.835237460216886607e-01,1.000000000000000048e-04,4.249563485573413146e+01,2.600000000000000089e-01
-1.660796187179585992e+00,1.337702168000000080e+00,3.461689574947401926e-01,1.000000000000000048e-04,4.123804273647956364e+01,1.300000000000000044e-01
-1.008319883179586540e+00,9.035811799999999838e-01,2.826633564075546889e-01,1.000000000000000048e-04,4.077134074662345142e+01,1.799999999999999933e-01
-2.859227719179586291e+00,-3.383984709999999785e-01,2.092925804530725298e-01,1.000000000000000048e-04,4.010489739630927630e+01,1.799999999999999933e-01
-3.008470453179586279e+00,-9.028608339999999455e-01,3.045053157202213256e-01,1.000000000000000048e-04,4.109041991875308497e+01,1.300000000000000044e-01
2.720373041999999852e+00,-1.026937239000000002e+00,4.013438357293996894e-01,1.000000000000000048e-04,4.168624392952295921e+01,1.100000000000000006e-01
1.131806215999999976e+00,-1.312634394000000038e+00,2.379249663383375957e-01,1.000000000000000048e-04,4.021751087604216224e+01,1.199999999999999956e-01
2.377785852000000144e+00,-1.071983155000000076e+00,2.810108763504299834e-01,1.000000000000000048e-04,4.085274758795141281e+01,1.000000000000000056e-01
1.262497049000000038e+00,-7.576738640000000302e-01,1.662525792102218514e-01,1.000000000000000048e-04,3.966161501260807398e+01,1.900000000000000022e-01
-2.150308364179585929e+00,9.473204419999999848e-01,1.967329817471266118e-01,1.000000000000000048e-04,4.006843148116042386e+01,1.499999999999999944e-01
-2.672281993179586035e+00,8.065802300000000091e-01,3.851084373777446945e-01,1.000000000000000048e-04,4.141494427288416347e+01,1.400000000000000133e-01
-2.768228307179586345e+00,1.501965110000000048e-01,9.736805875822864831e-01,1.000000000000000048e-04,4.412178309461241810e+01,1.300000000000000044e-01
2.456608391000000058e+00,-6.815239560000000418e-01,1.265831344640875322e-01,1.000000000000000048e-04,3.880880570423766329e+01,2.899999999999999800e-01
-1.538735822179586599e+00,7.895792169999999999e-01,6.215115000884741114e-01,1.000000000000000048e-04,4.309807923617647418e+01,1.600000000000000033e-01
-6.811844061795859773e-01,-7.989239399999999991e-01,3.182199414775197521e-01,1.000000000000000048e-04,4.106509883499480651e+01,2.300000000000000100e-01
-9.881069141795864041e-01,9.266642769999999807e-01,5.559629398983059190e-01,1.000000000000000048e-04,4.229463503391758650e+01,2.500000000000000000e-01
9.533575850000000074e-01,-5.868324440000000086e-01,2.068118179243547683e-01,1.000000000000000048e-04,4.019627294330939549e+01,1.199999999999999956e-01
1.194530383000000029e+00,-8.514353350000000153e-01,7.870929602032039618e-02,1.000000000000000048e-04,3.782455724393300756e+01,1.100000000000000006e-01
-1.550854682179585886e+00,1.341867675000000037e+00,9.583700604166223158e-02,1.000000000000000048e-04,3.824385871628702915e+01,3.599999999999999867e-01
2.328991532999999947e+00,-1.085498080000000032e+00,3.517522703512494520e-01,1.000000000000000048e-04,4.138913749438338385e+01,1.199999999999999956e-01
3.099662444999999877e+00,-8.173274409999999879e-01,4.239745103245087243e-01,1.000000000000000048e-04,4.194771458123864960e+01,1.300000000000000044e-01
1.008677688999999988e+00,-7.224949280000000362e-01,3.891801853027945235e-01,1.000000000000000048e-04,4.149827035176758727e+01,1.199999999999999956e-01
1.116317643999999998e+00,-8.188746820000000204e-01,2.855398660457193483e-01,1.000000000000000048e-04,4.086235844151227070e+01,1.499999999999999944e-01
1.368634144999999913e+00,-9.746537960000000167e-01,6.558208209859563986e-01,1.000000000000000048e-04,4.305813455138249424e+01,2.200000000000000011e-01
1.284766933000000000e+00,-9.049604909999999780e-01,7.361325909098763720e-01,1.000000000000000048e-04,4.317998447867688583e+01,1.300000000000000044e-01
2.840707745000000006e+00,-9.874777999999999611e-01,1.195660297553513551e-01,1.000000000000000048e-04,3.863297960153064992e+01,1.199999999999999956e-01
1.164831654000000105e+00,-8.361433499999999519e-01,6.033647885998631999e-01,1.000000000000000048e-04,4.290213035177732337e+01,1.600000000000000033e-01
9.274529849999999520e-01,-5.648102149999999488e-01,6.212701709159156316e-01,1.000000000000000048e-04,4.263200211987377486e+01,2.200000000000000011e-01
1.803806121999999901e+00,-1.051757271000000049e+00,3.336499011433502471e-01,1.000000000000000048e-04,4.106645842949536274e+01,2.200000000000000011e-01
1.910407339000000038e+00,-1.096340147000000043e+00,5.218353806252977733e-01,1.000000000000000048e-04,4.228144784924809585e+01,1.300000000000000044e-01
-2.994395329179586174e+00,-6.874333790000000111e-01,2.937042691248490378e-01,1.000000000000000048e-04,4.113447951153791138e+01,1.600000000000000033e-01
2.004169926999999962e+00,-1.114377941999999955e+00,4.506652786544054212e-01,1.000000000000000048e-04,4.232243421738074574e+01,2.099999999999999922e-01
2.993884073999999895e+00,-9.067153500000000310e-01,7.557398468785545553e-01,1.000000000000000048e-04,4.296569754299315491e+01,2.000000000000000111e-01
2.896584697999999847e+00,-6.981149509999999836e-01,4.587172197963309550e-01,1.000000000000000048e-04,4.228383518201630409e+01,2.000000000000000111e-01
2.644964143999999795e+00,-1.038456438999999953e+00,4.526546641441173691e-01,1.000000000000000048e-04,4.242952295763745951e+01,2.500000000000000000e-01
1.395029569000000080e+00,-9.673563530000000021e-01,1.366790461746196783e-01,1.000000000000000048e-04,3.918180836021232949e+01,2.200000000000000011e-01
1.133893306999999906e+00,-8.234022290000000410e-01,2.336891075577463006e-01,1.000000000000000048e-04,4.033734295664520886e+01,1.199999999999999956e-01
9.542908199999999841e-01,-6.210129070000000029e-01,4.690728479282855190e-01,1.000000000000000048e-04,4.200675817506358101e+01,1.400000000000000133e-01
1.112357503999999997e+00,-7.717409769999999947e-01,7.632287093430822900e-02,1.000000000000000048e-04,3.784561448233176861e+01,1.400000000000000133e-01
1.392129267000000059e+00,-9.489503049999999940e-01,5.962679912143935557e-01,1.000000000000000048e-04,4.271090730549562409e+01,1.100000000000000006e-01
3.104633763999999907e+00,-8.563587980000000321e-01,1.993055554775637894e-01,1.000000000000000048e-04,3.979685938162496228e+01,1.199999999999999956e-01
-1.581672989179586430e+00,-6.726275419999999672e-01,1.272630158551530943e-01,1.000000000000000048e-04,3.884571920396346201e+01,2.000000000000000111e-01
8.758714749999999549e-01,-5.394949780000000139e-01,2.064371781939140504e-01,1.000000000000000048e-04,3.988775159745591736e+01,1.199999999999999956e-01
1.027821937999999991e+00,-6.897361509999999640e-01,1.752545348681364690e-01,1.000000000000000048e-04,3.932784462958014871e+01,1.499999999999999944e-01
8.011105990000000343e-01,-4.568120419999999737e-01,7.639348442134208383e-02,1.000000000000000048e-04,3.786638271354831886e+01,1.499999999999999944e-01
8.044453879999999835e-01,-4.591503659999999765e-01,4.138610143288699028e-01,1.000000000000000048e-04,4.166085598684581015e+01,1.100000000000000006e-01
8.290542589999999601e-01,-4.498624509999999965e-01,8.312237564003921442e-01,1.000000000000000048e-04,4.368159678479279506e+01,1.199999999999999956e-01
2.306908324000000121e+00,-1.093655438999999951e+00,8.953440453571857027e-01,1.000000000000000048e-04,4.376437532535656061e+01,1.300000000000000044e-01
-3.090495873179586184e+00,-7.974218849999999970e-01,1.573250928207541310e-01,1.000000000000000048e-04,3.956311693320616030e+01,1.300000000000000044e-01
2.850739061000000074e+00,-9.724982730000000242e-01,4.712178636819492894e-01,1.000000000000000048e-04,4.213311243866968425e+01,1.100000000000000006e-01
1.925211972000000049e+00,-1.067349442999999898e+00,7.923925093754224935e-01,1.000000000000000048e-04,4.350440073939758889e+01,1.600000000000000033e-01
3.010706126000000094e+00,-9.149326070000000088e-01,1.816811116107999169e-01,1.000000000000000048e-04,3.957914838683115022e+01,1.199999999999999956e-01
1.754869720000000077e+00,-1.052947148999999971e+00,1.045063502939672873e+00,1.000000000000000048e-04,4.414856031824636773e+01,1.300000000000000044e-01
3.028086770999999899e+00,-8.725603690000000023e-01,6.136349637478810681e-01,1.000000000000000048e-04,4.281691047971346364e+01,1.199999999999999956e-01
2.780301081000000174e+00,-1.010780400000000023e+00,1.538513542771036136e-01,1.000000000000000048e-04,3.939943869463927939e+01,1.700000000000000122e-01
3.096540631999999960e+00,-8.261897350000000362e-01,1.285751943488995241e-01,1.000000000000000048e-04,3.895861480676473576e+01,1.100000000000000006e-01
-3.043596368179586342e+00,-7.656326449999999451e-01,1.258712801598165232e-01,1.000000000000000048e-04,3.887507022690650871e+01,1.100000000000000006e-01
2.593403560000000052e+00,-1.068240442000000012e+00,1.336487018429501905e+00,1.000000000000000048e-04,4.499945545805353220e+01,1.199999999999999956e-01
1.277663320999999907e+00,-8.910532270000000032e-01,2.086894754807890884e-01,1.000000000000000048e-04,4.008359063367007025e+01,1.499999999999999944e-01
8.729576639999999665e-01,-5.017517409999999733e-01,6.664983036256539872e-01,1.000000000000000048e-04,4.303848436371595909e+01,1.199999999999999956e-01
2.323316692000000128e+00,-1.072994334000000105e+00,1.858468659306025117e-01,1.000000000000000048e-04,4.001765908735469424e+01,1.400000000000000133e-01
-3.012222731179586166e+00,-7.219820959999999621e-01,1.308475672285936753e+00,1.000000000000000048e-04,4.469653082798426169e+01,1.199999999999999956e-01
2.306010604999999991e+00,-1.110345181000000014e+00,5.043598413472651920e-01,1.000000000000000048e-04,4.232492240109392156e+01,1.100000000000000006e-01
2.437557496999999795e+00,-1.097151527000000071e+00,6.200467145898653776e-01,1.000000000000000048e-04,4.290143241361345616e+01,1.100000000000000006e-01
1.098420291999999909e+00,-7.444727049999999569e-01,6.020006625939522404e-01,1.000000000000000048e-04,4.293284827278938565e+01,1.300000000000000044e-01
8.241628739999999897e-01,-4.611620249999999754e-01,2.142700923088400877e-01,1.000000000000000048e-04,3.999110212435565614e+01,1.400000000000000133e-01
1.017317494999999905e+00,-7.027905669999999771e-01,6.081749985457032270e-01,1.000000000000000048e-04,4.272605841947722638e+01,1.199999999999999956e-01
2.728679550999999925e+00,-1.007430967999999982e+00,1.619016564342610209e-01,1.000000000000000048e-04,3.956815368600602056e+01,1.100000000000000006e-01
2.848837458999999850e+00,-9.622339979999999793e-01,5.119529953088748364e-01,1.000000000000000048e-04,4.258743051035343541e+01,1.199999999999999956e-01
-3.065525731179586266e+00,-7.207210450000000046e-01,7.087915650654852406e-01,1.000000000000000048e-04,4.333380069406865687e+01,1.199999999999999956e-01
1.103969978000000074e+00,-7.587182380000000448e-01,3.143895206562297151e-01,1.000000000000000048e-04,4.125162750371323028e+01,1.300000000000000044e-01
1.112034854000000017e+00,-7.675460100000000008e-01,1.078997306255535360e+00,1.000000000000000048e-04,4.417176950800473634e+01,1.199999999999999956e-01
2.373162053000000160e+00,-1.072487750000000073e+00,3.465434289035593807e-01,1.000000000000000048e-04,4.136872910798142300e+01,1.100000000000000006e-01
2.221583438000000132e+00,-1.096064289000000080e+00,3.372783695333381182e-01,1.000000000000000048e-04,4.113155265655751691e+01,1.199999999999999956e-01
2.775251189000000007e+00,-1.013244017000000108e+00,3.126540362206797763e-01,1.000000000000000048e-04,4.095140057826628777e+01,1.700000000000000122e-01
1.527128894000000070e+00,-9.963611940000000056e-01,5.596203952715579355e-01,1.000000000000000048e-04,4.279965130358342407e+01,1.400000000000000133e-01
-1.936135624179586401e+00,1.327891944000000102e+00,1.489667893821025046e-01,1.000000000000000048e-04,3.925069790241700218e+01,1.199999999999999956e-01
2.120951332999999828e+00,-1.112975437000000012e+00,5.942811755734849211e-01,1.000000000000000048e-04,4.289732074565728936e+01,1.600000000000000033e-01
2.950704906999999988e+00,-9.277153000000000205e-01,6.353429439109692378e-01,1.000000000000000048e-04,4.263999861549238801e+01,1.700000000000000122e-01
2.461302839000000020e+00,-1.064109841000000056e+00,3.044140652284474946e-01,1.000000000000000048e-04,4.097675184492440081e+01,1.499999999999999944e-01
1.687800213000000049e+00,-1.037844004000000098e+00,1.116029064162828988e-01,1.000000000000000048e-04,3.872324531345680754e+01,1.100000000000000006e-01
-3.069023128179586113e+00,-7.343218900000000327e-01,2.148139129287205407e-01,1.000000000000000048e-04,4.013565336490086111e+01,2.000000000000000111e-01
7.655655390000000171e-01,-3.825025819999999799e-01,3.068938461611896429e-01,1.000000000000000048e-04,4.104309741058188621e+01,1.300000000000000044e-01
-3.051736326179586012e+00,-7.690870560000000467e-01,1.817827549258843600e-01,1.000000000000000048e-04,3.978303913050162066e+01,1.499999999999999944e-01
-3.116938176179586240e+00,-7.920766919999999711e-01,9.458078159759308878e-01,1.000000000000000048e-04,4.393612919291372521e+01,1.100000000000000006e-01
1.020863690000000101e+00,-6.877910739999999468e-01,3.135685946306607796e-01,1.000000000000000048e-04,4.089038309850449338e+01,1.199999999999999956e-01
1.792785233999999894e+00,-1.066474936999999956e+00,1.424894134190961559e-01,1.000000000000000048e-04,3.915200415847057513e+01,1.100000000000000006e-01
1.805689748000000039e+00,-1.066896787999999985e+00,4.278251811324524922e-01,1.000000000000000048e-04,4.187334495737854922e+01,1.100000000000000006e-01
1.773248071000000037e+00,-1.046601056999999946e+00,5.073378993197965592e-01,1.000000000000000048e-04,4.213983900590382348e+01,2.099999999999999922e-01
1.076689889999999927e+00,-7.549444410000000216e-01,3.083560581541595624e-01,1.000000000000000048e-04,4.097154959219481185e+01,1.199999999999999956e-01
2.336456505000000128e+00,-1.089906792000000069e+00,4.260210433313380562e-01,1.000000000000000048e-04,4.189240698823768128e+01,1.199999999999999956e-01
2.522083900000000156e+00,-1.078852812999999911e+00,1.751588189373542992e-01,1.000000000000000048e-04,3.964194871574584056e+01,1.199999999999999956e-01
3.676074389999999803e-01,1.100614297999999991e+00,9.092453309830490493e-01,1.000000000000000048e-04,4.384193062620013137e+01,1.700000000000000122e-01
2.099931574000000190e+00,-1.082223048999999993e+00,9.888259486385861941e-01,1.000000000000000048e-04,4.404871918486576021e+01,1.100000000000000006e-01
8.155488279999999479e-01,-4.642700679999999802e-01,4.188934335124070429e-01,1.000000000000000048e-04,4.188171444323999282e+01,2.099999999999999922e-01
9.861636230000000447e-01,-6.881834650000000497e-01,2.257984054479491576e-01,1.000000000000000048e-04,4.014816443154465730e+01,1.300000000000000044e-01
1.864254864999999928e+00,-1.086684659999999969e+00,3.885056165928326699e-01,1.000000000000000048e-04,4.161272246173381717e+01,1.199999999999999956e-01
2.873066016000000111e+00,-9.753574739999999466e-01,5.831151343497424921e-01,1.000000000000000048e-04,4.253329099011465786e+01,1.300000000000000044e-01
2.270287562000000037e+00,-1.085086717999999895e+00,3.474323122651439277e-01,1.000000000000000048e-04,4.141513726201102230e+01,1.799999999999999933e-01
8.268071609999999572e-01,-4.587794940000000099e-01,5.833232097427629714e-01,1.000000000000000048e-04,4.274747334202135107e+01,1.199999999999999956e-01
-3.050869045179586347e+00,-7.648855789999999821e-01,4.618612249175506612e-01,1.000000000000000048e-04,4.216127012316886180e+01,1.199999999999999956e-01
1.101963728999999947e+00,-7.466317359999999903e-01,3.095168358530946406e-01,1.000000000000000048e-04,4.110326126554949155e+01,1.900000000000000022e-01
1.745116724000000064e+00,-1.056563783000000090e+00,2.085462481279070079e-01,1.000000000000000048e-04,4.013359183063884217e+01,1.300000000000000044e-01
7.889769570000000343e-01,-3.846565690000000037e-01,1.021807893186520655e+00,1.000000000000000048e-04,4.408636047341435216e+01,1.499999999999999944e-01
1.385818830999999918e+00,-9.278259679999999454e-01,8.108796369281279226e-02,1.000000000000000048e-04,3.801929597975352237e+01,1.499999999999999944e-01
1.138484923000000038e+00,-8.197145099999999518e-01,2.473570312812800598e-01,1.000000000000000048e-04,4.044550037650130747e+01,1.400000000000000133e-01
1.783410439000000069e+00,-1.080958507999999929e+00,5.925807973006078644e-01,1.000000000000000048e-04,4.292907012117545662e+01,1.400000000000000133e-01
2.617653461000000181e+00,-1.025884226000000066e+00,4.627734966846730469e-01,1.000000000000000048e-04,4.194759454921351960e+01,1.199999999999999956e-01
8.270197009999999960e-01,-4.157453939999999903e-01,2.650628947446884709e-01,1.000000000000000048e-04,4.069709302230414494e+01,1.199999999999999956e-01
3.128792493000000174e+00,-8.522697870000000009e-01,8.083965674362425524e-02,1.000000000000000048e-04,3.772163442753376472e+01,1.100000000000000006e-01
1.366158207000000013e+00,-9.614226009999999878e-01,2.341921500402222023e-01,1.000000000000000048e-04,4.021114745678560354e+01,1.100000000000000006e-01
2.846286316000000038e+00,-9.688357899999999745e-01,1.812318841216518095e-01,1.000000000000000048e-04,3.973472700180997208e+01,1.400000000000000133e-01
9.208216280000000031e-01,-6.185352929999999860e-01,5.469391688003679697e-01,1.000000000000000048e-04,4.245706767881456045e+01,1.499999999999999944e-01
7.622987450000000553e-01,-3.411912120000000215e-01,2.151077969759611630e-01,1.000000000000000048e-04,4.022707383419616178e+01,1.199999999999999956e-01
9.277931750000000255e-01,-5.813990460000000304e-01,1.266716901799420647e-01,1.000000000000000048e-04,3.889497475109168079e+01,2.099999999999999922e-01
1.010173165000000095e+00,-6.808591280000000356e-01,8.841842595323889942e-01,1.000000000000000048e-04,4.387989978776249700e+01,1.300000000000000044e-01
1.661181446000000062e+00,-1.029160687999999935e+00,7.400548957481094536e-01,1.000000000000000048e-04,4.327854944673009641e+01,1.400000000000000133e-01
2.089878704000000198e+00,-1.077863170999999953e+00,1.228736312810909670e-01,1.000000000000000048e-04,3.882202262713636287e+01,1.199999999999999956e-01
9.321550429999999610e-01,-6.212176799999999943e-01,1.305101732406248161e+00,1.000000000000000048e-04,4.483823231258350006e+01,1.199999999999999956e-01
2.944595597000000176e+00,-9.127602249999999806e-01,3.054305069937712780e-01,1.000000000000000048e-04,4.114327853174781069e+01,1.100000000000000006e-01
1.288081913999999939e+00,-9.113959929999999598e-01,2.038598272879732498e-01,1.000000000000000048e-04,4.028702569992221783e+01,1.300000000000000044e-01
1.398731861999999992e+00,-9.625033109999999725e-01,7.221224163488422221e-01,1.000000000000000048e-04,4.324932682601874490e+01,1.199999999999999956e-01
1.714165549000000066e+00,-1.043104095999999981e+00,2.532019811242718355e-01,1.000000000000000048e-04,4.056833762284512801e+01,1.199999999999999956e-01
1.014018395999999989e+00,-6.788913789999999615e-01,2.646755920925070171e-01,1.000000000000000048e-04,4.081296683167478534e+01,1.300000000000000044e-01
8.887761809999999985e-01,-5.541821719999999729e-01,1.222473070575929910e+00,1.000000000000000048e-04,4.465798916981250244e+01,1.300000000000000044e-01
1.026278256999999972e+00,-6.961882160000000264e-01,6.035684303279851282e-01,1.000000000000000048e-04,4.264000545185631097e+01,1.199999999999999956e-01
1.824970581999999952e+00,-1.080428363000000003e+00,1.187994161292695861e-01,1.000000000000000048e-04,3.870987185926008323e+01,1.199999999999999956e-01
1.839979185000000017e+00,-1.082878103999999952e+00,8.584756268164417392e-02,1.000000000000000048e-04,3.806904172388937013e+01,1.300000000000000044e-01
-3.070118813179586237e+00,-7.641942569999999879e-01,6.973344904981870762e-01,1.000000000000000048e-04,4.301844663443257843e+01,1.199999999999999956e-01
2.250776613000000204e+00,-1.110438553999999911e+00,3.320657027989453169e-01,1.000000000000000048e-04,4.121903725931857565e+01,1.199999999999999956e-01
2.613802471000000072e+00,-1.066258922999999914e+00,9.686108586600503667e-01,1.000000000000000048e-04,4.422120710153350842e+01,1.199999999999999956e-01
8.050150120000000298e-01,-4.193234060000000096e-01,3.633315141677042615e-01,1.000000000000000048e-04,4.149917070062255675e+01,1.499999999999999944e-01
2.809576177999999924e+00,-9.952447749999999704e-01,3.971212672393071852e-01,1.000000000000000048e-04,4.167985139637693948e+01,1.199999999999999956e-01
8.523447290000000232e-01,-4.773689010000000121e-01,3.216586809730990204e-01,1.000000000000000048e-04,4.115398171255455395e+01,2.000000000000000111e-01
2.975142320999999868e+00,-8.986192680000000266e-01,2.532976428351043641e-01,1.000000000000000048e-04,4.062491976369306457e+01,2.000000000000000111e-01
2.960578484000000010e+00,-9.174235720000000205e-01,1.789594963128160465e-01,1.000000000000000048e-04,3.970288636014079486e+01,1.400000000000000133e-01
1.589239559999999996e+00,-1.046132274999999945e+00,4.883655240492918992e-01,1.000000000000000048e-04,4.211046208335457663e+01,1.199999999999999956e-01
1.095136271999999966e+00,-7.909478989999999543e-01,4.652950039912207014e-01,1.000000000000000048e-04,4.224520754058729466e+01,1.300000000000000044e-01
3.045277111999999953e+00,-8.831592660000000539e-01,2.151019472695061552e-01,1.000000000000000048e-04,3.970205657147609912e+01,1.799999999999999933e-01
3.011317304999999944e+00,-8.969173430000000335e-01,3.275698862914766529e-01,1.000000000000000048e-04,4.136761064176217673e+01,1.499999999999999944e-01
1.946036051000000100e+00,-1.101857058000000000e+00,5.364263350552660459e-01,1.000000000000000048e-04,4.247870736288577831e+01,1.100000000000000006e-01
9.659444579999999503e-01,-6.400164339999999674e-01,8.391920964933663463e-01,1.000000000000000048e-04,4.353451724675348800e+01,1.199999999999999956e-01
1.142944595999999979e+00,-8.229314749999999679e-01,3.509302821506787851e-01,1.000000000000000048e-04,4.123032518140788483e+01,1.499999999999999944e-01
1.336859599999999926e+00,-9.462661719999999610e-01,1.596024438946592738e-01,1.000000000000000048e-04,3.919489121222005679e+01,1.900000000000000022e-01
2.386695267999999981e+00,-1.099692616000000012e+00,7.883013631863033943e-02,1.000000000000000048e-04,3.763951919606542162e+01,1.799999999999999933e-01
1.122946417999999946e+00,-7.871106610000000448e-01,3.511604683444671249e-01,1.000000000000000048e-04,4.142960981362586637e+01,1.499999999999999944e-01
1.038511049000000019e+00,-6.836743480000000428e-01,5.641379523397902496e-01,1.000000000000000048e-04,4.263852997288919511e+01,1.499999999999999944e-01
-1.865548755179585960e+00,5.988235499999999822e-01,4.261269348376515165e-01,1.000000000000000048e-04,4.194328909835806485e+01,3.599999999999999867e-01
-1.208774007179585830e+00,1.086301519000000049e+00,3.764312026382783394e-01,1.000000000000000048e-04,4.115237012192515209e+01,3.900000000000000133e-01
-1.451351928179586359e+00,1.047303024999999943e+00,7.908821070717340085e-01,1.000000000000000048e-04,4.379082487086475339e+01,3.900000000000000133e-01
-1.863787002179586594e+00,5.986409590000000280e-01,9.594398400048698150e-02,1.000000000000000048e-04,3.805076632408850656e+01,3.099999999999999978e-01
-2.367107747179586053e+00,3.570653329999999848e-01,1.364770798902401605e-01,1.000000000000000048e-04,3.904731407252847220e+01,3.300000000000000155e-01
3.110012692999999828e+00,-8.816387980000000013e-01,1.357106887283858754e-01,1.000000000000000048e-04,3.843120906868919917e+01,4.000000000000000222e-01
1.208427087000000011e+00,6.391205479999999550e-01,1.223305582268905845e+00,1.000000000000000048e-04,4.432419077755165659e+01,3.200000000000000067e-01
2.195568135999999893e+00,9.530612539999999688e-01,7.655254699216789138e-01,1.000000000000000048e-04,4.360539346332261346e+01,3.200000000000000067e-01
-1.746303855179585973e+00,7.561700099999999480e-01,3.004928753819051668e-01,1.000000000000000048e-04,4.114251545775206864e+01,3.599999999999999867e-01
-2.613733020179586308e+00,3.020363409999999860e-01,3.136926717881387550e-01,1.000000000000000048e-04,4.095994843442117173e+01,2.399999999999999911e-01
3.080075141000000016e+00,6.813462000000000129e-01,2.856683516909725995e-01,1.000000000000000048e-04,4.091212764531338308e+01,2.999999999999999889e-01
3.084152930000000126e+00,6.750201959999999612e-01,2.305931960587483953e-01,1.000000000000000048e-04,4.060766153912184251e+01,2.399999999999999911e-01
-2.831540824179586302e+00,-5.193198470000000011e-01,1.180614544649578157e+00,1.000000000000000048e-04,4.440954562830995656e+01,2.899999999999999800e-01
2.921667255000000019e+00,-9.403574120000000036e-01,3.351024347246553958e-01,1.000000000000000048e-04,4.131399837895401816e+01,2.899999999999999800e-01
2.610543199999999953e+00,9.294079060000000059e-01,8.571378356399945719e-01,1.000000000000000048e-04,4.374997556150985645e+01,2.899999999999999800e-01
2.614058957000000127e+00,9.310355519999999885e-01,4.484352713261066103e-01,1.000000000000000048e-04,4.234595026407708218e+01,3.699999999999999956e-01
-2.614313936179586406e+00,3.105085300000000048e-01,1.047568072095357294e-01,1.000000000000000048e-04,3.860616176458280790e+01,2.300000000000000100e-01
-2.614275993179586255e+00,3.084493819999999942e-01,1.304454540468619861e+00,1.000000000000000048e-04,4.517683546604018829e+01,2.000000000000000111e-01
3.080236718000000096e+00,6.852664600000000217e-01,4.785838490163756287e-01,1.000000000000000048e-04,4.254645423407836091e+01,3.800000000000000044e-01
3.085135451000000195e+00,6.840520260000000352e-01,1.673943077667794377e-01,1.000000000000000048e-04,3.988170221230785728e+01,2.300000000000000100e-01
-2.829361723179586452e+00,-5.190188390000000096e-01,6.575951156119110852e-01,1.000000000000000048e-04,4.286718781709892312e+01,3.900000000000000133e-01
-2.833706243179586082e+00,-5.260186759999999628e-01,8.166393993205001145e-01,1.000000000000000048e-04,4.384893629519301328e+01,2.200000000000000011e-01
1.286414458000000094e+00,-9.076167339999999806e-01,2.101823518375860456e-01,1.000000000000000048e-04,3.996779919809215187e+01,2.399999999999999911e-01
2.295144749999999956e+00,-1.095028292000000070e+00,1.334400385076401907e+00,1.000000000000000048e-04,4.505202816184905856e+01,2.000000000000000111e-01
2.312115046000000174e+00,-1.091482969000000081e+00,3.396015578896656173e-01,1.000000000000000048e-04,4.139226328263968924e+01,1.900000000000000022e-01
2.535381049000000164e+00,-1.063602453999999975e+00,5.269633544153011773e-01,1.000000000000000048e-04,4.242692558405836678e+01,2.600000000000000089e-01
2.549902755000000187e+00,-1.059649137999999935e+00,9.113283837962260492e-02,1.000000000000000048e-04,3.802370318814921291e+01,1.900000000000000022e-01
-2.980466121795863899e-01,1.081935794000000062e+00,5.818857797658172348e-01,1.000000000000000048e-04,4.291665551927025035e+01,1.000000000000000056e-01
-4.562223411795862660e-01,1.078420874000000085e+00,2.088734906758020760e-01,1.000000000000000048e-04,4.008227138733890627e+01,1.400000000000000133e-01
-4.727696341795866175e-01,1.076427226000000070e+00,1.052413399738637789e+00,1.000000000000000048e-04,4.437124890089763340e+01,1.900000000000000022e-01
-4.909850281795860028e-01,1.086050390999999893e+00,5.990820637351734756e-01,1.000000000000000048e-04,4.277593733663044162e+01,1.499999999999999944e-01
-1.809890014179586615e+00,8.554848849999999727e-01,8.046902039716807842e-02,1.000000000000000048e-04,3.816085770048661630e+01,1.900000000000000022e-01
-1.804843805179586091e+00,8.509932909999999850e-01,3.597615907956912551e-01,1.000000000000000048e-04,4.147885190001213829e+01,1.700000000000000122e-01
-1.798315402179586187e+00,8.389159160000000393e-01,3.897514204101759638e-01,1.000000000000000048e-04,4.171372842881147847e+01,1.100000000000000006e-01
-1.820018681179586650e+00,8.404092629999999620e-01,3.483747331546789283e-01,1.000000000000000048e-04,4.160219998875955127e+01,2.000000000000000111e-01
-2.435936564179586039e+00,3.767214549999999829e-01,6.813910506316722682e-01,1.000000000000000048e-04,4.322603788018458459e+01,1.700000000000000122e-01
-2.738532057179586143e+00,-4.670391260000000266e-01,2.277501109450879024e-01,1.000000000000000048e-04,4.019526089864609730e+01,1.100000000000000006e-01
-2.750126147179586145e+00,-4.750163370000000107e-01,1.302921544742738913e-01,1.000000000000000048e-04,3.878650688302951011e+01,1.700000000000000122e-01
6.777063359999999648e-01,-9.284162910000000046e-01,4.398399872126084187e-01,1.000000000000000048e-04,4.188821442872134071e+01,1.600000000000000033e-01
6.755664329999999662e-01,-9.242990760000000527e-01,5.574407434891186508e-01,1.000000000000000048e-04,4.278471123075005522e+01,2.200000000000000011e-01
1.666277256000000095e+00,1.035703752000000089e+00,3.717670119067408852e-01,1.000000000000000048e-04,4.133411738753906661e+01,2.800000000000000266e-01
1.679531192000000006e+00,1.034147155999999956e+00,4.431362032595562717e-01,1.000000000000000048e-04,4.210299145222504791e+01,2.099999999999999922e-01
1.669961188000000041e+00,1.045784459000000055e+00,1.074632202626366606e-01,1.000000000000000048e-04,3.850010430355696656e+01,2.899999999999999800e-01
1.666612017000000057e+00,1.035903760999999923e+00,2.019071264198675220e-01,1.000000000000000048e-04,3.989433267920441040e+01,1.400000000000000133e-01
1.676630470000000095e+00,1.049302589999999924e+00,1.308343592373367503e+00,1.000000000000000048e-04,4.499451290668996961e+01,1.600000000000000033e-01
1.678871634000000057e+00,1.037439988999999896e+00,6.824364649126914983e-01,1.000000000000000048e-04,4.296779474333514770e+01,2.099999999999999922e-01
-2.159653925179585876e+00,7.341517600000000421e-01,2.537755946510693583e-01,1.000000000000000048e-04,4.080396839224374617e+01,2.600000000000000089e-01
-2.155609593179586447e+00,7.327229189999999726e-01,1.340522877000158708e-01,1.000000000000000048e-04,3.897084706836093915e+01,1.400000000000000133e-01
2.989279821999999864e+00,-1.014333855000000062e+00,3.432485861437228891e-01,1.000000000000000048e-04,4.112607892788251718e+01,1.600000000000000033e-01
6.962963009999999509e-01,-9.242906640000000396e-01,8.698381236218335477e-01,1.000000000000000048e-04,4.391111987332521949e+01,2.000000000000000111e-01
6.831622830000000368e-01,-9.295060950000000322e-01,1.372466083588066432e-01,1.000000000000000048e-04,3.902192778473872181e+01,2.099999999999999922e-01
6.813526220000000189e-01,-9.196739680000000083e-01,8.503303116335474421e-01,1.000000000000000048e-04,4.380790831765788340e+01,1.700000000000000122e-01
1.667475545999999920e+00,1.039138789999999979e+00,8.349387103520471420e-01,1.000000000000000048e-04,4.344626213533764769e+01,1.499999999999999944e-01
1.669072946000000002e+00,1.039627206000000026e+00,9.283815958889634068e-01,1.000000000000000048e-04,4.398601596779949574e+01,1.700000000000000122e-01
2.992464221000000091e+00,-1.009427984000000000e+00,5.566037844047948546e-01,1.000000000000000048e-04,4.254085493871605195e+01,1.400000000000000133e-01
3.013377762000000182e+00,-1.015725085999999999e+00,4.624065255185785261e-01,1.000000000000000048e-04,4.207737222109486197e+01,1.499999999999999944e-01
6.857830799999999893e-01,-9.290922369999999875e-01,6.136492326979687828e-01,1.000000000000000048e-04,4.273023875519385939e+01,3.400000000000000244e-01
6.874880420000000214e-01,-9.251381180000000093e-01,4.534056296093720295e-01,1.000000000000000048e-04,4.233570924980021744e+01,1.700000000000000122e-01
1.659686511000000086e+00,1.040101345999999927e+00,4.615127593119918714e-01,1.000000000000000048e-04,4.199577454851824143e+01,1.400000000000000133e-01
1.692629780999999944e+00,1.043637506000000048e+00,1.615579367470740824e-01,1.000000000000000048e-04,3.927971388547242526e+01,1.799999999999999933e-01
1.682450028999999958e+00,1.049226146999999942e+00,3.093356765883914505e-01,1.000000000000000048e-04,4.094847138825147681e+01,1.900000000000000022e-01
1.675255906999999933e+00,1.048468626000000015e+00,6.158058912603574520e-01,1.000000000000000048e-04,4.309513921621284283e+01,1.499999999999999944e-01
1.692145135000000078e+00,1.039981480000000014e+00,9.484134307818847809e-02,1.000000000000000048e-04,3.824099757423317669e+01,1.700000000000000122e-01
-2.139768073179586061e+00,7.360294179999999908e-01,7.594676034863017122e-01,1.000000000000000048e-04,4.340231964500317474e+01,1.600000000000000033e-01
-2.138731675179585956e+00,7.369836659999999817e-01,1.126138849227942274e-01,1.000000000000000048e-04,3.843178278070312359e+01,1.499999999999999944e-01
6.888283630000000546e-01,-9.193630990000000169e-01,4.255791131756638812e-01,1.000000000000000048e-04,4.196184961757631982e+01,1.700000000000000122e-01
6.776433490000000059e-01,-9.225326109999999469e-01,3.911709502554265860e-01,1.000000000000000048e-04,4.182790505847822260e+01,1.600000000000000033e-01
6.820513620000000499e-01,-9.162569579999999547e-01,4.108748680378635498e-01,1.000000000000000048e-04,4.212543007496348224e+01,2.899999999999999800e-01
6.832637360000000104e-01,-9.208365670000000502e-01,5.632637561494728828e-01,1.000000000000000048e-04,4.269094516182444465e+01,1.400000000000000133e-01
1.683256381999999940e+00,1.050427892999999946e+00,3.218064897071979402e-01,1.000000000000000048e-04,4.128078456224191939e+01,1.499999999999999944e-01
2.987248335999999949e+00,-1.011507587000000097e+00,8.396013133267243855e-01,1.000000000000000048e-04,4.363210833934839883e+01,1.900000000000000022e-01
2.994879214000000012e+00,-1.020537374999999969e+00,6.348829439362198013e-01,1.000000000000000048e-04,4.262443867435619893e+01,2.500000000000000000e-01
2.997056848999999801e+00,-1.020797841000000039e+00,1.533708641922055804e-01,1.000000000000000048e-04,3.938664489332489183e+01,1.499999999999999944e-01
6.981827720000000070e-01,-9.201470600000000166e-01,2.726832542759696221e-01,1.000000000000000048e-04,4.073370401825761888e+01,2.099999999999999922e-01
1.675679171999999939e+00,1.042232051000000048e+00,1.852440502549381751e-01,1.000000000000000048e-04,4.010769215919012964e+01,1.900000000000000022e-01
1.682732345000000018e+00,1.051774148000000020e+00,2.245659544105536032e-01,1.000000000000000048e-04,3.995658879961793986e+01,2.099999999999999922e-01
1.655763980999999996e+00,1.041789395999999979e+00,9.998334291465638124e-02,1.000000000000000048e-04,3.847573792969045314e+01,2.099999999999999922e-01
1.658505131999999938e+00,1.042043577999999915e+00,5.310762465538041432e-01,1.000000000000000048e-04,4.248051902273488167e+01,1.499999999999999944e-01
1.679931540999999973e+00,1.044700675999999939e+00,4.625317548393006462e-01,1.000000000000000048e-04,4.183937512326671992e+01,1.400000000000000133e-01
1.681131209999999987e+00,1.046558263000000100e+00,5.515953208729109658e-01,1.000000000000000048e-04,4.164079910192482004e+01,3.800000000000000044e-01
-2.147380102179586636e+00,7.248191320000000326e-01,2.202260160369438058e-01,1.000000000000000048e-04,3.993235940975453957e+01,2.200000000000000011e-01
-2.137481690179586558e+00,7.386978770000000027e-01,8.036437279299064596e-01,1.000000000000000048e-04,4.349989234352697309e+01,1.499999999999999944e-01
3.007533192999999994e+00,-1.006434849999999992e+00,4.375585368793908358e-01,1.000000000000000048e-04,4.192234638510441869e+01,1.700000000000000122e-01
6.766177190000000063e-01,-9.309161569999999664e-01,1.308737049269717012e-01,1.000000000000000048e-04,3.917664964703718056e+01,1.700000000000000122e-01
6.879719020000000240e-01,-9.170357009999999809e-01,3.672522938436764139e-01,1.000000000000000048e-04,4.116979714830561932e+01,2.600000000000000089e-01
6.868192690000000100e-01,-9.190749710000000183e-01,3.677890618153722979e-01,1.000000000000000048e-04,4.180987439719779530e+01,2.800000000000000266e-01
1.680927606000000019e+00,1.043199457999999913e+00,9.024728312575338585e-01,1.000000000000000048e-04,4.385030986697463362e+01,1.799999999999999933e-01
1.680733408999999901e+00,1.046110547000000057e+00,9.277598967129712104e-01,1.000000000000000048e-04,4.385647031116008066e+01,1.499999999999999944e-01
3.003205794999999956e+00,-1.007960921000000010e+00,1.183410940117255450e-01,1.000000000000000048e-04,3.876249240040134225e+01,2.200000000000000011e-01
3.013387552999999830e+00,-1.018013843000000085e+00,5.625595076748541867e-01,1.000000000000000048e-04,4.278023450937317307e+01,2.000000000000000111e-01
2.991633154000000072e+00,-1.018575491000000000e+00,2.544017348613680785e-01,1.000000000000000048e-04,4.087357186032403433e+01,1.600000000000000033e-01
6.810583510000000063e-01,-9.216344210000000370e-01,6.731019345336597404e-01,1.000000000000000048e-04,4.294584170371000198e+01,1.600000000000000033e-01
1.670069762000000013e+00,1.048284639000000018e+00,1.029987502726645854e-01,1.000000000000000048e-04,3.818081318432186322e+01,2.099999999999999922e-01
1.699713636000000028e+00,1.040243690999999915e+00,1.486968645614303863e-01,1.000000000000000048e-04,3.951784672957307976e+01,2.899999999999999800e-01
1.686195045999999920e+00,1.048540513999999924e+00,1.293073623345533552e+00,1.000000000000000048e-04,4.483336681518221667e+01,1.400000000000000133e-01
1.667162669999999958e+00,1.044746053999999980e+00,2.931971845411354138e-01,1.000000000000000048e-04,4.113013637808821699e+01,2.700000000000000178e-01
1.689467040999999892e+00,1.036330184999999959e+00,8.306750619090430554e-01,1.000000000000000048e-04,4.359696339050543656e+01,1.300000000000000044e-01
1.683799076999999977e+00,1.043385784000000038e+00,1.550631872892058727e-01,1.000000000000000048e-04,3.947838324818344802e+01,1.700000000000000122e-01
-2.151455832179586025e+00,7.398983139999999459e-01,1.249889202504269825e+00,1.000000000000000048e-04,4.447665901923333820e+01,2.500000000000000000e-01
-2.141944958179585967e+00,7.302793560000000461e-01,3.502963354340329349e-01,1.000000000000000048e-04,4.123002129047757336e+01,1.400000000000000133e-01
3.012489310999999947e+00,-1.019874449000000016e+00,4.893295067581850954e-01,1.000000000000000048e-04,4.218788709275333559e+01,1.900000000000000022e-01
6.824463880000000149e-01,-9.193269539999999740e-01,6.163781899532723152e-01,1.000000000000000048e-04,4.290433524365100482e+01,1.600000000000000033e-01
6.933168330000000212e-01,-9.307474239999999899e-01,4.904026265115393191e-01,1.000000000000000048e-04,4.219104244766647582e+01,1.600000000000000033e-01
7.005346909999999871e-01,-9.247541049999999929e-01,2.590250867887122777e-01,1.000000000000000048e-04,4.115598020429705883e+01,2.700000000000000178e-01
1.674988617999999985e+00,1.042237757999999959e+00,2.842683918192683290e-01,1.000000000000000048e-04,4.078877120659533517e+01,1.499999999999999944e-01
1.672026148000000045e+00,1.039374368000000048e+00,1.421429970342629190e-01,1.000000000000000048e-04,3.926073847272909489e+01,1.600000000000000033e-01
2.993618983999999816e+00,-1.008517228000000099e+00,1.026163369870711772e-01,1.000000000000000048e-04,3.807835915785316416e+01,1.700000000000000122e-01
2.992837709999999873e+00,-1.014889098000000045e+00,8.854425647233532537e-01,1.000000000000000048e-04,4.384513385049168477e+01,2.800000000000000266e-01
2.980621672999999916e+00,-1.012535224000000067e+00,2.753267129985865758e-01,1.000000000000000048e-04,4.065753064156738361e+01,1.499999999999999944e-01
3.118379398000000080e+00,-1.044341935000000055e+00,1.055070639188429027e-01,1.000000000000000048e-04,3.807022310019921463e+01,3.099999999999999978e-01
3.132904315000000217e+00,-1.046896950999999909e+00,2.144136303456389836e-01,1.000000000000000048e-04,3.997884809427124253e+01,2.200000000000000011e-01
1.248659997999999938e+00,-1.117162079000000086e+00,1.253237423459978572e+00,1.000000000000000048e-04,4.458912342073243451e+01,2.700000000000000178e-01
2.302446713000000145e+00,-1.091359299000000060e+00,3.844372192861205129e-01,1.000000000000000048e-04,4.198909180023671439e+01,2.899999999999999800e-01
3.133486173000000097e+00,-1.061461677999999909e+00,4.176075682197815109e-01,1.000000000000000048e-04,4.178851444340804733e+01,3.099999999999999978e-01
1.251013366000000016e+00,-1.102704651999999896e+00,2.937953872335732353e-01,1.000000000000000048e-04,4.068611188818910307e+01,2.300000000000000100e-01
1.232341668999999973e+00,-1.105349812000000043e+00,9.337923096790952115e-01,1.000000000000000048e-04,4.389809018971000398e+01,2.200000000000000011e-01
2.330538756999999794e+00,-1.086213730999999960e+00,5.894380399581615748e-01,1.000000000000000048e-04,4.254918283963056069e+01,2.300000000000000100e-01
3.104372880000000112e+00,-1.050765708999999992e+00,3.245726744271613118e-01,1.000000000000000048e-04,4.145296155866108023e+01,2.200000000000000011e-01
3.122794933000000217e+00,-1.050942575000000101e+00,1.123792169756157033e-01,1.000000000000000048e-04,3.884873909979351936e+01,2.099999999999999922e-01
3.135928428000000157e+00,-1.044986675000000087e+00,4.365461223585649364e-01,1.000000000000000048e-04,4.156302168319485446e+01,2.300000000000000100e-01
3.135701593999999925e+00,-1.049448040999999998e+00,4.805768122444025181e-01,1.000000000000000048e-04,4.188537736910438269e+01,2.399999999999999911e-01
2.902190216000000156e+00,-1.054666754000000095e+00,5.944069092762112039e-01,1.000000000000000048e-04,4.283793026755418509e+01,2.099999999999999922e-01
1.219278212000000083e+00,-1.102494101000000004e+00,6.131234775072336163e-01,1.000000000000000048e-04,4.287081732083520080e+01,2.399999999999999911e-01
2.314258420999999899e+00,-1.073777474999999981e+00,3.034782762666976552e-01,1.000000000000000048e-04,4.129251286604471716e+01,2.399999999999999911e-01
3.138600745000000192e+00,-1.056209613999999908e+00,6.370015753296778271e-01,1.000000000000000048e-04,4.310780639090692290e+01,2.800000000000000266e-01
2.873014373000000177e+00,-1.047336534999999902e+00,1.352612047187875532e-01,1.000000000000000048e-04,3.919212307970007458e+01,2.000000000000000111e-01
2.890150627000000139e+00,-1.045368942999999939e+00,3.319268574672666894e-01,1.000000000000000048e-04,4.105119036176872527e+01,2.200000000000000011e-01
-3.136513490179586139e+00,-1.038988312000000080e+00,1.784585455381129115e-01,1.000000000000000048e-04,3.953707543328994944e+01,2.800000000000000266e-01
3.120369102000000172e+00,-1.042910143999999928e+00,5.860889488498437494e-01,1.000000000000000048e-04,4.311559951885842423e+01,2.399999999999999911e-01
3.132773262000000170e+00,-1.048570620000000009e+00,2.685653455423999691e-01,1.000000000000000048e-04,4.037342140752579667e+01,2.300000000000000100e-01
3.132934141999999866e+00,-1.046888051000000042e+00,1.454553740379669335e-01,1.000000000000000048e-04,3.919744868434470675e+01,2.200000000000000011e-01
3.134455274000000014e+00,-1.046257098000000108e+00,2.604600981902140955e-01,1.000000000000000048e-04,4.075775518408030962e+01,2.200000000000000011e-01
2.910504301000000016e+00,-1.063930792999999930e+00,2.254048035705640274e-01,1.000000000000000048e-04,4.022452235271817500e+01,2.399999999999999911e-01
2.301930878999999930e+00,-1.084305269999999988e+00,4.020265140964931483e-01,1.000000000000000048e-04,4.211021820081244726e+01,3.099999999999999978e-01
2.314913878000000036e+00,-1.104421796000000011e+00,2.859500463376947188e-01,1.000000000000000048e-04,4.082726932065210690e+01,2.600000000000000089e-01
1.232494258000000009e+00,-1.089556776000000005e+00,1.306517385237527584e+00,1.000000000000000048e-04,4.498956136916038417e+01,3.099999999999999978e-01
-3.138875270179586341e+00,-1.027091259999999950e+00,9.958131678865300707e-02,1.000000000000000048e-04,3.784010051693292098e+01,3.800000000000000044e-01
1.277748142000000087e+00,-1.105660628999999950e+00,2.245102208082998541e-01,1.000000000000000048e-04,3.989312360577407901e+01,2.500000000000000000e-01
2.339694710999999927e+00,-1.083680948999999893e+00,3.290577825118357058e-01,1.000000000000000048e-04,4.135928615832084887e+01,2.300000000000000100e-01
3.085408954000000037e+00,-1.045989441999999991e+00,8.461304412367660621e-01,1.000000000000000048e-04,4.398435413229061908e+01,2.800000000000000266e-01
3.122183823999999941e+00,-1.053540683000000033e+00,2.009904423229156301e-01,1.000000000000000048e-04,3.985014445824663198e+01,3.699999999999999956e-01
1.263417701000000060e+00,-1.099941301000000093e+00,5.172291708349276984e-01,1.000000000000000048e-04,4.237577091152295594e+01,2.200000000000000011e-01
1.238769020999999970e+00,-1.122513239999999968e+00,4.872632202822106962e-01,1.000000000000000048e-04,4.256606553898442513e+01,2.600000000000000089e-01
1.225778744000000087e+00,-1.107856694000000086e+00,3.228222562881093438e-01,1.000000000000000048e-04,4.117866555159040587e+01,2.500000000000000000e-01
2.356185176999999964e+00,-1.090954028000000076e+00,3.541919446298993357e-01,1.000000000000000048e-04,4.102110388778843486e+01,2.700000000000000178e-01
1.231078855000000027e+00,-1.109460918999999990e+00,2.855023577371704757e-01,1.000000000000000048e-04,4.099609036212730473e+01,2.300000000000000100e-01
2.350025410999999842e+00,-1.078254897999999962e+00,9.669842539058515207e-02,1.000000000000000048e-04,3.853458154774175171e+01,2.300000000000000100e-01
2.889344674999999807e+00,-1.054064458000000037e+00,5.887090892579454060e-01,1.000000000000000048e-04,4.246455139399550660e+01,3.200000000000000067e-01
1.260972444000000081e+00,-1.102168519999999985e+00,5.685917869910088740e-01,1.000000000000000048e-04,4.239656384589258664e+01,2.899999999999999800e-01
3.138597202000000141e+00,-1.049455424000000026e+00,1.068417258086054034e-01,1.000000000000000048e-04,3.842627981045988150e+01,2.600000000000000089e-01
1.280173519000000093e+00,-1.106045986000000036e+00,1.650187288255946516e-01,1.000000000000000048e-04,3.959755215129021622e+01,2.899999999999999800e-01
3.140421104000000074e+00,-1.048273016000000002e+00,8.973981364476901756e-01,1.000000000000000048e-04,4.409009049514381218e+01,2.700000000000000178e-01
2.887571490000000018e+00,-1.060290981000000077e+00,2.773290051091419350e-01,1.000000000000000048e-04,4.079041663650198046e+01,2.300000000000000100e-01
3.117377486000000086e+00,-1.048849812999999909e+00,4.491279871207223273e-01,1.000000000000000048e-04,4.192756870119890777e+01,2.800000000000000266e-01
3.139331405000000075e+00,-1.045946368000000071e+00,3.654985237772934159e-01,1.000000000000000048e-04,4.087524136775542871e+01,2.300000000000000100e-01
2.901812189000000153e+00,-1.070407117000000019e+00,6.172847495157351982e-01,1.000000000000000048e-04,4.303931880705057011e+01,2.200000000000000011e-01
2.874698792999999863e+00,-1.069280417999999955e+00,3.538087123190671868e-01,1.000000000000000048e-04,4.126674851640058961e+01,2.200000000000000011e-01
3.126790450000000110e+00,-1.053686536000000062e+00,2.779504332849116466e-01,1.000000000000000048e-04,4.100179301169831092e+01,2.099999999999999922e-01
1.253234667999999941e+00,-1.096167120000000050e+00,4.476668667515593114e-01,1.000000000000000048e-04,4.180977466970981737e+01,2.200000000000000011e-01
1.242189800000000011e+00,-1.095888138000000067e+00,3.078267008174506714e-01,1.000000000000000048e-04,4.109782307869477336e+01,2.899999999999999800e-01
2.358704259000000025e+00,-1.096119858000000002e+00,1.365722564488274227e-01,1.000000000000000048e-04,3.896798959367653481e+01,2.099999999999999922e-01
3.090657074000000115e+00,-1.046905049999999893e+00,2.918211039637235160e-01,1.000000000000000048e-04,4.095454349965720553e+01,2.300000000000000100e-01
2.350320292999999783e+00,-1.077642637000000070e+00,2.946034287048797662e-01,1.000000000000000048e-04,4.109598679310803959e+01,3.300000000000000155e-01
3.120911620999999858e+00,-1.047605429999999949e+00,1.874153000398821600e-01,1.000000000000000048e-04,3.981350178448946764e+01,2.899999999999999800e-01
2.310418793000000193e+00,-1.091478047999999923e+00,2.186044048158306552e-01,1.000000000000000048e-04,3.988165961335305809e+01,3.300000000000000155e-01
2.888242410000000149e+00,-1.055260810999999910e+00,4.487914992472854525e-01,1.000000000000000048e-04,4.226879948499681916e+01,2.999999999999999889e-01
2.313880778000000138e+00,-1.089056457000000089e+00,3.005773257983432867e-01,1.000000000000000048e-04,4.068016860067073281e+01,2.600000000000000089e-01
3.096505394999999883e+00,-1.050897790999999915e+00,1.262311823050580095e+00,1.000000000000000048e-04,4.526801094626560484e+01,3.300000000000000155e-01
1.264206060000000020e+00,-1.108314516000000083e+00,1.841593982713447541e-01,1.000000000000000048e-04,3.951827830192642921e+01,2.500000000000000000e-01
2.317080779999999951e+00,-1.080569537999999996e+00,2.684221661413441762e-01,1.000000000000000048e-04,4.105391200452636014e+01,2.399999999999999911e-01
2.308161032000000112e+00,-1.080284865999999955e+00,2.425709740831376582e-01,1.000000000000000048e-04,4.048234501176825262e+01,3.900000000000000133e-01
1.213089824000000094e+00,-1.095999417000000031e+00,3.391279370221691458e-01,1.000000000000000048e-04,4.136263582690504848e+01,2.700000000000000178e-01
3.095344697999999894e+00,-1.044259242999999948e+00,9.006280803333930329e-01,1.000000000000000048e-04,4.357181079442754879e+01,2.200000000000000011e-01
3.093500166000000107e+00,-1.047656949999999920e+00,9.081746234010446006e-01,1.000000000000000048e-04,4.394685339320691497e+01,2.300000000000000100e-01
2.871266652000000086e+00,-1.064917746999999970e+00,1.053554395825078149e-01,1.000000000000000048e-04,3.789012343926533788e+01,2.500000000000000000e-01
2.872879009000000039e+00,-1.076645507999999918e+00,1.162832631908468972e+00,1.000000000000000048e-04,4.427763718426603390e+01,2.099999999999999922e-01
1.241294699000000001e+00,-1.109043570000000090e+00,3.800543105353788587e-01,1.000000000000000048e-04,4.138368915535640724e+01,2.099999999999999922e-01
1.238788393000000099e+00,-1.083197141000000085e+00,3.584088221429697629e-01,1.000000000000000048e-04,4.207035126371781075e+01,2.999999999999999889e-01
-3.140928712179586135e+00,-1.049943351000000025e+00,1.139711853176643697e-01,1.000000000000000048e-04,3.854970649791211201e+01,2.200000000000000011e-01
2.897074545000000168e+00,-1.050668165000000043e+00,2.329682902554384150e-01,1.000000000000000048e-04,4.052567158867427111e+01,2.099999999999999922e-01
3.133488720999999977e+00,-1.053899826000000095e+00,2.135497936453900625e-01,1.000000000000000048e-04,3.994010412007682476e+01,2.300000000000000100e-01
2.854965548000000020e+00,-1.051119023000000041e+00,1.176107148590093132e-01,1.000000000000000048e-04,3.873029694206720563e+01,3.200000000000000067e-01
2.846666281000000076e+00,-1.061494909000000098e+00,1.175965769658298132e-01,1.000000000000000048e-04,3.880360035333893620e+01,2.600000000000000089e-01
1.477625364000000108e+00,-9.892628350000000070e-01,7.227923398894133822e-01,1.000000000000000048e-04,4.292869927621734405e+01,2.000000000000000111e-01
-2.998301261179586064e+00,-5.567642400000000213e-01,8.214350844940598861e-01,1.000000000000000048e-04,4.339186149373005463e+01,1.799999999999999933e-01
2.915910107000000195e+00,-9.248875840000000403e-01,8.501595642795194419e-01,1.000000000000000048e-04,4.375722448801592890e+01,2.999999999999999889e-01
2.904218159000000021e+00,-9.279150130000000107e-01,1.996703451957155817e-01,1.000000000000000048e-04,4.022631071385183787e+01,2.399999999999999911e-01
2.945746643000000109e+00,-9.241091030000000428e-01,3.547992858262056792e-01,1.000000000000000048e-04,4.117234149883648087e+01,2.300000000000000100e-01
2.195221751000000054e+00,9.567984520000000215e-01,1.358029086292265042e-01,1.000000000000000048e-04,3.911451812488155610e+01,2.200000000000000011e-01
-2.382074272179586227e+00,-9.504311730000000180e-01,6.881738891677917636e-01,1.000000000000000048e-04,4.320907043570772288e+01,2.300000000000000100e-01
2.197803225999999999e+00,9.560313849999999558e-01,4.025838987711560790e-01,1.000000000000000048e-04,4.177272546772716311e+01,2.300000000000000100e-01
-2.380846050179586282e+00,-9.512843520000000552e-01,3.122720363807718336e-01,1.000000000000000048e-04,4.095593297514974296e+01,2.600000000000000089e-01
-2.382960995179586039e+00,-9.501026420000000527e-01,8.192799760907274464e-01,1.000000000000000048e-04,4.326169948385785347e+01,2.099999999999999922e-01
2.192165822000000208e+00,9.554729659999999791e-01,2.012133845675088129e-01,1.000000000000000048e-04,3.962731703786464266e+01,2.899999999999999800e-01
-2.383512939179586176e+00,-9.505219620000000535e-01,3.787952536323775377e-01,1.000000000000000048e-04,4.157839354775320828e+01,2.000000000000000111e-01
2.197044292000000176e+00,9.582492320000000063e-01,2.824919843740745229e-01,1.000000000000000048e-04,4.078906890057701418e+01,2.500000000000000000e-01
2.198013217999999824e+00,9.570721989999999568e-01,6.204242136928332929e-01,1.000000000000000048e-04,4.249822157302706671e+01,2.099999999999999922e-01
2.198391541999999976e+00,9.561199929999999458e-01,4.084717967398958649e-01,1.000000000000000048e-04,4.173670530610364438e+01,2.300000000000000100e-01
2.199218732999999926e+00,9.570277640000000030e-01,3.041636837162817741e-01,1.000000000000000048e-04,4.126106180932649892e+01,2.200000000000000011e-01
2.196667974999999995e+00,9.569524729999999701e-01,1.097031197921263246e+00,1.000000000000000048e-04,4.479999314237430497e+01,2.399999999999999911e-01
2.196400267000000017e+00,9.571105250000000453e-01,3.856591501582093962e-01,1.000000000000000048e-04,4.152583842750500764e+01,2.500000000000000000e-01
2.195980999000000100e+00,9.563170869999999546e-01,2.084457454752277616e-01,1.000000000000000048e-04,4.030862943073299931e+01,2.200000000000000011e-01
2.198886345000000020e+00,9.574225640000000315e-01,1.514358397275532564e-01,1.000000000000000048e-04,3.877709793202616595e+01,3.300000000000000155e-01
-2.382942164179586264e+00,-9.487821469999999646e-01,5.833125543852195616e-01,1.000000000000000048e-04,4.263782905234550924e+01,2.000000000000000111e-01
2.197058621000000045e+00,9.568337070000000333e-01,1.763384456260503885e-01,1.000000000000000048e-04,4.000076606219807474e+01,2.600000000000000089e-01
2.196754174000000059e+00,9.569828230000000380e-01,3.447886384283729289e-01,1.000000000000000048e-04,4.166143728444093597e+01,2.399999999999999911e-01
-2.381905888179586039e+00,-9.494029419999999719e-01,4.019271685353300594e-01,1.000000000000000048e-04,4.138149772333452603e+01,2.399999999999999911e-01
-2.382353656179586388e+00,-9.501919130000000546e-01,2.851728672348345928e-01,1.000000000000000048e-04,4.046812255950705151e+01,2.600000000000000089e-01
-2.385313647179586383e+00,-9.492824659999999914e-01,4.253346809080562618e-01,1.000000000000000048e-04,4.161827573438067418e+01,2.399999999999999911e-01
-2.383308463179586223e+00,-9.502672559999999491e-01,2.543532951008726783e-01,1.000000000000000048e-04,4.060172874087163564e+01,2.000000000000000111e-01
2.194446376000000143e+00,9.548028840000000184e-01,6.772704659768651325e-01,1.000000000000000048e-04,4.236696885962057024e+01,3.699999999999999956e-01
-2.377678389179586294e+00,-9.493284189999999789e-01,2.358723756443783515e-01,1.000000000000000048e-04,4.054159661551555160e+01,3.099999999999999978e-01
2.195048706000000127e+00,9.553664520000000326e-01,2.506818162531025962e-01,1.000000000000000048e-04,4.030168859791793068e+01,2.399999999999999911e-01
2.194988459000000169e+00,9.569281090000000267e-01,1.627827391108382926e-01,1.000000000000000048e-04,3.940046735882824436e+01,2.099999999999999922e-01
2.198773670000000013e+00,9.585742720000000050e-01,5.817966897990878294e-01,1.000000000000000048e-04,4.279841432945710267e+01,2.800000000000000266e-01
2.196007632000000154e+00,9.574002940000000406e-01,1.045024704205006039e+00,1.000000000000000048e-04,4.455908698127008449e+01,2.800000000000000266e-01
2.193610842000000005e+00,9.569156829999999614e-01,2.637111719837572643e-01,1.000000000000000048e-04,4.038955184599056025e+01,2.099999999999999922e-01
2.194846306000000080e+00,9.574700699999999509e-01,1.115277929714946215e-01,1.000000000000000048e-04,3.843294393479843762e+01,2.300000000000000100e-01
-2.901318991795864832e-01,1.086903570000000041e+00,4.920736972054595704e-01,1.000000000000000048e-04,4.252347274356486651e+01,2.000000000000000111e-01
-2.914486071795865385e-01,1.085909494999999891e+00,3.341464391838484538e-01,1.000000000000000048e-04,4.122694774468069312e+01,1.000000000000000056e-01
-2.954610881795858290e-01,1.084462065999999947e+00,8.105994428348635150e-01,1.000000000000000048e-04,4.359008835275484728e+01,1.199999999999999956e-01
-3.403197011795864313e-01,1.090760651000000081e+00,4.973588471544447831e-01,1.000000000000000048e-04,4.222074402663864845e+01,8.999999999999999667e-02
-3.429455761795860980e-01,1.087892671000000089e+00,2.984928767942240935e-01,1.000000000000000048e-04,4.119305249487847220e+01,1.400000000000000133e-01
6.896152909999999636e-01,-9.249195220000000495e-01,1.336323237415224519e-01,1.000000000000000048e-04,3.918909723753032637e+01,2.000000000000000111e-01
1.024453132999999960e+00,1.182715689999999986e+00,2.340748480837138157e-01,1.000000000000000048e-04,4.020733021469970225e+01,1.900000000000000022e-01
1.006083177000000051e+00,1.165244638999999971e+00,6.592908680126678966e-01,1.000000000000000048e-04,4.253626294827434151e+01,1.700000000000000122e-01
9.905969959999999519e-01,1.153001898999999941e+00,2.328452113665002710e-01,1.000000000000000048e-04,4.043217740066336319e+01,3.499999999999999778e-01
2.950804928999999799e+00,-1.010655210999999998e+00,1.087273048606751669e-01,1.000000000000000048e-04,3.843142983119148681e+01,1.700000000000000122e-01
2.951637304000000128e+00,-1.010683065999999908e+00,4.924492173770012027e-01,1.000000000000000048e-04,4.224475551668533058e+01,1.900000000000000022e-01
-2.349248843179586377e+00,-9.322901449999999590e-01,3.478188292464925446e-01,1.000000000000000048e-04,4.140444217891263889e+01,1.900000000000000022e-01
