-1.598279621179586663e+00,2.779993629999999993e-01,2.749928750187839999e-01,1.000000000000000048e-04,4.058201837262546974e+01,1.700000000000000122e-01
-8.306753881795865269e-01,5.048130450000000158e-01,1.526999573713687663e-01,1.000000000000000048e-04,3.926576312241540734e+01,1.600000000000000033e-01
-1.512887194179586281e+00,3.571169940000000209e-01,5.773871096772436040e-01,1.000000000000000048e-04,4.272170308695076812e+01,1.600000000000000033e-01
-2.094054222179586588e+00,-9.657747650000000350e-01,6.628238832917101586e-01,1.000000000000000048e-04,4.303468035859148699e+01,1.600000000000000033e-01
-1.256550916179586252e+00,-1.037146153999999987e+00,3.255329070006431902e-01,1.000000000000000048e-04,4.154988639028564279e+01,1.900000000000000022e-01
-2.638489419179586015e+00,-8.917870300000000361e-01,5.967865829787981635e-01,1.000000000000000048e-04,4.248830059517567292e+01,1.600000000000000033e-01
3.095686500000000008e-02,-1.139960520999999893e+00,3.567289269944413643e-01,1.000000000000000048e-04,4.152282421742763319e+01,1.700000000000000122e-01
-4.765590681795863759e-01,-7.328014390000000544e-01,4.251837157306876946e-01,1.000000000000000048e-04,4.187662921650423442e+01,1.600000000000000033e-01
7.532392530000000530e-01,9.936355940000000109e-01,3.585499746203866245e-01,1.000000000000000048e-04,4.158307415742073943e+01,1.600000000000000033e-01
1.355624495999999901e+00,4.654212710000000253e-01,8.658958535934611067e-01,1.000000000000000048e-04,4.393158600993471907e+01,2.200000000000000011e-01
-2.027672372179586624e+00,-3.494576850000000179e-01,2.247288474773423417e-01,1.000000000000000048e-04,4.024339484083170504e+01,8.999999999999999667e-02
-2.243457714179585949e+00,5.735296930000000071e-01,3.751853321487179649e-01,1.000000000000000048e-04,4.166210270135095328e+01,8.000000000000000167e-02
-1.661352162179586145e+00,7.473004210000000480e-01,5.251650562503142883e-01,1.000000000000000048e-04,4.236973132584898138e+01,1.100000000000000006e-01
-1.046494641179585905e+00,9.839422859999999993e-01,1.618164069670338101e-01,1.000000000000000048e-04,3.919229107823142755e+01,1.600000000000000033e-01
-1.357076630179586019e+00,8.591991679999999576e-01,3.106300398538606178e-01,1.000000000000000048e-04,4.103295403604717961e+01,1.300000000000000044e-01
-1.489161381179585852e+00,8.733460579999999807e-01,3.394947718387024693e-01,1.000000000000000048e-04,4.124039356302790793e+01,8.999999999999999667e-02
2.602874990000000111e+00,9.865781270000000269e-01,2.424586279767053654e-01,1.000000000000000048e-04,4.025657933480347594e+01,2.099999999999999922e-01
2.011122450999999867e+00,-1.257182417000000108e+00,6.388450203958815354e-01,1.000000000000000048e-04,4.295805189065401919e+01,1.799999999999999933e-01
2.487812089999999809e+00,-1.095252646999999913e+00,1.806754393983207585e-01,1.000000000000000048e-04,3.971223236924434730e+01,1.600000000000000033e-01
-2.060955814179585843e+00,9.020563839999999889e-01,2.750078187501669991e-01,1.000000000000000048e-04,4.055654201390532165e+01,1.799999999999999933e-01
-1.552222439179586466e+00,1.270289940999999923e+00,1.220713505749859262e+00,1.000000000000000048e-04,4.473782326811245014e+01,1.600000000000000033e-01
-3.584264691795864266e-01,1.112498557000000110e+00,3.358321077640677998e-01,1.000000000000000048e-04,4.119140196001051635e+01,2.000000000000000111e-01
1.187793541000000008e+00,1.533334508000000040e+00,2.415163407645373184e-01,1.000000000000000048e-04,4.060029306111795222e+01,1.700000000000000122e-01
9.029304540000000490e-01,-5.888661819999999603e-01,4.967685450816663462e-01,1.000000000000000048e-04,4.214302374152882891e+01,1.700000000000000122e-01
2.675488564000000125e+00,-1.029758079000000048e+00,6.515205430700379274e-01,1.000000000000000048e-04,4.314232787310438511e+01,1.700000000000000122e-01
9.979371630000000160e-01,-7.076351440000000492e-01,3.282470328270197246e-01,1.000000000000000048e-04,4.112542763764540865e+01,2.000000000000000111e-01
-2.809922836179586270e+00,-1.219770695000000016e+00,5.421287315560836539e-01,1.000000000000000048e-04,4.242947557643320522e+01,1.900000000000000022e-01
1.945616433999999950e+00,5.533621010000000506e-01,1.453916219170503510e-01,1.000000000000000048e-04,3.899499264896090978e+01,1.700000000000000122e-01
1.369802210000000131e-01,9.686457469999999459e-01,6.394956753139133809e-01,1.000000000000000048e-04,4.282330569950920562e+01,1.000000000000000056e-01
2.377785852000000144e+00,-1.071983155000000076e+00,2.627333562570961512e-01,1.000000000000000048e-04,4.062575025980085996e+01,1.000000000000000056e-01
1.194530383000000029e+00,-8.514353350000000153e-01,8.101213717971216255e-01,1.000000000000000048e-04,4.353530808123511520e+01,1.100000000000000006e-01
2.328991532999999947e+00,-1.085498080000000032e+00,8.785594904983333731e-01,1.000000000000000048e-04,4.392456025917426388e+01,1.199999999999999956e-01
3.099662444999999877e+00,-8.173274409999999879e-01,1.333788036541372346e+00,1.000000000000000048e-04,4.514423273428683103e+01,1.300000000000000044e-01
1.008677688999999988e+00,-7.224949280000000362e-01,2.288560601375537740e-01,1.000000000000000048e-04,4.031470101982923637e+01,1.199999999999999956e-01
1.116317643999999998e+00,-8.188746820000000204e-01,2.270051476935874835e-01,1.000000000000000048e-04,4.042177052693219252e+01,1.499999999999999944e-01
1.368634144999999913e+00,-9.746537960000000167e-01,2.966582211111921108e-01,1.000000000000000048e-04,4.074791980117674228e+01,2.200000000000000011e-01
2.840707745000000006e+00,-9.874777999999999611e-01,4.501317499454338122e-01,1.000000000000000048e-04,4.194343904182416338e+01,1.199999999999999956e-01
1.164831654000000105e+00,-8.361433499999999519e-01,8.175135956950190241e-01,1.000000000000000048e-04,4.344051254855971678e+01,1.600000000000000033e-01
9.274529849999999520e-01,-5.648102149999999488e-01,7.224778706135124295e-01,1.000000000000000048e-04,4.310410961768869953e+01,2.200000000000000011e-01
1.803806121999999901e+00,-1.051757271000000049e+00,5.208966321092634022e-01,1.000000000000000048e-04,4.233481368288743596e+01,2.200000000000000011e-01
1.910407339000000038e+00,-1.096340147000000043e+00,2.271595021394223757e-01,1.000000000000000048e-04,4.025889632808527097e+01,1.300000000000000044e-01
-2.994395329179586174e+00,-6.874333790000000111e-01,7.143912695271006363e-01,1.000000000000000048e-04,4.327883557756220512e+01,1.600000000000000033e-01
2.004169926999999962e+00,-1.114377941999999955e+00,1.256025078177571697e-01,1.000000000000000048e-04,3.881334788468405605e+01,2.099999999999999922e-01
2.993884073999999895e+00,-9.067153500000000310e-01,1.847262578915527254e-01,1.000000000000000048e-04,4.003290664386665298e+01,2.000000000000000111e-01
2.896584697999999847e+00,-6.981149509999999836e-01,2.321956074872932874e-01,1.000000000000000048e-04,4.022785490083199278e+01,2.000000000000000111e-01
2.644964143999999795e+00,-1.038456438999999953e+00,3.452922344800675170e-01,1.000000000000000048e-04,4.166589522256754918e+01,2.500000000000000000e-01
1.395029569000000080e+00,-9.673563530000000021e-01,4.890898633619098490e-01,1.000000000000000048e-04,4.220308589209601990e+01,2.200000000000000011e-01
1.133893306999999906e+00,-8.234022290000000410e-01,3.512771764276936270e-01,1.000000000000000048e-04,4.141661935688124885e+01,1.199999999999999956e-01
9.542908199999999841e-01,-6.210129070000000029e-01,1.288624937013631566e-01,1.000000000000000048e-04,3.899010160104766953e+01,1.400000000000000133e-01
1.112357503999999997e+00,-7.717409769999999947e-01,3.775704597727491674e-01,1.000000000000000048e-04,4.139546821779970287e+01,1.400000000000000133e-01
1.392129267000000059e+00,-9.489503049999999940e-01,5.185661496145335114e-01,1.000000000000000048e-04,4.222750365298290376e+01,1.100000000000000006e-01
3.104633763999999907e+00,-8.563587980000000321e-01,5.131731819192273392e-01,1.000000000000000048e-04,4.220090883634512835e+01,1.199999999999999956e-01
-1.581672989179586430e+00,-6.726275419999999672e-01,3.521424618340827095e-01,1.000000000000000048e-04,4.150808946081102135e+01,2.000000000000000111e-01
8.758714749999999549e-01,-5.394949780000000139e-01,3.274912476275075868e-01,1.000000000000000048e-04,4.132950673568283406e+01,1.199999999999999956e-01
1.027821937999999991e+00,-6.897361509999999640e-01,8.692770152817228535e-01,1.000000000000000048e-04,4.363139094384828809e+01,1.499999999999999944e-01
8.011105990000000343e-01,-4.568120419999999737e-01,6.487731664036200385e-01,1.000000000000000048e-04,4.280315991149934973e+01,1.499999999999999944e-01
8.044453879999999835e-01,-4.591503659999999765e-01,3.678705292745720890e-01,1.000000000000000048e-04,4.144918901576554049e+01,1.100000000000000006e-01
8.290542589999999601e-01,-4.498624509999999965e-01,7.186378422130093035e-01,1.000000000000000048e-04,4.336716551111872775e+01,1.199999999999999956e-01
2.306908324000000121e+00,-1.093655438999999951e+00,3.859870980437214438e-01,1.000000000000000048e-04,4.156379082130268188e+01,1.300000000000000044e-01
-3.090495873179586184e+00,-7.974218849999999970e-01,4.533549611998943796e-01,1.000000000000000048e-04,4.211127953254550249e+01,1.300000000000000044e-01
2.850739061000000074e+00,-9.724982730000000242e-01,4.485021759282379339e-01,1.000000000000000048e-04,4.193530245584324234e+01,1.100000000000000006e-01
1.925211972000000049e+00,-1.067349442999999898e+00,1.980064955024727347e-01,1.000000000000000048e-04,4.010455140930684337e+01,1.600000000000000033e-01
3.010706126000000094e+00,-9.149326070000000088e-01,3.537042532724261612e-01,1.000000000000000048e-04,4.122259138040084991e+01,1.199999999999999956e-01
1.754869720000000077e+00,-1.052947148999999971e+00,1.598371562349789610e-01,1.000000000000000048e-04,3.957245711326032733e+01,1.300000000000000044e-01
3.028086770999999899e+00,-8.725603690000000023e-01,8.964102016013391072e-01,1.000000000000000048e-04,4.409953433751066854e+01,1.199999999999999956e-01
2.780301081000000174e+00,-1.010780400000000023e+00,1.266232888141081592e+00,1.000000000000000048e-04,4.452791026024230803e+01,1.700000000000000122e-01
3.096540631999999960e+00,-8.261897350000000362e-01,1.472441429777475719e-01,1.000000000000000048e-04,3.922988370236204503e+01,1.100000000000000006e-01
-3.043596368179586342e+00,-7.656326449999999451e-01,1.584529413884128157e-01,1.000000000000000048e-04,3.940962265233965667e+01,1.100000000000000006e-01
2.593403560000000052e+00,-1.068240442000000012e+00,5.931638319704060081e-01,1.000000000000000048e-04,4.269035702577349412e+01,1.199999999999999956e-01
1.277663320999999907e+00,-8.910532270000000032e-01,3.323024727432062342e-01,1.000000000000000048e-04,4.115008546064419193e+01,1.499999999999999944e-01
8.729576639999999665e-01,-5.017517409999999733e-01,6.090186134859658651e-01,1.000000000000000048e-04,4.283544304534081704e+01,1.199999999999999956e-01
2.323316692000000128e+00,-1.072994334000000105e+00,2.240513608306120563e-01,1.000000000000000048e-04,4.020407080830663205e+01,1.400000000000000133e-01
-3.012222731179586166e+00,-7.219820959999999621e-01,2.864500703713019902e-01,1.000000000000000048e-04,4.078509889499381558e+01,1.199999999999999956e-01
2.306010604999999991e+00,-1.110345181000000014e+00,5.520947207195425754e-01,1.000000000000000048e-04,4.248112423661819292e+01,1.100000000000000006e-01
2.437557496999999795e+00,-1.097151527000000071e+00,2.075072293298980686e-01,1.000000000000000048e-04,4.004741776774609718e+01,1.100000000000000006e-01
1.098420291999999909e+00,-7.444727049999999569e-01,2.423070427756606193e-01,1.000000000000000048e-04,4.022266480732279348e+01,1.300000000000000044e-01
8.241628739999999897e-01,-4.611620249999999754e-01,2.629588695726765568e-01,1.000000000000000048e-04,4.056174776525109138e+01,1.400000000000000133e-01
1.017317494999999905e+00,-7.027905669999999771e-01,4.146833771325002527e-01,1.000000000000000048e-04,4.171337549472706030e+01,1.199999999999999956e-01
2.728679550999999925e+00,-1.007430967999999982e+00,1.834644589604850218e-01,1.000000000000000048e-04,3.993433661057896700e+01,1.100000000000000006e-01
2.848837458999999850e+00,-9.622339979999999793e-01,4.619010005187016432e-01,1.000000000000000048e-04,4.192505666658310304e+01,1.199999999999999956e-01
-3.065525731179586266e+00,-7.207210450000000046e-01,3.016931339150235036e-01,1.000000000000000048e-04,4.095319662522845050e+01,1.199999999999999956e-01
1.103969978000000074e+00,-7.587182380000000448e-01,4.189273765826182494e-01,1.000000000000000048e-04,4.174744502933074131e+01,1.300000000000000044e-01
1.112034854000000017e+00,-7.675460100000000008e-01,4.228264773741667870e-01,1.000000000000000048e-04,4.190722217737596367e+01,1.199999999999999956e-01
2.373162053000000160e+00,-1.072487750000000073e+00,8.920073217580051228e-01,1.000000000000000048e-04,4.394128569577230081e+01,1.100000000000000006e-01
2.221583438000000132e+00,-1.096064289000000080e+00,1.577779811035529001e-01,1.000000000000000048e-04,3.940166417622900497e+01,1.199999999999999956e-01
2.775251189000000007e+00,-1.013244017000000108e+00,3.049046953069913801e-01,1.000000000000000048e-04,4.078732725459659036e+01,1.700000000000000122e-01
1.527128894000000070e+00,-9.963611940000000056e-01,1.309965363282370454e-01,1.000000000000000048e-04,3.895012806229058100e+01,1.400000000000000133e-01
-1.936135624179586401e+00,1.327891944000000102e+00,1.647061196536840910e-01,1.000000000000000048e-04,3.951093844739267524e+01,1.199999999999999956e-01
2.120951332999999828e+00,-1.112975437000000012e+00,2.699313887266354683e-01,1.000000000000000048e-04,4.064373105960677890e+01,1.600000000000000033e-01
2.950704906999999988e+00,-9.277153000000000205e-01,5.431345599056665030e-01,1.000000000000000048e-04,4.234155939296941540e+01,1.700000000000000122e-01
2.461302839000000020e+00,-1.064109841000000056e+00,4.689519885417501310e-01,1.000000000000000048e-04,4.232648431010889567e+01,1.499999999999999944e-01
1.687800213000000049e+00,-1.037844004000000098e+00,2.061475295993933088e-01,1.000000000000000048e-04,4.025966571533160732e+01,1.100000000000000006e-01
-3.069023128179586113e+00,-7.343218900000000327e-01,2.707974564014574703e-01,1.000000000000000048e-04,4.067814792554718650e+01,2.000000000000000111e-01
7.655655390000000171e-01,-3.825025819999999799e-01,7.294873710852913806e-01,1.000000000000000048e-04,4.325795491965512696e+01,1.300000000000000044e-01
-3.051736326179586012e+00,-7.690870560000000467e-01,3.065423816231147569e-01,1.000000000000000048e-04,4.097998737370112821e+01,1.499999999999999944e-01
-3.116938176179586240e+00,-7.920766919999999711e-01,2.036430439529703929e-01,1.000000000000000048e-04,4.010276843197343055e+01,1.100000000000000006e-01
1.020863690000000101e+00,-6.877910739999999468e-01,3.145212930378269434e-01,1.000000000000000048e-04,4.115661867695116882e+01,1.199999999999999956e-01
1.792785233999999894e+00,-1.066474936999999956e+00,2.255666170390853154e-01,1.000000000000000048e-04,4.021350998740847871e+01,1.100000000000000006e-01
1.805689748000000039e+00,-1.066896787999999985e+00,2.310879593112702413e-01,1.000000000000000048e-04,4.041463877406521732e+01,1.100000000000000006e-01
1.773248071000000037e+00,-1.046601056999999946e+00,4.595694622836814514e-01,1.000000000000000048e-04,4.191914160969864867e+01,2.099999999999999922e-01
1.076689889999999927e+00,-7.549444410000000216e-01,1.008363882916145648e+00,1.000000000000000048e-04,4.409590968877233053e+01,1.199999999999999956e-01
2.336456505000000128e+00,-1.089906792000000069e+00,4.864657148350830518e-01,1.000000000000000048e-04,4.214401851786064412e+01,1.199999999999999956e-01
2.522083900000000156e+00,-1.078852812999999911e+00,5.499729459036775125e-01,1.000000000000000048e-04,4.227613107521552394e+01,1.199999999999999956e-01
3.676074389999999803e-01,1.100614297999999991e+00,6.837605349764137586e-01,1.000000000000000048e-04,4.286762502319648860e+01,1.700000000000000122e-01
2.099931574000000190e+00,-1.082223048999999993e+00,2.968015277842077637e-01,1.000000000000000048e-04,4.088172955693915611e+01,1.100000000000000006e-01
8.155488279999999479e-01,-4.642700679999999802e-01,1.384865898180254185e-01,1.000000000000000048e-04,3.944121632218943319e+01,2.099999999999999922e-01
9.861636230000000447e-01,-6.881834650000000497e-01,3.478887924012559196e-01,1.000000000000000048e-04,4.137543024423355575e+01,1.300000000000000044e-01
1.864254864999999928e+00,-1.086684659999999969e+00,7.167547188877612108e-01,1.000000000000000048e-04,4.319699213667755089e+01,1.199999999999999956e-01
2.873066016000000111e+00,-9.753574739999999466e-01,4.124272663773109748e-01,1.000000000000000048e-04,4.167192776383991770e+01,1.300000000000000044e-01
2.270287562000000037e+00,-1.085086717999999895e+00,9.861232845854535078e-01,1.000000000000000048e-04,4.390842796065102505e+01,1.799999999999999933e-01
8.268071609999999572e-01,-4.587794940000000099e-01,3.316890353043666639e-01,1.000000000000000048e-04,4.125812729866078854e+01,1.199999999999999956e-01
-3.050869045179586347e+00,-7.648855789999999821e-01,3.663395679361680646e-01,1.000000000000000048e-04,4.151912215916149762e+01,1.199999999999999956e-01
1.101963728999999947e+00,-7.466317359999999903e-01,6.193462623039880377e-01,1.000000000000000048e-04,4.266204270983785563e+01,1.900000000000000022e-01
1.745116724000000064e+00,-1.056563783000000090e+00,4.994341656004830377e-01,1.000000000000000048e-04,4.228961515929145776e+01,1.300000000000000044e-01
7.889769570000000343e-01,-3.846565690000000037e-01,1.191618378228955777e+00,1.000000000000000048e-04,4.478288056937895334e+01,1.499999999999999944e-01
1.385818830999999918e+00,-9.278259679999999454e-01,4.671289117465733387e-01,1.000000000000000048e-04,4.173962964330922176e+01,1.499999999999999944e-01
1.138484923000000038e+00,-8.197145099999999518e-01,2.384995364558253339e-01,1.000000000000000048e-04,4.017012577247614047e+01,1.400000000000000133e-01
1.783410439000000069e+00,-1.080958507999999929e+00,1.354251873826219921e-01,1.000000000000000048e-04,3.909173843832459028e+01,1.400000000000000133e-01
2.617653461000000181e+00,-1.025884226000000066e+00,2.482978151802379685e-01,1.000000000000000048e-04,4.064184271822079353e+01,1.199999999999999956e-01
8.270197009999999960e-01,-4.157453939999999903e-01,3.151698640436648713e-01,1.000000000000000048e-04,4.118991839525044441e+01,1.199999999999999956e-01
3.128792493000000174e+00,-8.522697870000000009e-01,1.288551398689669281e+00,1.000000000000000048e-04,4.484405893667095455e+01,1.100000000000000006e-01
1.366158207000000013e+00,-9.614226009999999878e-01,1.326745875864769886e-01,1.000000000000000048e-04,3.910436143318995050e+01,1.100000000000000006e-01
2.846286316000000038e+00,-9.688357899999999745e-01,5.414843962310957881e-01,1.000000000000000048e-04,4.257196325417051952e+01,1.400000000000000133e-01
9.208216280000000031e-01,-6.185352929999999860e-01,3.602655471645501706e-01,1.000000000000000048e-04,4.141861899467155439e+01,1.499999999999999944e-01
7.622987450000000553e-01,-3.411912120000000215e-01,4.299999627312858230e-01,1.000000000000000048e-04,4.189316348948207036e+01,1.199999999999999956e-01
9.277931750000000255e-01,-5.813990460000000304e-01,1.927627592211151875e-01,1.000000000000000048e-04,3.998482095470507147e+01,2.099999999999999922e-01
1.010173165000000095e+00,-6.808591280000000356e-01,1.459108559654205273e-01,1.000000000000000048e-04,3.909207434328106956e+01,1.300000000000000044e-01
1.661181446000000062e+00,-1.029160687999999935e+00,1.308142723765157722e-01,1.000000000000000048e-04,3.907581901353584186e+01,1.400000000000000133e-01
2.089878704000000198e+00,-1.077863170999999953e+00,1.583701598911415598e-01,1.000000000000000048e-04,3.937595714756427157e+01,1.199999999999999956e-01
9.321550429999999610e-01,-6.212176799999999943e-01,1.291249839241600750e+00,1.000000000000000048e-04,4.468290727211449820e+01,1.199999999999999956e-01
2.944595597000000176e+00,-9.127602249999999806e-01,4.108731123988320633e-01,1.000000000000000048e-04,4.174145223086107848e+01,1.100000000000000006e-01
1.288081913999999939e+00,-9.113959929999999598e-01,7.102943052021366555e-01,1.000000000000000048e-04,4.304391653634763770e+01,1.300000000000000044e-01
1.398731861999999992e+00,-9.625033109999999725e-01,4.221827549309769001e-01,1.000000000000000048e-04,4.189906433216751935e+01,1.199999999999999956e-01
1.714165549000000066e+00,-1.043104095999999981e+00,7.426294839763742939e-01,1.000000000000000048e-04,4.325797547432781442e+01,1.199999999999999956e-01
1.014018395999999989e+00,-6.788913789999999615e-01,4.009556595232077747e-01,1.000000000000000048e-04,4.170609330414145433e+01,1.300000000000000044e-01
8.887761809999999985e-01,-5.541821719999999729e-01,6.033260919273455425e-01,1.000000000000000048e-04,4.280961557289890607e+01,1.300000000000000044e-01
1.026278256999999972e+00,-6.961882160000000264e-01,1.753622858311245647e-01,1.000000000000000048e-04,3.986704828134952550e+01,1.199999999999999956e-01
1.824970581999999952e+00,-1.080428363000000003e+00,2.068219341889703244e-01,1.000000000000000048e-04,3.999337599386336706e+01,1.199999999999999956e-01
1.839979185000000017e+00,-1.082878103999999952e+00,4.793386659943372763e-01,1.000000000000000048e-04,4.219596447309993437e+01,1.300000000000000044e-01
-3.070118813179586237e+00,-7.641942569999999879e-01,3.287550793187257181e-01,1.000000000000000048e-04,4.121375359581210063e+01,1.199999999999999956e-01
2.250776613000000204e+00,-1.110438553999999911e+00,1.807815012551905465e-01,1.000000000000000048e-04,3.972723574547214298e+01,1.199999999999999956e-01
2.613802471000000072e+00,-1.066258922999999914e+00,6.317036749828524034e-01,1.000000000000000048e-04,4.295533138760668379e+01,1.199999999999999956e-01
8.050150120000000298e-01,-4.193234060000000096e-01,1.278691045599102072e+00,1.000000000000000048e-04,4.484202157048513016e+01,1.499999999999999944e-01
2.809576177999999924e+00,-9.952447749999999704e-01,4.746939813793165097e-01,1.000000000000000048e-04,4.210176767236114870e+01,1.199999999999999956e-01
8.523447290000000232e-01,-4.773689010000000121e-01,2.319291889100250081e-01,1.000000000000000048e-04,4.029462049351985087e+01,2.000000000000000111e-01
2.975142320999999868e+00,-8.986192680000000266e-01,3.736460215892762893e-01,1.000000000000000048e-04,4.139971262205675373e+01,2.000000000000000111e-01
2.960578484000000010e+00,-9.174235720000000205e-01,5.635382308648133609e-01,1.000000000000000048e-04,4.230453147609795650e+01,1.400000000000000133e-01
1.589239559999999996e+00,-1.046132274999999945e+00,8.899780731532049849e-01,1.000000000000000048e-04,4.388220398657202992e+01,1.199999999999999956e-01
1.095136271999999966e+00,-7.909478989999999543e-01,3.778756525586941528e-01,1.000000000000000048e-04,4.166357687437931645e+01,1.300000000000000044e-01
3.045277111999999953e+00,-8.831592660000000539e-01,1.212597464459725050e+00,1.000000000000000048e-04,4.461691742117231030e+01,1.799999999999999933e-01
3.011317304999999944e+00,-8.969173430000000335e-01,5.275930385485974039e-01,1.000000000000000048e-04,4.245312739444298700e+01,1.499999999999999944e-01
1.946036051000000100e+00,-1.101857058000000000e+00,6.099472048013214742e-01,1.000000000000000048e-04,4.262626582675398623e+01,1.100000000000000006e-01
9.659444579999999503e-01,-6.400164339999999674e-01,1.214179594227321246e+00,1.000000000000000048e-04,4.457265932366705385e+01,1.199999999999999956e-01
1.142944595999999979e+00,-8.229314749999999679e-01,8.047279679889356441e-01,1.000000000000000048e-04,4.350439239483710452e+01,1.499999999999999944e-01
1.336859599999999926e+00,-9.462661719999999610e-01,7.966472094779635249e-01,1.000000000000000048e-04,4.350632413791605302e+01,1.900000000000000022e-01
2.386695267999999981e+00,-1.099692616000000012e+00,2.753675226918916863e-01,1.000000000000000048e-04,4.102956818023657348e+01,1.799999999999999933e-01
1.122946417999999946e+00,-7.871106610000000448e-01,4.934284817498855169e-01,1.000000000000000048e-04,4.226587766931968559e+01,1.499999999999999944e-01
1.038511049000000019e+00,-6.836743480000000428e-01,7.331797593877913410e-01,1.000000000000000048e-04,4.342171845822043252e+01,1.499999999999999944e-01
-1.865548755179585960e+00,5.988235499999999822e-01,2.249810691339284574e-01,1.000000000000000048e-04,4.038325657523429157e+01,3.599999999999999867e-01
-1.208774007179585830e+00,1.086301519000000049e+00,3.509865532819660405e-01,1.000000000000000048e-04,4.178916880440595349e+01,3.900000000000000133e-01
-1.451351928179586359e+00,1.047303024999999943e+00,2.436396845159916058e-01,1.000000000000000048e-04,3.995097720628550064e+01,3.900000000000000133e-01
-1.863787002179586594e+00,5.986409590000000280e-01,2.185223407355649794e-01,1.000000000000000048e-04,4.030357658904431872e+01,3.099999999999999978e-01
-2.367107747179586053e+00,3.570653329999999848e-01,1.638956841313161661e-01,1.000000000000000048e-04,3.973714827289588669e+01,3.300000000000000155e-01
3.110012692999999828e+00,-8.816387980000000013e-01,7.043186763471205314e-01,1.000000000000000048e-04,4.261664600147869209e+01,4.000000000000000222e-01
1.208427087000000011e+00,6.391205479999999550e-01,2.317879986865341024e-01,1.000000000000000048e-04,4.015759667308063996e+01,3.200000000000000067e-01
2.195568135999999893e+00,9.530612539999999688e-01,1.533251708853549111e-01,1.000000000000000048e-04,3.865602922089622950e+01,3.200000000000000067e-01
-1.746303855179585973e+00,7.561700099999999480e-01,3.080079513267299784e-01,1.000000000000000048e-04,4.107824118031967942e+01,3.599999999999999867e-01
-2.613733020179586308e+00,3.020363409999999860e-01,4.322358758128668210e-01,1.000000000000000048e-04,4.184730200636009556e+01,2.399999999999999911e-01
3.080075141000000016e+00,6.813462000000000129e-01,1.472889598999900240e-01,1.000000000000000048e-04,3.846827214007404194e+01,2.999999999999999889e-01
3.084152930000000126e+00,6.750201959999999612e-01,9.136475674656399093e-01,1.000000000000000048e-04,4.374247616878844269e+01,2.399999999999999911e-01
-2.831540824179586302e+00,-5.193198470000000011e-01,2.775850851354693116e-01,1.000000000000000048e-04,4.078458598800856549e+01,2.899999999999999800e-01
2.921667255000000019e+00,-9.403574120000000036e-01,4.930929558147294500e-01,1.000000000000000048e-04,4.177612025938093865e+01,2.899999999999999800e-01
2.610543199999999953e+00,9.294079060000000059e-01,1.325267108075464328e+00,1.000000000000000048e-04,4.488634942066124722e+01,2.899999999999999800e-01
2.614058957000000127e+00,9.310355519999999885e-01,3.273371607129027527e-01,1.000000000000000048e-04,4.098859051110044760e+01,3.699999999999999956e-01
-2.614313936179586406e+00,3.105085300000000048e-01,1.234977967039584623e+00,1.000000000000000048e-04,4.513962173398719813e+01,2.300000000000000100e-01
-2.614275993179586255e+00,3.084493819999999942e-01,3.018485940595840855e-01,1.000000000000000048e-04,4.070667057165227476e+01,2.000000000000000111e-01
3.080236718000000096e+00,6.852664600000000217e-01,6.563065972622041944e-01,1.000000000000000048e-04,4.300839870282639765e+01,3.800000000000000044e-01
3.085135451000000195e+00,6.840520260000000352e-01,6.756612096404228662e-01,1.000000000000000048e-04,4.264421465585013493e+01,2.300000000000000100e-01
-2.829361723179586452e+00,-5.190188390000000096e-01,4.010805485125434888e-01,1.000000000000000048e-04,4.224620622979312401e+01,3.900000000000000133e-01
-2.833706243179586082e+00,-5.260186759999999628e-01,1.725602867173865462e-01,1.000000000000000048e-04,3.938620169124693859e+01,2.200000000000000011e-01
1.286414458000000094e+00,-9.076167339999999806e-01,2.611820758777965157e-01,1.000000000000000048e-04,4.057856485343258157e+01,2.399999999999999911e-01
2.295144749999999956e+00,-1.095028292000000070e+00,5.614045758606689418e-01,1.000000000000000048e-04,4.276649723806227144e+01,2.000000000000000111e-01
2.312115046000000174e+00,-1.091482969000000081e+00,1.252085452211935124e-01,1.000000000000000048e-04,3.888906375766332246e+01,1.900000000000000022e-01
2.535381049000000164e+00,-1.063602453999999975e+00,5.135344360648124162e-01,1.000000000000000048e-04,4.240695496777674833e+01,2.600000000000000089e-01
2.549902755000000187e+00,-1.059649137999999935e+00,7.648458345802224834e-01,1.000000000000000048e-04,4.338605194353166183e+01,1.900000000000000022e-01
-2.980466121795863899e-01,1.081935794000000062e+00,5.211411600975583980e-01,1.000000000000000048e-04,4.219427879038769902e+01,1.000000000000000056e-01
-4.562223411795862660e-01,1.078420874000000085e+00,7.304090007248142946e-01,1.000000000000000048e-04,4.325882788217685970e+01,1.400000000000000133e-01
-4.727696341795866175e-01,1.076427226000000070e+00,2.168985807305752189e-01,1.000000000000000048e-04,4.021101737896642447e+01,1.900000000000000022e-01
-4.909850281795860028e-01,1.086050390999999893e+00,1.201743594901849566e-01,1.000000000000000048e-04,3.866391754799528258e+01,1.499999999999999944e-01
-1.809890014179586615e+00,8.554848849999999727e-01,1.550086445845788585e-01,1.000000000000000048e-04,3.945931715930130679e+01,1.900000000000000022e-01
-1.804843805179586091e+00,8.509932909999999850e-01,1.558569781479910432e-01,1.000000000000000048e-04,3.907533174577788060e+01,1.700000000000000122e-01
-1.798315402179586187e+00,8.389159160000000393e-01,1.300103174159580544e+00,1.000000000000000048e-04,4.463715232595397708e+01,1.100000000000000006e-01
-1.820018681179586650e+00,8.404092629999999620e-01,3.319665312737720697e-01,1.000000000000000048e-04,4.124836542330012890e+01,2.000000000000000111e-01
-2.435936564179586039e+00,3.767214549999999829e-01,1.451913930143973186e-01,1.000000000000000048e-04,3.911481157877767600e+01,1.700000000000000122e-01
-2.738532057179586143e+00,-4.670391260000000266e-01,2.772455521914432008e-01,1.000000000000000048e-04,4.102430628822148151e+01,1.100000000000000006e-01
-2.750126147179586145e+00,-4.750163370000000107e-01,5.916418935912020061e-01,1.000000000000000048e-04,4.294679803557144737e+01,1.700000000000000122e-01
6.777063359999999648e-01,-9.284162910000000046e-01,1.312568270783249780e-01,1.000000000000000048e-04,3.900682834521287390e+01,1.600000000000000033e-01
6.755664329999999662e-01,-9.242990760000000527e-01,6.837009717760003102e-01,1.000000000000000048e-04,4.311602676355762043e+01,2.200000000000000011e-01
1.666277256000000095e+00,1.035703752000000089e+00,5.154592816910894548e-01,1.000000000000000048e-04,4.245179957176500096e+01,2.800000000000000266e-01
1.679531192000000006e+00,1.034147155999999956e+00,4.784057467481790393e-01,1.000000000000000048e-04,4.213732032628693958e+01,2.099999999999999922e-01
1.669961188000000041e+00,1.045784459000000055e+00,3.045729995281594160e-01,1.000000000000000048e-04,4.152759458619656385e+01,2.899999999999999800e-01
1.666612017000000057e+00,1.035903760999999923e+00,3.337752764361407998e-01,1.000000000000000048e-04,4.128230487577371832e+01,1.400000000000000133e-01
1.676630470000000095e+00,1.049302589999999924e+00,5.169195169817095703e-01,1.000000000000000048e-04,4.270604289549839905e+01,1.600000000000000033e-01
1.678871634000000057e+00,1.037439988999999896e+00,4.344386204353827274e-01,1.000000000000000048e-04,4.203105204734373501e+01,2.099999999999999922e-01
-2.159653925179585876e+00,7.341517600000000421e-01,1.354726151094416409e-01,1.000000000000000048e-04,3.934643479067005245e+01,2.600000000000000089e-01
-2.155609593179586447e+00,7.327229189999999726e-01,5.392578087785011576e-01,1.000000000000000048e-04,4.254828019954710072e+01,1.400000000000000133e-01
2.989279821999999864e+00,-1.014333855000000062e+00,5.888500679742283417e-01,1.000000000000000048e-04,4.290023774034781212e+01,1.600000000000000033e-01
6.962963009999999509e-01,-9.242906640000000396e-01,1.133076027109538586e+00,1.000000000000000048e-04,4.422741087033173812e+01,2.000000000000000111e-01
6.831622830000000368e-01,-9.295060950000000322e-01,2.995510642058454298e-01,1.000000000000000048e-04,4.097681308277944368e+01,2.099999999999999922e-01
6.813526220000000189e-01,-9.196739680000000083e-01,5.508345381471317914e-01,1.000000000000000048e-04,4.244316744314989620e+01,1.700000000000000122e-01
1.667475545999999920e+00,1.039138789999999979e+00,1.287093686120133196e-01,1.000000000000000048e-04,3.871921808003312293e+01,1.499999999999999944e-01
1.669072946000000002e+00,1.039627206000000026e+00,9.338135597087411366e-01,1.000000000000000048e-04,4.406472536323747846e+01,1.700000000000000122e-01
2.992464221000000091e+00,-1.009427984000000000e+00,1.350699337377303522e-01,1.000000000000000048e-04,3.890707434828287603e+01,1.400000000000000133e-01
3.013377762000000182e+00,-1.015725085999999999e+00,6.726210054457772980e-01,1.000000000000000048e-04,4.306420578205889171e+01,1.499999999999999944e-01
6.857830799999999893e-01,-9.290922369999999875e-01,4.506268194199287702e-01,1.000000000000000048e-04,4.132736660073199886e+01,3.400000000000000244e-01
6.874880420000000214e-01,-9.251381180000000093e-01,4.730850407921056711e-01,1.000000000000000048e-04,4.239711021721920048e+01,1.700000000000000122e-01
1.659686511000000086e+00,1.040101345999999927e+00,4.924146477118009901e-01,1.000000000000000048e-04,4.245865536563370313e+01,1.400000000000000133e-01
1.692629780999999944e+00,1.043637506000000048e+00,8.602015354274221703e-01,1.000000000000000048e-04,4.375100124749383923e+01,1.799999999999999933e-01
1.682450028999999958e+00,1.049226146999999942e+00,2.975233500331044834e-01,1.000000000000000048e-04,4.074492122439254871e+01,1.900000000000000022e-01
1.675255906999999933e+00,1.048468626000000015e+00,1.243973586008342291e-01,1.000000000000000048e-04,3.903942013130724575e+01,1.499999999999999944e-01
1.692145135000000078e+00,1.039981480000000014e+00,4.214254074744889778e-01,1.000000000000000048e-04,4.206347923674434952e+01,1.700000000000000122e-01
-2.139768073179586061e+00,7.360294179999999908e-01,4.609834625016686616e-01,1.000000000000000048e-04,4.241561584356117010e+01,1.600000000000000033e-01
-2.138731675179585956e+00,7.369836659999999817e-01,2.331345661432846494e-01,1.000000000000000048e-04,4.014440960670041392e+01,1.499999999999999944e-01
6.888283630000000546e-01,-9.193630990000000169e-01,1.675028879550461980e-01,1.000000000000000048e-04,3.995853990490756757e+01,1.700000000000000122e-01
6.776433490000000059e-01,-9.225326109999999469e-01,6.794338243720152715e-01,1.000000000000000048e-04,4.311866646470144104e+01,1.600000000000000033e-01
6.820513620000000499e-01,-9.162569579999999547e-01,4.444781852502674990e-01,1.000000000000000048e-04,4.203057485879222810e+01,2.899999999999999800e-01
6.832637360000000104e-01,-9.208365670000000502e-01,7.449674097080460911e-01,1.000000000000000048e-04,4.325428187414202341e+01,1.400000000000000133e-01
1.683256381999999940e+00,1.050427892999999946e+00,5.618336790470745967e-01,1.000000000000000048e-04,4.243559275170172640e+01,1.499999999999999944e-01
2.987248335999999949e+00,-1.011507587000000097e+00,3.049117833711671999e-01,1.000000000000000048e-04,4.093240538476447909e+01,1.900000000000000022e-01
2.994879214000000012e+00,-1.020537374999999969e+00,2.094726520919558688e-01,1.000000000000000048e-04,4.053990898379513652e+01,2.500000000000000000e-01
2.997056848999999801e+00,-1.020797841000000039e+00,3.146225410864109673e-01,1.000000000000000048e-04,4.130234517419506091e+01,1.499999999999999944e-01
6.981827720000000070e-01,-9.201470600000000166e-01,3.974756973806792271e-01,1.000000000000000048e-04,4.193220906114794388e+01,2.099999999999999922e-01
1.675679171999999939e+00,1.042232051000000048e+00,2.596263625844013045e-01,1.000000000000000048e-04,4.085053124159767179e+01,1.900000000000000022e-01
1.682732345000000018e+00,1.051774148000000020e+00,2.758740708816085352e-01,1.000000000000000048e-04,4.112362563592331099e+01,2.099999999999999922e-01
1.655763980999999996e+00,1.041789395999999979e+00,1.071086793408982718e+00,1.000000000000000048e-04,4.463672426860070175e+01,2.099999999999999922e-01
1.658505131999999938e+00,1.042043577999999915e+00,8.975193727247723352e-01,1.000000000000000048e-04,4.406670194464944501e+01,1.499999999999999944e-01
1.679931540999999973e+00,1.044700675999999939e+00,6.201997308849964696e-01,1.000000000000000048e-04,4.293228117375644359e+01,1.400000000000000133e-01
1.681131209999999987e+00,1.046558263000000100e+00,3.169480566128011212e-01,1.000000000000000048e-04,4.047803199928053886e+01,3.800000000000000044e-01
-2.147380102179586636e+00,7.248191320000000326e-01,1.801581481516010275e-01,1.000000000000000048e-04,3.937663098133127448e+01,2.200000000000000011e-01
-2.137481690179586558e+00,7.386978770000000027e-01,3.934183518024372272e-01,1.000000000000000048e-04,4.151844689353310969e+01,1.499999999999999944e-01
3.007533192999999994e+00,-1.006434849999999992e+00,1.593623343378405277e-01,1.000000000000000048e-04,3.957033225703354873e+01,1.700000000000000122e-01
6.766177190000000063e-01,-9.309161569999999664e-01,3.288444707733775285e-01,1.000000000000000048e-04,4.121026410868880419e+01,1.700000000000000122e-01
6.879719020000000240e-01,-9.170357009999999809e-01,4.715811621117365071e-01,1.000000000000000048e-04,4.189980717289449785e+01,2.600000000000000089e-01
6.868192690000000100e-01,-9.190749710000000183e-01,2.156827912671972491e-01,1.000000000000000048e-04,4.016596619907517152e+01,2.800000000000000266e-01
1.680927606000000019e+00,1.043199457999999913e+00,3.055760801899021217e-01,1.000000000000000048e-04,4.110029585059986346e+01,1.799999999999999933e-01
1.680733408999999901e+00,1.046110547000000057e+00,5.509957378704901654e-01,1.000000000000000048e-04,4.271275687130367515e+01,1.499999999999999944e-01
3.003205794999999956e+00,-1.007960921000000010e+00,8.972756754426252090e-01,1.000000000000000048e-04,4.352566920292571240e+01,2.200000000000000011e-01
3.013387552999999830e+00,-1.018013843000000085e+00,4.364642979988953009e-01,1.000000000000000048e-04,4.249968562586592213e+01,2.000000000000000111e-01
2.991633154000000072e+00,-1.018575491000000000e+00,1.581392541137245367e-01,1.000000000000000048e-04,3.961329740807791211e+01,1.600000000000000033e-01
6.810583510000000063e-01,-9.216344210000000370e-01,3.417429491964034671e-01,1.000000000000000048e-04,4.140737389192315732e+01,1.600000000000000033e-01
1.670069762000000013e+00,1.048284639000000018e+00,4.344032221878089128e-01,1.000000000000000048e-04,4.187395424561712787e+01,2.099999999999999922e-01
1.699713636000000028e+00,1.040243690999999915e+00,1.261047110011290773e-01,1.000000000000000048e-04,3.905093577105385094e+01,2.899999999999999800e-01
1.686195045999999920e+00,1.048540513999999924e+00,4.407008995108903093e-01,1.000000000000000048e-04,4.183736737047821208e+01,1.400000000000000133e-01
1.667162669999999958e+00,1.044746053999999980e+00,1.065873358520176506e+00,1.000000000000000048e-04,4.440948617876293270e+01,2.700000000000000178e-01
1.689467040999999892e+00,1.036330184999999959e+00,1.031282560200281750e+00,1.000000000000000048e-04,4.425428850856512497e+01,1.300000000000000044e-01
1.683799076999999977e+00,1.043385784000000038e+00,1.617442183404043110e-01,1.000000000000000048e-04,3.952834124835992213e+01,1.700000000000000122e-01
-2.151455832179586025e+00,7.398983139999999459e-01,1.949326799288189083e-01,1.000000000000000048e-04,3.986536769191865659e+01,2.500000000000000000e-01
-2.141944958179585967e+00,7.302793560000000461e-01,6.232304234794945330e-01,1.000000000000000048e-04,4.291305103848971925e+01,1.400000000000000133e-01
3.012489310999999947e+00,-1.019874449000000016e+00,2.215714521695810735e-01,1.000000000000000048e-04,4.016582716378582774e+01,1.900000000000000022e-01
6.824463880000000149e-01,-9.193269539999999740e-01,4.338087508676815585e-01,1.000000000000000048e-04,4.213648798126435935e+01,1.600000000000000033e-01
6.933168330000000212e-01,-9.307474239999999899e-01,1.331651002046898569e-01,1.000000000000000048e-04,3.910662191894651585e+01,1.600000000000000033e-01
7.005346909999999871e-01,-9.247541049999999929e-01,3.021053890037836975e-01,1.000000000000000048e-04,4.086403991289273563e+01,2.700000000000000178e-01
1.674988617999999985e+00,1.042237757999999959e+00,1.459860206611671707e-01,1.000000000000000048e-04,3.950744274007818291e+01,1.499999999999999944e-01
1.672026148000000045e+00,1.039374368000000048e+00,9.854992504349726623e-01,1.000000000000000048e-04,4.409988692949754352e+01,1.600000000000000033e-01
2.993618983999999816e+00,-1.008517228000000099e+00,3.238570102125639671e-01,1.000000000000000048e-04,4.129803938040760158e+01,1.700000000000000122e-01
2.992837709999999873e+00,-1.014889098000000045e+00,6.684047763451543833e-01,1.000000000000000048e-04,4.328403762509754671e+01,2.800000000000000266e-01
2.980621672999999916e+00,-1.012535224000000067e+00,6.124550007535303209e-01,1.000000000000000048e-04,4.281501121628344464e+01,1.499999999999999944e-01
3.118379398000000080e+00,-1.044341935000000055e+00,2.422805089230335440e-01,1.000000000000000048e-04,4.031741501027448038e+01,3.099999999999999978e-01
3.132904315000000217e+00,-1.046896950999999909e+00,6.325016590181775644e-01,1.000000000000000048e-04,4.288376338179407554e+01,2.200000000000000011e-01
1.248659997999999938e+00,-1.117162079000000086e+00,8.442802389726782319e-01,1.000000000000000048e-04,4.364533587892036337e+01,2.700000000000000178e-01
2.302446713000000145e+00,-1.091359299000000060e+00,7.822289477406023650e-01,1.000000000000000048e-04,4.347143760073344509e+01,2.899999999999999800e-01
3.133486173000000097e+00,-1.061461677999999909e+00,6.467155014540393321e-01,1.000000000000000048e-04,4.300502770495148752e+01,3.099999999999999978e-01
1.251013366000000016e+00,-1.102704651999999896e+00,7.468742822355383115e-01,1.000000000000000048e-04,4.354306295482388123e+01,2.300000000000000100e-01
1.232341668999999973e+00,-1.105349812000000043e+00,2.468756140963879187e-01,1.000000000000000048e-04,4.065027560984486144e+01,2.200000000000000011e-01
2.330538756999999794e+00,-1.086213730999999960e+00,6.194671172861905273e-01,1.000000000000000048e-04,4.257002423153747372e+01,2.300000000000000100e-01
3.104372880000000112e+00,-1.050765708999999992e+00,4.357767036605935118e-01,1.000000000000000048e-04,4.147729696555722256e+01,2.200000000000000011e-01
3.122794933000000217e+00,-1.050942575000000101e+00,2.737017161351764649e-01,1.000000000000000048e-04,4.082309265204858661e+01,2.099999999999999922e-01
3.135928428000000157e+00,-1.044986675000000087e+00,3.849243965406996537e-01,1.000000000000000048e-04,4.195437012673465205e+01,2.300000000000000100e-01
3.135701593999999925e+00,-1.049448040999999998e+00,4.444467808819021482e-01,1.000000000000000048e-04,4.217487907300685634e+01,2.399999999999999911e-01
2.902190216000000156e+00,-1.054666754000000095e+00,2.044520391743618326e-01,1.000000000000000048e-04,3.997756910808736563e+01,2.099999999999999922e-01
1.219278212000000083e+00,-1.102494101000000004e+00,1.666260003588462268e-01,1.000000000000000048e-04,3.999177778777502823e+01,2.399999999999999911e-01
2.314258420999999899e+00,-1.073777474999999981e+00,1.058359480132488706e+00,1.000000000000000048e-04,4.403244987721370052e+01,2.399999999999999911e-01
3.138600745000000192e+00,-1.056209613999999908e+00,1.309576792036335480e-01,1.000000000000000048e-04,3.896112076260305201e+01,2.800000000000000266e-01
2.873014373000000177e+00,-1.047336534999999902e+00,7.682841722996058831e-01,1.000000000000000048e-04,4.344665604557706473e+01,2.000000000000000111e-01
2.890150627000000139e+00,-1.045368942999999939e+00,4.846234852515363123e-01,1.000000000000000048e-04,4.182253179146007938e+01,2.200000000000000011e-01
-3.136513490179586139e+00,-1.038988312000000080e+00,3.611421005071921986e-01,1.000000000000000048e-04,4.138354645559280698e+01,2.800000000000000266e-01
3.120369102000000172e+00,-1.042910143999999928e+00,3.735128319511411554e-01,1.000000000000000048e-04,4.161035663835817644e+01,2.399999999999999911e-01
3.132773262000000170e+00,-1.048570620000000009e+00,2.065285732550996567e-01,1.000000000000000048e-04,4.043513131783718251e+01,2.300000000000000100e-01
3.132934141999999866e+00,-1.046888051000000042e+00,3.864295902505376912e-01,1.000000000000000048e-04,4.171003629228416543e+01,2.200000000000000011e-01
3.134455274000000014e+00,-1.046257098000000108e+00,4.496193002322899090e-01,1.000000000000000048e-04,4.169842955432089582e+01,2.200000000000000011e-01
2.910504301000000016e+00,-1.063930792999999930e+00,2.473722680572456589e-01,1.000000000000000048e-04,4.017507968790365425e+01,2.399999999999999911e-01
2.301930878999999930e+00,-1.084305269999999988e+00,3.023808353029253659e-01,1.000000000000000048e-04,4.068493496085404360e+01,3.099999999999999978e-01
2.314913878000000036e+00,-1.104421796000000011e+00,4.848833460754677915e-01,1.000000000000000048e-04,4.220389589034102329e+01,2.600000000000000089e-01
1.232494258000000009e+00,-1.089556776000000005e+00,5.505100839735257434e-01,1.000000000000000048e-04,4.225879478781396159e+01,3.099999999999999978e-01
-3.138875270179586341e+00,-1.027091259999999950e+00,9.294933377766394500e-01,1.000000000000000048e-04,4.407492016047545036e+01,3.800000000000000044e-01
1.277748142000000087e+00,-1.105660628999999950e+00,2.146747218332860641e-01,1.000000000000000048e-04,3.991405401347771686e+01,2.500000000000000000e-01
2.339694710999999927e+00,-1.083680948999999893e+00,2.748755665778130908e-01,1.000000000000000048e-04,4.120272552417624468e+01,2.300000000000000100e-01
3.085408954000000037e+00,-1.045989441999999991e+00,6.297978387436353742e-01,1.000000000000000048e-04,4.358524279337039786e+01,2.800000000000000266e-01
3.122183823999999941e+00,-1.053540683000000033e+00,8.983117486135148155e-01,1.000000000000000048e-04,4.386204404133037826e+01,3.699999999999999956e-01
1.263417701000000060e+00,-1.099941301000000093e+00,2.035455162778483373e-01,1.000000000000000048e-04,4.008443417447092827e+01,2.200000000000000011e-01
1.238769020999999970e+00,-1.122513239999999968e+00,3.269080677356555054e-01,1.000000000000000048e-04,4.160333028813209211e+01,2.600000000000000089e-01
1.225778744000000087e+00,-1.107856694000000086e+00,2.276843892064599473e-01,1.000000000000000048e-04,4.021854854350603858e+01,2.500000000000000000e-01
2.356185176999999964e+00,-1.090954028000000076e+00,4.090622875487350818e-01,1.000000000000000048e-04,4.175191786455085463e+01,2.700000000000000178e-01
1.231078855000000027e+00,-1.109460918999999990e+00,3.401950080673470378e-01,1.000000000000000048e-04,4.082361769282955777e+01,2.300000000000000100e-01
2.350025410999999842e+00,-1.078254897999999962e+00,5.038492915836898511e-01,1.000000000000000048e-04,4.227018848385210248e+01,2.300000000000000100e-01
2.889344674999999807e+00,-1.054064458000000037e+00,4.074090240677921138e-01,1.000000000000000048e-04,4.155245829966418114e+01,3.200000000000000067e-01
1.260972444000000081e+00,-1.102168519999999985e+00,5.503750579390946918e-01,1.000000000000000048e-04,4.258153294873855543e+01,2.899999999999999800e-01
3.138597202000000141e+00,-1.049455424000000026e+00,6.589747715554177265e-01,1.000000000000000048e-04,4.269543056411796300e+01,2.600000000000000089e-01
1.280173519000000093e+00,-1.106045986000000036e+00,4.236015797279601980e-01,1.000000000000000048e-04,4.287189697926771004e+01,2.899999999999999800e-01
3.140421104000000074e+00,-1.048273016000000002e+00,2.955728015175174139e-01,1.000000000000000048e-04,4.095238382690162382e+01,2.700000000000000178e-01
2.887571490000000018e+00,-1.060290981000000077e+00,5.628156129593717694e-01,1.000000000000000048e-04,4.277421527235694043e+01,2.300000000000000100e-01
3.117377486000000086e+00,-1.048849812999999909e+00,7.238398380964012890e-01,1.000000000000000048e-04,4.346308713635423970e+01,2.800000000000000266e-01
3.139331405000000075e+00,-1.045946368000000071e+00,1.376004355545390467e-01,1.000000000000000048e-04,3.914215590085827756e+01,2.300000000000000100e-01
2.901812189000000153e+00,-1.070407117000000019e+00,2.941973035057710018e-01,1.000000000000000048e-04,4.109124345369307463e+01,2.200000000000000011e-01
2.874698792999999863e+00,-1.069280417999999955e+00,1.452863606192351664e-01,1.000000000000000048e-04,3.929290963596398001e+01,2.200000000000000011e-01
3.126790450000000110e+00,-1.053686536000000062e+00,6.184925581049851573e-01,1.000000000000000048e-04,4.342612481053611617e+01,2.099999999999999922e-01
1.253234667999999941e+00,-1.096167120000000050e+00,2.589477769340293722e-01,1.000000000000000048e-04,4.034954070233219170e+01,2.200000000000000011e-01
1.242189800000000011e+00,-1.095888138000000067e+00,6.279692076169751669e-01,1.000000000000000048e-04,4.298133483347627504e+01,2.899999999999999800e-01
2.358704259000000025e+00,-1.096119858000000002e+00,6.702901338672122566e-01,1.000000000000000048e-04,4.321544133156528744e+01,2.099999999999999922e-01
3.090657074000000115e+00,-1.046905049999999893e+00,1.247200856334675922e-01,1.000000000000000048e-04,3.850370366203332395e+01,2.300000000000000100e-01
2.350320292999999783e+00,-1.077642637000000070e+00,1.786266840314931770e-01,1.000000000000000048e-04,3.971173147146669180e+01,3.300000000000000155e-01
3.120911620999999858e+00,-1.047605429999999949e+00,2.449205735025896669e-01,1.000000000000000048e-04,4.031338994024920197e+01,2.899999999999999800e-01
2.310418793000000193e+00,-1.091478047999999923e+00,5.778744261997190712e-01,1.000000000000000048e-04,4.255403670480139056e+01,3.300000000000000155e-01
2.888242410000000149e+00,-1.055260810999999910e+00,4.639614004762757649e-01,1.000000000000000048e-04,4.157958567971887476e+01,2.999999999999999889e-01
2.313880778000000138e+00,-1.089056457000000089e+00,3.120830737146140788e-01,1.000000000000000048e-04,4.082736001165639550e+01,2.600000000000000089e-01
3.096505394999999883e+00,-1.050897790999999915e+00,6.336140937074103974e-01,1.000000000000000048e-04,4.295111699202369948e+01,3.300000000000000155e-01
1.264206060000000020e+00,-1.108314516000000083e+00,4.605562062731698436e-01,1.000000000000000048e-04,4.185146784549207410e+01,2.500000000000000000e-01
2.317080779999999951e+00,-1.080569537999999996e+00,3.406647518211085579e-01,1.000000000000000048e-04,4.098892620223229244e+01,2.399999999999999911e-01
2.308161032000000112e+00,-1.080284865999999955e+00,1.836114041366729843e-01,1.000000000000000048e-04,4.000205217727258855e+01,3.900000000000000133e-01
1.213089824000000094e+00,-1.095999417000000031e+00,6.385018191798010889e-01,1.000000000000000048e-04,4.260296930315136166e+01,2.700000000000000178e-01
3.095344697999999894e+00,-1.044259242999999948e+00,1.940254320829299939e-01,1.000000000000000048e-04,3.977253483497207753e+01,2.200000000000000011e-01
3.093500166000000107e+00,-1.047656949999999920e+00,2.626689870511205172e-01,1.000000000000000048e-04,4.088740284697978922e+01,2.300000000000000100e-01
2.871266652000000086e+00,-1.064917746999999970e+00,1.864972080299263091e-01,1.000000000000000048e-04,3.968097648749456141e+01,2.500000000000000000e-01
2.872879009000000039e+00,-1.076645507999999918e+00,3.636136609283748822e-01,1.000000000000000048e-04,4.126783004936075372e+01,2.099999999999999922e-01
1.241294699000000001e+00,-1.109043570000000090e+00,1.599406305875401557e-01,1.000000000000000048e-04,3.940044908065823392e+01,2.099999999999999922e-01
1.238788393000000099e+00,-1.083197141000000085e+00,1.730939871577790168e-01,1.000000000000000048e-04,3.981189956135847297e+01,2.999999999999999889e-01
-3.140928712179586135e+00,-1.049943351000000025e+00,1.297418010430371194e-01,1.000000000000000048e-04,3.864224702548298751e+01,2.200000000000000011e-01
2.897074545000000168e+00,-1.050668165000000043e+00,2.031549582740357351e-01,1.000000000000000048e-04,3.988959526810567979e+01,2.099999999999999922e-01
3.133488720999999977e+00,-1.053899826000000095e+00,2.009879217640497817e-01,1.000000000000000048e-04,3.989011720702608699e+01,2.300000000000000100e-01
2.854965548000000020e+00,-1.051119023000000041e+00,5.361525461174494467e-01,1.000000000000000048e-04,4.202787981456523880e+01,3.200000000000000067e-01
2.846666281000000076e+00,-1.061494909000000098e+00,1.224168312574238637e+00,1.000000000000000048e-04,4.492779334267565616e+01,2.600000000000000089e-01
1.477625364000000108e+00,-9.892628350000000070e-01,1.213785749547933168e+00,1.000000000000000048e-04,4.430179253345016122e+01,2.000000000000000111e-01
-2.998301261179586064e+00,-5.567642400000000213e-01,3.719185021521735912e-01,1.000000000000000048e-04,4.198150910319912299e+01,1.799999999999999933e-01
2.915910107000000195e+00,-9.248875840000000403e-01,5.303785294803553541e-01,1.000000000000000048e-04,4.231653374250218747e+01,2.999999999999999889e-01
2.904218159000000021e+00,-9.279150130000000107e-01,5.245609326965630093e-01,1.000000000000000048e-04,4.217946531113292252e+01,2.399999999999999911e-01
2.945746643000000109e+00,-9.241091030000000428e-01,2.792316934377170323e-01,1.000000000000000048e-04,4.082861750605233198e+01,2.300000000000000100e-01
2.195221751000000054e+00,9.567984520000000215e-01,1.053249685522648971e+00,1.000000000000000048e-04,4.394423904634267330e+01,2.200000000000000011e-01
-2.382074272179586227e+00,-9.504311730000000180e-01,2.376789505375436207e-01,1.000000000000000048e-04,4.008685579645319308e+01,2.300000000000000100e-01
2.197803225999999999e+00,9.560313849999999558e-01,4.172003104888701852e-01,1.000000000000000048e-04,4.153878463075687222e+01,2.300000000000000100e-01
-2.380846050179586282e+00,-9.512843520000000552e-01,2.385556992574533464e-01,1.000000000000000048e-04,3.964689271217417144e+01,2.600000000000000089e-01
-2.382960995179586039e+00,-9.501026420000000527e-01,1.412519154292979362e-01,1.000000000000000048e-04,3.914565784295496798e+01,2.099999999999999922e-01
2.192165822000000208e+00,9.554729659999999791e-01,2.881140499187446746e-01,1.000000000000000048e-04,4.067687628598287120e+01,2.899999999999999800e-01
-2.383512939179586176e+00,-9.505219620000000535e-01,3.095450036279456807e-01,1.000000000000000048e-04,4.093994650515227107e+01,2.000000000000000111e-01
2.197044292000000176e+00,9.582492320000000063e-01,3.180125964003437389e-01,1.000000000000000048e-04,4.110697952925185206e+01,2.500000000000000000e-01
2.198013217999999824e+00,9.570721989999999568e-01,6.409112202703901584e-01,1.000000000000000048e-04,4.264162637338765904e+01,2.099999999999999922e-01
2.198391541999999976e+00,9.561199929999999458e-01,6.595066407957552723e-01,1.000000000000000048e-04,4.280123777306059907e+01,2.300000000000000100e-01
2.199218732999999926e+00,9.570277640000000030e-01,2.412221000614773736e-01,1.000000000000000048e-04,4.055158924881899196e+01,2.200000000000000011e-01
2.196667974999999995e+00,9.569524729999999701e-01,7.069384915308565276e-01,1.000000000000000048e-04,4.316647234186554272e+01,2.399999999999999911e-01
2.196400267000000017e+00,9.571105250000000453e-01,2.680270117950271924e-01,1.000000000000000048e-04,4.099453971868576474e+01,2.500000000000000000e-01
2.195980999000000100e+00,9.563170869999999546e-01,4.473496041932130129e-01,1.000000000000000048e-04,4.199854522978532856e+01,2.200000000000000011e-01
2.198886345000000020e+00,9.574225640000000315e-01,1.259219052298357955e+00,1.000000000000000048e-04,4.437780931445192323e+01,3.300000000000000155e-01
-2.382942164179586264e+00,-9.487821469999999646e-01,2.227388721800087623e-01,1.000000000000000048e-04,4.020373919571272836e+01,2.000000000000000111e-01
2.197058621000000045e+00,9.568337070000000333e-01,3.855922094154320412e-01,1.000000000000000048e-04,4.148341634630245522e+01,2.600000000000000089e-01
2.196754174000000059e+00,9.569828230000000380e-01,6.270808024023513116e-01,1.000000000000000048e-04,4.314029664272879927e+01,2.399999999999999911e-01
-2.381905888179586039e+00,-9.494029419999999719e-01,1.327718428674249385e+00,1.000000000000000048e-04,4.454094269376214754e+01,2.399999999999999911e-01
-2.382353656179586388e+00,-9.501919130000000546e-01,7.664451314527660486e-01,1.000000000000000048e-04,4.313810277710359742e+01,2.600000000000000089e-01
-2.385313647179586383e+00,-9.492824659999999914e-01,5.143185634792954986e-01,1.000000000000000048e-04,4.252442268575087070e+01,2.399999999999999911e-01
-2.383308463179586223e+00,-9.502672559999999491e-01,8.390999403691545844e-01,1.000000000000000048e-04,4.378452261530334511e+01,2.000000000000000111e-01
2.194446376000000143e+00,9.548028840000000184e-01,3.291107977416265484e-01,1.000000000000000048e-04,4.170066695873700979e+01,3.699999999999999956e-01
-2.377678389179586294e+00,-9.493284189999999789e-01,6.827886332635551003e-01,1.000000000000000048e-04,4.322196782664201464e+01,3.099999999999999978e-01
2.195048706000000127e+00,9.553664520000000326e-01,1.993062586145746273e-01,1.000000000000000048e-04,3.995018316674367043e+01,2.399999999999999911e-01
2.194988459000000169e+00,9.569281090000000267e-01,3.138907944751370138e-01,1.000000000000000048e-04,4.091049780917949619e+01,2.099999999999999922e-01
2.198773670000000013e+00,9.585742720000000050e-01,3.498468181611233963e-01,1.000000000000000048e-04,4.113912011830711180e+01,2.800000000000000266e-01
2.196007632000000154e+00,9.574002940000000406e-01,2.504520004793244770e-01,1.000000000000000048e-04,4.050543916205668893e+01,2.800000000000000266e-01
2.193610842000000005e+00,9.569156829999999614e-01,3.780443388574343810e-01,1.000000000000000048e-04,4.157257753461496463e+01,2.099999999999999922e-01
2.194846306000000080e+00,9.574700699999999509e-01,5.715711669963854380e-01,1.000000000000000048e-04,4.266767149728729436e+01,2.300000000000000100e-01
-2.901318991795864832e-01,1.086903570000000041e+00,1.137257164972755419e+00,1.000000000000000048e-04,4.433962737270034893e+01,2.000000000000000111e-01
-2.914486071795865385e-01,1.085909494999999891e+00,2.870149132365897859e-01,1.000000000000000048e-04,4.073476524728586412e+01,1.000000000000000056e-01
-2.954610881795858290e-01,1.084462065999999947e+00,2.253126251855610551e-01,1.000000000000000048e-04,4.040986278207868310e+01,1.199999999999999956e-01
-3.403197011795864313e-01,1.090760651000000081e+00,1.507232185139635305e-01,1.000000000000000048e-04,3.936483702835277398e+01,8.999999999999999667e-02
-3.429455761795860980e-01,1.087892671000000089e+00,8.659599186543038840e-01,1.000000000000000048e-04,4.392780978071316866e+01,1.400000000000000133e-01
6.896152909999999636e-01,-9.249195220000000495e-01,3.348488516056187247e-01,1.000000000000000048e-04,4.107231784094536664e+01,2.000000000000000111e-01
1.024453132999999960e+00,1.182715689999999986e+00,3.005155172417437459e-01,1.000000000000000048e-04,4.065388360265946233e+01,1.900000000000000022e-01
1.006083177000000051e+00,1.165244638999999971e+00,5.552204331759988953e-01,1.000000000000000048e-04,4.244816863900386039e+01,1.700000000000000122e-01
9.905969959999999519e-01,1.153001898999999941e+00,7.133121928990335814e-01,1.000000000000000048e-04,4.369936934224890024e+01,3.499999999999999778e-01
2.950804928999999799e+00,-1.010655210999999998e+00,4.108151908605897074e-01,1.000000000000000048e-04,4.171273035753071667e+01,1.700000000000000122e-01
2.951637304000000128e+00,-1.010683065999999908e+00,9.270441771421289445e-01,1.000000000000000048e-04,4.406665157021667767e+01,1.900000000000000022e-01
-2.349248843179586377e+00,-9.322901449999999590e-01,2.274360493339713241e-01,1.000000000000000048e-04,4.015833009963861855e+01,1.900000000000000022e-01
