2.694421935208893615e+00,-7.265057913468169204e-01,2.682807483701956652e-01,1.000000000000000048e-04,4.070195303157173328e+01,1.000000000000000021e-02
-2.956181046075817775e+00,-1.063094300445283302e+00,6.129052644929533500e-02,1.000000000000000048e-04,3.722062600475494065e+01,1.000000000000000021e-02
-3.227566469694083118e-01,1.217316536720583375e+00,2.760400131577707139e-01,1.000000000000000048e-04,4.074481744442184095e+01,1.000000000000000021e-02
1.003629041334441752e-02,8.224896462521731344e-01,4.903655028615583333e-02,1.000000000000000048e-04,3.665710523617356387e+01,1.000000000000000021e-02
-3.179150682857998511e-01,1.312645837066130472e+00,1.736899360763233258e-01,1.000000000000000048e-04,3.960056713867981415e+01,1.000000000000000021e-02
1.636750227212032449e+00,1.024983867693347594e+00,5.919277502491038234e-02,1.000000000000000048e-04,3.711387140990067479e+01,1.000000000000000021e-02
-8.926672856295501113e-01,4.798372687310559215e-02,2.278449962600146428e-01,1.000000000000000048e-04,4.027738240323211016e+01,1.000000000000000021e-02
-3.025873727397695223e+00,-1.364904170108420578e+00,1.734479240351867180e-01,1.000000000000000048e-04,3.964679085152982196e+01,1.000000000000000021e-02
4.187233261045775201e-01,1.291702635554701217e+00,2.185094999995760290e-01,1.000000000000000048e-04,4.016532104564419114e+01,1.000000000000000021e-02
-2.918083793569151485e+00,-4.322480473426579817e-01,1.051741235570491373e-01,1.000000000000000048e-04,3.844987176116184457e+01,1.000000000000000021e-02
1.065978337767263362e+00,5.750556324375235562e-01,5.192625799798200603e-02,1.000000000000000048e-04,3.684629852202390055e+01,1.000000000000000021e-02
-2.006080065368382570e+00,8.911199844450385932e-01,2.403416029170646340e-01,1.000000000000000048e-04,4.039844414646209714e+01,1.000000000000000021e-02
-3.063083011564413649e+00,3.976771761144186623e-01,7.739308271384470750e-02,1.000000000000000048e-04,3.772831556882756843e+01,1.000000000000000021e-02
2.410683440797854793e+00,-5.360750518919488172e-03,1.374323463196029937e-01,1.000000000000000048e-04,3.907559792270809140e+01,1.000000000000000021e-02
-2.741780923233990475e+00,1.002515708324567267e-01,1.904302431534021789e-01,1.000000000000000048e-04,3.982399660831087118e+01,1.000000000000000021e-02
-3.049714477992792716e+00,-4.892698218263300536e-01,4.489006673850970408e-02,1.000000000000000048e-04,3.650448098718158008e+01,1.000000000000000021e-02
1.661659526658350039e+00,-5.240016896680299574e-02,2.077212943961506131e-01,1.000000000000000048e-04,4.007134607458898756e+01,1.000000000000000021e-02
-8.345107856332489860e-01,7.868467683252906575e-01,2.342077208008508382e-01,1.000000000000000048e-04,4.033100576018529182e+01,1.000000000000000021e-02
-4.742113105092342629e-01,7.218220643891615218e-02,1.163454919307618241e-01,1.000000000000000048e-04,3.867501342453087432e+01,1.000000000000000021e-02
1.145227678476558708e+00,-9.664270474881851980e-01,4.706167920631365575e-02,1.000000000000000048e-04,3.667108924163080275e+01,1.000000000000000021e-02
-3.006169641972867179e+00,5.780319613197097972e-01,2.669083997847714329e-01,1.000000000000000048e-04,4.066509229762125699e+01,1.000000000000000021e-02
1.791752616225370076e+00,-1.230601583709782787e-01,1.120482970022029789e-01,1.000000000000000048e-04,3.861464704935472270e+01,1.000000000000000021e-02
5.732111271844657630e-01,-8.298794013475820908e-01,1.602052017557287211e-01,1.000000000000000048e-04,3.944961837682371453e+01,1.000000000000000021e-02
8.693243977657116872e-01,-5.328471323361338996e-02,1.378831872457413343e-01,1.000000000000000048e-04,3.908220563896806965e+01,1.000000000000000021e-02
-1.957037817861054130e+00,7.350339649414214804e-01,9.690371128984631710e-02,1.000000000000000048e-04,3.822398800782737993e+01,1.000000000000000021e-02
-9.898716669411333768e-02,1.154547922866086207e+00,2.276374005654917543e-01,1.000000000000000048e-04,4.025639783294796104e+01,1.000000000000000021e-02
-1.083801434855150791e+00,-7.804717465377956076e-01,2.681542659460791622e-01,1.000000000000000048e-04,4.067857858419611716e+01,1.000000000000000021e-02
2.103713629669251794e+00,8.999722179858160587e-01,7.422213515242814807e-02,1.000000000000000048e-04,3.765028084626440119e+01,1.000000000000000021e-02
4.884158936337423818e-01,-1.066397210078640079e-01,1.348675608655089952e-01,1.000000000000000048e-04,3.905749202505828777e+01,1.000000000000000021e-02
-1.736899029666355565e+00,2.418465290649431942e-01,1.928605247902825948e-01,1.000000000000000048e-04,3.987155039098583131e+01,1.000000000000000021e-02
5.789858282877657913e-02,-1.046528401621156901e+00,9.757732658185158670e-02,1.000000000000000048e-04,3.827757812395307013e+01,1.000000000000000021e-02
-2.511670904240592250e+00,-8.810591873147219921e-01,1.823893887844427741e-01,1.000000000000000048e-04,3.974635656704877107e+01,1.000000000000000021e-02
-2.235932927750003074e+00,1.353627795161207459e-01,2.588354056883042098e-01,1.000000000000000048e-04,4.059217585002343753e+01,1.000000000000000021e-02
1.007682123747732028e+00,-1.164612797511771491e+00,2.698061252465822069e-01,1.000000000000000048e-04,4.072328031884883615e+01,1.000000000000000021e-02
-4.714735154850315801e-01,1.458221980730249889e-01,1.224137085652687862e-01,1.000000000000000048e-04,3.878536207319289275e+01,1.000000000000000021e-02
-4.326701329662117068e-01,-1.374829160204704692e-02,3.090407209297985069e-02,1.000000000000000048e-04,3.562699642289249624e+01,1.000000000000000021e-02
-1.023021986184449172e+00,-4.067453860674845600e-01,1.277891907663155635e-01,1.000000000000000048e-04,3.889576534259714435e+01,1.000000000000000021e-02
-2.514609630146977359e+00,-6.962307819945473542e-01,2.424188092727872501e-01,1.000000000000000048e-04,4.042970028462477217e+01,1.000000000000000021e-02
2.083777051594513097e+00,-7.612605777192625878e-01,2.724864850378008185e-01,1.000000000000000048e-04,4.073904796952581364e+01,1.000000000000000021e-02
-1.244705801086261054e-01,-7.819217721377410557e-01,1.959176023614217499e-01,1.000000000000000048e-04,3.991886652027127269e+01,1.000000000000000021e-02
-4.777194548203924640e-01,-3.650941734381882853e-01,6.770684651314917701e-02,1.000000000000000048e-04,3.740310576739608450e+01,1.000000000000000021e-02
-5.385090476980005647e-01,-1.424959216933820105e+00,1.936655551431893940e-01,1.000000000000000048e-04,3.989020736696758007e+01,1.000000000000000021e-02
-8.317706869270522496e-01,1.282762627495570573e-01,1.710471864699723010e-01,1.000000000000000048e-04,3.956402735459048614e+01,1.000000000000000021e-02
-2.359752034287875944e+00,5.228324150257090963e-03,1.140320520448563357e-01,1.000000000000000048e-04,3.860282930834473092e+01,1.000000000000000021e-02
7.202174805283512171e-02,9.700041838199582322e-01,1.755702140666568489e-01,1.000000000000000048e-04,3.964075799600853145e+01,1.000000000000000021e-02
9.488863178446660385e-01,-1.228328609757992407e+00,3.710765371500435172e-02,1.000000000000000048e-04,3.614494206377320040e+01,1.000000000000000021e-02
1.738397521134471546e-02,-1.127314072834681768e+00,9.911403593136935974e-02,1.000000000000000048e-04,3.831939581650733828e+01,1.000000000000000021e-02
1.430510992291010197e+00,1.475154896969272933e-01,1.814380986807873075e-01,1.000000000000000048e-04,3.973186815557710361e+01,1.000000000000000021e-02
-2.619399329929576137e+00,-2.494613459575067971e-02,7.342239890816792958e-02,1.000000000000000048e-04,3.758348166096888576e+01,1.000000000000000021e-02
3.112658951741176239e-01,-1.717180231696822101e-01,1.419490937936811470e-01,1.000000000000000048e-04,3.912787365935288619e+01,1.000000000000000021e-02
-2.951691380530291564e+00,7.428534931175789779e-02,1.732646244386146783e-01,1.000000000000000048e-04,3.962327307572724067e+01,1.000000000000000021e-02
2.298789817212300690e+00,1.033122686902312903e+00,2.722555013319307715e-01,1.000000000000000048e-04,4.073054712639346775e+01,1.000000000000000021e-02
-4.557056042578970789e-01,8.282264057709980420e-01,2.461101233836486823e-01,1.000000000000000048e-04,4.046323092679349998e+01,1.000000000000000021e-02
2.546116960906774196e+00,6.772156766199968203e-01,2.523646956836262945e-01,1.000000000000000048e-04,4.054148182312817283e+01,1.000000000000000021e-02
-8.714657139613279924e-03,-2.422265502613292210e-01,2.766337685273567715e-01,1.000000000000000048e-04,4.075587168840457508e+01,1.000000000000000021e-02
-2.139025279088992093e+00,6.968304396500148989e-01,6.137945210480966196e-02,1.000000000000000048e-04,3.712485078815173267e+01,1.000000000000000021e-02
1.094329325097653793e+00,-1.193435659695821771e+00,1.225734876697461839e-01,1.000000000000000048e-04,3.883855628794162129e+01,1.000000000000000021e-02
-5.740631895131276252e-02,8.217242301602856180e-02,1.027298169308723530e-01,1.000000000000000048e-04,3.837653730276867492e+01,1.000000000000000021e-02
-1.299682564832130405e+00,-2.286426037713784609e-01,2.700324650234453561e-01,1.000000000000000048e-04,4.068170503782506842e+01,1.000000000000000021e-02
2.811107008873299229e+00,1.152953623042307640e+00,1.358917098249101674e-01,1.000000000000000048e-04,3.903232925948081089e+01,1.000000000000000021e-02
-2.665110324659329510e+00,-5.003740251010062590e-01,2.778896629655678296e-01,1.000000000000000048e-04,4.077262208524338405e+01,1.000000000000000021e-02
8.897865377977023371e-01,-3.524866614220487637e-01,1.791082288083598595e-01,1.000000000000000048e-04,3.972128928548183069e+01,1.000000000000000021e-02
3.053384205832201381e-01,-6.218238447453066087e-01,2.325667183963260332e-01,1.000000000000000048e-04,4.033762942462122680e+01,1.000000000000000021e-02
-2.632922552165442909e+00,-9.156138977599408424e-01,1.584218581212413213e-01,1.000000000000000048e-04,3.940212349676922798e+01,1.000000000000000021e-02
2.235223880217320769e-01,-9.116950246455534090e-01,2.719149217429137622e-01,1.000000000000000048e-04,4.071478912929842409e+01,1.000000000000000021e-02
2.242999486668388442e+00,7.646449608262564368e-01,2.667293377634134544e-01,1.000000000000000048e-04,4.068467009286040792e+01,1.000000000000000021e-02
1.880917552178297925e+00,-1.196928418885521372e+00,3.446044113112378682e-02,1.000000000000000048e-04,3.599871766555616404e+01,1.000000000000000021e-02
-3.585590072138411522e-01,-2.360295944695391945e-01,1.450154275557813399e-01,1.000000000000000048e-04,3.919274574858391702e+01,1.000000000000000021e-02
-2.751832297083635304e+00,7.302675642614397944e-02,9.358725651743315943e-02,1.000000000000000048e-04,3.814666057652161868e+01,1.000000000000000021e-02
3.265313237090552434e-01,-2.216874520905269819e-01,2.525466495264614419e-01,1.000000000000000048e-04,4.054524937397849982e+01,1.000000000000000021e-02
1.652252395013314334e+00,1.591316642439029039e-01,4.306328225901356888e-02,1.000000000000000048e-04,3.645582635039324515e+01,1.000000000000000021e-02
-1.738260836158813660e-01,-3.778216266237972576e-01,4.002077916065194252e-02,1.000000000000000048e-04,3.626057515947162813e+01,1.000000000000000021e-02
1.344197250956561618e+00,-8.469710692342408143e-01,1.891800451678626871e-02,1.000000000000000048e-04,3.474775650314436604e+01,1.000000000000000021e-02
1.898354891936750555e+00,-7.786193887503269906e-01,1.370737047451946466e-01,1.000000000000000048e-04,3.909312871115049148e+01,1.000000000000000021e-02
2.672345055699758554e-01,2.593503465643580697e-01,7.716337765330583132e-02,1.000000000000000048e-04,3.773813666078801532e+01,1.000000000000000021e-02
-2.684985830600864265e+00,-8.009062684623230455e-01,2.500674097757082937e-01,1.000000000000000048e-04,4.049981836024745263e+01,1.000000000000000021e-02
3.058665076038089126e+00,3.524241591751884339e-01,7.212898383903931787e-02,1.000000000000000048e-04,3.756113721968764452e+01,1.000000000000000021e-02
-4.884556352960256476e-03,-6.032533904265149349e-01,4.284694163126312461e-02,1.000000000000000048e-04,3.641216883886995959e+01,1.000000000000000021e-02
-2.586300136180829767e+00,-3.154761561931942460e-01,1.860328194675577862e-01,1.000000000000000048e-04,3.979014131115602027e+01,1.000000000000000021e-02
-2.672466886734561342e+00,-4.533378789976592049e-01,5.197505472278840521e-02,1.000000000000000048e-04,3.683119608159687886e+01,1.000000000000000021e-02
-2.972496648016098142e+00,-3.722308588315688116e-01,2.742037722174612835e-01,1.000000000000000048e-04,4.075569722780426218e+01,1.000000000000000021e-02
-3.130834626971322088e+00,2.065141199646953751e-01,1.398577093980997166e-01,1.000000000000000048e-04,3.911018993731217819e+01,1.000000000000000021e-02
-2.627451188977488528e+00,7.385980192453458493e-01,1.625908903549162510e-01,1.000000000000000048e-04,3.944187004731515600e+01,1.000000000000000021e-02
4.402516628485688699e-01,-3.498809171483117098e-01,2.686136335273647813e-01,1.000000000000000048e-04,4.070576335371367804e+01,1.000000000000000021e-02
1.691052968078587959e+00,-4.692125490135321542e-01,1.632996478698107712e-01,1.000000000000000048e-04,3.951654644586994181e+01,1.000000000000000021e-02
-2.804254476180263467e+00,1.291588538651316842e+00,2.247535032303102920e-01,1.000000000000000048e-04,4.024243755491134067e+01,1.000000000000000021e-02
2.084392941280338363e+00,-3.319242566762115043e-01,2.387292465874524261e-02,1.000000000000000048e-04,3.520698261871075374e+01,1.000000000000000021e-02
-1.001909635111139618e+00,-7.004706806903285843e-01,2.067689326131094685e-01,1.000000000000000048e-04,4.003155335150723459e+01,1.000000000000000021e-02
6.676915174751316684e-01,-6.650805734977738304e-01,1.987242292411570688e-01,1.000000000000000048e-04,3.995710468230186763e+01,1.000000000000000021e-02
-2.066605528767111011e+00,8.502414541226528399e-01,2.265676674380088240e-01,1.000000000000000048e-04,4.024216465641291762e+01,1.000000000000000021e-02
7.849501833968548503e-01,7.111564152402523042e-01,2.611070428799557863e-01,1.000000000000000048e-04,4.060986925311277673e+01,1.000000000000000021e-02
1.543841447381988807e+00,1.400738663284421648e+00,1.770545183180767257e-01,1.000000000000000048e-04,3.966021686906150023e+01,1.000000000000000021e-02
-1.503558467822556199e+00,-3.080557999093531674e-01,4.927702738754868861e-02,1.000000000000000048e-04,3.667859831018345318e+01,1.000000000000000021e-02
-1.159546525027667974e+00,4.323490221957952961e-01,2.104698502407726934e-01,1.000000000000000048e-04,4.007708790859270209e+01,1.000000000000000021e-02
-2.576560893340727798e+00,1.844311248487020549e-01,2.372784576463038420e-01,1.000000000000000048e-04,4.036809897137958814e+01,1.000000000000000021e-02
5.875906732472468974e-02,1.255068535255918771e-01,2.685690841365602211e-01,1.000000000000000048e-04,4.070530578938854660e+01,1.000000000000000021e-02
-2.480527436175493428e+00,-6.498422147136692084e-01,2.276192467004143349e-01,1.000000000000000048e-04,4.029499206367523811e+01,1.000000000000000021e-02
2.438378489600633969e+00,3.547798690050907311e-01,2.350432219176321613e-01,1.000000000000000048e-04,4.035503786707693763e+01,1.000000000000000021e-02
2.618703325567891760e+00,4.580666903669503576e-01,2.016888529627069993e-01,1.000000000000000048e-04,3.997504902324998710e+01,1.000000000000000021e-02
1.330912197240654571e+00,8.565470875896483705e-01,1.727209866444361364e-01,1.000000000000000048e-04,3.961334359583804599e+01,1.000000000000000021e-02
-8.283030638719366401e-01,8.281477725175365734e-01,9.450747581228191585e-02,1.000000000000000048e-04,3.816369601539590661e+01,1.000000000000000021e-02
-2.498784032149372614e-01,5.193609221174915191e-01,2.597444986153443214e-01,1.000000000000000048e-04,4.060318546097876435e+01,1.000000000000000021e-02
-8.891278534497040198e-01,-4.027970683600694546e-01,8.116524438175765077e-02,1.000000000000000048e-04,3.783233369884774078e+01,1.000000000000000021e-02
1.635300292216271600e+00,7.268981805293828202e-01,1.915199784112124881e-01,1.000000000000000048e-04,3.986911957735356538e+01,1.000000000000000021e-02
-2.162220757262957260e+00,-4.372349367141414866e-02,2.572150762448144334e-02,1.000000000000000048e-04,3.515772725049401259e+01,1.000000000000000021e-02
3.981838192054798498e-01,3.518497661747055361e-02,8.183836106950392875e-02,1.000000000000000048e-04,3.787126681125187133e+01,1.000000000000000021e-02
3.753819740866597421e-01,-4.540049066204547845e-01,4.420208704330819138e-02,1.000000000000000048e-04,3.648888886534392384e+01,1.000000000000000021e-02
9.031773003438861025e-01,-4.320536948857123249e-02,1.189592148669980087e-01,1.000000000000000048e-04,3.874257857405446970e+01,1.000000000000000021e-02
1.059883449052015258e+00,7.950578625191249138e-01,2.522689346773832053e-01,1.000000000000000048e-04,4.054383255033062028e+01,1.000000000000000021e-02
1.056712967354759058e+00,7.499391837151341278e-01,2.568993831757293567e-01,1.000000000000000048e-04,4.059163160027648587e+01,1.000000000000000021e-02
-1.661488441321340215e+00,-8.294154033129190751e-01,1.469533345078428699e-01,1.000000000000000048e-04,3.920948026927272423e+01,1.000000000000000021e-02
-1.262220966218428941e+00,-6.016997824853690391e-01,8.878698242485350001e-02,1.000000000000000048e-04,3.805026436319734984e+01,1.000000000000000021e-02
1.653057313477251711e+00,-3.404766703132862116e-01,1.793760131097492661e-01,1.000000000000000048e-04,3.972098255043999870e+01,1.000000000000000021e-02
3.033329709651891193e+00,-2.685396241910726900e-01,2.677961734994700471e-01,1.000000000000000048e-04,4.068244841479005913e+01,1.000000000000000021e-02
-2.295494579238394284e+00,6.642250749848410685e-01,1.277843068864983334e-01,1.000000000000000048e-04,3.885608473190274736e+01,1.000000000000000021e-02
-3.691809665502088222e-02,-1.220666953632260965e+00,4.082447086450802232e-02,1.000000000000000048e-04,3.631959228743364321e+01,1.000000000000000021e-02
-2.155930428933330312e+00,2.782594830563605015e-01,2.734928559339084853e-01,1.000000000000000048e-04,4.071643479353025441e+01,1.000000000000000021e-02
-1.810621965143765610e+00,4.908091462794459403e-01,2.329934010991789872e-01,1.000000000000000048e-04,4.031572025758291034e+01,1.000000000000000021e-02
-1.910541171765100854e+00,6.991388946424961226e-01,1.964759739892460999e-01,1.000000000000000048e-04,3.989469409364085095e+01,1.000000000000000021e-02
-2.178261438614487844e+00,1.131286073486103216e+00,2.206326409021475143e-01,1.000000000000000048e-04,4.020591803768854788e+01,1.000000000000000021e-02
-2.305628998395218510e+00,1.904963759159845615e-01,2.350927794093582435e-02,1.000000000000000048e-04,3.495742020109391035e+01,1.000000000000000021e-02
-2.009983691935773642e+00,5.976566250101216227e-01,2.718922279885231941e-01,1.000000000000000048e-04,4.071924398486203245e+01,1.000000000000000021e-02
9.982218189168001743e-01,-8.758743962036894537e-01,1.914565640408416591e-01,1.000000000000000048e-04,3.985157445133403797e+01,1.000000000000000021e-02
1.162398177155876233e+00,-7.385166570876140479e-01,1.260337577581001067e-01,1.000000000000000048e-04,3.888099846200422860e+01,1.000000000000000021e-02
-8.101859814900977952e-01,4.248433309315027273e-01,2.722194565306723657e-01,1.000000000000000048e-04,4.072150391319893004e+01,1.000000000000000021e-02
2.335462512349190334e+00,5.076161622648962535e-01,1.680121634759190741e-01,1.000000000000000048e-04,3.956498630826882845e+01,1.000000000000000021e-02
2.432071905630974307e+00,1.070574918394247899e+00,6.010849331418688379e-02,1.000000000000000048e-04,3.713365766775371668e+01,1.000000000000000021e-02
-4.689226383659113040e-01,-2.011152237905726725e-01,2.766587272057674518e-01,1.000000000000000048e-04,4.075570568820116790e+01,1.000000000000000021e-02
-1.055459256842743887e+00,4.774788071090014796e-01,2.571771360177366184e-02,1.000000000000000048e-04,3.512207395715374503e+01,1.000000000000000021e-02
3.128120310031736295e+00,1.982003450440190662e-01,2.245525294476842237e-01,1.000000000000000048e-04,4.026314654756167499e+01,1.000000000000000021e-02
-1.473483067394758095e+00,1.243159656442483829e+00,2.474639675335292832e-01,1.000000000000000048e-04,4.047849589905403889e+01,1.000000000000000021e-02
-1.265332485145463259e+00,1.122212015891867587e+00,8.038312826090598939e-02,1.000000000000000048e-04,3.778424225987064489e+01,1.000000000000000021e-02
2.742686936540128073e+00,3.311195078888995447e-02,2.368898268034502763e-01,1.000000000000000048e-04,4.038578397589969882e+01,1.000000000000000021e-02
-2.006764528985364393e+00,5.431191671912638519e-01,1.026153448007893765e-01,1.000000000000000048e-04,3.835179440711544174e+01,1.000000000000000021e-02
1.984376163927771941e+00,-1.216006448494533210e-01,1.636882419728884486e-01,1.000000000000000048e-04,3.949325517843119115e+01,1.000000000000000021e-02
-1.787717752532889115e-01,-5.063116222388461818e-01,6.948147817599514831e-02,1.000000000000000048e-04,3.749515325111745767e+01,1.000000000000000021e-02
7.773219356558502824e-01,-3.307206895829142290e-01,8.139789946318898295e-02,1.000000000000000048e-04,3.787540256487906731e+01,1.000000000000000021e-02
-2.791216849806859024e+00,2.434601790933497156e-01,1.829035455175378466e-01,1.000000000000000048e-04,3.974225603948876540e+01,1.000000000000000021e-02
-9.661169267179112730e-01,-3.128432224901407377e-01,1.040543355466996278e-01,1.000000000000000048e-04,3.839114224931131503e+01,1.000000000000000021e-02
8.923807279827169481e-01,-5.503820191774402293e-01,2.541231357065951713e-01,1.000000000000000048e-04,4.057526792499833590e+01,1.000000000000000021e-02
1.734189211951241205e+00,-1.322693938891607468e+00,8.032457787616520406e-02,1.000000000000000048e-04,3.784781659485089733e+01,1.000000000000000021e-02
9.905689586574162320e-01,-3.953880403204967919e-01,7.484034936345906885e-02,1.000000000000000048e-04,3.768964341351580316e+01,1.000000000000000021e-02
-2.499389252780052750e+00,-7.465910238582316172e-01,5.034945035832150140e-02,1.000000000000000048e-04,3.674662591043793469e+01,1.000000000000000021e-02
2.555466876150492617e+00,-4.203999261217274963e-01,1.509226466932314104e-01,1.000000000000000048e-04,3.932331789036415870e+01,1.000000000000000021e-02
-6.204648571185211736e-02,1.176509330326321212e+00,6.875063136754167026e-02,1.000000000000000048e-04,3.743190810062190366e+01,1.000000000000000021e-02
1.189747852635947289e+00,1.076256206851056163e-01,7.218126979560057777e-02,1.000000000000000048e-04,3.758722585440803954e+01,1.000000000000000021e-02
3.216120159962225777e-01,9.498661507524741587e-01,1.609481911153440858e-01,1.000000000000000048e-04,3.942591022268831580e+01,1.000000000000000021e-02
1.093670166079961703e+00,8.793504386123829342e-02,1.069296871815395011e-01,1.000000000000000048e-04,3.848301362618084198e+01,1.000000000000000021e-02
-1.583412318154774345e+00,6.051385436188296829e-01,2.573903879457049015e-01,1.000000000000000048e-04,4.057290148775306449e+01,1.000000000000000021e-02
-2.086735923637025536e+00,-3.354532517749451159e-01,1.610866105293291550e-01,1.000000000000000048e-04,3.943516810951820162e+01,1.000000000000000021e-02
1.348905739089667932e+00,5.539562701541567158e-02,2.723383632797147236e-01,1.000000000000000048e-04,4.073084930955064209e+01,1.000000000000000021e-02
-4.354992821673859815e-01,-3.528873525441560410e-01,2.595654955439474776e-02,1.000000000000000048e-04,3.525855213092309270e+01,1.000000000000000021e-02
-1.472065171926177252e+00,-1.548615127222998655e-01,4.271344991664371982e-02,1.000000000000000048e-04,3.634338123257025188e+01,1.000000000000000021e-02
-4.204721862394098508e-01,-8.373542273697132110e-02,1.750593485103844049e-01,1.000000000000000048e-04,3.963705031381834232e+01,1.000000000000000021e-02
4.960398880788887688e-01,-2.868859048208847184e-01,6.688988831896724996e-02,1.000000000000000048e-04,3.741940920196544340e+01,1.000000000000000021e-02
2.974341049189681563e+00,4.900721499943143655e-01,5.238051191349413216e-02,1.000000000000000048e-04,3.682865355035527699e+01,1.000000000000000021e-02
1.879900400710664776e+00,-2.395700468845645137e-01,1.607044964523740571e-01,1.000000000000000048e-04,3.944556347843017363e+01,1.000000000000000021e-02
-4.295246801154859462e-01,3.435520621980887590e-01,1.807578481637566181e-01,1.000000000000000048e-04,3.971947002785834968e+01,1.000000000000000021e-02
-1.654706056191819208e-01,-7.328580462732769973e-02,8.743681018523008497e-02,1.000000000000000048e-04,3.800204857305606509e+01,1.000000000000000021e-02
