-1.598279621179586663e+00,2.779993629999999993e-01,2.911831301210130452e-01,1.000000000000000048e-04,4.105701610371431798e+01,1.700000000000000122e-01
-8.306753881795865269e-01,5.048130450000000158e-01,5.571855651528776487e-01,1.000000000000000048e-04,4.261753069062335442e+01,1.600000000000000033e-01
-1.512887194179586281e+00,3.571169940000000209e-01,2.135383395105707738e-01,1.000000000000000048e-04,3.999546008395665808e+01,1.600000000000000033e-01
-2.094054222179586588e+00,-9.657747650000000350e-01,2.250741612691105065e-01,1.000000000000000048e-04,4.052132908829904778e+01,1.600000000000000033e-01
-1.256550916179586252e+00,-1.037146153999999987e+00,3.243913473252300061e-01,1.000000000000000048e-04,4.112120015989469124e+01,1.900000000000000022e-01
-2.638489419179586015e+00,-8.917870300000000361e-01,1.753281909804933481e-01,1.000000000000000048e-04,3.990863700855447149e+01,1.600000000000000033e-01
3.095686500000000008e-02,-1.139960520999999893e+00,2.602042607179293476e-01,1.000000000000000048e-04,4.039685756804690442e+01,1.700000000000000122e-01
-4.765590681795863759e-01,-7.328014390000000544e-01,4.182867971442130184e-01,1.000000000000000048e-04,4.157399507984888487e+01,1.600000000000000033e-01
7.532392530000000530e-01,9.936355940000000109e-01,5.094805986038253298e-01,1.000000000000000048e-04,4.210627632282078991e+01,1.600000000000000033e-01
1.355624495999999901e+00,4.654212710000000253e-01,4.418778060721681999e-01,1.000000000000000048e-04,4.175047640061103493e+01,2.200000000000000011e-01
-2.027672372179586624e+00,-3.494576850000000179e-01,7.634154857189394683e-01,1.000000000000000048e-04,4.340352780062368510e+01,8.999999999999999667e-02
-2.243457714179585949e+00,5.735296930000000071e-01,2.574527002394255693e-01,1.000000000000000048e-04,4.044901252950829473e+01,8.000000000000000167e-02
-1.661352162179586145e+00,7.473004210000000480e-01,9.039689087939086765e-01,1.000000000000000048e-04,4.375149069895413589e+01,1.100000000000000006e-01
-1.046494641179585905e+00,9.839422859999999993e-01,2.477312188045692753e-01,1.000000000000000048e-04,4.008731886938677746e+01,1.600000000000000033e-01
-1.357076630179586019e+00,8.591991679999999576e-01,5.004455045781044387e-01,1.000000000000000048e-04,4.197605000692531974e+01,1.300000000000000044e-01
-1.489161381179585852e+00,8.733460579999999807e-01,2.455951885640557109e-01,1.000000000000000048e-04,4.033954475165861453e+01,8.999999999999999667e-02
2.602874990000000111e+00,9.865781270000000269e-01,3.593127993614582127e-01,1.000000000000000048e-04,4.142570587335600152e+01,2.099999999999999922e-01
2.011122450999999867e+00,-1.257182417000000108e+00,1.061171663911606888e+00,1.000000000000000048e-04,4.423754053091466432e+01,1.799999999999999933e-01
2.487812089999999809e+00,-1.095252646999999913e+00,2.012746508313025817e-01,1.000000000000000048e-04,4.017047241626877963e+01,1.600000000000000033e-01
-2.060955814179585843e+00,9.020563839999999889e-01,6.345934122712972858e-01,1.000000000000000048e-04,4.277769372338494946e+01,1.799999999999999933e-01
-1.552222439179586466e+00,1.270289940999999923e+00,2.556974111924192883e-01,1.000000000000000048e-04,4.048482603673749480e+01,1.600000000000000033e-01
-3.584264691795864266e-01,1.112498557000000110e+00,1.609282308694943708e-01,1.000000000000000048e-04,3.929379455687258371e+01,2.000000000000000111e-01
1.187793541000000008e+00,1.533334508000000040e+00,1.686417550428986889e-01,1.000000000000000048e-04,3.955127173711188249e+01,1.700000000000000122e-01
9.029304540000000490e-01,-5.888661819999999603e-01,1.122325853311689769e-01,1.000000000000000048e-04,3.887881628405281020e+01,1.700000000000000122e-01
2.675488564000000125e+00,-1.029758079000000048e+00,1.732553021228602219e-01,1.000000000000000048e-04,3.993696309770680131e+01,1.700000000000000122e-01
9.979371630000000160e-01,-7.076351440000000492e-01,4.398501887335599658e-01,1.000000000000000048e-04,4.205600951459425829e+01,2.000000000000000111e-01
-2.809922836179586270e+00,-1.219770695000000016e+00,1.041218596817581776e+00,1.000000000000000048e-04,4.431653975490224440e+01,1.900000000000000022e-01
1.945616433999999950e+00,5.533621010000000506e-01,4.633257779168706847e-01,1.000000000000000048e-04,4.204551471380791838e+01,1.700000000000000122e-01
1.369802210000000131e-01,9.686457469999999459e-01,9.990017646117765882e-01,1.000000000000000048e-04,4.428623982358475075e+01,1.000000000000000056e-01
2.377785852000000144e+00,-1.071983155000000076e+00,3.768397092571809104e-01,1.000000000000000048e-04,4.148158963704526769e+01,1.000000000000000056e-01
1.194530383000000029e+00,-8.514353350000000153e-01,1.737405916785443871e-01,1.000000000000000048e-04,3.963794010060263417e+01,1.100000000000000006e-01
2.328991532999999947e+00,-1.085498080000000032e+00,1.757798019374301468e-01,1.000000000000000048e-04,3.970149269487356491e+01,1.199999999999999956e-01
3.099662444999999877e+00,-8.173274409999999879e-01,3.174522749104542463e-01,1.000000000000000048e-04,4.122987030895980354e+01,1.300000000000000044e-01
1.008677688999999988e+00,-7.224949280000000362e-01,1.186036916501864713e-01,1.000000000000000048e-04,3.892263817815175031e+01,1.199999999999999956e-01
1.116317643999999998e+00,-8.188746820000000204e-01,2.318924798981865099e-01,1.000000000000000048e-04,4.040536474349884344e+01,1.499999999999999944e-01
1.368634144999999913e+00,-9.746537960000000167e-01,6.518117289153362304e-01,1.000000000000000048e-04,4.278736731205659538e+01,2.200000000000000011e-01
2.840707745000000006e+00,-9.874777999999999611e-01,2.159883432604170483e-01,1.000000000000000048e-04,4.000005258862231727e+01,1.199999999999999956e-01
1.164831654000000105e+00,-8.361433499999999519e-01,4.311681046682682705e-01,1.000000000000000048e-04,4.162026031948573035e+01,1.600000000000000033e-01
9.274529849999999520e-01,-5.648102149999999488e-01,1.487451481546988585e-01,1.000000000000000048e-04,3.922749630131007592e+01,2.200000000000000011e-01
1.803806121999999901e+00,-1.051757271000000049e+00,1.130571762909253763e-01,1.000000000000000048e-04,3.877338741493986873e+01,2.200000000000000011e-01
1.910407339000000038e+00,-1.096340147000000043e+00,6.504152945708181477e-01,1.000000000000000048e-04,4.284406972384957157e+01,1.300000000000000044e-01
-2.994395329179586174e+00,-6.874333790000000111e-01,1.309437324764285648e+00,1.000000000000000048e-04,4.478031746629653043e+01,1.600000000000000033e-01
2.004169926999999962e+00,-1.114377941999999955e+00,2.835127706050553087e-01,1.000000000000000048e-04,4.087015462919585218e+01,2.099999999999999922e-01
2.993884073999999895e+00,-9.067153500000000310e-01,2.675637038137392842e-01,1.000000000000000048e-04,4.059607140031639716e+01,2.000000000000000111e-01
2.896584697999999847e+00,-6.981149509999999836e-01,2.979694845224694078e-01,1.000000000000000048e-04,4.097247772037751190e+01,2.000000000000000111e-01
2.644964143999999795e+00,-1.038456438999999953e+00,6.892443210461243197e-01,1.000000000000000048e-04,4.320355796804787474e+01,2.500000000000000000e-01
1.395029569000000080e+00,-9.673563530000000021e-01,1.236421564872813850e-01,1.000000000000000048e-04,3.901413472510996172e+01,2.200000000000000011e-01
1.133893306999999906e+00,-8.234022290000000410e-01,5.466295596026931047e-01,1.000000000000000048e-04,4.264587617185230073e+01,1.199999999999999956e-01
9.542908199999999841e-01,-6.210129070000000029e-01,6.914219984107556893e-01,1.000000000000000048e-04,4.306780035535948059e+01,1.400000000000000133e-01
1.112357503999999997e+00,-7.717409769999999947e-01,1.608219013050584678e-01,1.000000000000000048e-04,3.967293600069951509e+01,1.400000000000000133e-01
1.392129267000000059e+00,-9.489503049999999940e-01,3.650018255777789378e-01,1.000000000000000048e-04,4.134701217550807684e+01,1.100000000000000006e-01
3.104633763999999907e+00,-8.563587980000000321e-01,1.276608266837255812e-01,1.000000000000000048e-04,3.901529953236927639e+01,1.199999999999999956e-01
-1.581672989179586430e+00,-6.726275419999999672e-01,3.949929420747675390e-01,1.000000000000000048e-04,4.192581475306910477e+01,2.000000000000000111e-01
8.758714749999999549e-01,-5.394949780000000139e-01,8.134926892645475416e-01,1.000000000000000048e-04,4.362443646755924220e+01,1.199999999999999956e-01
1.027821937999999991e+00,-6.897361509999999640e-01,4.801092718935635606e-01,1.000000000000000048e-04,4.220862441400111464e+01,1.499999999999999944e-01
8.011105990000000343e-01,-4.568120419999999737e-01,7.480000296859707909e-01,1.000000000000000048e-04,4.342351679805137366e+01,1.499999999999999944e-01
8.044453879999999835e-01,-4.591503659999999765e-01,7.660107063141226025e-01,1.000000000000000048e-04,4.327267748389024149e+01,1.100000000000000006e-01
8.290542589999999601e-01,-4.498624509999999965e-01,2.757392323969523051e-01,1.000000000000000048e-04,4.093085953851525005e+01,1.199999999999999956e-01
2.306908324000000121e+00,-1.093655438999999951e+00,1.084243044392991795e-01,1.000000000000000048e-04,3.871034920504217069e+01,1.300000000000000044e-01
-3.090495873179586184e+00,-7.974218849999999970e-01,2.867809359293025384e-01,1.000000000000000048e-04,4.081699548417011414e+01,1.300000000000000044e-01
2.850739061000000074e+00,-9.724982730000000242e-01,3.487201899245837566e-01,1.000000000000000048e-04,4.159269221126055527e+01,1.100000000000000006e-01
1.925211972000000049e+00,-1.067349442999999898e+00,3.988646492705698599e-01,1.000000000000000048e-04,4.162412982132487116e+01,1.600000000000000033e-01
3.010706126000000094e+00,-9.149326070000000088e-01,5.416700932192890505e-01,1.000000000000000048e-04,4.230754587946597667e+01,1.199999999999999956e-01
1.754869720000000077e+00,-1.052947148999999971e+00,3.074888556320576338e-01,1.000000000000000048e-04,4.107096526810362036e+01,1.300000000000000044e-01
3.028086770999999899e+00,-8.725603690000000023e-01,1.960553042826096437e-01,1.000000000000000048e-04,4.004164120807769223e+01,1.199999999999999956e-01
2.780301081000000174e+00,-1.010780400000000023e+00,5.176195951107727122e-01,1.000000000000000048e-04,4.268156179892527291e+01,1.700000000000000122e-01
3.096540631999999960e+00,-8.261897350000000362e-01,1.321398680716185048e+00,1.000000000000000048e-04,4.480375561506971849e+01,1.100000000000000006e-01
-3.043596368179586342e+00,-7.656326449999999451e-01,1.545015033739873811e-01,1.000000000000000048e-04,3.955699832823906092e+01,1.100000000000000006e-01
2.593403560000000052e+00,-1.068240442000000012e+00,2.393973489640499608e-01,1.000000000000000048e-04,4.058477123443756795e+01,1.199999999999999956e-01
1.277663320999999907e+00,-8.910532270000000032e-01,3.361621136810015731e-01,1.000000000000000048e-04,4.141260284631412958e+01,1.499999999999999944e-01
8.729576639999999665e-01,-5.017517409999999733e-01,2.855057366774718108e-01,1.000000000000000048e-04,4.094319879047990440e+01,1.199999999999999956e-01
2.323316692000000128e+00,-1.072994334000000105e+00,4.279377176034562247e-01,1.000000000000000048e-04,4.179829291906129640e+01,1.400000000000000133e-01
-3.012222731179586166e+00,-7.219820959999999621e-01,1.595353324204600298e-01,1.000000000000000048e-04,3.969419881887131396e+01,1.199999999999999956e-01
2.306010604999999991e+00,-1.110345181000000014e+00,6.615975920459113979e-01,1.000000000000000048e-04,4.309046832949719885e+01,1.100000000000000006e-01
2.437557496999999795e+00,-1.097151527000000071e+00,3.137626712447778576e-01,1.000000000000000048e-04,4.118899056034677386e+01,1.100000000000000006e-01
1.098420291999999909e+00,-7.444727049999999569e-01,1.124306405365567141e-01,1.000000000000000048e-04,3.862573598706516265e+01,1.300000000000000044e-01
8.241628739999999897e-01,-4.611620249999999754e-01,4.489753115013086493e-01,1.000000000000000048e-04,4.201754271650441552e+01,1.400000000000000133e-01
1.017317494999999905e+00,-7.027905669999999771e-01,3.091449470312768177e-01,1.000000000000000048e-04,4.091182132263914895e+01,1.199999999999999956e-01
2.728679550999999925e+00,-1.007430967999999982e+00,7.575150647287933747e-01,1.000000000000000048e-04,4.326582570478080214e+01,1.100000000000000006e-01
2.848837458999999850e+00,-9.622339979999999793e-01,2.204876730371707616e-01,1.000000000000000048e-04,4.026512557208765486e+01,1.199999999999999956e-01
-3.065525731179586266e+00,-7.207210450000000046e-01,2.692234091413809871e-01,1.000000000000000048e-04,4.065780182568196466e+01,1.199999999999999956e-01
1.103969978000000074e+00,-7.587182380000000448e-01,2.226079406205769828e-01,1.000000000000000048e-04,4.052058632270154703e+01,1.300000000000000044e-01
1.112034854000000017e+00,-7.675460100000000008e-01,2.064224612733649433e-01,1.000000000000000048e-04,4.020477529869489786e+01,1.199999999999999956e-01
2.373162053000000160e+00,-1.072487750000000073e+00,2.317813097289078694e-01,1.000000000000000048e-04,4.040522656912776966e+01,1.100000000000000006e-01
2.221583438000000132e+00,-1.096064289000000080e+00,2.415147159419170908e-01,1.000000000000000048e-04,4.072423609821328938e+01,1.199999999999999956e-01
2.775251189000000007e+00,-1.013244017000000108e+00,3.341368330050151769e-01,1.000000000000000048e-04,4.166028481928128713e+01,1.700000000000000122e-01
1.527128894000000070e+00,-9.963611940000000056e-01,4.873725870396974358e-01,1.000000000000000048e-04,4.215325272182559502e+01,1.400000000000000133e-01
-1.936135624179586401e+00,1.327891944000000102e+00,4.234996481611508212e-01,1.000000000000000048e-04,4.190679813038477874e+01,1.199999999999999956e-01
2.120951332999999828e+00,-1.112975437000000012e+00,1.158049480415368926e+00,1.000000000000000048e-04,4.459966217815593836e+01,1.600000000000000033e-01
2.950704906999999988e+00,-9.277153000000000205e-01,4.275433950110676395e-01,1.000000000000000048e-04,4.193808494961205469e+01,1.700000000000000122e-01
2.461302839000000020e+00,-1.064109841000000056e+00,7.656195629800028879e-01,1.000000000000000048e-04,4.344720417327589246e+01,1.499999999999999944e-01
1.687800213000000049e+00,-1.037844004000000098e+00,3.449144463072963962e-01,1.000000000000000048e-04,4.141351691516896238e+01,1.100000000000000006e-01
-3.069023128179586113e+00,-7.343218900000000327e-01,3.064070250539909779e-01,1.000000000000000048e-04,4.099931845648014672e+01,2.000000000000000111e-01
7.655655390000000171e-01,-3.825025819999999799e-01,1.262541767498996936e+00,1.000000000000000048e-04,4.467881138818533060e+01,1.300000000000000044e-01
-3.051736326179586012e+00,-7.690870560000000467e-01,2.198709791239981115e-01,1.000000000000000048e-04,4.019151871677584609e+01,1.499999999999999944e-01
-3.116938176179586240e+00,-7.920766919999999711e-01,7.621002120338318253e-01,1.000000000000000048e-04,4.360026514315367052e+01,1.100000000000000006e-01
1.020863690000000101e+00,-6.877910739999999468e-01,4.934204827251427172e-01,1.000000000000000048e-04,4.206226463562645534e+01,1.199999999999999956e-01
1.792785233999999894e+00,-1.066474936999999956e+00,3.118529960775751064e-01,1.000000000000000048e-04,4.104435494209822366e+01,1.100000000000000006e-01
1.805689748000000039e+00,-1.066896787999999985e+00,2.529160520904156773e-01,1.000000000000000048e-04,4.051487672890142022e+01,1.100000000000000006e-01
1.773248071000000037e+00,-1.046601056999999946e+00,1.479243721668741518e-01,1.000000000000000048e-04,3.952512568790153580e+01,2.099999999999999922e-01
1.076689889999999927e+00,-7.549444410000000216e-01,8.313097254717021212e-01,1.000000000000000048e-04,4.381929148667948937e+01,1.199999999999999956e-01
2.336456505000000128e+00,-1.089906792000000069e+00,4.900979090836687924e-01,1.000000000000000048e-04,4.235041859704228528e+01,1.199999999999999956e-01
2.522083900000000156e+00,-1.078852812999999911e+00,3.879444410895898088e-01,1.000000000000000048e-04,4.185700859409424623e+01,1.199999999999999956e-01
3.676074389999999803e-01,1.100614297999999991e+00,9.135101190219694356e-01,1.000000000000000048e-04,4.414801281316310622e+01,1.700000000000000122e-01
2.099931574000000190e+00,-1.082223048999999993e+00,1.237093340729749968e+00,1.000000000000000048e-04,4.474773297738281030e+01,1.100000000000000006e-01
8.155488279999999479e-01,-4.642700679999999802e-01,9.067042164736900389e-01,1.000000000000000048e-04,4.392592695724673035e+01,2.099999999999999922e-01
9.861636230000000447e-01,-6.881834650000000497e-01,3.655405132122100387e-01,1.000000000000000048e-04,4.154740962630071266e+01,1.300000000000000044e-01
1.864254864999999928e+00,-1.086684659999999969e+00,5.078242675621384983e-01,1.000000000000000048e-04,4.236049865234218004e+01,1.199999999999999956e-01
2.873066016000000111e+00,-9.753574739999999466e-01,5.564338138239963705e-01,1.000000000000000048e-04,4.250271478148320625e+01,1.300000000000000044e-01
2.270287562000000037e+00,-1.085086717999999895e+00,3.390218485063531961e-01,1.000000000000000048e-04,4.140929127563180856e+01,1.799999999999999933e-01
8.268071609999999572e-01,-4.587794940000000099e-01,4.702813934996910028e-01,1.000000000000000048e-04,4.243438812859760390e+01,1.199999999999999956e-01
-3.050869045179586347e+00,-7.648855789999999821e-01,1.931597234584430112e-01,1.000000000000000048e-04,3.984344108385696615e+01,1.199999999999999956e-01
1.101963728999999947e+00,-7.466317359999999903e-01,3.187469171699623960e-01,1.000000000000000048e-04,4.102060559803065587e+01,1.900000000000000022e-01
1.745116724000000064e+00,-1.056563783000000090e+00,5.190891566797848355e-01,1.000000000000000048e-04,4.243967937294213755e+01,1.300000000000000044e-01
7.889769570000000343e-01,-3.846565690000000037e-01,1.764829739246072116e-01,1.000000000000000048e-04,3.959624395534044083e+01,1.499999999999999944e-01
1.385818830999999918e+00,-9.278259679999999454e-01,1.730802106883717606e-01,1.000000000000000048e-04,3.982846508941786823e+01,1.499999999999999944e-01
1.138484923000000038e+00,-8.197145099999999518e-01,5.216976051762953759e-01,1.000000000000000048e-04,4.244365018475347995e+01,1.400000000000000133e-01
1.783410439000000069e+00,-1.080958507999999929e+00,2.747446662005799123e-01,1.000000000000000048e-04,4.077626079978852403e+01,1.400000000000000133e-01
2.617653461000000181e+00,-1.025884226000000066e+00,1.899873236939739751e-01,1.000000000000000048e-04,4.015137216274335685e+01,1.199999999999999956e-01
8.270197009999999960e-01,-4.157453939999999903e-01,4.929415837786921273e-01,1.000000000000000048e-04,4.226046914076785299e+01,1.199999999999999956e-01
3.128792493000000174e+00,-8.522697870000000009e-01,5.915440924380412913e-01,1.000000000000000048e-04,4.272796482793063433e+01,1.100000000000000006e-01
1.366158207000000013e+00,-9.614226009999999878e-01,1.189137255805039484e-01,1.000000000000000048e-04,3.907145528458553230e+01,1.100000000000000006e-01
2.846286316000000038e+00,-9.688357899999999745e-01,4.818009813806083397e-01,1.000000000000000048e-04,4.205745323550349468e+01,1.400000000000000133e-01
9.208216280000000031e-01,-6.185352929999999860e-01,5.881946651500029599e-01,1.000000000000000048e-04,4.263610925618582570e+01,1.499999999999999944e-01
7.622987450000000553e-01,-3.411912120000000215e-01,4.745027104307926180e-01,1.000000000000000048e-04,4.226681995920409207e+01,1.199999999999999956e-01
9.277931750000000255e-01,-5.813990460000000304e-01,1.663925924450913030e-01,1.000000000000000048e-04,3.988046058441420882e+01,2.099999999999999922e-01
1.010173165000000095e+00,-6.808591280000000356e-01,6.619644654448677557e-01,1.000000000000000048e-04,4.316157416780652767e+01,1.300000000000000044e-01
1.661181446000000062e+00,-1.029160687999999935e+00,5.279594065046162576e-01,1.000000000000000048e-04,4.240660656174097909e+01,1.400000000000000133e-01
2.089878704000000198e+00,-1.077863170999999953e+00,2.261377258025967230e-01,1.000000000000000048e-04,4.057127673595540074e+01,1.199999999999999956e-01
9.321550429999999610e-01,-6.212176799999999943e-01,1.961443122281241180e-01,1.000000000000000048e-04,4.014262896963904836e+01,1.199999999999999956e-01
2.944595597000000176e+00,-9.127602249999999806e-01,2.384150407979781505e-01,1.000000000000000048e-04,4.048271204348520769e+01,1.100000000000000006e-01
1.288081913999999939e+00,-9.113959929999999598e-01,5.721575399685254748e-01,1.000000000000000048e-04,4.280599196177090704e+01,1.300000000000000044e-01
1.398731861999999992e+00,-9.625033109999999725e-01,1.587073267554410805e-01,1.000000000000000048e-04,3.954888990990806974e+01,1.199999999999999956e-01
1.714165549000000066e+00,-1.043104095999999981e+00,2.081343305142369093e-01,1.000000000000000048e-04,4.018435704957222754e+01,1.199999999999999956e-01
1.014018395999999989e+00,-6.788913789999999615e-01,3.927510770506226212e-01,1.000000000000000048e-04,4.165134617640193682e+01,1.300000000000000044e-01
8.887761809999999985e-01,-5.541821719999999729e-01,7.577277675628657505e-01,1.000000000000000048e-04,4.350470926715328090e+01,1.300000000000000044e-01
1.026278256999999972e+00,-6.961882160000000264e-01,7.444773947191616337e-01,1.000000000000000048e-04,4.351027130707541346e+01,1.199999999999999956e-01
1.824970581999999952e+00,-1.080428363000000003e+00,3.756775245537942176e-01,1.000000000000000048e-04,4.171415458196537429e+01,1.199999999999999956e-01
1.839979185000000017e+00,-1.082878103999999952e+00,1.134690008650822701e-01,1.000000000000000048e-04,3.907214139250013574e+01,1.300000000000000044e-01
-3.070118813179586237e+00,-7.641942569999999879e-01,2.242516495337509852e-01,1.000000000000000048e-04,4.046980655738082788e+01,1.199999999999999956e-01
2.250776613000000204e+00,-1.110438553999999911e+00,1.172451422494664719e-01,1.000000000000000048e-04,3.904151953877975956e+01,1.199999999999999956e-01
2.613802471000000072e+00,-1.066258922999999914e+00,5.412582456034160661e-01,1.000000000000000048e-04,4.257795656987212141e+01,1.199999999999999956e-01
8.050150120000000298e-01,-4.193234060000000096e-01,5.075463466168401716e-01,1.000000000000000048e-04,4.264018655497595489e+01,1.499999999999999944e-01
2.809576177999999924e+00,-9.952447749999999704e-01,7.588965638047517892e-01,1.000000000000000048e-04,4.330782560375153878e+01,1.199999999999999956e-01
8.523447290000000232e-01,-4.773689010000000121e-01,1.603129355661025990e-01,1.000000000000000048e-04,3.956942129609912229e+01,2.000000000000000111e-01
2.975142320999999868e+00,-8.986192680000000266e-01,4.288957336765693018e-01,1.000000000000000048e-04,4.187295752091475975e+01,2.000000000000000111e-01
2.960578484000000010e+00,-9.174235720000000205e-01,1.412433075708141583e-01,1.000000000000000048e-04,3.951243090135950808e+01,1.400000000000000133e-01
1.589239559999999996e+00,-1.046132274999999945e+00,3.325408608338167316e-01,1.000000000000000048e-04,4.136977157058925059e+01,1.199999999999999956e-01
1.095136271999999966e+00,-7.909478989999999543e-01,3.111749168391562126e-01,1.000000000000000048e-04,4.121402712840324511e+01,1.300000000000000044e-01
3.045277111999999953e+00,-8.831592660000000539e-01,5.890259422501040731e-01,1.000000000000000048e-04,4.280106871467660312e+01,1.799999999999999933e-01
3.011317304999999944e+00,-8.969173430000000335e-01,5.892042847518583759e-01,1.000000000000000048e-04,4.265975422028743225e+01,1.499999999999999944e-01
1.946036051000000100e+00,-1.101857058000000000e+00,1.308815783827034007e+00,1.000000000000000048e-04,4.499803600885930166e+01,1.100000000000000006e-01
9.659444579999999503e-01,-6.400164339999999674e-01,5.446347934763584586e-01,1.000000000000000048e-04,4.248873861623500403e+01,1.199999999999999956e-01
1.142944595999999979e+00,-8.229314749999999679e-01,2.382558811438213464e-01,1.000000000000000048e-04,4.082062009677316894e+01,1.499999999999999944e-01
1.336859599999999926e+00,-9.462661719999999610e-01,6.293007445456137994e-01,1.000000000000000048e-04,4.310595877016013588e+01,1.900000000000000022e-01
2.386695267999999981e+00,-1.099692616000000012e+00,1.002223989418155714e+00,1.000000000000000048e-04,4.398660780297029760e+01,1.799999999999999933e-01
1.122946417999999946e+00,-7.871106610000000448e-01,3.614622109680214468e-01,1.000000000000000048e-04,4.160856066065969827e+01,1.499999999999999944e-01
1.038511049000000019e+00,-6.836743480000000428e-01,7.931935423274474317e-01,1.000000000000000048e-04,4.344323414538690287e+01,1.499999999999999944e-01
-1.865548755179585960e+00,5.988235499999999822e-01,4.698874796947609678e-01,1.000000000000000048e-04,4.249646846233127206e+01,3.599999999999999867e-01
-1.208774007179585830e+00,1.086301519000000049e+00,4.147205641978919388e-01,1.000000000000000048e-04,4.124244588047410076e+01,3.900000000000000133e-01
-1.451351928179586359e+00,1.047303024999999943e+00,6.584269194359104738e-01,1.000000000000000048e-04,4.280648560295846750e+01,3.900000000000000133e-01
-1.863787002179586594e+00,5.986409590000000280e-01,1.996200387779620833e-01,1.000000000000000048e-04,3.915089178725487784e+01,3.099999999999999978e-01
-2.367107747179586053e+00,3.570653329999999848e-01,2.652225768765252845e-01,1.000000000000000048e-04,4.076777114573482663e+01,3.300000000000000155e-01
3.110012692999999828e+00,-8.816387980000000013e-01,2.479533360598726865e-01,1.000000000000000048e-04,4.039581845500274682e+01,4.000000000000000222e-01
1.208427087000000011e+00,6.391205479999999550e-01,4.150114136631626316e-01,1.000000000000000048e-04,4.197792539076834828e+01,3.200000000000000067e-01
2.195568135999999893e+00,9.530612539999999688e-01,7.819037997437650045e-01,1.000000000000000048e-04,4.309436407992195939e+01,3.200000000000000067e-01
-1.746303855179585973e+00,7.561700099999999480e-01,1.197745277092256533e+00,1.000000000000000048e-04,4.473446604492264811e+01,3.599999999999999867e-01
-2.613733020179586308e+00,3.020363409999999860e-01,4.071644860151875100e-01,1.000000000000000048e-04,4.158788107441542792e+01,2.399999999999999911e-01
3.080075141000000016e+00,6.813462000000000129e-01,1.329010919898543364e-01,1.000000000000000048e-04,3.900785397320419179e+01,2.999999999999999889e-01
3.084152930000000126e+00,6.750201959999999612e-01,6.836278877107959673e-01,1.000000000000000048e-04,4.345889029921065116e+01,2.399999999999999911e-01
-2.831540824179586302e+00,-5.193198470000000011e-01,1.520994137756246367e-01,1.000000000000000048e-04,3.958956860597405125e+01,2.899999999999999800e-01
2.921667255000000019e+00,-9.403574120000000036e-01,5.345872801042155231e-01,1.000000000000000048e-04,4.186938604091412941e+01,2.899999999999999800e-01
2.610543199999999953e+00,9.294079060000000059e-01,2.536380455880307139e-01,1.000000000000000048e-04,4.060763685635427578e+01,2.899999999999999800e-01
2.614058957000000127e+00,9.310355519999999885e-01,7.984260840608090604e-01,1.000000000000000048e-04,4.344240341805323879e+01,3.699999999999999956e-01
-2.614313936179586406e+00,3.105085300000000048e-01,1.351275457047384609e+00,1.000000000000000048e-04,4.498292574840591129e+01,2.300000000000000100e-01
-2.614275993179586255e+00,3.084493819999999942e-01,2.937340942418278367e-01,1.000000000000000048e-04,4.100761605374401597e+01,2.000000000000000111e-01
3.080236718000000096e+00,6.852664600000000217e-01,1.369724450850304809e-01,1.000000000000000048e-04,3.899176752656786249e+01,3.800000000000000044e-01
3.085135451000000195e+00,6.840520260000000352e-01,4.063965179499089420e-01,1.000000000000000048e-04,4.169506592516326293e+01,2.300000000000000100e-01
-2.829361723179586452e+00,-5.190188390000000096e-01,7.616429072233215081e-01,1.000000000000000048e-04,4.328952407849912731e+01,3.900000000000000133e-01
-2.833706243179586082e+00,-5.260186759999999628e-01,2.645974252067202492e-01,1.000000000000000048e-04,4.048025919738363143e+01,2.200000000000000011e-01
1.286414458000000094e+00,-9.076167339999999806e-01,4.868744025508393580e-01,1.000000000000000048e-04,4.199410997544289614e+01,2.399999999999999911e-01
2.295144749999999956e+00,-1.095028292000000070e+00,3.513043487733213954e-01,1.000000000000000048e-04,4.187030830601624132e+01,2.000000000000000111e-01
2.312115046000000174e+00,-1.091482969000000081e+00,4.584716270828641527e-01,1.000000000000000048e-04,4.229499755164105324e+01,1.900000000000000022e-01
2.535381049000000164e+00,-1.063602453999999975e+00,1.219774030344033200e+00,1.000000000000000048e-04,4.455627830515508236e+01,2.600000000000000089e-01
2.549902755000000187e+00,-1.059649137999999935e+00,7.255392518670589208e-01,1.000000000000000048e-04,4.333380673404506211e+01,1.900000000000000022e-01
-2.980466121795863899e-01,1.081935794000000062e+00,1.939838982256989475e-01,1.000000000000000048e-04,3.977482510276597338e+01,1.000000000000000056e-01
-4.562223411795862660e-01,1.078420874000000085e+00,7.996053956997577483e-01,1.000000000000000048e-04,4.377072625096119651e+01,1.400000000000000133e-01
-4.727696341795866175e-01,1.076427226000000070e+00,8.301977352466265447e-01,1.000000000000000048e-04,4.363005745142339009e+01,1.900000000000000022e-01
-4.909850281795860028e-01,1.086050390999999893e+00,3.818266485525523279e-01,1.000000000000000048e-04,4.128544320805443135e+01,1.499999999999999944e-01
-1.809890014179586615e+00,8.554848849999999727e-01,3.250806368667251700e-01,1.000000000000000048e-04,4.138908498218758325e+01,1.900000000000000022e-01
-1.804843805179586091e+00,8.509932909999999850e-01,5.061261967471959444e-01,1.000000000000000048e-04,4.233766194627821733e+01,1.700000000000000122e-01
-1.798315402179586187e+00,8.389159160000000393e-01,2.165234846536281399e-01,1.000000000000000048e-04,3.989112839823610557e+01,1.100000000000000006e-01
-1.820018681179586650e+00,8.404092629999999620e-01,1.012646742429125002e+00,1.000000000000000048e-04,4.431518526561129789e+01,2.000000000000000111e-01
-2.435936564179586039e+00,3.767214549999999829e-01,1.646462662155181444e-01,1.000000000000000048e-04,3.948465576260863230e+01,1.700000000000000122e-01
-2.738532057179586143e+00,-4.670391260000000266e-01,1.275211601026953190e-01,1.000000000000000048e-04,3.905177363822554781e+01,1.100000000000000006e-01
-2.750126147179586145e+00,-4.750163370000000107e-01,3.254756845688833167e-01,1.000000000000000048e-04,4.108132726769219545e+01,1.700000000000000122e-01
6.777063359999999648e-01,-9.284162910000000046e-01,1.799435544079537319e-01,1.000000000000000048e-04,3.999025810700214123e+01,1.600000000000000033e-01
6.755664329999999662e-01,-9.242990760000000527e-01,6.597697588313085060e-01,1.000000000000000048e-04,4.308408331852892559e+01,2.200000000000000011e-01
1.666277256000000095e+00,1.035703752000000089e+00,4.049996039899528277e-01,1.000000000000000048e-04,4.221439708581972639e+01,2.800000000000000266e-01
1.679531192000000006e+00,1.034147155999999956e+00,3.223373578525579042e-01,1.000000000000000048e-04,4.114635690157393810e+01,2.099999999999999922e-01
1.669961188000000041e+00,1.045784459000000055e+00,3.218503533580046039e-01,1.000000000000000048e-04,4.070291732187885003e+01,2.899999999999999800e-01
1.666612017000000057e+00,1.035903760999999923e+00,2.321216970937485247e-01,1.000000000000000048e-04,4.040297865481790751e+01,1.400000000000000133e-01
1.676630470000000095e+00,1.049302589999999924e+00,3.102729497274339110e-01,1.000000000000000048e-04,4.092081891188783516e+01,1.600000000000000033e-01
1.678871634000000057e+00,1.037439988999999896e+00,3.521921118804245410e-01,1.000000000000000048e-04,4.129350722775125604e+01,2.099999999999999922e-01
-2.159653925179585876e+00,7.341517600000000421e-01,7.436352158907895138e-01,1.000000000000000048e-04,4.313410528594197046e+01,2.600000000000000089e-01
-2.155609593179586447e+00,7.327229189999999726e-01,9.752924661442101684e-01,1.000000000000000048e-04,4.407198774527122254e+01,1.400000000000000133e-01
2.989279821999999864e+00,-1.014333855000000062e+00,1.924149541388828766e-01,1.000000000000000048e-04,4.008838106455765171e+01,1.600000000000000033e-01
6.962963009999999509e-01,-9.242906640000000396e-01,1.254902367083010617e-01,1.000000000000000048e-04,3.896808972182319764e+01,2.000000000000000111e-01
6.831622830000000368e-01,-9.295060950000000322e-01,6.099787085666155129e-01,1.000000000000000048e-04,4.264512082330673337e+01,2.099999999999999922e-01
6.813526220000000189e-01,-9.196739680000000083e-01,7.660742655533134826e-01,1.000000000000000048e-04,4.358498986226495475e+01,1.700000000000000122e-01
1.667475545999999920e+00,1.039138789999999979e+00,9.100246113864975950e-01,1.000000000000000048e-04,4.397807410769078018e+01,1.499999999999999944e-01
1.669072946000000002e+00,1.039627206000000026e+00,3.198941464627462761e-01,1.000000000000000048e-04,4.098053079240236940e+01,1.700000000000000122e-01
2.992464221000000091e+00,-1.009427984000000000e+00,2.641588407863835197e-01,1.000000000000000048e-04,4.079535321384269508e+01,1.400000000000000133e-01
3.013377762000000182e+00,-1.015725085999999999e+00,2.467896520232319979e-01,1.000000000000000048e-04,4.048702987874160897e+01,1.499999999999999944e-01
6.857830799999999893e-01,-9.290922369999999875e-01,1.540730991137340133e-01,1.000000000000000048e-04,3.935876954334174371e+01,3.400000000000000244e-01
6.874880420000000214e-01,-9.251381180000000093e-01,2.860081628049242486e-01,1.000000000000000048e-04,4.113518621365712136e+01,1.700000000000000122e-01
1.659686511000000086e+00,1.040101345999999927e+00,6.568747328792730045e-01,1.000000000000000048e-04,4.304712280392266166e+01,1.400000000000000133e-01
1.692629780999999944e+00,1.043637506000000048e+00,7.619510932327491215e-01,1.000000000000000048e-04,4.338212311560349121e+01,1.799999999999999933e-01
1.682450028999999958e+00,1.049226146999999942e+00,1.187529343210350863e+00,1.000000000000000048e-04,4.487473183565226975e+01,1.900000000000000022e-01
1.675255906999999933e+00,1.048468626000000015e+00,4.564304575387969631e-01,1.000000000000000048e-04,4.191948783382853350e+01,1.499999999999999944e-01
1.692145135000000078e+00,1.039981480000000014e+00,1.787439912100872164e-01,1.000000000000000048e-04,3.968278732405062215e+01,1.700000000000000122e-01
-2.139768073179586061e+00,7.360294179999999908e-01,4.323190927261280070e-01,1.000000000000000048e-04,4.173534836415622351e+01,1.600000000000000033e-01
-2.138731675179585956e+00,7.369836659999999817e-01,8.523206300724750495e-01,1.000000000000000048e-04,4.369027753180488105e+01,1.499999999999999944e-01
6.888283630000000546e-01,-9.193630990000000169e-01,2.002674466459231084e-01,1.000000000000000048e-04,4.005461395575602523e+01,1.700000000000000122e-01
6.776433490000000059e-01,-9.225326109999999469e-01,2.642538632735749182e-01,1.000000000000000048e-04,4.079057861316708511e+01,1.600000000000000033e-01
6.820513620000000499e-01,-9.162569579999999547e-01,2.695393873737232937e-01,1.000000000000000048e-04,4.059273940823489824e+01,2.899999999999999800e-01
6.832637360000000104e-01,-9.208365670000000502e-01,1.077512551722688006e-01,1.000000000000000048e-04,3.867842568075560195e+01,1.400000000000000133e-01
1.683256381999999940e+00,1.050427892999999946e+00,1.600577192608103605e-01,1.000000000000000048e-04,3.944854367392296979e+01,1.499999999999999944e-01
2.987248335999999949e+00,-1.011507587000000097e+00,1.927942849425241523e-01,1.000000000000000048e-04,3.979341141616736621e+01,1.900000000000000022e-01
2.994879214000000012e+00,-1.020537374999999969e+00,2.116107301360192761e-01,1.000000000000000048e-04,4.041135717171621167e+01,2.500000000000000000e-01
2.997056848999999801e+00,-1.020797841000000039e+00,5.251033035715599873e-01,1.000000000000000048e-04,4.248841804621262952e+01,1.499999999999999944e-01
6.981827720000000070e-01,-9.201470600000000166e-01,2.651894217716004309e-01,1.000000000000000048e-04,4.080502980550875236e+01,2.099999999999999922e-01
1.675679171999999939e+00,1.042232051000000048e+00,3.156466636032095874e-01,1.000000000000000048e-04,4.090268225984041806e+01,1.900000000000000022e-01
1.682732345000000018e+00,1.051774148000000020e+00,7.562889092745108677e-01,1.000000000000000048e-04,4.326747305094841778e+01,2.099999999999999922e-01
1.655763980999999996e+00,1.041789395999999979e+00,1.316271289794716637e+00,1.000000000000000048e-04,4.452508725262840983e+01,2.099999999999999922e-01
1.658505131999999938e+00,1.042043577999999915e+00,3.659478704581518027e-01,1.000000000000000048e-04,4.152595511406959616e+01,1.499999999999999944e-01
1.679931540999999973e+00,1.044700675999999939e+00,6.517383192290473470e-01,1.000000000000000048e-04,4.312629793727691663e+01,1.400000000000000133e-01
1.681131209999999987e+00,1.046558263000000100e+00,6.655139683155002484e-01,1.000000000000000048e-04,4.313288747009332269e+01,3.800000000000000044e-01
-2.147380102179586636e+00,7.248191320000000326e-01,1.872360255034253296e-01,1.000000000000000048e-04,3.942212089598545077e+01,2.200000000000000011e-01
-2.137481690179586558e+00,7.386978770000000027e-01,5.464712699274454355e-01,1.000000000000000048e-04,4.249773188697641046e+01,1.499999999999999944e-01
3.007533192999999994e+00,-1.006434849999999992e+00,2.637851440160956518e-01,1.000000000000000048e-04,4.062078162583655683e+01,1.700000000000000122e-01
6.766177190000000063e-01,-9.309161569999999664e-01,1.439117805632561531e-01,1.000000000000000048e-04,3.948604759825541066e+01,1.700000000000000122e-01
6.879719020000000240e-01,-9.170357009999999809e-01,4.834752250174547683e-01,1.000000000000000048e-04,4.237558640008734301e+01,2.600000000000000089e-01
6.868192690000000100e-01,-9.190749710000000183e-01,1.889686014446221307e-01,1.000000000000000048e-04,4.006374034156547026e+01,2.800000000000000266e-01
1.680927606000000019e+00,1.043199457999999913e+00,2.076653210060326327e-01,1.000000000000000048e-04,4.000688729053869253e+01,1.799999999999999933e-01
1.680733408999999901e+00,1.046110547000000057e+00,7.109711888266563307e-01,1.000000000000000048e-04,4.288512901252074272e+01,1.499999999999999944e-01
3.003205794999999956e+00,-1.007960921000000010e+00,3.804694136059083576e-01,1.000000000000000048e-04,4.136014309982093096e+01,2.200000000000000011e-01
3.013387552999999830e+00,-1.018013843000000085e+00,4.780989132025670330e-01,1.000000000000000048e-04,4.212191572169965781e+01,2.000000000000000111e-01
2.991633154000000072e+00,-1.018575491000000000e+00,4.370077651579769018e-01,1.000000000000000048e-04,4.216013307679234856e+01,1.600000000000000033e-01
6.810583510000000063e-01,-9.216344210000000370e-01,2.489550178244888112e-01,1.000000000000000048e-04,4.050671987854394018e+01,1.600000000000000033e-01
1.670069762000000013e+00,1.048284639000000018e+00,9.214409503874088081e-01,1.000000000000000048e-04,4.384312509885267417e+01,2.099999999999999922e-01
1.699713636000000028e+00,1.040243690999999915e+00,8.818102446763902424e-01,1.000000000000000048e-04,4.343273456637320606e+01,2.899999999999999800e-01
1.686195045999999920e+00,1.048540513999999924e+00,7.535797982102263592e-01,1.000000000000000048e-04,4.349562192511065462e+01,1.400000000000000133e-01
1.667162669999999958e+00,1.044746053999999980e+00,4.521225103648509602e-01,1.000000000000000048e-04,4.235230088638522972e+01,2.700000000000000178e-01
1.689467040999999892e+00,1.036330184999999959e+00,4.955118440268122537e-01,1.000000000000000048e-04,4.228505675674362863e+01,1.300000000000000044e-01
1.683799076999999977e+00,1.043385784000000038e+00,4.186741118857528754e-01,1.000000000000000048e-04,4.170278303383282292e+01,1.700000000000000122e-01
-2.151455832179586025e+00,7.398983139999999459e-01,2.203573639339302392e-01,1.000000000000000048e-04,4.001190935671667859e+01,2.500000000000000000e-01
-2.141944958179585967e+00,7.302793560000000461e-01,2.637111378053937916e-01,1.000000000000000048e-04,4.067461288345135273e+01,1.400000000000000133e-01
3.012489310999999947e+00,-1.019874449000000016e+00,2.335893916809570481e-01,1.000000000000000048e-04,4.034955300733916062e+01,1.900000000000000022e-01
6.824463880000000149e-01,-9.193269539999999740e-01,2.668639107256667309e-01,1.000000000000000048e-04,4.071462111329102385e+01,1.600000000000000033e-01
6.933168330000000212e-01,-9.307474239999999899e-01,7.791199519356530878e-01,1.000000000000000048e-04,4.352018195511131893e+01,1.600000000000000033e-01
7.005346909999999871e-01,-9.247541049999999929e-01,1.148658178956338816e+00,1.000000000000000048e-04,4.446243813522841037e+01,2.700000000000000178e-01
1.674988617999999985e+00,1.042237757999999959e+00,3.652658544075024771e-01,1.000000000000000048e-04,4.139724049051913823e+01,1.499999999999999944e-01
1.672026148000000045e+00,1.039374368000000048e+00,1.864928400044050250e-01,1.000000000000000048e-04,3.971082407232530187e+01,1.600000000000000033e-01
2.993618983999999816e+00,-1.008517228000000099e+00,2.935793581905903338e-01,1.000000000000000048e-04,4.106241935423887668e+01,1.700000000000000122e-01
2.992837709999999873e+00,-1.014889098000000045e+00,6.003067166295770196e-01,1.000000000000000048e-04,4.268776519606164044e+01,2.800000000000000266e-01
2.980621672999999916e+00,-1.012535224000000067e+00,1.678343718458044087e-01,1.000000000000000048e-04,3.976725905501775316e+01,1.499999999999999944e-01
3.118379398000000080e+00,-1.044341935000000055e+00,1.561736824073562957e-01,1.000000000000000048e-04,3.925105861261402396e+01,3.099999999999999978e-01
3.132904315000000217e+00,-1.046896950999999909e+00,1.915647541640388418e-01,1.000000000000000048e-04,3.976224325775147861e+01,2.200000000000000011e-01
1.248659997999999938e+00,-1.117162079000000086e+00,4.887434332065363485e-01,1.000000000000000048e-04,4.220710887610022866e+01,2.700000000000000178e-01
2.302446713000000145e+00,-1.091359299000000060e+00,7.494313052800136710e-01,1.000000000000000048e-04,4.361887932335559981e+01,2.899999999999999800e-01
3.133486173000000097e+00,-1.061461677999999909e+00,1.104776956176037217e+00,1.000000000000000048e-04,4.457885846411765129e+01,3.099999999999999978e-01
1.251013366000000016e+00,-1.102704651999999896e+00,3.058405706693509973e-01,1.000000000000000048e-04,4.098853627054263882e+01,2.300000000000000100e-01
1.232341668999999973e+00,-1.105349812000000043e+00,3.705508650223974243e-01,1.000000000000000048e-04,4.143033874544597950e+01,2.200000000000000011e-01
2.330538756999999794e+00,-1.086213730999999960e+00,3.092295947768328723e-01,1.000000000000000048e-04,4.107840976168764513e+01,2.300000000000000100e-01
3.104372880000000112e+00,-1.050765708999999992e+00,2.468989968617365527e-01,1.000000000000000048e-04,4.072969779130476553e+01,2.200000000000000011e-01
3.122794933000000217e+00,-1.050942575000000101e+00,3.792735356103931199e-01,1.000000000000000048e-04,4.178634516007171840e+01,2.099999999999999922e-01
3.135928428000000157e+00,-1.044986675000000087e+00,4.296630002324415276e-01,1.000000000000000048e-04,4.164506773055513378e+01,2.300000000000000100e-01
3.135701593999999925e+00,-1.049448040999999998e+00,8.874914373886142460e-01,1.000000000000000048e-04,4.382991193870032021e+01,2.399999999999999911e-01
2.902190216000000156e+00,-1.054666754000000095e+00,3.510020199806158647e-01,1.000000000000000048e-04,4.121409460628176191e+01,2.099999999999999922e-01
1.219278212000000083e+00,-1.102494101000000004e+00,2.617366983604594299e-01,1.000000000000000048e-04,4.066876023174415877e+01,2.399999999999999911e-01
2.314258420999999899e+00,-1.073777474999999981e+00,3.450457926597125802e-01,1.000000000000000048e-04,4.151936221139818883e+01,2.399999999999999911e-01
3.138600745000000192e+00,-1.056209613999999908e+00,1.251497541499555055e+00,1.000000000000000048e-04,4.426796987902476843e+01,2.800000000000000266e-01
2.873014373000000177e+00,-1.047336534999999902e+00,1.620390359791159529e-01,1.000000000000000048e-04,3.985506927202156646e+01,2.000000000000000111e-01
2.890150627000000139e+00,-1.045368942999999939e+00,4.550535032111502343e-01,1.000000000000000048e-04,4.188713971111070578e+01,2.200000000000000011e-01
-3.136513490179586139e+00,-1.038988312000000080e+00,1.528527316676131509e-01,1.000000000000000048e-04,3.946950616442189386e+01,2.800000000000000266e-01
3.120369102000000172e+00,-1.042910143999999928e+00,3.693678717199850858e-01,1.000000000000000048e-04,4.171257410990486392e+01,2.399999999999999911e-01
3.132773262000000170e+00,-1.048570620000000009e+00,5.380773112840191441e-01,1.000000000000000048e-04,4.241752390066542944e+01,2.300000000000000100e-01
3.132934141999999866e+00,-1.046888051000000042e+00,4.439259682480769520e-01,1.000000000000000048e-04,4.218308572684542668e+01,2.200000000000000011e-01
3.134455274000000014e+00,-1.046257098000000108e+00,6.674038779379303232e-01,1.000000000000000048e-04,4.293495862907185767e+01,2.200000000000000011e-01
2.910504301000000016e+00,-1.063930792999999930e+00,1.362180612329988438e-01,1.000000000000000048e-04,3.967794515436350622e+01,2.399999999999999911e-01
2.301930878999999930e+00,-1.084305269999999988e+00,9.254336969902632326e-01,1.000000000000000048e-04,4.363376104012886003e+01,3.099999999999999978e-01
2.314913878000000036e+00,-1.104421796000000011e+00,3.815404265214554780e-01,1.000000000000000048e-04,4.195260284955170960e+01,2.600000000000000089e-01
1.232494258000000009e+00,-1.089556776000000005e+00,3.521546713725913769e-01,1.000000000000000048e-04,4.111018940634272667e+01,3.099999999999999978e-01
-3.138875270179586341e+00,-1.027091259999999950e+00,3.343930738316409634e-01,1.000000000000000048e-04,4.120114475961469225e+01,3.800000000000000044e-01
1.277748142000000087e+00,-1.105660628999999950e+00,6.653283464881705189e-01,1.000000000000000048e-04,4.287030206325109560e+01,2.500000000000000000e-01
2.339694710999999927e+00,-1.083680948999999893e+00,1.187785500340559075e-01,1.000000000000000048e-04,3.912567228279389298e+01,2.300000000000000100e-01
3.085408954000000037e+00,-1.045989441999999991e+00,6.761233812683760114e-01,1.000000000000000048e-04,4.287649038354257414e+01,2.800000000000000266e-01
3.122183823999999941e+00,-1.053540683000000033e+00,6.058034037920936310e-01,1.000000000000000048e-04,4.261473528946796563e+01,3.699999999999999956e-01
1.263417701000000060e+00,-1.099941301000000093e+00,3.437182578358695118e-01,1.000000000000000048e-04,4.189368418530607840e+01,2.200000000000000011e-01
1.238769020999999970e+00,-1.122513239999999968e+00,1.247438172356695851e+00,1.000000000000000048e-04,4.485418945813482594e+01,2.600000000000000089e-01
1.225778744000000087e+00,-1.107856694000000086e+00,2.147913975566770883e-01,1.000000000000000048e-04,3.994260318660341369e+01,2.500000000000000000e-01
2.356185176999999964e+00,-1.090954028000000076e+00,1.081434536919392286e-01,1.000000000000000048e-04,3.884504971595067957e+01,2.700000000000000178e-01
1.231078855000000027e+00,-1.109460918999999990e+00,3.783487044403897048e-01,1.000000000000000048e-04,4.160705874329669740e+01,2.300000000000000100e-01
2.350025410999999842e+00,-1.078254897999999962e+00,5.451074830390234549e-01,1.000000000000000048e-04,4.272363212006052891e+01,2.300000000000000100e-01
2.889344674999999807e+00,-1.054064458000000037e+00,3.351739046416026824e-01,1.000000000000000048e-04,4.122839887717053386e+01,3.200000000000000067e-01
1.260972444000000081e+00,-1.102168519999999985e+00,5.796908392685453659e-01,1.000000000000000048e-04,4.259095006690868956e+01,2.899999999999999800e-01
3.138597202000000141e+00,-1.049455424000000026e+00,1.407499544937396152e-01,1.000000000000000048e-04,3.929063353777537060e+01,2.600000000000000089e-01
1.280173519000000093e+00,-1.106045986000000036e+00,5.279505983889820619e-01,1.000000000000000048e-04,4.254711459315236510e+01,2.899999999999999800e-01
3.140421104000000074e+00,-1.048273016000000002e+00,4.613137844122003894e-01,1.000000000000000048e-04,4.218599700216422832e+01,2.700000000000000178e-01
2.887571490000000018e+00,-1.060290981000000077e+00,1.219437012634252415e-01,1.000000000000000048e-04,3.898781540878854202e+01,2.300000000000000100e-01
3.117377486000000086e+00,-1.048849812999999909e+00,1.640817973484376413e-01,1.000000000000000048e-04,3.945536236027914612e+01,2.800000000000000266e-01
3.139331405000000075e+00,-1.045946368000000071e+00,6.831324800277214226e-01,1.000000000000000048e-04,4.305542996584493665e+01,2.300000000000000100e-01
2.901812189000000153e+00,-1.070407117000000019e+00,2.680973063512199772e-01,1.000000000000000048e-04,4.065813759720428067e+01,2.200000000000000011e-01
2.874698792999999863e+00,-1.069280417999999955e+00,4.814716786792252456e-01,1.000000000000000048e-04,4.240463382442420226e+01,2.200000000000000011e-01
3.126790450000000110e+00,-1.053686536000000062e+00,1.906325724408590716e-01,1.000000000000000048e-04,3.986553433048830897e+01,2.099999999999999922e-01
1.253234667999999941e+00,-1.096167120000000050e+00,1.298041137218939767e+00,1.000000000000000048e-04,4.461216244050005031e+01,2.200000000000000011e-01
1.242189800000000011e+00,-1.095888138000000067e+00,3.703057791314867675e-01,1.000000000000000048e-04,4.193658785528066346e+01,2.899999999999999800e-01
2.358704259000000025e+00,-1.096119858000000002e+00,3.227125748569894537e-01,1.000000000000000048e-04,4.121030253726593173e+01,2.099999999999999922e-01
3.090657074000000115e+00,-1.046905049999999893e+00,3.054781321630839486e-01,1.000000000000000048e-04,4.084275280061746827e+01,2.300000000000000100e-01
2.350320292999999783e+00,-1.077642637000000070e+00,4.977456599412677374e-01,1.000000000000000048e-04,4.227130878574350703e+01,3.300000000000000155e-01
3.120911620999999858e+00,-1.047605429999999949e+00,1.584643085071526514e-01,1.000000000000000048e-04,3.967706746969466991e+01,2.899999999999999800e-01
2.310418793000000193e+00,-1.091478047999999923e+00,1.076627375508963702e+00,1.000000000000000048e-04,4.504676042709238715e+01,3.300000000000000155e-01
2.888242410000000149e+00,-1.055260810999999910e+00,7.193041398810995357e-01,1.000000000000000048e-04,4.405433123876563428e+01,2.999999999999999889e-01
2.313880778000000138e+00,-1.089056457000000089e+00,1.102678144546451744e-01,1.000000000000000048e-04,3.879957374655288760e+01,2.600000000000000089e-01
3.096505394999999883e+00,-1.050897790999999915e+00,3.747396804745404264e-01,1.000000000000000048e-04,4.181424999279973065e+01,3.300000000000000155e-01
1.264206060000000020e+00,-1.108314516000000083e+00,4.371969999541278629e-01,1.000000000000000048e-04,4.224867077740804433e+01,2.500000000000000000e-01
2.317080779999999951e+00,-1.080569537999999996e+00,2.308624671898134029e-01,1.000000000000000048e-04,4.011980392315592781e+01,2.399999999999999911e-01
2.308161032000000112e+00,-1.080284865999999955e+00,1.451332978970369947e-01,1.000000000000000048e-04,3.904841774721203507e+01,3.900000000000000133e-01
1.213089824000000094e+00,-1.095999417000000031e+00,2.017691358250288669e-01,1.000000000000000048e-04,4.055564609866712544e+01,2.700000000000000178e-01
3.095344697999999894e+00,-1.044259242999999948e+00,2.776326664515327280e-01,1.000000000000000048e-04,4.122114680370339812e+01,2.200000000000000011e-01
3.093500166000000107e+00,-1.047656949999999920e+00,5.813817302235608775e-01,1.000000000000000048e-04,4.282543892537547947e+01,2.300000000000000100e-01
2.871266652000000086e+00,-1.064917746999999970e+00,3.005124872668141212e-01,1.000000000000000048e-04,4.084448970374037913e+01,2.500000000000000000e-01
2.872879009000000039e+00,-1.076645507999999918e+00,2.919524800681936316e-01,1.000000000000000048e-04,4.102034882045300179e+01,2.099999999999999922e-01
1.241294699000000001e+00,-1.109043570000000090e+00,7.673497591513986915e-01,1.000000000000000048e-04,4.316493650728921949e+01,2.099999999999999922e-01
1.238788393000000099e+00,-1.083197141000000085e+00,3.029227796653881644e-01,1.000000000000000048e-04,4.139898013322251558e+01,2.999999999999999889e-01
-3.140928712179586135e+00,-1.049943351000000025e+00,2.587933923006704440e-01,1.000000000000000048e-04,4.019661680327440934e+01,2.200000000000000011e-01
2.897074545000000168e+00,-1.050668165000000043e+00,9.362213272759341010e-01,1.000000000000000048e-04,4.350095139398739974e+01,2.099999999999999922e-01
3.133488720999999977e+00,-1.053899826000000095e+00,2.654956727301154285e-01,1.000000000000000048e-04,4.050963613455724044e+01,2.300000000000000100e-01
2.854965548000000020e+00,-1.051119023000000041e+00,7.449485314457955365e-01,1.000000000000000048e-04,4.292392265089740988e+01,3.200000000000000067e-01
2.846666281000000076e+00,-1.061494909000000098e+00,6.270670730575642615e-01,1.000000000000000048e-04,4.300516988496251969e+01,2.600000000000000089e-01
1.477625364000000108e+00,-9.892628350000000070e-01,5.950659303781302700e-01,1.000000000000000048e-04,4.249860730333369219e+01,2.000000000000000111e-01
-2.998301261179586064e+00,-5.567642400000000213e-01,2.820390165760497947e-01,1.000000000000000048e-04,4.078742653609597113e+01,1.799999999999999933e-01
2.915910107000000195e+00,-9.248875840000000403e-01,2.875179503257525582e-01,1.000000000000000048e-04,4.108780510030793920e+01,2.999999999999999889e-01
2.904218159000000021e+00,-9.279150130000000107e-01,5.694409658548309494e-01,1.000000000000000048e-04,4.263907975917624071e+01,2.399999999999999911e-01
2.945746643000000109e+00,-9.241091030000000428e-01,1.211460125168390967e-01,1.000000000000000048e-04,3.910348518942533502e+01,2.300000000000000100e-01
2.195221751000000054e+00,9.567984520000000215e-01,6.185545982425739719e-01,1.000000000000000048e-04,4.279385917464315270e+01,2.200000000000000011e-01
-2.382074272179586227e+00,-9.504311730000000180e-01,3.174604380307435303e-01,1.000000000000000048e-04,4.118837238260514511e+01,2.300000000000000100e-01
2.197803225999999999e+00,9.560313849999999558e-01,2.636265499187506745e-01,1.000000000000000048e-04,4.072202677359403822e+01,2.300000000000000100e-01
-2.380846050179586282e+00,-9.512843520000000552e-01,1.052598916043823607e+00,1.000000000000000048e-04,4.383263437505164717e+01,2.600000000000000089e-01
-2.382960995179586039e+00,-9.501026420000000527e-01,7.239519775684395420e-01,1.000000000000000048e-04,4.335662063863269822e+01,2.099999999999999922e-01
2.192165822000000208e+00,9.554729659999999791e-01,6.573316763118197681e-01,1.000000000000000048e-04,4.304718442954910529e+01,2.899999999999999800e-01
-2.383512939179586176e+00,-9.505219620000000535e-01,1.211542718010227837e-01,1.000000000000000048e-04,3.905242411747819631e+01,2.000000000000000111e-01
2.197044292000000176e+00,9.582492320000000063e-01,5.196099051631262178e-01,1.000000000000000048e-04,4.207509111274982416e+01,2.500000000000000000e-01
2.198013217999999824e+00,9.570721989999999568e-01,4.280023813062030502e-01,1.000000000000000048e-04,4.141318925151351493e+01,2.099999999999999922e-01
2.198391541999999976e+00,9.561199929999999458e-01,1.413438336721040134e-01,1.000000000000000048e-04,3.880477816789261425e+01,2.300000000000000100e-01
2.199218732999999926e+00,9.570277640000000030e-01,4.407595081658617353e-01,1.000000000000000048e-04,4.178518062799886934e+01,2.200000000000000011e-01
2.196667974999999995e+00,9.569524729999999701e-01,6.301179351622403502e-01,1.000000000000000048e-04,4.258341661387738952e+01,2.399999999999999911e-01
2.196400267000000017e+00,9.571105250000000453e-01,1.697433811443207485e-01,1.000000000000000048e-04,3.928716950278152353e+01,2.500000000000000000e-01
2.195980999000000100e+00,9.563170869999999546e-01,7.818055992039962820e-01,1.000000000000000048e-04,4.327499045356458396e+01,2.200000000000000011e-01
2.198886345000000020e+00,9.574225640000000315e-01,2.807019441017648553e-01,1.000000000000000048e-04,4.074042575867074589e+01,3.300000000000000155e-01
-2.382942164179586264e+00,-9.487821469999999646e-01,4.282113852039057811e-01,1.000000000000000048e-04,4.204314367188403878e+01,2.000000000000000111e-01
2.197058621000000045e+00,9.568337070000000333e-01,5.303543955060774362e-01,1.000000000000000048e-04,4.270834066479956448e+01,2.600000000000000089e-01
2.196754174000000059e+00,9.569828230000000380e-01,6.838841608818944096e-01,1.000000000000000048e-04,4.282675610777685193e+01,2.399999999999999911e-01
-2.381905888179586039e+00,-9.494029419999999719e-01,4.699389750009237421e-01,1.000000000000000048e-04,4.240863808837994497e+01,2.399999999999999911e-01
-2.382353656179586388e+00,-9.501919130000000546e-01,1.784888501695018892e-01,1.000000000000000048e-04,3.947262595665326046e+01,2.600000000000000089e-01
-2.385313647179586383e+00,-9.492824659999999914e-01,5.678110692709248397e-01,1.000000000000000048e-04,4.233599338716281579e+01,2.399999999999999911e-01
-2.383308463179586223e+00,-9.502672559999999491e-01,5.305479686648317816e-01,1.000000000000000048e-04,4.244425751806381442e+01,2.000000000000000111e-01
2.194446376000000143e+00,9.548028840000000184e-01,1.305179111665115244e+00,1.000000000000000048e-04,4.526565400177977239e+01,3.699999999999999956e-01
-2.377678389179586294e+00,-9.493284189999999789e-01,2.803636900517256780e-01,1.000000000000000048e-04,4.081934404262266725e+01,3.099999999999999978e-01
2.195048706000000127e+00,9.553664520000000326e-01,4.476094924689495436e-01,1.000000000000000048e-04,4.201373857344837859e+01,2.399999999999999911e-01
2.194988459000000169e+00,9.569281090000000267e-01,2.495374593261676655e-01,1.000000000000000048e-04,4.000045130196187415e+01,2.099999999999999922e-01
2.198773670000000013e+00,9.585742720000000050e-01,3.329432703309866959e-01,1.000000000000000048e-04,4.136397351255052968e+01,2.800000000000000266e-01
2.196007632000000154e+00,9.574002940000000406e-01,3.730240165273486230e-01,1.000000000000000048e-04,4.197555561363675736e+01,2.800000000000000266e-01
2.193610842000000005e+00,9.569156829999999614e-01,1.818209265057038060e-01,1.000000000000000048e-04,3.961226704369752838e+01,2.099999999999999922e-01
2.194846306000000080e+00,9.574700699999999509e-01,6.028526304200703123e-01,1.000000000000000048e-04,4.265366598773675122e+01,2.300000000000000100e-01
-2.901318991795864832e-01,1.086903570000000041e+00,3.193876639166808307e-01,1.000000000000000048e-04,4.107977777986362611e+01,2.000000000000000111e-01
-2.914486071795865385e-01,1.085909494999999891e+00,4.684694536293354528e-01,1.000000000000000048e-04,4.195178742113294135e+01,1.000000000000000056e-01
-2.954610881795858290e-01,1.084462065999999947e+00,7.471808983147767425e-01,1.000000000000000048e-04,4.326311236992428633e+01,1.199999999999999956e-01
-3.403197011795864313e-01,1.090760651000000081e+00,7.027505504567219674e-01,1.000000000000000048e-04,4.302853801357680652e+01,8.999999999999999667e-02
-3.429455761795860980e-01,1.087892671000000089e+00,1.885293953992077665e-01,1.000000000000000048e-04,3.966368995342177328e+01,1.400000000000000133e-01
6.896152909999999636e-01,-9.249195220000000495e-01,3.985192917111288757e-01,1.000000000000000048e-04,4.157895524093483175e+01,2.000000000000000111e-01
1.024453132999999960e+00,1.182715689999999986e+00,4.406724221663604890e-01,1.000000000000000048e-04,4.187277396653474426e+01,1.900000000000000022e-01
1.006083177000000051e+00,1.165244638999999971e+00,3.958418507082173132e-01,1.000000000000000048e-04,4.174818536290024440e+01,1.700000000000000122e-01
9.905969959999999519e-01,1.153001898999999941e+00,4.602438004582836140e-01,1.000000000000000048e-04,4.154692128630903625e+01,3.499999999999999778e-01
2.950804928999999799e+00,-1.010655210999999998e+00,1.979507064970515984e-01,1.000000000000000048e-04,4.015933215391584810e+01,1.700000000000000122e-01
2.951637304000000128e+00,-1.010683065999999908e+00,6.504994379264992244e-01,1.000000000000000048e-04,4.310618801200020300e+01,1.900000000000000022e-01
-2.349248843179586377e+00,-9.322901449999999590e-01,4.049856129117925807e-01,1.000000000000000048e-04,4.176482021683922596e+01,1.900000000000000022e-01
