-1.598279621179586663e+00,2.779993629999999993e-01,1.547906955084608072e-01,1.000000000000000048e-04,3.935476193183632887e+01,1.700000000000000122e-01
-8.306753881795865269e-01,5.048130450000000158e-01,1.331453621300961121e+00,1.000000000000000048e-04,4.480816618202981516e+01,1.600000000000000033e-01
-1.512887194179586281e+00,3.571169940000000209e-01,7.097154193235073460e-01,1.000000000000000048e-04,4.335424857644852636e+01,1.600000000000000033e-01
-2.094054222179586588e+00,-9.657747650000000350e-01,6.563769557246523778e-01,1.000000000000000048e-04,4.308640032185746804e+01,1.600000000000000033e-01
-1.256550916179586252e+00,-1.037146153999999987e+00,5.348445829711110378e-01,1.000000000000000048e-04,4.221155919494380271e+01,1.900000000000000022e-01
-2.638489419179586015e+00,-8.917870300000000361e-01,2.434080430841862874e-01,1.000000000000000048e-04,4.033613170993280761e+01,1.600000000000000033e-01
3.095686500000000008e-02,-1.139960520999999893e+00,9.502428392510251509e-01,1.000000000000000048e-04,4.391498095856394457e+01,1.700000000000000122e-01
-4.765590681795863759e-01,-7.328014390000000544e-01,1.602515074224197811e-01,1.000000000000000048e-04,3.947857678421169680e+01,1.600000000000000033e-01
7.532392530000000530e-01,9.936355940000000109e-01,4.846716864202496033e-01,1.000000000000000048e-04,4.213125173169679982e+01,1.600000000000000033e-01
1.355624495999999901e+00,4.654212710000000253e-01,1.012551517385564814e+00,1.000000000000000048e-04,4.401093591721585341e+01,2.200000000000000011e-01
-2.027672372179586624e+00,-3.494576850000000179e-01,1.492481948851565043e-01,1.000000000000000048e-04,3.923306122677782071e+01,8.999999999999999667e-02
-2.243457714179585949e+00,5.735296930000000071e-01,4.597665521677547495e-01,1.000000000000000048e-04,4.202202363900111237e+01,8.000000000000000167e-02
-1.661352162179586145e+00,7.473004210000000480e-01,3.168151243953236662e-01,1.000000000000000048e-04,4.110903334296989442e+01,1.100000000000000006e-01
-1.046494641179585905e+00,9.839422859999999993e-01,1.293085517149322961e+00,1.000000000000000048e-04,4.479952905051769108e+01,1.600000000000000033e-01
-1.357076630179586019e+00,8.591991679999999576e-01,1.243503149654434647e-01,1.000000000000000048e-04,3.871419524714718818e+01,1.300000000000000044e-01
-1.489161381179585852e+00,8.733460579999999807e-01,3.511160903393710786e-01,1.000000000000000048e-04,4.130971046652042133e+01,8.999999999999999667e-02
2.602874990000000111e+00,9.865781270000000269e-01,1.849374646803865208e-01,1.000000000000000048e-04,3.980909480767145681e+01,2.099999999999999922e-01
2.011122450999999867e+00,-1.257182417000000108e+00,1.417017578127006683e-01,1.000000000000000048e-04,3.910946122807190761e+01,1.799999999999999933e-01
2.487812089999999809e+00,-1.095252646999999913e+00,6.515344930730977424e-01,1.000000000000000048e-04,4.324392988249616110e+01,1.600000000000000033e-01
-2.060955814179585843e+00,9.020563839999999889e-01,1.693178565453756779e-01,1.000000000000000048e-04,3.944195507184217320e+01,1.799999999999999933e-01
-1.552222439179586466e+00,1.270289940999999923e+00,4.932921147173683352e-01,1.000000000000000048e-04,4.224129635651313919e+01,1.600000000000000033e-01
-3.584264691795864266e-01,1.112498557000000110e+00,2.330270049885043715e-01,1.000000000000000048e-04,4.018303673792389219e+01,2.000000000000000111e-01
1.187793541000000008e+00,1.533334508000000040e+00,6.312290940207305745e-01,1.000000000000000048e-04,4.304055488807978946e+01,1.700000000000000122e-01
9.029304540000000490e-01,-5.888661819999999603e-01,3.362275507980925227e-01,1.000000000000000048e-04,4.140756079852408789e+01,1.700000000000000122e-01
2.675488564000000125e+00,-1.029758079000000048e+00,4.615601863616181078e-01,1.000000000000000048e-04,4.213386895812713107e+01,1.700000000000000122e-01
9.979371630000000160e-01,-7.076351440000000492e-01,1.641989340883662774e-01,1.000000000000000048e-04,3.963708487880087006e+01,2.000000000000000111e-01
-2.809922836179586270e+00,-1.219770695000000016e+00,8.624824455287054548e-01,1.000000000000000048e-04,4.373493330133918988e+01,1.900000000000000022e-01
1.945616433999999950e+00,5.533621010000000506e-01,2.477888632310747408e-01,1.000000000000000048e-04,4.044665992104381758e+01,1.700000000000000122e-01
1.369802210000000131e-01,9.686457469999999459e-01,1.871322317672718949e-01,1.000000000000000048e-04,3.977800271379682329e+01,1.000000000000000056e-01
2.377785852000000144e+00,-1.071983155000000076e+00,3.187160529671597686e-01,1.000000000000000048e-04,4.126123646643895171e+01,1.000000000000000056e-01
1.194530383000000029e+00,-8.514353350000000153e-01,2.040622992214631282e-01,1.000000000000000048e-04,3.994305687510470193e+01,1.100000000000000006e-01
2.328991532999999947e+00,-1.085498080000000032e+00,2.495232145913637289e-01,1.000000000000000048e-04,4.038665137230003666e+01,1.199999999999999956e-01
3.099662444999999877e+00,-8.173274409999999879e-01,3.195989786020088097e-01,1.000000000000000048e-04,4.102344971979745480e+01,1.300000000000000044e-01
1.008677688999999988e+00,-7.224949280000000362e-01,2.312374575558033829e-01,1.000000000000000048e-04,4.013941803285487708e+01,1.199999999999999956e-01
1.116317643999999998e+00,-8.188746820000000204e-01,3.086882858953294839e-01,1.000000000000000048e-04,4.114206710359285069e+01,1.499999999999999944e-01
1.368634144999999913e+00,-9.746537960000000167e-01,3.621575577289635195e-01,1.000000000000000048e-04,4.148483405330602380e+01,2.200000000000000011e-01
2.840707745000000006e+00,-9.874777999999999611e-01,1.459276210855628975e-01,1.000000000000000048e-04,3.915603028606988545e+01,1.199999999999999956e-01
1.164831654000000105e+00,-8.361433499999999519e-01,3.851178562497445945e-01,1.000000000000000048e-04,4.207154342732192021e+01,1.600000000000000033e-01
9.274529849999999520e-01,-5.648102149999999488e-01,1.903222077777253496e-01,1.000000000000000048e-04,3.998898964976323356e+01,2.200000000000000011e-01
1.803806121999999901e+00,-1.051757271000000049e+00,1.518938825552711425e-01,1.000000000000000048e-04,3.931958095229634154e+01,2.200000000000000011e-01
1.910407339000000038e+00,-1.096340147000000043e+00,2.334955322455956050e-01,1.000000000000000048e-04,4.044459211912911911e+01,1.300000000000000044e-01
-2.994395329179586174e+00,-6.874333790000000111e-01,1.804217698144718884e-01,1.000000000000000048e-04,3.984912336659179033e+01,1.600000000000000033e-01
2.004169926999999962e+00,-1.114377941999999955e+00,1.962989269870147879e-01,1.000000000000000048e-04,4.007294744527792574e+01,2.099999999999999922e-01
2.993884073999999895e+00,-9.067153500000000310e-01,9.273415102125059928e-01,1.000000000000000048e-04,4.397139692270148004e+01,2.000000000000000111e-01
2.896584697999999847e+00,-6.981149509999999836e-01,1.680327803779633200e-01,1.000000000000000048e-04,3.947529747561829083e+01,2.000000000000000111e-01
2.644964143999999795e+00,-1.038456438999999953e+00,4.781072491117073220e-01,1.000000000000000048e-04,4.245112423966592985e+01,2.500000000000000000e-01
1.395029569000000080e+00,-9.673563530000000021e-01,6.239060167117731481e-01,1.000000000000000048e-04,4.274565739927973596e+01,2.200000000000000011e-01
1.133893306999999906e+00,-8.234022290000000410e-01,5.484667377856120574e-01,1.000000000000000048e-04,4.273675966214343447e+01,1.199999999999999956e-01
9.542908199999999841e-01,-6.210129070000000029e-01,2.974425138873795227e-01,1.000000000000000048e-04,4.100828636472181188e+01,1.400000000000000133e-01
1.112357503999999997e+00,-7.717409769999999947e-01,7.377414669619122289e-01,1.000000000000000048e-04,4.356138885223572288e+01,1.400000000000000133e-01
1.392129267000000059e+00,-9.489503049999999940e-01,8.894531101280109819e-01,1.000000000000000048e-04,4.386532822081852601e+01,1.100000000000000006e-01
3.104633763999999907e+00,-8.563587980000000321e-01,1.738870267339178710e-01,1.000000000000000048e-04,3.969447938040224955e+01,1.199999999999999956e-01
-1.581672989179586430e+00,-6.726275419999999672e-01,3.025470430891528117e-01,1.000000000000000048e-04,4.107235914266189525e+01,2.000000000000000111e-01
8.758714749999999549e-01,-5.394949780000000139e-01,1.048746022754304175e+00,1.000000000000000048e-04,4.412342207334403810e+01,1.199999999999999956e-01
1.027821937999999991e+00,-6.897361509999999640e-01,1.312557174011443450e+00,1.000000000000000048e-04,4.491195727957981632e+01,1.499999999999999944e-01
8.011105990000000343e-01,-4.568120419999999737e-01,3.176254955967132698e-01,1.000000000000000048e-04,4.114714374839869038e+01,1.499999999999999944e-01
8.044453879999999835e-01,-4.591503659999999765e-01,3.689225590357101403e-01,1.000000000000000048e-04,4.151014465310652923e+01,1.100000000000000006e-01
8.290542589999999601e-01,-4.498624509999999965e-01,1.285048633118595074e-01,1.000000000000000048e-04,3.880971866279230653e+01,1.199999999999999956e-01
2.306908324000000121e+00,-1.093655438999999951e+00,6.486191277010673328e-01,1.000000000000000048e-04,4.290387450854515805e+01,1.300000000000000044e-01
-3.090495873179586184e+00,-7.974218849999999970e-01,1.409260416549429351e-01,1.000000000000000048e-04,3.921903458928819219e+01,1.300000000000000044e-01
2.850739061000000074e+00,-9.724982730000000242e-01,3.870302170133295139e-01,1.000000000000000048e-04,4.154097773561181128e+01,1.100000000000000006e-01
1.925211972000000049e+00,-1.067349442999999898e+00,2.309249691303680851e-01,1.000000000000000048e-04,4.017952294332979335e+01,1.600000000000000033e-01
3.010706126000000094e+00,-9.149326070000000088e-01,8.751688866959834723e-01,1.000000000000000048e-04,4.380289544453226114e+01,1.199999999999999956e-01
1.754869720000000077e+00,-1.052947148999999971e+00,5.396790593281559634e-01,1.000000000000000048e-04,4.268750323404282199e+01,1.300000000000000044e-01
3.028086770999999899e+00,-8.725603690000000023e-01,1.149717694586468664e+00,1.000000000000000048e-04,4.459862803287148125e+01,1.199999999999999956e-01
2.780301081000000174e+00,-1.010780400000000023e+00,7.140558172017521521e-01,1.000000000000000048e-04,4.321659844498310576e+01,1.700000000000000122e-01
3.096540631999999960e+00,-8.261897350000000362e-01,4.134315006912465673e-01,1.000000000000000048e-04,4.187139142825717641e+01,1.100000000000000006e-01
-3.043596368179586342e+00,-7.656326449999999451e-01,2.440612014355503234e-01,1.000000000000000048e-04,4.026880460920491345e+01,1.100000000000000006e-01
2.593403560000000052e+00,-1.068240442000000012e+00,1.825538960686168277e-01,1.000000000000000048e-04,3.997792765199956477e+01,1.199999999999999956e-01
1.277663320999999907e+00,-8.910532270000000032e-01,2.994476360439728424e-01,1.000000000000000048e-04,4.098617832171531461e+01,1.499999999999999944e-01
8.729576639999999665e-01,-5.017517409999999733e-01,3.968654618296219017e-01,1.000000000000000048e-04,4.150956981746124086e+01,1.199999999999999956e-01
2.323316692000000128e+00,-1.072994334000000105e+00,1.729226911879875317e-01,1.000000000000000048e-04,3.960671554509431047e+01,1.400000000000000133e-01
-3.012222731179586166e+00,-7.219820959999999621e-01,6.070519120896058496e-01,1.000000000000000048e-04,4.261235026823622718e+01,1.199999999999999956e-01
2.306010604999999991e+00,-1.110345181000000014e+00,7.353411649709253872e-01,1.000000000000000048e-04,4.321806570170968342e+01,1.100000000000000006e-01
2.437557496999999795e+00,-1.097151527000000071e+00,1.764372161693517072e-01,1.000000000000000048e-04,3.954642356759276112e+01,1.100000000000000006e-01
1.098420291999999909e+00,-7.444727049999999569e-01,4.705469399142068188e-01,1.000000000000000048e-04,4.209717209372605851e+01,1.300000000000000044e-01
8.241628739999999897e-01,-4.611620249999999754e-01,8.544999136548452334e-01,1.000000000000000048e-04,4.373532036524473909e+01,1.400000000000000133e-01
1.017317494999999905e+00,-7.027905669999999771e-01,2.752064766974355869e-01,1.000000000000000048e-04,4.072871417745760425e+01,1.199999999999999956e-01
2.728679550999999925e+00,-1.007430967999999982e+00,2.995496553951526586e-01,1.000000000000000048e-04,4.076394789215888892e+01,1.100000000000000006e-01
2.848837458999999850e+00,-9.622339979999999793e-01,6.085332810581278729e-01,1.000000000000000048e-04,4.287301461067289665e+01,1.199999999999999956e-01
-3.065525731179586266e+00,-7.207210450000000046e-01,1.436348788482946226e-01,1.000000000000000048e-04,3.901215151575488704e+01,1.199999999999999956e-01
1.103969978000000074e+00,-7.587182380000000448e-01,7.021173837350422886e-01,1.000000000000000048e-04,4.321438655064390844e+01,1.300000000000000044e-01
1.112034854000000017e+00,-7.675460100000000008e-01,1.676537293618329816e-01,1.000000000000000048e-04,3.970189853925658952e+01,1.199999999999999956e-01
2.373162053000000160e+00,-1.072487750000000073e+00,1.329317137240306756e-01,1.000000000000000048e-04,3.893063336025490173e+01,1.100000000000000006e-01
2.221583438000000132e+00,-1.096064289000000080e+00,2.613239824156567970e-01,1.000000000000000048e-04,4.061796567616831766e+01,1.199999999999999956e-01
2.775251189000000007e+00,-1.013244017000000108e+00,7.902972341697389602e-01,1.000000000000000048e-04,4.369454780820939277e+01,1.700000000000000122e-01
1.527128894000000070e+00,-9.963611940000000056e-01,2.217517049900876724e-01,1.000000000000000048e-04,4.034687441270467900e+01,1.400000000000000133e-01
-1.936135624179586401e+00,1.327891944000000102e+00,3.581845765663185244e-01,1.000000000000000048e-04,4.149818114054776430e+01,1.199999999999999956e-01
2.120951332999999828e+00,-1.112975437000000012e+00,5.987577254963010187e-01,1.000000000000000048e-04,4.257353115833392820e+01,1.600000000000000033e-01
2.950704906999999988e+00,-9.277153000000000205e-01,2.877620040566308823e-01,1.000000000000000048e-04,4.077232564448589613e+01,1.700000000000000122e-01
2.461302839000000020e+00,-1.064109841000000056e+00,3.714923613676821557e-01,1.000000000000000048e-04,4.157581143066223461e+01,1.499999999999999944e-01
1.687800213000000049e+00,-1.037844004000000098e+00,2.306705927153691604e-01,1.000000000000000048e-04,4.037296307055636646e+01,1.100000000000000006e-01
-3.069023128179586113e+00,-7.343218900000000327e-01,1.954392048616542255e-01,1.000000000000000048e-04,4.015933918761052013e+01,2.000000000000000111e-01
7.655655390000000171e-01,-3.825025819999999799e-01,1.330369739479047908e+00,1.000000000000000048e-04,4.493555614410092858e+01,1.300000000000000044e-01
-3.051736326179586012e+00,-7.690870560000000467e-01,4.801981352816684367e-01,1.000000000000000048e-04,4.223514148770689047e+01,1.499999999999999944e-01
-3.116938176179586240e+00,-7.920766919999999711e-01,8.114222085366389337e-01,1.000000000000000048e-04,4.369501153611513899e+01,1.100000000000000006e-01
1.020863690000000101e+00,-6.877910739999999468e-01,1.693791696085769072e-01,1.000000000000000048e-04,3.969851498066740447e+01,1.199999999999999956e-01
1.792785233999999894e+00,-1.066474936999999956e+00,2.393087852414206296e-01,1.000000000000000048e-04,4.034349914996601427e+01,1.100000000000000006e-01
1.805689748000000039e+00,-1.066896787999999985e+00,5.229160538821044923e-01,1.000000000000000048e-04,4.248605679425958925e+01,1.100000000000000006e-01
1.773248071000000037e+00,-1.046601056999999946e+00,1.884193031400789309e-01,1.000000000000000048e-04,3.974969676404254670e+01,2.099999999999999922e-01
1.076689889999999927e+00,-7.549444410000000216e-01,4.718612269337827403e-01,1.000000000000000048e-04,4.236524263503325471e+01,1.199999999999999956e-01
2.336456505000000128e+00,-1.089906792000000069e+00,4.258527136359551157e-01,1.000000000000000048e-04,4.190069662353269564e+01,1.199999999999999956e-01
2.522083900000000156e+00,-1.078852812999999911e+00,1.933867504742288190e-01,1.000000000000000048e-04,3.976693424200745852e+01,1.199999999999999956e-01
3.676074389999999803e-01,1.100614297999999991e+00,4.162942795275224039e-01,1.000000000000000048e-04,4.171693810286834037e+01,1.700000000000000122e-01
2.099931574000000190e+00,-1.082223048999999993e+00,1.273367770636546936e+00,1.000000000000000048e-04,4.464278384360956409e+01,1.100000000000000006e-01
8.155488279999999479e-01,-4.642700679999999802e-01,2.354630010271370200e-01,1.000000000000000048e-04,3.978542558989645528e+01,2.099999999999999922e-01
9.861636230000000447e-01,-6.881834650000000497e-01,1.845015096875521898e-01,1.000000000000000048e-04,3.968875864434446754e+01,1.300000000000000044e-01
1.864254864999999928e+00,-1.086684659999999969e+00,4.901427073109509980e-01,1.000000000000000048e-04,4.219751167161833649e+01,1.199999999999999956e-01
2.873066016000000111e+00,-9.753574739999999466e-01,1.282758965835213427e-01,1.000000000000000048e-04,3.879905234850827611e+01,1.300000000000000044e-01
2.270287562000000037e+00,-1.085086717999999895e+00,1.721795350339632158e-01,1.000000000000000048e-04,3.984817131804090451e+01,1.799999999999999933e-01
8.268071609999999572e-01,-4.587794940000000099e-01,1.556592400265950360e-01,1.000000000000000048e-04,3.944624488822832831e+01,1.199999999999999956e-01
-3.050869045179586347e+00,-7.648855789999999821e-01,6.343831177387584397e-01,1.000000000000000048e-04,4.295550374223989110e+01,1.199999999999999956e-01
1.101963728999999947e+00,-7.466317359999999903e-01,4.840765088408252037e-01,1.000000000000000048e-04,4.244026301526005085e+01,1.900000000000000022e-01
1.745116724000000064e+00,-1.056563783000000090e+00,3.436093450565360641e-01,1.000000000000000048e-04,4.154115363818280571e+01,1.300000000000000044e-01
7.889769570000000343e-01,-3.846565690000000037e-01,2.037760256277791893e-01,1.000000000000000048e-04,3.989595174592335525e+01,1.499999999999999944e-01
1.385818830999999918e+00,-9.278259679999999454e-01,8.173896575109378393e-01,1.000000000000000048e-04,4.379059156205430980e+01,1.499999999999999944e-01
1.138484923000000038e+00,-8.197145099999999518e-01,3.586667627925654855e-01,1.000000000000000048e-04,4.149941143407458100e+01,1.400000000000000133e-01
1.783410439000000069e+00,-1.080958507999999929e+00,2.431316238544540820e-01,1.000000000000000048e-04,4.025466330195397546e+01,1.400000000000000133e-01
2.617653461000000181e+00,-1.025884226000000066e+00,1.109044549832131299e+00,1.000000000000000048e-04,4.425272989479148578e+01,1.199999999999999956e-01
8.270197009999999960e-01,-4.157453939999999903e-01,5.465567822236889750e-01,1.000000000000000048e-04,4.255532120355270820e+01,1.199999999999999956e-01
3.128792493000000174e+00,-8.522697870000000009e-01,3.031008641198487119e-01,1.000000000000000048e-04,4.117402325813550590e+01,1.100000000000000006e-01
1.366158207000000013e+00,-9.614226009999999878e-01,4.125251950371968679e-01,1.000000000000000048e-04,4.184881208371994177e+01,1.100000000000000006e-01
2.846286316000000038e+00,-9.688357899999999745e-01,3.873092640152211441e-01,1.000000000000000048e-04,4.146954383351624784e+01,1.400000000000000133e-01
9.208216280000000031e-01,-6.185352929999999860e-01,3.799227465625858446e-01,1.000000000000000048e-04,4.144673611956380199e+01,1.499999999999999944e-01
7.622987450000000553e-01,-3.411912120000000215e-01,4.957088212553424356e-01,1.000000000000000048e-04,4.238784748530790836e+01,1.199999999999999956e-01
9.277931750000000255e-01,-5.813990460000000304e-01,2.047255737665465425e-01,1.000000000000000048e-04,4.015009996360016231e+01,2.099999999999999922e-01
1.010173165000000095e+00,-6.808591280000000356e-01,1.238823051216727311e+00,1.000000000000000048e-04,4.475086026612606815e+01,1.300000000000000044e-01
1.661181446000000062e+00,-1.029160687999999935e+00,5.467204611280216398e-01,1.000000000000000048e-04,4.249044100175966321e+01,1.400000000000000133e-01
2.089878704000000198e+00,-1.077863170999999953e+00,4.497877741113329719e-01,1.000000000000000048e-04,4.230777162731542518e+01,1.199999999999999956e-01
9.321550429999999610e-01,-6.212176799999999943e-01,4.948458465416509799e-01,1.000000000000000048e-04,4.227042791790584175e+01,1.199999999999999956e-01
2.944595597000000176e+00,-9.127602249999999806e-01,8.144897498961380933e-01,1.000000000000000048e-04,4.345789617608196664e+01,1.100000000000000006e-01
1.288081913999999939e+00,-9.113959929999999598e-01,6.051717437023786950e-01,1.000000000000000048e-04,4.267071816432516584e+01,1.300000000000000044e-01
1.398731861999999992e+00,-9.625033109999999725e-01,1.423413296189384170e-01,1.000000000000000048e-04,3.901743339490409568e+01,1.199999999999999956e-01
1.714165549000000066e+00,-1.043104095999999981e+00,5.083247972567126460e-01,1.000000000000000048e-04,4.222809726343839287e+01,1.199999999999999956e-01
1.014018395999999989e+00,-6.788913789999999615e-01,2.991680234324718413e-01,1.000000000000000048e-04,4.100084824295633723e+01,1.300000000000000044e-01
8.887761809999999985e-01,-5.541821719999999729e-01,1.782801761221541881e-01,1.000000000000000048e-04,3.988514370286880961e+01,1.300000000000000044e-01
1.026278256999999972e+00,-6.961882160000000264e-01,4.932381188230567926e-01,1.000000000000000048e-04,4.230445839706560918e+01,1.199999999999999956e-01
1.824970581999999952e+00,-1.080428363000000003e+00,3.573478224434021300e-01,1.000000000000000048e-04,4.147640748126674026e+01,1.199999999999999956e-01
1.839979185000000017e+00,-1.082878103999999952e+00,4.772574922637846662e-01,1.000000000000000048e-04,4.204864629902299100e+01,1.300000000000000044e-01
-3.070118813179586237e+00,-7.641942569999999879e-01,9.704277749442351553e-01,1.000000000000000048e-04,4.376326354958980858e+01,1.199999999999999956e-01
2.250776613000000204e+00,-1.110438553999999911e+00,1.057225789817781703e+00,1.000000000000000048e-04,4.406653303193993310e+01,1.199999999999999956e-01
2.613802471000000072e+00,-1.066258922999999914e+00,6.453356616232610588e-01,1.000000000000000048e-04,4.292050525030659003e+01,1.199999999999999956e-01
8.050150120000000298e-01,-4.193234060000000096e-01,1.663831555406458662e-01,1.000000000000000048e-04,3.953840578479516665e+01,1.499999999999999944e-01
2.809576177999999924e+00,-9.952447749999999704e-01,8.058813385593572853e-01,1.000000000000000048e-04,4.355650237140881842e+01,1.199999999999999956e-01
8.523447290000000232e-01,-4.773689010000000121e-01,5.817724454360873043e-01,1.000000000000000048e-04,4.268962197357792832e+01,2.000000000000000111e-01
2.975142320999999868e+00,-8.986192680000000266e-01,8.132153917067908022e-01,1.000000000000000048e-04,4.381000976133923075e+01,2.000000000000000111e-01
2.960578484000000010e+00,-9.174235720000000205e-01,2.332638755643563488e-01,1.000000000000000048e-04,4.038256832006982933e+01,1.400000000000000133e-01
1.589239559999999996e+00,-1.046132274999999945e+00,4.097173156284512618e-01,1.000000000000000048e-04,4.164204667738620458e+01,1.199999999999999956e-01
1.095136271999999966e+00,-7.909478989999999543e-01,7.949937087374097100e-01,1.000000000000000048e-04,4.368702770339235286e+01,1.300000000000000044e-01
3.045277111999999953e+00,-8.831592660000000539e-01,5.176240284061977004e-01,1.000000000000000048e-04,4.238237816964043247e+01,1.799999999999999933e-01
3.011317304999999944e+00,-8.969173430000000335e-01,7.900482079528436952e-01,1.000000000000000048e-04,4.327274157377053143e+01,1.499999999999999944e-01
1.946036051000000100e+00,-1.101857058000000000e+00,3.606924639137070177e-01,1.000000000000000048e-04,4.153460413191054812e+01,1.100000000000000006e-01
9.659444579999999503e-01,-6.400164339999999674e-01,6.656879564296558360e-01,1.000000000000000048e-04,4.287716231605170236e+01,1.199999999999999956e-01
1.142944595999999979e+00,-8.229314749999999679e-01,2.768790686567925707e-01,1.000000000000000048e-04,4.077771454333439749e+01,1.499999999999999944e-01
1.336859599999999926e+00,-9.462661719999999610e-01,6.625932800850622417e-01,1.000000000000000048e-04,4.303377113899134088e+01,1.900000000000000022e-01
2.386695267999999981e+00,-1.099692616000000012e+00,9.230520053996025265e-01,1.000000000000000048e-04,4.364605606470806265e+01,1.799999999999999933e-01
1.122946417999999946e+00,-7.871106610000000448e-01,5.532578630563935729e-01,1.000000000000000048e-04,4.259588689211314261e+01,1.499999999999999944e-01
1.038511049000000019e+00,-6.836743480000000428e-01,5.436909822794970815e-01,1.000000000000000048e-04,4.252718856777779166e+01,1.499999999999999944e-01
-1.865548755179585960e+00,5.988235499999999822e-01,3.630289623496762985e-01,1.000000000000000048e-04,4.189339668616370460e+01,3.599999999999999867e-01
-1.208774007179585830e+00,1.086301519000000049e+00,8.024111309268586734e-01,1.000000000000000048e-04,4.333214296807646804e+01,3.900000000000000133e-01
-1.451351928179586359e+00,1.047303024999999943e+00,3.612591858907561182e-01,1.000000000000000048e-04,4.143160797907298587e+01,3.900000000000000133e-01
-1.863787002179586594e+00,5.986409590000000280e-01,9.020689118705047527e-01,1.000000000000000048e-04,4.376739616394159782e+01,3.099999999999999978e-01
-2.367107747179586053e+00,3.570653329999999848e-01,1.275033951567992041e-01,1.000000000000000048e-04,3.885751646941895387e+01,3.300000000000000155e-01
3.110012692999999828e+00,-8.816387980000000013e-01,1.647019049541174063e-01,1.000000000000000048e-04,3.968666381566889356e+01,4.000000000000000222e-01
1.208427087000000011e+00,6.391205479999999550e-01,1.360113271931604473e-01,1.000000000000000048e-04,3.908501252355191724e+01,3.200000000000000067e-01
2.195568135999999893e+00,9.530612539999999688e-01,2.604181370415112884e-01,1.000000000000000048e-04,4.107040945895482764e+01,3.200000000000000067e-01
-1.746303855179585973e+00,7.561700099999999480e-01,4.293864047109552384e-01,1.000000000000000048e-04,4.243588176157143721e+01,3.599999999999999867e-01
-2.613733020179586308e+00,3.020363409999999860e-01,9.004476130628575881e-01,1.000000000000000048e-04,4.371845592767156319e+01,2.399999999999999911e-01
3.080075141000000016e+00,6.813462000000000129e-01,5.398090441886729263e-01,1.000000000000000048e-04,4.253185375306546945e+01,2.999999999999999889e-01
3.084152930000000126e+00,6.750201959999999612e-01,5.315271838041211172e-01,1.000000000000000048e-04,4.244677899025879952e+01,2.399999999999999911e-01
-2.831540824179586302e+00,-5.193198470000000011e-01,8.776450695417401526e-01,1.000000000000000048e-04,4.383211066943447776e+01,2.899999999999999800e-01
2.921667255000000019e+00,-9.403574120000000036e-01,4.361815306764076361e-01,1.000000000000000048e-04,4.213585728105110917e+01,2.899999999999999800e-01
2.610543199999999953e+00,9.294079060000000059e-01,4.983668697834255923e-01,1.000000000000000048e-04,4.197296641188759025e+01,2.899999999999999800e-01
2.614058957000000127e+00,9.310355519999999885e-01,2.267858708758461184e-01,1.000000000000000048e-04,4.062546293330512981e+01,3.699999999999999956e-01
-2.614313936179586406e+00,3.105085300000000048e-01,1.348481357978716932e-01,1.000000000000000048e-04,3.909642984727837955e+01,2.300000000000000100e-01
-2.614275993179586255e+00,3.084493819999999942e-01,5.790320826199826243e-01,1.000000000000000048e-04,4.261234069949331627e+01,2.000000000000000111e-01
3.080236718000000096e+00,6.852664600000000217e-01,2.328107753120758350e-01,1.000000000000000048e-04,3.995218699047617861e+01,3.800000000000000044e-01
3.085135451000000195e+00,6.840520260000000352e-01,7.254869531284173778e-01,1.000000000000000048e-04,4.336258446438851877e+01,2.300000000000000100e-01
-2.829361723179586452e+00,-5.190188390000000096e-01,2.126252694028660795e-01,1.000000000000000048e-04,3.993369392655581862e+01,3.900000000000000133e-01
-2.833706243179586082e+00,-5.260186759999999628e-01,1.132227965335368847e+00,1.000000000000000048e-04,4.457843438295952865e+01,2.200000000000000011e-01
1.286414458000000094e+00,-9.076167339999999806e-01,2.109000924656274645e-01,1.000000000000000048e-04,4.036037782874998925e+01,2.399999999999999911e-01
2.295144749999999956e+00,-1.095028292000000070e+00,8.325198806160236664e-01,1.000000000000000048e-04,4.351706636484869506e+01,2.000000000000000111e-01
2.312115046000000174e+00,-1.091482969000000081e+00,2.416527405107811166e-01,1.000000000000000048e-04,4.073111492152476387e+01,1.900000000000000022e-01
2.535381049000000164e+00,-1.063602453999999975e+00,7.257990059924785964e-01,1.000000000000000048e-04,4.277102565209715834e+01,2.600000000000000089e-01
2.549902755000000187e+00,-1.059649137999999935e+00,3.712912099628424833e-01,1.000000000000000048e-04,4.124715092179317821e+01,1.900000000000000022e-01
-2.980466121795863899e-01,1.081935794000000062e+00,2.510023757138937217e-01,1.000000000000000048e-04,4.044882705391280098e+01,1.000000000000000056e-01
-4.562223411795862660e-01,1.078420874000000085e+00,2.302636948889367208e-01,1.000000000000000048e-04,4.020807122389089017e+01,1.400000000000000133e-01
-4.727696341795866175e-01,1.076427226000000070e+00,5.314726374549159083e-01,1.000000000000000048e-04,4.249424023749892854e+01,1.900000000000000022e-01
-4.909850281795860028e-01,1.086050390999999893e+00,1.468223598825775245e-01,1.000000000000000048e-04,3.904253455124450767e+01,1.499999999999999944e-01
-1.809890014179586615e+00,8.554848849999999727e-01,1.043312148091201319e+00,1.000000000000000048e-04,4.430345831014019353e+01,1.900000000000000022e-01
-1.804843805179586091e+00,8.509932909999999850e-01,4.961150180377633667e-01,1.000000000000000048e-04,4.219050439483055470e+01,1.700000000000000122e-01
-1.798315402179586187e+00,8.389159160000000393e-01,5.677664355214357972e-01,1.000000000000000048e-04,4.249639945969221344e+01,1.100000000000000006e-01
-1.820018681179586650e+00,8.404092629999999620e-01,4.909369237785097262e-01,1.000000000000000048e-04,4.215093093240993483e+01,2.000000000000000111e-01
-2.435936564179586039e+00,3.767214549999999829e-01,3.236289616600227514e-01,1.000000000000000048e-04,4.132542187808326872e+01,1.700000000000000122e-01
-2.738532057179586143e+00,-4.670391260000000266e-01,3.829086707010065371e-01,1.000000000000000048e-04,4.147635933332722402e+01,1.100000000000000006e-01
-2.750126147179586145e+00,-4.750163370000000107e-01,8.755273182065097526e-01,1.000000000000000048e-04,4.371721820062452224e+01,1.700000000000000122e-01
6.777063359999999648e-01,-9.284162910000000046e-01,2.139884787096475449e-01,1.000000000000000048e-04,4.020189110709905123e+01,1.600000000000000033e-01
6.755664329999999662e-01,-9.242990760000000527e-01,4.878743326122525481e-01,1.000000000000000048e-04,4.218495542394179409e+01,2.200000000000000011e-01
1.666277256000000095e+00,1.035703752000000089e+00,1.030444645983577878e+00,1.000000000000000048e-04,4.461714036476392664e+01,2.800000000000000266e-01
1.679531192000000006e+00,1.034147155999999956e+00,2.919466173321370039e-01,1.000000000000000048e-04,4.094895091832317746e+01,2.099999999999999922e-01
1.669961188000000041e+00,1.045784459000000055e+00,1.874067392853773217e-01,1.000000000000000048e-04,3.946591377209767870e+01,2.899999999999999800e-01
1.666612017000000057e+00,1.035903760999999923e+00,3.538303488955680809e-01,1.000000000000000048e-04,4.120659620932153189e+01,1.400000000000000133e-01
1.676630470000000095e+00,1.049302589999999924e+00,2.256552725733322884e-01,1.000000000000000048e-04,4.022348301403135196e+01,1.600000000000000033e-01
1.678871634000000057e+00,1.037439988999999896e+00,2.737423246391659237e-01,1.000000000000000048e-04,4.084201944179929455e+01,2.099999999999999922e-01
-2.159653925179585876e+00,7.341517600000000421e-01,1.448623036160712196e-01,1.000000000000000048e-04,3.883954176858483720e+01,2.600000000000000089e-01
-2.155609593179586447e+00,7.327229189999999726e-01,9.251502713553172441e-01,1.000000000000000048e-04,4.370722907045190198e+01,1.400000000000000133e-01
2.989279821999999864e+00,-1.014333855000000062e+00,3.199441247871335214e-01,1.000000000000000048e-04,4.118995073526705397e+01,1.600000000000000033e-01
6.962963009999999509e-01,-9.242906640000000396e-01,2.469278105463432738e-01,1.000000000000000048e-04,4.064277924292682087e+01,2.000000000000000111e-01
6.831622830000000368e-01,-9.295060950000000322e-01,1.287437812150083793e+00,1.000000000000000048e-04,4.464651820529918069e+01,2.099999999999999922e-01
6.813526220000000189e-01,-9.196739680000000083e-01,7.254964350650328075e-01,1.000000000000000048e-04,4.370709841131380102e+01,1.700000000000000122e-01
1.667475545999999920e+00,1.039138789999999979e+00,1.622265712085766420e-01,1.000000000000000048e-04,3.960427175023540514e+01,1.499999999999999944e-01
1.669072946000000002e+00,1.039627206000000026e+00,4.013569874097064893e-01,1.000000000000000048e-04,4.165083143549560418e+01,1.700000000000000122e-01
2.992464221000000091e+00,-1.009427984000000000e+00,5.803190455378581802e-01,1.000000000000000048e-04,4.244653517830546008e+01,1.400000000000000133e-01
3.013377762000000182e+00,-1.015725085999999999e+00,8.195223596130876142e-01,1.000000000000000048e-04,4.375534461316631507e+01,1.499999999999999944e-01
6.857830799999999893e-01,-9.290922369999999875e-01,7.430210158210330817e-01,1.000000000000000048e-04,4.295470433769300911e+01,3.400000000000000244e-01
6.874880420000000214e-01,-9.251381180000000093e-01,2.483284948858848207e-01,1.000000000000000048e-04,4.069410841165078807e+01,1.700000000000000122e-01
1.659686511000000086e+00,1.040101345999999927e+00,3.537642961445184309e-01,1.000000000000000048e-04,4.151873482929646286e+01,1.400000000000000133e-01
1.692629780999999944e+00,1.043637506000000048e+00,5.244486490806719026e-01,1.000000000000000048e-04,4.249763994704541403e+01,1.799999999999999933e-01
1.682450028999999958e+00,1.049226146999999942e+00,6.972779369535644367e-01,1.000000000000000048e-04,4.339300754810560079e+01,1.900000000000000022e-01
1.675255906999999933e+00,1.048468626000000015e+00,2.997126650055310648e-01,1.000000000000000048e-04,4.113438226771265249e+01,1.499999999999999944e-01
1.692145135000000078e+00,1.039981480000000014e+00,5.353781754646336211e-01,1.000000000000000048e-04,4.238622407386702662e+01,1.700000000000000122e-01
-2.139768073179586061e+00,7.360294179999999908e-01,1.420709449720900519e-01,1.000000000000000048e-04,3.922616073256683933e+01,1.600000000000000033e-01
-2.138731675179585956e+00,7.369836659999999817e-01,7.324316903291434588e-01,1.000000000000000048e-04,4.304339898403519982e+01,1.499999999999999944e-01
6.888283630000000546e-01,-9.193630990000000169e-01,1.616835425978360163e-01,1.000000000000000048e-04,3.947858699893550494e+01,1.700000000000000122e-01
6.776433490000000059e-01,-9.225326109999999469e-01,4.130798259979520104e-01,1.000000000000000048e-04,4.194122446600231768e+01,1.600000000000000033e-01
6.820513620000000499e-01,-9.162569579999999547e-01,9.462701930837198461e-01,1.000000000000000048e-04,4.379244718621504262e+01,2.899999999999999800e-01
6.832637360000000104e-01,-9.208365670000000502e-01,8.594166708505697194e-01,1.000000000000000048e-04,4.381443912986281930e+01,1.400000000000000133e-01
1.683256381999999940e+00,1.050427892999999946e+00,6.934074603393394209e-01,1.000000000000000048e-04,4.290692500282300159e+01,1.499999999999999944e-01
2.987248335999999949e+00,-1.011507587000000097e+00,1.249466431198357874e+00,1.000000000000000048e-04,4.433289989502046780e+01,1.900000000000000022e-01
2.994879214000000012e+00,-1.020537374999999969e+00,7.395800238030216800e-01,1.000000000000000048e-04,4.354425088086473750e+01,2.500000000000000000e-01
2.997056848999999801e+00,-1.020797841000000039e+00,1.573312072668784367e-01,1.000000000000000048e-04,3.964863021027861123e+01,1.499999999999999944e-01
6.981827720000000070e-01,-9.201470600000000166e-01,2.078538048741145339e-01,1.000000000000000048e-04,4.020731783340863785e+01,2.099999999999999922e-01
1.675679171999999939e+00,1.042232051000000048e+00,3.608142588713414423e-01,1.000000000000000048e-04,4.132436917918492014e+01,1.900000000000000022e-01
1.682732345000000018e+00,1.051774148000000020e+00,6.085966094139869664e-01,1.000000000000000048e-04,4.268586058639343150e+01,2.099999999999999922e-01
1.655763980999999996e+00,1.041789395999999979e+00,1.117927103943259226e+00,1.000000000000000048e-04,4.407337590994393395e+01,2.099999999999999922e-01
1.658505131999999938e+00,1.042043577999999915e+00,2.106430869331876732e-01,1.000000000000000048e-04,4.022582167671134812e+01,1.499999999999999944e-01
1.679931540999999973e+00,1.044700675999999939e+00,1.241064032704661813e-01,1.000000000000000048e-04,3.886695854570524489e+01,1.400000000000000133e-01
1.681131209999999987e+00,1.046558263000000100e+00,1.219366816728946201e-01,1.000000000000000048e-04,3.843591983200116857e+01,3.800000000000000044e-01
-2.147380102179586636e+00,7.248191320000000326e-01,1.329365375723478238e+00,1.000000000000000048e-04,4.525701730361613073e+01,2.200000000000000011e-01
-2.137481690179586558e+00,7.386978770000000027e-01,4.861338865319662084e-01,1.000000000000000048e-04,4.223866073144280620e+01,1.499999999999999944e-01
3.007533192999999994e+00,-1.006434849999999992e+00,5.242112983490574418e-01,1.000000000000000048e-04,4.210664719719164850e+01,1.700000000000000122e-01
6.766177190000000063e-01,-9.309161569999999664e-01,8.762455070593411222e-01,1.000000000000000048e-04,4.351257347327927505e+01,1.700000000000000122e-01
6.879719020000000240e-01,-9.170357009999999809e-01,3.882150644159712005e-01,1.000000000000000048e-04,4.158544495745502445e+01,2.600000000000000089e-01
6.868192690000000100e-01,-9.190749710000000183e-01,5.975341061162373624e-01,1.000000000000000048e-04,4.294463756441737701e+01,2.800000000000000266e-01
1.680927606000000019e+00,1.043199457999999913e+00,1.696991640020624192e-01,1.000000000000000048e-04,3.933407872193419053e+01,1.799999999999999933e-01
1.680733408999999901e+00,1.046110547000000057e+00,1.386589291803159707e-01,1.000000000000000048e-04,3.894624539962744336e+01,1.499999999999999944e-01
3.003205794999999956e+00,-1.007960921000000010e+00,4.102269680004997365e-01,1.000000000000000048e-04,4.166326141259913385e+01,2.200000000000000011e-01
3.013387552999999830e+00,-1.018013843000000085e+00,1.647762990356382851e-01,1.000000000000000048e-04,3.930283938811800937e+01,2.000000000000000111e-01
2.991633154000000072e+00,-1.018575491000000000e+00,3.059596171669145548e-01,1.000000000000000048e-04,4.093163876509171928e+01,1.600000000000000033e-01
6.810583510000000063e-01,-9.216344210000000370e-01,3.047598752819287160e-01,1.000000000000000048e-04,4.114305502962921679e+01,1.600000000000000033e-01
1.670069762000000013e+00,1.048284639000000018e+00,2.511661974999974678e-01,1.000000000000000048e-04,4.058120286372449925e+01,2.099999999999999922e-01
1.699713636000000028e+00,1.040243690999999915e+00,1.894490387710527912e-01,1.000000000000000048e-04,3.922692568154523229e+01,2.899999999999999800e-01
1.686195045999999920e+00,1.048540513999999924e+00,8.493009410638427958e-01,1.000000000000000048e-04,4.338727407806437952e+01,1.400000000000000133e-01
1.667162669999999958e+00,1.044746053999999980e+00,1.740845097392320628e-01,1.000000000000000048e-04,3.992037354113547565e+01,2.700000000000000178e-01
1.689467040999999892e+00,1.036330184999999959e+00,5.356063924339040661e-01,1.000000000000000048e-04,4.252886357104892312e+01,1.300000000000000044e-01
1.683799076999999977e+00,1.043385784000000038e+00,5.563621936600637863e-01,1.000000000000000048e-04,4.256114505000724790e+01,1.700000000000000122e-01
-2.151455832179586025e+00,7.398983139999999459e-01,5.462530780246721562e-01,1.000000000000000048e-04,4.242026294051565571e+01,2.500000000000000000e-01
-2.141944958179585967e+00,7.302793560000000461e-01,3.815546400917546599e-01,1.000000000000000048e-04,4.162871870530967300e+01,1.400000000000000133e-01
3.012489310999999947e+00,-1.019874449000000016e+00,5.273422497241200269e-01,1.000000000000000048e-04,4.263162954002235239e+01,1.900000000000000022e-01
6.824463880000000149e-01,-9.193269539999999740e-01,5.257138009664228395e-01,1.000000000000000048e-04,4.247695821096105817e+01,1.600000000000000033e-01
6.933168330000000212e-01,-9.307474239999999899e-01,8.801231095096806456e-01,1.000000000000000048e-04,4.364226728424691260e+01,1.600000000000000033e-01
7.005346909999999871e-01,-9.247541049999999929e-01,6.611355014110624762e-01,1.000000000000000048e-04,4.292380604886105999e+01,2.700000000000000178e-01
1.674988617999999985e+00,1.042237757999999959e+00,4.118314242085467924e-01,1.000000000000000048e-04,4.162140207539210479e+01,1.499999999999999944e-01
1.672026148000000045e+00,1.039374368000000048e+00,9.657224022712016520e-01,1.000000000000000048e-04,4.398653985967921898e+01,1.600000000000000033e-01
2.993618983999999816e+00,-1.008517228000000099e+00,6.429237018440736584e-01,1.000000000000000048e-04,4.298436515407851743e+01,1.700000000000000122e-01
2.992837709999999873e+00,-1.014889098000000045e+00,1.513366213466853516e-01,1.000000000000000048e-04,3.940215602714108201e+01,2.800000000000000266e-01
2.980621672999999916e+00,-1.012535224000000067e+00,2.528591148438117386e-01,1.000000000000000048e-04,4.072201115489266243e+01,1.499999999999999944e-01
3.118379398000000080e+00,-1.044341935000000055e+00,5.371149989050942875e-01,1.000000000000000048e-04,4.235550898445897161e+01,3.099999999999999978e-01
3.132904315000000217e+00,-1.046896950999999909e+00,3.729873016539972941e-01,1.000000000000000048e-04,4.152593881738279435e+01,2.200000000000000011e-01
1.248659997999999938e+00,-1.117162079000000086e+00,1.978055515415675369e-01,1.000000000000000048e-04,4.004800906650734049e+01,2.700000000000000178e-01
2.302446713000000145e+00,-1.091359299000000060e+00,2.876225771508686968e-01,1.000000000000000048e-04,4.016123235896741761e+01,2.899999999999999800e-01
3.133486173000000097e+00,-1.061461677999999909e+00,3.201786114998099730e-01,1.000000000000000048e-04,4.130280677450261351e+01,3.099999999999999978e-01
1.251013366000000016e+00,-1.102704651999999896e+00,2.552522585395191612e-01,1.000000000000000048e-04,4.043582809425995350e+01,2.300000000000000100e-01
1.232341668999999973e+00,-1.105349812000000043e+00,3.015128501472792433e-01,1.000000000000000048e-04,4.109246190399258580e+01,2.200000000000000011e-01
2.330538756999999794e+00,-1.086213730999999960e+00,5.645588597473523151e-01,1.000000000000000048e-04,4.190351970835386908e+01,2.300000000000000100e-01
3.104372880000000112e+00,-1.050765708999999992e+00,1.781408461336708715e-01,1.000000000000000048e-04,3.948716399102074348e+01,2.200000000000000011e-01
3.122794933000000217e+00,-1.050942575000000101e+00,3.832019420902701423e-01,1.000000000000000048e-04,4.153463365961659548e+01,2.099999999999999922e-01
3.135928428000000157e+00,-1.044986675000000087e+00,4.858005949996651029e-01,1.000000000000000048e-04,4.218251728992164118e+01,2.300000000000000100e-01
3.135701593999999925e+00,-1.049448040999999998e+00,5.873799947476747718e-01,1.000000000000000048e-04,4.253106803267728964e+01,2.399999999999999911e-01
2.902190216000000156e+00,-1.054666754000000095e+00,1.746311096580703826e-01,1.000000000000000048e-04,3.943413143674189314e+01,2.099999999999999922e-01
1.219278212000000083e+00,-1.102494101000000004e+00,1.085075428972253508e+00,1.000000000000000048e-04,4.423833781115246921e+01,2.399999999999999911e-01
2.314258420999999899e+00,-1.073777474999999981e+00,3.654910045691543985e-01,1.000000000000000048e-04,4.131885857843938936e+01,2.399999999999999911e-01
3.138600745000000192e+00,-1.056209613999999908e+00,2.917511268285013504e-01,1.000000000000000048e-04,4.098873580493442859e+01,2.800000000000000266e-01
2.873014373000000177e+00,-1.047336534999999902e+00,3.746009909317553621e-01,1.000000000000000048e-04,4.171048002006999411e+01,2.000000000000000111e-01
2.890150627000000139e+00,-1.045368942999999939e+00,4.302018859193212919e-01,1.000000000000000048e-04,4.163193330058462749e+01,2.200000000000000011e-01
-3.136513490179586139e+00,-1.038988312000000080e+00,1.870658601963746115e-01,1.000000000000000048e-04,3.955902346264381464e+01,2.800000000000000266e-01
3.120369102000000172e+00,-1.042910143999999928e+00,2.818549419153131286e-01,1.000000000000000048e-04,4.072034844269681031e+01,2.399999999999999911e-01
3.132773262000000170e+00,-1.048570620000000009e+00,5.941455587400408245e-01,1.000000000000000048e-04,4.283425796455058787e+01,2.300000000000000100e-01
3.132934141999999866e+00,-1.046888051000000042e+00,2.018793438419312913e-01,1.000000000000000048e-04,3.987457182663824540e+01,2.200000000000000011e-01
3.134455274000000014e+00,-1.046257098000000108e+00,3.444130220204786319e-01,1.000000000000000048e-04,4.158327255108245879e+01,2.200000000000000011e-01
2.910504301000000016e+00,-1.063930792999999930e+00,3.430136556673775150e-01,1.000000000000000048e-04,4.103549170516753719e+01,2.399999999999999911e-01
2.301930878999999930e+00,-1.084305269999999988e+00,5.570062210803736757e-01,1.000000000000000048e-04,4.250705443275569451e+01,3.099999999999999978e-01
2.314913878000000036e+00,-1.104421796000000011e+00,7.400278965086826144e-01,1.000000000000000048e-04,4.327708636450881841e+01,2.600000000000000089e-01
1.232494258000000009e+00,-1.089556776000000005e+00,2.834097669355750693e-01,1.000000000000000048e-04,4.059968631277278206e+01,3.099999999999999978e-01
-3.138875270179586341e+00,-1.027091259999999950e+00,4.875859859776243699e-01,1.000000000000000048e-04,4.268340761924564930e+01,3.800000000000000044e-01
1.277748142000000087e+00,-1.105660628999999950e+00,9.021181118756744777e-01,1.000000000000000048e-04,4.360383116680525006e+01,2.500000000000000000e-01
2.339694710999999927e+00,-1.083680948999999893e+00,2.364037581442057778e-01,1.000000000000000048e-04,4.041033285944300957e+01,2.300000000000000100e-01
3.085408954000000037e+00,-1.045989441999999991e+00,1.824551085407686291e-01,1.000000000000000048e-04,3.969429905056695418e+01,2.800000000000000266e-01
3.122183823999999941e+00,-1.053540683000000033e+00,4.874724352414583350e-01,1.000000000000000048e-04,4.240820993250858351e+01,3.699999999999999956e-01
1.263417701000000060e+00,-1.099941301000000093e+00,3.271343624173770337e-01,1.000000000000000048e-04,4.131208884505580414e+01,2.200000000000000011e-01
1.238769020999999970e+00,-1.122513239999999968e+00,5.570132196338726249e-01,1.000000000000000048e-04,4.275365510067575059e+01,2.600000000000000089e-01
1.225778744000000087e+00,-1.107856694000000086e+00,3.673661999562840563e-01,1.000000000000000048e-04,4.172241283906959808e+01,2.500000000000000000e-01
2.356185176999999964e+00,-1.090954028000000076e+00,6.109439447805722345e-01,1.000000000000000048e-04,4.254809984166243453e+01,2.700000000000000178e-01
1.231078855000000027e+00,-1.109460918999999990e+00,6.076087302409753921e-01,1.000000000000000048e-04,4.319566478658499165e+01,2.300000000000000100e-01
2.350025410999999842e+00,-1.078254897999999962e+00,9.799029489963251294e-01,1.000000000000000048e-04,4.406415763629221516e+01,2.300000000000000100e-01
2.889344674999999807e+00,-1.054064458000000037e+00,3.200060832052740167e-01,1.000000000000000048e-04,4.125284436723470805e+01,3.200000000000000067e-01
1.260972444000000081e+00,-1.102168519999999985e+00,2.619945034203872147e-01,1.000000000000000048e-04,4.067700546844425702e+01,2.899999999999999800e-01
3.138597202000000141e+00,-1.049455424000000026e+00,5.192556443300335722e-01,1.000000000000000048e-04,4.243452646751487833e+01,2.600000000000000089e-01
1.280173519000000093e+00,-1.106045986000000036e+00,1.686357904820654507e-01,1.000000000000000048e-04,3.933788932512018732e+01,2.899999999999999800e-01
3.140421104000000074e+00,-1.048273016000000002e+00,5.317270966068645688e-01,1.000000000000000048e-04,4.259892004685564615e+01,2.700000000000000178e-01
2.887571490000000018e+00,-1.060290981000000077e+00,3.195536810015220386e-01,1.000000000000000048e-04,4.120783158075822428e+01,2.300000000000000100e-01
3.117377486000000086e+00,-1.048849812999999909e+00,1.919712843923180312e-01,1.000000000000000048e-04,3.932860449077125509e+01,2.800000000000000266e-01
3.139331405000000075e+00,-1.045946368000000071e+00,1.543327359314172753e-01,1.000000000000000048e-04,3.945241018672123801e+01,2.300000000000000100e-01
2.901812189000000153e+00,-1.070407117000000019e+00,2.528198498257805404e-01,1.000000000000000048e-04,4.018357324186543167e+01,2.200000000000000011e-01
2.874698792999999863e+00,-1.069280417999999955e+00,4.070276296474228950e-01,1.000000000000000048e-04,4.153077562359095509e+01,2.200000000000000011e-01
3.126790450000000110e+00,-1.053686536000000062e+00,1.713464889945803815e-01,1.000000000000000048e-04,3.970945678281756130e+01,2.099999999999999922e-01
1.253234667999999941e+00,-1.096167120000000050e+00,6.134309166605229624e-01,1.000000000000000048e-04,4.284524860103702082e+01,2.200000000000000011e-01
1.242189800000000011e+00,-1.095888138000000067e+00,1.568843079206172497e-01,1.000000000000000048e-04,3.938443463703026737e+01,2.899999999999999800e-01
2.358704259000000025e+00,-1.096119858000000002e+00,7.310222003590585160e-01,1.000000000000000048e-04,4.326257309502536685e+01,2.099999999999999922e-01
3.090657074000000115e+00,-1.046905049999999893e+00,1.620308644493286820e-01,1.000000000000000048e-04,3.968405755347373542e+01,2.300000000000000100e-01
2.350320292999999783e+00,-1.077642637000000070e+00,2.778176039110065165e-01,1.000000000000000048e-04,4.038920759105797487e+01,3.300000000000000155e-01
3.120911620999999858e+00,-1.047605429999999949e+00,6.929962253355224089e-01,1.000000000000000048e-04,4.297730860463124003e+01,2.899999999999999800e-01
2.310418793000000193e+00,-1.091478047999999923e+00,3.270080537856281389e-01,1.000000000000000048e-04,4.149861702461271307e+01,3.300000000000000155e-01
2.888242410000000149e+00,-1.055260810999999910e+00,1.711881922792790611e-01,1.000000000000000048e-04,3.917359455591009265e+01,2.999999999999999889e-01
2.313880778000000138e+00,-1.089056457000000089e+00,9.162476701090900288e-01,1.000000000000000048e-04,4.363306974877933442e+01,2.600000000000000089e-01
3.096505394999999883e+00,-1.050897790999999915e+00,9.648382338205330200e-01,1.000000000000000048e-04,4.403006955214980422e+01,3.300000000000000155e-01
1.264206060000000020e+00,-1.108314516000000083e+00,1.306710591114019770e-01,1.000000000000000048e-04,3.899653625008858882e+01,2.500000000000000000e-01
2.317080779999999951e+00,-1.080569537999999996e+00,6.173076775179489051e-01,1.000000000000000048e-04,4.280434241522185346e+01,2.399999999999999911e-01
2.308161032000000112e+00,-1.080284865999999955e+00,1.381869808483777717e-01,1.000000000000000048e-04,3.941057824019637934e+01,3.900000000000000133e-01
1.213089824000000094e+00,-1.095999417000000031e+00,1.298605886884811600e-01,1.000000000000000048e-04,3.965751150719607665e+01,2.700000000000000178e-01
3.095344697999999894e+00,-1.044259242999999948e+00,5.456764366165527402e-01,1.000000000000000048e-04,4.288138953245118046e+01,2.200000000000000011e-01
3.093500166000000107e+00,-1.047656949999999920e+00,4.670017948846147959e-01,1.000000000000000048e-04,4.210443350305792620e+01,2.300000000000000100e-01
2.871266652000000086e+00,-1.064917746999999970e+00,1.174611104853485077e+00,1.000000000000000048e-04,4.438721632348419632e+01,2.500000000000000000e-01
2.872879009000000039e+00,-1.076645507999999918e+00,1.220760344162175048e-01,1.000000000000000048e-04,3.905327675047650615e+01,2.099999999999999922e-01
1.241294699000000001e+00,-1.109043570000000090e+00,1.334602192225153861e-01,1.000000000000000048e-04,3.912151237512086510e+01,2.099999999999999922e-01
1.238788393000000099e+00,-1.083197141000000085e+00,5.125099536829746949e-01,1.000000000000000048e-04,4.258070194648127682e+01,2.999999999999999889e-01
-3.140928712179586135e+00,-1.049943351000000025e+00,7.033234228375668806e-01,1.000000000000000048e-04,4.286668409627000642e+01,2.200000000000000011e-01
2.897074545000000168e+00,-1.050668165000000043e+00,2.917659871126143667e-01,1.000000000000000048e-04,4.076924758277377236e+01,2.099999999999999922e-01
3.133488720999999977e+00,-1.053899826000000095e+00,6.219542974688432313e-01,1.000000000000000048e-04,4.246117554948827433e+01,2.300000000000000100e-01
2.854965548000000020e+00,-1.051119023000000041e+00,1.916231754275363741e-01,1.000000000000000048e-04,4.029939360524922876e+01,3.200000000000000067e-01
2.846666281000000076e+00,-1.061494909000000098e+00,3.167988210423491324e-01,1.000000000000000048e-04,4.140892685819564178e+01,2.600000000000000089e-01
1.477625364000000108e+00,-9.892628350000000070e-01,6.730360183497925419e-01,1.000000000000000048e-04,4.285438013687198122e+01,2.000000000000000111e-01
-2.998301261179586064e+00,-5.567642400000000213e-01,9.509626993832016595e-01,1.000000000000000048e-04,4.423622775762064663e+01,1.799999999999999933e-01
2.915910107000000195e+00,-9.248875840000000403e-01,5.024095204962819583e-01,1.000000000000000048e-04,4.214924023418129906e+01,2.999999999999999889e-01
2.904218159000000021e+00,-9.279150130000000107e-01,1.317463622519208233e-01,1.000000000000000048e-04,3.895893199976364940e+01,2.399999999999999911e-01
2.945746643000000109e+00,-9.241091030000000428e-01,3.337759220672409377e-01,1.000000000000000048e-04,4.150185327494646970e+01,2.300000000000000100e-01
2.195221751000000054e+00,9.567984520000000215e-01,2.638976095389276022e-01,1.000000000000000048e-04,4.076470822769690017e+01,2.200000000000000011e-01
-2.382074272179586227e+00,-9.504311730000000180e-01,5.746060347504180488e-01,1.000000000000000048e-04,4.269795377529888469e+01,2.300000000000000100e-01
2.197803225999999999e+00,9.560313849999999558e-01,2.325591657688534930e-01,1.000000000000000048e-04,4.074194990977922259e+01,2.300000000000000100e-01
-2.380846050179586282e+00,-9.512843520000000552e-01,1.215365652792562923e+00,1.000000000000000048e-04,4.415384579694613620e+01,2.600000000000000089e-01
-2.382960995179586039e+00,-9.501026420000000527e-01,6.892170970336450875e-01,1.000000000000000048e-04,4.320344518440650461e+01,2.099999999999999922e-01
2.192165822000000208e+00,9.554729659999999791e-01,7.258814779284425978e-01,1.000000000000000048e-04,4.344071368451089654e+01,2.899999999999999800e-01
-2.383512939179586176e+00,-9.505219620000000535e-01,2.985148631950955700e-01,1.000000000000000048e-04,4.143351171721331383e+01,2.000000000000000111e-01
2.197044292000000176e+00,9.582492320000000063e-01,2.001190749654160328e-01,1.000000000000000048e-04,4.012201786075330290e+01,2.500000000000000000e-01
2.198013217999999824e+00,9.570721989999999568e-01,3.211898800214723071e-01,1.000000000000000048e-04,4.103991970622089269e+01,2.099999999999999922e-01
2.198391541999999976e+00,9.561199929999999458e-01,9.067397012949709456e-01,1.000000000000000048e-04,4.405511576164336418e+01,2.300000000000000100e-01
2.199218732999999926e+00,9.570277640000000030e-01,2.834355696149317705e-01,1.000000000000000048e-04,4.097900958723906939e+01,2.200000000000000011e-01
2.196667974999999995e+00,9.569524729999999701e-01,7.842167179805690225e-01,1.000000000000000048e-04,4.389350821544756087e+01,2.399999999999999911e-01
2.196400267000000017e+00,9.571105250000000453e-01,2.754164302206980608e-01,1.000000000000000048e-04,4.056371385944386532e+01,2.500000000000000000e-01
2.195980999000000100e+00,9.563170869999999546e-01,2.641741077618031674e-01,1.000000000000000048e-04,4.076440169327290164e+01,2.200000000000000011e-01
2.198886345000000020e+00,9.574225640000000315e-01,2.644357802944119484e-01,1.000000000000000048e-04,4.103086469141481984e+01,3.300000000000000155e-01
-2.382942164179586264e+00,-9.487821469999999646e-01,2.101868530757222686e-01,1.000000000000000048e-04,4.014300752958289564e+01,2.000000000000000111e-01
2.197058621000000045e+00,9.568337070000000333e-01,4.469305108343848421e-01,1.000000000000000048e-04,4.220840012096086014e+01,2.600000000000000089e-01
2.196754174000000059e+00,9.569828230000000380e-01,3.421240090651054278e-01,1.000000000000000048e-04,4.082836880245649525e+01,2.399999999999999911e-01
-2.381905888179586039e+00,-9.494029419999999719e-01,4.366468340365778911e-01,1.000000000000000048e-04,4.188274944819894330e+01,2.399999999999999911e-01
-2.382353656179586388e+00,-9.501919130000000546e-01,9.111525799664861314e-01,1.000000000000000048e-04,4.317244650814101448e+01,2.600000000000000089e-01
-2.385313647179586383e+00,-9.492824659999999914e-01,1.146099076288100704e+00,1.000000000000000048e-04,4.451898195534140967e+01,2.399999999999999911e-01
-2.383308463179586223e+00,-9.502672559999999491e-01,2.614458389329936683e-01,1.000000000000000048e-04,4.070028267101972830e+01,2.000000000000000111e-01
2.194446376000000143e+00,9.548028840000000184e-01,2.774308170450934252e-01,1.000000000000000048e-04,4.067680436959593493e+01,3.699999999999999956e-01
-2.377678389179586294e+00,-9.493284189999999789e-01,5.684348225159185919e-01,1.000000000000000048e-04,4.246396878633879624e+01,3.099999999999999978e-01
2.195048706000000127e+00,9.553664520000000326e-01,5.297476407046428637e-01,1.000000000000000048e-04,4.242761173617893178e+01,2.399999999999999911e-01
2.194988459000000169e+00,9.569281090000000267e-01,4.556228981564147684e-01,1.000000000000000048e-04,4.243444376903129722e+01,2.099999999999999922e-01
2.198773670000000013e+00,9.585742720000000050e-01,3.785458094338831625e-01,1.000000000000000048e-04,4.198738802048244878e+01,2.800000000000000266e-01
2.196007632000000154e+00,9.574002940000000406e-01,2.282152536290218414e-01,1.000000000000000048e-04,4.017984112727970114e+01,2.800000000000000266e-01
2.193610842000000005e+00,9.569156829999999614e-01,1.267644109912665851e+00,1.000000000000000048e-04,4.479576441465731307e+01,2.099999999999999922e-01
2.194846306000000080e+00,9.574700699999999509e-01,3.135098171873089701e-01,1.000000000000000048e-04,4.102028186190251802e+01,2.300000000000000100e-01
-2.901318991795864832e-01,1.086903570000000041e+00,3.357294587443817591e-01,1.000000000000000048e-04,4.144538889921452807e+01,2.000000000000000111e-01
-2.914486071795865385e-01,1.085909494999999891e+00,2.354062095563149715e-01,1.000000000000000048e-04,4.024808923355291057e+01,1.000000000000000056e-01
-2.954610881795858290e-01,1.084462065999999947e+00,4.290267295682019810e-01,1.000000000000000048e-04,4.178294775003185890e+01,1.199999999999999956e-01
-3.403197011795864313e-01,1.090760651000000081e+00,1.289378120542217232e-01,1.000000000000000048e-04,3.872115057548958106e+01,8.999999999999999667e-02
-3.429455761795860980e-01,1.087892671000000089e+00,6.254741385639306372e-01,1.000000000000000048e-04,4.311784628565929012e+01,1.400000000000000133e-01
6.896152909999999636e-01,-9.249195220000000495e-01,4.107306465767459613e-01,1.000000000000000048e-04,4.190626266075773287e+01,2.000000000000000111e-01
1.024453132999999960e+00,1.182715689999999986e+00,4.221466643347215886e-01,1.000000000000000048e-04,4.177704984820574197e+01,1.900000000000000022e-01
1.006083177000000051e+00,1.165244638999999971e+00,5.379972976411484531e-01,1.000000000000000048e-04,4.261880436636067770e+01,1.700000000000000122e-01
9.905969959999999519e-01,1.153001898999999941e+00,1.052839387915190272e+00,1.000000000000000048e-04,4.377348483320797357e+01,3.499999999999999778e-01
2.950804928999999799e+00,-1.010655210999999998e+00,5.432441405311532190e-01,1.000000000000000048e-04,4.259399087652960958e+01,1.700000000000000122e-01
2.951637304000000128e+00,-1.010683065999999908e+00,5.700100302603710034e-01,1.000000000000000048e-04,4.261629211775107251e+01,1.900000000000000022e-01
-2.349248843179586377e+00,-9.322901449999999590e-01,5.584167536729820469e-01,1.000000000000000048e-04,4.265300343149935003e+01,1.900000000000000022e-01
