-1.598279621179586663e+00,2.779993629999999993e-01,1.617027043871053227e-01,1.000000000000000048e-04,3.926249187252393824e+01,1.700000000000000122e-01
-8.306753881795865269e-01,5.048130450000000158e-01,3.495437129458693892e-01,1.000000000000000048e-04,4.138101972844616228e+01,1.600000000000000033e-01
-1.512887194179586281e+00,3.571169940000000209e-01,7.168460282168738207e-01,1.000000000000000048e-04,4.330336908695218767e+01,1.600000000000000033e-01
-2.094054222179586588e+00,-9.657747650000000350e-01,2.339541435955987403e-01,1.000000000000000048e-04,4.052651422241351042e+01,1.600000000000000033e-01
-1.256550916179586252e+00,-1.037146153999999987e+00,1.741260930066941270e-01,1.000000000000000048e-04,3.995417671755871680e+01,1.900000000000000022e-01
-2.638489419179586015e+00,-8.917870300000000361e-01,6.212149341493411470e-01,1.000000000000000048e-04,4.314993843672866092e+01,1.600000000000000033e-01
3.095686500000000008e-02,-1.139960520999999893e+00,2.913713423234298716e-01,1.000000000000000048e-04,4.065591422172230551e+01,1.700000000000000122e-01
-4.765590681795863759e-01,-7.328014390000000544e-01,2.950138742106334089e-01,1.000000000000000048e-04,4.071667239358865942e+01,1.600000000000000033e-01
7.532392530000000530e-01,9.936355940000000109e-01,5.349322192938510412e-01,1.000000000000000048e-04,4.207745379063531743e+01,1.600000000000000033e-01
1.355624495999999901e+00,4.654212710000000253e-01,4.776332206374804823e-01,1.000000000000000048e-04,4.266874135650949995e+01,2.200000000000000011e-01
-2.027672372179586624e+00,-3.494576850000000179e-01,2.498454623085164528e-01,1.000000000000000048e-04,4.044258514053350950e+01,8.999999999999999667e-02
-2.243457714179585949e+00,5.735296930000000071e-01,6.364541138093890993e-01,1.000000000000000048e-04,4.307193287769202072e+01,8.000000000000000167e-02
-1.661352162179586145e+00,7.473004210000000480e-01,6.311101121788842416e-01,1.000000000000000048e-04,4.298758566330574382e+01,1.100000000000000006e-01
-1.046494641179585905e+00,9.839422859999999993e-01,1.487174429215067928e-01,1.000000000000000048e-04,3.932254417977797800e+01,1.600000000000000033e-01
-1.357076630179586019e+00,8.591991679999999576e-01,4.229181718882293328e-01,1.000000000000000048e-04,4.181672153984795415e+01,1.300000000000000044e-01
-1.489161381179585852e+00,8.733460579999999807e-01,4.154218549026851282e-01,1.000000000000000048e-04,4.177593968707972039e+01,8.999999999999999667e-02
2.602874990000000111e+00,9.865781270000000269e-01,1.812358285093040866e-01,1.000000000000000048e-04,3.953068498166126687e+01,2.099999999999999922e-01
2.011122450999999867e+00,-1.257182417000000108e+00,2.895683658427303797e-01,1.000000000000000048e-04,4.098066042823436561e+01,1.799999999999999933e-01
2.487812089999999809e+00,-1.095252646999999913e+00,8.057554519419851680e-01,1.000000000000000048e-04,4.352429041273774857e+01,1.600000000000000033e-01
-2.060955814179585843e+00,9.020563839999999889e-01,4.934028456857924017e-01,1.000000000000000048e-04,4.199519650475428989e+01,1.799999999999999933e-01
-1.552222439179586466e+00,1.270289940999999923e+00,3.208504725686911474e-01,1.000000000000000048e-04,4.129894248531890355e+01,1.600000000000000033e-01
-3.584264691795864266e-01,1.112498557000000110e+00,6.782106668974847707e-01,1.000000000000000048e-04,4.316021036754915485e+01,2.000000000000000111e-01
1.187793541000000008e+00,1.533334508000000040e+00,4.197912160462740072e-01,1.000000000000000048e-04,4.178661484158894268e+01,1.700000000000000122e-01
9.029304540000000490e-01,-5.888661819999999603e-01,2.607507859859199417e-01,1.000000000000000048e-04,4.050144033116665554e+01,1.700000000000000122e-01
2.675488564000000125e+00,-1.029758079000000048e+00,2.902380549295153767e-01,1.000000000000000048e-04,4.083777633985250333e+01,1.700000000000000122e-01
9.979371630000000160e-01,-7.076351440000000492e-01,1.395662114215991956e-01,1.000000000000000048e-04,3.852989739922941936e+01,2.000000000000000111e-01
-2.809922836179586270e+00,-1.219770695000000016e+00,2.581671908227931578e-01,1.000000000000000048e-04,4.089836030736250194e+01,1.900000000000000022e-01
1.945616433999999950e+00,5.533621010000000506e-01,3.055617191877355587e-01,1.000000000000000048e-04,4.100359907805376736e+01,1.700000000000000122e-01
1.369802210000000131e-01,9.686457469999999459e-01,3.013554777348468328e-01,1.000000000000000048e-04,4.087189705415062235e+01,1.000000000000000056e-01
2.377785852000000144e+00,-1.071983155000000076e+00,8.085223348485190975e-01,1.000000000000000048e-04,4.358840069972445974e+01,1.000000000000000056e-01
1.194530383000000029e+00,-8.514353350000000153e-01,1.812028926285833563e-01,1.000000000000000048e-04,3.946493153881316829e+01,1.100000000000000006e-01
2.328991532999999947e+00,-1.085498080000000032e+00,4.911679688028605106e-01,1.000000000000000048e-04,4.223753162600847588e+01,1.199999999999999956e-01
3.099662444999999877e+00,-8.173274409999999879e-01,1.689813658222472093e-01,1.000000000000000048e-04,3.980237921478388330e+01,1.300000000000000044e-01
1.008677688999999988e+00,-7.224949280000000362e-01,4.040045118006296843e-01,1.000000000000000048e-04,4.156156811989134781e+01,1.199999999999999956e-01
1.116317643999999998e+00,-8.188746820000000204e-01,2.188200189365510084e-01,1.000000000000000048e-04,4.001672040624905691e+01,1.499999999999999944e-01
1.368634144999999913e+00,-9.746537960000000167e-01,9.932581789363490454e-01,1.000000000000000048e-04,4.375963850570962421e+01,2.200000000000000011e-01
2.840707745000000006e+00,-9.874777999999999611e-01,1.295674822989233199e+00,1.000000000000000048e-04,4.495625279163640187e+01,1.199999999999999956e-01
1.164831654000000105e+00,-8.361433499999999519e-01,6.426492767795166650e-01,1.000000000000000048e-04,4.290515891559770267e+01,1.600000000000000033e-01
9.274529849999999520e-01,-5.648102149999999488e-01,1.848578143819061825e-01,1.000000000000000048e-04,3.990701618471066325e+01,2.200000000000000011e-01
1.803806121999999901e+00,-1.051757271000000049e+00,1.756907055820300378e-01,1.000000000000000048e-04,3.955888011256290326e+01,2.200000000000000011e-01
1.910407339000000038e+00,-1.096340147000000043e+00,3.209952849126802565e-01,1.000000000000000048e-04,4.121442240364427789e+01,1.300000000000000044e-01
-2.994395329179586174e+00,-6.874333790000000111e-01,1.442574860784440194e-01,1.000000000000000048e-04,3.911355119191645002e+01,1.600000000000000033e-01
2.004169926999999962e+00,-1.114377941999999955e+00,5.392199949832248151e-01,1.000000000000000048e-04,4.245299289048860203e+01,2.099999999999999922e-01
2.993884073999999895e+00,-9.067153500000000310e-01,4.701459138598629295e-01,1.000000000000000048e-04,4.243394422749638295e+01,2.000000000000000111e-01
2.896584697999999847e+00,-6.981149509999999836e-01,5.085384387845612864e-01,1.000000000000000048e-04,4.231492575110353016e+01,2.000000000000000111e-01
2.644964143999999795e+00,-1.038456438999999953e+00,2.706868429346891425e-01,1.000000000000000048e-04,4.031695136574055738e+01,2.500000000000000000e-01
1.395029569000000080e+00,-9.673563530000000021e-01,5.729418403452670727e-01,1.000000000000000048e-04,4.273872752652152229e+01,2.200000000000000011e-01
1.133893306999999906e+00,-8.234022290000000410e-01,1.990490422365809309e-01,1.000000000000000048e-04,3.977490974483734476e+01,1.199999999999999956e-01
9.542908199999999841e-01,-6.210129070000000029e-01,8.928731334204385028e-01,1.000000000000000048e-04,4.370595437445393827e+01,1.400000000000000133e-01
1.112357503999999997e+00,-7.717409769999999947e-01,5.758716128788372579e-01,1.000000000000000048e-04,4.267000594764060395e+01,1.400000000000000133e-01
1.392129267000000059e+00,-9.489503049999999940e-01,5.881518936352798654e-01,1.000000000000000048e-04,4.251937592282990863e+01,1.100000000000000006e-01
3.104633763999999907e+00,-8.563587980000000321e-01,6.457326662331164258e-01,1.000000000000000048e-04,4.284196421629581408e+01,1.199999999999999956e-01
-1.581672989179586430e+00,-6.726275419999999672e-01,2.008330422821362760e-01,1.000000000000000048e-04,3.984015586381734408e+01,2.000000000000000111e-01
8.758714749999999549e-01,-5.394949780000000139e-01,1.286572660282163660e-01,1.000000000000000048e-04,3.876810163081594851e+01,1.199999999999999956e-01
1.027821937999999991e+00,-6.897361509999999640e-01,7.680574431134383762e-01,1.000000000000000048e-04,4.360142846471372735e+01,1.499999999999999944e-01
8.011105990000000343e-01,-4.568120419999999737e-01,2.421464775002077907e-01,1.000000000000000048e-04,4.027039486605504948e+01,1.499999999999999944e-01
8.044453879999999835e-01,-4.591503659999999765e-01,1.796409673927796824e-01,1.000000000000000048e-04,3.973384673190443550e+01,1.100000000000000006e-01
8.290542589999999601e-01,-4.498624509999999965e-01,1.731323765998666886e-01,1.000000000000000048e-04,3.955115893281229944e+01,1.199999999999999956e-01
2.306908324000000121e+00,-1.093655438999999951e+00,1.207366738340767132e-01,1.000000000000000048e-04,3.893342855530234203e+01,1.300000000000000044e-01
-3.090495873179586184e+00,-7.974218849999999970e-01,5.246875604323586462e-01,1.000000000000000048e-04,4.241345630789104604e+01,1.300000000000000044e-01
2.850739061000000074e+00,-9.724982730000000242e-01,3.665782586099637363e-01,1.000000000000000048e-04,4.147645063115570707e+01,1.100000000000000006e-01
1.925211972000000049e+00,-1.067349442999999898e+00,4.168827107933268383e-01,1.000000000000000048e-04,4.184047789052560518e+01,1.600000000000000033e-01
3.010706126000000094e+00,-9.149326070000000088e-01,5.293769705143980264e-01,1.000000000000000048e-04,4.253557294295174529e+01,1.199999999999999956e-01
1.754869720000000077e+00,-1.052947148999999971e+00,7.401708674115867748e-01,1.000000000000000048e-04,4.336968253551121677e+01,1.300000000000000044e-01
3.028086770999999899e+00,-8.725603690000000023e-01,3.428519822538322881e-01,1.000000000000000048e-04,4.111541642396996110e+01,1.199999999999999956e-01
2.780301081000000174e+00,-1.010780400000000023e+00,7.586571914426909480e-01,1.000000000000000048e-04,4.340619120279175291e+01,1.700000000000000122e-01
3.096540631999999960e+00,-8.261897350000000362e-01,1.482365150484541427e-01,1.000000000000000048e-04,3.920019908258079511e+01,1.100000000000000006e-01
-3.043596368179586342e+00,-7.656326449999999451e-01,6.841163148681062012e-01,1.000000000000000048e-04,4.319163371468070522e+01,1.100000000000000006e-01
2.593403560000000052e+00,-1.068240442000000012e+00,8.235132676827556786e-01,1.000000000000000048e-04,4.340015661354836851e+01,1.199999999999999956e-01
1.277663320999999907e+00,-8.910532270000000032e-01,1.763893472089490544e-01,1.000000000000000048e-04,3.972672691856216431e+01,1.499999999999999944e-01
8.729576639999999665e-01,-5.017517409999999733e-01,3.695436221555461476e-01,1.000000000000000048e-04,4.175002373582516668e+01,1.199999999999999956e-01
2.323316692000000128e+00,-1.072994334000000105e+00,2.501608069500360632e-01,1.000000000000000048e-04,4.047333633303876610e+01,1.400000000000000133e-01
-3.012222731179586166e+00,-7.219820959999999621e-01,2.593117090735317376e-01,1.000000000000000048e-04,4.073119174759779071e+01,1.199999999999999956e-01
2.306010604999999991e+00,-1.110345181000000014e+00,7.559744848843874543e-01,1.000000000000000048e-04,4.341487114512693068e+01,1.100000000000000006e-01
2.437557496999999795e+00,-1.097151527000000071e+00,2.129276030712650147e-01,1.000000000000000048e-04,4.005677270322488681e+01,1.100000000000000006e-01
1.098420291999999909e+00,-7.444727049999999569e-01,1.194861581021324781e-01,1.000000000000000048e-04,3.870755891873460541e+01,1.300000000000000044e-01
8.241628739999999897e-01,-4.611620249999999754e-01,1.915030814370490830e-01,1.000000000000000048e-04,3.975306744513432022e+01,1.400000000000000133e-01
1.017317494999999905e+00,-7.027905669999999771e-01,1.918710387363911085e-01,1.000000000000000048e-04,3.978175044814364014e+01,1.199999999999999956e-01
2.728679550999999925e+00,-1.007430967999999982e+00,3.249088828294470765e-01,1.000000000000000048e-04,4.105249317755272642e+01,1.100000000000000006e-01
2.848837458999999850e+00,-9.622339979999999793e-01,2.410684323402696450e-01,1.000000000000000048e-04,4.057777507209197410e+01,1.199999999999999956e-01
-3.065525731179586266e+00,-7.207210450000000046e-01,4.880995792834705860e-01,1.000000000000000048e-04,4.224012076608965316e+01,1.199999999999999956e-01
1.103969978000000074e+00,-7.587182380000000448e-01,1.305745074956132790e+00,1.000000000000000048e-04,4.492672080590484285e+01,1.300000000000000044e-01
1.112034854000000017e+00,-7.675460100000000008e-01,1.242342091351282818e-01,1.000000000000000048e-04,3.882195844318401612e+01,1.199999999999999956e-01
2.373162053000000160e+00,-1.072487750000000073e+00,4.428243264659321721e-01,1.000000000000000048e-04,4.208726844731206995e+01,1.100000000000000006e-01
2.221583438000000132e+00,-1.096064289000000080e+00,1.228939584708137467e-01,1.000000000000000048e-04,3.896013636852773487e+01,1.199999999999999956e-01
2.775251189000000007e+00,-1.013244017000000108e+00,1.972655042825932625e-01,1.000000000000000048e-04,4.016367823701985884e+01,1.700000000000000122e-01
1.527128894000000070e+00,-9.963611940000000056e-01,1.983471651595698493e-01,1.000000000000000048e-04,3.989363672646810244e+01,1.400000000000000133e-01
-1.936135624179586401e+00,1.327891944000000102e+00,1.834680623583611059e-01,1.000000000000000048e-04,3.965320332192865038e+01,1.199999999999999956e-01
2.120951332999999828e+00,-1.112975437000000012e+00,2.197615005455326731e-01,1.000000000000000048e-04,4.003841712959516030e+01,1.600000000000000033e-01
2.950704906999999988e+00,-9.277153000000000205e-01,4.559360778054777352e-01,1.000000000000000048e-04,4.210067744288478053e+01,1.700000000000000122e-01
2.461302839000000020e+00,-1.064109841000000056e+00,1.875893986873127250e-01,1.000000000000000048e-04,3.969120578787881470e+01,1.499999999999999944e-01
1.687800213000000049e+00,-1.037844004000000098e+00,4.725227573514239054e-01,1.000000000000000048e-04,4.226138933061007918e+01,1.100000000000000006e-01
-3.069023128179586113e+00,-7.343218900000000327e-01,8.097339585272822493e-01,1.000000000000000048e-04,4.358733800306832507e+01,2.000000000000000111e-01
7.655655390000000171e-01,-3.825025819999999799e-01,5.152668943181901717e-01,1.000000000000000048e-04,4.209316066197254003e+01,1.300000000000000044e-01
-3.051736326179586012e+00,-7.690870560000000467e-01,6.134113381779651153e-01,1.000000000000000048e-04,4.301090436999995603e+01,1.499999999999999944e-01
-3.116938176179586240e+00,-7.920766919999999711e-01,1.632606862365992839e-01,1.000000000000000048e-04,3.961049869290945225e+01,1.100000000000000006e-01
1.020863690000000101e+00,-6.877910739999999468e-01,4.780606404260332454e-01,1.000000000000000048e-04,4.234103175416770881e+01,1.199999999999999956e-01
1.792785233999999894e+00,-1.066474936999999956e+00,4.770818794472457824e-01,1.000000000000000048e-04,4.210346958084825530e+01,1.100000000000000006e-01
1.805689748000000039e+00,-1.066896787999999985e+00,5.780545308249054326e-01,1.000000000000000048e-04,4.261232125158167605e+01,1.100000000000000006e-01
1.773248071000000037e+00,-1.046601056999999946e+00,2.978950219666254284e-01,1.000000000000000048e-04,4.072351995842988970e+01,2.099999999999999922e-01
1.076689889999999927e+00,-7.549444410000000216e-01,1.364301096702724703e-01,1.000000000000000048e-04,3.897925799012465831e+01,1.199999999999999956e-01
2.336456505000000128e+00,-1.089906792000000069e+00,5.313016001339094796e-01,1.000000000000000048e-04,4.243335724775065643e+01,1.199999999999999956e-01
2.522083900000000156e+00,-1.078852812999999911e+00,2.956237630169264996e-01,1.000000000000000048e-04,4.111358538226315318e+01,1.199999999999999956e-01
3.676074389999999803e-01,1.100614297999999991e+00,9.283688076881548845e-01,1.000000000000000048e-04,4.375677948250632454e+01,1.700000000000000122e-01
2.099931574000000190e+00,-1.082223048999999993e+00,3.946204378075504060e-01,1.000000000000000048e-04,4.159405878930387956e+01,1.100000000000000006e-01
8.155488279999999479e-01,-4.642700679999999802e-01,4.347425688330295301e-01,1.000000000000000048e-04,4.188836043995176084e+01,2.099999999999999922e-01
9.861636230000000447e-01,-6.881834650000000497e-01,1.311869426505092751e+00,1.000000000000000048e-04,4.487665091141817442e+01,1.300000000000000044e-01
1.864254864999999928e+00,-1.086684659999999969e+00,1.285543842275314486e+00,1.000000000000000048e-04,4.489934232562347916e+01,1.199999999999999956e-01
2.873066016000000111e+00,-9.753574739999999466e-01,5.750727601170741998e-01,1.000000000000000048e-04,4.270999274100753240e+01,1.300000000000000044e-01
2.270287562000000037e+00,-1.085086717999999895e+00,3.403267756914023501e-01,1.000000000000000048e-04,4.140560205157831319e+01,1.799999999999999933e-01
8.268071609999999572e-01,-4.587794940000000099e-01,5.436636532692915580e-01,1.000000000000000048e-04,4.242340693910151828e+01,1.199999999999999956e-01
-3.050869045179586347e+00,-7.648855789999999821e-01,9.732094939204585238e-01,1.000000000000000048e-04,4.411847253617978026e+01,1.199999999999999956e-01
1.101963728999999947e+00,-7.466317359999999903e-01,9.999703023729109574e-01,1.000000000000000048e-04,4.434128906460282593e+01,1.900000000000000022e-01
1.745116724000000064e+00,-1.056563783000000090e+00,2.352894706939323566e-01,1.000000000000000048e-04,4.036023770003121314e+01,1.300000000000000044e-01
7.889769570000000343e-01,-3.846565690000000037e-01,3.288875641394737315e-01,1.000000000000000048e-04,4.087659681184410942e+01,1.499999999999999944e-01
1.385818830999999918e+00,-9.278259679999999454e-01,3.520627483295732940e-01,1.000000000000000048e-04,4.128957084538803457e+01,1.499999999999999944e-01
1.138484923000000038e+00,-8.197145099999999518e-01,5.188360766979056571e-01,1.000000000000000048e-04,4.252902938738797900e+01,1.400000000000000133e-01
1.783410439000000069e+00,-1.080958507999999929e+00,4.341727566850950293e-01,1.000000000000000048e-04,4.155934214804130988e+01,1.400000000000000133e-01
2.617653461000000181e+00,-1.025884226000000066e+00,4.715419231117405907e-01,1.000000000000000048e-04,4.200706274945476792e+01,1.199999999999999956e-01
8.270197009999999960e-01,-4.157453939999999903e-01,4.995637830410377678e-01,1.000000000000000048e-04,4.257658614164765254e+01,1.199999999999999956e-01
3.128792493000000174e+00,-8.522697870000000009e-01,1.164581017490040171e+00,1.000000000000000048e-04,4.443133779204396916e+01,1.100000000000000006e-01
1.366158207000000013e+00,-9.614226009999999878e-01,7.276028435546300077e-01,1.000000000000000048e-04,4.296526974465708548e+01,1.100000000000000006e-01
2.846286316000000038e+00,-9.688357899999999745e-01,3.448874076560821678e-01,1.000000000000000048e-04,4.144270441504855285e+01,1.400000000000000133e-01
9.208216280000000031e-01,-6.185352929999999860e-01,2.528168143300786319e-01,1.000000000000000048e-04,4.035003612260130978e+01,1.499999999999999944e-01
7.622987450000000553e-01,-3.411912120000000215e-01,1.299938339477936466e+00,1.000000000000000048e-04,4.482278927095504883e+01,1.199999999999999956e-01
9.277931750000000255e-01,-5.813990460000000304e-01,4.480253707817940523e-01,1.000000000000000048e-04,4.219987260521242689e+01,2.099999999999999922e-01
1.010173165000000095e+00,-6.808591280000000356e-01,8.020328259645002067e-01,1.000000000000000048e-04,4.358294085716477184e+01,1.300000000000000044e-01
1.661181446000000062e+00,-1.029160687999999935e+00,3.580787038935255850e-01,1.000000000000000048e-04,4.139643723222740590e+01,1.400000000000000133e-01
2.089878704000000198e+00,-1.077863170999999953e+00,6.548976026342854251e-01,1.000000000000000048e-04,4.310845096814747279e+01,1.199999999999999956e-01
9.321550429999999610e-01,-6.212176799999999943e-01,3.468999733012332332e-01,1.000000000000000048e-04,4.133816900520284321e+01,1.199999999999999956e-01
2.944595597000000176e+00,-9.127602249999999806e-01,8.405648539558703281e-01,1.000000000000000048e-04,4.367754977847194198e+01,1.100000000000000006e-01
1.288081913999999939e+00,-9.113959929999999598e-01,1.604671341404320106e-01,1.000000000000000048e-04,3.929949200144013588e+01,1.300000000000000044e-01
1.398731861999999992e+00,-9.625033109999999725e-01,6.488449526226747199e-01,1.000000000000000048e-04,4.306307484975563682e+01,1.199999999999999956e-01
1.714165549000000066e+00,-1.043104095999999981e+00,2.379846571706856206e-01,1.000000000000000048e-04,4.030740003389424686e+01,1.199999999999999956e-01
1.014018395999999989e+00,-6.788913789999999615e-01,7.291905918104382156e-01,1.000000000000000048e-04,4.356099117846173385e+01,1.300000000000000044e-01
8.887761809999999985e-01,-5.541821719999999729e-01,1.820991207921289767e-01,1.000000000000000048e-04,3.974120594156275388e+01,1.300000000000000044e-01
1.026278256999999972e+00,-6.961882160000000264e-01,2.263728107144356017e-01,1.000000000000000048e-04,4.048906466455800057e+01,1.199999999999999956e-01
1.824970581999999952e+00,-1.080428363000000003e+00,3.107582814960552220e-01,1.000000000000000048e-04,4.094003268133039342e+01,1.199999999999999956e-01
1.839979185000000017e+00,-1.082878103999999952e+00,6.294471015091880339e-01,1.000000000000000048e-04,4.277865420975243183e+01,1.300000000000000044e-01
-3.070118813179586237e+00,-7.641942569999999879e-01,1.721828619933534199e-01,1.000000000000000048e-04,3.965464922640168055e+01,1.199999999999999956e-01
2.250776613000000204e+00,-1.110438553999999911e+00,4.691436364351007082e-01,1.000000000000000048e-04,4.206336444876598790e+01,1.199999999999999956e-01
2.613802471000000072e+00,-1.066258922999999914e+00,2.711782596234859621e-01,1.000000000000000048e-04,4.057815555213681336e+01,1.199999999999999956e-01
8.050150120000000298e-01,-4.193234060000000096e-01,1.737787897272329296e-01,1.000000000000000048e-04,3.951764823561880746e+01,1.499999999999999944e-01
2.809576177999999924e+00,-9.952447749999999704e-01,1.417518858816317895e-01,1.000000000000000048e-04,3.914791150263064878e+01,1.199999999999999956e-01
8.523447290000000232e-01,-4.773689010000000121e-01,2.421259873067522772e-01,1.000000000000000048e-04,4.036711069290679887e+01,2.000000000000000111e-01
2.975142320999999868e+00,-8.986192680000000266e-01,2.150591098500846954e-01,1.000000000000000048e-04,3.982022931849341063e+01,2.000000000000000111e-01
2.960578484000000010e+00,-9.174235720000000205e-01,5.726211462575938604e-01,1.000000000000000048e-04,4.247919463333619916e+01,1.400000000000000133e-01
1.589239559999999996e+00,-1.046132274999999945e+00,5.260329089935080749e-01,1.000000000000000048e-04,4.224825085392787116e+01,1.199999999999999956e-01
1.095136271999999966e+00,-7.909478989999999543e-01,3.909727105962712557e-01,1.000000000000000048e-04,4.146409988461282836e+01,1.300000000000000044e-01
3.045277111999999953e+00,-8.831592660000000539e-01,3.528271345693887451e-01,1.000000000000000048e-04,4.144626548502333918e+01,1.799999999999999933e-01
3.011317304999999944e+00,-8.969173430000000335e-01,1.573351407291139203e-01,1.000000000000000048e-04,3.940941112567227123e+01,1.499999999999999944e-01
1.946036051000000100e+00,-1.101857058000000000e+00,4.269035115564543403e-01,1.000000000000000048e-04,4.196230387886343038e+01,1.100000000000000006e-01
9.659444579999999503e-01,-6.400164339999999674e-01,7.252860862153518440e-01,1.000000000000000048e-04,4.339640458324321770e+01,1.199999999999999956e-01
1.142944595999999979e+00,-8.229314749999999679e-01,5.697426062862656071e-01,1.000000000000000048e-04,4.275749278677506027e+01,1.499999999999999944e-01
1.336859599999999926e+00,-9.462661719999999610e-01,5.221543855151702385e-01,1.000000000000000048e-04,4.255571039189530325e+01,1.900000000000000022e-01
2.386695267999999981e+00,-1.099692616000000012e+00,2.295888162017392098e-01,1.000000000000000048e-04,4.045445750207058211e+01,1.799999999999999933e-01
1.122946417999999946e+00,-7.871106610000000448e-01,3.427441438836631438e-01,1.000000000000000048e-04,4.156686601071962173e+01,1.499999999999999944e-01
1.038511049000000019e+00,-6.836743480000000428e-01,1.441226254738900980e-01,1.000000000000000048e-04,3.925988756520889922e+01,1.499999999999999944e-01
-1.865548755179585960e+00,5.988235499999999822e-01,5.488719429675423811e-01,1.000000000000000048e-04,4.248500256182337864e+01,3.599999999999999867e-01
-1.208774007179585830e+00,1.086301519000000049e+00,4.603871929288929632e-01,1.000000000000000048e-04,4.170483957832900757e+01,3.900000000000000133e-01
-1.451351928179586359e+00,1.047303024999999943e+00,5.949755065572559509e-01,1.000000000000000048e-04,4.202695461964251678e+01,3.900000000000000133e-01
-1.863787002179586594e+00,5.986409590000000280e-01,1.680422849378115924e-01,1.000000000000000048e-04,3.943591532856380866e+01,3.099999999999999978e-01
-2.367107747179586053e+00,3.570653329999999848e-01,1.846214647454356150e-01,1.000000000000000048e-04,3.951821520871626348e+01,3.300000000000000155e-01
3.110012692999999828e+00,-8.816387980000000013e-01,7.220453643604896055e-01,1.000000000000000048e-04,4.325928838344869831e+01,4.000000000000000222e-01
1.208427087000000011e+00,6.391205479999999550e-01,1.822368846275588261e-01,1.000000000000000048e-04,4.020387828126169438e+01,3.200000000000000067e-01
2.195568135999999893e+00,9.530612539999999688e-01,2.147381515812090136e-01,1.000000000000000048e-04,4.002955569990127316e+01,3.200000000000000067e-01
-1.746303855179585973e+00,7.561700099999999480e-01,2.399810580008501226e-01,1.000000000000000048e-04,3.989707045769317517e+01,3.599999999999999867e-01
-2.613733020179586308e+00,3.020363409999999860e-01,2.790396482410057999e-01,1.000000000000000048e-04,4.118863110693677498e+01,2.399999999999999911e-01
3.080075141000000016e+00,6.813462000000000129e-01,1.826613224486790532e-01,1.000000000000000048e-04,3.969933050381042250e+01,2.999999999999999889e-01
3.084152930000000126e+00,6.750201959999999612e-01,4.567482097996675705e-01,1.000000000000000048e-04,4.228549809406818838e+01,2.399999999999999911e-01
-2.831540824179586302e+00,-5.193198470000000011e-01,1.357147297739138558e-01,1.000000000000000048e-04,3.877457168454476033e+01,2.899999999999999800e-01
2.921667255000000019e+00,-9.403574120000000036e-01,2.343459148355462318e-01,1.000000000000000048e-04,4.040528480088034513e+01,2.899999999999999800e-01
2.610543199999999953e+00,9.294079060000000059e-01,3.810503847438275749e-01,1.000000000000000048e-04,4.211783393130399844e+01,2.899999999999999800e-01
2.614058957000000127e+00,9.310355519999999885e-01,3.578698993506956860e-01,1.000000000000000048e-04,4.146328144585392295e+01,3.699999999999999956e-01
-2.614313936179586406e+00,3.105085300000000048e-01,9.365691924730568108e-01,1.000000000000000048e-04,4.385970095245900069e+01,2.300000000000000100e-01
-2.614275993179586255e+00,3.084493819999999942e-01,6.254709281071098026e-01,1.000000000000000048e-04,4.324217513036705896e+01,2.000000000000000111e-01
3.080236718000000096e+00,6.852664600000000217e-01,6.111839234015143951e-01,1.000000000000000048e-04,4.279330776747007548e+01,3.800000000000000044e-01
3.085135451000000195e+00,6.840520260000000352e-01,3.879421059439793762e-01,1.000000000000000048e-04,4.142402229263515068e+01,2.300000000000000100e-01
-2.829361723179586452e+00,-5.190188390000000096e-01,4.604041356584687161e-01,1.000000000000000048e-04,4.190483929556253884e+01,3.900000000000000133e-01
-2.833706243179586082e+00,-5.260186759999999628e-01,3.657798703617687330e-01,1.000000000000000048e-04,4.150045145385871592e+01,2.200000000000000011e-01
1.286414458000000094e+00,-9.076167339999999806e-01,7.025388818254847401e-01,1.000000000000000048e-04,4.310064682317624829e+01,2.399999999999999911e-01
2.295144749999999956e+00,-1.095028292000000070e+00,6.615167302962050577e-01,1.000000000000000048e-04,4.305020929300395238e+01,2.000000000000000111e-01
2.312115046000000174e+00,-1.091482969000000081e+00,1.738991696235820950e-01,1.000000000000000048e-04,3.948819363978960695e+01,1.900000000000000022e-01
2.535381049000000164e+00,-1.063602453999999975e+00,1.352278594821176849e-01,1.000000000000000048e-04,3.895454490800704406e+01,2.600000000000000089e-01
2.549902755000000187e+00,-1.059649137999999935e+00,6.253745606684999458e-01,1.000000000000000048e-04,4.272792442878380825e+01,1.900000000000000022e-01
-2.980466121795863899e-01,1.081935794000000062e+00,2.287158677756555569e-01,1.000000000000000048e-04,4.038000832821182939e+01,1.000000000000000056e-01
-4.562223411795862660e-01,1.078420874000000085e+00,4.374064270611772720e-01,1.000000000000000048e-04,4.182096299049280930e+01,1.400000000000000133e-01
-4.727696341795866175e-01,1.076427226000000070e+00,1.616825922256603931e-01,1.000000000000000048e-04,3.940146857865599372e+01,1.900000000000000022e-01
-4.909850281795860028e-01,1.086050390999999893e+00,2.449836558456741642e-01,1.000000000000000048e-04,4.048878837245887041e+01,1.499999999999999944e-01
-1.809890014179586615e+00,8.554848849999999727e-01,4.018963144232614582e-01,1.000000000000000048e-04,4.147479833085409240e+01,1.900000000000000022e-01
-1.804843805179586091e+00,8.509932909999999850e-01,2.750945443259176226e-01,1.000000000000000048e-04,4.098895117386823017e+01,1.700000000000000122e-01
-1.798315402179586187e+00,8.389159160000000393e-01,2.102797665672144767e-01,1.000000000000000048e-04,3.999090677889837764e+01,1.100000000000000006e-01
-1.820018681179586650e+00,8.404092629999999620e-01,3.679518940841490782e-01,1.000000000000000048e-04,4.186617162144082016e+01,2.000000000000000111e-01
-2.435936564179586039e+00,3.767214549999999829e-01,3.094282589674373085e-01,1.000000000000000048e-04,4.087322494179345966e+01,1.700000000000000122e-01
-2.738532057179586143e+00,-4.670391260000000266e-01,7.849228436788826535e-01,1.000000000000000048e-04,4.353421531397282251e+01,1.100000000000000006e-01
-2.750126147179586145e+00,-4.750163370000000107e-01,1.352534634786268786e-01,1.000000000000000048e-04,3.880249610815669570e+01,1.700000000000000122e-01
6.777063359999999648e-01,-9.284162910000000046e-01,5.885632682272823324e-01,1.000000000000000048e-04,4.277567305967143341e+01,1.600000000000000033e-01
6.755664329999999662e-01,-9.242990760000000527e-01,1.895951671316031817e-01,1.000000000000000048e-04,3.976329571108124838e+01,2.200000000000000011e-01
1.666277256000000095e+00,1.035703752000000089e+00,1.475605448000862907e-01,1.000000000000000048e-04,3.918278865549151391e+01,2.800000000000000266e-01
1.679531192000000006e+00,1.034147155999999956e+00,8.552145288958719060e-01,1.000000000000000048e-04,4.398472652726646004e+01,2.099999999999999922e-01
1.669961188000000041e+00,1.045784459000000055e+00,2.860026594009721368e-01,1.000000000000000048e-04,4.084099237687468786e+01,2.899999999999999800e-01
1.666612017000000057e+00,1.035903760999999923e+00,3.437396306195312778e-01,1.000000000000000048e-04,4.133894568944226222e+01,1.400000000000000133e-01
1.676630470000000095e+00,1.049302589999999924e+00,1.260302471079117748e+00,1.000000000000000048e-04,4.478740891016324355e+01,1.600000000000000033e-01
1.678871634000000057e+00,1.037439988999999896e+00,4.785711826554408521e-01,1.000000000000000048e-04,4.220612075042858180e+01,2.099999999999999922e-01
-2.159653925179585876e+00,7.341517600000000421e-01,4.027566796235810820e-01,1.000000000000000048e-04,4.229763066773654145e+01,2.600000000000000089e-01
-2.155609593179586447e+00,7.327229189999999726e-01,7.087663684273766140e-01,1.000000000000000048e-04,4.318856914229872501e+01,1.400000000000000133e-01
2.989279821999999864e+00,-1.014333855000000062e+00,3.221755319018346775e-01,1.000000000000000048e-04,4.093448601719441626e+01,1.600000000000000033e-01
6.962963009999999509e-01,-9.242906640000000396e-01,4.415058566783138794e-01,1.000000000000000048e-04,4.187981259357857766e+01,2.000000000000000111e-01
6.831622830000000368e-01,-9.295060950000000322e-01,6.347534220507347058e-01,1.000000000000000048e-04,4.304733589454380649e+01,2.099999999999999922e-01
6.813526220000000189e-01,-9.196739680000000083e-01,1.869669048399900113e-01,1.000000000000000048e-04,3.973027901157593789e+01,1.700000000000000122e-01
1.667475545999999920e+00,1.039138789999999979e+00,3.706269285503265287e-01,1.000000000000000048e-04,4.155712666048108872e+01,1.499999999999999944e-01
1.669072946000000002e+00,1.039627206000000026e+00,7.999880853255969537e-01,1.000000000000000048e-04,4.360243973104174842e+01,1.700000000000000122e-01
2.992464221000000091e+00,-1.009427984000000000e+00,4.960037808413644278e-01,1.000000000000000048e-04,4.239208960088770795e+01,1.400000000000000133e-01
3.013377762000000182e+00,-1.015725085999999999e+00,3.455772035043114254e-01,1.000000000000000048e-04,4.123459569982195916e+01,1.499999999999999944e-01
6.857830799999999893e-01,-9.290922369999999875e-01,1.298687727203509112e-01,1.000000000000000048e-04,3.855600929616833383e+01,3.400000000000000244e-01
6.874880420000000214e-01,-9.251381180000000093e-01,1.204675705418780662e-01,1.000000000000000048e-04,3.918462339455103205e+01,1.700000000000000122e-01
1.659686511000000086e+00,1.040101345999999927e+00,1.934820462377568884e-01,1.000000000000000048e-04,3.997194676310365224e+01,1.400000000000000133e-01
1.692629780999999944e+00,1.043637506000000048e+00,3.944992855059534786e-01,1.000000000000000048e-04,4.135004138979454069e+01,1.799999999999999933e-01
1.682450028999999958e+00,1.049226146999999942e+00,3.199825280754966528e-01,1.000000000000000048e-04,4.122595153739324303e+01,1.900000000000000022e-01
1.675255906999999933e+00,1.048468626000000015e+00,4.274502353435993829e-01,1.000000000000000048e-04,4.182294242163015241e+01,1.499999999999999944e-01
1.692145135000000078e+00,1.039981480000000014e+00,5.996536022358875950e-01,1.000000000000000048e-04,4.271532712881978711e+01,1.700000000000000122e-01
-2.139768073179586061e+00,7.360294179999999908e-01,1.228601256166550915e+00,1.000000000000000048e-04,4.473551247346064486e+01,1.600000000000000033e-01
-2.138731675179585956e+00,7.369836659999999817e-01,6.422851614161315670e-01,1.000000000000000048e-04,4.277346782414366544e+01,1.499999999999999944e-01
6.888283630000000546e-01,-9.193630990000000169e-01,3.768158854991672246e-01,1.000000000000000048e-04,4.132304001633668378e+01,1.700000000000000122e-01
6.776433490000000059e-01,-9.225326109999999469e-01,5.841328842720237002e-01,1.000000000000000048e-04,4.285148829878681198e+01,1.600000000000000033e-01
6.820513620000000499e-01,-9.162569579999999547e-01,1.212031903150994960e+00,1.000000000000000048e-04,4.479520353090261864e+01,2.899999999999999800e-01
6.832637360000000104e-01,-9.208365670000000502e-01,1.720334681584461123e-01,1.000000000000000048e-04,3.961828590596277877e+01,1.400000000000000133e-01
1.683256381999999940e+00,1.050427892999999946e+00,2.780175366782122737e-01,1.000000000000000048e-04,4.076465712175240697e+01,1.499999999999999944e-01
2.987248335999999949e+00,-1.011507587000000097e+00,4.606928319150644935e-01,1.000000000000000048e-04,4.231365017499869907e+01,1.900000000000000022e-01
2.994879214000000012e+00,-1.020537374999999969e+00,6.282363077437782550e-01,1.000000000000000048e-04,4.261996514748692277e+01,2.500000000000000000e-01
2.997056848999999801e+00,-1.020797841000000039e+00,6.724503884375372387e-01,1.000000000000000048e-04,4.274473402556657220e+01,1.499999999999999944e-01
6.981827720000000070e-01,-9.201470600000000166e-01,1.798885839139616749e-01,1.000000000000000048e-04,3.976748612941852912e+01,2.099999999999999922e-01
1.675679171999999939e+00,1.042232051000000048e+00,5.413023423509100152e-01,1.000000000000000048e-04,4.258287831768243592e+01,1.900000000000000022e-01
1.682732345000000018e+00,1.051774148000000020e+00,2.713420400825599099e-01,1.000000000000000048e-04,4.045698173003605547e+01,2.099999999999999922e-01
1.655763980999999996e+00,1.041789395999999979e+00,6.455120719640570215e-01,1.000000000000000048e-04,4.301284716148057896e+01,2.099999999999999922e-01
1.658505131999999938e+00,1.042043577999999915e+00,3.522352060753186631e-01,1.000000000000000048e-04,4.160556168935011812e+01,1.499999999999999944e-01
1.679931540999999973e+00,1.044700675999999939e+00,6.723867327725328025e-01,1.000000000000000048e-04,4.282912701311646941e+01,1.400000000000000133e-01
1.681131209999999987e+00,1.046558263000000100e+00,7.326143753481209053e-01,1.000000000000000048e-04,4.347965966674328797e+01,3.800000000000000044e-01
-2.147380102179586636e+00,7.248191320000000326e-01,6.772094069704124308e-01,1.000000000000000048e-04,4.301483860680866655e+01,2.200000000000000011e-01
-2.137481690179586558e+00,7.386978770000000027e-01,1.842211980349146572e-01,1.000000000000000048e-04,3.969602016220932938e+01,1.499999999999999944e-01
3.007533192999999994e+00,-1.006434849999999992e+00,1.450430477859019351e-01,1.000000000000000048e-04,3.890970858777766495e+01,1.700000000000000122e-01
6.766177190000000063e-01,-9.309161569999999664e-01,1.557422659874587723e-01,1.000000000000000048e-04,3.938387320289165672e+01,1.700000000000000122e-01
6.879719020000000240e-01,-9.170357009999999809e-01,5.253367151640242483e-01,1.000000000000000048e-04,4.215605643017038062e+01,2.600000000000000089e-01
6.868192690000000100e-01,-9.190749710000000183e-01,3.010004429250989766e-01,1.000000000000000048e-04,4.090740798512334919e+01,2.800000000000000266e-01
1.680927606000000019e+00,1.043199457999999913e+00,4.124509075441229466e-01,1.000000000000000048e-04,4.174353160478641911e+01,1.799999999999999933e-01
1.680733408999999901e+00,1.046110547000000057e+00,7.793348063798215541e-01,1.000000000000000048e-04,4.335690680135589758e+01,1.499999999999999944e-01
3.003205794999999956e+00,-1.007960921000000010e+00,9.655599453556400480e-01,1.000000000000000048e-04,4.447795554210315316e+01,2.200000000000000011e-01
3.013387552999999830e+00,-1.018013843000000085e+00,2.526500699080540535e-01,1.000000000000000048e-04,4.096193125394226797e+01,2.000000000000000111e-01
2.991633154000000072e+00,-1.018575491000000000e+00,2.810916625178871975e-01,1.000000000000000048e-04,4.093640862114363443e+01,1.600000000000000033e-01
6.810583510000000063e-01,-9.216344210000000370e-01,3.239907140459452606e-01,1.000000000000000048e-04,4.122608341806857624e+01,1.600000000000000033e-01
1.670069762000000013e+00,1.048284639000000018e+00,5.170547161872693920e-01,1.000000000000000048e-04,4.241955039229010538e+01,2.099999999999999922e-01
1.699713636000000028e+00,1.040243690999999915e+00,5.802837463643881755e-01,1.000000000000000048e-04,4.288993124774631838e+01,2.899999999999999800e-01
1.686195045999999920e+00,1.048540513999999924e+00,7.084592466867454252e-01,1.000000000000000048e-04,4.324028010260367694e+01,1.400000000000000133e-01
1.667162669999999958e+00,1.044746053999999980e+00,1.571677363709171882e-01,1.000000000000000048e-04,3.924607521989224779e+01,2.700000000000000178e-01
1.689467040999999892e+00,1.036330184999999959e+00,1.343960523538918483e-01,1.000000000000000048e-04,3.879340872647136962e+01,1.300000000000000044e-01
1.683799076999999977e+00,1.043385784000000038e+00,9.360453424485097873e-01,1.000000000000000048e-04,4.373648210634850386e+01,1.700000000000000122e-01
-2.151455832179586025e+00,7.398983139999999459e-01,3.586833587730016148e-01,1.000000000000000048e-04,4.107884664060878777e+01,2.500000000000000000e-01
-2.141944958179585967e+00,7.302793560000000461e-01,6.218040099025110568e-01,1.000000000000000048e-04,4.275634140672689654e+01,1.400000000000000133e-01
3.012489310999999947e+00,-1.019874449000000016e+00,2.069594053325092275e-01,1.000000000000000048e-04,3.982293861468463092e+01,1.900000000000000022e-01
6.824463880000000149e-01,-9.193269539999999740e-01,1.660687712182271625e-01,1.000000000000000048e-04,3.974067893465510082e+01,1.600000000000000033e-01
6.933168330000000212e-01,-9.307474239999999899e-01,1.475887082566982311e-01,1.000000000000000048e-04,3.922388141050479504e+01,1.600000000000000033e-01
7.005346909999999871e-01,-9.247541049999999929e-01,5.633243710739659349e-01,1.000000000000000048e-04,4.259458530503357565e+01,2.700000000000000178e-01
1.674988617999999985e+00,1.042237757999999959e+00,5.667081679732965949e-01,1.000000000000000048e-04,4.206157273603621150e+01,1.499999999999999944e-01
1.672026148000000045e+00,1.039374368000000048e+00,5.655150168335556504e-01,1.000000000000000048e-04,4.302967304484488409e+01,1.600000000000000033e-01
2.993618983999999816e+00,-1.008517228000000099e+00,2.434725093919156702e-01,1.000000000000000048e-04,4.040815376106961310e+01,1.700000000000000122e-01
2.992837709999999873e+00,-1.014889098000000045e+00,4.375830690851107985e-01,1.000000000000000048e-04,4.203561241536723969e+01,2.800000000000000266e-01
2.980621672999999916e+00,-1.012535224000000067e+00,2.582396260261765608e-01,1.000000000000000048e-04,4.049915948341633509e+01,1.499999999999999944e-01
3.118379398000000080e+00,-1.044341935000000055e+00,2.634208868163288031e-01,1.000000000000000048e-04,4.107165929484382616e+01,3.099999999999999978e-01
3.132904315000000217e+00,-1.046896950999999909e+00,4.451270197416654639e-01,1.000000000000000048e-04,4.209539180361081634e+01,2.200000000000000011e-01
1.248659997999999938e+00,-1.117162079000000086e+00,2.850914036728173784e-01,1.000000000000000048e-04,4.080751133689329180e+01,2.700000000000000178e-01
2.302446713000000145e+00,-1.091359299000000060e+00,1.887865390926637410e-01,1.000000000000000048e-04,3.988649922335013542e+01,2.899999999999999800e-01
3.133486173000000097e+00,-1.061461677999999909e+00,4.227238107687747437e-01,1.000000000000000048e-04,4.189919298352359789e+01,3.099999999999999978e-01
1.251013366000000016e+00,-1.102704651999999896e+00,8.584390564745352226e-01,1.000000000000000048e-04,4.372017503585386322e+01,2.300000000000000100e-01
1.232341668999999973e+00,-1.105349812000000043e+00,3.124606092749553365e-01,1.000000000000000048e-04,4.125869451461035453e+01,2.200000000000000011e-01
2.330538756999999794e+00,-1.086213730999999960e+00,5.528779630301798864e-01,1.000000000000000048e-04,4.259458896428931496e+01,2.300000000000000100e-01
3.104372880000000112e+00,-1.050765708999999992e+00,2.483161977205450288e-01,1.000000000000000048e-04,4.029934848750856702e+01,2.200000000000000011e-01
3.122794933000000217e+00,-1.050942575000000101e+00,1.332285056043019722e+00,1.000000000000000048e-04,4.473997651477797177e+01,2.099999999999999922e-01
3.135928428000000157e+00,-1.044986675000000087e+00,7.432734205484539114e-01,1.000000000000000048e-04,4.265019626014616705e+01,2.300000000000000100e-01
3.135701593999999925e+00,-1.049448040999999998e+00,4.323749060850388126e-01,1.000000000000000048e-04,4.248552440608159486e+01,2.399999999999999911e-01
2.902190216000000156e+00,-1.054666754000000095e+00,6.419509488186945223e-01,1.000000000000000048e-04,4.231121823728765463e+01,2.099999999999999922e-01
1.219278212000000083e+00,-1.102494101000000004e+00,4.273043036384100990e-01,1.000000000000000048e-04,4.177412723838767761e+01,2.399999999999999911e-01
2.314258420999999899e+00,-1.073777474999999981e+00,1.530149286074962145e-01,1.000000000000000048e-04,3.973307544469670916e+01,2.399999999999999911e-01
3.138600745000000192e+00,-1.056209613999999908e+00,3.860013756757052494e-01,1.000000000000000048e-04,4.172022282944811877e+01,2.800000000000000266e-01
2.873014373000000177e+00,-1.047336534999999902e+00,3.296690573772154131e-01,1.000000000000000048e-04,4.124812550215679607e+01,2.000000000000000111e-01
2.890150627000000139e+00,-1.045368942999999939e+00,2.261551879101983964e-01,1.000000000000000048e-04,4.037418747260524299e+01,2.200000000000000011e-01
-3.136513490179586139e+00,-1.038988312000000080e+00,2.423605243185580349e-01,1.000000000000000048e-04,4.106417834296910030e+01,2.800000000000000266e-01
3.120369102000000172e+00,-1.042910143999999928e+00,4.162037236551390240e-01,1.000000000000000048e-04,4.168853534840106789e+01,2.399999999999999911e-01
3.132773262000000170e+00,-1.048570620000000009e+00,5.037744272061326356e-01,1.000000000000000048e-04,4.263469508924831786e+01,2.300000000000000100e-01
3.132934141999999866e+00,-1.046888051000000042e+00,1.277089752648408183e-01,1.000000000000000048e-04,3.913446623247798328e+01,2.200000000000000011e-01
3.134455274000000014e+00,-1.046257098000000108e+00,3.594470412969659190e-01,1.000000000000000048e-04,4.173650233121780673e+01,2.200000000000000011e-01
2.910504301000000016e+00,-1.063930792999999930e+00,1.830052493824543269e-01,1.000000000000000048e-04,3.977241551931147256e+01,2.399999999999999911e-01
2.301930878999999930e+00,-1.084305269999999988e+00,7.833418429380734072e-01,1.000000000000000048e-04,4.330782885097002577e+01,3.099999999999999978e-01
2.314913878000000036e+00,-1.104421796000000011e+00,4.020002052619850996e-01,1.000000000000000048e-04,4.146040344748670492e+01,2.600000000000000089e-01
1.232494258000000009e+00,-1.089556776000000005e+00,2.489934756307088382e-01,1.000000000000000048e-04,4.055381982465487312e+01,3.099999999999999978e-01
-3.138875270179586341e+00,-1.027091259999999950e+00,2.262429764943203470e-01,1.000000000000000048e-04,4.049853819443622172e+01,3.800000000000000044e-01
1.277748142000000087e+00,-1.105660628999999950e+00,8.931371171478079685e-01,1.000000000000000048e-04,4.335489224588731361e+01,2.500000000000000000e-01
2.339694710999999927e+00,-1.083680948999999893e+00,3.012142553042755910e-01,1.000000000000000048e-04,4.088696473128905495e+01,2.300000000000000100e-01
3.085408954000000037e+00,-1.045989441999999991e+00,1.219707019496667488e-01,1.000000000000000048e-04,3.856518431735538854e+01,2.800000000000000266e-01
3.122183823999999941e+00,-1.053540683000000033e+00,1.515547059843913580e-01,1.000000000000000048e-04,3.969660352748817189e+01,3.699999999999999956e-01
1.263417701000000060e+00,-1.099941301000000093e+00,1.218854477816037285e+00,1.000000000000000048e-04,4.432597658387758344e+01,2.200000000000000011e-01
1.238769020999999970e+00,-1.122513239999999968e+00,5.264753625432765372e-01,1.000000000000000048e-04,4.230046439405683856e+01,2.600000000000000089e-01
1.225778744000000087e+00,-1.107856694000000086e+00,1.074153416044345999e+00,1.000000000000000048e-04,4.428336378201849044e+01,2.500000000000000000e-01
2.356185176999999964e+00,-1.090954028000000076e+00,3.020755743365419743e-01,1.000000000000000048e-04,4.046195658977947573e+01,2.700000000000000178e-01
1.231078855000000027e+00,-1.109460918999999990e+00,2.745980084777319696e-01,1.000000000000000048e-04,4.056286762755024000e+01,2.300000000000000100e-01
2.350025410999999842e+00,-1.078254897999999962e+00,3.240450752125121348e-01,1.000000000000000048e-04,4.107323392855847999e+01,2.300000000000000100e-01
2.889344674999999807e+00,-1.054064458000000037e+00,2.804909540600404316e-01,1.000000000000000048e-04,4.147385827577648598e+01,3.200000000000000067e-01
1.260972444000000081e+00,-1.102168519999999985e+00,9.750761424241920494e-01,1.000000000000000048e-04,4.411993068393129391e+01,2.899999999999999800e-01
3.138597202000000141e+00,-1.049455424000000026e+00,4.383062907931736252e-01,1.000000000000000048e-04,4.229055786845036380e+01,2.600000000000000089e-01
1.280173519000000093e+00,-1.106045986000000036e+00,4.764016990299271281e-01,1.000000000000000048e-04,4.245976568673645346e+01,2.899999999999999800e-01
3.140421104000000074e+00,-1.048273016000000002e+00,2.257409045113896173e-01,1.000000000000000048e-04,3.999277818015177388e+01,2.700000000000000178e-01
2.887571490000000018e+00,-1.060290981000000077e+00,2.012253216921673360e-01,1.000000000000000048e-04,3.978775744529125546e+01,2.300000000000000100e-01
3.117377486000000086e+00,-1.048849812999999909e+00,6.391110959356722798e-01,1.000000000000000048e-04,4.253448061422115956e+01,2.800000000000000266e-01
3.139331405000000075e+00,-1.045946368000000071e+00,2.050037925361307689e-01,1.000000000000000048e-04,4.026563502487949364e+01,2.300000000000000100e-01
2.901812189000000153e+00,-1.070407117000000019e+00,4.303123576373897308e-01,1.000000000000000048e-04,4.164648811209067247e+01,2.200000000000000011e-01
2.874698792999999863e+00,-1.069280417999999955e+00,6.133489416981379172e-01,1.000000000000000048e-04,4.272865660140357136e+01,2.200000000000000011e-01
3.126790450000000110e+00,-1.053686536000000062e+00,2.727984720649123673e-01,1.000000000000000048e-04,4.079873626401413844e+01,2.099999999999999922e-01
1.253234667999999941e+00,-1.096167120000000050e+00,8.252408488870470737e-01,1.000000000000000048e-04,4.376317608682143856e+01,2.200000000000000011e-01
1.242189800000000011e+00,-1.095888138000000067e+00,3.325065471210655321e-01,1.000000000000000048e-04,4.149363785504413471e+01,2.899999999999999800e-01
2.358704259000000025e+00,-1.096119858000000002e+00,2.531313889575104170e-01,1.000000000000000048e-04,4.088777449502889283e+01,2.099999999999999922e-01
3.090657074000000115e+00,-1.046905049999999893e+00,1.385412612317409309e-01,1.000000000000000048e-04,3.908483225645550618e+01,2.300000000000000100e-01
2.350320292999999783e+00,-1.077642637000000070e+00,2.347159741089561713e-01,1.000000000000000048e-04,3.993526086173903877e+01,3.300000000000000155e-01
3.120911620999999858e+00,-1.047605429999999949e+00,1.085829311346349524e+00,1.000000000000000048e-04,4.354242898830729303e+01,2.899999999999999800e-01
2.310418793000000193e+00,-1.091478047999999923e+00,4.945158994020948384e-01,1.000000000000000048e-04,4.183264174089485010e+01,3.300000000000000155e-01
2.888242410000000149e+00,-1.055260810999999910e+00,2.366922723798585704e-01,1.000000000000000048e-04,3.996648627119009944e+01,2.999999999999999889e-01
2.313880778000000138e+00,-1.089056457000000089e+00,3.498762722372794620e-01,1.000000000000000048e-04,4.138798399133242611e+01,2.600000000000000089e-01
3.096505394999999883e+00,-1.050897790999999915e+00,6.829718903900618976e-01,1.000000000000000048e-04,4.305180622099428689e+01,3.300000000000000155e-01
1.264206060000000020e+00,-1.108314516000000083e+00,7.440693111090534995e-01,1.000000000000000048e-04,4.339639409628804145e+01,2.500000000000000000e-01
2.317080779999999951e+00,-1.080569537999999996e+00,5.019876081609500051e-01,1.000000000000000048e-04,4.193173846770832824e+01,2.399999999999999911e-01
2.308161032000000112e+00,-1.080284865999999955e+00,1.896454096878388285e-01,1.000000000000000048e-04,4.040511837250218719e+01,3.900000000000000133e-01
1.213089824000000094e+00,-1.095999417000000031e+00,6.632771839377684664e-01,1.000000000000000048e-04,4.348059658583031251e+01,2.700000000000000178e-01
3.095344697999999894e+00,-1.044259242999999948e+00,7.267297019089931087e-01,1.000000000000000048e-04,4.304350959632250095e+01,2.200000000000000011e-01
3.093500166000000107e+00,-1.047656949999999920e+00,7.515450275215451725e-01,1.000000000000000048e-04,4.332519989048289943e+01,2.300000000000000100e-01
2.871266652000000086e+00,-1.064917746999999970e+00,1.518682733429226328e-01,1.000000000000000048e-04,3.902701393194634250e+01,2.500000000000000000e-01
2.872879009000000039e+00,-1.076645507999999918e+00,5.375473082787061152e-01,1.000000000000000048e-04,4.218201033823258683e+01,2.099999999999999922e-01
1.241294699000000001e+00,-1.109043570000000090e+00,1.757648831038258752e-01,1.000000000000000048e-04,3.917621112467190869e+01,2.099999999999999922e-01
1.238788393000000099e+00,-1.083197141000000085e+00,3.056842723482400270e-01,1.000000000000000048e-04,4.156982790961880880e+01,2.999999999999999889e-01
-3.140928712179586135e+00,-1.049943351000000025e+00,6.425219817383116538e-01,1.000000000000000048e-04,4.320760532459406988e+01,2.200000000000000011e-01
2.897074545000000168e+00,-1.050668165000000043e+00,1.019387357344669898e+00,1.000000000000000048e-04,4.434526930279584178e+01,2.099999999999999922e-01
3.133488720999999977e+00,-1.053899826000000095e+00,7.735376548732795232e-01,1.000000000000000048e-04,4.290019002599829889e+01,2.300000000000000100e-01
2.854965548000000020e+00,-1.051119023000000041e+00,2.485833107820669685e-01,1.000000000000000048e-04,4.083881056261154896e+01,3.200000000000000067e-01
2.846666281000000076e+00,-1.061494909000000098e+00,1.213550322133436499e-01,1.000000000000000048e-04,3.925081392819370052e+01,2.600000000000000089e-01
1.477625364000000108e+00,-9.892628350000000070e-01,4.509604415129846444e-01,1.000000000000000048e-04,4.228932745454117281e+01,2.000000000000000111e-01
-2.998301261179586064e+00,-5.567642400000000213e-01,5.834802701605248387e-01,1.000000000000000048e-04,4.289674690349547603e+01,1.799999999999999933e-01
2.915910107000000195e+00,-9.248875840000000403e-01,7.401949526727216178e-01,1.000000000000000048e-04,4.329523824538999577e+01,2.999999999999999889e-01
2.904218159000000021e+00,-9.279150130000000107e-01,6.699739242582409826e-01,1.000000000000000048e-04,4.296624736970300518e+01,2.399999999999999911e-01
2.945746643000000109e+00,-9.241091030000000428e-01,2.132833768710868938e-01,1.000000000000000048e-04,4.024338443915013386e+01,2.300000000000000100e-01
2.195221751000000054e+00,9.567984520000000215e-01,1.289347874398438787e-01,1.000000000000000048e-04,3.931415502101015846e+01,2.200000000000000011e-01
-2.382074272179586227e+00,-9.504311730000000180e-01,1.334365976761771044e-01,1.000000000000000048e-04,3.886271878876203800e+01,2.300000000000000100e-01
2.197803225999999999e+00,9.560313849999999558e-01,8.061248859821936730e-01,1.000000000000000048e-04,4.373459675911734479e+01,2.300000000000000100e-01
-2.380846050179586282e+00,-9.512843520000000552e-01,4.998220570923070927e-01,1.000000000000000048e-04,4.228787098931394439e+01,2.600000000000000089e-01
-2.382960995179586039e+00,-9.501026420000000527e-01,5.172697663273020385e-01,1.000000000000000048e-04,4.232341252137902643e+01,2.099999999999999922e-01
2.192165822000000208e+00,9.554729659999999791e-01,2.337884568634673865e-01,1.000000000000000048e-04,4.067495761827733958e+01,2.899999999999999800e-01
-2.383512939179586176e+00,-9.505219620000000535e-01,7.819690317197829366e-01,1.000000000000000048e-04,4.326490204842411913e+01,2.000000000000000111e-01
2.197044292000000176e+00,9.582492320000000063e-01,5.310114150506126673e-01,1.000000000000000048e-04,4.194099784503899286e+01,2.500000000000000000e-01
2.198013217999999824e+00,9.570721989999999568e-01,5.472389144246230241e-01,1.000000000000000048e-04,4.236746605658308340e+01,2.099999999999999922e-01
2.198391541999999976e+00,9.561199929999999458e-01,8.788111208769029403e-01,1.000000000000000048e-04,4.366942041084240600e+01,2.300000000000000100e-01
2.199218732999999926e+00,9.570277640000000030e-01,1.226421001216648321e+00,1.000000000000000048e-04,4.466892272942904896e+01,2.200000000000000011e-01
2.196667974999999995e+00,9.569524729999999701e-01,1.931273909818029821e-01,1.000000000000000048e-04,4.002228309860137045e+01,2.399999999999999911e-01
2.196400267000000017e+00,9.571105250000000453e-01,2.804168329269336457e-01,1.000000000000000048e-04,4.053902728825566726e+01,2.500000000000000000e-01
2.195980999000000100e+00,9.563170869999999546e-01,1.812469917687138388e-01,1.000000000000000048e-04,3.998784093614181501e+01,2.200000000000000011e-01
2.198886345000000020e+00,9.574225640000000315e-01,1.874349446291254662e-01,1.000000000000000048e-04,4.027044129486738200e+01,3.300000000000000155e-01
-2.382942164179586264e+00,-9.487821469999999646e-01,2.927265505306153592e-01,1.000000000000000048e-04,4.084265975812243710e+01,2.000000000000000111e-01
2.197058621000000045e+00,9.568337070000000333e-01,3.070112127774797806e-01,1.000000000000000048e-04,4.104203548520417399e+01,2.600000000000000089e-01
2.196754174000000059e+00,9.569828230000000380e-01,2.920058118268855640e-01,1.000000000000000048e-04,4.040358500540922648e+01,2.399999999999999911e-01
-2.381905888179586039e+00,-9.494029419999999719e-01,1.792147181214982510e-01,1.000000000000000048e-04,4.011392642713242651e+01,2.399999999999999911e-01
-2.382353656179586388e+00,-9.501919130000000546e-01,3.974508854050615714e-01,1.000000000000000048e-04,4.170456167714929308e+01,2.600000000000000089e-01
-2.385313647179586383e+00,-9.492824659999999914e-01,7.098047962885332129e-01,1.000000000000000048e-04,4.329844107366359651e+01,2.399999999999999911e-01
-2.383308463179586223e+00,-9.502672559999999491e-01,1.242065788644578284e+00,1.000000000000000048e-04,4.503363956815166347e+01,2.000000000000000111e-01
2.194446376000000143e+00,9.548028840000000184e-01,8.815426863982740446e-01,1.000000000000000048e-04,4.386456088513567408e+01,3.699999999999999956e-01
-2.377678389179586294e+00,-9.493284189999999789e-01,4.292592474313063899e-01,1.000000000000000048e-04,4.239075870397374501e+01,3.099999999999999978e-01
2.195048706000000127e+00,9.553664520000000326e-01,1.827755411283269460e-01,1.000000000000000048e-04,3.955182763564042858e+01,2.399999999999999911e-01
2.194988459000000169e+00,9.569281090000000267e-01,9.629798307966921378e-01,1.000000000000000048e-04,4.407123489310281883e+01,2.099999999999999922e-01
2.198773670000000013e+00,9.585742720000000050e-01,1.264423564884169515e-01,1.000000000000000048e-04,3.863739762972939218e+01,2.800000000000000266e-01
2.196007632000000154e+00,9.574002940000000406e-01,2.118650030513751226e-01,1.000000000000000048e-04,4.054605216424460679e+01,2.800000000000000266e-01
2.193610842000000005e+00,9.569156829999999614e-01,1.739781020380337662e-01,1.000000000000000048e-04,3.963040010715076278e+01,2.099999999999999922e-01
2.194846306000000080e+00,9.574700699999999509e-01,4.138387229572351167e-01,1.000000000000000048e-04,4.143007186090085980e+01,2.300000000000000100e-01
-2.901318991795864832e-01,1.086903570000000041e+00,2.720824599141937750e-01,1.000000000000000048e-04,4.079330734081479903e+01,2.000000000000000111e-01
-2.914486071795865385e-01,1.085909494999999891e+00,2.297731133451550445e-01,1.000000000000000048e-04,4.029482225563145192e+01,1.000000000000000056e-01
-2.954610881795858290e-01,1.084462065999999947e+00,3.386653071477805366e-01,1.000000000000000048e-04,4.136551569824311514e+01,1.199999999999999956e-01
-3.403197011795864313e-01,1.090760651000000081e+00,2.433993804034395581e-01,1.000000000000000048e-04,4.036397977053506025e+01,8.999999999999999667e-02
-3.429455761795860980e-01,1.087892671000000089e+00,8.242060882335231486e-01,1.000000000000000048e-04,4.355397012408252522e+01,1.400000000000000133e-01
6.896152909999999636e-01,-9.249195220000000495e-01,3.411756162567474160e-01,1.000000000000000048e-04,4.140720938246781913e+01,2.000000000000000111e-01
1.024453132999999960e+00,1.182715689999999986e+00,6.134950814936093177e-01,1.000000000000000048e-04,4.309252953668264752e+01,1.900000000000000022e-01
1.006083177000000051e+00,1.165244638999999971e+00,6.700444510057537162e-01,1.000000000000000048e-04,4.277714517221337331e+01,1.700000000000000122e-01
9.905969959999999519e-01,1.153001898999999941e+00,3.117183070524434108e-01,1.000000000000000048e-04,4.119290037132697790e+01,3.499999999999999778e-01
2.950804928999999799e+00,-1.010655210999999998e+00,2.256584898693647645e-01,1.000000000000000048e-04,4.023787902447007525e+01,1.700000000000000122e-01
2.951637304000000128e+00,-1.010683065999999908e+00,3.689568043124074048e-01,1.000000000000000048e-04,4.175780465104497807e+01,1.900000000000000022e-01
-2.349248843179586377e+00,-9.322901449999999590e-01,4.646717288970920734e-01,1.000000000000000048e-04,4.217094237231565756e+01,1.900000000000000022e-01
