2.694421935208893615e+00,-7.265057913468169204e-01,2.627324385002101081e-01,1.000000000000000048e-04,4.063040244420518832e+01,5.000000000000000278e-02
-2.956181046075817775e+00,-1.063094300445283302e+00,9.907078452146977909e-02,1.000000000000000048e-04,3.828009616420660421e+01,5.000000000000000278e-02
-3.227566469694083118e-01,1.217316536720583375e+00,1.950649575203300401e-01,1.000000000000000048e-04,3.992719209085827003e+01,5.000000000000000278e-02
1.003629041334441752e-02,8.224896462521731344e-01,1.905354487685588794e-01,1.000000000000000048e-04,3.992111559827913680e+01,5.000000000000000278e-02
-3.179150682857998511e-01,1.312645837066130472e+00,9.745043750164028573e-02,1.000000000000000048e-04,3.833124319869695995e+01,5.000000000000000278e-02
1.636750227212032449e+00,1.024983867693347594e+00,1.512877260543659119e-01,1.000000000000000048e-04,3.946777774462890420e+01,5.000000000000000278e-02
-8.926672856295501113e-01,4.798372687310559215e-02,2.044638034530479320e-01,1.000000000000000048e-04,4.006272948548336643e+01,5.000000000000000278e-02
-3.025873727397695223e+00,-1.364904170108420578e+00,6.153729508068828125e-02,1.000000000000000048e-04,3.726003054559986083e+01,5.000000000000000278e-02
4.187233261045775201e-01,1.291702635554701217e+00,1.227346029570510755e-01,1.000000000000000048e-04,3.880252506596450246e+01,5.000000000000000278e-02
-2.918083793569151485e+00,-4.322480473426579817e-01,1.341660275543419267e-01,1.000000000000000048e-04,3.903421816780712561e+01,5.000000000000000278e-02
1.065978337767263362e+00,5.750556324375235562e-01,1.450025172679292318e-01,1.000000000000000048e-04,3.910394871518239768e+01,5.000000000000000278e-02
-2.006080065368382570e+00,8.911199844450385932e-01,1.780779989688618947e-01,1.000000000000000048e-04,3.962512117601242778e+01,5.000000000000000278e-02
-3.063083011564413649e+00,3.976771761144186623e-01,1.589009792043734048e-01,1.000000000000000048e-04,3.941085459977069405e+01,5.000000000000000278e-02
2.410683440797854793e+00,-5.360750518919488172e-03,2.511469189486081888e-01,1.000000000000000048e-04,4.051225725135098799e+01,5.000000000000000278e-02
-2.741780923233990475e+00,1.002515708324567267e-01,1.153280427696499189e-01,1.000000000000000048e-04,3.875552974644943305e+01,5.000000000000000278e-02
-3.049714477992792716e+00,-4.892698218263300536e-01,1.868876914873824902e-01,1.000000000000000048e-04,3.982559661438049403e+01,5.000000000000000278e-02
1.661659526658350039e+00,-5.240016896680299574e-02,2.269426674575205638e-01,1.000000000000000048e-04,4.028605906652001778e+01,5.000000000000000278e-02
-8.345107856332489860e-01,7.868467683252906575e-01,1.740718514584616017e-01,1.000000000000000048e-04,3.961526032613532777e+01,5.000000000000000278e-02
-4.742113105092342629e-01,7.218220643891615218e-02,9.408091558237097196e-02,1.000000000000000048e-04,3.809722964538892143e+01,5.000000000000000278e-02
1.145227678476558708e+00,-9.664270474881851980e-01,2.487738616388814883e-01,1.000000000000000048e-04,4.048628821355866592e+01,5.000000000000000278e-02
-3.006169641972867179e+00,5.780319613197097972e-01,2.470266813773323022e-01,1.000000000000000048e-04,4.042713290810124249e+01,5.000000000000000278e-02
1.791752616225370076e+00,-1.230601583709782787e-01,7.418447029577479590e-02,1.000000000000000048e-04,3.765741367312794807e+01,5.000000000000000278e-02
5.732111271844657630e-01,-8.298794013475820908e-01,1.826675048862884676e-01,1.000000000000000048e-04,3.977356759576070999e+01,5.000000000000000278e-02
8.693243977657116872e-01,-5.328471323361338996e-02,1.982857733812639633e-01,1.000000000000000048e-04,3.989749285817704560e+01,5.000000000000000278e-02
-1.957037817861054130e+00,7.350339649414214804e-01,5.187780372202266399e-02,1.000000000000000048e-04,3.681086660088926976e+01,5.000000000000000278e-02
-9.898716669411333768e-02,1.154547922866086207e+00,2.301767079837870877e-01,1.000000000000000048e-04,4.024474655155110980e+01,5.000000000000000278e-02
-1.083801434855150791e+00,-7.804717465377956076e-01,7.000032669293254628e-02,1.000000000000000048e-04,3.745091153344479551e+01,5.000000000000000278e-02
2.103713629669251794e+00,8.999722179858160587e-01,2.249448588872478005e-01,1.000000000000000048e-04,4.021574496105264274e+01,5.000000000000000278e-02
4.884158936337423818e-01,-1.066397210078640079e-01,2.389671680493776762e-01,1.000000000000000048e-04,4.041590057545700887e+01,5.000000000000000278e-02
-1.736899029666355565e+00,2.418465290649431942e-01,3.095400469724585157e-02,1.000000000000000048e-04,3.568531542004012636e+01,5.000000000000000278e-02
5.789858282877657913e-02,-1.046528401621156901e+00,1.429941889468584471e-01,1.000000000000000048e-04,3.925252277154555713e+01,5.000000000000000278e-02
-2.511670904240592250e+00,-8.810591873147219921e-01,2.416343371366103110e-01,1.000000000000000048e-04,4.036916709637120704e+01,5.000000000000000278e-02
-2.235932927750003074e+00,1.353627795161207459e-01,2.127740334555601187e-01,1.000000000000000048e-04,4.016104700284669349e+01,5.000000000000000278e-02
1.007682123747732028e+00,-1.164612797511771491e+00,2.516302240289662873e-01,1.000000000000000048e-04,4.049828857728247300e+01,5.000000000000000278e-02
-4.714735154850315801e-01,1.458221980730249889e-01,2.178387145648896794e-01,1.000000000000000048e-04,4.016356768856638126e+01,5.000000000000000278e-02
-4.326701329662117068e-01,-1.374829160204704692e-02,2.455785480124568210e-01,1.000000000000000048e-04,4.038275855886367793e+01,5.000000000000000278e-02
-1.023021986184449172e+00,-4.067453860674845600e-01,1.216675865152967440e-01,1.000000000000000048e-04,3.873405482491223495e+01,5.000000000000000278e-02
-2.514609630146977359e+00,-6.962307819945473542e-01,2.149421188071687361e-02,1.000000000000000048e-04,3.491481113313999884e+01,5.000000000000000278e-02
2.083777051594513097e+00,-7.612605777192625878e-01,1.783238668857696219e-01,1.000000000000000048e-04,3.960028779204998273e+01,5.000000000000000278e-02
-1.244705801086261054e-01,-7.819217721377410557e-01,1.095429363699360614e-01,1.000000000000000048e-04,3.852050542324457894e+01,5.000000000000000278e-02
-4.777194548203924640e-01,-3.650941734381882853e-01,2.083999294335794339e-01,1.000000000000000048e-04,4.011699371585873308e+01,5.000000000000000278e-02
-5.385090476980005647e-01,-1.424959216933820105e+00,3.859477101429531487e-02,1.000000000000000048e-04,3.611453349007138058e+01,5.000000000000000278e-02
-8.317706869270522496e-01,1.282762627495570573e-01,3.555554156090856566e-02,1.000000000000000048e-04,3.593294825982740548e+01,5.000000000000000278e-02
-2.359752034287875944e+00,5.228324150257090963e-03,2.614283542948629968e-01,1.000000000000000048e-04,4.065267191126660151e+01,5.000000000000000278e-02
7.202174805283512171e-02,9.700041838199582322e-01,2.178302651826520275e-01,1.000000000000000048e-04,4.018993993183027413e+01,5.000000000000000278e-02
9.488863178446660385e-01,-1.228328609757992407e+00,2.716358572919816972e-01,1.000000000000000048e-04,4.073776429715518788e+01,5.000000000000000278e-02
1.738397521134471546e-02,-1.127314072834681768e+00,2.730903697428157528e-01,1.000000000000000048e-04,4.069255088653640229e+01,5.000000000000000278e-02
1.430510992291010197e+00,1.475154896969272933e-01,1.532433132371937567e-01,1.000000000000000048e-04,3.932985062818765698e+01,5.000000000000000278e-02
-2.619399329929576137e+00,-2.494613459575067971e-02,2.654648933932324262e-01,1.000000000000000048e-04,4.065268619502950287e+01,5.000000000000000278e-02
3.112658951741176239e-01,-1.717180231696822101e-01,2.660730699408615507e-01,1.000000000000000048e-04,4.070065152821454291e+01,5.000000000000000278e-02
-2.951691380530291564e+00,7.428534931175789779e-02,1.584288316020012743e-01,1.000000000000000048e-04,3.934503326728330563e+01,5.000000000000000278e-02
2.298789817212300690e+00,1.033122686902312903e+00,4.296647568075839807e-02,1.000000000000000048e-04,3.643283580784897424e+01,5.000000000000000278e-02
-4.557056042578970789e-01,8.282264057709980420e-01,1.912765377869676264e-01,1.000000000000000048e-04,3.984545079113292587e+01,5.000000000000000278e-02
2.546116960906774196e+00,6.772156766199968203e-01,2.179888758127446202e-02,1.000000000000000048e-04,3.493072150868434278e+01,5.000000000000000278e-02
-8.714657139613279924e-03,-2.422265502613292210e-01,9.330253689585532584e-02,1.000000000000000048e-04,3.817524401316562432e+01,5.000000000000000278e-02
-2.139025279088992093e+00,6.968304396500148989e-01,1.212616635977179502e-01,1.000000000000000048e-04,3.872703794175782122e+01,5.000000000000000278e-02
1.094329325097653793e+00,-1.193435659695821771e+00,2.411700017036357835e-01,1.000000000000000048e-04,4.049029998553212550e+01,5.000000000000000278e-02
-5.740631895131276252e-02,8.217242301602856180e-02,1.010754443282095849e-01,1.000000000000000048e-04,3.842140391067690075e+01,5.000000000000000278e-02
-1.299682564832130405e+00,-2.286426037713784609e-01,6.906355255745078026e-02,1.000000000000000048e-04,3.744531468016528208e+01,5.000000000000000278e-02
2.811107008873299229e+00,1.152953623042307640e+00,2.110603196713336516e-01,1.000000000000000048e-04,4.012715729737701764e+01,5.000000000000000278e-02
-2.665110324659329510e+00,-5.003740251010062590e-01,1.583414330848240681e-01,1.000000000000000048e-04,3.939590883420578393e+01,5.000000000000000278e-02
8.897865377977023371e-01,-3.524866614220487637e-01,1.901832797725953039e-01,1.000000000000000048e-04,3.986218757547266023e+01,5.000000000000000278e-02
3.053384205832201381e-01,-6.218238447453066087e-01,2.492982882612311268e-01,1.000000000000000048e-04,4.046185098583438133e+01,5.000000000000000278e-02
-2.632922552165442909e+00,-9.156138977599408424e-01,6.909045036525163219e-02,1.000000000000000048e-04,3.742061736687867324e+01,5.000000000000000278e-02
2.235223880217320769e-01,-9.116950246455534090e-01,1.020820772789992059e-01,1.000000000000000048e-04,3.852591530311452317e+01,5.000000000000000278e-02
2.242999486668388442e+00,7.646449608262564368e-01,2.742971396380855520e-01,1.000000000000000048e-04,4.065982042046665867e+01,5.000000000000000278e-02
1.880917552178297925e+00,-1.196928418885521372e+00,1.079142519047378013e-01,1.000000000000000048e-04,3.853086458420225568e+01,5.000000000000000278e-02
-3.585590072138411522e-01,-2.360295944695391945e-01,2.610412129327337460e-01,1.000000000000000048e-04,4.065045486341141867e+01,5.000000000000000278e-02
-2.751832297083635304e+00,7.302675642614397944e-02,2.086140003233685203e-01,1.000000000000000048e-04,4.013061248451938923e+01,5.000000000000000278e-02
3.265313237090552434e-01,-2.216874520905269819e-01,2.387153885623294336e-01,1.000000000000000048e-04,4.037555148421125040e+01,5.000000000000000278e-02
1.652252395013314334e+00,1.591316642439029039e-01,4.007668853347512439e-02,1.000000000000000048e-04,3.628480424885975708e+01,5.000000000000000278e-02
-1.738260836158813660e-01,-3.778216266237972576e-01,1.794196517266155588e-01,1.000000000000000048e-04,3.973444237321002959e+01,5.000000000000000278e-02
1.344197250956561618e+00,-8.469710692342408143e-01,1.717397308109758214e-01,1.000000000000000048e-04,3.960777564364356351e+01,5.000000000000000278e-02
1.898354891936750555e+00,-7.786193887503269906e-01,5.350394497380484005e-02,1.000000000000000048e-04,3.685951479426277899e+01,5.000000000000000278e-02
2.672345055699758554e-01,2.593503465643580697e-01,2.626549231989356858e-01,1.000000000000000048e-04,4.059688937015729238e+01,5.000000000000000278e-02
-2.684985830600864265e+00,-8.009062684623230455e-01,2.690605778835490902e-01,1.000000000000000048e-04,4.076476580086123391e+01,5.000000000000000278e-02
3.058665076038089126e+00,3.524241591751884339e-01,1.148292577704079775e-01,1.000000000000000048e-04,3.863344848184391367e+01,5.000000000000000278e-02
-4.884556352960256476e-03,-6.032533904265149349e-01,1.173518931413810584e-01,1.000000000000000048e-04,3.878972180320143082e+01,5.000000000000000278e-02
-2.586300136180829767e+00,-3.154761561931942460e-01,1.796294147570853816e-01,1.000000000000000048e-04,3.971415220616941610e+01,5.000000000000000278e-02
-2.672466886734561342e+00,-4.533378789976592049e-01,2.574525896913404388e-01,1.000000000000000048e-04,4.052070372810384669e+01,5.000000000000000278e-02
-2.972496648016098142e+00,-3.722308588315688116e-01,7.938183207012405873e-02,1.000000000000000048e-04,3.770906657095812875e+01,5.000000000000000278e-02
-3.130834626971322088e+00,2.065141199646953751e-01,5.401284324673927273e-02,1.000000000000000048e-04,3.688643723312146250e+01,5.000000000000000278e-02
-2.627451188977488528e+00,7.385980192453458493e-01,2.038165498487374272e-01,1.000000000000000048e-04,4.003164118342656508e+01,5.000000000000000278e-02
4.402516628485688699e-01,-3.498809171483117098e-01,6.293680545873137078e-02,1.000000000000000048e-04,3.723763153078649424e+01,5.000000000000000278e-02
1.691052968078587959e+00,-4.692125490135321542e-01,2.084077565334427895e-01,1.000000000000000048e-04,4.002106481361944645e+01,5.000000000000000278e-02
-2.804254476180263467e+00,1.291588538651316842e+00,6.240040762650944650e-02,1.000000000000000048e-04,3.724485849450763908e+01,5.000000000000000278e-02
2.084392941280338363e+00,-3.319242566762115043e-01,2.397653482131163472e-01,1.000000000000000048e-04,4.046582622763388315e+01,5.000000000000000278e-02
-1.001909635111139618e+00,-7.004706806903285843e-01,2.752251524218616296e-01,1.000000000000000048e-04,4.068380755631584833e+01,5.000000000000000278e-02
6.676915174751316684e-01,-6.650805734977738304e-01,2.552523741736447693e-01,1.000000000000000048e-04,4.066545122786020272e+01,5.000000000000000278e-02
-2.066605528767111011e+00,8.502414541226528399e-01,1.262955431466794565e-01,1.000000000000000048e-04,3.881214009242450658e+01,5.000000000000000278e-02
7.849501833968548503e-01,7.111564152402523042e-01,2.130075031687297393e-01,1.000000000000000048e-04,4.012943750175413982e+01,5.000000000000000278e-02
1.543841447381988807e+00,1.400738663284421648e+00,2.084829677561659267e-01,1.000000000000000048e-04,4.013546515445616336e+01,5.000000000000000278e-02
-1.503558467822556199e+00,-3.080557999093531674e-01,1.983556926252239005e-01,1.000000000000000048e-04,3.988469438137843781e+01,5.000000000000000278e-02
-1.159546525027667974e+00,4.323490221957952961e-01,2.024884294291680042e-01,1.000000000000000048e-04,4.001804695540434409e+01,5.000000000000000278e-02
-2.576560893340727798e+00,1.844311248487020549e-01,1.427770455793604398e-01,1.000000000000000048e-04,3.906516848284769594e+01,5.000000000000000278e-02
5.875906732472468974e-02,1.255068535255918771e-01,1.881434800161645438e-01,1.000000000000000048e-04,3.978738914954725914e+01,5.000000000000000278e-02
-2.480527436175493428e+00,-6.498422147136692084e-01,2.256862121033429425e-01,1.000000000000000048e-04,4.029029251874939632e+01,5.000000000000000278e-02
2.438378489600633969e+00,3.547798690050907311e-01,7.683955813076659425e-02,1.000000000000000048e-04,3.773826566521003656e+01,5.000000000000000278e-02
2.618703325567891760e+00,4.580666903669503576e-01,2.506345687034143843e-01,1.000000000000000048e-04,4.054289320581111156e+01,5.000000000000000278e-02
1.330912197240654571e+00,8.565470875896483705e-01,8.764035610918741170e-02,1.000000000000000048e-04,3.806328571550909601e+01,5.000000000000000278e-02
-8.283030638719366401e-01,8.281477725175365734e-01,2.691086766230470495e-01,1.000000000000000048e-04,4.066645918713920338e+01,5.000000000000000278e-02
-2.498784032149372614e-01,5.193609221174915191e-01,1.280485868085516898e-01,1.000000000000000048e-04,3.888588921926942277e+01,5.000000000000000278e-02
-8.891278534497040198e-01,-4.027970683600694546e-01,1.361497430636398054e-01,1.000000000000000048e-04,3.902354239262335511e+01,5.000000000000000278e-02
1.635300292216271600e+00,7.268981805293828202e-01,7.335737340568782017e-02,1.000000000000000048e-04,3.765821112683901362e+01,5.000000000000000278e-02
-2.162220757262957260e+00,-4.372349367141414866e-02,1.556280469692352675e-01,1.000000000000000048e-04,3.929033955513853016e+01,5.000000000000000278e-02
3.981838192054798498e-01,3.518497661747055361e-02,2.274354932344142544e-01,1.000000000000000048e-04,4.033768465105920598e+01,5.000000000000000278e-02
3.753819740866597421e-01,-4.540049066204547845e-01,6.886076740507141025e-02,1.000000000000000048e-04,3.739221473495027226e+01,5.000000000000000278e-02
9.031773003438861025e-01,-4.320536948857123249e-02,1.598981318788754713e-01,1.000000000000000048e-04,3.940587185491166622e+01,5.000000000000000278e-02
1.059883449052015258e+00,7.950578625191249138e-01,1.710266740890942216e-01,1.000000000000000048e-04,3.962498068782473126e+01,5.000000000000000278e-02
1.056712967354759058e+00,7.499391837151341278e-01,2.554985754850516155e-01,1.000000000000000048e-04,4.051592078520639006e+01,5.000000000000000278e-02
-1.661488441321340215e+00,-8.294154033129190751e-01,2.644445332673206472e-01,1.000000000000000048e-04,4.068903155029384067e+01,5.000000000000000278e-02
-1.262220966218428941e+00,-6.016997824853690391e-01,2.198716028610827600e-01,1.000000000000000048e-04,4.027688489566971697e+01,5.000000000000000278e-02
1.653057313477251711e+00,-3.404766703132862116e-01,2.123592633310107392e-01,1.000000000000000048e-04,4.018646742913966108e+01,5.000000000000000278e-02
3.033329709651891193e+00,-2.685396241910726900e-01,2.263549995462765807e-02,1.000000000000000048e-04,3.489294939975838616e+01,5.000000000000000278e-02
-2.295494579238394284e+00,6.642250749848410685e-01,7.159709020217586151e-02,1.000000000000000048e-04,3.759753214777623498e+01,5.000000000000000278e-02
-3.691809665502088222e-02,-1.220666953632260965e+00,1.911400484559493407e-01,1.000000000000000048e-04,3.982774632488567335e+01,5.000000000000000278e-02
-2.155930428933330312e+00,2.782594830563605015e-01,1.815282572181824428e-01,1.000000000000000048e-04,3.982952514661313614e+01,5.000000000000000278e-02
-1.810621965143765610e+00,4.908091462794459403e-01,2.376043216760370669e-01,1.000000000000000048e-04,4.035677215087973480e+01,5.000000000000000278e-02
-1.910541171765100854e+00,6.991388946424961226e-01,2.461220599066682446e-01,1.000000000000000048e-04,4.049950754349943338e+01,5.000000000000000278e-02
-2.178261438614487844e+00,1.131286073486103216e+00,2.082636741702290628e-01,1.000000000000000048e-04,4.007479444679351133e+01,5.000000000000000278e-02
-2.305628998395218510e+00,1.904963759159845615e-01,2.427825477759602002e-01,1.000000000000000048e-04,4.048073662305861120e+01,5.000000000000000278e-02
-2.009983691935773642e+00,5.976566250101216227e-01,1.757684336000300274e-01,1.000000000000000048e-04,3.966192524140369358e+01,5.000000000000000278e-02
9.982218189168001743e-01,-8.758743962036894537e-01,5.333531954611570036e-02,1.000000000000000048e-04,3.693356513739435343e+01,5.000000000000000278e-02
1.162398177155876233e+00,-7.385166570876140479e-01,7.707474549268233943e-02,1.000000000000000048e-04,3.780052062538817381e+01,5.000000000000000278e-02
-8.101859814900977952e-01,4.248433309315027273e-01,1.943557880036625996e-01,1.000000000000000048e-04,3.990004804423007556e+01,5.000000000000000278e-02
2.335462512349190334e+00,5.076161622648962535e-01,4.892332335314830694e-02,1.000000000000000048e-04,3.672892526177527373e+01,5.000000000000000278e-02
2.432071905630974307e+00,1.070574918394247899e+00,2.622119495329837680e-01,1.000000000000000048e-04,4.070648207672641661e+01,5.000000000000000278e-02
-4.689226383659113040e-01,-2.011152237905726725e-01,1.313175878667454111e-01,1.000000000000000048e-04,3.895201930948579161e+01,5.000000000000000278e-02
-1.055459256842743887e+00,4.774788071090014796e-01,1.274483162201753839e-01,1.000000000000000048e-04,3.888053218186210813e+01,5.000000000000000278e-02
3.128120310031736295e+00,1.982003450440190662e-01,1.158943578816296061e-01,1.000000000000000048e-04,3.868802895848972412e+01,5.000000000000000278e-02
-1.473483067394758095e+00,1.243159656442483829e+00,2.331235101184199188e-01,1.000000000000000048e-04,4.034977140239296745e+01,5.000000000000000278e-02
-1.265332485145463259e+00,1.122212015891867587e+00,2.391750346607754985e-01,1.000000000000000048e-04,4.044865196334542645e+01,5.000000000000000278e-02
2.742686936540128073e+00,3.311195078888995447e-02,2.162850063419834434e-01,1.000000000000000048e-04,4.017058435149856876e+01,5.000000000000000278e-02
-2.006764528985364393e+00,5.431191671912638519e-01,1.201322529106787496e-01,1.000000000000000048e-04,3.879910194457973915e+01,5.000000000000000278e-02
1.984376163927771941e+00,-1.216006448494533210e-01,2.635538003671784590e-01,1.000000000000000048e-04,4.074142002598857459e+01,5.000000000000000278e-02
-1.787717752532889115e-01,-5.063116222388461818e-01,2.278861080187324362e-01,1.000000000000000048e-04,4.027524340474948872e+01,5.000000000000000278e-02
7.773219356558502824e-01,-3.307206895829142290e-01,1.348427320923490935e-01,1.000000000000000048e-04,3.903640905439177544e+01,5.000000000000000278e-02
-2.791216849806859024e+00,2.434601790933497156e-01,1.080437542917738192e-01,1.000000000000000048e-04,3.855958880453602688e+01,5.000000000000000278e-02
-9.661169267179112730e-01,-3.128432224901407377e-01,2.482406480078704902e-01,1.000000000000000048e-04,4.044613819811209510e+01,5.000000000000000278e-02
8.923807279827169481e-01,-5.503820191774402293e-01,2.284443823121098394e-01,1.000000000000000048e-04,4.025676635758033228e+01,5.000000000000000278e-02
1.734189211951241205e+00,-1.322693938891607468e+00,1.611370592623013742e-01,1.000000000000000048e-04,3.935389297382634766e+01,5.000000000000000278e-02
9.905689586574162320e-01,-3.953880403204967919e-01,2.372167330820815767e-01,1.000000000000000048e-04,4.034947997518346341e+01,5.000000000000000278e-02
-2.499389252780052750e+00,-7.465910238582316172e-01,9.679144341404044560e-02,1.000000000000000048e-04,3.827534289324667327e+01,5.000000000000000278e-02
2.555466876150492617e+00,-4.203999261217274963e-01,2.642138696528533170e-01,1.000000000000000048e-04,4.055549500325252410e+01,5.000000000000000278e-02
-6.204648571185211736e-02,1.176509330326321212e+00,2.223294945357918717e-01,1.000000000000000048e-04,4.027006524811368138e+01,5.000000000000000278e-02
1.189747852635947289e+00,1.076256206851056163e-01,1.878002002796963499e-01,1.000000000000000048e-04,3.981977995067420295e+01,5.000000000000000278e-02
3.216120159962225777e-01,9.498661507524741587e-01,8.631393584959567988e-02,1.000000000000000048e-04,3.798499202967946786e+01,5.000000000000000278e-02
1.093670166079961703e+00,8.793504386123829342e-02,1.368315657981686861e-01,1.000000000000000048e-04,3.909835666715218849e+01,5.000000000000000278e-02
-1.583412318154774345e+00,6.051385436188296829e-01,1.713349106467612071e-01,1.000000000000000048e-04,3.964125177259565902e+01,5.000000000000000278e-02
-2.086735923637025536e+00,-3.354532517749451159e-01,1.462584687103325454e-01,1.000000000000000048e-04,3.916378438413801177e+01,5.000000000000000278e-02
1.348905739089667932e+00,5.539562701541567158e-02,6.196236303836166748e-02,1.000000000000000048e-04,3.721161083672583203e+01,5.000000000000000278e-02
-4.354992821673859815e-01,-3.528873525441560410e-01,6.422378131065076268e-02,1.000000000000000048e-04,3.732755959821616187e+01,5.000000000000000278e-02
-1.472065171926177252e+00,-1.548615127222998655e-01,1.899532389456837222e-01,1.000000000000000048e-04,3.979281956239864826e+01,5.000000000000000278e-02
-4.204721862394098508e-01,-8.373542273697132110e-02,1.651304639104060890e-01,1.000000000000000048e-04,3.948089065051514979e+01,5.000000000000000278e-02
4.960398880788887688e-01,-2.868859048208847184e-01,1.221775622527401239e-01,1.000000000000000048e-04,3.879220042337443886e+01,5.000000000000000278e-02
2.974341049189681563e+00,4.900721499943143655e-01,5.869139168164561049e-02,1.000000000000000048e-04,3.710403346173478667e+01,5.000000000000000278e-02
1.879900400710664776e+00,-2.395700468845645137e-01,7.224990332037273255e-02,1.000000000000000048e-04,3.759662688891344828e+01,5.000000000000000278e-02
-4.295246801154859462e-01,3.435520621980887590e-01,2.668570915039087943e-01,1.000000000000000048e-04,4.068332607517692878e+01,5.000000000000000278e-02
-1.654706056191819208e-01,-7.328580462732769973e-02,2.259761216636073655e-01,1.000000000000000048e-04,4.030215418131042782e+01,5.000000000000000278e-02
