-1.598279621179586663e+00,2.779993629999999993e-01,4.652607307176639395e-01,1.000000000000000048e-04,4.197877855177346618e+01,1.700000000000000122e-01
-8.306753881795865269e-01,5.048130450000000158e-01,2.958232831891143277e-01,1.000000000000000048e-04,4.078382791661100981e+01,1.600000000000000033e-01
-1.512887194179586281e+00,3.571169940000000209e-01,1.560704237194543431e-01,1.000000000000000048e-04,3.911806143683330816e+01,1.600000000000000033e-01
-2.094054222179586588e+00,-9.657747650000000350e-01,5.400337801185763897e-01,1.000000000000000048e-04,4.251010775208764869e+01,1.600000000000000033e-01
-1.256550916179586252e+00,-1.037146153999999987e+00,4.877031180341619976e-01,1.000000000000000048e-04,4.220124012413849357e+01,1.900000000000000022e-01
-2.638489419179586015e+00,-8.917870300000000361e-01,5.128600301644017367e-01,1.000000000000000048e-04,4.224629758276205393e+01,1.600000000000000033e-01
3.095686500000000008e-02,-1.139960520999999893e+00,4.509969253886358942e-01,1.000000000000000048e-04,4.196158203633525829e+01,1.700000000000000122e-01
-4.765590681795863759e-01,-7.328014390000000544e-01,1.669082530290357802e-01,1.000000000000000048e-04,3.942204731890728908e+01,1.600000000000000033e-01
7.532392530000000530e-01,9.936355940000000109e-01,3.979560680485010327e-01,1.000000000000000048e-04,4.159252510935294822e+01,1.600000000000000033e-01
1.355624495999999901e+00,4.654212710000000253e-01,2.304766975888192793e-01,1.000000000000000048e-04,3.995754627491751165e+01,2.200000000000000011e-01
-2.027672372179586624e+00,-3.494576850000000179e-01,6.554747801058153911e-01,1.000000000000000048e-04,4.300287957739118383e+01,8.999999999999999667e-02
-2.243457714179585949e+00,5.735296930000000071e-01,5.242216022070349535e-01,1.000000000000000048e-04,4.240900831187273212e+01,8.000000000000000167e-02
-1.661352162179586145e+00,7.473004210000000480e-01,6.020155204570922791e-01,1.000000000000000048e-04,4.282145273559277143e+01,1.100000000000000006e-01
-1.046494641179585905e+00,9.839422859999999993e-01,2.384659840051202018e-01,1.000000000000000048e-04,4.031557761062148870e+01,1.600000000000000033e-01
-1.357076630179586019e+00,8.591991679999999576e-01,8.025411405779006024e-01,1.000000000000000048e-04,4.348114327745705765e+01,1.300000000000000044e-01
-1.489161381179585852e+00,8.733460579999999807e-01,1.356745710758338497e+00,1.000000000000000048e-04,4.497100202877093267e+01,8.999999999999999667e-02
2.602874990000000111e+00,9.865781270000000269e-01,3.367610485096161899e-01,1.000000000000000048e-04,4.133823318055204510e+01,2.099999999999999922e-01
2.011122450999999867e+00,-1.257182417000000108e+00,2.149278372785474733e-01,1.000000000000000048e-04,4.008375645178581692e+01,1.799999999999999933e-01
2.487812089999999809e+00,-1.095252646999999913e+00,3.544116775014105603e-01,1.000000000000000048e-04,4.135680214672362354e+01,1.600000000000000033e-01
-2.060955814179585843e+00,9.020563839999999889e-01,7.711639777590071354e-01,1.000000000000000048e-04,4.323770831285000327e+01,1.799999999999999933e-01
-1.552222439179586466e+00,1.270289940999999923e+00,3.414197844819757410e-01,1.000000000000000048e-04,4.110465883809013832e+01,1.600000000000000033e-01
-3.584264691795864266e-01,1.112498557000000110e+00,1.985302718818033885e-01,1.000000000000000048e-04,4.005702920711365067e+01,2.000000000000000111e-01
1.187793541000000008e+00,1.533334508000000040e+00,2.385915726116234481e-01,1.000000000000000048e-04,4.040723827373371790e+01,1.700000000000000122e-01
9.029304540000000490e-01,-5.888661819999999603e-01,1.016558370902460151e+00,1.000000000000000048e-04,4.422399300609504991e+01,1.700000000000000122e-01
2.675488564000000125e+00,-1.029758079000000048e+00,1.295965458526573411e-01,1.000000000000000048e-04,3.873442529577855709e+01,1.700000000000000122e-01
9.979371630000000160e-01,-7.076351440000000492e-01,1.293498173949193308e+00,1.000000000000000048e-04,4.496565073600813633e+01,2.000000000000000111e-01
-2.809922836179586270e+00,-1.219770695000000016e+00,1.451967122462718418e-01,1.000000000000000048e-04,3.878466677745285551e+01,1.900000000000000022e-01
1.945616433999999950e+00,5.533621010000000506e-01,2.873919846506687303e-01,1.000000000000000048e-04,4.081446693503622214e+01,1.700000000000000122e-01
1.369802210000000131e-01,9.686457469999999459e-01,3.484298988441605349e-01,1.000000000000000048e-04,4.146161862275467769e+01,1.000000000000000056e-01
2.377785852000000144e+00,-1.071983155000000076e+00,5.955278193087791827e-01,1.000000000000000048e-04,4.287072475619721246e+01,1.000000000000000056e-01
1.194530383000000029e+00,-8.514353350000000153e-01,5.379586417574340196e-01,1.000000000000000048e-04,4.236480109023604257e+01,1.100000000000000006e-01
2.328991532999999947e+00,-1.085498080000000032e+00,2.217989099016615118e-01,1.000000000000000048e-04,4.042318115502133935e+01,1.199999999999999956e-01
3.099662444999999877e+00,-8.173274409999999879e-01,9.902895111059262234e-01,1.000000000000000048e-04,4.416481864492084952e+01,1.300000000000000044e-01
1.008677688999999988e+00,-7.224949280000000362e-01,6.064522261263400882e-01,1.000000000000000048e-04,4.297930287722978449e+01,1.199999999999999956e-01
1.116317643999999998e+00,-8.188746820000000204e-01,3.646663275588755138e-01,1.000000000000000048e-04,4.181966498094880080e+01,1.499999999999999944e-01
1.368634144999999913e+00,-9.746537960000000167e-01,1.646179550756459165e-01,1.000000000000000048e-04,4.014601133849260606e+01,2.200000000000000011e-01
2.840707745000000006e+00,-9.874777999999999611e-01,6.953908277728206855e-01,1.000000000000000048e-04,4.324340974237212976e+01,1.199999999999999956e-01
1.164831654000000105e+00,-8.361433499999999519e-01,7.090198927107047577e-01,1.000000000000000048e-04,4.304621417788970206e+01,1.600000000000000033e-01
9.274529849999999520e-01,-5.648102149999999488e-01,1.493974866686467173e-01,1.000000000000000048e-04,3.903419169664861244e+01,2.200000000000000011e-01
1.803806121999999901e+00,-1.051757271000000049e+00,1.927144165741372372e-01,1.000000000000000048e-04,4.002257278372500338e+01,2.200000000000000011e-01
1.910407339000000038e+00,-1.096340147000000043e+00,1.473843833742516374e-01,1.000000000000000048e-04,3.925746666137906260e+01,1.300000000000000044e-01
-2.994395329179586174e+00,-6.874333790000000111e-01,2.357433973832547824e-01,1.000000000000000048e-04,4.042446753947475457e+01,1.600000000000000033e-01
2.004169926999999962e+00,-1.114377941999999955e+00,1.490719825180542024e-01,1.000000000000000048e-04,3.943817190405369644e+01,2.099999999999999922e-01
2.993884073999999895e+00,-9.067153500000000310e-01,4.622105127664386526e-01,1.000000000000000048e-04,4.236336425004277118e+01,2.000000000000000111e-01
2.896584697999999847e+00,-6.981149509999999836e-01,6.180593413654995594e-01,1.000000000000000048e-04,4.284266528093280613e+01,2.000000000000000111e-01
2.644964143999999795e+00,-1.038456438999999953e+00,5.900443799323982219e-01,1.000000000000000048e-04,4.249072320816397763e+01,2.500000000000000000e-01
1.395029569000000080e+00,-9.673563530000000021e-01,1.142774714785090850e-01,1.000000000000000048e-04,3.863573267353032037e+01,2.200000000000000011e-01
1.133893306999999906e+00,-8.234022290000000410e-01,7.209325120842402512e-01,1.000000000000000048e-04,4.320115822509497150e+01,1.199999999999999956e-01
9.542908199999999841e-01,-6.210129070000000029e-01,4.801950189190791196e-01,1.000000000000000048e-04,4.205240209549087638e+01,1.400000000000000133e-01
1.112357503999999997e+00,-7.717409769999999947e-01,5.021554006998409925e-01,1.000000000000000048e-04,4.248171918994990648e+01,1.400000000000000133e-01
1.392129267000000059e+00,-9.489503049999999940e-01,2.974363484578554928e-01,1.000000000000000048e-04,4.098048813184987438e+01,1.100000000000000006e-01
3.104633763999999907e+00,-8.563587980000000321e-01,7.202181965067715463e-01,1.000000000000000048e-04,4.327990841033920333e+01,1.199999999999999956e-01
-1.581672989179586430e+00,-6.726275419999999672e-01,6.150705591242173753e-01,1.000000000000000048e-04,4.290097303399401341e+01,2.000000000000000111e-01
8.758714749999999549e-01,-5.394949780000000139e-01,5.068277784814874121e-01,1.000000000000000048e-04,4.219230922155434627e+01,1.199999999999999956e-01
1.027821937999999991e+00,-6.897361509999999640e-01,4.176074159468339264e-01,1.000000000000000048e-04,4.188902301531862093e+01,1.499999999999999944e-01
8.011105990000000343e-01,-4.568120419999999737e-01,3.194430006019111090e-01,1.000000000000000048e-04,4.106018349314230420e+01,1.499999999999999944e-01
8.044453879999999835e-01,-4.591503659999999765e-01,1.749384478114366370e-01,1.000000000000000048e-04,3.974200569578453468e+01,1.100000000000000006e-01
8.290542589999999601e-01,-4.498624509999999965e-01,2.913485667108564048e-01,1.000000000000000048e-04,4.123303007415961474e+01,1.199999999999999956e-01
2.306908324000000121e+00,-1.093655438999999951e+00,2.567716285823935518e-01,1.000000000000000048e-04,4.075957684775308110e+01,1.300000000000000044e-01
-3.090495873179586184e+00,-7.974218849999999970e-01,1.726684606914841158e-01,1.000000000000000048e-04,3.971172940151735986e+01,1.300000000000000044e-01
2.850739061000000074e+00,-9.724982730000000242e-01,6.826881446665180597e-01,1.000000000000000048e-04,4.315300186737214005e+01,1.100000000000000006e-01
1.925211972000000049e+00,-1.067349442999999898e+00,3.202145663056203961e-01,1.000000000000000048e-04,4.133562676997755858e+01,1.600000000000000033e-01
3.010706126000000094e+00,-9.149326070000000088e-01,1.639814441010141177e-01,1.000000000000000048e-04,3.953176961123551791e+01,1.199999999999999956e-01
1.754869720000000077e+00,-1.052947148999999971e+00,1.963278267473895777e-01,1.000000000000000048e-04,3.956937484550219608e+01,1.300000000000000044e-01
3.028086770999999899e+00,-8.725603690000000023e-01,1.238974141982205346e-01,1.000000000000000048e-04,3.873691650154653843e+01,1.199999999999999956e-01
2.780301081000000174e+00,-1.010780400000000023e+00,2.094612941908828851e-01,1.000000000000000048e-04,3.978779283616713514e+01,1.700000000000000122e-01
3.096540631999999960e+00,-8.261897350000000362e-01,5.105072331484956649e-01,1.000000000000000048e-04,4.232392450453827593e+01,1.100000000000000006e-01
-3.043596368179586342e+00,-7.656326449999999451e-01,3.259287708241256354e-01,1.000000000000000048e-04,4.124370558706587531e+01,1.100000000000000006e-01
2.593403560000000052e+00,-1.068240442000000012e+00,5.597455089275400475e-01,1.000000000000000048e-04,4.251512592815511482e+01,1.199999999999999956e-01
1.277663320999999907e+00,-8.910532270000000032e-01,2.613346748872817926e-01,1.000000000000000048e-04,4.056285367598142244e+01,1.499999999999999944e-01
8.729576639999999665e-01,-5.017517409999999733e-01,2.179508697561638453e-01,1.000000000000000048e-04,4.024025328504516352e+01,1.199999999999999956e-01
2.323316692000000128e+00,-1.072994334000000105e+00,3.658912648795979994e-01,1.000000000000000048e-04,4.123556447521018953e+01,1.400000000000000133e-01
-3.012222731179586166e+00,-7.219820959999999621e-01,2.898059088732103383e-01,1.000000000000000048e-04,4.087587952370552813e+01,1.199999999999999956e-01
2.306010604999999991e+00,-1.110345181000000014e+00,1.565970491584181001e-01,1.000000000000000048e-04,3.960601387726409683e+01,1.100000000000000006e-01
2.437557496999999795e+00,-1.097151527000000071e+00,7.352759498599281685e-01,1.000000000000000048e-04,4.339564602846652264e+01,1.100000000000000006e-01
1.098420291999999909e+00,-7.444727049999999569e-01,3.844061989966753856e-01,1.000000000000000048e-04,4.163059416755356779e+01,1.300000000000000044e-01
8.241628739999999897e-01,-4.611620249999999754e-01,1.160298637113901243e-01,1.000000000000000048e-04,3.876692140024223932e+01,1.400000000000000133e-01
1.017317494999999905e+00,-7.027905669999999771e-01,4.738542148838780221e-01,1.000000000000000048e-04,4.236113912458791475e+01,1.199999999999999956e-01
2.728679550999999925e+00,-1.007430967999999982e+00,4.226737334858174933e-01,1.000000000000000048e-04,4.190856902551785623e+01,1.100000000000000006e-01
2.848837458999999850e+00,-9.622339979999999793e-01,6.825641945255851439e-01,1.000000000000000048e-04,4.302403246378273849e+01,1.199999999999999956e-01
-3.065525731179586266e+00,-7.207210450000000046e-01,6.456819738649852702e-01,1.000000000000000048e-04,4.289839109307388298e+01,1.199999999999999956e-01
1.103969978000000074e+00,-7.587182380000000448e-01,2.330869781179645273e-01,1.000000000000000048e-04,4.055900892920116263e+01,1.300000000000000044e-01
1.112034854000000017e+00,-7.675460100000000008e-01,9.917929923044546126e-01,1.000000000000000048e-04,4.412793760114769270e+01,1.199999999999999956e-01
2.373162053000000160e+00,-1.072487750000000073e+00,1.536173534167402099e-01,1.000000000000000048e-04,3.949154592761396287e+01,1.100000000000000006e-01
2.221583438000000132e+00,-1.096064289000000080e+00,3.330773231222565745e-01,1.000000000000000048e-04,4.128633896827500394e+01,1.199999999999999956e-01
2.775251189000000007e+00,-1.013244017000000108e+00,1.596998362717116926e-01,1.000000000000000048e-04,3.938366555398629743e+01,1.700000000000000122e-01
1.527128894000000070e+00,-9.963611940000000056e-01,3.333425651557657687e-01,1.000000000000000048e-04,4.114241021819654520e+01,1.400000000000000133e-01
-1.936135624179586401e+00,1.327891944000000102e+00,6.160730455193594857e-01,1.000000000000000048e-04,4.292867529488434997e+01,1.199999999999999956e-01
2.120951332999999828e+00,-1.112975437000000012e+00,5.680616280885562031e-01,1.000000000000000048e-04,4.244551975973646307e+01,1.600000000000000033e-01
2.950704906999999988e+00,-9.277153000000000205e-01,5.143283321240001982e-01,1.000000000000000048e-04,4.247336676665900512e+01,1.700000000000000122e-01
2.461302839000000020e+00,-1.064109841000000056e+00,6.427657441440912667e-01,1.000000000000000048e-04,4.299426859084327646e+01,1.499999999999999944e-01
1.687800213000000049e+00,-1.037844004000000098e+00,3.786186486876512713e-01,1.000000000000000048e-04,4.148095021377040581e+01,1.100000000000000006e-01
-3.069023128179586113e+00,-7.343218900000000327e-01,3.424604758756857326e-01,1.000000000000000048e-04,4.140289653662300395e+01,2.000000000000000111e-01
7.655655390000000171e-01,-3.825025819999999799e-01,6.293546015744218014e-01,1.000000000000000048e-04,4.291707698941095828e+01,1.300000000000000044e-01
-3.051736326179586012e+00,-7.690870560000000467e-01,1.931771152339176734e-01,1.000000000000000048e-04,4.002841773735749342e+01,1.499999999999999944e-01
-3.116938176179586240e+00,-7.920766919999999711e-01,5.796914247173781121e-01,1.000000000000000048e-04,4.274814838479255030e+01,1.100000000000000006e-01
1.020863690000000101e+00,-6.877910739999999468e-01,5.892399764944278306e-01,1.000000000000000048e-04,4.277629146819191419e+01,1.199999999999999956e-01
1.792785233999999894e+00,-1.066474936999999956e+00,8.129969156001752850e-01,1.000000000000000048e-04,4.366192730408715050e+01,1.100000000000000006e-01
1.805689748000000039e+00,-1.066896787999999985e+00,9.466062241321404613e-01,1.000000000000000048e-04,4.400730140659501188e+01,1.100000000000000006e-01
1.773248071000000037e+00,-1.046601056999999946e+00,2.099884557102400517e-01,1.000000000000000048e-04,4.031544347059779199e+01,2.099999999999999922e-01
1.076689889999999927e+00,-7.549444410000000216e-01,8.898162706314778347e-01,1.000000000000000048e-04,4.385691609555661330e+01,1.199999999999999956e-01
2.336456505000000128e+00,-1.089906792000000069e+00,7.701235989212595889e-01,1.000000000000000048e-04,4.339383987571618917e+01,1.199999999999999956e-01
2.522083900000000156e+00,-1.078852812999999911e+00,1.475763825976081911e-01,1.000000000000000048e-04,3.915671482174459328e+01,1.199999999999999956e-01
3.676074389999999803e-01,1.100614297999999991e+00,2.321194418399707970e-01,1.000000000000000048e-04,4.016869966183413965e+01,1.700000000000000122e-01
2.099931574000000190e+00,-1.082223048999999993e+00,1.906459625235596977e-01,1.000000000000000048e-04,3.998587429447682240e+01,1.100000000000000006e-01
8.155488279999999479e-01,-4.642700679999999802e-01,5.345545625242942300e-01,1.000000000000000048e-04,4.274141602231079418e+01,2.099999999999999922e-01
9.861636230000000447e-01,-6.881834650000000497e-01,3.694150552545238941e-01,1.000000000000000048e-04,4.158078304524658364e+01,1.300000000000000044e-01
1.864254864999999928e+00,-1.086684659999999969e+00,5.222829985175971856e-01,1.000000000000000048e-04,4.237446523591100345e+01,1.199999999999999956e-01
2.873066016000000111e+00,-9.753574739999999466e-01,4.668772593594670006e-01,1.000000000000000048e-04,4.187558464631090516e+01,1.300000000000000044e-01
2.270287562000000037e+00,-1.085086717999999895e+00,6.337922976553169718e-01,1.000000000000000048e-04,4.264203037669453522e+01,1.799999999999999933e-01
8.268071609999999572e-01,-4.587794940000000099e-01,1.096995850015348495e+00,1.000000000000000048e-04,4.426593813747690831e+01,1.199999999999999956e-01
-3.050869045179586347e+00,-7.648855789999999821e-01,2.928795398482406664e-01,1.000000000000000048e-04,4.098165621651983059e+01,1.199999999999999956e-01
1.101963728999999947e+00,-7.466317359999999903e-01,4.447933268856993916e-01,1.000000000000000048e-04,4.202481790149973051e+01,1.900000000000000022e-01
1.745116724000000064e+00,-1.056563783000000090e+00,3.846866881319817022e-01,1.000000000000000048e-04,4.158132224646765707e+01,1.300000000000000044e-01
7.889769570000000343e-01,-3.846565690000000037e-01,3.546933307090860410e-01,1.000000000000000048e-04,4.159923406560606196e+01,1.499999999999999944e-01
1.385818830999999918e+00,-9.278259679999999454e-01,2.796992253716714671e-01,1.000000000000000048e-04,4.093208058156271534e+01,1.499999999999999944e-01
1.138484923000000038e+00,-8.197145099999999518e-01,3.219412523095686041e-01,1.000000000000000048e-04,4.125960530096612189e+01,1.400000000000000133e-01
1.783410439000000069e+00,-1.080958507999999929e+00,4.743590178953034364e-01,1.000000000000000048e-04,4.197735510183132135e+01,1.400000000000000133e-01
2.617653461000000181e+00,-1.025884226000000066e+00,3.782107905082192634e-01,1.000000000000000048e-04,4.156671900884770565e+01,1.199999999999999956e-01
8.270197009999999960e-01,-4.157453939999999903e-01,7.270395252010211085e-01,1.000000000000000048e-04,4.322331182127555138e+01,1.199999999999999956e-01
3.128792493000000174e+00,-8.522697870000000009e-01,2.073426086283529646e-01,1.000000000000000048e-04,4.010958852320845125e+01,1.100000000000000006e-01
1.366158207000000013e+00,-9.614226009999999878e-01,4.426408601059863557e-01,1.000000000000000048e-04,4.198010276958697773e+01,1.100000000000000006e-01
2.846286316000000038e+00,-9.688357899999999745e-01,4.055660753871674906e-01,1.000000000000000048e-04,4.161892287026865489e+01,1.400000000000000133e-01
9.208216280000000031e-01,-6.185352929999999860e-01,3.448181878137595024e-01,1.000000000000000048e-04,4.120029097122701955e+01,1.499999999999999944e-01
7.622987450000000553e-01,-3.411912120000000215e-01,7.318470038617701512e-01,1.000000000000000048e-04,4.356080993137285162e+01,1.199999999999999956e-01
9.277931750000000255e-01,-5.813990460000000304e-01,2.229561316257393511e-01,1.000000000000000048e-04,4.019059934810309898e+01,2.099999999999999922e-01
1.010173165000000095e+00,-6.808591280000000356e-01,3.463658346884932460e-01,1.000000000000000048e-04,4.135051862112135979e+01,1.300000000000000044e-01
1.661181446000000062e+00,-1.029160687999999935e+00,8.744376467445500456e-01,1.000000000000000048e-04,4.382183211387665267e+01,1.400000000000000133e-01
2.089878704000000198e+00,-1.077863170999999953e+00,1.334268419151709573e-01,1.000000000000000048e-04,3.902688100043435071e+01,1.199999999999999956e-01
9.321550429999999610e-01,-6.212176799999999943e-01,3.097836816171013474e-01,1.000000000000000048e-04,4.092717337945758516e+01,1.199999999999999956e-01
2.944595597000000176e+00,-9.127602249999999806e-01,7.025655055386339498e-01,1.000000000000000048e-04,4.323228446172127803e+01,1.100000000000000006e-01
1.288081913999999939e+00,-9.113959929999999598e-01,6.838825562844099704e-01,1.000000000000000048e-04,4.288947666684033777e+01,1.300000000000000044e-01
1.398731861999999992e+00,-9.625033109999999725e-01,3.876122542629703016e-01,1.000000000000000048e-04,4.165212830991376336e+01,1.199999999999999956e-01
1.714165549000000066e+00,-1.043104095999999981e+00,4.482797234264517261e-01,1.000000000000000048e-04,4.184621510633577657e+01,1.199999999999999956e-01
1.014018395999999989e+00,-6.788913789999999615e-01,6.688761931050974940e-01,1.000000000000000048e-04,4.304011478647895217e+01,1.300000000000000044e-01
8.887761809999999985e-01,-5.541821719999999729e-01,9.155810150954262205e-01,1.000000000000000048e-04,4.380108994482773710e+01,1.300000000000000044e-01
1.026278256999999972e+00,-6.961882160000000264e-01,5.976908471100650377e-01,1.000000000000000048e-04,4.269025983211056996e+01,1.199999999999999956e-01
1.824970581999999952e+00,-1.080428363000000003e+00,6.370082707687358958e-01,1.000000000000000048e-04,4.306280029605606785e+01,1.199999999999999956e-01
1.839979185000000017e+00,-1.082878103999999952e+00,1.068941644428280213e+00,1.000000000000000048e-04,4.429318225644843920e+01,1.300000000000000044e-01
-3.070118813179586237e+00,-7.641942569999999879e-01,3.410269732582256186e-01,1.000000000000000048e-04,4.127799740719865440e+01,1.199999999999999956e-01
2.250776613000000204e+00,-1.110438553999999911e+00,8.221019872276722484e-01,1.000000000000000048e-04,4.380447550982957239e+01,1.199999999999999956e-01
2.613802471000000072e+00,-1.066258922999999914e+00,2.571863890412886544e-01,1.000000000000000048e-04,4.073761000760790552e+01,1.199999999999999956e-01
8.050150120000000298e-01,-4.193234060000000096e-01,7.775669308219630427e-01,1.000000000000000048e-04,4.339127798165235816e+01,1.499999999999999944e-01
2.809576177999999924e+00,-9.952447749999999704e-01,4.874575234583580219e-01,1.000000000000000048e-04,4.240197384997610897e+01,1.199999999999999956e-01
8.523447290000000232e-01,-4.773689010000000121e-01,9.801435193350334085e-01,1.000000000000000048e-04,4.442362849908627709e+01,2.000000000000000111e-01
2.975142320999999868e+00,-8.986192680000000266e-01,1.204784849195891461e+00,1.000000000000000048e-04,4.474152317824722758e+01,2.000000000000000111e-01
2.960578484000000010e+00,-9.174235720000000205e-01,4.395348724435574894e-01,1.000000000000000048e-04,4.202728004125090422e+01,1.400000000000000133e-01
1.589239559999999996e+00,-1.046132274999999945e+00,3.833636429514637456e-01,1.000000000000000048e-04,4.147908820207577918e+01,1.199999999999999956e-01
1.095136271999999966e+00,-7.909478989999999543e-01,2.116769721733140486e-01,1.000000000000000048e-04,4.020940789634926205e+01,1.300000000000000044e-01
3.045277111999999953e+00,-8.831592660000000539e-01,2.346757191094113182e-01,1.000000000000000048e-04,4.024192927461261604e+01,1.799999999999999933e-01
3.011317304999999944e+00,-8.969173430000000335e-01,4.448616646370793237e-01,1.000000000000000048e-04,4.226317809799893865e+01,1.499999999999999944e-01
1.946036051000000100e+00,-1.101857058000000000e+00,2.200135893555299482e-01,1.000000000000000048e-04,4.031968049078869143e+01,1.100000000000000006e-01
9.659444579999999503e-01,-6.400164339999999674e-01,3.328474950920710107e-01,1.000000000000000048e-04,4.114318851181454306e+01,1.199999999999999956e-01
1.142944595999999979e+00,-8.229314749999999679e-01,4.242362462277562418e-01,1.000000000000000048e-04,4.187797041684479638e+01,1.499999999999999944e-01
1.336859599999999926e+00,-9.462661719999999610e-01,6.416028790139944871e-01,1.000000000000000048e-04,4.299669902421893397e+01,1.900000000000000022e-01
2.386695267999999981e+00,-1.099692616000000012e+00,8.133063972974463596e-01,1.000000000000000048e-04,4.369726449940278457e+01,1.799999999999999933e-01
1.122946417999999946e+00,-7.871106610000000448e-01,5.294215386652252331e-01,1.000000000000000048e-04,4.229859546874208576e+01,1.499999999999999944e-01
1.038511049000000019e+00,-6.836743480000000428e-01,8.392353940926229328e-01,1.000000000000000048e-04,4.368276903976658332e+01,1.499999999999999944e-01
-1.865548755179585960e+00,5.988235499999999822e-01,9.096982174730341431e-01,1.000000000000000048e-04,4.362661095456682148e+01,3.599999999999999867e-01
-1.208774007179585830e+00,1.086301519000000049e+00,4.987136531332319045e-01,1.000000000000000048e-04,4.196369501602890750e+01,3.900000000000000133e-01
-1.451351928179586359e+00,1.047303024999999943e+00,6.515635358500113661e-01,1.000000000000000048e-04,4.376876407068061070e+01,3.900000000000000133e-01
-1.863787002179586594e+00,5.986409590000000280e-01,3.607310972841137886e-01,1.000000000000000048e-04,4.190748645972989550e+01,3.099999999999999978e-01
-2.367107747179586053e+00,3.570653329999999848e-01,2.069812285693692910e-01,1.000000000000000048e-04,3.963252984666431900e+01,3.300000000000000155e-01
3.110012692999999828e+00,-8.816387980000000013e-01,1.831820867664930574e-01,1.000000000000000048e-04,3.935847553628017437e+01,4.000000000000000222e-01
1.208427087000000011e+00,6.391205479999999550e-01,5.426799633323551308e-01,1.000000000000000048e-04,4.234752715388132316e+01,3.200000000000000067e-01
2.195568135999999893e+00,9.530612539999999688e-01,1.046011095556603987e+00,1.000000000000000048e-04,4.479697188631428162e+01,3.200000000000000067e-01
-1.746303855179585973e+00,7.561700099999999480e-01,1.332088658633654443e-01,1.000000000000000048e-04,3.891853309711645892e+01,3.599999999999999867e-01
-2.613733020179586308e+00,3.020363409999999860e-01,3.788138010929078536e-01,1.000000000000000048e-04,4.175390781584755473e+01,2.399999999999999911e-01
3.080075141000000016e+00,6.813462000000000129e-01,1.594320031920324343e-01,1.000000000000000048e-04,3.917448654452064005e+01,2.999999999999999889e-01
3.084152930000000126e+00,6.750201959999999612e-01,1.724147583069957079e-01,1.000000000000000048e-04,3.936387514051418179e+01,2.399999999999999911e-01
-2.831540824179586302e+00,-5.193198470000000011e-01,5.547589036939055696e-01,1.000000000000000048e-04,4.262068636056228144e+01,2.899999999999999800e-01
2.921667255000000019e+00,-9.403574120000000036e-01,2.150238480493991133e-01,1.000000000000000048e-04,3.994630704045102476e+01,2.899999999999999800e-01
2.610543199999999953e+00,9.294079060000000059e-01,3.192279848086712057e-01,1.000000000000000048e-04,4.181993612129485882e+01,2.899999999999999800e-01
2.614058957000000127e+00,9.310355519999999885e-01,7.574424248716962182e-01,1.000000000000000048e-04,4.336495133371499833e+01,3.699999999999999956e-01
-2.614313936179586406e+00,3.105085300000000048e-01,3.920209853259128963e-01,1.000000000000000048e-04,4.176372823242970611e+01,2.300000000000000100e-01
-2.614275993179586255e+00,3.084493819999999942e-01,6.959163567315178600e-01,1.000000000000000048e-04,4.294652404729469453e+01,2.000000000000000111e-01
3.080236718000000096e+00,6.852664600000000217e-01,3.100490834121840678e-01,1.000000000000000048e-04,4.108149373116722103e+01,3.800000000000000044e-01
3.085135451000000195e+00,6.840520260000000352e-01,2.665487411594285039e-01,1.000000000000000048e-04,4.101936682824411662e+01,2.300000000000000100e-01
-2.829361723179586452e+00,-5.190188390000000096e-01,3.856237162582503153e-01,1.000000000000000048e-04,4.180934038187355384e+01,3.900000000000000133e-01
-2.833706243179586082e+00,-5.260186759999999628e-01,3.158925424359577683e-01,1.000000000000000048e-04,4.139684823665529478e+01,2.200000000000000011e-01
1.286414458000000094e+00,-9.076167339999999806e-01,1.856447238199314675e-01,1.000000000000000048e-04,4.020295571328679785e+01,2.399999999999999911e-01
2.295144749999999956e+00,-1.095028292000000070e+00,1.250392942593401280e-01,1.000000000000000048e-04,3.898805106909156848e+01,2.000000000000000111e-01
2.312115046000000174e+00,-1.091482969000000081e+00,4.031348460575334691e-01,1.000000000000000048e-04,4.168823937057582896e+01,1.900000000000000022e-01
2.535381049000000164e+00,-1.063602453999999975e+00,1.808298701069110948e-01,1.000000000000000048e-04,3.961722980513082604e+01,2.600000000000000089e-01
2.549902755000000187e+00,-1.059649137999999935e+00,4.201809259962752119e-01,1.000000000000000048e-04,4.160482650133112514e+01,1.900000000000000022e-01
-2.980466121795863899e-01,1.081935794000000062e+00,1.148197393998644511e+00,1.000000000000000048e-04,4.446829871127535938e+01,1.000000000000000056e-01
-4.562223411795862660e-01,1.078420874000000085e+00,2.875494449126110297e-01,1.000000000000000048e-04,4.061408860763933149e+01,1.400000000000000133e-01
-4.727696341795866175e-01,1.076427226000000070e+00,7.237610348751233325e-01,1.000000000000000048e-04,4.321132155215362047e+01,1.900000000000000022e-01
-4.909850281795860028e-01,1.086050390999999893e+00,2.338166903753700065e-01,1.000000000000000048e-04,4.053099045798002464e+01,1.499999999999999944e-01
-1.809890014179586615e+00,8.554848849999999727e-01,4.983211613588256483e-01,1.000000000000000048e-04,4.213693210636525066e+01,1.900000000000000022e-01
-1.804843805179586091e+00,8.509932909999999850e-01,1.342035487329606092e+00,1.000000000000000048e-04,4.480326941933100926e+01,1.700000000000000122e-01
-1.798315402179586187e+00,8.389159160000000393e-01,3.481976911405630926e-01,1.000000000000000048e-04,4.120287412198185706e+01,1.100000000000000006e-01
-1.820018681179586650e+00,8.404092629999999620e-01,1.279890620643809207e+00,1.000000000000000048e-04,4.478288970919148682e+01,2.000000000000000111e-01
-2.435936564179586039e+00,3.767214549999999829e-01,1.136258936222347415e+00,1.000000000000000048e-04,4.450763489917691373e+01,1.700000000000000122e-01
-2.738532057179586143e+00,-4.670391260000000266e-01,1.338557453531545871e-01,1.000000000000000048e-04,3.889865859280312321e+01,1.100000000000000006e-01
-2.750126147179586145e+00,-4.750163370000000107e-01,1.573850160941767662e-01,1.000000000000000048e-04,3.958672683979465745e+01,1.700000000000000122e-01
6.777063359999999648e-01,-9.284162910000000046e-01,8.704890617614045034e-01,1.000000000000000048e-04,4.406219588710560231e+01,1.600000000000000033e-01
6.755664329999999662e-01,-9.242990760000000527e-01,5.104220784011272993e-01,1.000000000000000048e-04,4.229336630241082418e+01,2.200000000000000011e-01
1.666277256000000095e+00,1.035703752000000089e+00,5.011629185551211840e-01,1.000000000000000048e-04,4.204486030779226269e+01,2.800000000000000266e-01
1.679531192000000006e+00,1.034147155999999956e+00,1.135768226521427948e+00,1.000000000000000048e-04,4.451444383418326822e+01,2.099999999999999922e-01
1.669961188000000041e+00,1.045784459000000055e+00,3.195679699039772892e-01,1.000000000000000048e-04,4.101296233348541875e+01,2.899999999999999800e-01
1.666612017000000057e+00,1.035903760999999923e+00,6.594847173955182829e-01,1.000000000000000048e-04,4.312974091396350218e+01,1.400000000000000133e-01
1.676630470000000095e+00,1.049302589999999924e+00,2.377516206822096745e-01,1.000000000000000048e-04,4.029662842162955627e+01,1.600000000000000033e-01
1.678871634000000057e+00,1.037439988999999896e+00,2.445675619943730172e-01,1.000000000000000048e-04,4.055403469152490459e+01,2.099999999999999922e-01
-2.159653925179585876e+00,7.341517600000000421e-01,9.138041257291262820e-01,1.000000000000000048e-04,4.355558934263831361e+01,2.600000000000000089e-01
-2.155609593179586447e+00,7.327229189999999726e-01,7.577017033234967336e-01,1.000000000000000048e-04,4.324343974564428805e+01,1.400000000000000133e-01
2.989279821999999864e+00,-1.014333855000000062e+00,7.733083608035298262e-01,1.000000000000000048e-04,4.357641036253812672e+01,1.600000000000000033e-01
6.962963009999999509e-01,-9.242906640000000396e-01,3.672903688991002724e-01,1.000000000000000048e-04,4.126397143648344468e+01,2.000000000000000111e-01
6.831622830000000368e-01,-9.295060950000000322e-01,3.726044788105535854e-01,1.000000000000000048e-04,4.142002101181661544e+01,2.099999999999999922e-01
6.813526220000000189e-01,-9.196739680000000083e-01,8.300789485054091976e-01,1.000000000000000048e-04,4.359675578566232446e+01,1.700000000000000122e-01
1.667475545999999920e+00,1.039138789999999979e+00,8.113759230620556373e-01,1.000000000000000048e-04,4.357856088521930360e+01,1.499999999999999944e-01
1.669072946000000002e+00,1.039627206000000026e+00,8.833514245351774541e-01,1.000000000000000048e-04,4.385867751853710672e+01,1.700000000000000122e-01
2.992464221000000091e+00,-1.009427984000000000e+00,3.999486342897389246e-01,1.000000000000000048e-04,4.162536121134135669e+01,1.400000000000000133e-01
3.013377762000000182e+00,-1.015725085999999999e+00,8.457580283601353610e-01,1.000000000000000048e-04,4.367221549447270235e+01,1.499999999999999944e-01
6.857830799999999893e-01,-9.290922369999999875e-01,1.052518838380618327e+00,1.000000000000000048e-04,4.385207251321910604e+01,3.400000000000000244e-01
6.874880420000000214e-01,-9.251381180000000093e-01,6.673266493006020372e-01,1.000000000000000048e-04,4.340793761551871910e+01,1.700000000000000122e-01
1.659686511000000086e+00,1.040101345999999927e+00,3.032712504415300270e-01,1.000000000000000048e-04,4.107948989247602611e+01,1.400000000000000133e-01
1.692629780999999944e+00,1.043637506000000048e+00,3.671874122730693912e-01,1.000000000000000048e-04,4.143042716249183854e+01,1.799999999999999933e-01
1.682450028999999958e+00,1.049226146999999942e+00,3.628336622889687391e-01,1.000000000000000048e-04,4.151153954412644254e+01,1.900000000000000022e-01
1.675255906999999933e+00,1.048468626000000015e+00,3.344266272523614969e-01,1.000000000000000048e-04,4.129815050622760708e+01,1.499999999999999944e-01
1.692145135000000078e+00,1.039981480000000014e+00,3.177660135418711729e-01,1.000000000000000048e-04,4.111518226332280790e+01,1.700000000000000122e-01
-2.139768073179586061e+00,7.360294179999999908e-01,3.875301754449875791e-01,1.000000000000000048e-04,4.157712079871230060e+01,1.600000000000000033e-01
-2.138731675179585956e+00,7.369836659999999817e-01,2.006988013230606160e-01,1.000000000000000048e-04,4.008251801790100188e+01,1.499999999999999944e-01
6.888283630000000546e-01,-9.193630990000000169e-01,3.926099489668080089e-01,1.000000000000000048e-04,4.169868906900112648e+01,1.700000000000000122e-01
6.776433490000000059e-01,-9.225326109999999469e-01,1.265426390635095100e+00,1.000000000000000048e-04,4.498872156215380613e+01,1.600000000000000033e-01
6.820513620000000499e-01,-9.162569579999999547e-01,2.133839641923520603e-01,1.000000000000000048e-04,4.038752231175902807e+01,2.899999999999999800e-01
6.832637360000000104e-01,-9.208365670000000502e-01,1.209846131411169701e-01,1.000000000000000048e-04,3.881326944849206484e+01,1.400000000000000133e-01
1.683256381999999940e+00,1.050427892999999946e+00,4.427768011906123569e-01,1.000000000000000048e-04,4.201507263720849039e+01,1.499999999999999944e-01
2.987248335999999949e+00,-1.011507587000000097e+00,3.776566695962066955e-01,1.000000000000000048e-04,4.138162490668126026e+01,1.900000000000000022e-01
2.994879214000000012e+00,-1.020537374999999969e+00,5.659586311684905446e-01,1.000000000000000048e-04,4.241503783018934115e+01,2.500000000000000000e-01
2.997056848999999801e+00,-1.020797841000000039e+00,2.982717313771283685e-01,1.000000000000000048e-04,4.109901974846223993e+01,1.499999999999999944e-01
6.981827720000000070e-01,-9.201470600000000166e-01,1.953020915843399763e-01,1.000000000000000048e-04,3.977895329386264223e+01,2.099999999999999922e-01
1.675679171999999939e+00,1.042232051000000048e+00,4.772369335383523925e-01,1.000000000000000048e-04,4.211755957212229617e+01,1.900000000000000022e-01
1.682732345000000018e+00,1.051774148000000020e+00,3.408751239035965330e-01,1.000000000000000048e-04,4.141034148619240796e+01,2.099999999999999922e-01
1.655763980999999996e+00,1.041789395999999979e+00,5.882360680968419242e-01,1.000000000000000048e-04,4.272375444210812390e+01,2.099999999999999922e-01
1.658505131999999938e+00,1.042043577999999915e+00,1.948010356356792983e-01,1.000000000000000048e-04,3.983215708743075822e+01,1.499999999999999944e-01
1.679931540999999973e+00,1.044700675999999939e+00,2.682025713119631227e-01,1.000000000000000048e-04,4.073929240851456512e+01,1.400000000000000133e-01
1.681131209999999987e+00,1.046558263000000100e+00,1.140095337405038656e+00,1.000000000000000048e-04,4.459274966503065230e+01,3.800000000000000044e-01
-2.147380102179586636e+00,7.248191320000000326e-01,3.283605520614429896e-01,1.000000000000000048e-04,4.100870394973118493e+01,2.200000000000000011e-01
-2.137481690179586558e+00,7.386978770000000027e-01,3.396194335764908256e-01,1.000000000000000048e-04,4.129436813524841199e+01,1.499999999999999944e-01
3.007533192999999994e+00,-1.006434849999999992e+00,1.804112219915323667e-01,1.000000000000000048e-04,3.996061388322934249e+01,1.700000000000000122e-01
6.766177190000000063e-01,-9.309161569999999664e-01,2.868979472763280025e-01,1.000000000000000048e-04,4.055351189768690290e+01,1.700000000000000122e-01
6.879719020000000240e-01,-9.170357009999999809e-01,4.876477316143434937e-01,1.000000000000000048e-04,4.233088425776564634e+01,2.600000000000000089e-01
6.868192690000000100e-01,-9.190749710000000183e-01,9.777009591763512475e-01,1.000000000000000048e-04,4.382997618972883913e+01,2.800000000000000266e-01
1.680927606000000019e+00,1.043199457999999913e+00,4.603022811304766648e-01,1.000000000000000048e-04,4.263678266395411498e+01,1.799999999999999933e-01
1.680733408999999901e+00,1.046110547000000057e+00,3.637714599978918439e-01,1.000000000000000048e-04,4.147227798896489759e+01,1.499999999999999944e-01
3.003205794999999956e+00,-1.007960921000000010e+00,7.463236462489586387e-01,1.000000000000000048e-04,4.357179256304794279e+01,2.200000000000000011e-01
3.013387552999999830e+00,-1.018013843000000085e+00,1.307777474888071723e+00,1.000000000000000048e-04,4.523090974937444741e+01,2.000000000000000111e-01
2.991633154000000072e+00,-1.018575491000000000e+00,3.986202737856017198e-01,1.000000000000000048e-04,4.177951973143061082e+01,1.600000000000000033e-01
6.810583510000000063e-01,-9.216344210000000370e-01,2.452845622262727066e-01,1.000000000000000048e-04,4.080686810676041887e+01,1.600000000000000033e-01
1.670069762000000013e+00,1.048284639000000018e+00,5.096627852304376205e-01,1.000000000000000048e-04,4.231437813181727847e+01,2.099999999999999922e-01
1.699713636000000028e+00,1.040243690999999915e+00,2.557681194663614654e-01,1.000000000000000048e-04,4.097673661435490544e+01,2.899999999999999800e-01
1.686195045999999920e+00,1.048540513999999924e+00,1.482910298792670112e-01,1.000000000000000048e-04,3.937991295668812342e+01,1.400000000000000133e-01
1.667162669999999958e+00,1.044746053999999980e+00,1.996349296025934361e-01,1.000000000000000048e-04,4.000601496411805869e+01,2.700000000000000178e-01
1.689467040999999892e+00,1.036330184999999959e+00,1.903747470678991416e-01,1.000000000000000048e-04,4.009019329654955754e+01,1.300000000000000044e-01
1.683799076999999977e+00,1.043385784000000038e+00,5.256980634455323820e-01,1.000000000000000048e-04,4.232653455714247315e+01,1.700000000000000122e-01
-2.151455832179586025e+00,7.398983139999999459e-01,2.998101285667276183e-01,1.000000000000000048e-04,4.104395926244825432e+01,2.500000000000000000e-01
-2.141944958179585967e+00,7.302793560000000461e-01,4.129417169157125755e-01,1.000000000000000048e-04,4.189277179027209286e+01,1.400000000000000133e-01
3.012489310999999947e+00,-1.019874449000000016e+00,2.863042115424443423e-01,1.000000000000000048e-04,4.063540003127523903e+01,1.900000000000000022e-01
6.824463880000000149e-01,-9.193269539999999740e-01,3.128975509523688192e-01,1.000000000000000048e-04,4.098156548812338684e+01,1.600000000000000033e-01
6.933168330000000212e-01,-9.307474239999999899e-01,4.347174191342528804e-01,1.000000000000000048e-04,4.177892407749811809e+01,1.600000000000000033e-01
7.005346909999999871e-01,-9.247541049999999929e-01,7.531576599979818987e-01,1.000000000000000048e-04,4.351991796504530896e+01,2.700000000000000178e-01
1.674988617999999985e+00,1.042237757999999959e+00,5.372661231580742047e-01,1.000000000000000048e-04,4.261821624367478023e+01,1.499999999999999944e-01
1.672026148000000045e+00,1.039374368000000048e+00,2.124199453100745760e-01,1.000000000000000048e-04,4.025497712403873152e+01,1.600000000000000033e-01
2.993618983999999816e+00,-1.008517228000000099e+00,7.905961783306001411e-01,1.000000000000000048e-04,4.363989334814507259e+01,1.700000000000000122e-01
2.992837709999999873e+00,-1.014889098000000045e+00,2.739996476273931503e-01,1.000000000000000048e-04,4.105599043088361100e+01,2.800000000000000266e-01
2.980621672999999916e+00,-1.012535224000000067e+00,2.541060480453734005e-01,1.000000000000000048e-04,4.057507223668779517e+01,1.499999999999999944e-01
3.118379398000000080e+00,-1.044341935000000055e+00,3.801670584380201223e-01,1.000000000000000048e-04,4.188537395050972378e+01,3.099999999999999978e-01
3.132904315000000217e+00,-1.046896950999999909e+00,4.191206841122439020e-01,1.000000000000000048e-04,4.180750649655469431e+01,2.200000000000000011e-01
1.248659997999999938e+00,-1.117162079000000086e+00,9.643987747821975987e-01,1.000000000000000048e-04,4.437956745196769504e+01,2.700000000000000178e-01
2.302446713000000145e+00,-1.091359299000000060e+00,3.326424048178562298e-01,1.000000000000000048e-04,4.118526804060630297e+01,2.899999999999999800e-01
3.133486173000000097e+00,-1.061461677999999909e+00,7.816196468836325018e-01,1.000000000000000048e-04,4.354096658889596938e+01,3.099999999999999978e-01
1.251013366000000016e+00,-1.102704651999999896e+00,3.822914371421586299e-01,1.000000000000000048e-04,4.186872869286641929e+01,2.300000000000000100e-01
1.232341668999999973e+00,-1.105349812000000043e+00,2.336937506123044628e-01,1.000000000000000048e-04,4.014294902332070336e+01,2.200000000000000011e-01
2.330538756999999794e+00,-1.086213730999999960e+00,1.321292178812738971e+00,1.000000000000000048e-04,4.489068044316218931e+01,2.300000000000000100e-01
3.104372880000000112e+00,-1.050765708999999992e+00,1.535036321590452779e-01,1.000000000000000048e-04,3.906939257691849576e+01,2.200000000000000011e-01
3.122794933000000217e+00,-1.050942575000000101e+00,4.364778508842579452e-01,1.000000000000000048e-04,4.165263541393452584e+01,2.099999999999999922e-01
3.135928428000000157e+00,-1.044986675000000087e+00,1.718420114653291808e-01,1.000000000000000048e-04,3.950995807770762269e+01,2.300000000000000100e-01
3.135701593999999925e+00,-1.049448040999999998e+00,5.982751951166380699e-01,1.000000000000000048e-04,4.282975018410682821e+01,2.399999999999999911e-01
2.902190216000000156e+00,-1.054666754000000095e+00,1.332057999974068707e+00,1.000000000000000048e-04,4.530096381460304400e+01,2.099999999999999922e-01
1.219278212000000083e+00,-1.102494101000000004e+00,6.009246574439404132e-01,1.000000000000000048e-04,4.283790601791905317e+01,2.399999999999999911e-01
2.314258420999999899e+00,-1.073777474999999981e+00,1.901012098709315978e-01,1.000000000000000048e-04,3.987658888422468095e+01,2.399999999999999911e-01
3.138600745000000192e+00,-1.056209613999999908e+00,1.393551276749722678e-01,1.000000000000000048e-04,3.904259385890895828e+01,2.800000000000000266e-01
2.873014373000000177e+00,-1.047336534999999902e+00,2.006825567598666815e-01,1.000000000000000048e-04,3.987500174601763803e+01,2.000000000000000111e-01
2.890150627000000139e+00,-1.045368942999999939e+00,7.310658627863020342e-01,1.000000000000000048e-04,4.324518550088114921e+01,2.200000000000000011e-01
-3.136513490179586139e+00,-1.038988312000000080e+00,5.320720367982700871e-01,1.000000000000000048e-04,4.246453133725756146e+01,2.800000000000000266e-01
3.120369102000000172e+00,-1.042910143999999928e+00,4.678170286631311292e-01,1.000000000000000048e-04,4.233078117990413602e+01,2.399999999999999911e-01
3.132773262000000170e+00,-1.048570620000000009e+00,9.481249089795888985e-01,1.000000000000000048e-04,4.371338261371047196e+01,2.300000000000000100e-01
3.132934141999999866e+00,-1.046888051000000042e+00,1.103986240802572460e+00,1.000000000000000048e-04,4.436268828699337519e+01,2.200000000000000011e-01
3.134455274000000014e+00,-1.046257098000000108e+00,3.319436730310805217e-01,1.000000000000000048e-04,4.122267701599713519e+01,2.200000000000000011e-01
2.910504301000000016e+00,-1.063930792999999930e+00,2.742162402102379382e-01,1.000000000000000048e-04,4.057928997129989312e+01,2.399999999999999911e-01
2.301930878999999930e+00,-1.084305269999999988e+00,5.829771215689090180e-01,1.000000000000000048e-04,4.257637367522582394e+01,3.099999999999999978e-01
2.314913878000000036e+00,-1.104421796000000011e+00,7.154639447154484966e-01,1.000000000000000048e-04,4.321810315951942272e+01,2.600000000000000089e-01
1.232494258000000009e+00,-1.089556776000000005e+00,4.602491324928528194e-01,1.000000000000000048e-04,4.227383499941034017e+01,3.099999999999999978e-01
-3.138875270179586341e+00,-1.027091259999999950e+00,4.606173919311951082e-01,1.000000000000000048e-04,4.203673529738211556e+01,3.800000000000000044e-01
1.277748142000000087e+00,-1.105660628999999950e+00,2.634931932937840671e-01,1.000000000000000048e-04,4.033963229213971147e+01,2.500000000000000000e-01
2.339694710999999927e+00,-1.083680948999999893e+00,1.502627547140578113e-01,1.000000000000000048e-04,3.961493596682374374e+01,2.300000000000000100e-01
3.085408954000000037e+00,-1.045989441999999991e+00,1.032175886010768817e+00,1.000000000000000048e-04,4.402019935007250950e+01,2.800000000000000266e-01
3.122183823999999941e+00,-1.053540683000000033e+00,2.139398035063024839e-01,1.000000000000000048e-04,4.048212512339247837e+01,3.699999999999999956e-01
1.263417701000000060e+00,-1.099941301000000093e+00,3.191088219886191180e-01,1.000000000000000048e-04,4.126781449580590788e+01,2.200000000000000011e-01
1.238769020999999970e+00,-1.122513239999999968e+00,5.585446027886977749e-01,1.000000000000000048e-04,4.278115142292294593e+01,2.600000000000000089e-01
1.225778744000000087e+00,-1.107856694000000086e+00,1.308467912257811339e-01,1.000000000000000048e-04,3.899014270075132060e+01,2.500000000000000000e-01
2.356185176999999964e+00,-1.090954028000000076e+00,4.135826259952768424e-01,1.000000000000000048e-04,4.214306995529739908e+01,2.700000000000000178e-01
1.231078855000000027e+00,-1.109460918999999990e+00,3.150491246314406357e-01,1.000000000000000048e-04,4.137703767335765548e+01,2.300000000000000100e-01
2.350025410999999842e+00,-1.078254897999999962e+00,3.058738719403872874e-01,1.000000000000000048e-04,4.075092405545102281e+01,2.300000000000000100e-01
2.889344674999999807e+00,-1.054064458000000037e+00,3.847158260982963540e-01,1.000000000000000048e-04,4.191789140459387397e+01,3.200000000000000067e-01
1.260972444000000081e+00,-1.102168519999999985e+00,1.033519935330016182e+00,1.000000000000000048e-04,4.403313777972251586e+01,2.899999999999999800e-01
3.138597202000000141e+00,-1.049455424000000026e+00,2.190450425957173319e-01,1.000000000000000048e-04,4.046392742524713526e+01,2.600000000000000089e-01
1.280173519000000093e+00,-1.106045986000000036e+00,2.681658971891487386e-01,1.000000000000000048e-04,4.044780052666680348e+01,2.899999999999999800e-01
3.140421104000000074e+00,-1.048273016000000002e+00,1.202240856968956884e-01,1.000000000000000048e-04,3.898847610817019671e+01,2.700000000000000178e-01
2.887571490000000018e+00,-1.060290981000000077e+00,7.636218542453556690e-01,1.000000000000000048e-04,4.333977869476424871e+01,2.300000000000000100e-01
3.117377486000000086e+00,-1.048849812999999909e+00,2.739608668803159564e-01,1.000000000000000048e-04,4.049016918105257190e+01,2.800000000000000266e-01
3.139331405000000075e+00,-1.045946368000000071e+00,6.073915707508508177e-01,1.000000000000000048e-04,4.264240195994680960e+01,2.300000000000000100e-01
2.901812189000000153e+00,-1.070407117000000019e+00,5.655382085407330006e-01,1.000000000000000048e-04,4.227307516646541785e+01,2.200000000000000011e-01
2.874698792999999863e+00,-1.069280417999999955e+00,6.795390365456066561e-01,1.000000000000000048e-04,4.261101280829991111e+01,2.200000000000000011e-01
3.126790450000000110e+00,-1.053686536000000062e+00,2.120353386215012570e-01,1.000000000000000048e-04,4.011008219876070058e+01,2.099999999999999922e-01
1.253234667999999941e+00,-1.096167120000000050e+00,8.844348720483552473e-01,1.000000000000000048e-04,4.398230422699842990e+01,2.200000000000000011e-01
1.242189800000000011e+00,-1.095888138000000067e+00,1.901293278701610134e-01,1.000000000000000048e-04,3.932810170576868813e+01,2.899999999999999800e-01
2.358704259000000025e+00,-1.096119858000000002e+00,1.044662561720306471e+00,1.000000000000000048e-04,4.441819671732206842e+01,2.099999999999999922e-01
3.090657074000000115e+00,-1.046905049999999893e+00,4.342439770247930042e-01,1.000000000000000048e-04,4.176011521450271147e+01,2.300000000000000100e-01
2.350320292999999783e+00,-1.077642637000000070e+00,5.692784975794200619e-01,1.000000000000000048e-04,4.264741903456762628e+01,3.300000000000000155e-01
3.120911620999999858e+00,-1.047605429999999949e+00,9.343113448498758800e-01,1.000000000000000048e-04,4.342270639941180121e+01,2.899999999999999800e-01
2.310418793000000193e+00,-1.091478047999999923e+00,7.961845546534966900e-01,1.000000000000000048e-04,4.330238373087073001e+01,3.300000000000000155e-01
2.888242410000000149e+00,-1.055260810999999910e+00,4.152098760739539873e-01,1.000000000000000048e-04,4.147942217172190027e+01,2.999999999999999889e-01
2.313880778000000138e+00,-1.089056457000000089e+00,4.590621358884141578e-01,1.000000000000000048e-04,4.264400753926990006e+01,2.600000000000000089e-01
3.096505394999999883e+00,-1.050897790999999915e+00,4.224019253291988463e-01,1.000000000000000048e-04,4.110066872287190165e+01,3.300000000000000155e-01
1.264206060000000020e+00,-1.108314516000000083e+00,2.555580348808712543e-01,1.000000000000000048e-04,4.074552075569697251e+01,2.500000000000000000e-01
2.317080779999999951e+00,-1.080569537999999996e+00,1.145904504076711294e-01,1.000000000000000048e-04,3.879361997421297303e+01,2.399999999999999911e-01
2.308161032000000112e+00,-1.080284865999999955e+00,6.661511558013597512e-01,1.000000000000000048e-04,4.284939851648348963e+01,3.900000000000000133e-01
1.213089824000000094e+00,-1.095999417000000031e+00,1.882668092495070056e-01,1.000000000000000048e-04,3.983588670682747335e+01,2.700000000000000178e-01
3.095344697999999894e+00,-1.044259242999999948e+00,1.827545561910866034e-01,1.000000000000000048e-04,3.964841127566946000e+01,2.200000000000000011e-01
3.093500166000000107e+00,-1.047656949999999920e+00,1.514694327309731303e-01,1.000000000000000048e-04,3.952934981522009394e+01,2.300000000000000100e-01
2.871266652000000086e+00,-1.064917746999999970e+00,1.290827294684953053e-01,1.000000000000000048e-04,3.898404709300556448e+01,2.500000000000000000e-01
2.872879009000000039e+00,-1.076645507999999918e+00,2.364151190147385506e-01,1.000000000000000048e-04,4.081166514200581474e+01,2.099999999999999922e-01
1.241294699000000001e+00,-1.109043570000000090e+00,7.063338348961705204e-01,1.000000000000000048e-04,4.298528359832558010e+01,2.099999999999999922e-01
1.238788393000000099e+00,-1.083197141000000085e+00,1.618375364614121903e-01,1.000000000000000048e-04,3.958239292966566580e+01,2.999999999999999889e-01
-3.140928712179586135e+00,-1.049943351000000025e+00,2.653618905063954703e-01,1.000000000000000048e-04,4.066757792586859921e+01,2.200000000000000011e-01
2.897074545000000168e+00,-1.050668165000000043e+00,1.266721994192419043e-01,1.000000000000000048e-04,3.895720271802195356e+01,2.099999999999999922e-01
3.133488720999999977e+00,-1.053899826000000095e+00,3.367416684814947825e-01,1.000000000000000048e-04,4.111676225821649666e+01,2.300000000000000100e-01
2.854965548000000020e+00,-1.051119023000000041e+00,3.711018133911998529e-01,1.000000000000000048e-04,4.188395016842027729e+01,3.200000000000000067e-01
2.846666281000000076e+00,-1.061494909000000098e+00,6.417733234469251702e-01,1.000000000000000048e-04,4.333004501831392474e+01,2.600000000000000089e-01
1.477625364000000108e+00,-9.892628350000000070e-01,7.158824983445983836e-01,1.000000000000000048e-04,4.327697669691017524e+01,2.000000000000000111e-01
-2.998301261179586064e+00,-5.567642400000000213e-01,2.487025309870922740e-01,1.000000000000000048e-04,4.056510375713473593e+01,1.799999999999999933e-01
2.915910107000000195e+00,-9.248875840000000403e-01,1.209390157957950240e-01,1.000000000000000048e-04,3.886579614612249856e+01,2.999999999999999889e-01
2.904218159000000021e+00,-9.279150130000000107e-01,2.368839493516006200e-01,1.000000000000000048e-04,4.028919019837604054e+01,2.399999999999999911e-01
2.945746643000000109e+00,-9.241091030000000428e-01,1.332475311590288758e-01,1.000000000000000048e-04,3.927285400013393968e+01,2.300000000000000100e-01
2.195221751000000054e+00,9.567984520000000215e-01,7.246055310079655420e-01,1.000000000000000048e-04,4.347802970211137819e+01,2.200000000000000011e-01
-2.382074272179586227e+00,-9.504311730000000180e-01,8.109678502893780117e-01,1.000000000000000048e-04,4.356143096250912805e+01,2.300000000000000100e-01
2.197803225999999999e+00,9.560313849999999558e-01,9.824129762462505688e-01,1.000000000000000048e-04,4.441536563781331637e+01,2.300000000000000100e-01
-2.380846050179586282e+00,-9.512843520000000552e-01,7.523018361097084661e-01,1.000000000000000048e-04,4.307552009087060441e+01,2.600000000000000089e-01
-2.382960995179586039e+00,-9.501026420000000527e-01,5.989943824483476842e-01,1.000000000000000048e-04,4.271096461071442718e+01,2.099999999999999922e-01
2.192165822000000208e+00,9.554729659999999791e-01,3.357886875973123963e-01,1.000000000000000048e-04,4.137791797556293716e+01,2.899999999999999800e-01
-2.383512939179586176e+00,-9.505219620000000535e-01,7.944308757073825777e-01,1.000000000000000048e-04,4.395831414864314723e+01,2.000000000000000111e-01
2.197044292000000176e+00,9.582492320000000063e-01,2.074395967696314180e-01,1.000000000000000048e-04,4.016461167952708422e+01,2.500000000000000000e-01
2.198013217999999824e+00,9.570721989999999568e-01,7.917102680295426964e-01,1.000000000000000048e-04,4.352941066051181451e+01,2.099999999999999922e-01
2.198391541999999976e+00,9.561199929999999458e-01,8.887865214947219261e-01,1.000000000000000048e-04,4.404990574038358631e+01,2.300000000000000100e-01
2.199218732999999926e+00,9.570277640000000030e-01,2.089361396590208031e-01,1.000000000000000048e-04,3.978969556584952016e+01,2.200000000000000011e-01
2.196667974999999995e+00,9.569524729999999701e-01,5.443835245480601603e-01,1.000000000000000048e-04,4.283659999541301744e+01,2.399999999999999911e-01
2.196400267000000017e+00,9.571105250000000453e-01,5.169889180237663417e-01,1.000000000000000048e-04,4.279247650418174231e+01,2.500000000000000000e-01
2.195980999000000100e+00,9.563170869999999546e-01,2.335570412036358512e-01,1.000000000000000048e-04,4.043850245711136182e+01,2.200000000000000011e-01
2.198886345000000020e+00,9.574225640000000315e-01,3.674776239528105837e-01,1.000000000000000048e-04,4.110401868697410777e+01,3.300000000000000155e-01
-2.382942164179586264e+00,-9.487821469999999646e-01,4.838844980356415970e-01,1.000000000000000048e-04,4.198949380747198035e+01,2.000000000000000111e-01
2.197058621000000045e+00,9.568337070000000333e-01,2.122770064761629882e-01,1.000000000000000048e-04,4.013769547759507361e+01,2.600000000000000089e-01
2.196754174000000059e+00,9.569828230000000380e-01,1.808986742853082585e-01,1.000000000000000048e-04,3.979294012887139331e+01,2.399999999999999911e-01
-2.381905888179586039e+00,-9.494029419999999719e-01,2.532160474375408921e-01,1.000000000000000048e-04,4.067669421677546637e+01,2.399999999999999911e-01
-2.382353656179586388e+00,-9.501919130000000546e-01,1.011439620222593927e+00,1.000000000000000048e-04,4.403098315834953524e+01,2.600000000000000089e-01
-2.385313647179586383e+00,-9.492824659999999914e-01,2.712249976554621522e-01,1.000000000000000048e-04,4.075583709200688531e+01,2.399999999999999911e-01
-2.383308463179586223e+00,-9.502672559999999491e-01,5.592508250347534293e-01,1.000000000000000048e-04,4.261668771778872866e+01,2.000000000000000111e-01
2.194446376000000143e+00,9.548028840000000184e-01,4.785394578760027162e-01,1.000000000000000048e-04,4.182058310536480406e+01,3.699999999999999956e-01
-2.377678389179586294e+00,-9.493284189999999789e-01,5.278149772858076183e-01,1.000000000000000048e-04,4.205348255329203511e+01,3.099999999999999978e-01
2.195048706000000127e+00,9.553664520000000326e-01,7.749147091361530126e-01,1.000000000000000048e-04,4.346260348315638566e+01,2.399999999999999911e-01
2.194988459000000169e+00,9.569281090000000267e-01,2.711895063380720394e-01,1.000000000000000048e-04,4.077725875651484699e+01,2.099999999999999922e-01
2.198773670000000013e+00,9.585742720000000050e-01,7.694375767322303439e-01,1.000000000000000048e-04,4.343920550481762177e+01,2.800000000000000266e-01
2.196007632000000154e+00,9.574002940000000406e-01,5.981843438164551330e-01,1.000000000000000048e-04,4.274059149697262683e+01,2.800000000000000266e-01
2.193610842000000005e+00,9.569156829999999614e-01,4.890912169483567773e-01,1.000000000000000048e-04,4.208960457050319803e+01,2.099999999999999922e-01
2.194846306000000080e+00,9.574700699999999509e-01,5.162051925012147713e-01,1.000000000000000048e-04,4.198262148444067776e+01,2.300000000000000100e-01
-2.901318991795864832e-01,1.086903570000000041e+00,7.536609539725505069e-01,1.000000000000000048e-04,4.329041837023404327e+01,2.000000000000000111e-01
-2.914486071795865385e-01,1.085909494999999891e+00,1.402677201830353493e-01,1.000000000000000048e-04,3.908696412140144361e+01,1.000000000000000056e-01
-2.954610881795858290e-01,1.084462065999999947e+00,1.967747139079665253e-01,1.000000000000000048e-04,3.994259782390133751e+01,1.199999999999999956e-01
-3.403197011795864313e-01,1.090760651000000081e+00,4.177759667808444988e-01,1.000000000000000048e-04,4.164546133389087146e+01,8.999999999999999667e-02
-3.429455761795860980e-01,1.087892671000000089e+00,5.513381887147046356e-01,1.000000000000000048e-04,4.264579526241234220e+01,1.400000000000000133e-01
6.896152909999999636e-01,-9.249195220000000495e-01,5.816746806287194094e-01,1.000000000000000048e-04,4.271397222513411407e+01,2.000000000000000111e-01
1.024453132999999960e+00,1.182715689999999986e+00,3.602036643069328470e-01,1.000000000000000048e-04,4.139318602951853876e+01,1.900000000000000022e-01
1.006083177000000051e+00,1.165244638999999971e+00,2.409068828044622634e-01,1.000000000000000048e-04,4.012682970333504073e+01,1.700000000000000122e-01
9.905969959999999519e-01,1.153001898999999941e+00,7.196778620741568488e-01,1.000000000000000048e-04,4.311192886922151501e+01,3.499999999999999778e-01
2.950804928999999799e+00,-1.010655210999999998e+00,5.027501791975450551e-01,1.000000000000000048e-04,4.211061183157328713e+01,1.700000000000000122e-01
2.951637304000000128e+00,-1.010683065999999908e+00,8.073258754023755479e-01,1.000000000000000048e-04,4.358246033606345549e+01,1.900000000000000022e-01
-2.349248843179586377e+00,-9.322901449999999590e-01,3.094851588839369061e-01,1.000000000000000048e-04,4.109689740974178562e+01,1.900000000000000022e-01
