-9.998065405149842988e-01,8.105679643032348558e-01,3.874114711923033472e-01,1.000000000000000048e-04,4.153114243217836332e+01,1.700000000000000122e-01
2.455397106543337316e+00,1.043729744100095669e+00,3.039884867561502002e-01,1.000000000000000048e-04,4.095805214414400552e+01,1.600000000000000033e-01
-2.383432734536383713e+00,-3.065828049141505751e-01,1.141161528810682668e+00,1.000000000000000048e-04,4.452904097039672138e+01,1.600000000000000033e-01
5.986385082384857448e-01,-5.854997838767580509e-01,9.632718347248103719e-01,1.000000000000000048e-04,4.407938555257938162e+01,1.600000000000000033e-01
9.004351747798500227e-01,3.034302850373173932e-01,1.574698344385487836e-01,1.000000000000000048e-04,3.945804662234352378e+01,1.900000000000000022e-01
-1.368046558809749680e+00,1.886454540764912480e-01,2.312381015404723072e-01,1.000000000000000048e-04,4.055052958171506106e+01,1.600000000000000033e-01
1.261320659818504275e+00,-1.362936647156878234e-01,6.679656064671863902e-01,1.000000000000000048e-04,4.313394246983743585e+01,1.700000000000000122e-01
-2.176754088459440517e-01,-9.172643674268732283e-03,3.095346149377582456e-01,1.000000000000000048e-04,4.108637824452133458e+01,1.600000000000000033e-01
-1.510656427684706316e+00,2.614743969600270557e-01,1.296233825575043852e-01,1.000000000000000048e-04,3.933004688731580245e+01,1.600000000000000033e-01
-6.017962452529950212e-01,-5.876410017793931573e-02,1.953019016858268397e-01,1.000000000000000048e-04,4.000442197659941712e+01,2.200000000000000011e-01
-3.124722352783653179e+00,8.897791797552669912e-01,3.096506865026642519e-01,1.000000000000000048e-04,4.099901760792970151e+01,8.999999999999999667e-02
1.903722078004801865e+00,4.080182599185766534e-01,8.090844451511174373e-01,1.000000000000000048e-04,4.376249055322515602e+01,8.000000000000000167e-02
-1.558740462771550428e+00,-9.099156374093064770e-02,9.161853304833096345e-01,1.000000000000000048e-04,4.403165324769646105e+01,1.100000000000000006e-01
2.466216332166107250e+00,-7.143214841601848164e-01,2.939281455059554737e-01,1.000000000000000048e-04,4.071345287314183992e+01,1.600000000000000033e-01
1.898674206175249068e+00,4.098765346849668756e-01,9.075862161017225205e-01,1.000000000000000048e-04,4.397458411086433472e+01,1.300000000000000044e-01
-9.146323579549684446e-01,-1.482476584794838015e+00,1.156040193669290339e+00,1.000000000000000048e-04,4.445057187013348710e+01,8.999999999999999667e-02
1.510013345177526389e+00,1.442882643961357569e+00,1.071508640162915249e+00,1.000000000000000048e-04,4.417465679481575336e+01,2.099999999999999922e-01
-4.946363511807572166e-02,1.867380790225037224e-02,1.980180042227801529e-01,1.000000000000000048e-04,4.012568200706491695e+01,1.799999999999999933e-01
1.685225603811415063e+00,4.095283695818632275e-01,1.001068542699758090e+00,1.000000000000000048e-04,4.397129490580024225e+01,1.600000000000000033e-01
1.799558336636137845e-01,3.967702521774081337e-01,2.239028160174747484e-01,1.000000000000000048e-04,4.031648996357422732e+01,1.799999999999999933e-01
2.515941815716129071e+00,-8.460163025825242489e-01,3.564426507548787981e-01,1.000000000000000048e-04,4.162096890877462130e+01,1.600000000000000033e-01
-3.950441335864915970e-01,-1.192321843210817134e+00,3.718260449703461035e-01,1.000000000000000048e-04,4.147035358146540318e+01,2.000000000000000111e-01
-2.433139444318895173e+00,-2.760289964850388689e-01,5.259396386513910393e-01,1.000000000000000048e-04,4.212456571344575451e+01,1.700000000000000122e-01
-1.037750119980903385e+00,-8.664633305613077541e-01,2.033630134675996626e-01,1.000000000000000048e-04,4.025553631259302989e+01,1.700000000000000122e-01
2.880399849724803119e+00,3.108078848439421726e-02,1.078321512985421116e+00,1.000000000000000048e-04,4.442800886462515564e+01,1.700000000000000122e-01
-1.879062274584760051e+00,5.117928968433460568e-01,3.152782385954568944e-01,1.000000000000000048e-04,4.118435844137183466e+01,2.000000000000000111e-01
-2.272831160079572754e+00,6.408368933435544257e-01,7.571147066763752598e-01,1.000000000000000048e-04,4.347847670803451336e+01,1.900000000000000022e-01
-2.440615760268023848e+00,8.677574404558185961e-02,3.766129422482298317e-01,1.000000000000000048e-04,4.183354549711690140e+01,1.700000000000000122e-01
-1.662915959133765886e+00,-3.971943531109662917e-01,3.119984693282353838e-01,1.000000000000000048e-04,4.097630667856447673e+01,1.000000000000000056e-01
7.402986398924742417e-01,-8.093068507334475470e-01,4.774758098169069598e-01,1.000000000000000048e-04,4.215803310588163555e+01,1.000000000000000056e-01
-1.144463266594359041e+00,-1.184415768549564207e+00,2.025084919825708152e-01,1.000000000000000048e-04,4.015416738807720520e+01,1.100000000000000006e-01
-1.909164851147306941e+00,-1.732002940092745025e-01,1.528356295240445029e-01,1.000000000000000048e-04,3.930025841030533940e+01,1.199999999999999956e-01
-4.191345691353727254e-01,-8.605373923281219861e-01,2.589455871358552486e-01,1.000000000000000048e-04,4.051695809407119242e+01,1.300000000000000044e-01
-2.686459658157734687e+00,1.165976655009365537e+00,2.826441413021048010e-01,1.000000000000000048e-04,4.085719827078804656e+01,1.199999999999999956e-01
-2.374245664411089862e-01,-1.408605929765038844e-01,5.014067254592697864e-01,1.000000000000000048e-04,4.225810677451191566e+01,1.499999999999999944e-01
-1.519782537648815657e+00,-4.956292821321457431e-01,2.227111990237800043e-01,1.000000000000000048e-04,4.006002717583115214e+01,2.200000000000000011e-01
3.021143120231913670e+00,-7.114501741508946209e-01,3.254438819726570564e-01,1.000000000000000048e-04,4.142080557790201567e+01,1.199999999999999956e-01
1.268329382663691440e+00,1.145848213475240573e+00,1.922272656601748952e-01,1.000000000000000048e-04,4.002021519424183538e+01,1.600000000000000033e-01
3.138687960231470342e+00,-1.051773608344643840e+00,5.077190656900891774e-01,1.000000000000000048e-04,4.244214360073753056e+01,2.200000000000000011e-01
-2.086605164763982945e+00,1.060538858778334870e-01,6.305510619386531790e-01,1.000000000000000048e-04,4.298175095539576063e+01,2.200000000000000011e-01
1.005636840919471808e+00,-1.689097143914179977e-01,2.214900085134627883e-01,1.000000000000000048e-04,4.037400591925727866e+01,1.300000000000000044e-01
-1.567867607745121683e+00,1.320455939895290864e+00,2.079316004617413061e-01,1.000000000000000048e-04,4.007325560870318526e+01,1.600000000000000033e-01
-2.652961550200841678e+00,5.519647474945830190e-01,3.039628995804961598e-01,1.000000000000000048e-04,4.107633969082397840e+01,2.099999999999999922e-01
-2.331315064123286263e+00,3.264828724334403187e-01,3.015489275200518016e-01,1.000000000000000048e-04,4.097289624315931178e+01,2.000000000000000111e-01
1.550527601387532428e+00,1.117284290196348451e+00,9.931277334297599069e-01,1.000000000000000048e-04,4.404338350658600376e+01,2.000000000000000111e-01
3.231251902684442179e-01,7.291281023164635222e-01,3.442601188046283678e-01,1.000000000000000048e-04,4.103351489219038939e+01,2.500000000000000000e-01
6.003268101599585904e-01,4.567887537922343810e-01,6.567980815190130883e-01,1.000000000000000048e-04,4.308658254971332013e+01,2.200000000000000011e-01
1.241902241088323144e+00,-8.045463443830006556e-01,6.413958331211293551e-01,1.000000000000000048e-04,4.307242186967081921e+01,1.199999999999999956e-01
-4.263997368465397564e-01,7.557689050742388837e-01,5.015714714063970181e-01,1.000000000000000048e-04,4.201072310919946062e+01,1.400000000000000133e-01
2.443295822970791065e+00,2.211128324679070278e-01,4.301202341284886543e-01,1.000000000000000048e-04,4.179241594123536174e+01,1.400000000000000133e-01
5.201266746917947437e-01,3.555971898837029244e-01,1.395553265318745240e-01,1.000000000000000048e-04,3.937403719092367282e+01,1.100000000000000006e-01
1.171159131514548868e+00,4.882484877259467559e-01,3.722397222512026094e-01,1.000000000000000048e-04,4.153506186285284940e+01,1.199999999999999956e-01
2.450432168682460166e+00,5.395974747557130691e-01,3.675579799261854408e-01,1.000000000000000048e-04,4.163694143422405602e+01,2.000000000000000111e-01
-9.592850451127135081e-01,3.717279876202059796e-01,3.548346673385920358e-01,1.000000000000000048e-04,4.123359266502898635e+01,1.199999999999999956e-01
-1.508268648994048888e+00,-2.999058722844369917e-01,2.453620678908807751e-01,1.000000000000000048e-04,4.082607538422370652e+01,1.499999999999999944e-01
-2.706386317429974486e+00,3.264176886718270776e-01,2.187721770664561305e-01,1.000000000000000048e-04,4.028040743090887332e+01,1.499999999999999944e-01
-2.329948176595098008e+00,-5.866837595409906125e-01,7.657330342826993430e-01,1.000000000000000048e-04,4.335308503831982563e+01,1.100000000000000006e-01
-4.952082537466742096e-01,-3.188842989077005363e-01,7.679678530011804227e-01,1.000000000000000048e-04,4.369415290683211595e+01,1.199999999999999956e-01
-1.397198602513833876e-01,-8.068612676269457662e-01,2.415099203741559730e-01,1.000000000000000048e-04,4.022122661002320854e+01,1.300000000000000044e-01
-1.648760812596874459e-01,6.014094509548000289e-01,3.913626487993311365e-01,1.000000000000000048e-04,4.155948424440861544e+01,1.300000000000000044e-01
1.753917212534197745e+00,-1.332245135465665919e+00,2.340154406735757142e-01,1.000000000000000048e-04,4.030576089230391545e+01,1.100000000000000006e-01
1.584937262242740452e+00,7.529076672748495902e-01,2.420158175984716831e-01,1.000000000000000048e-04,4.036809590689949800e+01,1.600000000000000033e-01
-6.113374576812842243e-01,-1.409959347475187030e-02,3.607549524669657615e-01,1.000000000000000048e-04,4.138342459562476705e+01,1.199999999999999956e-01
2.608487905979441912e+00,8.661470889287437025e-01,1.440568429361817060e-01,1.000000000000000048e-04,3.906135069139840965e+01,1.300000000000000044e-01
-1.114900448692911716e+00,6.218877173709618233e-01,1.675540536804964731e-01,1.000000000000000048e-04,3.972004450971971323e+01,1.199999999999999956e-01
-2.142908988987882513e+00,-5.074339132778744599e-01,4.475072985172570128e-01,1.000000000000000048e-04,4.200742381305838080e+01,1.700000000000000122e-01
2.024504758325718967e+00,1.062175301697341201e+00,9.245927561208340251e-01,1.000000000000000048e-04,4.424488818527966316e+01,1.100000000000000006e-01
-2.077504298596335452e+00,1.412069179213966130e+00,6.192115990097102340e-01,1.000000000000000048e-04,4.283127368135898649e+01,1.100000000000000006e-01
1.094603582562167610e+00,8.675619785804618012e-01,3.340751504859824639e-01,1.000000000000000048e-04,4.111097079687437628e+01,1.199999999999999956e-01
-1.103200935486502665e+00,7.310747413396629923e-01,6.390265191080897189e-01,1.000000000000000048e-04,4.311903064511238171e+01,1.499999999999999944e-01
1.468528290126046798e+00,2.790169454052764397e-01,1.022529043261044990e+00,1.000000000000000048e-04,4.412330637897389352e+01,1.199999999999999956e-01
7.095705315102733834e-01,-7.023447735255605728e-02,1.834766625685815278e-01,1.000000000000000048e-04,3.981670295967730056e+01,1.400000000000000133e-01
1.722425947553547054e+00,7.600468504160353689e-01,2.112491157389322360e-01,1.000000000000000048e-04,4.004462433214050776e+01,1.199999999999999956e-01
2.323321289655075006e+00,1.759777387304561902e-01,5.549633702277514402e-01,1.000000000000000048e-04,4.260975778345962084e+01,1.100000000000000006e-01
-9.532540492508370100e-01,1.021489908381623124e-02,1.650615957594179228e-01,1.000000000000000048e-04,3.955044180389393205e+01,1.100000000000000006e-01
1.595123840380117564e+00,9.016681291009853716e-02,3.045176310674471143e-01,1.000000000000000048e-04,4.099326582947580988e+01,1.300000000000000044e-01
-2.672263531733365838e+00,-1.179953783610863560e+00,7.030068939341811429e-01,1.000000000000000048e-04,4.333455718125695455e+01,1.400000000000000133e-01
-9.079928091197118079e-01,-4.897522972138490527e-01,4.347498412474557483e-01,1.000000000000000048e-04,4.221194486779748445e+01,1.199999999999999956e-01
-1.718981976299805758e+00,6.690873335332061522e-01,9.357042235219705795e-01,1.000000000000000048e-04,4.398191710972261603e+01,1.100000000000000006e-01
1.550639578217636760e+00,2.202225658220904325e-01,3.570882266949562123e-01,1.000000000000000048e-04,4.142081217209731392e+01,1.199999999999999956e-01
1.429295010156197421e+00,-7.910884393815958981e-01,1.934251449040655935e-01,1.000000000000000048e-04,3.975607546539313830e+01,1.199999999999999956e-01
-1.523462206324357693e+00,-5.865649087809821083e-02,9.261097068965262746e-01,1.000000000000000048e-04,4.384562455776761425e+01,1.300000000000000044e-01
-2.905050393309716483e+00,1.044615328337778593e+00,1.527381817012996024e-01,1.000000000000000048e-04,3.934699799652744900e+01,1.199999999999999956e-01
-1.200297048508444320e+00,1.662060903994255767e-01,1.937523621721750633e-01,1.000000000000000048e-04,3.982739574622583234e+01,1.100000000000000006e-01
-1.616051593622733762e-01,-8.876431495479697453e-01,9.621797962411196004e-01,1.000000000000000048e-04,4.380269827680245953e+01,1.199999999999999956e-01
2.914769827939016622e+00,1.659451067563550986e-01,1.342097628302949541e-01,1.000000000000000048e-04,3.894609121517364514e+01,1.700000000000000122e-01
1.128102276327231479e+00,1.197438858671947770e+00,1.852355777122678404e-01,1.000000000000000048e-04,4.003691572006700738e+01,1.400000000000000133e-01
1.525943696336837796e+00,-2.110068903634607640e-01,4.343678802602632949e-01,1.000000000000000048e-04,4.193205840602520595e+01,1.199999999999999956e-01
1.975843300664261726e+00,9.246671753762116808e-01,1.137498007127882182e+00,1.000000000000000048e-04,4.437702398574977281e+01,1.600000000000000033e-01
3.899329440867411734e-01,-4.774990428232834816e-01,5.745501146035347784e-01,1.000000000000000048e-04,4.261110614750504766e+01,1.700000000000000122e-01
-3.126670192794098302e+00,-7.043073819423987247e-01,2.526596226023107850e-01,1.000000000000000048e-04,4.059693862693661970e+01,1.499999999999999944e-01
2.979305099132283807e+00,-8.163545965583796082e-02,6.746979940680442045e-01,1.000000000000000048e-04,4.314523488037409749e+01,1.100000000000000006e-01
2.656238250995304639e+00,-5.185582960954415732e-01,7.043519926432122436e-01,1.000000000000000048e-04,4.302696756680435897e+01,2.000000000000000111e-01
-1.504455204747193298e+00,-1.180075279442470926e+00,2.483046908389812124e-01,1.000000000000000048e-04,4.042723745761426102e+01,1.300000000000000044e-01
-7.023575645365465192e-01,-9.319464039314387938e-01,1.451396829164277591e-01,1.000000000000000048e-04,3.937766628358257748e+01,1.499999999999999944e-01
1.955334047054082980e+00,-7.825746628953588191e-01,2.033782752281800832e-01,1.000000000000000048e-04,3.998137693866284792e+01,1.100000000000000006e-01
-2.844145268183628783e+00,-2.662874633364913368e-01,3.537227857928235686e-01,1.000000000000000048e-04,4.142076915895813727e+01,1.199999999999999956e-01
-9.466486741656461312e-01,7.691718634297508572e-01,1.027727980040772149e+00,1.000000000000000048e-04,4.413077004589161589e+01,1.100000000000000006e-01
4.971795906347251659e-01,1.188513671073354594e+00,2.475034075585520466e-01,1.000000000000000048e-04,4.032938761652507509e+01,1.100000000000000006e-01
2.287377976342845898e+00,-1.088724569343841209e+00,6.159902685045866022e-01,1.000000000000000048e-04,4.292835899567598545e+01,2.099999999999999922e-01
2.270862302049893700e+00,5.974774942867799865e-03,2.325758512789639632e-01,1.000000000000000048e-04,4.050349482686129221e+01,1.199999999999999956e-01
1.618134708288184065e+00,-4.762370711297301273e-01,4.006109808957769580e-01,1.000000000000000048e-04,4.160459897912028993e+01,1.199999999999999956e-01
-9.780274436184575038e-01,-6.724364367202686488e-01,1.573599765887416790e-01,1.000000000000000048e-04,3.949613766157580841e+01,1.199999999999999956e-01
2.367147814227008595e+00,-2.929252943612958848e-01,3.453609791239651283e-01,1.000000000000000048e-04,4.173361172971423372e+01,1.700000000000000122e-01
-1.685103591961685909e+00,4.712646166107652412e-01,3.907343657349491295e-01,1.000000000000000048e-04,4.170945952195688022e+01,1.100000000000000006e-01
2.230611326597372823e+00,9.219740857796354661e-01,4.887971038755769548e-01,1.000000000000000048e-04,4.184292198323348799e+01,2.099999999999999922e-01
1.511806937184637434e+00,1.228444787309316055e+00,3.976435825595363571e-01,1.000000000000000048e-04,4.168306432622716073e+01,1.300000000000000044e-01
2.031492318979625011e+00,5.736865916079589844e-01,8.074499076454335622e-01,1.000000000000000048e-04,4.371335534471229067e+01,1.199999999999999956e-01
6.088782020858261035e-01,-8.499696366670161929e-02,1.660026191081180880e-01,1.000000000000000048e-04,3.940319260096450193e+01,1.300000000000000044e-01
1.274656061871052515e+00,-1.468021005453908900e+00,2.525732079344629177e-01,1.000000000000000048e-04,4.076681987550117725e+01,1.799999999999999933e-01
3.140006419930209347e+00,5.321377535488012178e-01,4.616272425666090307e-01,1.000000000000000048e-04,4.210925602471151308e+01,1.199999999999999956e-01
5.941637179620244957e-01,7.087343439232185460e-01,7.131604448506574379e-01,1.000000000000000048e-04,4.329126478342882223e+01,1.199999999999999956e-01
1.544558283112747787e+00,-6.483775554740623948e-01,5.766613117377206166e-01,1.000000000000000048e-04,4.290957097525959085e+01,1.900000000000000022e-01
-4.859095152032555376e-02,6.890472162701550829e-01,2.312576431651924835e-01,1.000000000000000048e-04,4.019834857852200827e+01,1.300000000000000044e-01
-1.155861874102460884e+00,-4.205179226778177348e-01,3.081300880120898533e-01,1.000000000000000048e-04,4.118764967829352486e+01,1.499999999999999944e-01
3.355780460280399780e-01,2.626298440217147423e-01,4.120762085265274877e-01,1.000000000000000048e-04,4.203151271552186330e+01,1.499999999999999944e-01
2.249160430277107103e+00,-6.992336362605492406e-01,2.162533830889359354e-01,1.000000000000000048e-04,4.028809261592728319e+01,1.400000000000000133e-01
-6.819633759118532979e-01,-4.352738364237318525e-01,5.071489872589816095e-01,1.000000000000000048e-04,4.241038048482504763e+01,1.400000000000000133e-01
1.283407784912752092e+00,3.580177903211145818e-01,7.084499179349845743e-01,1.000000000000000048e-04,4.326981564825475601e+01,1.199999999999999956e-01
2.571154217036134781e+00,-3.687016435915624335e-01,6.461456694596015016e-01,1.000000000000000048e-04,4.305999182505281908e+01,1.199999999999999956e-01
1.268287801929046665e-02,7.224510515822886170e-01,2.911232057830477338e-01,1.000000000000000048e-04,4.087453677167404464e+01,1.100000000000000006e-01
-2.843994934210119396e+00,7.983273896436280381e-01,5.567085999610568159e-01,1.000000000000000048e-04,4.283310392883774398e+01,1.100000000000000006e-01
-8.956834509492330731e-01,-3.488162636214204859e-01,3.435137091024718092e-01,1.000000000000000048e-04,4.130720614487314180e+01,1.400000000000000133e-01
5.059186652013138996e-01,-8.494642222989672309e-01,5.346004906345425134e-01,1.000000000000000048e-04,4.246398016082773097e+01,1.499999999999999944e-01
1.676770967569432003e+00,-9.970434894100983492e-01,8.623369822790634132e-01,1.000000000000000048e-04,4.361678729733935000e+01,1.199999999999999956e-01
-3.683955770815163788e-01,7.327042083018446839e-01,2.080464965190820248e-01,1.000000000000000048e-04,3.999388952437652023e+01,2.099999999999999922e-01
-2.152656974081161856e-01,-1.223073426674932129e-01,2.742560691544637663e-01,1.000000000000000048e-04,4.082499389996811345e+01,1.300000000000000044e-01
-4.883628110610329642e-01,-1.732405792855125082e-01,3.383421314162493587e-01,1.000000000000000048e-04,4.142674163432712220e+01,1.400000000000000133e-01
1.767763179032034948e+00,1.714274337057397624e-02,2.380723592222524498e-01,1.000000000000000048e-04,4.048028561242426093e+01,1.199999999999999956e-01
-8.089687375078575826e-01,-8.707015096580639213e-01,3.095517339148388114e-01,1.000000000000000048e-04,4.106689384646639240e+01,1.199999999999999956e-01
-1.147195983162671684e+00,-7.203798517001961388e-01,3.453023125161458484e-01,1.000000000000000048e-04,4.118415292702918862e+01,1.100000000000000006e-01
-3.070789653803132069e-01,5.134533444993674145e-01,2.904831216447250064e-01,1.000000000000000048e-04,4.083954494344055064e+01,1.300000000000000044e-01
4.739298898268011762e-01,-2.030158262823813509e-01,1.010243312290207029e+00,1.000000000000000048e-04,4.399063293454806001e+01,1.199999999999999956e-01
2.231828427570427209e+00,-4.893084259795086322e-01,7.627501838845420767e-01,1.000000000000000048e-04,4.324558964199486866e+01,1.199999999999999956e-01
6.753147005631898736e-03,-3.308479803292661003e-01,7.874317215641992718e-01,1.000000000000000048e-04,4.332992160150193683e+01,1.300000000000000044e-01
-3.092025484617720643e+00,-8.696735595026394705e-02,5.091157500904799349e-01,1.000000000000000048e-04,4.231758852877607069e+01,1.300000000000000044e-01
2.778636306239570253e+00,4.801933900901511620e-02,1.887371422630117479e-01,1.000000000000000048e-04,3.988483300560045564e+01,1.199999999999999956e-01
2.075980377040980152e-01,-1.346043566174508488e-01,6.960117324333019440e-01,1.000000000000000048e-04,4.308168642215077426e+01,1.199999999999999956e-01
-2.770370381006817428e+00,-3.388906234492985448e-01,5.119998008975701342e-01,1.000000000000000048e-04,4.234574812764459750e+01,1.300000000000000044e-01
-2.453739840773110359e-01,-3.735338711643043652e-01,2.533159652296901321e-01,1.000000000000000048e-04,4.047604373502215225e+01,1.199999999999999956e-01
-2.781576879508151912e-01,-3.250045493630662197e-01,3.716256634966199623e-01,1.000000000000000048e-04,4.149032653890635203e+01,1.199999999999999956e-01
1.279706467856873253e+00,2.501738348937680989e-01,1.060380239053759333e+00,1.000000000000000048e-04,4.427118943967066400e+01,1.199999999999999956e-01
-2.086576586270332712e+00,-1.976359551385697966e-01,2.185902154315444434e-01,1.000000000000000048e-04,4.030131428171159769e+01,1.499999999999999944e-01
-1.433656443090936206e+00,5.054196709627021278e-01,7.751223072900106370e-01,1.000000000000000048e-04,4.331068194388420523e+01,1.199999999999999956e-01
-1.127517159868685948e+00,-1.689683327276703118e-01,2.062799569453894755e-01,1.000000000000000048e-04,4.023707717913847404e+01,2.000000000000000111e-01
-3.109097293066557466e+00,-9.631161163769785816e-01,3.252298814073906197e-01,1.000000000000000048e-04,4.145945883609247318e+01,2.000000000000000111e-01
1.061497527386082496e+00,1.359059133996436408e-01,4.065813562990205909e-01,1.000000000000000048e-04,4.157854872164195115e+01,1.400000000000000133e-01
-5.480543378679114674e-01,9.601239958663616569e-01,4.960137784587748122e-01,1.000000000000000048e-04,4.222523479468800645e+01,1.199999999999999956e-01
2.916759034160511632e+00,7.181661618866597152e-01,5.490933609135992821e-01,1.000000000000000048e-04,4.234013420593557697e+01,1.300000000000000044e-01
2.656393090447616956e+00,3.900788046393908193e-01,7.513874100695994152e-01,1.000000000000000048e-04,4.311182065632220173e+01,1.799999999999999933e-01
1.908024732379831612e+00,7.174145737675345913e-01,3.615239604273734475e-01,1.000000000000000048e-04,4.154112949778620134e+01,1.499999999999999944e-01
-1.632058230261504317e+00,1.851477009675781549e-01,7.665386396942914793e-01,1.000000000000000048e-04,4.335655513641336256e+01,1.100000000000000006e-01
1.582122678747408528e-01,5.146685488301327993e-01,7.354179838240173517e-01,1.000000000000000048e-04,4.313048060211965407e+01,1.199999999999999956e-01
2.010518903103669430e+00,-8.918239188529986095e-02,3.709309238876126180e-01,1.000000000000000048e-04,4.128304888451694410e+01,1.499999999999999944e-01
3.110801966592156020e+00,-9.624858731880706619e-01,6.569094441721154976e-01,1.000000000000000048e-04,4.298919997859771058e+01,1.900000000000000022e-01
1.633845461138597521e+00,-2.401731009392975569e-01,7.796273654907222017e-01,1.000000000000000048e-04,4.346518802002365334e+01,1.799999999999999933e-01
1.021452969486514206e+00,-4.890138667107741810e-01,3.942678290053382995e-01,1.000000000000000048e-04,4.169835412696496491e+01,1.499999999999999944e-01
-3.004711448297358700e+00,-2.060433477721033135e-01,2.414441330958829734e-01,1.000000000000000048e-04,4.047446960516741399e+01,1.499999999999999944e-01
2.518314984951222080e-01,-2.880690120839983770e-01,4.653332067790372228e-01,1.000000000000000048e-04,4.179450358039926527e+01,3.599999999999999867e-01
2.160555317164988054e+00,-1.304282662772458856e+00,2.380391780580262129e-01,1.000000000000000048e-04,3.996475951281752259e+01,3.900000000000000133e-01
2.626102347755173483e+00,-7.499841879301066827e-01,3.054494693548326367e-01,1.000000000000000048e-04,4.115999990041220258e+01,3.900000000000000133e-01
1.486684661550729203e+00,-2.637225446933533224e-01,5.767023522356899967e-01,1.000000000000000048e-04,4.310785677194446208e+01,3.099999999999999978e-01
-2.139348160736769699e+00,-1.275959567960182728e+00,4.781604742514693474e-01,1.000000000000000048e-04,4.243618995092365509e+01,3.300000000000000155e-01
-4.164936007493791337e-01,-1.954624321073206161e-02,2.675517603021160262e-01,1.000000000000000048e-04,4.048991301755830818e+01,4.000000000000000222e-01
2.578516332984087889e+00,6.575950320845254105e-01,2.072346439165180243e-01,1.000000000000000048e-04,4.039389584271800260e+01,3.200000000000000067e-01
-7.025213832541270520e-01,1.210661271610344869e-01,7.758296179478447741e-01,1.000000000000000048e-04,4.394250676075175477e+01,3.200000000000000067e-01
3.017360407069903161e+00,9.622488983386698891e-01,4.765174183456886148e-01,1.000000000000000048e-04,4.216283866817212100e+01,3.599999999999999867e-01
2.399005792705966478e+00,-5.332891186441153231e-01,3.581590482507692741e-01,1.000000000000000048e-04,4.115510395297546609e+01,2.399999999999999911e-01
-2.808352898224135252e+00,-1.188465424525840364e+00,9.257360842599817730e-01,1.000000000000000048e-04,4.377698055533381449e+01,2.999999999999999889e-01
1.866913702911396911e-01,2.748442063664950918e-01,2.301280483674374988e-01,1.000000000000000048e-04,4.029744865779345986e+01,2.399999999999999911e-01
-4.959920495543652663e-01,-1.896294536187994595e-01,4.682324428777007164e-01,1.000000000000000048e-04,4.213452290007727896e+01,2.899999999999999800e-01
1.759150638009699286e+00,8.389832121555107491e-02,4.736313365491939820e-01,1.000000000000000048e-04,4.185985551040233332e+01,2.899999999999999800e-01
-2.687357259093713147e+00,7.238570099078511788e-01,5.765792589151295111e-01,1.000000000000000048e-04,4.333067176010712984e+01,2.899999999999999800e-01
2.873197021321062472e+00,-3.204241536828551506e-01,3.843167944985055318e-01,1.000000000000000048e-04,4.135570845170384047e+01,3.699999999999999956e-01
2.207799410196025214e-01,5.129580083518989753e-01,6.892240254577033376e-01,1.000000000000000048e-04,4.352248968221822878e+01,2.300000000000000100e-01
-2.173135300483012067e+00,-9.198169790271237822e-02,2.721121153265346759e-01,1.000000000000000048e-04,4.071621847280795947e+01,2.000000000000000111e-01
1.753153999782157690e+00,3.613346296161514815e-01,8.640746489058457325e-01,1.000000000000000048e-04,4.310785512584009638e+01,3.800000000000000044e-01
1.947302696222552143e+00,-1.072139382508750405e+00,2.002551979569557883e-01,1.000000000000000048e-04,3.993772058406256065e+01,2.300000000000000100e-01
-2.750109725264932692e+00,-3.590704586731900960e-01,4.119497420868409865e-01,1.000000000000000048e-04,4.180054528545873183e+01,3.900000000000000133e-01
1.007354519180898578e+00,6.180818351623376117e-01,3.065432537991372719e-01,1.000000000000000048e-04,4.113652532057117384e+01,2.200000000000000011e-01
-1.864853925162533566e+00,-4.741917242485516049e-01,2.786835758379719863e-01,1.000000000000000048e-04,4.048766309995871637e+01,2.399999999999999911e-01
-2.494925001736022274e+00,-6.531246352399432409e-01,5.760119790125899364e-01,1.000000000000000048e-04,4.282705193112658293e+01,2.000000000000000111e-01
1.206746402680279218e+00,-2.836472876726787717e-01,6.507744088766385104e-01,1.000000000000000048e-04,4.302782382440172881e+01,1.900000000000000022e-01
2.304921132521241312e+00,-8.012395588295184723e-01,7.357337726099282271e-01,1.000000000000000048e-04,4.292154817641137754e+01,2.600000000000000089e-01
-4.170042906235282842e-02,-2.425131515095388934e-01,2.790511959827384203e-01,1.000000000000000048e-04,4.071458037650036488e+01,1.900000000000000022e-01
2.503392125338349317e+00,-2.788084191115991484e-01,1.253275129998149051e+00,1.000000000000000048e-04,4.475306767377637129e+01,1.000000000000000056e-01
-2.212194246237019435e+00,-8.601147389990136949e-01,1.183976207965502070e+00,1.000000000000000048e-04,4.446934062391876097e+01,1.400000000000000133e-01
4.610151277117910951e-01,-5.350084036874671600e-01,3.020797722798556073e-01,1.000000000000000048e-04,4.112954972531766629e+01,1.900000000000000022e-01
-1.427909087252595910e+00,-2.644277262912502202e-01,2.298858231180100908e-01,1.000000000000000048e-04,4.009601343102755777e+01,1.499999999999999944e-01
-9.242520119550268198e-01,7.615840264654885061e-01,7.801349793088077078e-01,1.000000000000000048e-04,4.347933199024497952e+01,1.900000000000000022e-01
-3.117249131308973631e+00,-9.010400873016610745e-02,3.588737836745548027e-01,1.000000000000000048e-04,4.182012231564784344e+01,1.700000000000000122e-01
1.395378991612370889e+00,-7.080161431804760097e-01,3.289434247536191513e-01,1.000000000000000048e-04,4.109805709259750728e+01,1.100000000000000006e-01
3.112002060449100327e+00,5.036018888718856168e-01,2.854185328688583212e-01,1.000000000000000048e-04,4.104133241473856941e+01,2.000000000000000111e-01
-5.337116343530019513e-01,-2.713295339189221167e-01,1.175259097344708348e+00,1.000000000000000048e-04,4.465587294038233779e+01,1.700000000000000122e-01
2.492472310367229937e+00,-7.347992967716363566e-01,5.946386268498948802e-01,1.000000000000000048e-04,4.271375844980619974e+01,1.100000000000000006e-01
1.330266216735225271e+00,-1.009537698301515185e+00,6.604678222584634550e-01,1.000000000000000048e-04,4.296550825881311653e+01,1.700000000000000122e-01
1.732794043207196211e+00,-4.386375745060153708e-01,5.094353593933833579e-01,1.000000000000000048e-04,4.265159549823424356e+01,1.600000000000000033e-01
-1.103518340304905365e-01,1.002664669981563339e-01,2.742939491409526198e-01,1.000000000000000048e-04,4.087167793437333074e+01,2.200000000000000011e-01
2.514183817880307537e+00,-9.249113241205072500e-01,2.280486242488630744e-01,1.000000000000000048e-04,4.010896689624271261e+01,2.800000000000000266e-01
-2.370205325300971388e-01,1.336667618452602735e+00,1.466971939523102897e-01,1.000000000000000048e-04,3.884980364045743784e+01,2.099999999999999922e-01
-1.222425746698775573e+00,-8.618372365857213113e-01,4.376800725448652951e-01,1.000000000000000048e-04,4.167411246011644721e+01,2.899999999999999800e-01
1.956460038134999024e+00,-1.100471105759260659e+00,4.506727000922510218e-01,1.000000000000000048e-04,4.205352936623204840e+01,1.400000000000000133e-01
-2.051221948604361245e+00,9.808243823349087620e-01,7.737107184710321217e-01,1.000000000000000048e-04,4.362890681725117759e+01,1.600000000000000033e-01
2.681494345217368291e+00,6.226820374467618713e-01,1.904216937833493883e-01,1.000000000000000048e-04,4.003192881294469174e+01,2.099999999999999922e-01
-2.585670479654457843e+00,1.162307001212127489e+00,1.494989575014848970e-01,1.000000000000000048e-04,3.982883328331392647e+01,2.600000000000000089e-01
2.728461849982698695e+00,-1.671753511075444454e-01,1.218971440777172344e-01,1.000000000000000048e-04,3.889161581168892923e+01,1.400000000000000133e-01
-1.764385318264286129e+00,1.000834153614959199e+00,2.436333892023831993e-01,1.000000000000000048e-04,4.025895843410052777e+01,1.600000000000000033e-01
-4.357159051612042866e-01,6.369534026740195642e-01,3.832986973128016395e-01,1.000000000000000048e-04,4.176035752252007427e+01,2.000000000000000111e-01
-1.483080046249400485e+00,-3.473766938126729986e-01,6.293910268671989439e-01,1.000000000000000048e-04,4.314288863972954857e+01,2.099999999999999922e-01
-1.673729889272093097e+00,8.103336048969538297e-01,8.411561916277794371e-01,1.000000000000000048e-04,4.365402557586947552e+01,1.700000000000000122e-01
-8.631122559373705094e-01,5.122998035196122402e-01,3.555420276442804450e-01,1.000000000000000048e-04,4.133729724383992732e+01,1.499999999999999944e-01
2.986605386187259903e-01,3.200450700650447899e-03,1.411296870860707653e-01,1.000000000000000048e-04,3.932814115356502782e+01,1.700000000000000122e-01
-2.466901946137786350e+00,-8.807010611894237062e-01,1.691137226886083589e-01,1.000000000000000048e-04,3.967374632244819566e+01,1.400000000000000133e-01
1.228452025188584429e+00,1.290621552842230013e+00,6.054583250132130612e-01,1.000000000000000048e-04,4.264000533755125844e+01,1.499999999999999944e-01
-3.032332990848924936e-01,1.430198547162446765e+00,2.017817204625684813e-01,1.000000000000000048e-04,3.976864120997404228e+01,3.400000000000000244e-01
4.783428748928120200e-02,-6.017325708493125314e-01,7.463974000655815288e-01,1.000000000000000048e-04,4.359914219243822231e+01,1.700000000000000122e-01
-2.535651621174156212e+00,5.181137071041050923e-01,5.871606854192759073e-01,1.000000000000000048e-04,4.265055870374787617e+01,1.400000000000000133e-01
2.809020924778198314e+00,-5.715003950599005789e-01,5.088821829534242447e-01,1.000000000000000048e-04,4.228583817658570609e+01,1.799999999999999933e-01
-2.070732491135085063e+00,-6.959954946283386512e-02,6.488940996347452028e-01,1.000000000000000048e-04,4.286261335120898508e+01,1.900000000000000022e-01
7.814535599735861204e-01,7.906279936178193246e-01,5.420632250367152238e-01,1.000000000000000048e-04,4.241161824453238438e+01,1.499999999999999944e-01
-8.193719435474351442e-01,7.233776749110560900e-01,2.197880660717608237e-01,1.000000000000000048e-04,4.013155510197594822e+01,1.700000000000000122e-01
1.697821279452019105e+00,1.407506601885632591e+00,7.719070414899480426e-01,1.000000000000000048e-04,4.310665149378091598e+01,1.600000000000000033e-01
-1.181867481091232186e-01,1.322012619474655981e+00,9.255364203277629542e-01,1.000000000000000048e-04,4.393685922195014371e+01,1.499999999999999944e-01
-2.911616963185878593e+00,1.104580365263616581e+00,1.483857035648223910e-01,1.000000000000000048e-04,3.957804268824622795e+01,1.700000000000000122e-01
1.108384561716142080e+00,1.214765711079131449e+00,3.699174345046436496e-01,1.000000000000000048e-04,4.127904344243762580e+01,1.600000000000000033e-01
-2.604105446061249385e+00,-1.107139128075660395e-01,5.140552109757476895e-01,1.000000000000000048e-04,4.274985548015118297e+01,2.899999999999999800e-01
1.957826162933449687e+00,-2.177699803939490142e-01,2.284057779814565592e-01,1.000000000000000048e-04,4.012070979623081968e+01,1.400000000000000133e-01
-2.768325507162883170e+00,4.510744010564478046e-01,2.260735270670355401e-01,1.000000000000000048e-04,4.034862219637634695e+01,1.499999999999999944e-01
-2.862310018651287535e+00,5.812992761584756529e-01,6.731178763328151682e-01,1.000000000000000048e-04,4.303701033885539573e+01,1.900000000000000022e-01
1.145517398457381653e+00,-1.881611021545843698e-01,5.843159756358209389e-01,1.000000000000000048e-04,4.239074361439749339e+01,2.500000000000000000e-01
-1.314991683873408146e+00,7.057320193584102341e-01,7.181656993198191063e-01,1.000000000000000048e-04,4.326455040967365306e+01,1.499999999999999944e-01
1.370990547275043880e+00,2.330154909627661919e-01,5.786861520286754601e-01,1.000000000000000048e-04,4.244133338863779414e+01,2.099999999999999922e-01
-9.329176423411267294e-01,-2.200954172496971673e-01,7.758469731700512462e-01,1.000000000000000048e-04,4.353190033512403545e+01,1.900000000000000022e-01
2.457021397067535418e+00,-8.905686923289893864e-01,1.341146618279807079e+00,1.000000000000000048e-04,4.459630485947693757e+01,2.099999999999999922e-01
1.133013008694794266e-01,-1.842278607817762204e-01,9.764216152775326840e-01,1.000000000000000048e-04,4.440173309933706491e+01,2.099999999999999922e-01
-2.336328006118568723e+00,-2.284731701046327501e-02,3.919178342422102723e-01,1.000000000000000048e-04,4.185164762500998847e+01,1.499999999999999944e-01
-2.851809772951622080e+00,3.656550504389928236e-01,4.393038171021195204e-01,1.000000000000000048e-04,4.176273545681979726e+01,1.400000000000000133e-01
-1.363613406724288879e-01,-6.902203388617729196e-01,5.326015855714849589e-01,1.000000000000000048e-04,4.202845980637051326e+01,3.800000000000000044e-01
9.062155644723892678e-01,-1.072230156796381451e+00,3.865433368272044312e-01,1.000000000000000048e-04,4.156907928037267652e+01,2.200000000000000011e-01
-1.399936405664171435e+00,1.094362684928391616e-01,2.748536957000340397e-01,1.000000000000000048e-04,4.079310940575647493e+01,1.499999999999999944e-01
1.161425152864794086e+00,2.769036047302100290e-01,2.440334699917645622e-01,1.000000000000000048e-04,4.056625048629209829e+01,1.700000000000000122e-01
-7.123398200178026052e-01,-5.855975352731966899e-01,1.069313066166930781e+00,1.000000000000000048e-04,4.426071175647710731e+01,1.700000000000000122e-01
-2.213397421462153236e+00,-6.127023923298071661e-01,6.141961119546435199e-01,1.000000000000000048e-04,4.286395248063210772e+01,2.600000000000000089e-01
-4.409711337286199573e-01,-7.492044324915905218e-01,5.022230633348254702e-01,1.000000000000000048e-04,4.207291442888629973e+01,2.800000000000000266e-01
1.220558173351479425e+00,4.671836999608824925e-01,4.134418536116279963e-01,1.000000000000000048e-04,4.213455100953188293e+01,1.799999999999999933e-01
-2.792270383567969638e+00,-3.625243491512630811e-01,2.536987349506441003e-01,1.000000000000000048e-04,4.054049370866335522e+01,1.499999999999999944e-01
2.978192277741777083e+00,1.071760757502036032e+00,1.490426371194391031e-01,1.000000000000000048e-04,3.914374243918722129e+01,2.200000000000000011e-01
-2.766887250068414073e+00,-1.947463356999095119e-01,2.293983077549357485e-01,1.000000000000000048e-04,4.041177546197489789e+01,2.000000000000000111e-01
-2.002065835619132983e+00,-1.206307587228666378e+00,6.694323569295976828e-01,1.000000000000000048e-04,4.302931247199640552e+01,1.600000000000000033e-01
1.689225199548041623e+00,6.380400994408650384e-01,4.963925345644049081e-01,1.000000000000000048e-04,4.212821312064944124e+01,1.600000000000000033e-01
-2.189127652765121113e+00,3.757687863752317003e-01,9.184272918111866524e-01,1.000000000000000048e-04,4.343979540497718972e+01,2.099999999999999922e-01
-1.308627687041041598e+00,1.383014115985407244e+00,3.129890832648241084e-01,1.000000000000000048e-04,4.114623124016884503e+01,2.899999999999999800e-01
-1.392851865837273051e+00,-3.607241025468623796e-01,1.023406543259703483e+00,1.000000000000000048e-04,4.435378325106217545e+01,1.400000000000000133e-01
1.563524475232063615e+00,-1.087128999198787582e-01,7.485896399889271358e-01,1.000000000000000048e-04,4.335882521170836412e+01,2.700000000000000178e-01
2.953226738711347998e+00,-2.809869432009477475e-01,1.415437696089680841e-01,1.000000000000000048e-04,3.911016434305064848e+01,1.300000000000000044e-01
-3.287922076354465872e-02,1.003611468496867776e+00,8.716944206029677567e-01,1.000000000000000048e-04,4.391994895204365434e+01,1.700000000000000122e-01
-9.169135247028314950e-02,1.401782995079143390e+00,4.912733357362171205e-01,1.000000000000000048e-04,4.183590521827384379e+01,2.500000000000000000e-01
-2.934246957775677345e+00,-5.698231533561572970e-01,6.609301914291654256e-01,1.000000000000000048e-04,4.333831842726385730e+01,1.400000000000000133e-01
-1.487380373792928090e-01,2.324579519172169650e-01,6.808310945810214232e-01,1.000000000000000048e-04,4.301374334489853624e+01,1.900000000000000022e-01
-2.614078459132000543e+00,2.715597719185363079e-01,9.841026901012952521e-01,1.000000000000000048e-04,4.406383108459176157e+01,1.600000000000000033e-01
2.970550209679434950e+00,-2.837985167786198915e-01,1.066666614160185933e+00,1.000000000000000048e-04,4.436987984340451874e+01,1.600000000000000033e-01
1.707945540347039604e+00,8.740585179918634040e-01,3.549544048445922861e-01,1.000000000000000048e-04,4.136184982029815416e+01,2.700000000000000178e-01
2.921954551066058059e+00,-8.166013892814990571e-01,2.973831641877049403e-01,1.000000000000000048e-04,4.069469154164068669e+01,1.499999999999999944e-01
-1.765905738581511786e+00,2.790558002813396943e-01,6.307827281530893337e-01,1.000000000000000048e-04,4.278935917033416558e+01,1.600000000000000033e-01
-2.746105550390630423e+00,1.891133549431340821e-01,2.609827272230660355e-01,1.000000000000000048e-04,4.065341679526743945e+01,1.700000000000000122e-01
-2.381939284128618439e+00,6.482306786037819180e-01,1.187860268764653782e+00,1.000000000000000048e-04,4.501035114535335424e+01,2.800000000000000266e-01
1.897098900174496450e-01,-1.710227154843342312e-01,3.542429892368468280e-01,1.000000000000000048e-04,4.133223675383248263e+01,1.499999999999999944e-01
2.534624957599143968e+00,-5.542721206385248234e-01,2.207477275187832433e-01,1.000000000000000048e-04,4.029134343306564148e+01,3.099999999999999978e-01
2.111347363224819418e+00,-1.307548600598435806e+00,2.536587880961382879e-01,1.000000000000000048e-04,4.075582124413406149e+01,2.200000000000000011e-01
-2.082486329372748024e-01,-1.419957812663734664e-01,2.866812697984819636e-01,1.000000000000000048e-04,4.077771360656488042e+01,2.700000000000000178e-01
-1.278758114917498689e+00,-2.080083055685748583e-01,6.050226792232000772e-01,1.000000000000000048e-04,4.322645154282376012e+01,2.899999999999999800e-01
6.379660293303404117e-01,8.945950998185447922e-01,1.547930375371051603e-01,1.000000000000000048e-04,3.934426141715217540e+01,3.099999999999999978e-01
2.707372955035336481e-01,-1.538128824683329121e-01,3.631808275883297021e-01,1.000000000000000048e-04,4.137768720835176595e+01,2.300000000000000100e-01
1.181266136526537558e+00,-5.164208910586289836e-01,8.249405180397264559e-01,1.000000000000000048e-04,4.301681224001281123e+01,2.200000000000000011e-01
-2.179584967607583135e+00,-1.897460471327188092e-01,3.994964837601051588e-01,1.000000000000000048e-04,4.155750788757367786e+01,2.300000000000000100e-01
1.331239549475880857e+00,2.797895546842199543e-02,5.290297021665830712e-01,1.000000000000000048e-04,4.248316947430748058e+01,2.200000000000000011e-01
-2.164145201298776744e+00,1.454433321628665343e-01,5.698198034880186391e-01,1.000000000000000048e-04,4.308905013922923644e+01,2.099999999999999922e-01
1.422987428698611723e+00,6.855266541561300109e-01,2.464014198795081434e-01,1.000000000000000048e-04,4.057405055061548182e+01,2.300000000000000100e-01
2.506683369851355536e+00,-1.052348638894416766e+00,6.684320415532747361e-01,1.000000000000000048e-04,4.305208572620601615e+01,2.399999999999999911e-01
2.324400559273546385e+00,2.539361769965957638e-01,1.320302857637527527e-01,1.000000000000000048e-04,3.905473228567345956e+01,2.099999999999999922e-01
3.540591471989698036e-01,1.457616144014393100e-01,1.606036535638515339e-01,1.000000000000000048e-04,3.929518011396327637e+01,2.399999999999999911e-01
-4.476412196828549739e-01,4.731252016874964994e-02,2.164898263122057021e-01,1.000000000000000048e-04,3.995948381359765733e+01,2.399999999999999911e-01
1.763844805548830053e+00,4.426290483239263551e-01,3.083988277984310855e-01,1.000000000000000048e-04,4.113378573265505622e+01,2.800000000000000266e-01
9.264061844140458746e-02,-7.813505206630092514e-01,2.453344620557647016e-01,1.000000000000000048e-04,4.028614887568011937e+01,2.000000000000000111e-01
-1.340397194466002473e+00,3.207803552297068261e-01,2.971124975515968547e-01,1.000000000000000048e-04,4.090956087303782596e+01,2.200000000000000011e-01
3.046789643708150308e+00,-1.308854944155355637e+00,4.771916800840265704e-01,1.000000000000000048e-04,4.213471956449284050e+01,2.800000000000000266e-01
-2.796345774077044322e+00,3.755942623194430396e-01,5.894783006538977244e-01,1.000000000000000048e-04,4.277314014851448576e+01,2.399999999999999911e-01
1.681379970940130697e+00,2.309595325487252548e-01,1.406678489059522974e-01,1.000000000000000048e-04,3.885065642993373558e+01,2.300000000000000100e-01
-3.072863466470675320e+00,-1.351992018231737980e-01,1.459253458595393127e-01,1.000000000000000048e-04,3.933981092499126220e+01,2.200000000000000011e-01
-4.209830464470929456e-01,3.189333854098030940e-02,9.484535623827210493e-01,1.000000000000000048e-04,4.378164811673763523e+01,2.200000000000000011e-01
1.078064692574955075e+00,-4.581989561800603461e-02,1.289494849992153469e+00,1.000000000000000048e-04,4.478481409828005866e+01,2.399999999999999911e-01
1.856765606791341838e-01,-1.197145710928445794e+00,1.594013611281508425e-01,1.000000000000000048e-04,3.939013362360145010e+01,3.099999999999999978e-01
-2.273266051460426596e+00,-4.401451697655647255e-01,2.388792983982257478e-01,1.000000000000000048e-04,4.057530378731983944e+01,2.600000000000000089e-01
-2.126400929199733447e+00,-5.053724423783152453e-01,3.673077901595869221e-01,1.000000000000000048e-04,4.130772976662286311e+01,3.099999999999999978e-01
1.234153424406221333e-01,6.937810400118316068e-02,4.669176234434639916e-01,1.000000000000000048e-04,4.203160995897286512e+01,3.800000000000000044e-01
-7.907335588919548464e-01,8.831475070646823688e-01,3.889846424770868616e-01,1.000000000000000048e-04,4.160370189041604050e+01,2.500000000000000000e-01
-2.362433021688246537e+00,9.158584518211743131e-01,1.623682808719737469e-01,1.000000000000000048e-04,3.985655348968258238e+01,2.300000000000000100e-01
-2.656987005261610246e+00,-4.279889137920200870e-01,3.069683320167571061e-01,1.000000000000000048e-04,4.083676675725690330e+01,2.800000000000000266e-01
2.380068345681300990e+00,5.381217409824867737e-01,3.441334622905904972e-01,1.000000000000000048e-04,4.155436785658655197e+01,3.699999999999999956e-01
-1.072529520994275565e+00,7.720315837732973918e-01,7.062933380680460616e-01,1.000000000000000048e-04,4.323962179207537559e+01,2.200000000000000011e-01
-3.231991040504555990e-01,-4.290904880644599295e-01,5.003147511447445517e-01,1.000000000000000048e-04,4.279821303456229487e+01,2.600000000000000089e-01
-2.156870466374966711e+00,5.489621108371203206e-01,1.200659415039981859e-01,1.000000000000000048e-04,3.903597658634661371e+01,2.500000000000000000e-01
6.860610452621145328e-01,-1.611914898846671385e-01,2.551065272587400568e-01,1.000000000000000048e-04,4.064823366651161507e+01,2.700000000000000178e-01
5.797180580043277409e-01,6.986620763206832230e-01,3.661265179610888598e-01,1.000000000000000048e-04,4.132026039893725766e+01,2.300000000000000100e-01
-7.511326440214176614e-01,-7.367969697630755155e-01,6.963619384328059159e-01,1.000000000000000048e-04,4.305443075186325785e+01,2.300000000000000100e-01
1.744850159958010849e+00,5.472218730835716194e-01,2.710570482433438677e-01,1.000000000000000048e-04,4.103886469633960132e+01,3.200000000000000067e-01
-2.413771162573383755e+00,4.906979715688408739e-01,6.826059734145579760e-01,1.000000000000000048e-04,4.316805261837100716e+01,2.899999999999999800e-01
-3.048194515657037140e+00,-8.313189026157290495e-01,2.179678172783658940e-01,1.000000000000000048e-04,4.018465083006110916e+01,2.600000000000000089e-01
-1.486132995074465057e+00,7.367325172586465243e-01,9.565946630577708554e-01,1.000000000000000048e-04,4.385251301095318155e+01,2.899999999999999800e-01
-3.133797023847988417e+00,-1.303121425275268530e+00,5.093405389440548436e-01,1.000000000000000048e-04,4.199071754524500477e+01,2.700000000000000178e-01
-2.671608848487926569e+00,8.696574376359249570e-01,5.859845442992979159e-01,1.000000000000000048e-04,4.280328926245525878e+01,2.300000000000000100e-01
-5.363108037445378784e-01,-1.134786900939732224e+00,1.359638259366602320e-01,1.000000000000000048e-04,3.903219555200575286e+01,2.800000000000000266e-01
2.541452038082554488e+00,-4.944005880397723818e-01,2.230318068131749154e-01,1.000000000000000048e-04,4.031965930551799460e+01,2.300000000000000100e-01
1.750413744507945069e+00,7.412125920066965357e-01,1.183564488583843666e-01,1.000000000000000048e-04,3.873833435928595037e+01,2.200000000000000011e-01
-2.736643685350879096e-01,-1.867465218015096351e-01,1.914134764771271424e-01,1.000000000000000048e-04,3.982931659768200205e+01,2.200000000000000011e-01
9.194125369825858485e-01,-8.273967639732366930e-01,4.561595368363855485e-01,1.000000000000000048e-04,4.196826893990647989e+01,2.099999999999999922e-01
3.585546280191773683e-01,-8.409494300400435218e-01,1.017983425712501777e+00,1.000000000000000048e-04,4.409951286191574127e+01,2.200000000000000011e-01
-1.836272643642599567e+00,-6.939050364706276230e-01,7.902335433453462343e-01,1.000000000000000048e-04,4.335438055674946156e+01,2.899999999999999800e-01
-2.364460430000407065e+00,9.210878636168096101e-01,3.928768989822499780e-01,1.000000000000000048e-04,4.145840097187079465e+01,2.099999999999999922e-01
-2.118152372135304606e+00,-6.207789266052355925e-01,4.336215118085746667e-01,1.000000000000000048e-04,4.196780003153507721e+01,2.300000000000000100e-01
-2.370456152138707751e+00,3.091425562693135287e-01,1.282344220610245333e-01,1.000000000000000048e-04,3.917768698538246497e+01,3.300000000000000155e-01
1.930363438588805991e+00,-7.334968429806653090e-01,5.498326954339676220e-01,1.000000000000000048e-04,4.236994649491661846e+01,2.899999999999999800e-01
5.230728670589859242e-01,-1.010060481300362412e+00,5.142408684399137897e-01,1.000000000000000048e-04,4.317807367281774589e+01,3.300000000000000155e-01
5.980722873673318674e-01,-1.982641469357206976e-01,1.985313348125439248e-01,1.000000000000000048e-04,3.969896311942752476e+01,2.999999999999999889e-01
-2.544526002760265193e+00,-9.357701721121575167e-01,5.304862743656257873e-01,1.000000000000000048e-04,4.249716134126297362e+01,2.600000000000000089e-01
1.781816847049686459e-01,-2.093606765334463660e-01,3.620631531901188360e-01,1.000000000000000048e-04,4.140409422884850699e+01,3.300000000000000155e-01
6.696502354387598999e-01,-4.688790305661012514e-01,6.659759793848256670e-01,1.000000000000000048e-04,4.300223610668891183e+01,2.500000000000000000e-01
2.965644844596040386e-01,1.359333331412697632e-01,4.236142651479593013e-01,1.000000000000000048e-04,4.198530909181897641e+01,2.399999999999999911e-01
-3.042893043059908376e+00,5.132856527156812732e-01,5.176328730309120996e-01,1.000000000000000048e-04,4.278970619389158969e+01,3.900000000000000133e-01
2.134347766961008475e+00,-7.764177975081401062e-01,5.504508527591327471e-01,1.000000000000000048e-04,4.248548019283860100e+01,2.700000000000000178e-01
2.193919962780025656e+00,4.972941867871294441e-01,6.474898386184613219e-01,1.000000000000000048e-04,4.306583384526421554e+01,2.200000000000000011e-01
-5.983985608623130226e-01,-6.182362735480784188e-02,4.555395885178765703e-01,1.000000000000000048e-04,4.189896960971570650e+01,2.300000000000000100e-01
-4.047483618555580698e-01,3.712441218285564837e-01,2.360291704044803485e-01,1.000000000000000048e-04,4.039993082355504583e+01,2.500000000000000000e-01
-2.499470071039027186e+00,-2.240540501540875251e-01,1.842270361031590475e-01,1.000000000000000048e-04,3.961756392945675032e+01,2.099999999999999922e-01
-6.166186474012773644e-01,-9.110982870057161565e-01,6.795995829374437136e-01,1.000000000000000048e-04,4.289410968770033605e+01,2.099999999999999922e-01
-1.115312431624817968e+00,-4.568602871484612749e-01,2.005481972560252402e-01,1.000000000000000048e-04,3.962020460241288333e+01,2.999999999999999889e-01
-2.357132239001686891e-01,3.060293347312201817e-01,2.671793928315377986e-01,1.000000000000000048e-04,4.058012604102871990e+01,2.200000000000000011e-01
-1.390628044916726536e+00,-2.782247158345649840e-01,8.511197941496422281e-01,1.000000000000000048e-04,4.374813118865873918e+01,2.099999999999999922e-01
-2.974492781463182300e+00,7.806063206396451903e-02,1.664525861244499083e-01,1.000000000000000048e-04,3.918223499624478023e+01,2.300000000000000100e-01
2.452639763105590731e+00,-1.740370002180786635e-01,2.788777754018652022e-01,1.000000000000000048e-04,4.058737537728497102e+01,3.200000000000000067e-01
3.073971184149927538e+00,-5.779912881453058704e-01,2.388238286847634839e-01,1.000000000000000048e-04,4.035080778513660249e+01,2.600000000000000089e-01
8.568748800736689653e-01,-7.510897519048077564e-01,9.031772779956330766e-01,1.000000000000000048e-04,4.407727590714225130e+01,2.000000000000000111e-01
4.348981973390291245e-01,1.382668680770905656e+00,4.980963217897986794e-01,1.000000000000000048e-04,4.227137287234290852e+01,1.799999999999999933e-01
1.183014756236772769e+00,7.645440261725902076e-01,1.927921479939420646e-01,1.000000000000000048e-04,3.960544779298729878e+01,2.999999999999999889e-01
-1.930852133180329666e+00,6.446429809918368115e-01,5.683840057815479074e-01,1.000000000000000048e-04,4.299987484924319858e+01,2.399999999999999911e-01
-2.150859552637194305e-01,5.933887830885615777e-01,2.260659262458750707e-01,1.000000000000000048e-04,4.044570157012742584e+01,2.300000000000000100e-01
2.802533509592106675e+00,8.180031829871077242e-01,1.519373033097757286e-01,1.000000000000000048e-04,3.959670957286851234e+01,2.200000000000000011e-01
1.593988117096856172e+00,-8.546096362436078619e-01,1.622064116277404100e-01,1.000000000000000048e-04,3.918042440912862645e+01,2.300000000000000100e-01
-2.366995152341869968e+00,-1.447015651374969902e-01,2.325040989334359320e-01,1.000000000000000048e-04,4.055522516019838264e+01,2.300000000000000100e-01
9.276669822771888008e-02,-1.217823816477811238e+00,1.279786840525050984e+00,1.000000000000000048e-04,4.483751649948676032e+01,2.600000000000000089e-01
2.695603033133084026e+00,-2.208762038094036484e-02,1.459026454937750739e-01,1.000000000000000048e-04,3.899323893038321387e+01,2.099999999999999922e-01
-2.649192732384540783e+00,1.162905816609054011e+00,2.214453990025151420e-01,1.000000000000000048e-04,4.010019115563377312e+01,2.899999999999999800e-01
2.777697114917376808e-01,2.139053520322191648e-01,2.204704152402108264e-01,1.000000000000000048e-04,4.039310534844278067e+01,2.000000000000000111e-01
1.535741734116243151e+00,1.282509291011810770e+00,3.886491283500395078e-01,1.000000000000000048e-04,4.160158318169866476e+01,2.500000000000000000e-01
-3.098378678910451711e-02,3.815218153717414573e-02,3.583564893685919905e-01,1.000000000000000048e-04,4.127917632671766057e+01,2.099999999999999922e-01
2.697715818512113728e+00,-1.160732456895054332e+00,5.556541964246195509e-01,1.000000000000000048e-04,4.270307504555078992e+01,2.300000000000000100e-01
-2.723457408090096177e+00,6.974155167121121046e-02,2.213722737668133433e-01,1.000000000000000048e-04,3.984213049671144802e+01,2.200000000000000011e-01
-1.485644719388759416e+00,-2.564679856056089058e-01,5.236928992108413894e-01,1.000000000000000048e-04,4.225637260249151694e+01,2.399999999999999911e-01
1.461404141868625217e-01,-2.564427577382994983e-01,7.788893692477560915e-01,1.000000000000000048e-04,4.331097267940032225e+01,2.500000000000000000e-01
2.822363625533814258e+00,-7.667580884175073663e-03,2.337112331077753069e-01,1.000000000000000048e-04,4.031117836230578177e+01,2.200000000000000011e-01
8.578395066594168838e-02,-6.088469702847866261e-01,2.058250192761652553e-01,1.000000000000000048e-04,3.991093228966875017e+01,3.300000000000000155e-01
-1.178071075895956277e+00,-3.032176821299750191e-01,3.033873117027261479e-01,1.000000000000000048e-04,4.131802067413688206e+01,2.000000000000000111e-01
-1.037136859704975933e+00,1.316168441621223817e-01,2.982482647198394510e-01,1.000000000000000048e-04,4.098001319392340491e+01,2.600000000000000089e-01
1.805929965599538001e+00,7.082954087586079694e-02,3.323530064266342343e-01,1.000000000000000048e-04,4.121482636506276265e+01,2.399999999999999911e-01
-2.763769236088805759e+00,-1.058013008287618462e+00,2.953329764188696860e-01,1.000000000000000048e-04,4.080041369499372195e+01,2.399999999999999911e-01
4.921759768394293744e-01,4.496420897150574802e-01,2.474978980737074785e-01,1.000000000000000048e-04,4.033547428605459828e+01,2.600000000000000089e-01
2.652826220035274574e+00,1.079868449097605598e+00,1.329008513759172949e+00,1.000000000000000048e-04,4.465628552031522958e+01,2.399999999999999911e-01
-9.589687356380691696e-01,5.450324391902738874e-01,1.945368983452380185e-01,1.000000000000000048e-04,3.983576177354866843e+01,2.000000000000000111e-01
-6.518662509417385564e-01,-5.918455985199299052e-01,1.632584348896073401e-01,1.000000000000000048e-04,3.980057783479387723e+01,3.699999999999999956e-01
7.057116111915093803e-01,-3.147419085206872857e-01,1.685655148437494866e-01,1.000000000000000048e-04,3.953143644689278347e+01,3.099999999999999978e-01
-1.110433015178280414e-02,-1.917181460955446060e-01,3.838400910709083291e-01,1.000000000000000048e-04,4.110373400658552612e+01,2.399999999999999911e-01
-1.358094148573681492e+00,1.048714135657565105e+00,1.305568852145012837e+00,1.000000000000000048e-04,4.469646961622003545e+01,2.099999999999999922e-01
-6.976124733754245355e-01,2.859734259812714008e-01,3.140588701784969849e-01,1.000000000000000048e-04,4.120430304189341797e+01,2.800000000000000266e-01
2.662304002031078198e+00,7.588925244980724294e-01,7.252271824920257792e-01,1.000000000000000048e-04,4.303254110158940904e+01,2.800000000000000266e-01
3.580602702060620146e-02,7.175670504814806172e-01,5.239504844130200567e-01,1.000000000000000048e-04,4.251010235341019694e+01,2.099999999999999922e-01
1.687451068299402834e+00,1.168355422846294900e+00,1.187806827173347735e-01,1.000000000000000048e-04,3.886187353912645648e+01,2.300000000000000100e-01
-2.816537461215422589e+00,9.948173198499685732e-01,1.297723742098588762e-01,1.000000000000000048e-04,3.895779151393043094e+01,2.000000000000000111e-01
1.485865920492920544e+00,2.951760171159556467e-01,2.323836843288462628e-01,1.000000000000000048e-04,4.025208615497988518e+01,1.000000000000000056e-01
2.709545117923539692e+00,3.176369310812043878e-01,3.896694502419146833e-01,1.000000000000000048e-04,4.159456805433059401e+01,1.199999999999999956e-01
1.682263846497424886e-01,-2.974973495365096365e-01,3.262704329866310538e-01,1.000000000000000048e-04,4.119663712331890792e+01,8.999999999999999667e-02
-1.007880432502915369e+00,-1.397166257493979824e+00,4.970618855721100626e-01,1.000000000000000048e-04,4.213300047815804561e+01,1.400000000000000133e-01
-1.171018726679564637e+00,-1.063872777630096245e+00,4.062648549948741916e-01,1.000000000000000048e-04,4.196846775006658703e+01,2.000000000000000111e-01
-1.268573950028120123e-01,-9.826831310463691738e-01,1.886558347289652993e-01,1.000000000000000048e-04,3.979119034654650022e+01,1.900000000000000022e-01
1.977850934832094509e+00,-6.273465641600398657e-01,3.786754062737540671e-01,1.000000000000000048e-04,4.137532619975103643e+01,1.700000000000000122e-01
3.119483933144678645e+00,-3.868894614287190503e-01,5.123872747686930573e-01,1.000000000000000048e-04,4.217121778502535534e+01,3.499999999999999778e-01
-6.863963196850804138e-01,1.803791973538508842e-01,2.499534175382658319e-01,1.000000000000000048e-04,4.055421815658028351e+01,1.700000000000000122e-01
2.854359221432586580e+00,-8.088182415347217047e-01,3.684547514965406112e-01,1.000000000000000048e-04,4.161680680396047194e+01,1.900000000000000022e-01
2.435697227304140178e+00,-1.665605634332589791e-01,2.326309869437641620e-01,1.000000000000000048e-04,4.065051868767937293e+01,1.900000000000000022e-01
