2.796433959960850757e+00,-3.619725852966124702e-01,1.588390190677579916e-01,1.000000000000000048e-04,3.946059276679142869e+01,1.700000000000000122e-01
5.003779262530101413e-01,-6.801171807596750885e-01,2.601320515657219445e-01,1.000000000000000048e-04,4.062732523036297039e+01,1.600000000000000033e-01
5.008781231948749024e-01,-4.443821702382377836e-02,2.513095730893875057e-01,1.000000000000000048e-04,4.069477416070343878e+01,1.600000000000000033e-01
-1.220725929965072565e+00,4.724087527236568995e-01,5.470489530011841683e-01,1.000000000000000048e-04,4.225654596608450930e+01,1.600000000000000033e-01
1.464668184378948190e+00,-1.015537330725654108e+00,6.376892439114241196e-01,1.000000000000000048e-04,4.263291976716567433e+01,1.900000000000000022e-01
-2.510805279102042320e+00,-2.918710990836943520e-01,2.109610642399406544e-01,1.000000000000000048e-04,4.040025729263403775e+01,1.600000000000000033e-01
-2.359124926258975741e+00,-3.617689003905293355e-01,3.047262242701256341e-01,1.000000000000000048e-04,4.095419141519927564e+01,1.700000000000000122e-01
2.033183800701433341e+00,-9.170962258679494772e-01,8.869510015476140818e-01,1.000000000000000048e-04,4.368740568159353188e+01,1.600000000000000033e-01
-6.346887068723772174e-01,2.659780814405614535e-01,1.083042208440316845e+00,1.000000000000000048e-04,4.463187416802293228e+01,1.600000000000000033e-01
-2.100387340896747279e+00,5.776486214139366915e-01,4.676882360404490679e-01,1.000000000000000048e-04,4.197019023502603119e+01,2.200000000000000011e-01
-3.096089251085677230e+00,-6.274974035020174368e-01,6.499414124303677376e-01,1.000000000000000048e-04,4.289456598347953076e+01,8.999999999999999667e-02
-6.814639647421563140e-01,-3.965913439477566360e-01,2.183346289409169305e-01,1.000000000000000048e-04,4.010848592940414648e+01,8.000000000000000167e-02
2.149767711135166515e+00,3.870718075078445342e-01,3.669018810440602962e-01,1.000000000000000048e-04,4.150202550725774842e+01,1.100000000000000006e-01
-3.018476699769273353e+00,8.019757117138932578e-01,1.687060447619967984e-01,1.000000000000000048e-04,3.942727938507994878e+01,1.600000000000000033e-01
-2.683863576452906852e+00,5.212103287495719606e-01,7.714679373107249383e-01,1.000000000000000048e-04,4.325908793414145492e+01,1.300000000000000044e-01
4.367384776729554829e-01,1.529845609062792100e-01,3.071154813868406386e-01,1.000000000000000048e-04,4.086826146616862587e+01,8.999999999999999667e-02
1.974771374812577029e+00,8.273925667481507595e-02,9.082717110431048901e-01,1.000000000000000048e-04,4.429574654681493939e+01,2.099999999999999922e-01
2.294462432979560873e+00,-6.634108729339721622e-01,4.459175930035128577e-01,1.000000000000000048e-04,4.207135828007705669e+01,1.799999999999999933e-01
3.125986462426176615e+00,-6.136744808989664790e-01,5.801866983534458289e-01,1.000000000000000048e-04,4.254937836879751245e+01,1.600000000000000033e-01
-3.080301924844646599e+00,1.064367581970029342e+00,4.028016403134120349e-01,1.000000000000000048e-04,4.166099168799458852e+01,1.799999999999999933e-01
1.512514722332632289e+00,1.013554176195970324e+00,2.476841980533321941e-01,1.000000000000000048e-04,4.055373419988252692e+01,1.600000000000000033e-01
2.744143913264895041e+00,4.582702186855986959e-01,2.239905886634707688e-01,1.000000000000000048e-04,4.059173340891461379e+01,2.000000000000000111e-01
-2.228155081851395991e+00,1.360105803981452866e-01,2.494398454508650609e-01,1.000000000000000048e-04,4.043195227109399781e+01,1.700000000000000122e-01
1.532229137228033444e+00,5.933443412781018722e-01,3.002814996476463882e-01,1.000000000000000048e-04,4.109743532608534622e+01,1.700000000000000122e-01
2.747627066474147561e-01,-1.173047341700908852e+00,4.870925235109340168e-01,1.000000000000000048e-04,4.227858921126929914e+01,1.700000000000000122e-01
2.209422010114810320e+00,-4.624614343899913216e-01,1.504752246485996370e-01,1.000000000000000048e-04,3.960886176032420281e+01,2.000000000000000111e-01
8.513084613012256163e-01,6.463870689860127250e-01,4.007698842458764510e-01,1.000000000000000048e-04,4.170385319959044068e+01,1.900000000000000022e-01
-2.888447674788556796e+00,-1.411716113472385459e-01,2.951012750899562054e-01,1.000000000000000048e-04,4.074626799795382937e+01,1.700000000000000122e-01
-2.295936185988108669e+00,-4.025744322646485074e-02,4.624302894271703490e-01,1.000000000000000048e-04,4.201826477114610014e+01,1.000000000000000056e-01
-3.560271630405607013e-01,-3.629591151595814580e-01,9.239655244532420930e-01,1.000000000000000048e-04,4.389477920983639336e+01,1.000000000000000056e-01
5.785463037518709939e-01,-2.615447789293741110e-01,1.601495604001457185e-01,1.000000000000000048e-04,3.957535081434639324e+01,1.100000000000000006e-01
-2.929044227264955058e+00,4.972085429299557546e-01,2.106813635919644323e-01,1.000000000000000048e-04,4.003285650290340669e+01,1.199999999999999956e-01
8.664544094428450194e-02,-2.380899559711346924e-02,4.227898216611349902e-01,1.000000000000000048e-04,4.172051600995970233e+01,1.300000000000000044e-01
-2.143585041513507150e+00,7.049295242459412414e-01,1.155161782732447406e+00,1.000000000000000048e-04,4.425650023896479723e+01,1.199999999999999956e-01
-3.895885829201479744e-01,1.174531025524619743e+00,5.904234888871688902e-01,1.000000000000000048e-04,4.255814482124753795e+01,1.499999999999999944e-01
-2.722293212328848355e+00,-6.924997113370763291e-01,7.763817517676545599e-01,1.000000000000000048e-04,4.370542663955900053e+01,2.200000000000000011e-01
-1.737945076274358014e+00,-4.628535192971312551e-01,2.200110090015943154e-01,1.000000000000000048e-04,3.997650010270810839e+01,1.199999999999999956e-01
2.931328614080343620e+00,2.518428140627524403e-01,2.421455825487819347e-01,1.000000000000000048e-04,4.040754999706419426e+01,1.600000000000000033e-01
-2.739989406832336272e+00,2.372533269933609912e-01,4.455949962827248090e-01,1.000000000000000048e-04,4.203128591225659960e+01,2.200000000000000011e-01
1.893902962469291573e+00,-3.365828734150264623e-01,2.382225643914641644e-01,1.000000000000000048e-04,4.039805803878015666e+01,2.200000000000000011e-01
-7.232158638916619253e-01,1.276180251180439651e+00,3.459914526501972620e-01,1.000000000000000048e-04,4.127500517466096852e+01,1.300000000000000044e-01
2.236908428323264530e+00,-2.089117489614045198e-03,4.056075394781293308e-01,1.000000000000000048e-04,4.190979403635114409e+01,1.600000000000000033e-01
-1.491118142644773936e+00,-6.963003251520351045e-01,1.241190145652681931e-01,1.000000000000000048e-04,3.860389473865661358e+01,2.099999999999999922e-01
-1.633942541300884788e+00,-9.333878793859398115e-01,3.528707850837438098e-01,1.000000000000000048e-04,4.175686307745203862e+01,2.000000000000000111e-01
-1.860224016624150378e+00,-3.123457921784529301e-01,3.844961262218404840e-01,1.000000000000000048e-04,4.160697033936238398e+01,2.000000000000000111e-01
-2.664009287340669552e+00,1.085691892677824733e-01,2.031055605411717924e-01,1.000000000000000048e-04,4.002872575008960609e+01,2.500000000000000000e-01
-1.409636668742466625e+00,5.511906848069831888e-01,4.165436571445852998e-01,1.000000000000000048e-04,4.158869967305804494e+01,2.200000000000000011e-01
2.093467777316222467e+00,1.666844382770853450e-01,8.746008264068452220e-01,1.000000000000000048e-04,4.362790671712163260e+01,1.199999999999999956e-01
-1.468037958740181947e+00,-5.124521233417835830e-01,2.208042690831344412e-01,1.000000000000000048e-04,4.038856447654779913e+01,1.400000000000000133e-01
-1.395816897058516526e+00,-1.389662635733771134e+00,8.706054509777141348e-01,1.000000000000000048e-04,4.387891899609419255e+01,1.400000000000000133e-01
2.672917902351215957e+00,7.587385112783184837e-01,1.484280835002789178e-01,1.000000000000000048e-04,3.911452158237818111e+01,1.100000000000000006e-01
2.444263603601168455e+00,-1.918010884233753988e-01,4.130864711005983736e-01,1.000000000000000048e-04,4.180622504426111874e+01,1.199999999999999956e-01
-6.387315347994411141e-01,6.724172876000755750e-02,1.341447134237471861e+00,1.000000000000000048e-04,4.493410946575454545e+01,2.000000000000000111e-01
-2.544628372120252280e-01,1.270583905858383655e+00,4.195776285293129071e-01,1.000000000000000048e-04,4.166101228795724865e+01,1.199999999999999956e-01
-3.156007798399556030e-01,7.174568856319716303e-01,3.266501890921627016e-01,1.000000000000000048e-04,4.122021147566805865e+01,1.499999999999999944e-01
-3.125981412987815844e+00,5.275913159401026675e-01,1.509137982564914271e-01,1.000000000000000048e-04,3.929073197196093048e+01,1.499999999999999944e-01
-2.275231264014765831e+00,-5.075068327613514452e-01,7.219647628384766591e-01,1.000000000000000048e-04,4.304503857332102257e+01,1.100000000000000006e-01
-1.494830653186221658e+00,-1.010339897722160707e+00,2.998430805319975967e-01,1.000000000000000048e-04,4.115755223740760727e+01,1.199999999999999956e-01
1.955588884872378586e+00,-1.146201856437658595e-01,1.153642462982127359e-01,1.000000000000000048e-04,3.893345006684939591e+01,1.300000000000000044e-01
-5.373005591126616132e-01,-5.342334869444624879e-01,1.804134483164652192e-01,1.000000000000000048e-04,3.978086512991137624e+01,1.300000000000000044e-01
-2.074647467974683579e+00,-8.591955654482311688e-01,3.667214922651180764e-01,1.000000000000000048e-04,4.135136771129010214e+01,1.100000000000000006e-01
-2.248230049829111454e+00,6.665184207784604631e-01,5.068086182273883189e-01,1.000000000000000048e-04,4.212044364303743293e+01,1.600000000000000033e-01
-1.786592238059237392e+00,7.058998024100606727e-01,9.581587329908061168e-01,1.000000000000000048e-04,4.396059491915430328e+01,1.199999999999999956e-01
-1.263235127430091254e-01,9.665701281566181358e-01,2.325094037502744015e-01,1.000000000000000048e-04,4.027453878091117190e+01,1.300000000000000044e-01
-2.044583727851870592e+00,-9.078192311028829842e-01,6.949359723091117491e-01,1.000000000000000048e-04,4.326251471310588670e+01,1.199999999999999956e-01
3.097291499485848476e+00,-6.109499045132961159e-01,1.761789805661919672e-01,1.000000000000000048e-04,3.997540704236408970e+01,1.700000000000000122e-01
-4.442235694417875358e-01,2.076625259727378214e-01,3.466567126336472793e-01,1.000000000000000048e-04,4.122642772357555430e+01,1.100000000000000006e-01
-7.218817028561299587e-01,1.559218271181883608e-02,1.878374141064091951e-01,1.000000000000000048e-04,3.983395864125319719e+01,1.100000000000000006e-01
9.921177618120324837e-01,-3.197013089020448451e-01,3.455678417356160548e-01,1.000000000000000048e-04,4.131093415958811477e+01,1.199999999999999956e-01
-2.464863798023891661e+00,1.101018076202574303e+00,3.008650634168079652e-01,1.000000000000000048e-04,4.131925952862388129e+01,1.499999999999999944e-01
-1.503332468131137745e+00,6.110788046969881648e-01,2.683565557839011628e-01,1.000000000000000048e-04,4.059431012770940583e+01,1.199999999999999956e-01
7.221196890902916721e-01,-3.011234435240541796e-01,5.997561928569679068e-01,1.000000000000000048e-04,4.270934028205446964e+01,1.400000000000000133e-01
3.011777356188360955e+00,-5.140513814528735459e-02,3.683187193123669267e-01,1.000000000000000048e-04,4.148612192640590024e+01,1.199999999999999956e-01
-2.184441126890745100e+00,4.345050649174950763e-01,7.827073727993143493e-01,1.000000000000000048e-04,4.356144632920487680e+01,1.100000000000000006e-01
1.329830696006105484e+00,1.200556195339800070e+00,2.920133779604940916e-01,1.000000000000000048e-04,4.121087777843590061e+01,1.100000000000000006e-01
6.796969342571195227e-01,6.632224720724542166e-01,2.850539105186062905e-01,1.000000000000000048e-04,4.051797175771623216e+01,1.300000000000000044e-01
1.284790825357717381e+00,1.184601232085497724e+00,1.153830726600776568e+00,1.000000000000000048e-04,4.472029100523564438e+01,1.400000000000000133e-01
-1.953229530531684022e+00,7.810989537859680532e-01,9.832518305993387386e-01,1.000000000000000048e-04,4.405549823591362468e+01,1.199999999999999956e-01
2.526948432501630926e+00,-4.992126993687076020e-01,2.107201117642778510e-01,1.000000000000000048e-04,4.012952100849840065e+01,1.100000000000000006e-01
-8.374650137433912178e-01,1.886101626765730455e-01,5.243702601199409230e-01,1.000000000000000048e-04,4.244401437396501819e+01,1.199999999999999956e-01
2.395139978037157391e-01,6.278155728685779202e-01,1.906387784911318661e-01,1.000000000000000048e-04,3.995039032498640097e+01,1.199999999999999956e-01
1.779364417273390231e+00,2.573428258691652371e-01,1.855596212536414491e-01,1.000000000000000048e-04,4.010886052399439450e+01,1.300000000000000044e-01
-7.697813661353540837e-01,-3.310636133343414222e-01,3.706550487643893721e-01,1.000000000000000048e-04,4.158929584240628685e+01,1.199999999999999956e-01
-2.389731185128530555e+00,7.873546309044932023e-02,2.497936530418718437e-01,1.000000000000000048e-04,4.040187656452805953e+01,1.100000000000000006e-01
-7.786301406568734151e-01,-6.591821041770621337e-01,4.873670227563062785e-01,1.000000000000000048e-04,4.220431672027277870e+01,1.199999999999999956e-01
1.329296266397931525e+00,8.490557860458420869e-01,3.030597746217806865e-01,1.000000000000000048e-04,4.066235426126772268e+01,1.700000000000000122e-01
2.886668707326842664e+00,-1.172342383507271490e+00,4.299108001848555016e-01,1.000000000000000048e-04,4.193553211197797026e+01,1.400000000000000133e-01
-5.108294300605744631e-01,1.041301100547892045e+00,3.571260009496901588e-01,1.000000000000000048e-04,4.116085070104274735e+01,1.199999999999999956e-01
1.641114201073445855e+00,-1.168039764072870579e+00,2.881086492988078618e-01,1.000000000000000048e-04,4.118490118187350646e+01,1.600000000000000033e-01
1.739100576592583991e+00,-7.671028177892473821e-01,2.384076292439862854e-01,1.000000000000000048e-04,4.046850231838425316e+01,1.700000000000000122e-01
3.013856176633424866e+00,1.107115110527823187e+00,2.162048159058163055e-01,1.000000000000000048e-04,3.977587450986314366e+01,1.499999999999999944e-01
-9.316979672682199620e-01,7.184040806479341512e-01,6.851524927636882811e-01,1.000000000000000048e-04,4.302908492287777875e+01,1.100000000000000006e-01
1.824145746825680092e+00,-3.536077006242033249e-02,6.069846726066685516e-01,1.000000000000000048e-04,4.283199262838443389e+01,2.000000000000000111e-01
-2.037191796443373448e+00,1.733812433342010184e-01,2.517108729824220070e-01,1.000000000000000048e-04,4.059698506767487203e+01,1.300000000000000044e-01
-2.416305131382374682e-01,-9.193952744876840999e-01,7.894095959678915086e-01,1.000000000000000048e-04,4.345895521796203553e+01,1.499999999999999944e-01
-1.932544600328838680e+00,1.467527933117660499e-01,1.028679964040180472e+00,1.000000000000000048e-04,4.408497415777786443e+01,1.100000000000000006e-01
2.949330059849422092e-01,-7.982630960997920688e-01,8.719145674815771407e-01,1.000000000000000048e-04,4.388050970095209635e+01,1.199999999999999956e-01
-2.663158095265404146e+00,-9.759337481193544050e-01,2.665186020322884985e-01,1.000000000000000048e-04,4.083707074787265157e+01,1.100000000000000006e-01
1.264480690176576161e+00,-6.792206180820343775e-01,2.155079835619582163e-01,1.000000000000000048e-04,4.029910815559592407e+01,1.100000000000000006e-01
-6.288599211935901323e-01,9.544619156129128257e-01,3.063895075568647819e-01,1.000000000000000048e-04,4.122608086177979914e+01,2.099999999999999922e-01
1.445753682364196990e-01,-7.654783013922195067e-03,1.553095997661420036e-01,1.000000000000000048e-04,3.939593314080618569e+01,1.199999999999999956e-01
2.678337675142210550e+00,-8.167612604266103471e-01,2.492868636682210592e-01,1.000000000000000048e-04,4.061623469142656973e+01,1.199999999999999956e-01
-2.171122163885172540e+00,-5.077578628530106108e-01,6.507843159040949121e-01,1.000000000000000048e-04,4.292061284413733091e+01,1.199999999999999956e-01
1.151231045037167000e+00,-4.984968535161615755e-02,6.605874936650735219e-01,1.000000000000000048e-04,4.312741157973352557e+01,1.700000000000000122e-01
6.502449806507444308e-01,2.584903841244983180e-01,2.481749207452172978e-01,1.000000000000000048e-04,4.067034105200183092e+01,1.100000000000000006e-01
1.595981711813019288e+00,-9.038392634929693914e-01,1.117158891046754476e-01,1.000000000000000048e-04,3.889628583872642054e+01,2.099999999999999922e-01
-7.443019821592193885e-01,-9.608083930824151686e-02,9.468330688725792310e-01,1.000000000000000048e-04,4.387852712355154949e+01,1.300000000000000044e-01
-1.186682983064013541e-02,-4.381999429972214255e-01,1.874771275559050654e-01,1.000000000000000048e-04,4.010390673932721484e+01,1.199999999999999956e-01
2.334742181603850497e-01,3.744418934292961243e-01,1.468396908793510036e-01,1.000000000000000048e-04,3.923224202583550380e+01,1.300000000000000044e-01
-8.259505635289974279e-01,8.506288578682070778e-01,3.971959596026977124e-01,1.000000000000000048e-04,4.143154855693118321e+01,1.799999999999999933e-01
-1.619811739269916950e+00,-3.699616126068046018e-01,8.207601556673145282e-01,1.000000000000000048e-04,4.372904084094649590e+01,1.199999999999999956e-01
-2.295607170721179813e+00,-8.505646244028473024e-01,3.159780347188965166e-01,1.000000000000000048e-04,4.109574680210339181e+01,1.199999999999999956e-01
4.276935565714046206e-02,4.295697744618696134e-01,1.880501314409406266e-01,1.000000000000000048e-04,3.988799586225698590e+01,1.900000000000000022e-01
1.720341335199986332e+00,1.166899433032268618e+00,2.248744484840123903e-01,1.000000000000000048e-04,4.024244197367035980e+01,1.300000000000000044e-01
3.673829405835244977e-01,-5.866896644768649915e-01,3.338274206031182079e-01,1.000000000000000048e-04,4.118794046016084565e+01,1.499999999999999944e-01
-3.049644340427049016e-02,-1.432639816894958340e-01,4.032791393800769786e-01,1.000000000000000048e-04,4.164230712829719039e+01,1.499999999999999944e-01
3.048096228830354804e-01,-1.199178591123630344e+00,2.409801217185243427e-01,1.000000000000000048e-04,4.025361866597489069e+01,1.400000000000000133e-01
-1.817818675970130249e+00,-4.694323284633126203e-01,2.587486331300448139e-01,1.000000000000000048e-04,4.072997075434727066e+01,1.400000000000000133e-01
2.529947333745149685e+00,-7.668364220407953846e-01,1.112912862805830461e-01,1.000000000000000048e-04,3.882023286712892229e+01,1.199999999999999956e-01
1.322468015671473651e+00,1.124218695152015890e+00,2.145336593606321784e-01,1.000000000000000048e-04,4.011309661811581151e+01,1.199999999999999956e-01
4.468961451584174682e-02,-5.195519050964305663e-01,4.687029424397701760e-01,1.000000000000000048e-04,4.224014594134813905e+01,1.100000000000000006e-01
5.856998167313429704e-01,6.330452266357080582e-01,8.653034230524243586e-01,1.000000000000000048e-04,4.385824114458780087e+01,1.100000000000000006e-01
-9.105259095061004615e-01,-2.387730058499812902e-01,4.025966293585627742e-01,1.000000000000000048e-04,4.180187652760996997e+01,1.400000000000000133e-01
-7.719951038922747699e-01,-7.444010125746585160e-01,6.306039674276431306e-01,1.000000000000000048e-04,4.259404825525540161e+01,1.499999999999999944e-01
2.635488873439268076e+00,-7.107900623572435128e-01,1.081829508992308675e+00,1.000000000000000048e-04,4.424966550390498554e+01,1.199999999999999956e-01
-7.607119749583612922e-01,7.490558201182420106e-01,4.768123446236456342e-01,1.000000000000000048e-04,4.254939637604618241e+01,2.099999999999999922e-01
4.580287442360533312e-01,2.395745209349129379e-01,5.179293202342212243e-01,1.000000000000000048e-04,4.238330179837804934e+01,1.300000000000000044e-01
-2.924777579168839736e+00,-1.341828423635916590e+00,1.200103632919424790e-01,1.000000000000000048e-04,3.873655626240130090e+01,1.400000000000000133e-01
-4.402361512531065557e-01,-9.987145620351212116e-02,7.963695806709290004e-01,1.000000000000000048e-04,4.344084110847241931e+01,1.199999999999999956e-01
1.961619813974044391e+00,6.186937574826143482e-01,1.696637744988016561e-01,1.000000000000000048e-04,3.965997456600568682e+01,1.199999999999999956e-01
1.989645700434269138e+00,9.717012310403760900e-02,2.410476178086704557e-01,1.000000000000000048e-04,4.071865697241988613e+01,1.100000000000000006e-01
2.505267003211073984e+00,-4.087772776485827375e-01,4.939794176154068683e-01,1.000000000000000048e-04,4.229364296529893608e+01,1.300000000000000044e-01
-3.007358985754423397e+00,1.923566255693447413e-01,8.117160646696746085e-01,1.000000000000000048e-04,4.373364160730456973e+01,1.199999999999999956e-01
-1.506189965817936516e+00,-3.843942580438790557e-01,9.907531656144077381e-01,1.000000000000000048e-04,4.406253087993191286e+01,1.199999999999999956e-01
2.485724936854137646e+00,2.589415947601572121e-01,4.227722631497670136e-01,1.000000000000000048e-04,4.169428809175420270e+01,1.300000000000000044e-01
-1.061980350697661724e+00,1.448349609855335451e+00,8.366368104506229919e-01,1.000000000000000048e-04,4.355114447097489716e+01,1.300000000000000044e-01
-1.997942963219685009e+00,-9.822874259447883505e-01,1.745696857965512994e-01,1.000000000000000048e-04,3.972864936901371635e+01,1.199999999999999956e-01
-2.733921140098503955e+00,-1.220302085620987409e+00,5.722579564227354698e-01,1.000000000000000048e-04,4.274968476480739099e+01,1.199999999999999956e-01
3.063582091344119185e+00,-1.321507196548902030e+00,9.744488938895838892e-01,1.000000000000000048e-04,4.407641457906386506e+01,1.300000000000000044e-01
1.585969296982785437e-01,1.108517899071988833e+00,5.205559446901919518e-01,1.000000000000000048e-04,4.240878966401630379e+01,1.199999999999999956e-01
8.498714654446519745e-01,2.137221776641136106e-01,3.911184460338976709e-01,1.000000000000000048e-04,4.177135491204907680e+01,1.199999999999999956e-01
1.926466965134338238e+00,-1.502392621014956298e-01,2.681840000162756255e-01,1.000000000000000048e-04,4.080605832228478391e+01,1.199999999999999956e-01
1.707025908854491014e+00,-3.149613415477212630e-01,1.440117849372772874e-01,1.000000000000000048e-04,3.932059340571795047e+01,1.499999999999999944e-01
-2.964816362957702456e+00,-4.946101929124622210e-01,1.691083132306352432e-01,1.000000000000000048e-04,3.956593154719355709e+01,1.199999999999999956e-01
-5.018409122045097703e-02,-2.482271088177976370e-01,6.131977872060956347e-01,1.000000000000000048e-04,4.243569007225717371e+01,2.000000000000000111e-01
-1.517174153857454799e+00,9.295216942843751440e-01,9.703621291921071812e-01,1.000000000000000048e-04,4.388552724646743997e+01,2.000000000000000111e-01
1.294092327965906897e+00,7.770343912725259372e-01,1.328771716875396525e-01,1.000000000000000048e-04,3.897715356721344193e+01,1.400000000000000133e-01
-6.452962956179080223e-01,2.501316959833652653e-01,5.696099083244843264e-01,1.000000000000000048e-04,4.268837869392449136e+01,1.199999999999999956e-01
-4.177186159568049284e-01,3.470103115269591587e-01,3.098778277549936178e-01,1.000000000000000048e-04,4.120138745619504306e+01,1.300000000000000044e-01
-7.395121101868755709e-01,5.761565929981276035e-01,2.189701815065014934e-01,1.000000000000000048e-04,4.002539689793266575e+01,1.799999999999999933e-01
-2.145014744601299483e+00,1.055784777316343348e+00,4.037962925998703767e-01,1.000000000000000048e-04,4.178228968578844160e+01,1.499999999999999944e-01
-3.080386495577748462e+00,6.772284190024580042e-01,5.993619356031947287e-01,1.000000000000000048e-04,4.284963673637774662e+01,1.100000000000000006e-01
1.193083770007277167e-01,7.290896969270965755e-01,7.353657904153987346e-01,1.000000000000000048e-04,4.320581382701160322e+01,1.199999999999999956e-01
-6.880882073380267805e-01,1.729066622678578913e-01,3.338375656446892492e-01,1.000000000000000048e-04,4.136699455300778538e+01,1.499999999999999944e-01
2.908240021845024614e+00,1.405456626805761111e+00,4.885770406680638445e-01,1.000000000000000048e-04,4.224942923596931621e+01,1.900000000000000022e-01
2.345289596037080315e+00,7.849831750131817110e-01,1.820817236317622267e-01,1.000000000000000048e-04,3.964177262871302787e+01,1.799999999999999933e-01
4.258700465841025462e-01,-3.426203755610763846e-01,4.554021710153495217e-01,1.000000000000000048e-04,4.201762281786184161e+01,1.499999999999999944e-01
2.547809158484841241e+00,-7.466866766964264102e-01,6.098386210425914555e-01,1.000000000000000048e-04,4.271206946154433837e+01,1.499999999999999944e-01
2.749695511020027183e+00,-8.296612531500130450e-01,3.292248289251158422e-01,1.000000000000000048e-04,4.130359918290725574e+01,3.599999999999999867e-01
1.453612552867094010e+00,-1.267346780263584494e+00,2.520956967518543923e-01,1.000000000000000048e-04,4.104528884658025589e+01,3.900000000000000133e-01
-4.482712251330953634e-01,6.834768938908788449e-01,3.028544903960783685e-01,1.000000000000000048e-04,4.122435201009201933e+01,3.900000000000000133e-01
-6.632044530828125062e-01,3.580564917504469591e-03,6.816036325289969167e-01,1.000000000000000048e-04,4.284615274774562010e+01,3.099999999999999978e-01
-1.069022195761928362e+00,-3.969155402417123835e-01,1.841203768796690898e-01,1.000000000000000048e-04,3.961260031591019271e+01,3.300000000000000155e-01
-9.274543799092342944e-01,4.493839632732563594e-01,3.327883059009157929e-01,1.000000000000000048e-04,4.159220697811699097e+01,4.000000000000000222e-01
2.283859745780035588e+00,1.973650168610940892e-01,1.204991163191023951e+00,1.000000000000000048e-04,4.443728637607384258e+01,3.200000000000000067e-01
3.011373694236682219e+00,6.273044710897348608e-01,8.046634383937973922e-01,1.000000000000000048e-04,4.312100053183902304e+01,3.200000000000000067e-01
1.646628008764763784e+00,3.431759830972644920e-01,6.114238924692068089e-01,1.000000000000000048e-04,4.269002555338833815e+01,3.599999999999999867e-01
2.504481408533957953e+00,1.159205971616036113e+00,4.902514925324144013e-01,1.000000000000000048e-04,4.234252260505380860e+01,2.399999999999999911e-01
3.018272261884446195e+00,-7.200591415401237372e-01,1.208601744980888348e-01,1.000000000000000048e-04,3.917301774858395902e+01,2.999999999999999889e-01
1.062254943222630921e+00,1.372290933673308899e+00,3.460404673262746922e-01,1.000000000000000048e-04,4.141358763293141720e+01,2.399999999999999911e-01
-2.947173170364527639e+00,-1.754732600071950976e-01,1.490174455108428386e-01,1.000000000000000048e-04,3.987494577055555567e+01,2.899999999999999800e-01
1.574841474534056651e+00,-6.789232230117364653e-01,1.607976203735543841e-01,1.000000000000000048e-04,3.974603964167653913e+01,2.899999999999999800e-01
5.255587973283497583e-01,4.684415962708583514e-01,3.050350915813155872e-01,1.000000000000000048e-04,4.096588160756040509e+01,2.899999999999999800e-01
-1.797556001069384291e+00,-4.167982501381308769e-01,2.416426822193775692e-01,1.000000000000000048e-04,3.949153851000061621e+01,3.699999999999999956e-01
-2.055308210215751608e+00,-2.550538564902564698e-01,1.779695329814272586e-01,1.000000000000000048e-04,3.977507600733991922e+01,2.300000000000000100e-01
-2.111495916274511941e+00,-6.850080210635849376e-01,3.936307463134598450e-01,1.000000000000000048e-04,4.178013053204397664e+01,2.000000000000000111e-01
-2.416090659437760912e+00,-1.370679563561942871e-01,9.226628776887881855e-01,1.000000000000000048e-04,4.346381724530473178e+01,3.800000000000000044e-01
-2.338458407010500562e+00,-2.055145895780765564e-01,1.277773900605327917e-01,1.000000000000000048e-04,3.851149357072187485e+01,2.300000000000000100e-01
1.904741344221405619e+00,3.299720331684996566e-02,2.986734527042802512e-01,1.000000000000000048e-04,4.128005196622319772e+01,3.900000000000000133e-01
-2.110122558624482281e+00,-9.065387497954146001e-01,1.516294024005999663e-01,1.000000000000000048e-04,3.945980384914496852e+01,2.200000000000000011e-01
-2.742039736427556385e+00,-1.067990142006383092e+00,1.486276521967548891e-01,1.000000000000000048e-04,3.950966098172992247e+01,2.399999999999999911e-01
-2.409546547772062564e+00,2.314828858506334797e-01,3.283107020914111107e-01,1.000000000000000048e-04,4.154418038863084206e+01,2.000000000000000111e-01
1.981815957453523680e+00,3.607840032196198976e-01,1.465723870516251193e-01,1.000000000000000048e-04,3.902154925595629464e+01,1.900000000000000022e-01
-4.561500524425525782e-01,-1.188410581482637784e+00,3.441491251365071946e-01,1.000000000000000048e-04,4.141425741865892718e+01,2.600000000000000089e-01
-1.896538192809824830e+00,-1.100628055031234176e-01,8.068630633098328175e-01,1.000000000000000048e-04,4.345488299666058651e+01,1.900000000000000022e-01
-7.813951177568334572e-03,-4.096046733708167409e-01,6.751562529204440111e-01,1.000000000000000048e-04,4.316869991612563950e+01,1.000000000000000056e-01
-1.397263050305244558e+00,1.645160079358931604e-02,1.355497484048969969e+00,1.000000000000000048e-04,4.490215750784876292e+01,1.400000000000000133e-01
-2.909979319177822710e+00,-5.762698066573572753e-01,4.564796913409434609e-01,1.000000000000000048e-04,4.176522673696408816e+01,1.900000000000000022e-01
1.156622546766466364e+00,4.008106814568994647e-01,1.366057979020960378e-01,1.000000000000000048e-04,3.894060771504462792e+01,1.499999999999999944e-01
-1.475117345756689513e+00,2.152011141655507664e-01,4.539572443755233166e-01,1.000000000000000048e-04,4.172268702520256056e+01,1.900000000000000022e-01
3.541471637282502805e-01,4.409682565035337731e-01,5.288423644146840186e-01,1.000000000000000048e-04,4.221600590536355213e+01,1.700000000000000122e-01
1.026203264912955326e+00,1.187136684160365441e+00,2.309988389258967878e-01,1.000000000000000048e-04,4.032064942680118236e+01,1.100000000000000006e-01
7.011622552200713621e-01,-5.251858091659418193e-01,1.160632454761277632e+00,1.000000000000000048e-04,4.433372929058035794e+01,2.000000000000000111e-01
2.830630068091908313e+00,1.163813540582009587e+00,3.873028386231041065e-01,1.000000000000000048e-04,4.152346428251944133e+01,1.700000000000000122e-01
-1.888167426360544576e+00,-1.240436443576050873e+00,8.226663539117367030e-01,1.000000000000000048e-04,4.365949492648604036e+01,1.100000000000000006e-01
-5.709202172685583498e-01,-6.851940697217662191e-02,1.100241889007549823e+00,1.000000000000000048e-04,4.456936626065171225e+01,1.700000000000000122e-01
-1.157116801204348899e+00,8.268883864997076394e-01,1.818898809245275139e-01,1.000000000000000048e-04,3.949513839758222389e+01,1.600000000000000033e-01
-6.974735917546244224e-01,2.836693242780263802e-01,7.601490496119862605e-01,1.000000000000000048e-04,4.336779429433293842e+01,2.200000000000000011e-01
3.263790943374011988e-01,4.461654351839583477e-02,2.232329475326710888e-01,1.000000000000000048e-04,3.983786533600407864e+01,2.800000000000000266e-01
6.259942750833964453e-01,2.981883792592634475e-01,3.054980069530617293e-01,1.000000000000000048e-04,4.102221156587877005e+01,2.099999999999999922e-01
1.475466937722679894e+00,-1.176330948454382685e+00,5.243843678356689963e-01,1.000000000000000048e-04,4.173632510890161029e+01,2.899999999999999800e-01
-2.678310704440959977e+00,-6.559758699123008352e-01,3.707494042811330104e-01,1.000000000000000048e-04,4.140551896471612281e+01,1.400000000000000133e-01
2.068106382171746915e+00,-2.743208880395240357e-01,1.389128137296364862e-01,1.000000000000000048e-04,3.941000232801362557e+01,1.600000000000000033e-01
2.044462251733491165e+00,-8.432261874592317241e-02,8.365633114315649266e-01,1.000000000000000048e-04,4.343179737253283434e+01,2.099999999999999922e-01
2.608987118606077793e+00,-1.138804307418423090e+00,2.407042371416874271e-01,1.000000000000000048e-04,4.084599663812348069e+01,2.600000000000000089e-01
-2.703796727960906310e+00,-9.659333030575956158e-02,4.047844772962447824e-01,1.000000000000000048e-04,4.167267442569964686e+01,1.400000000000000133e-01
-2.811161111882742425e+00,3.459317265753745207e-01,4.142490269789875779e-01,1.000000000000000048e-04,4.197920874650287715e+01,1.600000000000000033e-01
-2.814909268774123952e+00,1.059161214510755400e-01,2.011026597334824029e-01,1.000000000000000048e-04,4.004011949501010292e+01,2.000000000000000111e-01
-8.513808178854551656e-01,3.952231370273664446e-01,8.589134477734141626e-01,1.000000000000000048e-04,4.357887363637274802e+01,2.099999999999999922e-01
-1.172803584995799397e+00,1.101215944930450608e+00,4.599348761849235689e-01,1.000000000000000048e-04,4.216313890135088371e+01,1.700000000000000122e-01
7.869599444909494146e-01,-1.067601278215517535e-01,1.498855719489935456e-01,1.000000000000000048e-04,3.919793247331848818e+01,1.499999999999999944e-01
-2.166168657074423187e+00,2.184626875460236040e-01,1.113370208706767173e+00,1.000000000000000048e-04,4.441589888564824662e+01,1.700000000000000122e-01
7.796190614161524479e-01,2.133783614630353487e-01,3.645857331960919989e-01,1.000000000000000048e-04,4.147248019220987203e+01,1.400000000000000133e-01
-4.914383889982314457e-01,-5.668375963964116249e-01,3.545692724971067911e-01,1.000000000000000048e-04,4.160121458927635985e+01,1.499999999999999944e-01
7.904020634438300164e-01,4.941928692886792263e-01,4.777776361647017023e-01,1.000000000000000048e-04,4.203156914769292740e+01,3.400000000000000244e-01
-3.004037770185406853e+00,2.321297489866411823e-01,3.654009955722887781e-01,1.000000000000000048e-04,4.147847401580941096e+01,1.700000000000000122e-01
-2.932453199614211137e-01,-1.294485734395578458e+00,3.715584148746573501e-01,1.000000000000000048e-04,4.157924648677643376e+01,1.400000000000000133e-01
-2.795425417556976377e+00,3.984899796834275865e-01,2.121477807293232765e-01,1.000000000000000048e-04,4.022203359498971764e+01,1.799999999999999933e-01
2.958787322748134940e+00,-1.002292408838405535e+00,2.461978764838101963e-01,1.000000000000000048e-04,4.061105917065895454e+01,1.900000000000000022e-01
7.012519433039163808e-01,-1.490353476230836804e-01,3.808128659383738235e-01,1.000000000000000048e-04,4.146512461103481684e+01,1.499999999999999944e-01
-2.040527912121756771e+00,8.586444739932757031e-01,1.270826836844857421e+00,1.000000000000000048e-04,4.454014671533538205e+01,1.700000000000000122e-01
9.889997793517704139e-01,-9.906287349540868759e-01,8.168915041157489565e-01,1.000000000000000048e-04,4.353179716567168356e+01,1.600000000000000033e-01
4.002995063900769424e-01,7.027986743679845993e-01,2.301732547070549639e-01,1.000000000000000048e-04,4.034271360159173270e+01,1.499999999999999944e-01
2.662985695503256700e+00,-3.154840564851386642e-01,1.270521671264623897e-01,1.000000000000000048e-04,3.928474677649721514e+01,1.700000000000000122e-01
3.015519060993499423e+00,9.788681589196306376e-01,5.603943693937942783e-01,1.000000000000000048e-04,4.257937180959106627e+01,1.600000000000000033e-01
1.690976754736368548e-01,-2.486684466387694137e-01,7.419659401198304138e-01,1.000000000000000048e-04,4.298388453486740701e+01,2.899999999999999800e-01
3.140859095859688921e+00,6.872825079836881734e-01,7.320632419332777641e-01,1.000000000000000048e-04,4.336393153780402088e+01,1.400000000000000133e-01
2.941078255041158940e+00,-6.187766790376028059e-01,1.336269035428743202e-01,1.000000000000000048e-04,3.915052889155670357e+01,1.499999999999999944e-01
2.124692747097163270e-01,4.742485083612812957e-02,3.887477968434753794e-01,1.000000000000000048e-04,4.174010796685708868e+01,1.900000000000000022e-01
-1.396583894036745210e+00,-9.316846364826559812e-01,3.898858710952457507e-01,1.000000000000000048e-04,4.166853155514889551e+01,2.500000000000000000e-01
2.609603448528122094e+00,1.179619696847844512e-01,5.677640951162390426e-01,1.000000000000000048e-04,4.290388049849186558e+01,1.499999999999999944e-01
-2.021282949165426501e+00,-1.743059000033937433e-01,3.409270412885641033e-01,1.000000000000000048e-04,4.134337758075285763e+01,2.099999999999999922e-01
-6.571206433183895967e-01,5.679731883774561396e-01,1.349352136762869137e-01,1.000000000000000048e-04,3.892530577641670675e+01,1.900000000000000022e-01
4.667435914872952729e-01,-1.152687555966704913e-01,1.575592767053233256e-01,1.000000000000000048e-04,3.979088473451791685e+01,2.099999999999999922e-01
-4.120701532634960529e-01,8.836068985736500458e-02,5.558280632870467031e-01,1.000000000000000048e-04,4.235759459167515217e+01,2.099999999999999922e-01
1.653912102934426365e+00,7.002893600419923814e-02,1.017913769101352894e+00,1.000000000000000048e-04,4.442508303993761132e+01,1.499999999999999944e-01
1.756477548365261043e+00,1.322374613891271977e+00,2.304623605943247888e-01,1.000000000000000048e-04,4.027955745532054976e+01,1.400000000000000133e-01
-8.842166849745192181e-02,-8.834433060096913426e-01,3.513455935378377859e-01,1.000000000000000048e-04,4.159674968510730508e+01,3.800000000000000044e-01
-2.670121992509915110e-01,9.712604668009512388e-01,3.343875244344776121e-01,1.000000000000000048e-04,4.085465460456595110e+01,2.200000000000000011e-01
-3.318808752198867396e-01,1.339373181527192536e-01,1.278362127262475667e-01,1.000000000000000048e-04,3.864272167905183863e+01,1.499999999999999944e-01
1.915048312901989291e+00,1.114828317776048738e+00,7.562987730364245653e-01,1.000000000000000048e-04,4.330972591587631371e+01,1.700000000000000122e-01
-1.631772550035438307e+00,-4.855138088536348207e-02,3.721268691298704745e-01,1.000000000000000048e-04,4.152369806401916463e+01,1.700000000000000122e-01
-1.646825309538182402e+00,4.099146068610817206e-01,1.431862808982253821e-01,1.000000000000000048e-04,3.917196946787746015e+01,2.600000000000000089e-01
1.794137932447397610e+00,3.440064083716798393e-02,1.698847729258612382e-01,1.000000000000000048e-04,3.996245119938349433e+01,2.800000000000000266e-01
-2.083835694680331585e-01,-1.095954390717408078e+00,1.130617407081893067e-01,1.000000000000000048e-04,3.893397943461842914e+01,1.799999999999999933e-01
2.465069419044454868e+00,-3.248238966136298700e-01,1.156715310935825247e-01,1.000000000000000048e-04,3.896427238185457043e+01,1.499999999999999944e-01
2.465932303036256990e+00,8.463752571660698720e-02,1.361950116960684021e-01,1.000000000000000048e-04,3.947123704992310422e+01,2.200000000000000011e-01
-3.140453185193111452e+00,-1.275437560965017925e+00,2.929682052060638142e-01,1.000000000000000048e-04,4.097012579792898634e+01,2.000000000000000111e-01
3.084539199724540381e+00,-5.485099552899381781e-01,4.760952028167000361e-01,1.000000000000000048e-04,4.239336858510204564e+01,1.600000000000000033e-01
-1.251018632373492867e+00,2.940816945633379920e-01,2.288193392964068540e-01,1.000000000000000048e-04,4.002307529021740606e+01,1.600000000000000033e-01
2.896290569475298504e+00,-8.814498616598133163e-01,4.521074323416005569e-01,1.000000000000000048e-04,4.222254071217080451e+01,2.099999999999999922e-01
1.696426950970660208e+00,-5.441241944822514665e-01,5.303893933978456321e-01,1.000000000000000048e-04,4.237699876152696987e+01,2.899999999999999800e-01
-2.726558682014774693e+00,4.238086073403442011e-01,1.970402196987293131e-01,1.000000000000000048e-04,3.955392135093354966e+01,1.400000000000000133e-01
6.496310337597042128e-01,-2.625966413433040714e-01,6.605716827154670678e-01,1.000000000000000048e-04,4.280345510075945725e+01,2.700000000000000178e-01
1.739537038108657896e+00,1.385000696871217851e+00,1.474631562159698372e-01,1.000000000000000048e-04,3.897619946727549234e+01,1.300000000000000044e-01
1.258096802036917872e+00,-1.073415492894185030e+00,2.597454029722807700e-01,1.000000000000000048e-04,4.062082091401266837e+01,1.700000000000000122e-01
-1.911305823166012496e+00,-4.270220208468287204e-01,6.852873933606027368e-01,1.000000000000000048e-04,4.273218433892117218e+01,2.500000000000000000e-01
-2.635095518005486692e+00,-8.080685457659810833e-01,1.044461285125442451e+00,1.000000000000000048e-04,4.433487300868498693e+01,1.400000000000000133e-01
-3.530291076881084678e-01,-1.115629847193600588e+00,1.830980732010050183e-01,1.000000000000000048e-04,3.992020987299947876e+01,1.900000000000000022e-01
3.306256376772442884e-01,-2.509619027568701366e-01,3.954382299187331196e-01,1.000000000000000048e-04,4.158832532720956721e+01,1.600000000000000033e-01
-3.110550893155504593e+00,-7.891643630808461429e-01,3.469015777749020479e-01,1.000000000000000048e-04,4.090046518210584026e+01,1.600000000000000033e-01
1.673829045727915243e+00,-2.740755136584600571e-01,2.193008100778806035e-01,1.000000000000000048e-04,4.017110229499054697e+01,2.700000000000000178e-01
-1.232194414854123066e+00,-6.124146532270196008e-01,2.828144857113399357e-01,1.000000000000000048e-04,4.075780491219376245e+01,1.499999999999999944e-01
2.923112193381592228e+00,1.228658745641597605e-02,2.151257827757528940e-01,1.000000000000000048e-04,3.999437625124125617e+01,1.600000000000000033e-01
-1.325292554763368935e+00,1.184957670595701451e+00,4.592470840041831259e-01,1.000000000000000048e-04,4.233791688943664155e+01,1.700000000000000122e-01
7.957504352279674009e-01,1.111060206579951970e+00,9.068860674282095413e-01,1.000000000000000048e-04,4.413949642924758621e+01,2.800000000000000266e-01
-2.790528794232901788e+00,7.951361289327349979e-01,2.733464153668530017e-01,1.000000000000000048e-04,4.041680772763759677e+01,1.499999999999999944e-01
-2.040165283910896132e+00,3.589832738457336969e-01,2.940358480805056463e-01,1.000000000000000048e-04,4.085726838314554499e+01,3.099999999999999978e-01
1.167336037500992241e+00,7.736612599157353110e-01,1.557646549403191027e-01,1.000000000000000048e-04,3.946909503248953399e+01,2.200000000000000011e-01
1.730051486531777094e+00,-8.704569065170891795e-01,3.551582124985377398e-01,1.000000000000000048e-04,4.135842553033077706e+01,2.700000000000000178e-01
2.403642564749048915e-01,6.571723277046706002e-01,4.748074579068857215e-01,1.000000000000000048e-04,4.165324088191903940e+01,2.899999999999999800e-01
-1.411071539271617992e+00,-6.561342913213391581e-01,7.245147883366067632e-01,1.000000000000000048e-04,4.336815282267152583e+01,3.099999999999999978e-01
-9.701045421496079513e-02,9.398139301426957637e-01,2.558229085426388938e-01,1.000000000000000048e-04,4.033316391785271549e+01,2.300000000000000100e-01
1.272235880542402775e-01,-1.555222102338142953e-01,7.554326460643088215e-01,1.000000000000000048e-04,4.345930930141115311e+01,2.200000000000000011e-01
1.185912771748687256e+00,9.410463080104727318e-01,7.919385104988472257e-01,1.000000000000000048e-04,4.316104338733440926e+01,2.300000000000000100e-01
-3.106960280874959679e-02,2.501019350365607519e-01,4.816271385402861593e-01,1.000000000000000048e-04,4.190668574580536898e+01,2.200000000000000011e-01
-8.712202069954839700e-01,1.207416257288178141e+00,4.544287481542808038e-01,1.000000000000000048e-04,4.190478237396018102e+01,2.099999999999999922e-01
1.144125035725308770e+00,-7.276035500036182047e-01,5.610244299687199288e-01,1.000000000000000048e-04,4.252399698518257054e+01,2.300000000000000100e-01
2.042596042390611544e+00,1.286449471788511101e-01,2.241433600021489614e-01,1.000000000000000048e-04,4.029600182470960590e+01,2.399999999999999911e-01
-2.135534806580335232e+00,8.670935390304079782e-01,1.331927020831301434e+00,1.000000000000000048e-04,4.499426643625629652e+01,2.099999999999999922e-01
-1.615526542401957588e+00,-7.917134764406816849e-01,2.085786775535596327e-01,1.000000000000000048e-04,4.015449004508313635e+01,2.399999999999999911e-01
1.824503618112524705e+00,-1.334401711538852231e+00,3.178327633598301283e-01,1.000000000000000048e-04,4.135218494560589164e+01,2.399999999999999911e-01
-1.569644274364468517e+00,-2.721876571293173619e-01,2.235690734688842163e-01,1.000000000000000048e-04,3.985289755819594859e+01,2.800000000000000266e-01
2.838163902092134094e+00,3.147803780271496432e-01,9.489000114097700944e-01,1.000000000000000048e-04,4.423738419483105844e+01,2.000000000000000111e-01
1.605793129108215922e+00,1.141592226135442090e+00,6.521423526985528074e-01,1.000000000000000048e-04,4.276840918478819731e+01,2.200000000000000011e-01
7.230597815243600124e-02,7.892399226283597358e-04,7.116265570478448321e-01,1.000000000000000048e-04,4.359072297009105057e+01,2.800000000000000266e-01
1.217651922047376267e+00,9.988012275698654463e-02,1.256943656605031379e+00,1.000000000000000048e-04,4.473932538219690258e+01,2.399999999999999911e-01
-2.614090774869212819e+00,3.942774798327122188e-01,1.292150736021277613e+00,1.000000000000000048e-04,4.499439426894068816e+01,2.300000000000000100e-01
2.054630223136808098e+00,-9.467862727199497508e-01,1.192414530156078456e+00,1.000000000000000048e-04,4.462983668307512630e+01,2.200000000000000011e-01
2.010954149559928794e+00,-1.089551176583293035e+00,1.719055987701583188e-01,1.000000000000000048e-04,3.991819832537642299e+01,2.200000000000000011e-01
2.915571812340139957e+00,-6.877917641516827496e-01,1.310471336212691185e+00,1.000000000000000048e-04,4.504507455104284475e+01,2.399999999999999911e-01
-7.076402921947146929e-01,7.429781159403456847e-01,9.320937482498712345e-01,1.000000000000000048e-04,4.423296442565246878e+01,3.099999999999999978e-01
1.737157534942375570e+00,6.273282396565309504e-01,2.791514364884775112e-01,1.000000000000000048e-04,4.100576365594383077e+01,2.600000000000000089e-01
5.524783509851265428e-01,-7.495115697364966856e-01,3.655038459099242409e-01,1.000000000000000048e-04,4.132303650261697214e+01,3.099999999999999978e-01
-1.863674338389835761e+00,3.039199036200108672e-01,5.341067775953192154e-01,1.000000000000000048e-04,4.266016159942393671e+01,3.800000000000000044e-01
8.760164546192523716e-01,-1.081577764858081547e+00,2.711015345136704724e-01,1.000000000000000048e-04,4.056772307708782677e+01,2.500000000000000000e-01
3.117659042316180518e+00,2.605185450211753295e-01,1.210061470601195843e-01,1.000000000000000048e-04,3.935784964890715543e+01,2.300000000000000100e-01
1.114753295269895972e+00,-5.467737892799440225e-02,2.333554916072206886e-01,1.000000000000000048e-04,4.018543796205493379e+01,2.800000000000000266e-01
-1.528893876547777086e+00,-3.466349765435501329e-01,3.131279234028836456e-01,1.000000000000000048e-04,4.080848150367118166e+01,3.699999999999999956e-01
1.805317485075369710e+00,2.727613708029481554e-01,1.762454513959383906e-01,1.000000000000000048e-04,3.992420467483513136e+01,2.200000000000000011e-01
1.425638355784450972e+00,-9.652664946432314430e-01,2.062700722540038445e-01,1.000000000000000048e-04,4.000799598818419867e+01,2.600000000000000089e-01
6.983375905611644008e-01,-7.667206608184470307e-01,6.248303989604488962e-01,1.000000000000000048e-04,4.285000100120532096e+01,2.500000000000000000e-01
1.099786007499630180e+00,3.930648261570013346e-01,3.303638439130485160e-01,1.000000000000000048e-04,4.109389089836432873e+01,2.700000000000000178e-01
-2.046305423560037973e+00,-7.572204968478769560e-01,3.564187103500817688e-01,1.000000000000000048e-04,4.131795767676502606e+01,2.300000000000000100e-01
-1.516523919138928811e+00,-5.226375183919111933e-01,3.241479109430569494e-01,1.000000000000000048e-04,4.094398828043534877e+01,2.300000000000000100e-01
-7.034795588365931884e-01,-2.610095971216268573e-01,2.867415535186608189e-01,1.000000000000000048e-04,4.119128849370583367e+01,3.200000000000000067e-01
1.146207448941248153e+00,-1.337209790380689212e+00,4.425541430962234291e-01,1.000000000000000048e-04,4.187407614496145669e+01,2.899999999999999800e-01
3.113404436100636552e+00,1.174076885010428395e+00,2.252871359085948377e-01,1.000000000000000048e-04,4.068502490202537558e+01,2.600000000000000089e-01
2.008095930482146407e+00,8.056007222018601865e-02,2.026986697600257070e-01,1.000000000000000048e-04,3.987088688762706568e+01,2.899999999999999800e-01
8.386210513347567286e-01,1.363478489903835467e-02,1.185119870706301093e+00,1.000000000000000048e-04,4.479193493186576092e+01,2.700000000000000178e-01
-1.747799632057475128e+00,8.223949828800614092e-01,1.680148774122254274e-01,1.000000000000000048e-04,3.898466921305852395e+01,2.300000000000000100e-01
1.627901709747422210e+00,-4.119841487946171998e-01,5.353482589832863070e-01,1.000000000000000048e-04,4.172388620321208208e+01,2.800000000000000266e-01
-1.979526604737811057e+00,-9.264633636749047829e-01,6.007137949557153078e-01,1.000000000000000048e-04,4.307268104674276543e+01,2.300000000000000100e-01
1.707479154964702595e+00,-1.160643871036868280e+00,3.895197043581106744e-01,1.000000000000000048e-04,4.188622462684056558e+01,2.200000000000000011e-01
2.950139569313787291e+00,1.501459288505122558e-01,3.829563213527724663e-01,1.000000000000000048e-04,4.146346957999429605e+01,2.200000000000000011e-01
2.111153329326747041e-01,-1.495170057727475132e-01,8.970187928562773916e-01,1.000000000000000048e-04,4.377982352884731654e+01,2.099999999999999922e-01
-8.362062867316382153e-01,4.022102133192206885e-02,5.230447611553394882e-01,1.000000000000000048e-04,4.256381011602970688e+01,2.200000000000000011e-01
2.262803568369164964e-01,-1.985755879638009258e-01,8.553243534331116393e-01,1.000000000000000048e-04,4.342036013965167740e+01,2.899999999999999800e-01
1.536434261628456532e-01,-5.794194368392131533e-01,2.387971752216282439e-01,1.000000000000000048e-04,4.061112137762649610e+01,2.099999999999999922e-01
-2.132178575113083951e+00,6.203556254307973639e-01,5.144358925895196055e-01,1.000000000000000048e-04,4.236405963853065515e+01,2.300000000000000100e-01
4.619624412536493807e-01,-1.217953473683531129e+00,1.775641387363697810e-01,1.000000000000000048e-04,3.992671672524431870e+01,3.300000000000000155e-01
-9.146879965105800814e-01,1.060286373620971112e-01,6.642826948138160770e-01,1.000000000000000048e-04,4.327963120647986273e+01,2.899999999999999800e-01
-7.299614238197431604e-01,-6.551226680928440294e-01,1.065142893339323660e+00,1.000000000000000048e-04,4.420260178690529074e+01,3.300000000000000155e-01
2.250135445272148260e+00,-1.006652157149654503e+00,2.537695127658976535e-01,1.000000000000000048e-04,4.038126062593420329e+01,2.999999999999999889e-01
-1.248095025085081522e+00,8.133496544339449130e-01,9.015247276316453728e-01,1.000000000000000048e-04,4.398743057818674629e+01,2.600000000000000089e-01
4.384432694205835368e-01,-2.478841020404853879e-03,7.448225087910562703e-01,1.000000000000000048e-04,4.314429786900409880e+01,3.300000000000000155e-01
1.395818502690715945e+00,-2.637953999061024568e-01,5.744205102746069436e-01,1.000000000000000048e-04,4.262080152845554437e+01,2.500000000000000000e-01
9.768092483898573875e-01,-8.839491210408861877e-01,4.175245990917557659e-01,1.000000000000000048e-04,4.192480101076282040e+01,2.399999999999999911e-01
-3.171263242075088584e-01,1.023346293674612717e+00,1.995811505488072068e-01,1.000000000000000048e-04,4.022435529150530442e+01,3.900000000000000133e-01
-3.703098304123058071e-01,6.264088198288035869e-01,8.258867559013156612e-01,1.000000000000000048e-04,4.324226481352437190e+01,2.700000000000000178e-01
2.313917220436594313e-01,7.723340071323834266e-01,7.329474029593017192e-01,1.000000000000000048e-04,4.344272303350241060e+01,2.200000000000000011e-01
-8.999519095885188946e-02,3.950893073865906491e-01,6.069970955879187002e-01,1.000000000000000048e-04,4.295314804018122601e+01,2.300000000000000100e-01
9.573508263085672709e-02,-1.274524812530862361e+00,1.205348664913121759e-01,1.000000000000000048e-04,3.883597119453096980e+01,2.500000000000000000e-01
2.723045852183163085e+00,1.152999556938663517e+00,1.243886222948393794e+00,1.000000000000000048e-04,4.509976193375163689e+01,2.099999999999999922e-01
1.072214919009179646e+00,9.340110614873542438e-02,1.243828560722302079e-01,1.000000000000000048e-04,3.906821534887166791e+01,2.099999999999999922e-01
1.094992176202549850e+00,-1.377451775477663620e+00,9.836118343110065165e-01,1.000000000000000048e-04,4.362867142112495600e+01,2.999999999999999889e-01
-1.894773305502472471e+00,1.135374583342537935e+00,1.552070214452276886e-01,1.000000000000000048e-04,3.903663513256057627e+01,2.200000000000000011e-01
-1.821324074392091763e+00,-3.907022352301510182e-01,5.095808400129357985e-01,1.000000000000000048e-04,4.234137126542659502e+01,2.099999999999999922e-01
-1.958290535777166497e+00,8.372289145212175043e-01,3.750614623818138149e-01,1.000000000000000048e-04,4.159348870681869670e+01,2.300000000000000100e-01
-3.133549420276607211e+00,-5.780971504720875398e-01,5.321607104207004557e-01,1.000000000000000048e-04,4.209920370324456229e+01,3.200000000000000067e-01
2.453241335011570712e+00,1.357784007139626770e+00,4.790750143604856071e-01,1.000000000000000048e-04,4.222593127141223590e+01,2.600000000000000089e-01
2.787717013012249723e+00,6.578417248168548781e-01,5.167004170543656461e-01,1.000000000000000048e-04,4.193366787029102483e+01,2.000000000000000111e-01
-8.625857661103530916e-01,-4.605269410282450959e-01,4.950527897090639673e-01,1.000000000000000048e-04,4.221496198648760867e+01,1.799999999999999933e-01
6.938183726192219680e-01,-1.232061983493557555e-01,1.811275242008449915e-01,1.000000000000000048e-04,3.945687970441865389e+01,2.999999999999999889e-01
2.147610737215274845e+00,3.403910423493039517e-01,1.267295881798646828e-01,1.000000000000000048e-04,3.880193204544212904e+01,2.399999999999999911e-01
-1.824450297041760649e+00,2.589136687201409881e-01,1.716406951525417668e-01,1.000000000000000048e-04,3.906172006060146629e+01,2.300000000000000100e-01
-3.136363262697267729e+00,7.439515243618601836e-01,5.100947505329822551e-01,1.000000000000000048e-04,4.249487539972064809e+01,2.200000000000000011e-01
-6.642401869280654125e-01,4.565149844557567782e-01,2.640852395030792721e-01,1.000000000000000048e-04,4.090208760541082711e+01,2.300000000000000100e-01
1.106615948636102686e-01,-5.529146958564901126e-02,7.891212981892419265e-01,1.000000000000000048e-04,4.288433650782147311e+01,2.300000000000000100e-01
-3.815230038733066209e-01,4.759085376139102763e-01,4.152354084763221209e-01,1.000000000000000048e-04,4.192009810924827207e+01,2.600000000000000089e-01
2.313445947177289241e+00,2.009278706759729527e-01,7.797102704272063090e-01,1.000000000000000048e-04,4.319098621053289122e+01,2.099999999999999922e-01
-3.129850740891435557e-01,5.566923399584053911e-01,2.171351436884914055e-01,1.000000000000000048e-04,3.953041961070415766e+01,2.899999999999999800e-01
7.308037979732384670e-02,-1.489583994807026635e-01,1.890198881932410035e-01,1.000000000000000048e-04,3.979456935899707304e+01,2.000000000000000111e-01
-2.760222334884096629e+00,-2.850050197763784876e-01,6.339421430251936940e-01,1.000000000000000048e-04,4.329431881425729500e+01,2.500000000000000000e-01
7.922659996314274089e-01,7.224933776656179418e-01,2.435184050907461817e-01,1.000000000000000048e-04,4.058504170518393295e+01,2.099999999999999922e-01
-2.183067082280463644e+00,-6.353145540775244626e-01,3.565323952147694264e-01,1.000000000000000048e-04,4.130062403303082164e+01,2.300000000000000100e-01
-2.097484138149021682e-01,9.913867769364950178e-01,1.049067303158029762e+00,1.000000000000000048e-04,4.407850289754971129e+01,2.200000000000000011e-01
1.795646481219383084e+00,1.163385616870019845e+00,2.056644586904401439e-01,1.000000000000000048e-04,4.043929626299614455e+01,2.399999999999999911e-01
-1.252439024265610490e+00,9.683178626586435023e-01,6.022821258949566658e-01,1.000000000000000048e-04,4.310518859927573487e+01,2.500000000000000000e-01
1.248268356580045868e+00,-1.407529271228636025e+00,1.953433873502441465e-01,1.000000000000000048e-04,4.033344554397335457e+01,2.200000000000000011e-01
-1.544687512754971737e+00,6.523796251065152596e-01,5.738390140592133370e-01,1.000000000000000048e-04,4.313591939259936936e+01,3.300000000000000155e-01
-2.565963129742621973e+00,-8.908009822958490309e-01,6.647705831841081991e-01,1.000000000000000048e-04,4.274372519086884381e+01,2.000000000000000111e-01
-3.057610514623180897e+00,1.408608111303925270e+00,1.347221885464171542e+00,1.000000000000000048e-04,4.468888434449127800e+01,2.600000000000000089e-01
1.406884931843781494e-01,4.484452931583660096e-01,7.001249450926858575e-01,1.000000000000000048e-04,4.274041349815808388e+01,2.399999999999999911e-01
2.876437212989994663e+00,1.347979235158416333e+00,6.574776237621038355e-01,1.000000000000000048e-04,4.356015390200554549e+01,2.399999999999999911e-01
1.471619934129598128e+00,-1.314158615906442007e+00,6.416273172139919101e-01,1.000000000000000048e-04,4.267036127137539125e+01,2.600000000000000089e-01
3.032255115014193869e+00,-4.441922964597395662e-01,2.041830591026669861e-01,1.000000000000000048e-04,4.013078041685702146e+01,2.399999999999999911e-01
1.593498972797744884e+00,1.136304454639863959e+00,7.977734691174058757e-01,1.000000000000000048e-04,4.374819995204390466e+01,2.000000000000000111e-01
2.940264984153695416e+00,-4.208491622233287988e-01,3.701486715890198731e-01,1.000000000000000048e-04,4.198686589073906816e+01,3.699999999999999956e-01
-2.433808525759602048e+00,-2.323406538868291182e-01,1.930234913003687769e-01,1.000000000000000048e-04,3.881712352930525611e+01,3.099999999999999978e-01
-2.933545940834559218e+00,-8.916579701948967873e-02,4.810333302567038061e-01,1.000000000000000048e-04,4.256222881596178809e+01,2.399999999999999911e-01
2.253342449705515449e+00,1.424595995448985075e-01,4.837453277259626816e-01,1.000000000000000048e-04,4.235218570808194016e+01,2.099999999999999922e-01
4.760061605813930008e-01,4.649710152160237975e-01,2.430987833725153369e-01,1.000000000000000048e-04,4.024611229812888524e+01,2.800000000000000266e-01
-8.629522645708362916e-01,-5.079919243553725483e-01,3.665205711763217522e-01,1.000000000000000048e-04,4.116586422277047319e+01,2.800000000000000266e-01
2.153051204426541076e+00,1.692472477237636497e-01,4.667440067908770196e-01,1.000000000000000048e-04,4.193760560512846780e+01,2.099999999999999922e-01
-3.106818288388119687e+00,5.019842765795932138e-01,5.333546526303347690e-01,1.000000000000000048e-04,4.214095204436092956e+01,2.300000000000000100e-01
-2.824441895682182846e+00,2.285400547927316506e-01,3.830071156848351421e-01,1.000000000000000048e-04,4.141920528642783239e+01,2.000000000000000111e-01
7.186486066942650019e-01,-2.620905491319540648e-01,1.371863789960945379e-01,1.000000000000000048e-04,3.909384974844169136e+01,1.000000000000000056e-01
-4.402432051681537395e-01,1.130947807329108379e+00,1.632038137808149436e-01,1.000000000000000048e-04,3.949836485818288878e+01,1.199999999999999956e-01
1.739747891505294852e+00,3.949540060305609668e-01,1.700168055698398906e-01,1.000000000000000048e-04,3.964983441635970962e+01,8.999999999999999667e-02
-1.662467336798578721e-01,-1.235997355487467919e+00,3.603490119557724025e-01,1.000000000000000048e-04,4.149315568108110597e+01,1.400000000000000133e-01
-6.123008807985521607e-01,-3.987490331708314351e-01,1.337853279787815097e-01,1.000000000000000048e-04,3.899685298309449877e+01,2.000000000000000111e-01
1.195254827248358964e+00,-2.328484506764758599e-01,4.331019478027335889e-01,1.000000000000000048e-04,4.184503883923196810e+01,1.900000000000000022e-01
-3.023910223088074112e+00,4.933816457298605407e-01,2.993546369189838963e-01,1.000000000000000048e-04,4.071927826031432573e+01,1.700000000000000122e-01
1.271279611363794970e+00,1.607100635343494677e-01,2.518921008296417519e-01,1.000000000000000048e-04,4.090098733915687035e+01,3.499999999999999778e-01
1.143999898687197536e+00,1.005238193853000173e+00,7.624153326502098871e-01,1.000000000000000048e-04,4.363011032921358634e+01,1.700000000000000122e-01
2.874507265145695101e+00,4.055989482750250730e-01,2.380901939699160419e-01,1.000000000000000048e-04,4.051936329098560918e+01,1.900000000000000022e-01
1.292855051830223090e+00,2.144618744778226116e-01,1.208105618843612561e+00,1.000000000000000048e-04,4.477227345266647518e+01,1.900000000000000022e-01
