-1.598279621179586663e+00,2.779993629999999993e-01,2.076642907449999242e-02,1.000000000000000048e-04,3.468634625307045383e+01,1.700000000000000122e-01
-1.710562538179586589e+00,-1.402302595000000096e+00,2.480397197824824040e-02,1.000000000000000048e-04,3.529169084312699312e+01,2.000000000000000111e-01
-2.771840681795865180e-01,-1.115655276000000029e+00,2.059123956106145847e-02,1.000000000000000048e-04,3.463137144875670970e+01,1.700000000000000122e-01
-1.608432286179586335e+00,-6.514894359999999773e-01,1.263127335966918174e-02,1.000000000000000048e-04,3.368973707422177455e+01,1.600000000000000033e-01
-1.490451089179586575e+00,-3.201959389999999850e-01,2.171311730287239783e-02,1.000000000000000048e-04,3.505795248116532292e+01,1.700000000000000122e-01
-1.995144670179586299e+00,-1.040863893000000040e+00,2.916687497434211629e-02,1.000000000000000048e-04,3.588693641111095189e+01,1.799999999999999933e-01
-2.211919791795864398e-01,-6.717550429999999961e-01,1.943634879124478410e-02,1.000000000000000048e-04,3.436781693116806480e+01,2.200000000000000011e-01
-8.294029241795861651e-01,6.699244909999999553e-01,1.873663913475742682e-02,1.000000000000000048e-04,3.430784171166841645e+01,1.799999999999999933e-01
-1.123871723179585835e+00,1.275958498999999913e+00,2.168973081955649640e-02,1.000000000000000048e-04,3.463253033533603542e+01,1.900000000000000022e-01
-5.094723721795864080e-01,-7.371415260000000469e-01,1.721822769370584538e-02,1.000000000000000048e-04,3.439217495136989555e+01,1.600000000000000033e-01
6.571342580000000266e-01,4.949370419999999937e-01,3.420901502809892136e-02,1.000000000000000048e-04,3.600084039918387191e+01,1.700000000000000122e-01
-1.010588552179585875e+00,4.063959939999999826e-01,4.289300465622658542e-02,1.000000000000000048e-04,3.642750844297738411e+01,1.400000000000000133e-01
-5.300352171795861267e-01,-4.198024320000000031e-01,2.762903736197275251e-02,1.000000000000000048e-04,3.531642391412967186e+01,1.499999999999999944e-01
-3.959305511795863097e-01,-4.514385590000000170e-01,1.499788537715884829e-02,1.000000000000000048e-04,3.396781139746380518e+01,1.600000000000000033e-01
-1.302326638179586382e+00,4.891699640000000127e-01,3.246796511686622644e-02,1.000000000000000048e-04,3.575190945497197959e+01,8.999999999999999667e-02
-8.169037861795862554e-01,4.857709299999999897e-01,2.736664389375453865e-02,1.000000000000000048e-04,3.529174348896760449e+01,1.000000000000000056e-01
-1.156602994179586119e+00,7.039336720000000103e-01,3.227640046635560367e-02,1.000000000000000048e-04,3.555962910396703336e+01,1.100000000000000006e-01
2.500120207999999788e+00,-3.403989430000000094e-01,1.634209342601966597e-02,1.000000000000000048e-04,3.454578070614248020e+01,1.100000000000000006e-01
2.397122115999999803e+00,-8.283729720000000407e-01,2.419486246420277098e-02,1.000000000000000048e-04,3.536505063150597294e+01,1.700000000000000122e-01
-4.391142381795862804e-01,9.199097720000000145e-01,1.908901638046645033e-02,1.000000000000000048e-04,3.443414226327545435e+01,2.200000000000000011e-01
-1.356814123179586495e+00,1.335301293999999972e+00,3.976697555604857826e-02,1.000000000000000048e-04,3.612994150419494588e+01,2.600000000000000089e-01
2.612804049999999823e+00,3.003891830000000041e-01,3.915947731775548668e-02,1.000000000000000048e-04,3.629991313597350455e+01,1.700000000000000122e-01
-1.192441121179586005e+00,1.100105410000000061e+00,1.862535037871815291e-02,1.000000000000000048e-04,3.422199501870073135e+01,1.799999999999999933e-01
-3.012917491179586182e+00,1.485957493999999990e+00,1.788648179735119470e-02,1.000000000000000048e-04,3.445494223594781147e+01,2.200000000000000011e-01
-7.329138461795858817e-01,1.044356909000000000e+00,1.717098878902945103e-02,1.000000000000000048e-04,3.390254722010531196e+01,1.700000000000000122e-01
1.024371087000000013e+00,-9.607604419999999923e-01,2.734556152082801006e-02,1.000000000000000048e-04,3.574782487392395325e+01,1.600000000000000033e-01
2.960998206000000188e+00,-8.548671270000000044e-01,1.273610147913672996e-02,1.000000000000000048e-04,3.372965490252241239e+01,1.900000000000000022e-01
-3.017579355179586198e+00,-3.780387199999999948e-01,2.551830577137925715e-02,1.000000000000000048e-04,3.518030956934918407e+01,2.399999999999999911e-01
-2.268575282179586594e+00,6.921453520000000470e-01,1.341336482670962837e-02,1.000000000000000048e-04,3.333002397349781631e+01,3.699999999999999956e-01
2.478186394000000181e+00,5.281495040000000474e-01,2.048561701817952496e-02,1.000000000000000048e-04,3.514416728639836407e+01,2.399999999999999911e-01
1.941716173999999961e+00,9.578325640000000529e-01,3.041290488899961453e-02,1.000000000000000048e-04,3.590545231140749394e+01,3.800000000000000044e-01
2.041827891000000061e+00,-8.953703119999999460e-01,2.614424693226968799e-02,1.000000000000000048e-04,3.546659017439824879e+01,1.700000000000000122e-01
2.521229080999999983e+00,-8.544186950000000058e-01,3.738794599193062673e-02,1.000000000000000048e-04,3.619020702995575789e+01,2.000000000000000111e-01
2.745955969000000163e+00,3.136627880000000257e-01,1.412147561410370677e-02,1.000000000000000048e-04,3.393638889342911824e+01,2.099999999999999922e-01
1.738295793999999894e+00,1.134430556000000090e+00,1.710919441661151730e-02,1.000000000000000048e-04,3.425209402557316452e+01,1.799999999999999933e-01
-8.687814521795864664e-01,6.221710379999999541e-01,3.578682412562583792e-02,1.000000000000000048e-04,3.555025661099353584e+01,3.499999999999999778e-01
-1.857013858179586308e+00,3.937075449999999921e-01,2.033825536233613285e-02,1.000000000000000048e-04,3.434256790911243939e+01,2.999999999999999889e-01
-2.894431473179586156e+00,2.701405689999999971e-01,2.752367423839507943e-02,1.000000000000000048e-04,3.539403261282072322e+01,2.300000000000000100e-01
2.213600608000000136e+00,-5.295933369999999973e-01,2.314996507619282440e-02,1.000000000000000048e-04,3.536691010606477192e+01,2.500000000000000000e-01
9.327636729999999599e-01,4.069681829999999834e-01,8.827318583826571086e-03,1.000000000000000048e-04,3.318725757467210258e+01,2.300000000000000100e-01
1.743234563999999986e+00,7.359057650000000450e-01,8.852566483668500297e-03,1.000000000000000048e-04,3.289450660639688806e+01,2.200000000000000011e-01
-2.812965047179586175e+00,5.929882829999999494e-01,1.873020170568961973e-02,1.000000000000000048e-04,3.470551979291730760e+01,2.399999999999999911e-01
-2.977583888179586413e+00,-1.437144969999999966e-01,2.863748228968576726e-02,1.000000000000000048e-04,3.517490752147281796e+01,2.700000000000000178e-01
2.276564226000000080e+00,-5.051809499999999620e-01,1.953556636411946101e-02,1.000000000000000048e-04,3.485615445772205589e+01,2.800000000000000266e-01
2.667465888000000174e+00,-6.260506340000000502e-01,3.008156887333401919e-02,1.000000000000000048e-04,3.542372340277294995e+01,2.600000000000000089e-01
1.041358068000000081e+00,8.506585119999999778e-01,2.239673035073241891e-02,1.000000000000000048e-04,3.476513796954235147e+01,2.300000000000000100e-01
2.499030525999999863e+00,-9.629979760000000333e-01,8.969211443692559627e-03,1.000000000000000048e-04,3.380526095149123478e+01,3.099999999999999978e-01
1.334501084000000004e+00,-7.340646360000000481e-01,1.983441000039776192e-02,1.000000000000000048e-04,3.451605468277772815e+01,2.300000000000000100e-01
2.196979751999999841e+00,-5.334639439999999677e-01,2.993688939787197967e-02,1.000000000000000048e-04,3.524950401141039436e+01,2.500000000000000000e-01
1.445572062999999963e+00,-8.838676049999999451e-01,2.531203723592301280e-02,1.000000000000000048e-04,3.557800178769355881e+01,3.499999999999999778e-01
7.246286520000000397e-01,-7.843460709999999780e-01,1.425064563603517520e-02,1.000000000000000048e-04,3.414152655564431171e+01,3.099999999999999978e-01
2.179180484000000195e+00,1.312341798999999920e+00,1.290490871162375264e-02,1.000000000000000048e-04,3.374013866567546671e+01,2.200000000000000011e-01
7.669035910000000511e-01,2.329377750000000136e-01,1.623538169468274894e-02,1.000000000000000048e-04,3.425731997514448324e+01,2.500000000000000000e-01
2.984436029999999906e+00,4.410184999999999800e-01,4.538966253261644823e-02,1.000000000000000048e-04,3.624828119174495811e+01,2.999999999999999889e-01
1.808380389999999949e+00,-5.931087419999999666e-01,1.476534849478494671e-02,1.000000000000000048e-04,3.433178304320345120e+01,2.200000000000000011e-01
2.378694356000000010e+00,6.891218140000000547e-01,8.478663430540489543e-03,1.000000000000000048e-04,3.320459479862206820e+01,3.099999999999999978e-01
-1.027171309179585990e+00,8.938185499999999895e-01,1.586879281470610081e-02,1.000000000000000048e-04,3.431960391147774914e+01,3.099999999999999978e-01
2.177629786999999872e+00,1.088514723000000073e+00,1.825729550645482924e-02,1.000000000000000048e-04,3.406263040106166784e+01,2.500000000000000000e-01
2.446904437000000154e+00,4.505237189999999892e-01,1.334875948453806416e-02,1.000000000000000048e-04,3.427095998098627661e+01,2.700000000000000178e-01
-2.745075452179586151e+00,5.290477460000000409e-01,4.365182246147991663e-02,1.000000000000000048e-04,3.630899235469273378e+01,1.600000000000000033e-01
3.470126559999999749e-01,6.971221490000000243e-01,3.431845389266618973e-02,1.000000000000000048e-04,3.601555201572777776e+01,2.399999999999999911e-01
-1.741234469179586242e+00,8.281857209999999858e-01,1.803257673231661862e-02,1.000000000000000048e-04,3.416941877398182470e+01,1.000000000000000056e-01
6.278667869999999818e-01,1.201237362999999947e+00,2.977226367382912464e-02,1.000000000000000048e-04,3.574119177457556873e+01,1.799999999999999933e-01
1.901542252999999905e+00,5.984822429999999693e-01,2.465262471161899782e-02,1.000000000000000048e-04,3.540964573194585086e+01,1.700000000000000122e-01
9.102462569999999475e-01,3.833152009999999943e-01,1.543504185730837364e-02,1.000000000000000048e-04,3.428706715936535687e+01,2.200000000000000011e-01
4.621894529999999723e-01,4.355896570000000190e-01,1.910689460073977664e-02,1.000000000000000048e-04,3.468862771744584705e+01,2.399999999999999911e-01
1.731299603999999936e+00,-9.087058740000000245e-01,8.610099206935561966e-03,1.000000000000000048e-04,3.309004084281129110e+01,2.200000000000000011e-01
2.307708166999999921e+00,-3.555306579999999994e-01,1.157576168967433539e-02,1.000000000000000048e-04,3.352382618005246684e+01,1.700000000000000122e-01
2.284880370000000216e+00,-4.942566800000000038e-01,3.112471547374906500e-02,1.000000000000000048e-04,3.604908696953953040e+01,2.200000000000000011e-01
-2.729734007179586364e+00,-4.808223520000000084e-01,1.658459674300938325e-02,1.000000000000000048e-04,3.442823394004640392e+01,2.300000000000000100e-01
-2.728058296179586062e+00,8.181749999999999856e-01,1.438375936055336091e-02,1.000000000000000048e-04,3.401519841855284909e+01,2.200000000000000011e-01
1.539636916000000078e+00,-6.652033799999999830e-02,2.069552104283256533e-02,1.000000000000000048e-04,3.561729941072972849e+01,2.999999999999999889e-01
2.937620158000000092e+00,7.383732379999999873e-01,3.521148239912119671e-02,1.000000000000000048e-04,3.610687828420780932e+01,2.200000000000000011e-01
2.624384770999999894e+00,8.339422930000000012e-01,9.797651200921464465e-03,1.000000000000000048e-04,3.281792789979383684e+01,1.799999999999999933e-01
-2.594453966179586235e+00,1.052220571999999965e+00,4.264781064767264596e-02,1.000000000000000048e-04,3.643315508307942707e+01,1.900000000000000022e-01
-2.462277587179586114e+00,1.356652656000000068e+00,1.201971845744309597e-02,1.000000000000000048e-04,3.319234238576280660e+01,2.099999999999999922e-01
2.730654787000000194e+00,8.741146779999999783e-01,1.348462732883604076e-02,1.000000000000000048e-04,3.356659083469570248e+01,1.900000000000000022e-01
1.629450376000000089e+00,2.068732899999999875e-01,1.730884669974130929e-02,1.000000000000000048e-04,3.428772307026290633e+01,2.899999999999999800e-01
1.142160569999999958e-01,6.858846720000000285e-01,4.079143768752002686e-02,1.000000000000000048e-04,3.602473081419228862e+01,1.799999999999999933e-01
-4.383495451795864639e-01,9.198101690000000108e-01,3.541696954583728463e-02,1.000000000000000048e-04,3.587671665665198617e+01,2.600000000000000089e-01
1.001193188000000012e+00,8.013430529999999719e-01,1.506001210482788011e-02,1.000000000000000048e-04,3.374669712465478710e+01,1.799999999999999933e-01
-8.746654461795859703e-01,7.515327899999999506e-01,3.100493638853341061e-02,1.000000000000000048e-04,3.513673893288240890e+01,2.600000000000000089e-01
1.319662558000000097e+00,1.070340469999999933e-01,2.231097274380267059e-02,1.000000000000000048e-04,3.521010029362887650e+01,2.399999999999999911e-01
1.726021762000000015e+00,-6.377623550000000030e-01,2.561702331631199314e-02,1.000000000000000048e-04,3.577915781267824968e+01,2.600000000000000089e-01
-2.754219137179586330e+00,-9.277945709999999568e-01,1.540961048944700096e-02,1.000000000000000048e-04,3.424806928695524277e+01,3.699999999999999956e-01
1.691977534999999921e+00,1.434503057999999998e+00,3.184074377665480071e-02,1.000000000000000048e-04,3.549212135170967031e+01,2.099999999999999922e-01
8.272144390000000236e-01,-4.428667319999999852e-01,2.185977042749387422e-02,1.000000000000000048e-04,3.539812979469235898e+01,2.300000000000000100e-01
-2.185785446179585811e+00,4.040310730000000183e-01,2.497279135571317532e-02,1.000000000000000048e-04,3.494713252818453952e+01,1.799999999999999933e-01
2.680919170000000129e+00,5.929394510000000063e-01,4.164509904648805438e-02,1.000000000000000048e-04,3.630999603361583183e+01,1.799999999999999933e-01
2.468528393999999793e+00,-3.885411739999999892e-01,1.216818875925418375e-02,1.000000000000000048e-04,3.372615450414234317e+01,1.700000000000000122e-01
1.824819092000000031e+00,-9.187566499999999525e-01,1.124051499901201900e-02,1.000000000000000048e-04,3.350793412488805956e+01,2.099999999999999922e-01
2.252174823999999909e+00,-3.842870769999999769e-01,1.921710530172471287e-02,1.000000000000000048e-04,3.485841367820373193e+01,2.000000000000000111e-01
2.889947965000000174e+00,3.184077100000000105e-01,3.050674469808756228e-02,1.000000000000000048e-04,3.591695575542285468e+01,2.000000000000000111e-01
-2.666621499179586241e+00,1.790417820000000104e-01,3.519854990904924819e-02,1.000000000000000048e-04,3.596203359255532206e+01,1.900000000000000022e-01
2.353249148999999818e+00,9.653535600000000549e-01,3.272417736323718351e-02,1.000000000000000048e-04,3.564424238138659717e+01,1.799999999999999933e-01
1.765869402999999949e+00,9.288119630000000182e-01,1.344825188104392666e-02,1.000000000000000048e-04,3.360163266116158809e+01,3.599999999999999867e-01
1.931340567999999980e+00,-5.991437729999999906e-01,1.153746544773404104e-02,1.000000000000000048e-04,3.399158536306998002e+01,2.000000000000000111e-01
2.835991935000000019e+00,-7.109363199999999550e-01,1.149913806929747651e-02,1.000000000000000048e-04,3.391521578836752582e+01,1.900000000000000022e-01
-2.852520529179586095e+00,8.667541789999999580e-01,1.919527634365625346e-02,1.000000000000000048e-04,3.433032908400162597e+01,1.799999999999999933e-01
-2.458251249179586040e+00,-2.796002539999999925e-01,1.578185452354552432e-02,1.000000000000000048e-04,3.418065659848335969e+01,3.300000000000000155e-01
1.596378985000000084e+00,5.944120290000000084e-01,2.306217356099038440e-02,1.000000000000000048e-04,3.527987252755343661e+01,1.900000000000000022e-01
-2.484014184179586415e+00,8.016642189999999557e-01,2.398607096621607759e-02,1.000000000000000048e-04,3.486096445904171048e+01,1.900000000000000022e-01
-2.431723812179586108e+00,1.223750555999999934e+00,3.718068826496012669e-02,1.000000000000000048e-04,3.617899697778686630e+01,1.700000000000000122e-01
-2.378598255179586118e+00,1.197731727999999940e+00,2.029325276120697019e-02,1.000000000000000048e-04,3.460909639719979936e+01,1.900000000000000022e-01
1.739429998000000088e+00,2.494783479999999887e-01,2.035126704399825570e-02,1.000000000000000048e-04,3.489488415052000647e+01,3.099999999999999978e-01
-2.377494960179586059e+00,9.562939099999999693e-01,3.701650447273752143e-02,1.000000000000000048e-04,3.620652763047783651e+01,1.799999999999999933e-01
-9.021677017958662503e-02,6.959221140000000361e-01,1.803074969414586448e-02,1.000000000000000048e-04,3.385261650027180025e+01,3.499999999999999778e-01
2.021336933000000169e+00,8.510789659999999923e-01,2.486938412915629115e-02,1.000000000000000048e-04,3.534117575663911026e+01,2.800000000000000266e-01
2.573899695999999793e+00,-5.247218830000000001e-01,2.834233541846065130e-02,1.000000000000000048e-04,3.540983180285520859e+01,1.700000000000000122e-01
2.346925623000000183e+00,-7.496726200000000118e-01,1.988309593970405409e-02,1.000000000000000048e-04,3.488138573476513926e+01,1.700000000000000122e-01
2.543651012999999850e+00,-2.555195920000000176e-01,2.727728710055354888e-02,1.000000000000000048e-04,3.565114956411840552e+01,1.900000000000000022e-01
2.457771880000000131e+00,-4.383329890000000062e-01,1.365243398957605159e-02,1.000000000000000048e-04,3.410582957370794333e+01,1.700000000000000122e-01
-2.749033603179586116e+00,5.277091179999999770e-01,3.448738581629706701e-02,1.000000000000000048e-04,3.624427902272494606e+01,1.799999999999999933e-01
-3.021446786179586397e+00,6.716344440000000526e-01,2.091214959377607485e-02,1.000000000000000048e-04,3.466930194401080456e+01,1.799999999999999933e-01
2.390319493999999878e+00,1.427533710000000067e+00,2.425731358607174926e-02,1.000000000000000048e-04,3.520171016569132405e+01,1.799999999999999933e-01
2.491619029000000207e+00,8.136863199999999630e-01,4.672771054275304259e-02,1.000000000000000048e-04,3.668275557088848160e+01,1.900000000000000022e-01
2.336721559999999975e+00,1.049041915000000103e+00,4.657608831977388952e-02,1.000000000000000048e-04,3.637711516046373106e+01,1.700000000000000122e-01
1.201678150000000000e+00,3.331923239999999842e-01,3.273806417222724363e-02,1.000000000000000048e-04,3.552766998868893467e+01,1.900000000000000022e-01
-3.811893421795859993e-01,1.284308205000000092e+00,1.305461381786110486e-02,1.000000000000000048e-04,3.339486576012144781e+01,2.000000000000000111e-01
5.879284790000000038e-01,8.245620540000000442e-01,2.841915187047328040e-02,1.000000000000000048e-04,3.584854612474447322e+01,1.700000000000000122e-01
-1.085925731795862603e-01,9.806715139999999664e-01,1.096648627524454689e-02,1.000000000000000048e-04,3.315988254355984566e+01,1.799999999999999933e-01
1.189812670000000017e+00,8.219376269999999485e-01,1.364755385260174592e-02,1.000000000000000048e-04,3.409328249363777985e+01,1.700000000000000122e-01
2.896526737999999934e+00,1.048685354999999930e+00,1.913408473189615044e-02,1.000000000000000048e-04,3.463079819295308681e+01,1.700000000000000122e-01
8.784667550000000436e-01,-5.840451829999999678e-01,2.518439422217144674e-02,1.000000000000000048e-04,3.522562306728530501e+01,2.099999999999999922e-01
-2.025603206179586557e+00,1.419180792999999996e+00,2.294907265464085633e-02,1.000000000000000048e-04,3.473072532934664736e+01,1.799999999999999933e-01
1.097118803000000087e+00,1.428367445999999985e+00,4.188226325763255709e-02,1.000000000000000048e-04,3.617895071800238327e+01,1.799999999999999933e-01
-1.923054671795858539e-01,8.268694330000000425e-01,2.716325640848893386e-02,1.000000000000000048e-04,3.498418420573285914e+01,2.000000000000000111e-01
1.974446608000000047e+00,-1.250497374000000050e+00,2.086610355689666463e-02,1.000000000000000048e-04,3.489626237356063143e+01,2.000000000000000111e-01
1.714471547999999901e+00,-4.841846819999999774e-01,4.051224119525542733e-02,1.000000000000000048e-04,3.640167260456219367e+01,1.700000000000000122e-01
1.635209042000000057e+00,-1.499680316999999929e+00,2.836551415818577837e-02,1.000000000000000048e-04,3.552520657838657314e+01,1.900000000000000022e-01
-3.085878636179586021e+00,-8.156760069999999807e-01,2.637019907055093704e-02,1.000000000000000048e-04,3.525468846549184576e+01,1.799999999999999933e-01
1.583648911999999909e+00,-4.051170720000000225e-01,1.979327494815152910e-02,1.000000000000000048e-04,3.498702368659570539e+01,1.700000000000000122e-01
3.116144028999999982e+00,-6.233618589999999626e-01,3.294183350899682061e-02,1.000000000000000048e-04,3.564984675367924893e+01,2.000000000000000111e-01
2.580853791000000008e+00,2.126606490000000071e-01,1.215872183295840792e-02,1.000000000000000048e-04,3.398680589275037534e+01,2.200000000000000011e-01
2.791070910999999821e+00,-3.375241600000000036e-02,1.519005200833634106e-02,1.000000000000000048e-04,3.390447220399231298e+01,2.999999999999999889e-01
2.126664376999999995e+00,-4.630033630000000011e-01,3.208877054621450675e-02,1.000000000000000048e-04,3.559448563475214655e+01,1.799999999999999933e-01
1.264160699999999915e+00,6.289837299999999631e-01,2.455486321630129254e-02,1.000000000000000048e-04,3.551933613529539713e+01,1.900000000000000022e-01
2.608192676999999904e+00,3.485897410000000085e-01,1.697885722220227045e-02,1.000000000000000048e-04,3.390802456138273158e+01,2.200000000000000011e-01
2.816578843999999915e+00,-6.539336449999999523e-01,3.129695697574752522e-02,1.000000000000000048e-04,3.605064544144257610e+01,1.799999999999999933e-01
2.816545334000000178e+00,5.529564630000000092e-01,3.396250611893458782e-02,1.000000000000000048e-04,3.561633767934722528e+01,1.700000000000000122e-01
2.293480610000000031e+00,1.430186356999999964e+00,1.529459078224326696e-02,1.000000000000000048e-04,3.364815346535017682e+01,1.700000000000000122e-01
1.900048696999999898e+00,-6.695785770000000081e-01,2.606906484280835379e-02,1.000000000000000048e-04,3.551088545495569804e+01,1.900000000000000022e-01
2.402973735999999860e+00,-4.293495210000000117e-01,3.249920574682563235e-02,1.000000000000000048e-04,3.572795318856075397e+01,2.200000000000000011e-01
3.123677135999999965e+00,5.597831170000000522e-01,3.082776617547544618e-02,1.000000000000000048e-04,3.529271492286839873e+01,1.700000000000000122e-01
-2.603733431795864917e-01,9.574212720000000454e-01,2.950199748417858814e-02,1.000000000000000048e-04,3.521800145959661421e+01,3.800000000000000044e-01
-1.216980031795857897e-01,3.678993019999999836e-01,1.266462675233603896e-02,1.000000000000000048e-04,3.394437068553499159e+01,1.900000000000000022e-01
2.921580513999999962e+00,4.108407450000000072e-01,1.598692417956204537e-02,1.000000000000000048e-04,3.433868725130116673e+01,1.900000000000000022e-01
-2.362072097179586105e+00,1.187667234999999932e+00,2.264348217324640977e-02,1.000000000000000048e-04,3.453030593027370543e+01,1.900000000000000022e-01
-2.337569846179586186e+00,3.756736769999999837e-01,3.184187671072202797e-02,1.000000000000000048e-04,3.591792886337734103e+01,1.700000000000000122e-01
-1.563533060179586265e+00,8.298117619999999528e-01,1.853048217818242804e-02,1.000000000000000048e-04,3.436763662459611623e+01,3.300000000000000155e-01
-7.514201781795861734e-01,8.148208550000000105e-01,3.321879688924145313e-02,1.000000000000000048e-04,3.515360271970333628e+01,2.099999999999999922e-01
-2.172991007179586376e+00,1.278564443000000050e+00,3.857122631647147415e-02,1.000000000000000048e-04,3.632218449488199496e+01,2.000000000000000111e-01
1.004972830999999900e+00,3.284388160000000223e-01,1.868581389683510174e-02,1.000000000000000048e-04,3.468696330751949120e+01,1.799999999999999933e-01
-1.050913719179586536e+00,7.925907810000000220e-01,1.366417054615176596e-02,1.000000000000000048e-04,3.329059611329029167e+01,2.899999999999999800e-01
1.174967896000000067e+00,-7.032179160000000540e-01,2.743714782798800655e-02,1.000000000000000048e-04,3.594939304294552329e+01,1.799999999999999933e-01
2.063754460999999818e+00,1.158898511999999936e+00,1.560364773034628172e-02,1.000000000000000048e-04,3.435501841921763599e+01,1.799999999999999933e-01
1.355273345999999934e+00,1.034050206000000083e+00,1.975885191993853596e-02,1.000000000000000048e-04,3.458591461233126552e+01,1.700000000000000122e-01
1.878516419999999965e+00,-5.891517790000000421e-01,2.599356576045064315e-02,1.000000000000000048e-04,3.548170309896549668e+01,1.799999999999999933e-01
3.042909537999999969e+00,4.914006550000000195e-01,2.424182274510022772e-02,1.000000000000000048e-04,3.523683835984082435e+01,1.700000000000000122e-01
-2.192876876179585821e+00,7.571444160000000423e-01,1.373684294561861030e-02,1.000000000000000048e-04,3.359758534110470407e+01,2.099999999999999922e-01
-1.274335216179586006e+00,7.393028099999999769e-01,1.280968751503319680e-02,1.000000000000000048e-04,3.350013037867336863e+01,3.599999999999999867e-01
3.513372269999999742e-01,1.023017258000000096e+00,2.711923273292082825e-02,1.000000000000000048e-04,3.501775461631083175e+01,1.799999999999999933e-01
-2.045215730179585911e+00,1.346705497999999945e+00,4.642914743619175333e-02,1.000000000000000048e-04,3.674275158715049372e+01,1.799999999999999933e-01
2.622131355000000053e+00,-2.378520580000000051e-01,2.510713920592144710e-02,1.000000000000000048e-04,3.530119283917201756e+01,2.099999999999999922e-01
1.499565373000000035e+00,-5.833961840000000398e-01,2.678833705710714774e-02,1.000000000000000048e-04,3.557233689111898656e+01,1.199999999999999956e-01
9.453780529999999960e-01,-3.014802610000000271e-01,3.141478605166203586e-02,1.000000000000000048e-04,3.583714205708977119e+01,1.799999999999999933e-01
1.003030738000000088e+00,-6.679498139999999751e-01,3.029396671585438128e-02,1.000000000000000048e-04,3.559589601017982119e+01,1.799999999999999933e-01
-2.858957567179586157e+00,-2.878047879999999781e-01,2.929999569209740251e-02,1.000000000000000048e-04,3.557164452148909817e+01,1.300000000000000044e-01
-2.653655062179586022e+00,5.464710109999999510e-01,1.577398389659134814e-02,1.000000000000000048e-04,3.396852569574762981e+01,1.300000000000000044e-01
-1.077960778179586576e+00,1.305029642999999906e+00,1.767381866499406762e-02,1.000000000000000048e-04,3.416104671985703334e+01,1.100000000000000006e-01
2.996279555000000094e+00,-9.792432829999999644e-01,1.387255438689738440e-02,1.000000000000000048e-04,3.399720063131340453e+01,1.600000000000000033e-01
-7.405109531795863731e-01,5.344760480000000369e-01,1.785262555252775662e-02,1.000000000000000048e-04,3.399695369453807814e+01,1.900000000000000022e-01
-1.986221938179586033e+00,3.858849830000000147e-01,3.125537045113757628e-02,1.000000000000000048e-04,3.539087390608451500e+01,2.600000000000000089e-01
-1.660796187179585992e+00,1.337702168000000080e+00,1.805957390295986897e-02,1.000000000000000048e-04,3.446342926249705130e+01,1.300000000000000044e-01
-1.008319883179586540e+00,9.035811799999999838e-01,1.167091306927248162e-02,1.000000000000000048e-04,3.324685796690992845e+01,1.799999999999999933e-01
-2.859227719179586291e+00,-3.383984709999999785e-01,9.664170109208614079e-03,1.000000000000000048e-04,3.337367704198838680e+01,1.799999999999999933e-01
-3.008470453179586279e+00,-9.028608339999999455e-01,2.232988512904898748e-02,1.000000000000000048e-04,3.501860199979382315e+01,1.300000000000000044e-01
2.720373041999999852e+00,-1.026937239000000002e+00,3.100390790241691619e-02,1.000000000000000048e-04,3.581275137826543187e+01,1.100000000000000006e-01
1.131806215999999976e+00,-1.312634394000000038e+00,1.643853199000333554e-02,1.000000000000000048e-04,3.447681945348453780e+01,1.199999999999999956e-01
1.262497049000000038e+00,-7.576738640000000302e-01,1.739720904286112813e-02,1.000000000000000048e-04,3.446783233248500977e+01,1.900000000000000022e-01
-2.150308364179585929e+00,9.473204419999999848e-01,1.328892943846859964e-02,1.000000000000000048e-04,3.376061430807810382e+01,1.499999999999999944e-01
-2.672281993179586035e+00,8.065802300000000091e-01,1.221589766984876313e-02,1.000000000000000048e-04,3.352891466872987536e+01,1.400000000000000133e-01
-2.768228307179586345e+00,1.501965110000000048e-01,1.762053621840320439e-02,1.000000000000000048e-04,3.423413804306663621e+01,1.300000000000000044e-01
2.456608391000000058e+00,-6.815239560000000418e-01,1.177268686315202650e-02,1.000000000000000048e-04,3.376789857245641002e+01,2.899999999999999800e-01
-1.538735822179586599e+00,7.895792169999999999e-01,2.833173436365643560e-02,1.000000000000000048e-04,3.561744976552789410e+01,1.600000000000000033e-01
-6.811844061795859773e-01,-7.989239399999999991e-01,1.287403334914061226e-02,1.000000000000000048e-04,3.359465705360685206e+01,2.300000000000000100e-01
-9.881069141795864041e-01,9.266642769999999807e-01,4.788092400597454557e-02,1.000000000000000048e-04,3.639133918204864671e+01,2.500000000000000000e-01
9.533575850000000074e-01,-5.868324440000000086e-01,3.032191473628675915e-02,1.000000000000000048e-04,3.558824322965425324e+01,1.199999999999999956e-01
-1.550854682179585886e+00,1.341867675000000037e+00,1.847491568719727972e-02,1.000000000000000048e-04,3.459171539703684317e+01,3.599999999999999867e-01
1.284766933000000000e+00,-9.049604909999999780e-01,3.113851545862655890e-02,1.000000000000000048e-04,3.585461596817932417e+01,1.300000000000000044e-01
