-1.598279621179586663e+00,2.779993629999999993e-01,8.386898252064813875e-01,1.000000000000000048e-04,4.353459196729323821e+01,1.700000000000000122e-01
-8.306753881795865269e-01,5.048130450000000158e-01,2.605610880888755698e-01,1.000000000000000048e-04,4.051087719552305089e+01,1.600000000000000033e-01
-1.512887194179586281e+00,3.571169940000000209e-01,2.131575511722973992e-01,1.000000000000000048e-04,4.016551710686604082e+01,1.600000000000000033e-01
-2.094054222179586588e+00,-9.657747650000000350e-01,3.636121609244398201e-01,1.000000000000000048e-04,4.132669744166562253e+01,1.600000000000000033e-01
-1.256550916179586252e+00,-1.037146153999999987e+00,5.004519269899656564e-01,1.000000000000000048e-04,4.226347541309756650e+01,1.900000000000000022e-01
-2.638489419179586015e+00,-8.917870300000000361e-01,2.712751386335845449e-01,1.000000000000000048e-04,4.075884983855736721e+01,1.600000000000000033e-01
3.095686500000000008e-02,-1.139960520999999893e+00,4.325107685736160334e-01,1.000000000000000048e-04,4.171202774612198283e+01,1.700000000000000122e-01
-4.765590681795863759e-01,-7.328014390000000544e-01,1.975893764518894535e-01,1.000000000000000048e-04,3.982994172818899159e+01,1.600000000000000033e-01
7.532392530000000530e-01,9.936355940000000109e-01,1.433810429415194321e-01,1.000000000000000048e-04,3.951159705955810608e+01,1.600000000000000033e-01
1.355624495999999901e+00,4.654212710000000253e-01,2.484335715548153800e-01,1.000000000000000048e-04,4.032445919521524758e+01,2.200000000000000011e-01
-2.027672372179586624e+00,-3.494576850000000179e-01,3.034998388584713158e-01,1.000000000000000048e-04,4.096593739790927913e+01,8.999999999999999667e-02
-2.243457714179585949e+00,5.735296930000000071e-01,6.507652128325538410e-01,1.000000000000000048e-04,4.291882012781726985e+01,8.000000000000000167e-02
-1.661352162179586145e+00,7.473004210000000480e-01,5.533597718059914961e-01,1.000000000000000048e-04,4.244722297928561261e+01,1.100000000000000006e-01
-1.046494641179585905e+00,9.839422859999999993e-01,1.561609126989178531e-01,1.000000000000000048e-04,3.973066308854094331e+01,1.600000000000000033e-01
-1.357076630179586019e+00,8.591991679999999576e-01,1.611976873261342647e-01,1.000000000000000048e-04,3.958816354159018402e+01,1.300000000000000044e-01
-1.489161381179585852e+00,8.733460579999999807e-01,9.476010948589252969e-01,1.000000000000000048e-04,4.389658034266360431e+01,8.999999999999999667e-02
2.602874990000000111e+00,9.865781270000000269e-01,2.620077724171487876e-01,1.000000000000000048e-04,4.071765487254786109e+01,2.099999999999999922e-01
2.011122450999999867e+00,-1.257182417000000108e+00,1.634119847864325958e-01,1.000000000000000048e-04,3.962756653503279836e+01,1.799999999999999933e-01
2.487812089999999809e+00,-1.095252646999999913e+00,1.817292633164839799e-01,1.000000000000000048e-04,3.966602671148503134e+01,1.600000000000000033e-01
-2.060955814179585843e+00,9.020563839999999889e-01,5.913595843972687671e-01,1.000000000000000048e-04,4.250436040003377514e+01,1.799999999999999933e-01
-1.552222439179586466e+00,1.270289940999999923e+00,4.489373859283587453e-01,1.000000000000000048e-04,4.202861068951808221e+01,1.600000000000000033e-01
-3.584264691795864266e-01,1.112498557000000110e+00,1.261311057292653359e+00,1.000000000000000048e-04,4.505276151838182130e+01,2.000000000000000111e-01
1.187793541000000008e+00,1.533334508000000040e+00,1.091816468832609299e+00,1.000000000000000048e-04,4.444396372530258787e+01,1.700000000000000122e-01
9.029304540000000490e-01,-5.888661819999999603e-01,5.818206430054566614e-01,1.000000000000000048e-04,4.294470649734298462e+01,1.700000000000000122e-01
2.675488564000000125e+00,-1.029758079000000048e+00,2.719693820097017767e-01,1.000000000000000048e-04,4.047891272769678750e+01,1.700000000000000122e-01
9.979371630000000160e-01,-7.076351440000000492e-01,5.640634649746054663e-01,1.000000000000000048e-04,4.254466152729440154e+01,2.000000000000000111e-01
-2.809922836179586270e+00,-1.219770695000000016e+00,2.166683298164742144e-01,1.000000000000000048e-04,4.002418260340223100e+01,1.900000000000000022e-01
1.945616433999999950e+00,5.533621010000000506e-01,7.189682172908042901e-01,1.000000000000000048e-04,4.312958531435361209e+01,1.700000000000000122e-01
1.369802210000000131e-01,9.686457469999999459e-01,6.373933161314591089e-01,1.000000000000000048e-04,4.287703793433620802e+01,1.000000000000000056e-01
2.377785852000000144e+00,-1.071983155000000076e+00,7.282975282641006576e-01,1.000000000000000048e-04,4.322341987415466491e+01,1.000000000000000056e-01
1.194530383000000029e+00,-8.514353350000000153e-01,1.353072983105665372e-01,1.000000000000000048e-04,3.904066199538534221e+01,1.100000000000000006e-01
2.328991532999999947e+00,-1.085498080000000032e+00,1.485915231832068972e-01,1.000000000000000048e-04,3.926456680556695744e+01,1.199999999999999956e-01
3.099662444999999877e+00,-8.173274409999999879e-01,5.510084673329980198e-01,1.000000000000000048e-04,4.247766109761433029e+01,1.300000000000000044e-01
1.008677688999999988e+00,-7.224949280000000362e-01,1.918855639177989847e-01,1.000000000000000048e-04,3.983937739358375296e+01,1.199999999999999956e-01
1.116317643999999998e+00,-8.188746820000000204e-01,1.192726586757935081e+00,1.000000000000000048e-04,4.471245635118385309e+01,1.499999999999999944e-01
1.368634144999999913e+00,-9.746537960000000167e-01,1.301035127449372553e-01,1.000000000000000048e-04,3.900473354085737299e+01,2.200000000000000011e-01
2.840707745000000006e+00,-9.874777999999999611e-01,4.725487329813229387e-01,1.000000000000000048e-04,4.219950270974212003e+01,1.199999999999999956e-01
1.164831654000000105e+00,-8.361433499999999519e-01,7.229096354032860106e-01,1.000000000000000048e-04,4.325199874024902158e+01,1.600000000000000033e-01
9.274529849999999520e-01,-5.648102149999999488e-01,2.965316665630002291e-01,1.000000000000000048e-04,4.072166763096707598e+01,2.200000000000000011e-01
1.803806121999999901e+00,-1.051757271000000049e+00,3.785594612656679736e-01,1.000000000000000048e-04,4.173480509348396339e+01,2.200000000000000011e-01
1.910407339000000038e+00,-1.096340147000000043e+00,8.776557625691618902e-01,1.000000000000000048e-04,4.366186596074067694e+01,1.300000000000000044e-01
-2.994395329179586174e+00,-6.874333790000000111e-01,5.684911781033852307e-01,1.000000000000000048e-04,4.269683391145996865e+01,1.600000000000000033e-01
2.004169926999999962e+00,-1.114377941999999955e+00,1.936380303760294463e-01,1.000000000000000048e-04,4.003718290553088366e+01,2.099999999999999922e-01
2.993884073999999895e+00,-9.067153500000000310e-01,2.666692110545212380e-01,1.000000000000000048e-04,4.069135772968178344e+01,2.000000000000000111e-01
2.896584697999999847e+00,-6.981149509999999836e-01,5.090211696245794393e-01,1.000000000000000048e-04,4.215748521588668751e+01,2.000000000000000111e-01
2.644964143999999795e+00,-1.038456438999999953e+00,4.822137702415858485e-01,1.000000000000000048e-04,4.220522520382713338e+01,2.500000000000000000e-01
1.395029569000000080e+00,-9.673563530000000021e-01,3.790590378036962083e-01,1.000000000000000048e-04,4.149066450107095960e+01,2.200000000000000011e-01
1.133893306999999906e+00,-8.234022290000000410e-01,2.310060880873732181e-01,1.000000000000000048e-04,4.020965139597819871e+01,1.199999999999999956e-01
9.542908199999999841e-01,-6.210129070000000029e-01,4.929365795559359498e-01,1.000000000000000048e-04,4.260501101007046998e+01,1.400000000000000133e-01
1.112357503999999997e+00,-7.717409769999999947e-01,1.361685639032075290e-01,1.000000000000000048e-04,3.916954963499080122e+01,1.400000000000000133e-01
1.392129267000000059e+00,-9.489503049999999940e-01,6.331245213122986826e-01,1.000000000000000048e-04,4.270928935508267443e+01,1.100000000000000006e-01
3.104633763999999907e+00,-8.563587980000000321e-01,2.696888584927776833e-01,1.000000000000000048e-04,4.096972728052958246e+01,1.199999999999999956e-01
-1.581672989179586430e+00,-6.726275419999999672e-01,6.645300059823366912e-01,1.000000000000000048e-04,4.331473906561834042e+01,2.000000000000000111e-01
8.758714749999999549e-01,-5.394949780000000139e-01,4.268587524924021270e-01,1.000000000000000048e-04,4.170374083040455560e+01,1.199999999999999956e-01
1.027821937999999991e+00,-6.897361509999999640e-01,6.854363886561245511e-01,1.000000000000000048e-04,4.326620508568346679e+01,1.499999999999999944e-01
8.011105990000000343e-01,-4.568120419999999737e-01,2.506814377691650719e-01,1.000000000000000048e-04,4.049682389400720695e+01,1.499999999999999944e-01
8.044453879999999835e-01,-4.591503659999999765e-01,6.108917304854801777e-01,1.000000000000000048e-04,4.273926191273462649e+01,1.100000000000000006e-01
8.290542589999999601e-01,-4.498624509999999965e-01,5.034915121181833264e-01,1.000000000000000048e-04,4.238666127261396355e+01,1.199999999999999956e-01
2.306908324000000121e+00,-1.093655438999999951e+00,2.083126092105465066e-01,1.000000000000000048e-04,4.020290348334629016e+01,1.300000000000000044e-01
-3.090495873179586184e+00,-7.974218849999999970e-01,2.125523029138649544e-01,1.000000000000000048e-04,4.012672968005418284e+01,1.300000000000000044e-01
2.850739061000000074e+00,-9.724982730000000242e-01,2.714370243390100690e-01,1.000000000000000048e-04,4.079284823031230189e+01,1.100000000000000006e-01
1.925211972000000049e+00,-1.067349442999999898e+00,1.226424713385285692e-01,1.000000000000000048e-04,3.870867882105222435e+01,1.600000000000000033e-01
3.010706126000000094e+00,-9.149326070000000088e-01,2.139442518181993158e-01,1.000000000000000048e-04,4.009368372637633371e+01,1.199999999999999956e-01
1.754869720000000077e+00,-1.052947148999999971e+00,1.286301417660529189e-01,1.000000000000000048e-04,3.882510913779685779e+01,1.300000000000000044e-01
3.028086770999999899e+00,-8.725603690000000023e-01,5.924031302638534946e-01,1.000000000000000048e-04,4.268257592977590775e+01,1.199999999999999956e-01
2.780301081000000174e+00,-1.010780400000000023e+00,1.195450965759629280e+00,1.000000000000000048e-04,4.428063566094009218e+01,1.700000000000000122e-01
3.096540631999999960e+00,-8.261897350000000362e-01,8.663867631874471176e-01,1.000000000000000048e-04,4.350610125584934451e+01,1.100000000000000006e-01
-3.043596368179586342e+00,-7.656326449999999451e-01,8.965194755853842512e-01,1.000000000000000048e-04,4.372824744631543581e+01,1.100000000000000006e-01
2.593403560000000052e+00,-1.068240442000000012e+00,1.915758132430900318e-01,1.000000000000000048e-04,3.983606480148002049e+01,1.199999999999999956e-01
1.277663320999999907e+00,-8.910532270000000032e-01,8.070576256828108086e-01,1.000000000000000048e-04,4.344161857873133670e+01,1.499999999999999944e-01
8.729576639999999665e-01,-5.017517409999999733e-01,3.070741510490406778e-01,1.000000000000000048e-04,4.088891153856144456e+01,1.199999999999999956e-01
2.323316692000000128e+00,-1.072994334000000105e+00,6.165182871025178812e-01,1.000000000000000048e-04,4.301405399870610324e+01,1.400000000000000133e-01
-3.012222731179586166e+00,-7.219820959999999621e-01,8.458937412332390160e-01,1.000000000000000048e-04,4.373572700675032365e+01,1.199999999999999956e-01
2.306010604999999991e+00,-1.110345181000000014e+00,2.594792616410861452e-01,1.000000000000000048e-04,4.061372878278636023e+01,1.100000000000000006e-01
2.437557496999999795e+00,-1.097151527000000071e+00,3.911941863500651984e-01,1.000000000000000048e-04,4.162638295420340739e+01,1.100000000000000006e-01
1.098420291999999909e+00,-7.444727049999999569e-01,1.049441838390396065e+00,1.000000000000000048e-04,4.445779565169637948e+01,1.300000000000000044e-01
8.241628739999999897e-01,-4.611620249999999754e-01,3.071761219753823546e-01,1.000000000000000048e-04,4.117228233488867772e+01,1.400000000000000133e-01
1.017317494999999905e+00,-7.027905669999999771e-01,7.797464809477223646e-01,1.000000000000000048e-04,4.341805036090723036e+01,1.199999999999999956e-01
2.728679550999999925e+00,-1.007430967999999982e+00,2.604275153692581224e-01,1.000000000000000048e-04,4.074247470804370863e+01,1.100000000000000006e-01
2.848837458999999850e+00,-9.622339979999999793e-01,9.239611124309470291e-01,1.000000000000000048e-04,4.408408070213110364e+01,1.199999999999999956e-01
-3.065525731179586266e+00,-7.207210450000000046e-01,2.107492301566455950e-01,1.000000000000000048e-04,4.008949538186445238e+01,1.199999999999999956e-01
1.103969978000000074e+00,-7.587182380000000448e-01,3.550655773095539036e-01,1.000000000000000048e-04,4.121832179277905794e+01,1.300000000000000044e-01
1.112034854000000017e+00,-7.675460100000000008e-01,2.730424020726063272e-01,1.000000000000000048e-04,4.072545538144797206e+01,1.199999999999999956e-01
2.373162053000000160e+00,-1.072487750000000073e+00,1.549962402346982682e-01,1.000000000000000048e-04,3.933452169645445196e+01,1.100000000000000006e-01
2.221583438000000132e+00,-1.096064289000000080e+00,2.559220799805208557e-01,1.000000000000000048e-04,4.050650986315044122e+01,1.199999999999999956e-01
2.775251189000000007e+00,-1.013244017000000108e+00,8.662924145036405843e-01,1.000000000000000048e-04,4.376522649762033979e+01,1.700000000000000122e-01
1.527128894000000070e+00,-9.963611940000000056e-01,4.021656534523487814e-01,1.000000000000000048e-04,4.151253874803340693e+01,1.400000000000000133e-01
-1.936135624179586401e+00,1.327891944000000102e+00,6.268290108835357088e-01,1.000000000000000048e-04,4.304057185793590179e+01,1.199999999999999956e-01
2.120951332999999828e+00,-1.112975437000000012e+00,2.201889215298546976e-01,1.000000000000000048e-04,4.024030562416408685e+01,1.600000000000000033e-01
2.950704906999999988e+00,-9.277153000000000205e-01,9.667595499056766961e-01,1.000000000000000048e-04,4.414913145411440354e+01,1.700000000000000122e-01
2.461302839000000020e+00,-1.064109841000000056e+00,1.001703167164501806e+00,1.000000000000000048e-04,4.404357186995586915e+01,1.499999999999999944e-01
1.687800213000000049e+00,-1.037844004000000098e+00,1.509888061555044736e-01,1.000000000000000048e-04,3.926583544428930850e+01,1.100000000000000006e-01
-3.069023128179586113e+00,-7.343218900000000327e-01,1.697266929115397449e-01,1.000000000000000048e-04,3.932912789827467037e+01,2.000000000000000111e-01
7.655655390000000171e-01,-3.825025819999999799e-01,1.482389398985453077e-01,1.000000000000000048e-04,3.931005111293686127e+01,1.300000000000000044e-01
-3.051736326179586012e+00,-7.690870560000000467e-01,5.396189185737090277e-01,1.000000000000000048e-04,4.247618532078456610e+01,1.499999999999999944e-01
-3.116938176179586240e+00,-7.920766919999999711e-01,3.852320379756855040e-01,1.000000000000000048e-04,4.153168244764889749e+01,1.100000000000000006e-01
1.020863690000000101e+00,-6.877910739999999468e-01,9.082532807397762920e-01,1.000000000000000048e-04,4.406320413555948079e+01,1.199999999999999956e-01
1.792785233999999894e+00,-1.066474936999999956e+00,7.264717910740869922e-01,1.000000000000000048e-04,4.323334660434510823e+01,1.100000000000000006e-01
1.805689748000000039e+00,-1.066896787999999985e+00,9.023271070884351097e-01,1.000000000000000048e-04,4.391503893642834555e+01,1.100000000000000006e-01
1.773248071000000037e+00,-1.046601056999999946e+00,3.115281346041720578e-01,1.000000000000000048e-04,4.118345524652812628e+01,2.099999999999999922e-01
1.076689889999999927e+00,-7.549444410000000216e-01,5.188662703884225902e-01,1.000000000000000048e-04,4.239548556966390436e+01,1.199999999999999956e-01
2.336456505000000128e+00,-1.089906792000000069e+00,2.550805661773640765e-01,1.000000000000000048e-04,4.044749516760867891e+01,1.199999999999999956e-01
2.522083900000000156e+00,-1.078852812999999911e+00,4.663881705603905026e-01,1.000000000000000048e-04,4.218871528228579137e+01,1.199999999999999956e-01
3.676074389999999803e-01,1.100614297999999991e+00,1.306138246879521514e+00,1.000000000000000048e-04,4.480081353527400267e+01,1.700000000000000122e-01
2.099931574000000190e+00,-1.082223048999999993e+00,6.424831605036103177e-01,1.000000000000000048e-04,4.296554866139991447e+01,1.100000000000000006e-01
8.155488279999999479e-01,-4.642700679999999802e-01,6.056276989219306905e-01,1.000000000000000048e-04,4.296244849423539591e+01,2.099999999999999922e-01
9.861636230000000447e-01,-6.881834650000000497e-01,1.218204881672777518e-01,1.000000000000000048e-04,3.880073889067585213e+01,1.300000000000000044e-01
1.864254864999999928e+00,-1.086684659999999969e+00,2.883369484985722764e-01,1.000000000000000048e-04,4.072106819122349464e+01,1.199999999999999956e-01
2.873066016000000111e+00,-9.753574739999999466e-01,7.918477524980458426e-01,1.000000000000000048e-04,4.359622604621458919e+01,1.300000000000000044e-01
2.270287562000000037e+00,-1.085086717999999895e+00,1.216722648062385392e+00,1.000000000000000048e-04,4.457950624198970502e+01,1.799999999999999933e-01
8.268071609999999572e-01,-4.587794940000000099e-01,1.482661907986209116e-01,1.000000000000000048e-04,3.916319977604914726e+01,1.199999999999999956e-01
-3.050869045179586347e+00,-7.648855789999999821e-01,3.577626983636323921e-01,1.000000000000000048e-04,4.138247692044525650e+01,1.199999999999999956e-01
1.101963728999999947e+00,-7.466317359999999903e-01,3.484326440906895250e-01,1.000000000000000048e-04,4.130313887700308584e+01,1.900000000000000022e-01
1.745116724000000064e+00,-1.056563783000000090e+00,3.020867761858638811e-01,1.000000000000000048e-04,4.090046158917912322e+01,1.300000000000000044e-01
7.889769570000000343e-01,-3.846565690000000037e-01,7.560966074156172390e-01,1.000000000000000048e-04,4.357650894027882771e+01,1.499999999999999944e-01
1.385818830999999918e+00,-9.278259679999999454e-01,4.485956126547945289e-01,1.000000000000000048e-04,4.195611841911421180e+01,1.499999999999999944e-01
1.138484923000000038e+00,-8.197145099999999518e-01,2.758412807456578353e-01,1.000000000000000048e-04,4.072744552924427097e+01,1.400000000000000133e-01
1.783410439000000069e+00,-1.080958507999999929e+00,7.898627546676468825e-01,1.000000000000000048e-04,4.354488503146327361e+01,1.400000000000000133e-01
2.617653461000000181e+00,-1.025884226000000066e+00,7.860799185195466166e-01,1.000000000000000048e-04,4.342465834373547295e+01,1.199999999999999956e-01
8.270197009999999960e-01,-4.157453939999999903e-01,1.917254234921048628e-01,1.000000000000000048e-04,3.985410360726223900e+01,1.199999999999999956e-01
3.128792493000000174e+00,-8.522697870000000009e-01,2.371551374607827611e-01,1.000000000000000048e-04,4.032674349840505101e+01,1.100000000000000006e-01
1.366158207000000013e+00,-9.614226009999999878e-01,2.441703451593939533e-01,1.000000000000000048e-04,4.050765095764528922e+01,1.100000000000000006e-01
2.846286316000000038e+00,-9.688357899999999745e-01,2.373544850236810611e-01,1.000000000000000048e-04,4.049553689614141661e+01,1.400000000000000133e-01
9.208216280000000031e-01,-6.185352929999999860e-01,1.879508205609752292e-01,1.000000000000000048e-04,3.948738104312006669e+01,1.499999999999999944e-01
7.622987450000000553e-01,-3.411912120000000215e-01,4.199841309481422424e-01,1.000000000000000048e-04,4.183390604990137973e+01,1.199999999999999956e-01
9.277931750000000255e-01,-5.813990460000000304e-01,3.645075148203451576e-01,1.000000000000000048e-04,4.115410561782557863e+01,2.099999999999999922e-01
1.010173165000000095e+00,-6.808591280000000356e-01,4.291238095721223722e-01,1.000000000000000048e-04,4.202213307680919741e+01,1.300000000000000044e-01
1.661181446000000062e+00,-1.029160687999999935e+00,3.554455875314892488e-01,1.000000000000000048e-04,4.131250357418460339e+01,1.400000000000000133e-01
2.089878704000000198e+00,-1.077863170999999953e+00,4.694950053715525318e-01,1.000000000000000048e-04,4.218973035928962645e+01,1.199999999999999956e-01
9.321550429999999610e-01,-6.212176799999999943e-01,2.183252937813802141e-01,1.000000000000000048e-04,4.012976139289256139e+01,1.199999999999999956e-01
2.944595597000000176e+00,-9.127602249999999806e-01,5.096736127652494730e-01,1.000000000000000048e-04,4.242845006703799271e+01,1.100000000000000006e-01
1.288081913999999939e+00,-9.113959929999999598e-01,4.475140384217233258e-01,1.000000000000000048e-04,4.200118706384258616e+01,1.300000000000000044e-01
1.398731861999999992e+00,-9.625033109999999725e-01,5.796519472583310240e-01,1.000000000000000048e-04,4.268967626635753732e+01,1.199999999999999956e-01
1.714165549000000066e+00,-1.043104095999999981e+00,1.281048516656632330e+00,1.000000000000000048e-04,4.508892596107246931e+01,1.199999999999999956e-01
1.014018395999999989e+00,-6.788913789999999615e-01,8.705799702029053400e-01,1.000000000000000048e-04,4.393884693829741650e+01,1.300000000000000044e-01
8.887761809999999985e-01,-5.541821719999999729e-01,4.022173632578680547e-01,1.000000000000000048e-04,4.172975892088466310e+01,1.300000000000000044e-01
1.026278256999999972e+00,-6.961882160000000264e-01,9.973320869771562514e-01,1.000000000000000048e-04,4.421135334220361557e+01,1.199999999999999956e-01
1.824970581999999952e+00,-1.080428363000000003e+00,5.113861551851490717e-01,1.000000000000000048e-04,4.235071595602820338e+01,1.199999999999999956e-01
1.839979185000000017e+00,-1.082878103999999952e+00,5.156982661023734593e-01,1.000000000000000048e-04,4.233505833431057397e+01,1.300000000000000044e-01
-3.070118813179586237e+00,-7.641942569999999879e-01,3.748510463511061097e-01,1.000000000000000048e-04,4.140505589995708391e+01,1.199999999999999956e-01
2.250776613000000204e+00,-1.110438553999999911e+00,3.172386246147924638e-01,1.000000000000000048e-04,4.105875461719459452e+01,1.199999999999999956e-01
2.613802471000000072e+00,-1.066258922999999914e+00,4.114566892132198728e-01,1.000000000000000048e-04,4.160501299049033008e+01,1.199999999999999956e-01
8.050150120000000298e-01,-4.193234060000000096e-01,3.936004074742527337e-01,1.000000000000000048e-04,4.172372157011656668e+01,1.499999999999999944e-01
2.809576177999999924e+00,-9.952447749999999704e-01,1.815739848157176262e-01,1.000000000000000048e-04,3.966333730242857314e+01,1.199999999999999956e-01
8.523447290000000232e-01,-4.773689010000000121e-01,1.723908410227532606e-01,1.000000000000000048e-04,3.963639224426936636e+01,2.000000000000000111e-01
2.975142320999999868e+00,-8.986192680000000266e-01,3.917753259146716793e-01,1.000000000000000048e-04,4.148601154496672194e+01,2.000000000000000111e-01
2.960578484000000010e+00,-9.174235720000000205e-01,1.208275246267229708e-01,1.000000000000000048e-04,3.858368717488488642e+01,1.400000000000000133e-01
1.589239559999999996e+00,-1.046132274999999945e+00,5.096677185544700173e-01,1.000000000000000048e-04,4.227816944388305131e+01,1.199999999999999956e-01
1.095136271999999966e+00,-7.909478989999999543e-01,6.528999928860266255e-01,1.000000000000000048e-04,4.332072281780715173e+01,1.300000000000000044e-01
3.045277111999999953e+00,-8.831592660000000539e-01,2.391587985990377696e-01,1.000000000000000048e-04,4.023692695312699641e+01,1.799999999999999933e-01
3.011317304999999944e+00,-8.969173430000000335e-01,4.261955368813388212e-01,1.000000000000000048e-04,4.195873919153599019e+01,1.499999999999999944e-01
1.946036051000000100e+00,-1.101857058000000000e+00,1.434059000782779147e-01,1.000000000000000048e-04,3.917020348006411012e+01,1.100000000000000006e-01
9.659444579999999503e-01,-6.400164339999999674e-01,3.447500164018619806e-01,1.000000000000000048e-04,4.121078497671199159e+01,1.199999999999999956e-01
1.142944595999999979e+00,-8.229314749999999679e-01,1.698503443052186146e-01,1.000000000000000048e-04,3.939055562701408775e+01,1.499999999999999944e-01
1.336859599999999926e+00,-9.462661719999999610e-01,1.514893246133917071e-01,1.000000000000000048e-04,3.945462227198455452e+01,1.900000000000000022e-01
2.386695267999999981e+00,-1.099692616000000012e+00,3.711192050449660940e-01,1.000000000000000048e-04,4.154500941957288518e+01,1.799999999999999933e-01
1.122946417999999946e+00,-7.871106610000000448e-01,1.325012323875549569e-01,1.000000000000000048e-04,3.901822573631405078e+01,1.499999999999999944e-01
1.038511049000000019e+00,-6.836743480000000428e-01,4.095088809239917360e-01,1.000000000000000048e-04,4.160010719031787829e+01,1.499999999999999944e-01
-1.865548755179585960e+00,5.988235499999999822e-01,4.828620201977102955e-01,1.000000000000000048e-04,4.220451342764507530e+01,3.599999999999999867e-01
-1.208774007179585830e+00,1.086301519000000049e+00,3.334182855223239983e-01,1.000000000000000048e-04,4.132557414581368960e+01,3.900000000000000133e-01
-1.451351928179586359e+00,1.047303024999999943e+00,5.309386212327942278e-01,1.000000000000000048e-04,4.271125015289834437e+01,3.900000000000000133e-01
-1.863787002179586594e+00,5.986409590000000280e-01,8.669579558046096590e-01,1.000000000000000048e-04,4.348320133122168585e+01,3.099999999999999978e-01
-2.367107747179586053e+00,3.570653329999999848e-01,2.120724143732650724e-01,1.000000000000000048e-04,4.111786507296676518e+01,3.300000000000000155e-01
3.110012692999999828e+00,-8.816387980000000013e-01,2.782824259639586906e-01,1.000000000000000048e-04,4.048902634547863499e+01,4.000000000000000222e-01
1.208427087000000011e+00,6.391205479999999550e-01,4.165391870304095967e-01,1.000000000000000048e-04,4.247514268442132135e+01,3.200000000000000067e-01
2.195568135999999893e+00,9.530612539999999688e-01,8.502660576438654250e-01,1.000000000000000048e-04,4.326161224982587328e+01,3.200000000000000067e-01
-1.746303855179585973e+00,7.561700099999999480e-01,3.058636780613022133e-01,1.000000000000000048e-04,4.118632581403431914e+01,3.599999999999999867e-01
-2.613733020179586308e+00,3.020363409999999860e-01,1.731390504542407172e-01,1.000000000000000048e-04,3.955907223865327893e+01,2.399999999999999911e-01
3.080075141000000016e+00,6.813462000000000129e-01,2.628789437420284703e-01,1.000000000000000048e-04,4.052712576636223929e+01,2.999999999999999889e-01
3.084152930000000126e+00,6.750201959999999612e-01,8.170087393091753913e-01,1.000000000000000048e-04,4.322882312173947383e+01,2.399999999999999911e-01
-2.831540824179586302e+00,-5.193198470000000011e-01,4.367141101057483432e-01,1.000000000000000048e-04,4.234333936365521112e+01,2.899999999999999800e-01
2.921667255000000019e+00,-9.403574120000000036e-01,7.761384570077130007e-01,1.000000000000000048e-04,4.360663135164600135e+01,2.899999999999999800e-01
2.610543199999999953e+00,9.294079060000000059e-01,7.300292043727985014e-01,1.000000000000000048e-04,4.312333192600461729e+01,2.899999999999999800e-01
2.614058957000000127e+00,9.310355519999999885e-01,1.259969400915665894e-01,1.000000000000000048e-04,3.807704394946630799e+01,3.699999999999999956e-01
-2.614313936179586406e+00,3.105085300000000048e-01,1.801880358773428892e-01,1.000000000000000048e-04,3.950913475230758820e+01,2.300000000000000100e-01
-2.614275993179586255e+00,3.084493819999999942e-01,6.053884293665179328e-01,1.000000000000000048e-04,4.283777267246574638e+01,2.000000000000000111e-01
3.080236718000000096e+00,6.852664600000000217e-01,1.402838881614076882e-01,1.000000000000000048e-04,3.878335628481048047e+01,3.800000000000000044e-01
3.085135451000000195e+00,6.840520260000000352e-01,1.938742271688014274e-01,1.000000000000000048e-04,4.005523531943564564e+01,2.300000000000000100e-01
-2.829361723179586452e+00,-5.190188390000000096e-01,2.224045603974293961e-01,1.000000000000000048e-04,4.010736911057468745e+01,3.900000000000000133e-01
-2.833706243179586082e+00,-5.260186759999999628e-01,3.342334751854694197e-01,1.000000000000000048e-04,4.138598521617687709e+01,2.200000000000000011e-01
1.286414458000000094e+00,-9.076167339999999806e-01,2.249123217800517160e-01,1.000000000000000048e-04,3.998611124846171094e+01,2.399999999999999911e-01
2.295144749999999956e+00,-1.095028292000000070e+00,6.597143902535642646e-01,1.000000000000000048e-04,4.303055141327272537e+01,2.000000000000000111e-01
2.312115046000000174e+00,-1.091482969000000081e+00,5.412279435655578119e-01,1.000000000000000048e-04,4.250584977142336385e+01,1.900000000000000022e-01
2.535381049000000164e+00,-1.063602453999999975e+00,1.244029909930681299e+00,1.000000000000000048e-04,4.505664771472038410e+01,2.600000000000000089e-01
2.549902755000000187e+00,-1.059649137999999935e+00,3.043511205061919522e-01,1.000000000000000048e-04,4.105083974326346663e+01,1.900000000000000022e-01
-2.980466121795863899e-01,1.081935794000000062e+00,5.878121416548625078e-01,1.000000000000000048e-04,4.276610867980502917e+01,1.000000000000000056e-01
-4.562223411795862660e-01,1.078420874000000085e+00,3.894571587189581408e-01,1.000000000000000048e-04,4.162398415739577473e+01,1.400000000000000133e-01
-4.727696341795866175e-01,1.076427226000000070e+00,1.261796990365890103e+00,1.000000000000000048e-04,4.449238018761231928e+01,1.900000000000000022e-01
-4.909850281795860028e-01,1.086050390999999893e+00,2.278551769694752149e-01,1.000000000000000048e-04,4.018799801556862406e+01,1.499999999999999944e-01
-1.809890014179586615e+00,8.554848849999999727e-01,4.452098188118838173e-01,1.000000000000000048e-04,4.210731845895938363e+01,1.900000000000000022e-01
-1.804843805179586091e+00,8.509932909999999850e-01,2.876614689850540696e-01,1.000000000000000048e-04,4.113819868566108084e+01,1.700000000000000122e-01
-1.798315402179586187e+00,8.389159160000000393e-01,1.050277560990267922e+00,1.000000000000000048e-04,4.445397996584324574e+01,1.100000000000000006e-01
-1.820018681179586650e+00,8.404092629999999620e-01,7.039934790389874575e-01,1.000000000000000048e-04,4.334769727683893592e+01,2.000000000000000111e-01
-2.435936564179586039e+00,3.767214549999999829e-01,1.736013775270472959e-01,1.000000000000000048e-04,3.949423226126005204e+01,1.700000000000000122e-01
-2.738532057179586143e+00,-4.670391260000000266e-01,2.310908793416133200e-01,1.000000000000000048e-04,4.006913120904821568e+01,1.100000000000000006e-01
-2.750126147179586145e+00,-4.750163370000000107e-01,1.634486716372860471e-01,1.000000000000000048e-04,3.962352931654745447e+01,1.700000000000000122e-01
6.777063359999999648e-01,-9.284162910000000046e-01,6.102010363358298939e-01,1.000000000000000048e-04,4.264722580719291756e+01,1.600000000000000033e-01
6.755664329999999662e-01,-9.242990760000000527e-01,6.125052046720260712e-01,1.000000000000000048e-04,4.252680522932345752e+01,2.200000000000000011e-01
1.666277256000000095e+00,1.035703752000000089e+00,3.451523823976636596e-01,1.000000000000000048e-04,4.108261501739379185e+01,2.800000000000000266e-01
1.679531192000000006e+00,1.034147155999999956e+00,7.985751975059141028e-01,1.000000000000000048e-04,4.359251400125060627e+01,2.099999999999999922e-01
1.669961188000000041e+00,1.045784459000000055e+00,2.920691823511305518e-01,1.000000000000000048e-04,4.061851139140000555e+01,2.899999999999999800e-01
1.666612017000000057e+00,1.035903760999999923e+00,1.958768327428388467e-01,1.000000000000000048e-04,4.002684380369988304e+01,1.400000000000000133e-01
1.676630470000000095e+00,1.049302589999999924e+00,5.750322990736100870e-01,1.000000000000000048e-04,4.247636392246429438e+01,1.600000000000000033e-01
1.678871634000000057e+00,1.037439988999999896e+00,2.407707620371919433e-01,1.000000000000000048e-04,4.041719439027504279e+01,2.099999999999999922e-01
-2.159653925179585876e+00,7.341517600000000421e-01,2.989268040913999336e-01,1.000000000000000048e-04,4.072925536523314349e+01,2.600000000000000089e-01
-2.155609593179586447e+00,7.327229189999999726e-01,4.424486924797377263e-01,1.000000000000000048e-04,4.213982972501155899e+01,1.400000000000000133e-01
2.989279821999999864e+00,-1.014333855000000062e+00,2.570956020866326242e-01,1.000000000000000048e-04,4.074130172502582070e+01,1.600000000000000033e-01
6.962963009999999509e-01,-9.242906640000000396e-01,5.253891275960986817e-01,1.000000000000000048e-04,4.237862059594871056e+01,2.000000000000000111e-01
6.831622830000000368e-01,-9.295060950000000322e-01,5.620944139326993216e-01,1.000000000000000048e-04,4.274923309681187789e+01,2.099999999999999922e-01
6.813526220000000189e-01,-9.196739680000000083e-01,2.749794924446951061e-01,1.000000000000000048e-04,4.061680330123643046e+01,1.700000000000000122e-01
1.667475545999999920e+00,1.039138789999999979e+00,3.390977985351792956e-01,1.000000000000000048e-04,4.131005988820507469e+01,1.499999999999999944e-01
1.669072946000000002e+00,1.039627206000000026e+00,2.066746580302101233e-01,1.000000000000000048e-04,3.989577960626358077e+01,1.700000000000000122e-01
2.992464221000000091e+00,-1.009427984000000000e+00,6.253795671047681637e-01,1.000000000000000048e-04,4.284138832522535978e+01,1.400000000000000133e-01
3.013377762000000182e+00,-1.015725085999999999e+00,3.446707234542056852e-01,1.000000000000000048e-04,4.162276240835787178e+01,1.499999999999999944e-01
6.857830799999999893e-01,-9.290922369999999875e-01,3.869013482446537200e-01,1.000000000000000048e-04,4.198002611927808658e+01,3.400000000000000244e-01
6.874880420000000214e-01,-9.251381180000000093e-01,8.973334166952953161e-01,1.000000000000000048e-04,4.390970323869367320e+01,1.700000000000000122e-01
1.659686511000000086e+00,1.040101345999999927e+00,5.167509760224724413e-01,1.000000000000000048e-04,4.223490067285431593e+01,1.400000000000000133e-01
1.692629780999999944e+00,1.043637506000000048e+00,6.750780457471488027e-01,1.000000000000000048e-04,4.314004478473822957e+01,1.799999999999999933e-01
1.682450028999999958e+00,1.049226146999999942e+00,2.232556681056374615e-01,1.000000000000000048e-04,4.025126824933040837e+01,1.900000000000000022e-01
1.675255906999999933e+00,1.048468626000000015e+00,8.481195877522695881e-01,1.000000000000000048e-04,4.346648152747488325e+01,1.499999999999999944e-01
1.692145135000000078e+00,1.039981480000000014e+00,9.649206527411249290e-01,1.000000000000000048e-04,4.384688536902694267e+01,1.700000000000000122e-01
-2.139768073179586061e+00,7.360294179999999908e-01,2.282606480729278964e-01,1.000000000000000048e-04,4.011685874055300616e+01,1.600000000000000033e-01
-2.138731675179585956e+00,7.369836659999999817e-01,1.881661821853699568e-01,1.000000000000000048e-04,3.998584087158965161e+01,1.499999999999999944e-01
6.888283630000000546e-01,-9.193630990000000169e-01,6.639850194706005126e-01,1.000000000000000048e-04,4.305395459101686839e+01,1.700000000000000122e-01
6.776433490000000059e-01,-9.225326109999999469e-01,4.242040786971585931e-01,1.000000000000000048e-04,4.197392256976777958e+01,1.600000000000000033e-01
6.820513620000000499e-01,-9.162569579999999547e-01,4.932278193031760516e-01,1.000000000000000048e-04,4.196063820681370515e+01,2.899999999999999800e-01
6.832637360000000104e-01,-9.208365670000000502e-01,1.049799292051000421e+00,1.000000000000000048e-04,4.417578374292844501e+01,1.400000000000000133e-01
1.683256381999999940e+00,1.050427892999999946e+00,5.920825096888058248e-01,1.000000000000000048e-04,4.248286051082825310e+01,1.499999999999999944e-01
2.987248335999999949e+00,-1.011507587000000097e+00,1.039879706852715024e+00,1.000000000000000048e-04,4.406980162058720651e+01,1.900000000000000022e-01
2.994879214000000012e+00,-1.020537374999999969e+00,3.502041712981567301e-01,1.000000000000000048e-04,4.172414171339824662e+01,2.500000000000000000e-01
2.997056848999999801e+00,-1.020797841000000039e+00,2.426973852359270989e-01,1.000000000000000048e-04,4.042638592005695841e+01,1.499999999999999944e-01
6.981827720000000070e-01,-9.201470600000000166e-01,4.310865028289652123e-01,1.000000000000000048e-04,4.199923797256489877e+01,2.099999999999999922e-01
1.675679171999999939e+00,1.042232051000000048e+00,4.362944883776809224e-01,1.000000000000000048e-04,4.207807461631172430e+01,1.900000000000000022e-01
1.682732345000000018e+00,1.051774148000000020e+00,5.754593838027530772e-01,1.000000000000000048e-04,4.252411699445990223e+01,2.099999999999999922e-01
1.655763980999999996e+00,1.041789395999999979e+00,9.547395060773995468e-01,1.000000000000000048e-04,4.417389166063927775e+01,2.099999999999999922e-01
1.658505131999999938e+00,1.042043577999999915e+00,2.471423814407338604e-01,1.000000000000000048e-04,4.061093404643895610e+01,1.499999999999999944e-01
1.679931540999999973e+00,1.044700675999999939e+00,1.348607348067811795e-01,1.000000000000000048e-04,3.917419228701854195e+01,1.400000000000000133e-01
1.681131209999999987e+00,1.046558263000000100e+00,2.299246615651426850e-01,1.000000000000000048e-04,4.029709822424985788e+01,3.800000000000000044e-01
-2.147380102179586636e+00,7.248191320000000326e-01,6.776807319497129001e-01,1.000000000000000048e-04,4.302169657848542528e+01,2.200000000000000011e-01
-2.137481690179586558e+00,7.386978770000000027e-01,2.797502445591433240e-01,1.000000000000000048e-04,4.080974515254496282e+01,1.499999999999999944e-01
3.007533192999999994e+00,-1.006434849999999992e+00,4.998792420279827287e-01,1.000000000000000048e-04,4.199139052574490449e+01,1.700000000000000122e-01
6.766177190000000063e-01,-9.309161569999999664e-01,8.842569814614340551e-01,1.000000000000000048e-04,4.410143990876566988e+01,1.700000000000000122e-01
6.879719020000000240e-01,-9.170357009999999809e-01,9.068444092776395404e-01,1.000000000000000048e-04,4.379910135700067286e+01,2.600000000000000089e-01
6.868192690000000100e-01,-9.190749710000000183e-01,1.292541861352389798e+00,1.000000000000000048e-04,4.475377134735564510e+01,2.800000000000000266e-01
1.680927606000000019e+00,1.043199457999999913e+00,1.746443601206670859e-01,1.000000000000000048e-04,3.946189537645488343e+01,1.799999999999999933e-01
1.680733408999999901e+00,1.046110547000000057e+00,2.443753515013529221e-01,1.000000000000000048e-04,4.038032060276976409e+01,1.499999999999999944e-01
3.003205794999999956e+00,-1.007960921000000010e+00,1.737792211756514771e-01,1.000000000000000048e-04,3.979705573604258007e+01,2.200000000000000011e-01
3.013387552999999830e+00,-1.018013843000000085e+00,1.995996535384134685e-01,1.000000000000000048e-04,3.992894296886449723e+01,2.000000000000000111e-01
2.991633154000000072e+00,-1.018575491000000000e+00,7.804082754010477352e-01,1.000000000000000048e-04,4.362069456967492442e+01,1.600000000000000033e-01
6.810583510000000063e-01,-9.216344210000000370e-01,2.811181309014196827e-01,1.000000000000000048e-04,4.060745892109308386e+01,1.600000000000000033e-01
1.670069762000000013e+00,1.048284639000000018e+00,8.851062640722355823e-01,1.000000000000000048e-04,4.369721712302739292e+01,2.099999999999999922e-01
1.699713636000000028e+00,1.040243690999999915e+00,1.694675702522767669e-01,1.000000000000000048e-04,3.913759123945901308e+01,2.899999999999999800e-01
1.686195045999999920e+00,1.048540513999999924e+00,4.980003297129025341e-01,1.000000000000000048e-04,4.238100023511161396e+01,1.400000000000000133e-01
1.667162669999999958e+00,1.044746053999999980e+00,2.741121955498924123e-01,1.000000000000000048e-04,4.050866949077872192e+01,2.700000000000000178e-01
1.689467040999999892e+00,1.036330184999999959e+00,3.558519372124813174e-01,1.000000000000000048e-04,4.155761003803038278e+01,1.300000000000000044e-01
1.683799076999999977e+00,1.043385784000000038e+00,3.438820591783025016e-01,1.000000000000000048e-04,4.122782275922973128e+01,1.700000000000000122e-01
-2.151455832179586025e+00,7.398983139999999459e-01,1.607651465825372661e-01,1.000000000000000048e-04,3.931976843565721680e+01,2.500000000000000000e-01
-2.141944958179585967e+00,7.302793560000000461e-01,3.860128747016953188e-01,1.000000000000000048e-04,4.155979261512938194e+01,1.400000000000000133e-01
3.012489310999999947e+00,-1.019874449000000016e+00,6.947163067422024163e-01,1.000000000000000048e-04,4.317921771896160976e+01,1.900000000000000022e-01
6.824463880000000149e-01,-9.193269539999999740e-01,1.495774792486361804e-01,1.000000000000000048e-04,3.919856461899074418e+01,1.600000000000000033e-01
6.933168330000000212e-01,-9.307474239999999899e-01,2.091232860145488814e-01,1.000000000000000048e-04,4.011157176288521242e+01,1.600000000000000033e-01
7.005346909999999871e-01,-9.247541049999999929e-01,2.863223942094808017e-01,1.000000000000000048e-04,4.091867166818848034e+01,2.700000000000000178e-01
1.674988617999999985e+00,1.042237757999999959e+00,5.557534670174932856e-01,1.000000000000000048e-04,4.227848278357011225e+01,1.499999999999999944e-01
1.672026148000000045e+00,1.039374368000000048e+00,6.527693621598291696e-01,1.000000000000000048e-04,4.307606962510726589e+01,1.600000000000000033e-01
2.993618983999999816e+00,-1.008517228000000099e+00,6.041053476456763605e-01,1.000000000000000048e-04,4.271034728844211514e+01,1.700000000000000122e-01
2.992837709999999873e+00,-1.014889098000000045e+00,7.963592225073208297e-01,1.000000000000000048e-04,4.374133380280242278e+01,2.800000000000000266e-01
2.980621672999999916e+00,-1.012535224000000067e+00,1.208435462370560654e-01,1.000000000000000048e-04,3.899767287051533771e+01,1.499999999999999944e-01
3.118379398000000080e+00,-1.044341935000000055e+00,2.869444841733312934e-01,1.000000000000000048e-04,4.088278906717839334e+01,3.099999999999999978e-01
3.132904315000000217e+00,-1.046896950999999909e+00,1.404202747376523952e-01,1.000000000000000048e-04,3.915009639757065685e+01,2.200000000000000011e-01
1.248659997999999938e+00,-1.117162079000000086e+00,6.193764593522619322e-01,1.000000000000000048e-04,4.271288123492792721e+01,2.700000000000000178e-01
2.302446713000000145e+00,-1.091359299000000060e+00,2.316445911228963705e-01,1.000000000000000048e-04,3.995753210216697227e+01,2.899999999999999800e-01
3.133486173000000097e+00,-1.061461677999999909e+00,2.307509870584631972e-01,1.000000000000000048e-04,4.039795189275269394e+01,3.099999999999999978e-01
1.251013366000000016e+00,-1.102704651999999896e+00,5.525440780436507993e-01,1.000000000000000048e-04,4.245070181289167977e+01,2.300000000000000100e-01
1.232341668999999973e+00,-1.105349812000000043e+00,6.905291612518160704e-01,1.000000000000000048e-04,4.348795845098304369e+01,2.200000000000000011e-01
2.330538756999999794e+00,-1.086213730999999960e+00,7.181314599554917688e-01,1.000000000000000048e-04,4.308708065067427384e+01,2.300000000000000100e-01
3.104372880000000112e+00,-1.050765708999999992e+00,4.157992035322259916e-01,1.000000000000000048e-04,4.157446034729366602e+01,2.200000000000000011e-01
3.122794933000000217e+00,-1.050942575000000101e+00,4.009952337442972414e-01,1.000000000000000048e-04,4.148137926072840287e+01,2.099999999999999922e-01
3.135928428000000157e+00,-1.044986675000000087e+00,7.884515444915041193e-01,1.000000000000000048e-04,4.310003418104057715e+01,2.300000000000000100e-01
3.135701593999999925e+00,-1.049448040999999998e+00,2.116916051052368797e-01,1.000000000000000048e-04,3.994882737509222181e+01,2.399999999999999911e-01
2.902190216000000156e+00,-1.054666754000000095e+00,1.547467592392435254e-01,1.000000000000000048e-04,3.971652664608648564e+01,2.099999999999999922e-01
1.219278212000000083e+00,-1.102494101000000004e+00,1.675720552576405176e-01,1.000000000000000048e-04,3.960526291868966098e+01,2.399999999999999911e-01
2.314258420999999899e+00,-1.073777474999999981e+00,1.293136265136476837e+00,1.000000000000000048e-04,4.479544793457321106e+01,2.399999999999999911e-01
3.138600745000000192e+00,-1.056209613999999908e+00,1.260975201593727224e+00,1.000000000000000048e-04,4.476483166598391250e+01,2.800000000000000266e-01
2.873014373000000177e+00,-1.047336534999999902e+00,6.713858406219830322e-01,1.000000000000000048e-04,4.295760118344622214e+01,2.000000000000000111e-01
2.890150627000000139e+00,-1.045368942999999939e+00,3.047648068030679447e-01,1.000000000000000048e-04,4.100982382976712870e+01,2.200000000000000011e-01
-3.136513490179586139e+00,-1.038988312000000080e+00,3.254911757314875587e-01,1.000000000000000048e-04,4.057957850240156716e+01,2.800000000000000266e-01
3.120369102000000172e+00,-1.042910143999999928e+00,5.962152391948742913e-01,1.000000000000000048e-04,4.255410414884852344e+01,2.399999999999999911e-01
3.132773262000000170e+00,-1.048570620000000009e+00,4.620442116658229903e-01,1.000000000000000048e-04,4.223646746805662389e+01,2.300000000000000100e-01
3.132934141999999866e+00,-1.046888051000000042e+00,8.037973783653349358e-01,1.000000000000000048e-04,4.343048737195439912e+01,2.200000000000000011e-01
3.134455274000000014e+00,-1.046257098000000108e+00,5.092218627284785804e-01,1.000000000000000048e-04,4.225009014920221517e+01,2.200000000000000011e-01
2.910504301000000016e+00,-1.063930792999999930e+00,4.254097389573976429e-01,1.000000000000000048e-04,4.274017210065703409e+01,2.399999999999999911e-01
2.301930878999999930e+00,-1.084305269999999988e+00,3.193302424294961472e-01,1.000000000000000048e-04,4.117519121379416447e+01,3.099999999999999978e-01
2.314913878000000036e+00,-1.104421796000000011e+00,6.994097563736980661e-01,1.000000000000000048e-04,4.324645765440525480e+01,2.600000000000000089e-01
1.232494258000000009e+00,-1.089556776000000005e+00,8.144486016242020732e-01,1.000000000000000048e-04,4.389478939167431548e+01,3.099999999999999978e-01
-3.138875270179586341e+00,-1.027091259999999950e+00,1.917446713422630289e-01,1.000000000000000048e-04,3.965626844776391380e+01,3.800000000000000044e-01
1.277748142000000087e+00,-1.105660628999999950e+00,2.083908889534524800e-01,1.000000000000000048e-04,3.977019547002281286e+01,2.500000000000000000e-01
2.339694710999999927e+00,-1.083680948999999893e+00,2.404614546487502391e-01,1.000000000000000048e-04,4.007007555143258060e+01,2.300000000000000100e-01
3.085408954000000037e+00,-1.045989441999999991e+00,7.911393490721354560e-01,1.000000000000000048e-04,4.348471921980107169e+01,2.800000000000000266e-01
3.122183823999999941e+00,-1.053540683000000033e+00,3.084432008361586153e-01,1.000000000000000048e-04,4.067630197244314161e+01,3.699999999999999956e-01
1.263417701000000060e+00,-1.099941301000000093e+00,1.616112505014910550e-01,1.000000000000000048e-04,3.938542465929175052e+01,2.200000000000000011e-01
1.238769020999999970e+00,-1.122513239999999968e+00,2.309283435731595002e-01,1.000000000000000048e-04,4.035204098873825984e+01,2.600000000000000089e-01
1.225778744000000087e+00,-1.107856694000000086e+00,7.011024262868845724e-01,1.000000000000000048e-04,4.299832883783897586e+01,2.500000000000000000e-01
2.356185176999999964e+00,-1.090954028000000076e+00,1.070194413381835297e+00,1.000000000000000048e-04,4.427492135852032362e+01,2.700000000000000178e-01
1.231078855000000027e+00,-1.109460918999999990e+00,4.693670850415072593e-01,1.000000000000000048e-04,4.216132227413284994e+01,2.300000000000000100e-01
2.350025410999999842e+00,-1.078254897999999962e+00,1.648566795638366500e-01,1.000000000000000048e-04,3.978532088326595328e+01,2.300000000000000100e-01
2.889344674999999807e+00,-1.054064458000000037e+00,4.738482725589618916e-01,1.000000000000000048e-04,4.229969820272497572e+01,3.200000000000000067e-01
1.260972444000000081e+00,-1.102168519999999985e+00,1.033410245447127451e+00,1.000000000000000048e-04,4.452000277004484730e+01,2.899999999999999800e-01
3.138597202000000141e+00,-1.049455424000000026e+00,1.223974909126526178e-01,1.000000000000000048e-04,3.844825914891987395e+01,2.600000000000000089e-01
1.280173519000000093e+00,-1.106045986000000036e+00,1.305114881482440925e-01,1.000000000000000048e-04,3.867695202369738894e+01,2.899999999999999800e-01
3.140421104000000074e+00,-1.048273016000000002e+00,2.372649492770637636e-01,1.000000000000000048e-04,3.987582492386307820e+01,2.700000000000000178e-01
2.887571490000000018e+00,-1.060290981000000077e+00,5.136030261850683676e-01,1.000000000000000048e-04,4.246854763753175632e+01,2.300000000000000100e-01
3.117377486000000086e+00,-1.048849812999999909e+00,2.262011668946026788e-01,1.000000000000000048e-04,4.004954573832286968e+01,2.800000000000000266e-01
3.139331405000000075e+00,-1.045946368000000071e+00,5.179239207930574906e-01,1.000000000000000048e-04,4.217504976445906095e+01,2.300000000000000100e-01
2.901812189000000153e+00,-1.070407117000000019e+00,1.932161368153708647e-01,1.000000000000000048e-04,4.007267935240211898e+01,2.200000000000000011e-01
2.874698792999999863e+00,-1.069280417999999955e+00,6.960129200762494861e-01,1.000000000000000048e-04,4.298526829102755897e+01,2.200000000000000011e-01
3.126790450000000110e+00,-1.053686536000000062e+00,2.502461975987388954e-01,1.000000000000000048e-04,4.061521260520799359e+01,2.099999999999999922e-01
1.253234667999999941e+00,-1.096167120000000050e+00,2.421031432027238584e-01,1.000000000000000048e-04,4.049191801473485697e+01,2.200000000000000011e-01
1.242189800000000011e+00,-1.095888138000000067e+00,4.538057999774662843e-01,1.000000000000000048e-04,4.234697437478560289e+01,2.899999999999999800e-01
2.358704259000000025e+00,-1.096119858000000002e+00,1.432136211033379070e-01,1.000000000000000048e-04,3.945451475269615571e+01,2.099999999999999922e-01
3.090657074000000115e+00,-1.046905049999999893e+00,5.116703275196263778e-01,1.000000000000000048e-04,4.221491552739636433e+01,2.300000000000000100e-01
2.350320292999999783e+00,-1.077642637000000070e+00,3.115333169114045120e-01,1.000000000000000048e-04,4.101140922389820531e+01,3.300000000000000155e-01
3.120911620999999858e+00,-1.047605429999999949e+00,2.486687859654130861e-01,1.000000000000000048e-04,4.022139478897932463e+01,2.899999999999999800e-01
2.310418793000000193e+00,-1.091478047999999923e+00,4.472938325511239821e-01,1.000000000000000048e-04,4.121264386970842963e+01,3.300000000000000155e-01
2.888242410000000149e+00,-1.055260810999999910e+00,2.444165263732829274e-01,1.000000000000000048e-04,4.039437862812000191e+01,2.999999999999999889e-01
2.313880778000000138e+00,-1.089056457000000089e+00,2.864677866205600498e-01,1.000000000000000048e-04,4.054517900372015049e+01,2.600000000000000089e-01
3.096505394999999883e+00,-1.050897790999999915e+00,2.229773506504049152e-01,1.000000000000000048e-04,4.018104578424156159e+01,3.300000000000000155e-01
1.264206060000000020e+00,-1.108314516000000083e+00,4.427708051742438311e-01,1.000000000000000048e-04,4.218774986537144400e+01,2.500000000000000000e-01
2.317080779999999951e+00,-1.080569537999999996e+00,6.839806505646892631e-01,1.000000000000000048e-04,4.330920015290196545e+01,2.399999999999999911e-01
2.308161032000000112e+00,-1.080284865999999955e+00,2.744844606837673062e-01,1.000000000000000048e-04,4.078660322228108015e+01,3.900000000000000133e-01
1.213089824000000094e+00,-1.095999417000000031e+00,9.374438605504571420e-01,1.000000000000000048e-04,4.370368390525749902e+01,2.700000000000000178e-01
3.095344697999999894e+00,-1.044259242999999948e+00,7.627172265231623172e-01,1.000000000000000048e-04,4.291847198260635565e+01,2.200000000000000011e-01
3.093500166000000107e+00,-1.047656949999999920e+00,1.882312947198774289e-01,1.000000000000000048e-04,3.999915755253029204e+01,2.300000000000000100e-01
2.871266652000000086e+00,-1.064917746999999970e+00,1.499607178347579506e-01,1.000000000000000048e-04,3.932152754954164919e+01,2.500000000000000000e-01
2.872879009000000039e+00,-1.076645507999999918e+00,4.300387640628011710e-01,1.000000000000000048e-04,4.164129509498982173e+01,2.099999999999999922e-01
1.241294699000000001e+00,-1.109043570000000090e+00,3.344283772361533735e-01,1.000000000000000048e-04,4.160172784180224426e+01,2.099999999999999922e-01
1.238788393000000099e+00,-1.083197141000000085e+00,1.255148899945206509e+00,1.000000000000000048e-04,4.444938594499590323e+01,2.999999999999999889e-01
-3.140928712179586135e+00,-1.049943351000000025e+00,1.290439950789946888e+00,1.000000000000000048e-04,4.408280294560349688e+01,2.200000000000000011e-01
2.897074545000000168e+00,-1.050668165000000043e+00,3.828453246286713796e-01,1.000000000000000048e-04,4.144432779160408842e+01,2.099999999999999922e-01
3.133488720999999977e+00,-1.053899826000000095e+00,2.864922354757042378e-01,1.000000000000000048e-04,4.086329185568539657e+01,2.300000000000000100e-01
2.854965548000000020e+00,-1.051119023000000041e+00,8.938749915039114757e-01,1.000000000000000048e-04,4.406326009314134495e+01,3.200000000000000067e-01
2.846666281000000076e+00,-1.061494909000000098e+00,3.826693884233383081e-01,1.000000000000000048e-04,4.136943131235356930e+01,2.600000000000000089e-01
1.477625364000000108e+00,-9.892628350000000070e-01,5.034169162267834174e-01,1.000000000000000048e-04,4.204520308270634388e+01,2.000000000000000111e-01
-2.998301261179586064e+00,-5.567642400000000213e-01,2.903202462545411144e-01,1.000000000000000048e-04,4.116080148979602171e+01,1.799999999999999933e-01
2.915910107000000195e+00,-9.248875840000000403e-01,5.050636379374078277e-01,1.000000000000000048e-04,4.206465141790181406e+01,2.999999999999999889e-01
2.904218159000000021e+00,-9.279150130000000107e-01,3.136635396310794022e-01,1.000000000000000048e-04,4.127144527215772740e+01,2.399999999999999911e-01
2.945746643000000109e+00,-9.241091030000000428e-01,1.241645614010776555e+00,1.000000000000000048e-04,4.441860838662829991e+01,2.300000000000000100e-01
2.195221751000000054e+00,9.567984520000000215e-01,6.744971674987927379e-01,1.000000000000000048e-04,4.321841433002073529e+01,2.200000000000000011e-01
-2.382074272179586227e+00,-9.504311730000000180e-01,3.692832068899774001e-01,1.000000000000000048e-04,4.126835706352718347e+01,2.300000000000000100e-01
2.197803225999999999e+00,9.560313849999999558e-01,7.817446151675750965e-01,1.000000000000000048e-04,4.321574665373482560e+01,2.300000000000000100e-01
-2.380846050179586282e+00,-9.512843520000000552e-01,3.725791080440221670e-01,1.000000000000000048e-04,4.158203853089684543e+01,2.600000000000000089e-01
-2.382960995179586039e+00,-9.501026420000000527e-01,2.158222789376691431e-01,1.000000000000000048e-04,3.982490534882101940e+01,2.099999999999999922e-01
2.192165822000000208e+00,9.554729659999999791e-01,7.038849940137872352e-01,1.000000000000000048e-04,4.329189827158484150e+01,2.899999999999999800e-01
-2.383512939179586176e+00,-9.505219620000000535e-01,9.666223822241830632e-01,1.000000000000000048e-04,4.432409685795211374e+01,2.000000000000000111e-01
2.197044292000000176e+00,9.582492320000000063e-01,2.358480709768056016e-01,1.000000000000000048e-04,4.064011384632150481e+01,2.500000000000000000e-01
2.198013217999999824e+00,9.570721989999999568e-01,5.565084063081422450e-01,1.000000000000000048e-04,4.239933986935597687e+01,2.099999999999999922e-01
2.198391541999999976e+00,9.561199929999999458e-01,6.601122575268867365e-01,1.000000000000000048e-04,4.263548139619387456e+01,2.300000000000000100e-01
2.199218732999999926e+00,9.570277640000000030e-01,2.194555234488186901e-01,1.000000000000000048e-04,4.007309996325017920e+01,2.200000000000000011e-01
2.196667974999999995e+00,9.569524729999999701e-01,2.443424163020924134e-01,1.000000000000000048e-04,4.083131763229932432e+01,2.399999999999999911e-01
2.196400267000000017e+00,9.571105250000000453e-01,4.868231191566898541e-01,1.000000000000000048e-04,4.202257912747694490e+01,2.500000000000000000e-01
2.195980999000000100e+00,9.563170869999999546e-01,1.218619569048417617e+00,1.000000000000000048e-04,4.456728124686088677e+01,2.200000000000000011e-01
2.198886345000000020e+00,9.574225640000000315e-01,3.155631973584003269e-01,1.000000000000000048e-04,4.122025043863911975e+01,3.300000000000000155e-01
-2.382942164179586264e+00,-9.487821469999999646e-01,5.111092024082393159e-01,1.000000000000000048e-04,4.223374967158501647e+01,2.000000000000000111e-01
2.197058621000000045e+00,9.568337070000000333e-01,4.786611140557077704e-01,1.000000000000000048e-04,4.192900098202905923e+01,2.600000000000000089e-01
2.196754174000000059e+00,9.569828230000000380e-01,1.457928824691261394e-01,1.000000000000000048e-04,3.926901059568846364e+01,2.399999999999999911e-01
-2.381905888179586039e+00,-9.494029419999999719e-01,2.286345740727917519e-01,1.000000000000000048e-04,4.004394435855350309e+01,2.399999999999999911e-01
-2.382353656179586388e+00,-9.501919130000000546e-01,2.750800633472030299e-01,1.000000000000000048e-04,4.117772130076626524e+01,2.600000000000000089e-01
-2.385313647179586383e+00,-9.492824659999999914e-01,3.092680547246970946e-01,1.000000000000000048e-04,4.095599046097655105e+01,2.399999999999999911e-01
-2.383308463179586223e+00,-9.502672559999999491e-01,2.262547895435274015e-01,1.000000000000000048e-04,4.027485832584837766e+01,2.000000000000000111e-01
2.194446376000000143e+00,9.548028840000000184e-01,6.864966581026865633e-01,1.000000000000000048e-04,4.343380902846882918e+01,3.699999999999999956e-01
-2.377678389179586294e+00,-9.493284189999999789e-01,1.236773610493009379e-01,1.000000000000000048e-04,3.879919863053961393e+01,3.099999999999999978e-01
2.195048706000000127e+00,9.553664520000000326e-01,2.847631333466360548e-01,1.000000000000000048e-04,4.023137388945407622e+01,2.399999999999999911e-01
2.194988459000000169e+00,9.569281090000000267e-01,2.627833141051079124e-01,1.000000000000000048e-04,4.046817405857626682e+01,2.099999999999999922e-01
2.198773670000000013e+00,9.585742720000000050e-01,3.545258685720376057e-01,1.000000000000000048e-04,4.109844919434551969e+01,2.800000000000000266e-01
2.196007632000000154e+00,9.574002940000000406e-01,2.052528423792312484e-01,1.000000000000000048e-04,4.007714530651749385e+01,2.800000000000000266e-01
2.193610842000000005e+00,9.569156829999999614e-01,6.057889145111330365e-01,1.000000000000000048e-04,4.266436004071493926e+01,2.099999999999999922e-01
2.194846306000000080e+00,9.574700699999999509e-01,2.251043978715807636e-01,1.000000000000000048e-04,4.036255923425224523e+01,2.300000000000000100e-01
-2.901318991795864832e-01,1.086903570000000041e+00,8.798291226084238303e-01,1.000000000000000048e-04,4.377789917036540857e+01,2.000000000000000111e-01
-2.914486071795865385e-01,1.085909494999999891e+00,2.521811442389361169e-01,1.000000000000000048e-04,4.054651087244092622e+01,1.000000000000000056e-01
-2.954610881795858290e-01,1.084462065999999947e+00,6.451107079965221480e-01,1.000000000000000048e-04,4.279547595555354178e+01,1.199999999999999956e-01
-3.403197011795864313e-01,1.090760651000000081e+00,1.845520299507630302e-01,1.000000000000000048e-04,3.959238557758722266e+01,8.999999999999999667e-02
-3.429455761795860980e-01,1.087892671000000089e+00,6.225238236370862488e-01,1.000000000000000048e-04,4.294180442524053376e+01,1.400000000000000133e-01
6.896152909999999636e-01,-9.249195220000000495e-01,1.325217161989440395e-01,1.000000000000000048e-04,3.851809491601014201e+01,2.000000000000000111e-01
1.024453132999999960e+00,1.182715689999999986e+00,5.161951898311993858e-01,1.000000000000000048e-04,4.218322424357681655e+01,1.900000000000000022e-01
1.006083177000000051e+00,1.165244638999999971e+00,5.656437670250822336e-01,1.000000000000000048e-04,4.244326494021730412e+01,1.700000000000000122e-01
9.905969959999999519e-01,1.153001898999999941e+00,3.426729725743826727e-01,1.000000000000000048e-04,4.119952222491305349e+01,3.499999999999999778e-01
2.950804928999999799e+00,-1.010655210999999998e+00,1.191101612110474495e-01,1.000000000000000048e-04,3.898817255029570816e+01,1.700000000000000122e-01
2.951637304000000128e+00,-1.010683065999999908e+00,3.298258529139248552e-01,1.000000000000000048e-04,4.134720538694237746e+01,1.900000000000000022e-01
-2.349248843179586377e+00,-9.322901449999999590e-01,1.546060740526431498e-01,1.000000000000000048e-04,3.942886317976920196e+01,1.900000000000000022e-01
