-1.598279621179586663e+00,2.779993629999999993e-01,2.769068088814583550e-01,1.000000000000000048e-04,4.107208394441678934e+01,1.700000000000000122e-01
-8.306753881795865269e-01,5.048130450000000158e-01,8.134976473903736682e-01,1.000000000000000048e-04,4.365513847569192762e+01,1.600000000000000033e-01
-1.512887194179586281e+00,3.571169940000000209e-01,3.120244990793892281e-01,1.000000000000000048e-04,4.109147259269262520e+01,1.600000000000000033e-01
-2.094054222179586588e+00,-9.657747650000000350e-01,1.387829716201740560e-01,1.000000000000000048e-04,3.902224858437978838e+01,1.600000000000000033e-01
-1.256550916179586252e+00,-1.037146153999999987e+00,3.964324339735809666e-01,1.000000000000000048e-04,4.139898363905881240e+01,1.900000000000000022e-01
-2.638489419179586015e+00,-8.917870300000000361e-01,2.285762608607062596e-01,1.000000000000000048e-04,4.026781736448437954e+01,1.600000000000000033e-01
3.095686500000000008e-02,-1.139960520999999893e+00,8.459447844941820893e-01,1.000000000000000048e-04,4.378858626876156279e+01,1.700000000000000122e-01
-4.765590681795863759e-01,-7.328014390000000544e-01,4.175244188940223644e-01,1.000000000000000048e-04,4.190852268491996568e+01,1.600000000000000033e-01
7.532392530000000530e-01,9.936355940000000109e-01,3.732301264441684197e-01,1.000000000000000048e-04,4.147188783756266872e+01,1.600000000000000033e-01
1.355624495999999901e+00,4.654212710000000253e-01,7.938006079625001821e-01,1.000000000000000048e-04,4.361231405457118626e+01,2.200000000000000011e-01
-2.027672372179586624e+00,-3.494576850000000179e-01,7.466035322790667283e-01,1.000000000000000048e-04,4.345867026467873018e+01,8.999999999999999667e-02
-2.243457714179585949e+00,5.735296930000000071e-01,1.242943886845513379e-01,1.000000000000000048e-04,3.888760102109985439e+01,8.000000000000000167e-02
-1.661352162179586145e+00,7.473004210000000480e-01,5.705341125914649147e-01,1.000000000000000048e-04,4.262950637119829622e+01,1.100000000000000006e-01
-1.046494641179585905e+00,9.839422859999999993e-01,3.662466156186623412e-01,1.000000000000000048e-04,4.144897132583758292e+01,1.600000000000000033e-01
-1.357076630179586019e+00,8.591991679999999576e-01,1.139982383339934735e+00,1.000000000000000048e-04,4.434994164689488372e+01,1.300000000000000044e-01
-1.489161381179585852e+00,8.733460579999999807e-01,5.598005411608912851e-01,1.000000000000000048e-04,4.251676175322441509e+01,8.999999999999999667e-02
2.602874990000000111e+00,9.865781270000000269e-01,5.523332412831765126e-01,1.000000000000000048e-04,4.230170822502938677e+01,2.099999999999999922e-01
2.011122450999999867e+00,-1.257182417000000108e+00,3.721924443119233317e-01,1.000000000000000048e-04,4.155777281458792061e+01,1.799999999999999933e-01
2.487812089999999809e+00,-1.095252646999999913e+00,5.596600057715139798e-01,1.000000000000000048e-04,4.246730411256900339e+01,1.600000000000000033e-01
-2.060955814179585843e+00,9.020563839999999889e-01,4.232105817139280024e-01,1.000000000000000048e-04,4.188924639229458080e+01,1.799999999999999933e-01
-1.552222439179586466e+00,1.270289940999999923e+00,6.410852709473289224e-01,1.000000000000000048e-04,4.283563977472584128e+01,1.600000000000000033e-01
-3.584264691795864266e-01,1.112498557000000110e+00,5.258695680153180341e-01,1.000000000000000048e-04,4.220451097863255541e+01,2.000000000000000111e-01
1.187793541000000008e+00,1.533334508000000040e+00,8.819405765334940028e-01,1.000000000000000048e-04,4.372671781629114918e+01,1.700000000000000122e-01
9.029304540000000490e-01,-5.888661819999999603e-01,2.502661012849021205e-01,1.000000000000000048e-04,4.059410420200354253e+01,1.700000000000000122e-01
2.675488564000000125e+00,-1.029758079000000048e+00,7.692191576310134504e-01,1.000000000000000048e-04,4.371211703011157823e+01,1.700000000000000122e-01
9.979371630000000160e-01,-7.076351440000000492e-01,4.305289677060275544e-01,1.000000000000000048e-04,4.182591618473959727e+01,2.000000000000000111e-01
-2.809922836179586270e+00,-1.219770695000000016e+00,5.272068644495591094e-01,1.000000000000000048e-04,4.237711879392045233e+01,1.900000000000000022e-01
1.945616433999999950e+00,5.533621010000000506e-01,4.295362435083878161e-01,1.000000000000000048e-04,4.165129258274418333e+01,1.700000000000000122e-01
1.369802210000000131e-01,9.686457469999999459e-01,9.556260353097001392e-01,1.000000000000000048e-04,4.404432694102908386e+01,1.000000000000000056e-01
2.377785852000000144e+00,-1.071983155000000076e+00,7.964728827955296353e-01,1.000000000000000048e-04,4.363471233656826342e+01,1.000000000000000056e-01
1.194530383000000029e+00,-8.514353350000000153e-01,1.099392261775811619e+00,1.000000000000000048e-04,4.444852629107872843e+01,1.100000000000000006e-01
2.328991532999999947e+00,-1.085498080000000032e+00,8.526933044245255111e-01,1.000000000000000048e-04,4.364868640511957665e+01,1.199999999999999956e-01
3.099662444999999877e+00,-8.173274409999999879e-01,5.054956542236443973e-01,1.000000000000000048e-04,4.224509298163849991e+01,1.300000000000000044e-01
1.008677688999999988e+00,-7.224949280000000362e-01,4.871368768872144095e-01,1.000000000000000048e-04,4.248238587866777038e+01,1.199999999999999956e-01
1.116317643999999998e+00,-8.188746820000000204e-01,4.979684882227060072e-01,1.000000000000000048e-04,4.210614784536544875e+01,1.499999999999999944e-01
1.368634144999999913e+00,-9.746537960000000167e-01,2.388295743245483216e-01,1.000000000000000048e-04,4.045362032903480554e+01,2.200000000000000011e-01
2.840707745000000006e+00,-9.874777999999999611e-01,1.781709680018166431e-01,1.000000000000000048e-04,3.978482797931835790e+01,1.199999999999999956e-01
1.164831654000000105e+00,-8.361433499999999519e-01,7.781419962730451445e-01,1.000000000000000048e-04,4.350459442420712008e+01,1.600000000000000033e-01
9.274529849999999520e-01,-5.648102149999999488e-01,1.311774720353127144e-01,1.000000000000000048e-04,3.903789841697975049e+01,2.200000000000000011e-01
1.803806121999999901e+00,-1.051757271000000049e+00,5.731465059418250352e-01,1.000000000000000048e-04,4.278886649010929943e+01,2.200000000000000011e-01
1.910407339000000038e+00,-1.096340147000000043e+00,9.554069709284176426e-01,1.000000000000000048e-04,4.414075265349993771e+01,1.300000000000000044e-01
-2.994395329179586174e+00,-6.874333790000000111e-01,2.724326090000643852e-01,1.000000000000000048e-04,4.076561710706373276e+01,1.600000000000000033e-01
2.004169926999999962e+00,-1.114377941999999955e+00,4.958926522930049430e-01,1.000000000000000048e-04,4.210145418093567571e+01,2.099999999999999922e-01
2.993884073999999895e+00,-9.067153500000000310e-01,2.857160162272167625e-01,1.000000000000000048e-04,4.041961318352704779e+01,2.000000000000000111e-01
2.896584697999999847e+00,-6.981149509999999836e-01,5.074758239446008901e-01,1.000000000000000048e-04,4.249524421064027280e+01,2.000000000000000111e-01
2.644964143999999795e+00,-1.038456438999999953e+00,3.635095457138097785e-01,1.000000000000000048e-04,4.136885141411215727e+01,2.500000000000000000e-01
1.395029569000000080e+00,-9.673563530000000021e-01,4.869189471505821487e-01,1.000000000000000048e-04,4.274649866299402845e+01,2.200000000000000011e-01
1.133893306999999906e+00,-8.234022290000000410e-01,8.019276867728248881e-01,1.000000000000000048e-04,4.366348878596576810e+01,1.199999999999999956e-01
9.542908199999999841e-01,-6.210129070000000029e-01,3.321708151258282449e-01,1.000000000000000048e-04,4.132728000399099955e+01,1.400000000000000133e-01
1.112357503999999997e+00,-7.717409769999999947e-01,7.771369477168921236e-01,1.000000000000000048e-04,4.360381589086995291e+01,1.400000000000000133e-01
1.392129267000000059e+00,-9.489503049999999940e-01,2.244427912911646228e-01,1.000000000000000048e-04,4.015749091336422794e+01,1.100000000000000006e-01
3.104633763999999907e+00,-8.563587980000000321e-01,1.301808192240738737e+00,1.000000000000000048e-04,4.469480257059464634e+01,1.199999999999999956e-01
-1.581672989179586430e+00,-6.726275419999999672e-01,4.865935057133494723e-01,1.000000000000000048e-04,4.182168945283608963e+01,2.000000000000000111e-01
8.758714749999999549e-01,-5.394949780000000139e-01,9.313486295743875765e-01,1.000000000000000048e-04,4.382088863426160685e+01,1.199999999999999956e-01
1.027821937999999991e+00,-6.897361509999999640e-01,6.245151235693144898e-01,1.000000000000000048e-04,4.288678741454308607e+01,1.499999999999999944e-01
8.011105990000000343e-01,-4.568120419999999737e-01,7.393281631261208187e-01,1.000000000000000048e-04,4.320891081622136198e+01,1.499999999999999944e-01
8.044453879999999835e-01,-4.591503659999999765e-01,5.188912374947691752e-01,1.000000000000000048e-04,4.247399919198285545e+01,1.100000000000000006e-01
8.290542589999999601e-01,-4.498624509999999965e-01,8.839004212207435263e-01,1.000000000000000048e-04,4.392879785646090340e+01,1.199999999999999956e-01
2.306908324000000121e+00,-1.093655438999999951e+00,2.129640590110153386e-01,1.000000000000000048e-04,4.016830888383772447e+01,1.300000000000000044e-01
-3.090495873179586184e+00,-7.974218849999999970e-01,3.893558732373043618e-01,1.000000000000000048e-04,4.183088115867671775e+01,1.300000000000000044e-01
2.850739061000000074e+00,-9.724982730000000242e-01,1.334161399232097978e+00,1.000000000000000048e-04,4.489622776689309092e+01,1.100000000000000006e-01
1.925211972000000049e+00,-1.067349442999999898e+00,1.422272720884012465e-01,1.000000000000000048e-04,3.919909305663688315e+01,1.600000000000000033e-01
3.010706126000000094e+00,-9.149326070000000088e-01,2.834314245817912692e-01,1.000000000000000048e-04,4.102200625272661227e+01,1.199999999999999956e-01
1.754869720000000077e+00,-1.052947148999999971e+00,5.665654194965958901e-01,1.000000000000000048e-04,4.254995817224072852e+01,1.300000000000000044e-01
3.028086770999999899e+00,-8.725603690000000023e-01,1.719904270011114455e-01,1.000000000000000048e-04,3.955025183544182710e+01,1.199999999999999956e-01
2.780301081000000174e+00,-1.010780400000000023e+00,8.307679672391283798e-01,1.000000000000000048e-04,4.363955828013316562e+01,1.700000000000000122e-01
3.096540631999999960e+00,-8.261897350000000362e-01,7.200914463760930140e-01,1.000000000000000048e-04,4.318662119387212783e+01,1.100000000000000006e-01
-3.043596368179586342e+00,-7.656326449999999451e-01,5.122554609741043485e-01,1.000000000000000048e-04,4.230372288712503348e+01,1.100000000000000006e-01
2.593403560000000052e+00,-1.068240442000000012e+00,7.867817222849031733e-01,1.000000000000000048e-04,4.359130101288616288e+01,1.199999999999999956e-01
1.277663320999999907e+00,-8.910532270000000032e-01,1.322546617583564288e-01,1.000000000000000048e-04,3.937232853013166078e+01,1.499999999999999944e-01
8.729576639999999665e-01,-5.017517409999999733e-01,3.445060007439626482e-01,1.000000000000000048e-04,4.134854548532892693e+01,1.199999999999999956e-01
2.323316692000000128e+00,-1.072994334000000105e+00,3.909265746588543866e-01,1.000000000000000048e-04,4.165622749219352272e+01,1.400000000000000133e-01
-3.012222731179586166e+00,-7.219820959999999621e-01,1.463358470539815048e-01,1.000000000000000048e-04,3.909780128599163618e+01,1.199999999999999956e-01
2.306010604999999991e+00,-1.110345181000000014e+00,1.486007379340221757e-01,1.000000000000000048e-04,3.927870991480673979e+01,1.100000000000000006e-01
2.437557496999999795e+00,-1.097151527000000071e+00,7.377945313876388411e-01,1.000000000000000048e-04,4.324890891070553778e+01,1.100000000000000006e-01
1.098420291999999909e+00,-7.444727049999999569e-01,1.220817440288926026e-01,1.000000000000000048e-04,3.863789299631068985e+01,1.300000000000000044e-01
8.241628739999999897e-01,-4.611620249999999754e-01,1.224327570777172802e-01,1.000000000000000048e-04,3.892844544824193065e+01,1.400000000000000133e-01
1.017317494999999905e+00,-7.027905669999999771e-01,2.065101765780266163e-01,1.000000000000000048e-04,4.012982530525995628e+01,1.199999999999999956e-01
2.728679550999999925e+00,-1.007430967999999982e+00,2.474103852169404760e-01,1.000000000000000048e-04,4.053647981402242806e+01,1.100000000000000006e-01
2.848837458999999850e+00,-9.622339979999999793e-01,1.515026242090122821e-01,1.000000000000000048e-04,3.936450715288960112e+01,1.199999999999999956e-01
-3.065525731179586266e+00,-7.207210450000000046e-01,2.556710037487741616e-01,1.000000000000000048e-04,4.032337404787803337e+01,1.199999999999999956e-01
1.103969978000000074e+00,-7.587182380000000448e-01,3.663273667924000776e-01,1.000000000000000048e-04,4.140071855674634804e+01,1.300000000000000044e-01
1.112034854000000017e+00,-7.675460100000000008e-01,1.944156544702231315e-01,1.000000000000000048e-04,3.994391667103924703e+01,1.199999999999999956e-01
2.373162053000000160e+00,-1.072487750000000073e+00,2.300885504209746468e-01,1.000000000000000048e-04,4.033952104190277765e+01,1.100000000000000006e-01
2.221583438000000132e+00,-1.096064289000000080e+00,9.683599831047553508e-01,1.000000000000000048e-04,4.403148809194215119e+01,1.199999999999999956e-01
2.775251189000000007e+00,-1.013244017000000108e+00,2.211279255410689704e-01,1.000000000000000048e-04,4.026594444260112482e+01,1.700000000000000122e-01
1.527128894000000070e+00,-9.963611940000000056e-01,6.428919518564981672e-01,1.000000000000000048e-04,4.306829352900693664e+01,1.400000000000000133e-01
-1.936135624179586401e+00,1.327891944000000102e+00,1.369650198925773665e-01,1.000000000000000048e-04,3.915304436834634316e+01,1.199999999999999956e-01
2.120951332999999828e+00,-1.112975437000000012e+00,5.367471777177006409e-01,1.000000000000000048e-04,4.232130523205029249e+01,1.600000000000000033e-01
2.950704906999999988e+00,-9.277153000000000205e-01,1.919172652658107658e-01,1.000000000000000048e-04,3.999204632991335728e+01,1.700000000000000122e-01
2.461302839000000020e+00,-1.064109841000000056e+00,6.504050715413334238e-01,1.000000000000000048e-04,4.300991052108955159e+01,1.499999999999999944e-01
1.687800213000000049e+00,-1.037844004000000098e+00,3.080841435659720240e-01,1.000000000000000048e-04,4.097377310490671931e+01,1.100000000000000006e-01
-3.069023128179586113e+00,-7.343218900000000327e-01,1.045808213092549455e+00,1.000000000000000048e-04,4.414426894256288847e+01,2.000000000000000111e-01
7.655655390000000171e-01,-3.825025819999999799e-01,1.244048337727025277e+00,1.000000000000000048e-04,4.467537019735725323e+01,1.300000000000000044e-01
-3.051736326179586012e+00,-7.690870560000000467e-01,6.857933182240392167e-01,1.000000000000000048e-04,4.307482193217084188e+01,1.499999999999999944e-01
-3.116938176179586240e+00,-7.920766919999999711e-01,1.251133757224504706e+00,1.000000000000000048e-04,4.476855585653825642e+01,1.100000000000000006e-01
1.020863690000000101e+00,-6.877910739999999468e-01,5.324962078756949602e-01,1.000000000000000048e-04,4.270112021917815071e+01,1.199999999999999956e-01
1.792785233999999894e+00,-1.066474936999999956e+00,2.120631588410490931e-01,1.000000000000000048e-04,3.998787498087503423e+01,1.100000000000000006e-01
1.805689748000000039e+00,-1.066896787999999985e+00,2.156070443634034994e-01,1.000000000000000048e-04,4.027820569975403231e+01,1.100000000000000006e-01
1.773248071000000037e+00,-1.046601056999999946e+00,1.993147671931967402e-01,1.000000000000000048e-04,4.005831960780795242e+01,2.099999999999999922e-01
1.076689889999999927e+00,-7.549444410000000216e-01,9.742411405661639545e-01,1.000000000000000048e-04,4.392853710202591344e+01,1.199999999999999956e-01
2.336456505000000128e+00,-1.089906792000000069e+00,9.574880285492362031e-01,1.000000000000000048e-04,4.405614090318913867e+01,1.199999999999999956e-01
2.522083900000000156e+00,-1.078852812999999911e+00,3.663267778835486155e-01,1.000000000000000048e-04,4.159608723793508744e+01,1.199999999999999956e-01
3.676074389999999803e-01,1.100614297999999991e+00,3.344192325462937987e-01,1.000000000000000048e-04,4.118429672744323256e+01,1.700000000000000122e-01
2.099931574000000190e+00,-1.082223048999999993e+00,3.300728787153459631e-01,1.000000000000000048e-04,4.122231902739230236e+01,1.100000000000000006e-01
8.155488279999999479e-01,-4.642700679999999802e-01,2.059115470670085379e-01,1.000000000000000048e-04,4.021267935835845719e+01,2.099999999999999922e-01
9.861636230000000447e-01,-6.881834650000000497e-01,7.454543553768544495e-01,1.000000000000000048e-04,4.343409401736535358e+01,1.300000000000000044e-01
1.864254864999999928e+00,-1.086684659999999969e+00,2.768919028192606824e-01,1.000000000000000048e-04,4.069238969604725042e+01,1.199999999999999956e-01
2.873066016000000111e+00,-9.753574739999999466e-01,1.564639512465400006e-01,1.000000000000000048e-04,3.924190081647414274e+01,1.300000000000000044e-01
2.270287562000000037e+00,-1.085086717999999895e+00,4.756742408752074880e-01,1.000000000000000048e-04,4.245895719821007219e+01,1.799999999999999933e-01
8.268071609999999572e-01,-4.587794940000000099e-01,3.112947454239725076e-01,1.000000000000000048e-04,4.115311039194375553e+01,1.199999999999999956e-01
-3.050869045179586347e+00,-7.648855789999999821e-01,6.843510316064485011e-01,1.000000000000000048e-04,4.329711391916686836e+01,1.199999999999999956e-01
1.101963728999999947e+00,-7.466317359999999903e-01,2.494964799873498063e-01,1.000000000000000048e-04,4.051683872021003197e+01,1.900000000000000022e-01
1.745116724000000064e+00,-1.056563783000000090e+00,3.006585760393394313e-01,1.000000000000000048e-04,4.085331472810192111e+01,1.300000000000000044e-01
7.889769570000000343e-01,-3.846565690000000037e-01,3.124224928391226008e-01,1.000000000000000048e-04,4.080462209675489049e+01,1.499999999999999944e-01
1.385818830999999918e+00,-9.278259679999999454e-01,1.868479127486133429e-01,1.000000000000000048e-04,4.006091854611298686e+01,1.499999999999999944e-01
1.138484923000000038e+00,-8.197145099999999518e-01,4.244925699306871802e-01,1.000000000000000048e-04,4.183193223265941896e+01,1.400000000000000133e-01
1.783410439000000069e+00,-1.080958507999999929e+00,3.699647424702385834e-01,1.000000000000000048e-04,4.163623782325073819e+01,1.400000000000000133e-01
2.617653461000000181e+00,-1.025884226000000066e+00,4.915916915872640125e-01,1.000000000000000048e-04,4.231542369023291172e+01,1.199999999999999956e-01
8.270197009999999960e-01,-4.157453939999999903e-01,2.987892363235591375e-01,1.000000000000000048e-04,4.087297229172894930e+01,1.199999999999999956e-01
3.128792493000000174e+00,-8.522697870000000009e-01,6.964413141705962929e-01,1.000000000000000048e-04,4.334538081408955179e+01,1.100000000000000006e-01
1.366158207000000013e+00,-9.614226009999999878e-01,1.884667537285942274e-01,1.000000000000000048e-04,3.993915575569040755e+01,1.100000000000000006e-01
2.846286316000000038e+00,-9.688357899999999745e-01,2.472742706531469992e-01,1.000000000000000048e-04,4.038369384727737099e+01,1.400000000000000133e-01
9.208216280000000031e-01,-6.185352929999999860e-01,3.271302093610144457e-01,1.000000000000000048e-04,4.134335046496381949e+01,1.499999999999999944e-01
7.622987450000000553e-01,-3.411912120000000215e-01,3.559548674868497908e-01,1.000000000000000048e-04,4.137717679292696005e+01,1.199999999999999956e-01
9.277931750000000255e-01,-5.813990460000000304e-01,6.446017866676014840e-01,1.000000000000000048e-04,4.298301510740982678e+01,2.099999999999999922e-01
1.010173165000000095e+00,-6.808591280000000356e-01,2.215195964116836169e-01,1.000000000000000048e-04,4.040964930403853828e+01,1.300000000000000044e-01
1.661181446000000062e+00,-1.029160687999999935e+00,1.861808396178223912e-01,1.000000000000000048e-04,3.954457767981860883e+01,1.400000000000000133e-01
2.089878704000000198e+00,-1.077863170999999953e+00,6.491373597022804809e-01,1.000000000000000048e-04,4.294880104490653849e+01,1.199999999999999956e-01
9.321550429999999610e-01,-6.212176799999999943e-01,5.799865548489318012e-01,1.000000000000000048e-04,4.272214921780136621e+01,1.199999999999999956e-01
2.944595597000000176e+00,-9.127602249999999806e-01,5.228737473892657306e-01,1.000000000000000048e-04,4.246596782045900653e+01,1.100000000000000006e-01
1.288081913999999939e+00,-9.113959929999999598e-01,3.338066161292627676e-01,1.000000000000000048e-04,4.145018340757798114e+01,1.300000000000000044e-01
1.398731861999999992e+00,-9.625033109999999725e-01,7.510820949337699837e-01,1.000000000000000048e-04,4.360102450774212457e+01,1.199999999999999956e-01
1.714165549000000066e+00,-1.043104095999999981e+00,9.238162222256809386e-01,1.000000000000000048e-04,4.377731329606963584e+01,1.199999999999999956e-01
1.014018395999999989e+00,-6.788913789999999615e-01,2.678319353846378981e-01,1.000000000000000048e-04,4.064862422701929745e+01,1.300000000000000044e-01
8.887761809999999985e-01,-5.541821719999999729e-01,1.329577957952990275e+00,1.000000000000000048e-04,4.488070971692736322e+01,1.300000000000000044e-01
1.026278256999999972e+00,-6.961882160000000264e-01,3.080713670260324388e-01,1.000000000000000048e-04,4.085859224766279141e+01,1.199999999999999956e-01
1.824970581999999952e+00,-1.080428363000000003e+00,1.209312050856217180e-01,1.000000000000000048e-04,3.865233958345451981e+01,1.199999999999999956e-01
1.839979185000000017e+00,-1.082878103999999952e+00,8.327588377932815256e-01,1.000000000000000048e-04,4.338040130236782943e+01,1.300000000000000044e-01
-3.070118813179586237e+00,-7.641942569999999879e-01,6.551832834282875773e-01,1.000000000000000048e-04,4.309404114053340606e+01,1.199999999999999956e-01
2.250776613000000204e+00,-1.110438553999999911e+00,2.682057518303126997e-01,1.000000000000000048e-04,4.048282465373470984e+01,1.199999999999999956e-01
2.613802471000000072e+00,-1.066258922999999914e+00,3.583773238983392062e-01,1.000000000000000048e-04,4.147882657985398680e+01,1.199999999999999956e-01
8.050150120000000298e-01,-4.193234060000000096e-01,7.973363878981136743e-01,1.000000000000000048e-04,4.365562214611149017e+01,1.499999999999999944e-01
2.809576177999999924e+00,-9.952447749999999704e-01,2.630319992577074828e-01,1.000000000000000048e-04,4.048796963269830940e+01,1.199999999999999956e-01
8.523447290000000232e-01,-4.773689010000000121e-01,7.011826797019811153e-01,1.000000000000000048e-04,4.307881625765023159e+01,2.000000000000000111e-01
2.975142320999999868e+00,-8.986192680000000266e-01,6.367336218551244986e-01,1.000000000000000048e-04,4.288699477296717077e+01,2.000000000000000111e-01
2.960578484000000010e+00,-9.174235720000000205e-01,5.560665768202928128e-01,1.000000000000000048e-04,4.248604281095640545e+01,1.400000000000000133e-01
1.589239559999999996e+00,-1.046132274999999945e+00,1.785190472681554841e-01,1.000000000000000048e-04,3.983809589081361935e+01,1.199999999999999956e-01
1.095136271999999966e+00,-7.909478989999999543e-01,1.736527674013386147e-01,1.000000000000000048e-04,3.976904811044173016e+01,1.300000000000000044e-01
3.045277111999999953e+00,-8.831592660000000539e-01,4.633254076141053446e-01,1.000000000000000048e-04,4.174909270206465806e+01,1.799999999999999933e-01
3.011317304999999944e+00,-8.969173430000000335e-01,2.147644304612255084e-01,1.000000000000000048e-04,4.010172117635833189e+01,1.499999999999999944e-01
1.946036051000000100e+00,-1.101857058000000000e+00,4.029452497304046865e-01,1.000000000000000048e-04,4.165314564303402278e+01,1.100000000000000006e-01
9.659444579999999503e-01,-6.400164339999999674e-01,1.197719713124363317e-01,1.000000000000000048e-04,3.884440581871997722e+01,1.199999999999999956e-01
1.142944595999999979e+00,-8.229314749999999679e-01,7.880836951876597496e-01,1.000000000000000048e-04,4.344763474559410810e+01,1.499999999999999944e-01
1.336859599999999926e+00,-9.462661719999999610e-01,4.631471245655305324e-01,1.000000000000000048e-04,4.196669560112019326e+01,1.900000000000000022e-01
2.386695267999999981e+00,-1.099692616000000012e+00,2.022444465393813395e-01,1.000000000000000048e-04,3.995817778026426481e+01,1.799999999999999933e-01
1.122946417999999946e+00,-7.871106610000000448e-01,2.294153284138207294e-01,1.000000000000000048e-04,4.036125775888983469e+01,1.499999999999999944e-01
1.038511049000000019e+00,-6.836743480000000428e-01,4.330172836379697632e-01,1.000000000000000048e-04,4.195687688762087220e+01,1.499999999999999944e-01
-1.865548755179585960e+00,5.988235499999999822e-01,6.279804125326977626e-01,1.000000000000000048e-04,4.277580148961029494e+01,3.599999999999999867e-01
-1.208774007179585830e+00,1.086301519000000049e+00,2.151962151690043346e-01,1.000000000000000048e-04,3.945033082862928353e+01,3.900000000000000133e-01
-1.451351928179586359e+00,1.047303024999999943e+00,8.585670380300791660e-01,1.000000000000000048e-04,4.368133233816793393e+01,3.900000000000000133e-01
-1.863787002179586594e+00,5.986409590000000280e-01,8.883706096733279267e-01,1.000000000000000048e-04,4.340302249729587913e+01,3.099999999999999978e-01
-2.367107747179586053e+00,3.570653329999999848e-01,1.549157486486587576e-01,1.000000000000000048e-04,3.899203741686471147e+01,3.300000000000000155e-01
3.110012692999999828e+00,-8.816387980000000013e-01,3.916939529474758874e-01,1.000000000000000048e-04,4.173755786180287686e+01,4.000000000000000222e-01
1.208427087000000011e+00,6.391205479999999550e-01,6.169805565562826999e-01,1.000000000000000048e-04,4.273870392132914731e+01,3.200000000000000067e-01
2.195568135999999893e+00,9.530612539999999688e-01,4.835485913973900374e-01,1.000000000000000048e-04,4.209713288552331534e+01,3.200000000000000067e-01
-1.746303855179585973e+00,7.561700099999999480e-01,4.454320912911398089e-01,1.000000000000000048e-04,4.260783044432487543e+01,3.599999999999999867e-01
-2.613733020179586308e+00,3.020363409999999860e-01,3.852427780773575172e-01,1.000000000000000048e-04,4.175751403749207924e+01,2.399999999999999911e-01
3.080075141000000016e+00,6.813462000000000129e-01,3.508974717487347572e-01,1.000000000000000048e-04,4.179133572477616099e+01,2.999999999999999889e-01
3.084152930000000126e+00,6.750201959999999612e-01,2.661658228806311755e-01,1.000000000000000048e-04,4.051740471746614247e+01,2.399999999999999911e-01
-2.831540824179586302e+00,-5.193198470000000011e-01,3.691775215014350131e-01,1.000000000000000048e-04,4.149621973578165068e+01,2.899999999999999800e-01
2.921667255000000019e+00,-9.403574120000000036e-01,9.695666036410039990e-01,1.000000000000000048e-04,4.373741026229869533e+01,2.899999999999999800e-01
2.610543199999999953e+00,9.294079060000000059e-01,3.808734677111704769e-01,1.000000000000000048e-04,4.165225039883510760e+01,2.899999999999999800e-01
2.614058957000000127e+00,9.310355519999999885e-01,3.477478307790662360e-01,1.000000000000000048e-04,4.149907351058433136e+01,3.699999999999999956e-01
-2.614313936179586406e+00,3.105085300000000048e-01,1.322639820594098126e-01,1.000000000000000048e-04,3.879574813593474403e+01,2.300000000000000100e-01
-2.614275993179586255e+00,3.084493819999999942e-01,5.409065862797821644e-01,1.000000000000000048e-04,4.260263754747450093e+01,2.000000000000000111e-01
3.080236718000000096e+00,6.852664600000000217e-01,3.741319742249089586e-01,1.000000000000000048e-04,4.178238014908989584e+01,3.800000000000000044e-01
3.085135451000000195e+00,6.840520260000000352e-01,2.557937065998159287e-01,1.000000000000000048e-04,4.030241949248828348e+01,2.300000000000000100e-01
-2.829361723179586452e+00,-5.190188390000000096e-01,1.999747255017549907e-01,1.000000000000000048e-04,3.993666738926999216e+01,3.900000000000000133e-01
-2.833706243179586082e+00,-5.260186759999999628e-01,5.784547208140731200e-01,1.000000000000000048e-04,4.274031667854438155e+01,2.200000000000000011e-01
1.286414458000000094e+00,-9.076167339999999806e-01,1.186291382977560094e-01,1.000000000000000048e-04,3.923122644659159164e+01,2.399999999999999911e-01
2.295144749999999956e+00,-1.095028292000000070e+00,3.018022617788620465e-01,1.000000000000000048e-04,4.137638796404309005e+01,2.000000000000000111e-01
2.312115046000000174e+00,-1.091482969000000081e+00,1.424073449876350761e-01,1.000000000000000048e-04,3.921536079716393175e+01,1.900000000000000022e-01
2.535381049000000164e+00,-1.063602453999999975e+00,7.202893776251124702e-01,1.000000000000000048e-04,4.324438152609032926e+01,2.600000000000000089e-01
2.549902755000000187e+00,-1.059649137999999935e+00,1.324593914278029416e-01,1.000000000000000048e-04,3.899188327413119026e+01,1.900000000000000022e-01
-2.980466121795863899e-01,1.081935794000000062e+00,3.475602779682880339e-01,1.000000000000000048e-04,4.128686686924619664e+01,1.000000000000000056e-01
-4.562223411795862660e-01,1.078420874000000085e+00,1.686484691880181241e-01,1.000000000000000048e-04,3.936941387037033735e+01,1.400000000000000133e-01
-4.727696341795866175e-01,1.076427226000000070e+00,6.960174004845371964e-01,1.000000000000000048e-04,4.329812652044553545e+01,1.900000000000000022e-01
-4.909850281795860028e-01,1.086050390999999893e+00,1.255237907938409059e+00,1.000000000000000048e-04,4.450679354005394828e+01,1.499999999999999944e-01
-1.809890014179586615e+00,8.554848849999999727e-01,4.612666760717036851e-01,1.000000000000000048e-04,4.252059700648270280e+01,1.900000000000000022e-01
-1.804843805179586091e+00,8.509932909999999850e-01,2.169232624793440145e-01,1.000000000000000048e-04,3.997818387572769439e+01,1.700000000000000122e-01
-1.798315402179586187e+00,8.389159160000000393e-01,7.429969202076360801e-01,1.000000000000000048e-04,4.334035975429835474e+01,1.100000000000000006e-01
-1.820018681179586650e+00,8.404092629999999620e-01,4.933538077447401360e-01,1.000000000000000048e-04,4.223239074210884780e+01,2.000000000000000111e-01
-2.435936564179586039e+00,3.767214549999999829e-01,6.758144979900566618e-01,1.000000000000000048e-04,4.260559662502596723e+01,1.700000000000000122e-01
-2.738532057179586143e+00,-4.670391260000000266e-01,6.628182342681590011e-01,1.000000000000000048e-04,4.306917812307099069e+01,1.100000000000000006e-01
-2.750126147179586145e+00,-4.750163370000000107e-01,6.316558874605759932e-01,1.000000000000000048e-04,4.299436839225397478e+01,1.700000000000000122e-01
6.777063359999999648e-01,-9.284162910000000046e-01,2.597428101858207938e-01,1.000000000000000048e-04,4.083997557159812430e+01,1.600000000000000033e-01
6.755664329999999662e-01,-9.242990760000000527e-01,4.012160756718412546e-01,1.000000000000000048e-04,4.161399707556416416e+01,2.200000000000000011e-01
1.666277256000000095e+00,1.035703752000000089e+00,4.951621096914595732e-01,1.000000000000000048e-04,4.189780061602849059e+01,2.800000000000000266e-01
1.679531192000000006e+00,1.034147155999999956e+00,5.952757924693219405e-01,1.000000000000000048e-04,4.279922288256514662e+01,2.099999999999999922e-01
1.669961188000000041e+00,1.045784459000000055e+00,3.247399617964492613e-01,1.000000000000000048e-04,4.122295634664658337e+01,2.899999999999999800e-01
1.666612017000000057e+00,1.035903760999999923e+00,4.247006637440331467e-01,1.000000000000000048e-04,4.197481691280303551e+01,1.400000000000000133e-01
1.676630470000000095e+00,1.049302589999999924e+00,2.246051543726963473e-01,1.000000000000000048e-04,4.046465030635183524e+01,1.600000000000000033e-01
1.678871634000000057e+00,1.037439988999999896e+00,2.541311550352687298e-01,1.000000000000000048e-04,4.080651245887499812e+01,2.099999999999999922e-01
-2.159653925179585876e+00,7.341517600000000421e-01,5.074711734518819739e-01,1.000000000000000048e-04,4.230556358801214145e+01,2.600000000000000089e-01
-2.155609593179586447e+00,7.327229189999999726e-01,4.051055509284946510e-01,1.000000000000000048e-04,4.176097569849201108e+01,1.400000000000000133e-01
2.989279821999999864e+00,-1.014333855000000062e+00,7.986064189507753319e-01,1.000000000000000048e-04,4.331360768290279140e+01,1.600000000000000033e-01
6.962963009999999509e-01,-9.242906640000000396e-01,2.147092937679477842e-01,1.000000000000000048e-04,3.973909295015834431e+01,2.000000000000000111e-01
6.831622830000000368e-01,-9.295060950000000322e-01,2.031074666753216462e-01,1.000000000000000048e-04,4.021792613403522409e+01,2.099999999999999922e-01
6.813526220000000189e-01,-9.196739680000000083e-01,3.623721094337870596e-01,1.000000000000000048e-04,4.150916394325008696e+01,1.700000000000000122e-01
1.667475545999999920e+00,1.039138789999999979e+00,2.157627176006129410e-01,1.000000000000000048e-04,4.020097981836052980e+01,1.499999999999999944e-01
1.669072946000000002e+00,1.039627206000000026e+00,6.421581092030985705e-01,1.000000000000000048e-04,4.283812340553815545e+01,1.700000000000000122e-01
2.992464221000000091e+00,-1.009427984000000000e+00,1.938442329162739508e-01,1.000000000000000048e-04,3.980188431407778182e+01,1.400000000000000133e-01
3.013377762000000182e+00,-1.015725085999999999e+00,2.790795134038295267e-01,1.000000000000000048e-04,4.049865981273867988e+01,1.499999999999999944e-01
6.857830799999999893e-01,-9.290922369999999875e-01,2.237446330320467247e-01,1.000000000000000048e-04,4.004689509996788388e+01,3.400000000000000244e-01
6.874880420000000214e-01,-9.251381180000000093e-01,4.953296966789537681e-01,1.000000000000000048e-04,4.191472712543639290e+01,1.700000000000000122e-01
1.659686511000000086e+00,1.040101345999999927e+00,4.384255588333689779e-01,1.000000000000000048e-04,4.186545413289812956e+01,1.400000000000000133e-01
1.692629780999999944e+00,1.043637506000000048e+00,1.046928781452802770e+00,1.000000000000000048e-04,4.431903328520180452e+01,1.799999999999999933e-01
1.682450028999999958e+00,1.049226146999999942e+00,7.555631837315532895e-01,1.000000000000000048e-04,4.344960586787727408e+01,1.900000000000000022e-01
1.675255906999999933e+00,1.048468626000000015e+00,2.490379085503868772e-01,1.000000000000000048e-04,4.064384018538306975e+01,1.499999999999999944e-01
1.692145135000000078e+00,1.039981480000000014e+00,5.585155329301032534e-01,1.000000000000000048e-04,4.262915816404312608e+01,1.700000000000000122e-01
-2.139768073179586061e+00,7.360294179999999908e-01,7.951166416621422428e-01,1.000000000000000048e-04,4.379623688617076738e+01,1.600000000000000033e-01
-2.138731675179585956e+00,7.369836659999999817e-01,6.624960225450293727e-01,1.000000000000000048e-04,4.329801066613502769e+01,1.499999999999999944e-01
6.888283630000000546e-01,-9.193630990000000169e-01,1.229680621333921753e-01,1.000000000000000048e-04,3.866403253511884230e+01,1.700000000000000122e-01
6.776433490000000059e-01,-9.225326109999999469e-01,3.928016165463854570e-01,1.000000000000000048e-04,4.181076556153307422e+01,1.600000000000000033e-01
6.820513620000000499e-01,-9.162569579999999547e-01,7.737198524249244702e-01,1.000000000000000048e-04,4.332437346146758728e+01,2.899999999999999800e-01
6.832637360000000104e-01,-9.208365670000000502e-01,1.254633838508312671e+00,1.000000000000000048e-04,4.467655689307532896e+01,1.400000000000000133e-01
1.683256381999999940e+00,1.050427892999999946e+00,1.947832511552414214e-01,1.000000000000000048e-04,3.998433998228966146e+01,1.499999999999999944e-01
2.987248335999999949e+00,-1.011507587000000097e+00,1.450470593964194865e-01,1.000000000000000048e-04,3.886664509385965260e+01,1.900000000000000022e-01
2.994879214000000012e+00,-1.020537374999999969e+00,4.632920429522124905e-01,1.000000000000000048e-04,4.185605677557021664e+01,2.500000000000000000e-01
2.997056848999999801e+00,-1.020797841000000039e+00,4.145681833169356789e-01,1.000000000000000048e-04,4.187409642534539955e+01,1.499999999999999944e-01
6.981827720000000070e-01,-9.201470600000000166e-01,7.165801648085845521e-01,1.000000000000000048e-04,4.307869906780486957e+01,2.099999999999999922e-01
1.675679171999999939e+00,1.042232051000000048e+00,3.579070202798511069e-01,1.000000000000000048e-04,4.131262371581117065e+01,1.900000000000000022e-01
1.682732345000000018e+00,1.051774148000000020e+00,7.776210977064150764e-01,1.000000000000000048e-04,4.318344208804834494e+01,2.099999999999999922e-01
1.655763980999999996e+00,1.041789395999999979e+00,5.054336081464574360e-01,1.000000000000000048e-04,4.250199389638093805e+01,2.099999999999999922e-01
1.658505131999999938e+00,1.042043577999999915e+00,1.837896620598469255e-01,1.000000000000000048e-04,3.986472325394965566e+01,1.499999999999999944e-01
1.679931540999999973e+00,1.044700675999999939e+00,5.127197737939113154e-01,1.000000000000000048e-04,4.239372738649262828e+01,1.400000000000000133e-01
1.681131209999999987e+00,1.046558263000000100e+00,2.523834538659832649e-01,1.000000000000000048e-04,4.041522846236797761e+01,3.800000000000000044e-01
-2.147380102179586636e+00,7.248191320000000326e-01,5.392351052369162012e-01,1.000000000000000048e-04,4.257171629603850249e+01,2.200000000000000011e-01
-2.137481690179586558e+00,7.386978770000000027e-01,4.285176378371875483e-01,1.000000000000000048e-04,4.204894151026907423e+01,1.499999999999999944e-01
3.007533192999999994e+00,-1.006434849999999992e+00,1.651021134891363928e-01,1.000000000000000048e-04,3.950567337308780935e+01,1.700000000000000122e-01
6.766177190000000063e-01,-9.309161569999999664e-01,2.977944760267661195e-01,1.000000000000000048e-04,4.079988712465263490e+01,1.700000000000000122e-01
6.879719020000000240e-01,-9.170357009999999809e-01,1.421608515122816385e-01,1.000000000000000048e-04,3.939033760386453764e+01,2.600000000000000089e-01
6.868192690000000100e-01,-9.190749710000000183e-01,5.108835010607757354e-01,1.000000000000000048e-04,4.273432173217386065e+01,2.800000000000000266e-01
1.680927606000000019e+00,1.043199457999999913e+00,1.773605460740430573e-01,1.000000000000000048e-04,3.989111202061165073e+01,1.799999999999999933e-01
1.680733408999999901e+00,1.046110547000000057e+00,5.240018239796939703e-01,1.000000000000000048e-04,4.243127882197684642e+01,1.499999999999999944e-01
3.003205794999999956e+00,-1.007960921000000010e+00,3.790283575329702614e-01,1.000000000000000048e-04,4.151858787304971088e+01,2.200000000000000011e-01
3.013387552999999830e+00,-1.018013843000000085e+00,9.891095888432752670e-01,1.000000000000000048e-04,4.402860533852430081e+01,2.000000000000000111e-01
2.991633154000000072e+00,-1.018575491000000000e+00,3.469051701916718855e-01,1.000000000000000048e-04,4.133394473351864917e+01,1.600000000000000033e-01
6.810583510000000063e-01,-9.216344210000000370e-01,1.853066431672658609e-01,1.000000000000000048e-04,3.961464608483144190e+01,1.600000000000000033e-01
1.670069762000000013e+00,1.048284639000000018e+00,8.805312896353689744e-01,1.000000000000000048e-04,4.455091966109497292e+01,2.099999999999999922e-01
1.699713636000000028e+00,1.040243690999999915e+00,1.657437949052376069e-01,1.000000000000000048e-04,3.962263723241872526e+01,2.899999999999999800e-01
1.686195045999999920e+00,1.048540513999999924e+00,7.011552492230124223e-01,1.000000000000000048e-04,4.335276190013474462e+01,1.400000000000000133e-01
1.667162669999999958e+00,1.044746053999999980e+00,3.257330678008265590e-01,1.000000000000000048e-04,4.111851890650331853e+01,2.700000000000000178e-01
1.689467040999999892e+00,1.036330184999999959e+00,2.943844443171323988e-01,1.000000000000000048e-04,4.082880848460725787e+01,1.300000000000000044e-01
1.683799076999999977e+00,1.043385784000000038e+00,1.376052563816982932e-01,1.000000000000000048e-04,3.916714300259101122e+01,1.700000000000000122e-01
-2.151455832179586025e+00,7.398983139999999459e-01,7.845722273211639397e-01,1.000000000000000048e-04,4.363805871052529994e+01,2.500000000000000000e-01
-2.141944958179585967e+00,7.302793560000000461e-01,1.368775076908772537e-01,1.000000000000000048e-04,3.898932255681116033e+01,1.400000000000000133e-01
3.012489310999999947e+00,-1.019874449000000016e+00,4.721802627852160761e-01,1.000000000000000048e-04,4.202906071775893793e+01,1.900000000000000022e-01
6.824463880000000149e-01,-9.193269539999999740e-01,3.268820401463232717e-01,1.000000000000000048e-04,4.115458872041374150e+01,1.600000000000000033e-01
6.933168330000000212e-01,-9.307474239999999899e-01,4.979436547717466244e-01,1.000000000000000048e-04,4.239965510110798164e+01,1.600000000000000033e-01
7.005346909999999871e-01,-9.247541049999999929e-01,1.850597049699982399e-01,1.000000000000000048e-04,4.002053131065028424e+01,2.700000000000000178e-01
1.674988617999999985e+00,1.042237757999999959e+00,2.865481847027679940e-01,1.000000000000000048e-04,4.068817967130047464e+01,1.499999999999999944e-01
1.672026148000000045e+00,1.039374368000000048e+00,4.037017497544725941e-01,1.000000000000000048e-04,4.181699962832769302e+01,1.600000000000000033e-01
2.993618983999999816e+00,-1.008517228000000099e+00,4.982198338916683511e-01,1.000000000000000048e-04,4.238792140000283126e+01,1.700000000000000122e-01
2.992837709999999873e+00,-1.014889098000000045e+00,8.261809007248983594e-01,1.000000000000000048e-04,4.349917181524109111e+01,2.800000000000000266e-01
2.980621672999999916e+00,-1.012535224000000067e+00,1.061235708131464062e+00,1.000000000000000048e-04,4.437421624200695902e+01,1.499999999999999944e-01
3.118379398000000080e+00,-1.044341935000000055e+00,3.975197238456982252e-01,1.000000000000000048e-04,4.186675152776084730e+01,3.099999999999999978e-01
3.132904315000000217e+00,-1.046896950999999909e+00,7.017479893070914798e-01,1.000000000000000048e-04,4.281003679647042759e+01,2.200000000000000011e-01
1.248659997999999938e+00,-1.117162079000000086e+00,3.915457858994808582e-01,1.000000000000000048e-04,4.146267197705456908e+01,2.700000000000000178e-01
2.302446713000000145e+00,-1.091359299000000060e+00,7.748347457183766274e-01,1.000000000000000048e-04,4.306346470676406568e+01,2.899999999999999800e-01
3.133486173000000097e+00,-1.061461677999999909e+00,5.309178526617581717e-01,1.000000000000000048e-04,4.310631641019246985e+01,3.099999999999999978e-01
1.251013366000000016e+00,-1.102704651999999896e+00,8.093068332282156163e-01,1.000000000000000048e-04,4.342150384929650642e+01,2.300000000000000100e-01
1.232341668999999973e+00,-1.105349812000000043e+00,2.622004778529571922e-01,1.000000000000000048e-04,4.073205976675333773e+01,2.200000000000000011e-01
2.330538756999999794e+00,-1.086213730999999960e+00,3.704732198698070800e-01,1.000000000000000048e-04,4.138767077505936243e+01,2.300000000000000100e-01
3.104372880000000112e+00,-1.050765708999999992e+00,6.378335372134369408e-01,1.000000000000000048e-04,4.289306123014952732e+01,2.200000000000000011e-01
3.122794933000000217e+00,-1.050942575000000101e+00,2.973050775514050059e-01,1.000000000000000048e-04,4.120054614157145068e+01,2.099999999999999922e-01
3.135928428000000157e+00,-1.044986675000000087e+00,4.034733080453301035e-01,1.000000000000000048e-04,4.127152851385191923e+01,2.300000000000000100e-01
3.135701593999999925e+00,-1.049448040999999998e+00,2.222441959648406851e-01,1.000000000000000048e-04,4.036234062273420165e+01,2.399999999999999911e-01
2.902190216000000156e+00,-1.054666754000000095e+00,4.518586535801487614e-01,1.000000000000000048e-04,4.169633783598176535e+01,2.099999999999999922e-01
1.219278212000000083e+00,-1.102494101000000004e+00,3.927049320386488684e-01,1.000000000000000048e-04,4.142025471749844456e+01,2.399999999999999911e-01
2.314258420999999899e+00,-1.073777474999999981e+00,5.999839974661778097e-01,1.000000000000000048e-04,4.247772390381545193e+01,2.399999999999999911e-01
3.138600745000000192e+00,-1.056209613999999908e+00,7.430853900209957175e-01,1.000000000000000048e-04,4.381227471792745121e+01,2.800000000000000266e-01
2.873014373000000177e+00,-1.047336534999999902e+00,2.986076876833632099e-01,1.000000000000000048e-04,4.055997544204045369e+01,2.000000000000000111e-01
2.890150627000000139e+00,-1.045368942999999939e+00,3.841023332833515269e-01,1.000000000000000048e-04,4.185014928088725128e+01,2.200000000000000011e-01
-3.136513490179586139e+00,-1.038988312000000080e+00,4.324954179784197272e-01,1.000000000000000048e-04,4.200067170125895188e+01,2.800000000000000266e-01
3.120369102000000172e+00,-1.042910143999999928e+00,1.290505127748899916e-01,1.000000000000000048e-04,3.886266685512556052e+01,2.399999999999999911e-01
3.132773262000000170e+00,-1.048570620000000009e+00,3.726162923244975556e-01,1.000000000000000048e-04,4.131771569471759165e+01,2.300000000000000100e-01
3.132934141999999866e+00,-1.046888051000000042e+00,2.284590879164059007e-01,1.000000000000000048e-04,4.019514548696384537e+01,2.200000000000000011e-01
3.134455274000000014e+00,-1.046257098000000108e+00,2.859905294134486020e-01,1.000000000000000048e-04,4.089545131237683506e+01,2.200000000000000011e-01
2.910504301000000016e+00,-1.063930792999999930e+00,6.736707722177610602e-01,1.000000000000000048e-04,4.295975376111658761e+01,2.399999999999999911e-01
2.301930878999999930e+00,-1.084305269999999988e+00,6.462511078578225820e-01,1.000000000000000048e-04,4.274204513039330067e+01,3.099999999999999978e-01
2.314913878000000036e+00,-1.104421796000000011e+00,1.075040869180015068e+00,1.000000000000000048e-04,4.420394584334771793e+01,2.600000000000000089e-01
1.232494258000000009e+00,-1.089556776000000005e+00,7.564166250526143109e-01,1.000000000000000048e-04,4.342477903805032469e+01,3.099999999999999978e-01
-3.138875270179586341e+00,-1.027091259999999950e+00,2.010021719180141719e-01,1.000000000000000048e-04,4.014505507683209373e+01,3.800000000000000044e-01
1.277748142000000087e+00,-1.105660628999999950e+00,1.392721186889764873e-01,1.000000000000000048e-04,3.883983069763959861e+01,2.500000000000000000e-01
2.339694710999999927e+00,-1.083680948999999893e+00,4.095069137793645453e-01,1.000000000000000048e-04,4.128647610383600863e+01,2.300000000000000100e-01
3.085408954000000037e+00,-1.045989441999999991e+00,5.788337817527131612e-01,1.000000000000000048e-04,4.207151799185065499e+01,2.800000000000000266e-01
3.122183823999999941e+00,-1.053540683000000033e+00,4.004330004403753307e-01,1.000000000000000048e-04,4.178740609066848322e+01,3.699999999999999956e-01
1.263417701000000060e+00,-1.099941301000000093e+00,2.107191688033009935e-01,1.000000000000000048e-04,4.031566910715790897e+01,2.200000000000000011e-01
1.238769020999999970e+00,-1.122513239999999968e+00,1.212574395233063207e+00,1.000000000000000048e-04,4.464121234860753162e+01,2.600000000000000089e-01
1.225778744000000087e+00,-1.107856694000000086e+00,2.527779867236130684e-01,1.000000000000000048e-04,4.021781501354151800e+01,2.500000000000000000e-01
2.356185176999999964e+00,-1.090954028000000076e+00,2.468684040911450772e-01,1.000000000000000048e-04,4.035474370876572436e+01,2.700000000000000178e-01
1.231078855000000027e+00,-1.109460918999999990e+00,1.695794838383843928e-01,1.000000000000000048e-04,3.941982641979450364e+01,2.300000000000000100e-01
2.350025410999999842e+00,-1.078254897999999962e+00,1.055546048336274190e+00,1.000000000000000048e-04,4.421453203704662371e+01,2.300000000000000100e-01
2.889344674999999807e+00,-1.054064458000000037e+00,5.164002673721204140e-01,1.000000000000000048e-04,4.239098742004129861e+01,3.200000000000000067e-01
1.260972444000000081e+00,-1.102168519999999985e+00,2.351377044337679134e-01,1.000000000000000048e-04,4.044596915997612996e+01,2.899999999999999800e-01
3.138597202000000141e+00,-1.049455424000000026e+00,2.070240744436031566e-01,1.000000000000000048e-04,3.947644813220477289e+01,2.600000000000000089e-01
1.280173519000000093e+00,-1.106045986000000036e+00,2.202041280730924200e-01,1.000000000000000048e-04,3.978384551537838831e+01,2.899999999999999800e-01
3.140421104000000074e+00,-1.048273016000000002e+00,1.443446314350307347e-01,1.000000000000000048e-04,3.896277747757302024e+01,2.700000000000000178e-01
2.887571490000000018e+00,-1.060290981000000077e+00,3.869663474914670775e-01,1.000000000000000048e-04,4.168633578586405264e+01,2.300000000000000100e-01
3.117377486000000086e+00,-1.048849812999999909e+00,1.598695618145717923e-01,1.000000000000000048e-04,3.940613471124017053e+01,2.800000000000000266e-01
3.139331405000000075e+00,-1.045946368000000071e+00,1.984736724657567564e-01,1.000000000000000048e-04,4.017671393883352948e+01,2.300000000000000100e-01
2.901812189000000153e+00,-1.070407117000000019e+00,1.842086060885386178e-01,1.000000000000000048e-04,3.963099187545842739e+01,2.200000000000000011e-01
2.874698792999999863e+00,-1.069280417999999955e+00,3.576244765477873955e-01,1.000000000000000048e-04,4.138614829883343305e+01,2.200000000000000011e-01
3.126790450000000110e+00,-1.053686536000000062e+00,9.780543276717701406e-01,1.000000000000000048e-04,4.428157539751341432e+01,2.099999999999999922e-01
1.253234667999999941e+00,-1.096167120000000050e+00,7.948612038505997734e-01,1.000000000000000048e-04,4.364624741367883587e+01,2.200000000000000011e-01
1.242189800000000011e+00,-1.095888138000000067e+00,1.928974237717411278e-01,1.000000000000000048e-04,3.981705454157728497e+01,2.899999999999999800e-01
2.358704259000000025e+00,-1.096119858000000002e+00,3.967815800484193467e-01,1.000000000000000048e-04,4.184960866273046065e+01,2.099999999999999922e-01
3.090657074000000115e+00,-1.046905049999999893e+00,9.930542520800265116e-01,1.000000000000000048e-04,4.441253689595949083e+01,2.300000000000000100e-01
2.350320292999999783e+00,-1.077642637000000070e+00,2.268322324711418148e-01,1.000000000000000048e-04,3.991249836453439315e+01,3.300000000000000155e-01
3.120911620999999858e+00,-1.047605429999999949e+00,3.446680176863763378e-01,1.000000000000000048e-04,4.114188648301332307e+01,2.899999999999999800e-01
2.310418793000000193e+00,-1.091478047999999923e+00,9.083569027937261620e-01,1.000000000000000048e-04,4.363155857078872657e+01,3.300000000000000155e-01
2.888242410000000149e+00,-1.055260810999999910e+00,1.491296673918367510e-01,1.000000000000000048e-04,3.931875741527345269e+01,2.999999999999999889e-01
2.313880778000000138e+00,-1.089056457000000089e+00,4.396793045311087056e-01,1.000000000000000048e-04,4.242396275569533515e+01,2.600000000000000089e-01
3.096505394999999883e+00,-1.050897790999999915e+00,1.058438190903079779e+00,1.000000000000000048e-04,4.393593000886339439e+01,3.300000000000000155e-01
1.264206060000000020e+00,-1.108314516000000083e+00,1.011672163670740865e+00,1.000000000000000048e-04,4.468187696032087786e+01,2.500000000000000000e-01
2.317080779999999951e+00,-1.080569537999999996e+00,3.691207761550088229e-01,1.000000000000000048e-04,4.138800803970377729e+01,2.399999999999999911e-01
2.308161032000000112e+00,-1.080284865999999955e+00,7.887282663317292108e-01,1.000000000000000048e-04,4.347628680424887904e+01,3.900000000000000133e-01
1.213089824000000094e+00,-1.095999417000000031e+00,9.435020118069026296e-01,1.000000000000000048e-04,4.403757257985851936e+01,2.700000000000000178e-01
3.095344697999999894e+00,-1.044259242999999948e+00,4.894359169878967908e-01,1.000000000000000048e-04,4.198526599394327974e+01,2.200000000000000011e-01
3.093500166000000107e+00,-1.047656949999999920e+00,7.031511951201125932e-01,1.000000000000000048e-04,4.357334535636644546e+01,2.300000000000000100e-01
2.871266652000000086e+00,-1.064917746999999970e+00,1.344743560843444818e+00,1.000000000000000048e-04,4.505289132302632993e+01,2.500000000000000000e-01
2.872879009000000039e+00,-1.076645507999999918e+00,5.640283852021950040e-01,1.000000000000000048e-04,4.252574456592959251e+01,2.099999999999999922e-01
1.241294699000000001e+00,-1.109043570000000090e+00,3.888191447542217460e-01,1.000000000000000048e-04,4.141169850033038813e+01,2.099999999999999922e-01
1.238788393000000099e+00,-1.083197141000000085e+00,1.061281418070246119e+00,1.000000000000000048e-04,4.375019585716464832e+01,2.999999999999999889e-01
-3.140928712179586135e+00,-1.049943351000000025e+00,2.416776373432865110e-01,1.000000000000000048e-04,4.057884125403997899e+01,2.200000000000000011e-01
2.897074545000000168e+00,-1.050668165000000043e+00,6.025253506159971018e-01,1.000000000000000048e-04,4.288946354060595922e+01,2.099999999999999922e-01
3.133488720999999977e+00,-1.053899826000000095e+00,7.922915760602675661e-01,1.000000000000000048e-04,4.343110621141107686e+01,2.300000000000000100e-01
2.854965548000000020e+00,-1.051119023000000041e+00,1.213945683276359766e+00,1.000000000000000048e-04,4.493973357141965153e+01,3.200000000000000067e-01
2.846666281000000076e+00,-1.061494909000000098e+00,2.749316258031295757e-01,1.000000000000000048e-04,4.069298518719637059e+01,2.600000000000000089e-01
1.477625364000000108e+00,-9.892628350000000070e-01,3.260070984568184116e-01,1.000000000000000048e-04,4.119423194887166773e+01,2.000000000000000111e-01
-2.998301261179586064e+00,-5.567642400000000213e-01,3.854895380826328655e-01,1.000000000000000048e-04,4.144831078522486223e+01,1.799999999999999933e-01
2.915910107000000195e+00,-9.248875840000000403e-01,2.713365044791922198e-01,1.000000000000000048e-04,4.093521341171579309e+01,2.999999999999999889e-01
2.904218159000000021e+00,-9.279150130000000107e-01,2.462109705518622516e-01,1.000000000000000048e-04,4.045833210663337098e+01,2.399999999999999911e-01
2.945746643000000109e+00,-9.241091030000000428e-01,2.151415202690538653e-01,1.000000000000000048e-04,4.031893160426071887e+01,2.300000000000000100e-01
2.195221751000000054e+00,9.567984520000000215e-01,5.550111328829276935e-01,1.000000000000000048e-04,4.229537154763063000e+01,2.200000000000000011e-01
-2.382074272179586227e+00,-9.504311730000000180e-01,1.616480063442733428e-01,1.000000000000000048e-04,3.934282967337027515e+01,2.300000000000000100e-01
2.197803225999999999e+00,9.560313849999999558e-01,3.332400212728958699e-01,1.000000000000000048e-04,4.171195730490930487e+01,2.300000000000000100e-01
-2.380846050179586282e+00,-9.512843520000000552e-01,9.502073950527405444e-01,1.000000000000000048e-04,4.387631686209333282e+01,2.600000000000000089e-01
-2.382960995179586039e+00,-9.501026420000000527e-01,3.458734075580987000e-01,1.000000000000000048e-04,4.096123195727306410e+01,2.099999999999999922e-01
2.192165822000000208e+00,9.554729659999999791e-01,6.094335529262990825e-01,1.000000000000000048e-04,4.290993055141564838e+01,2.899999999999999800e-01
-2.383512939179586176e+00,-9.505219620000000535e-01,5.147423884655475401e-01,1.000000000000000048e-04,4.219323185071313986e+01,2.000000000000000111e-01
2.197044292000000176e+00,9.582492320000000063e-01,5.101970473050883026e-01,1.000000000000000048e-04,4.206486278750519858e+01,2.500000000000000000e-01
2.198013217999999824e+00,9.570721989999999568e-01,9.933393817275204540e-01,1.000000000000000048e-04,4.385289525105329034e+01,2.099999999999999922e-01
2.198391541999999976e+00,9.561199929999999458e-01,3.779665599089179207e-01,1.000000000000000048e-04,4.197355228396644833e+01,2.300000000000000100e-01
2.199218732999999926e+00,9.570277640000000030e-01,1.414979531115962974e-01,1.000000000000000048e-04,3.921977532680287482e+01,2.200000000000000011e-01
2.196667974999999995e+00,9.569524729999999701e-01,4.341510748721910673e-01,1.000000000000000048e-04,4.199614233417524645e+01,2.399999999999999911e-01
2.196400267000000017e+00,9.571105250000000453e-01,3.485770544100135204e-01,1.000000000000000048e-04,4.095774884595478227e+01,2.500000000000000000e-01
2.195980999000000100e+00,9.563170869999999546e-01,3.591253843120474354e-01,1.000000000000000048e-04,4.096134437663577899e+01,2.200000000000000011e-01
2.198886345000000020e+00,9.574225640000000315e-01,6.259628320483678898e-01,1.000000000000000048e-04,4.295149267039747798e+01,3.300000000000000155e-01
-2.382942164179586264e+00,-9.487821469999999646e-01,4.384215198874563679e-01,1.000000000000000048e-04,4.200195212268705802e+01,2.000000000000000111e-01
2.197058621000000045e+00,9.568337070000000333e-01,7.812022000629810226e-01,1.000000000000000048e-04,4.377786048363573457e+01,2.600000000000000089e-01
2.196754174000000059e+00,9.569828230000000380e-01,1.949534704526965090e-01,1.000000000000000048e-04,4.012866309002583165e+01,2.399999999999999911e-01
-2.381905888179586039e+00,-9.494029419999999719e-01,3.000878979647993994e-01,1.000000000000000048e-04,4.071664246646890462e+01,2.399999999999999911e-01
-2.382353656179586388e+00,-9.501919130000000546e-01,3.082732238888670206e-01,1.000000000000000048e-04,4.097065929759901337e+01,2.600000000000000089e-01
-2.385313647179586383e+00,-9.492824659999999914e-01,3.983598563866059816e-01,1.000000000000000048e-04,4.155745278828329958e+01,2.399999999999999911e-01
-2.383308463179586223e+00,-9.502672559999999491e-01,1.463148063335060201e-01,1.000000000000000048e-04,3.884088981613452063e+01,2.000000000000000111e-01
2.194446376000000143e+00,9.548028840000000184e-01,5.510854538493239474e-01,1.000000000000000048e-04,4.245333542118597592e+01,3.699999999999999956e-01
-2.377678389179586294e+00,-9.493284189999999789e-01,9.088188419013856212e-01,1.000000000000000048e-04,4.328897354025200883e+01,3.099999999999999978e-01
2.195048706000000127e+00,9.553664520000000326e-01,2.443417165671770697e-01,1.000000000000000048e-04,3.996548376598044428e+01,2.399999999999999911e-01
2.194988459000000169e+00,9.569281090000000267e-01,4.274840003250166554e-01,1.000000000000000048e-04,4.189458059283209934e+01,2.099999999999999922e-01
2.198773670000000013e+00,9.585742720000000050e-01,6.788476099041649281e-01,1.000000000000000048e-04,4.340529578268152733e+01,2.800000000000000266e-01
2.196007632000000154e+00,9.574002940000000406e-01,3.887943421046451409e-01,1.000000000000000048e-04,4.156188758330007715e+01,2.800000000000000266e-01
2.193610842000000005e+00,9.569156829999999614e-01,4.934555155286806105e-01,1.000000000000000048e-04,4.222133131282513574e+01,2.099999999999999922e-01
2.194846306000000080e+00,9.574700699999999509e-01,7.263202639838639563e-01,1.000000000000000048e-04,4.330352459249291996e+01,2.300000000000000100e-01
-2.901318991795864832e-01,1.086903570000000041e+00,4.764292456536198817e-01,1.000000000000000048e-04,4.235315200620215137e+01,2.000000000000000111e-01
-2.914486071795865385e-01,1.085909494999999891e+00,1.511899132149863156e-01,1.000000000000000048e-04,3.920903415894278510e+01,1.000000000000000056e-01
-2.954610881795858290e-01,1.084462065999999947e+00,7.743229064898429215e-01,1.000000000000000048e-04,4.342616047080169750e+01,1.199999999999999956e-01
-3.403197011795864313e-01,1.090760651000000081e+00,1.421313984874297276e-01,1.000000000000000048e-04,3.910282677770108961e+01,8.999999999999999667e-02
-3.429455761795860980e-01,1.087892671000000089e+00,2.966402580584031057e-01,1.000000000000000048e-04,4.085932979886422345e+01,1.400000000000000133e-01
6.896152909999999636e-01,-9.249195220000000495e-01,1.211281176215606159e-01,1.000000000000000048e-04,3.875320046982006517e+01,2.000000000000000111e-01
1.024453132999999960e+00,1.182715689999999986e+00,9.536230740521742799e-01,1.000000000000000048e-04,4.437965216485265785e+01,1.900000000000000022e-01
1.006083177000000051e+00,1.165244638999999971e+00,4.553920555544792581e-01,1.000000000000000048e-04,4.199966362949122356e+01,1.700000000000000122e-01
9.905969959999999519e-01,1.153001898999999941e+00,7.316089478309515393e-01,1.000000000000000048e-04,4.253268348168060697e+01,3.499999999999999778e-01
2.950804928999999799e+00,-1.010655210999999998e+00,1.063490322981969882e+00,1.000000000000000048e-04,4.442868076306476155e+01,1.700000000000000122e-01
2.951637304000000128e+00,-1.010683065999999908e+00,4.652572090603528387e-01,1.000000000000000048e-04,4.210823159890331624e+01,1.900000000000000022e-01
-2.349248843179586377e+00,-9.322901449999999590e-01,2.885011118024207732e-01,1.000000000000000048e-04,4.105283133566564402e+01,1.900000000000000022e-01
