-2.487778379557162634e+00,2.623957030424446391e-01,1.194575102940074185e-01,1.000000000000000048e-04,3.901234773098669706e+01,1.700000000000000122e-01
-2.960454252161138111e+00,-2.644270963746562231e-01,4.304402463375927024e-01,1.000000000000000048e-04,4.207058516757674482e+01,1.600000000000000033e-01
1.476451132916161590e+00,5.619191511663368388e-01,8.016927340867334717e-01,1.000000000000000048e-04,4.351031673231553043e+01,1.600000000000000033e-01
-2.586620572845808486e+00,-8.006414929126272062e-01,9.062488376570840831e-01,1.000000000000000048e-04,4.366822557536080041e+01,1.600000000000000033e-01
-1.281984102823618077e+00,-1.095708108006551385e+00,8.403750043561342142e-01,1.000000000000000048e-04,4.353383224984269617e+01,1.900000000000000022e-01
-2.203514443918864529e+00,-8.601085369048240281e-01,2.737919257295629016e-01,1.000000000000000048e-04,4.096218320782953271e+01,1.600000000000000033e-01
3.116752434557248819e+00,4.280727336433385322e-01,1.471116516532156027e-01,1.000000000000000048e-04,3.916066452477159032e+01,1.700000000000000122e-01
-1.741350903484099044e+00,8.895023761868925405e-02,4.599894165645714850e-01,1.000000000000000048e-04,4.201952882536173206e+01,1.600000000000000033e-01
2.088354551761309352e+00,-1.234145609016644940e+00,1.913504544134485563e-01,1.000000000000000048e-04,3.962525683689892020e+01,1.600000000000000033e-01
-1.730994141189493796e+00,-4.821815051888014292e-01,4.922072240154358180e-01,1.000000000000000048e-04,4.213158101181955573e+01,2.200000000000000011e-01
2.071418382583898321e-01,8.267158378960992593e-01,2.596103488502263801e-01,1.000000000000000048e-04,4.065294848830806984e+01,8.999999999999999667e-02
-1.109262213461226665e+00,-1.142494025125905921e+00,3.191312867040072554e-01,1.000000000000000048e-04,4.102806524103206698e+01,8.000000000000000167e-02
1.440252162514042311e+00,1.191217616542290081e+00,6.996026716582197658e-01,1.000000000000000048e-04,4.304667931026805405e+01,1.100000000000000006e-01
2.524768437601157878e+00,-1.408087155002397672e+00,5.354530291954890941e-01,1.000000000000000048e-04,4.242644613429820311e+01,1.600000000000000033e-01
-2.818558593468079909e+00,-9.378479421923135995e-02,1.003349504222169841e+00,1.000000000000000048e-04,4.402328549752061093e+01,1.300000000000000044e-01
-2.845264188682394391e+00,5.024826718915913482e-01,3.520039752127881449e-01,1.000000000000000048e-04,4.145421909182567788e+01,8.999999999999999667e-02
2.764272534331290387e+00,1.053996176638047011e+00,2.486215902210195949e-01,1.000000000000000048e-04,4.027991145861128786e+01,2.099999999999999922e-01
-5.721500284109635182e-01,-8.165989874843806451e-01,1.827070953264902098e-01,1.000000000000000048e-04,3.969590057421898877e+01,1.799999999999999933e-01
1.360519141910091712e+00,2.586176413122780460e-01,1.264419086846238827e+00,1.000000000000000048e-04,4.463679400073578307e+01,1.600000000000000033e-01
2.358699801355286674e+00,-5.365958304876987661e-01,2.120463079411214480e-01,1.000000000000000048e-04,4.009004980513086736e+01,1.799999999999999933e-01
5.722049858428475133e-01,-3.728510150708999049e-01,4.400878839261224140e-01,1.000000000000000048e-04,4.166768354475782132e+01,1.600000000000000033e-01
-2.796663046585415202e+00,-9.274086011234673466e-01,3.442051273179655979e-01,1.000000000000000048e-04,4.118317867888526962e+01,2.000000000000000111e-01
-3.335719331023536682e-01,-4.571402914434530285e-01,4.071378545844621666e-01,1.000000000000000048e-04,4.196196942714890810e+01,1.700000000000000122e-01
-2.015981101161361977e+00,-6.892884648341449649e-01,1.012191564379739450e+00,1.000000000000000048e-04,4.398838276593986762e+01,1.700000000000000122e-01
7.214313745762850338e-01,1.542802819515181501e+00,7.108103424207736776e-01,1.000000000000000048e-04,4.330627788337256590e+01,1.700000000000000122e-01
-1.047903039674601633e+00,-3.940062892655831206e-01,1.187065395374577115e+00,1.000000000000000048e-04,4.447361547976097285e+01,2.000000000000000111e-01
-9.442386420270163505e-01,-4.018480495830680788e-01,1.546141570139725196e-01,1.000000000000000048e-04,3.919523601889291342e+01,1.900000000000000022e-01
-1.494452188001236248e+00,9.156291823291180521e-01,1.797204509600855982e-01,1.000000000000000048e-04,3.934469416380875373e+01,1.700000000000000122e-01
1.455956780242414261e+00,5.457164608114570825e-01,1.327740678597784107e-01,1.000000000000000048e-04,3.903479519905256012e+01,1.000000000000000056e-01
1.855106461330668921e-02,-7.259185989789118665e-01,3.908248910999663206e-01,1.000000000000000048e-04,4.169563959405559928e+01,1.000000000000000056e-01
2.776602765565753472e+00,-6.702820062256020783e-02,1.349103398566584566e-01,1.000000000000000048e-04,3.893890230110291384e+01,1.100000000000000006e-01
-1.849142397454719422e-01,-6.134647501602357167e-01,3.396876059876532405e-01,1.000000000000000048e-04,4.113147044556576759e+01,1.199999999999999956e-01
5.116086533667734138e-01,3.876652347050331127e-01,4.161178468436497191e-01,1.000000000000000048e-04,4.185587370514654282e+01,1.300000000000000044e-01
-1.852484914110835934e+00,-1.156723654519859146e+00,8.083008738653427727e-01,1.000000000000000048e-04,4.352393121683189747e+01,1.199999999999999956e-01
8.063905231777259708e-01,-1.036703833595210789e+00,1.725416530330041720e-01,1.000000000000000048e-04,3.963396048152579709e+01,1.499999999999999944e-01
-5.660098310319865433e-01,8.929257935154533143e-03,8.524114343382263037e-01,1.000000000000000048e-04,4.393883823914087827e+01,2.200000000000000011e-01
-2.592043371006115926e+00,1.184975478218233125e+00,7.847624638685259946e-01,1.000000000000000048e-04,4.360670030203565517e+01,1.199999999999999956e-01
-9.917799526289750034e-02,6.447767005851576805e-01,3.984068387945784995e-01,1.000000000000000048e-04,4.150737542566306360e+01,1.600000000000000033e-01
-1.213994909070074790e+00,9.458870893076358755e-01,1.812210387395105649e-01,1.000000000000000048e-04,3.979332643821754090e+01,2.200000000000000011e-01
-2.954625958741622593e+00,5.010552787007931386e-01,2.166417767380470760e-01,1.000000000000000048e-04,4.051641699063396374e+01,2.200000000000000011e-01
-6.542622462977383258e-01,-5.264079865952828730e-01,3.512471803895651501e-01,1.000000000000000048e-04,4.162494972682293337e+01,1.300000000000000044e-01
5.137116999984514543e-01,-6.339104299395428299e-01,1.302125961723672454e-01,1.000000000000000048e-04,3.898218818237747740e+01,1.600000000000000033e-01
-2.910042105676549973e+00,-6.398199643762729760e-01,1.120894614562859992e+00,1.000000000000000048e-04,4.455564797405445887e+01,2.099999999999999922e-01
2.408856810311268859e+00,1.012512735800182195e+00,3.154997119816387308e-01,1.000000000000000048e-04,4.121112403721760131e+01,2.000000000000000111e-01
2.180213670019901073e+00,1.051001842142553766e-01,2.492192322360613499e-01,1.000000000000000048e-04,4.052841172006625214e+01,2.000000000000000111e-01
2.579725092839482592e+00,8.161453079406331135e-01,2.647603441272874392e-01,1.000000000000000048e-04,4.090047648341790421e+01,2.500000000000000000e-01
-1.862919155245182923e+00,5.553314456110851616e-01,1.644895189495341192e-01,1.000000000000000048e-04,3.959149480057160986e+01,2.200000000000000011e-01
-1.640856037721312610e+00,-1.638705134765836569e-01,3.777828417447268716e-01,1.000000000000000048e-04,4.148940097280705430e+01,1.199999999999999956e-01
-2.010234534438352760e+00,1.233389085336605184e+00,1.303339978731513416e+00,1.000000000000000048e-04,4.501080095258645741e+01,1.400000000000000133e-01
-1.767147145317215173e+00,-7.048900301370440991e-01,1.776645202531423884e-01,1.000000000000000048e-04,3.940488938377569639e+01,1.400000000000000133e-01
-1.067056350084734095e+00,-1.079389333400071482e-01,5.808342152908338996e-01,1.000000000000000048e-04,4.277714761838536361e+01,1.100000000000000006e-01
1.799230701227693352e+00,8.513047656802830154e-01,6.594127670463145741e-01,1.000000000000000048e-04,4.320621447005928673e+01,1.199999999999999956e-01
-2.450463286183174993e+00,-5.413882679070147752e-02,4.846721553306079233e-01,1.000000000000000048e-04,4.228091988506894694e+01,2.000000000000000111e-01
-1.399731958500636253e-01,-1.681144434355552608e-01,7.709750708867693092e-01,1.000000000000000048e-04,4.332156068603175214e+01,1.199999999999999956e-01
-1.935957070467128727e+00,3.369097759055423857e-01,9.304965933424154123e-01,1.000000000000000048e-04,4.414032593664054360e+01,1.499999999999999944e-01
-2.528309679930824228e+00,8.539808908706225665e-02,2.928152341627774380e-01,1.000000000000000048e-04,4.075104417594122452e+01,1.499999999999999944e-01
-7.009894862802772408e-01,-1.802774354926290901e-01,4.300971502095232157e-01,1.000000000000000048e-04,4.172580654297267699e+01,1.100000000000000006e-01
1.606305631578970328e+00,-2.124405558264927940e-01,3.940016831956776322e-01,1.000000000000000048e-04,4.183793104769301152e+01,1.199999999999999956e-01
1.914053495338876587e+00,6.327765582313733539e-01,1.285857354446591216e-01,1.000000000000000048e-04,3.885142114018519521e+01,1.300000000000000044e-01
-1.155025053169447702e+00,-1.383466587405245196e+00,1.588457132675304972e-01,1.000000000000000048e-04,3.932208689929895939e+01,1.300000000000000044e-01
2.440169628351350539e+00,-3.479075685413892671e-01,2.037041842129161395e-01,1.000000000000000048e-04,3.980228966444845895e+01,1.100000000000000006e-01
-3.648653289036389857e-01,1.125812738313495487e+00,5.203926004325578614e-01,1.000000000000000048e-04,4.244695410525626755e+01,1.600000000000000033e-01
-2.264450475819647313e+00,-8.541881430805446929e-01,7.021142049466195800e-01,1.000000000000000048e-04,4.309925281753088200e+01,1.199999999999999956e-01
9.056431034810117353e-01,1.370419802379219121e-02,2.610522927333946974e-01,1.000000000000000048e-04,4.068293143391895939e+01,1.300000000000000044e-01
-1.800177098504708528e+00,-5.084529043920500424e-01,1.525001412451578719e-01,1.000000000000000048e-04,3.946590327278782695e+01,1.199999999999999956e-01
3.115524978351762897e+00,-1.169396397773653673e+00,1.229034379251257914e+00,1.000000000000000048e-04,4.445690581038601863e+01,1.700000000000000122e-01
-7.377442034709655871e-01,-1.500707335852635715e-02,4.970335638225678032e-01,1.000000000000000048e-04,4.246809268275467275e+01,1.100000000000000006e-01
2.518768241995835488e+00,-1.155368199943406893e+00,3.796966695690973115e-01,1.000000000000000048e-04,4.179572404657788809e+01,1.100000000000000006e-01
2.379628488564671684e+00,-5.121294382974694859e-01,3.623436570768647780e-01,1.000000000000000048e-04,4.158923007851964826e+01,1.199999999999999956e-01
-8.181137278530972168e-01,-6.613906278523223881e-01,1.378755849711619241e-01,1.000000000000000048e-04,3.906797600390877534e+01,1.499999999999999944e-01
8.906103222042451861e-01,2.307211052996804845e-02,1.217339879051282381e-01,1.000000000000000048e-04,3.866083270213258771e+01,1.199999999999999956e-01
3.014693053564650782e+00,2.367880403772792963e-01,6.296000990398793462e-01,1.000000000000000048e-04,4.285850552384798817e+01,1.400000000000000133e-01
-9.859321658322177662e-01,1.025825914834087804e+00,8.856625142863998601e-01,1.000000000000000048e-04,4.386186174791925652e+01,1.199999999999999956e-01
2.312624682833906320e+00,-5.343661196882008024e-01,4.982580243393357478e-01,1.000000000000000048e-04,4.226090754623676560e+01,1.100000000000000006e-01
1.993450126900711439e+00,5.465583809065344134e-01,6.609231082032653859e-01,1.000000000000000048e-04,4.299645514187770345e+01,1.100000000000000006e-01
-1.466741698985040809e+00,-8.249921641705910691e-01,3.904181485565130227e-01,1.000000000000000048e-04,4.155844111458832657e+01,1.300000000000000044e-01
-2.033105001842724135e+00,1.260324794876674481e+00,2.506412604910057684e-01,1.000000000000000048e-04,4.034095245406013674e+01,1.400000000000000133e-01
-1.365590110529543599e+00,-8.626561262468079860e-04,5.312104293901236396e-01,1.000000000000000048e-04,4.240578985031126535e+01,1.199999999999999956e-01
1.386276683026461676e+00,-3.519854269298838823e-02,5.910105799442408880e-01,1.000000000000000048e-04,4.285017011639735074e+01,1.100000000000000006e-01
-1.545479133889595680e-01,-7.340822877538354385e-01,1.268586217638052460e-01,1.000000000000000048e-04,3.896916338016072245e+01,1.199999999999999956e-01
8.342034789755463642e-01,-7.014870596966582550e-01,5.748283701540237711e-01,1.000000000000000048e-04,4.257050751470117689e+01,1.199999999999999956e-01
2.888728181532302486e+00,-1.245788096025801650e-01,1.331215044334359998e+00,1.000000000000000048e-04,4.473862335529345557e+01,1.300000000000000044e-01
-2.501883958311206690e+00,3.971696250184502119e-01,1.282681082421530228e+00,1.000000000000000048e-04,4.477482152692725492e+01,1.199999999999999956e-01
9.349171066241686034e-01,-3.089632422312922344e-01,9.872588216271811490e-01,1.000000000000000048e-04,4.399330472653250723e+01,1.100000000000000006e-01
2.763694478808946364e+00,5.383797556400704565e-02,2.477396035266632435e-01,1.000000000000000048e-04,4.056862239320684438e+01,1.199999999999999956e-01
2.769855999092071031e+00,3.593577727215055972e-01,5.123137684806557957e-01,1.000000000000000048e-04,4.239902721959710874e+01,1.700000000000000122e-01
-1.557743777542782260e+00,1.946317840280671341e-01,1.579128088220722592e-01,1.000000000000000048e-04,3.946000713539051930e+01,1.400000000000000133e-01
-2.125214700518818667e+00,-1.841658865253208432e-01,4.096919941443191160e-01,1.000000000000000048e-04,4.177741032022498757e+01,1.199999999999999956e-01
-1.947866449193590865e+00,1.718753368800696180e-02,4.427855153661619525e-01,1.000000000000000048e-04,4.191002497681967043e+01,1.600000000000000033e-01
4.160432908820648201e-01,1.403421734094220330e+00,3.039476065651269820e-01,1.000000000000000048e-04,4.096267995199147549e+01,1.700000000000000122e-01
2.487271908886601324e+00,7.164544983900831276e-01,2.695749969277094760e-01,1.000000000000000048e-04,4.076358082416935957e+01,1.499999999999999944e-01
-2.771500973902099041e-01,1.414283617739932719e+00,1.882896289698263725e-01,1.000000000000000048e-04,3.977487270595282354e+01,1.100000000000000006e-01
1.342388230870013466e+00,1.476538538926095434e-01,5.818802203214217261e-01,1.000000000000000048e-04,4.228163424353670763e+01,2.000000000000000111e-01
-9.309557565547490476e-01,-4.913577057232918488e-01,4.675241163631891350e-01,1.000000000000000048e-04,4.210843085089810245e+01,1.300000000000000044e-01
-6.122774021170585002e-02,7.211342338290318565e-01,1.259301367894906321e+00,1.000000000000000048e-04,4.462359595322026706e+01,1.499999999999999944e-01
-8.843168241468979396e-01,-3.514971553157129058e-01,7.763598803889362188e-01,1.000000000000000048e-04,4.335591301925225594e+01,1.100000000000000006e-01
1.698934023831151663e+00,-3.220182462406897539e-01,1.934909770413557606e-01,1.000000000000000048e-04,3.998867196029677729e+01,1.199999999999999956e-01
-3.079874539003699674e+00,1.130124738640641002e+00,1.289628354447596159e-01,1.000000000000000048e-04,3.891631546397628227e+01,1.100000000000000006e-01
1.543027323199157586e-01,-1.413171876006181327e+00,2.845702223075123882e-01,1.000000000000000048e-04,4.095539357761811061e+01,1.100000000000000006e-01
1.867711250746712182e+00,4.584316391496163767e-01,3.144731733734360546e-01,1.000000000000000048e-04,4.120965271449870215e+01,2.099999999999999922e-01
2.619671063028823355e+00,-4.722124904874078766e-01,1.210630732716668767e+00,1.000000000000000048e-04,4.460955587934108735e+01,1.199999999999999956e-01
-8.673872639611066582e-01,3.217387205959525431e-01,2.595148275456242715e-01,1.000000000000000048e-04,4.067990699475719651e+01,1.199999999999999956e-01
-2.657752135820818040e+00,-8.911861165532782847e-01,4.351680622279932020e-01,1.000000000000000048e-04,4.172079975192239232e+01,1.199999999999999956e-01
2.063072733247099499e+00,-1.670830891186685374e-01,2.373667551456031255e-01,1.000000000000000048e-04,4.046739402582770850e+01,1.700000000000000122e-01
-1.759558314930180112e+00,4.553676225491023466e-01,1.501752984452755513e-01,1.000000000000000048e-04,3.919960282419059183e+01,1.100000000000000006e-01
2.847838561875684071e+00,-1.266955002100413896e-01,2.616852938301372777e-01,1.000000000000000048e-04,4.090268094002961163e+01,2.099999999999999922e-01
-1.988357950673635299e+00,-6.571153859384838425e-01,4.488861205604144367e-01,1.000000000000000048e-04,4.205655430366122260e+01,1.300000000000000044e-01
1.893325113104882718e+00,3.816627455862391383e-01,2.137761172423802147e-01,1.000000000000000048e-04,3.993377705019550206e+01,1.199999999999999956e-01
-2.748654696029606548e+00,7.078117826257401823e-01,1.464641649283340286e-01,1.000000000000000048e-04,3.929753725922159191e+01,1.300000000000000044e-01
2.256605140462880854e+00,-2.274930944758568607e-02,7.319557043875117852e-01,1.000000000000000048e-04,4.332900110708452956e+01,1.799999999999999933e-01
4.412647576356087953e-01,4.044382233875138954e-01,2.753389703711657255e-01,1.000000000000000048e-04,4.091618602368610169e+01,1.199999999999999956e-01
-3.094371136829565661e+00,7.163721475423447949e-01,7.004789768872199396e-01,1.000000000000000048e-04,4.326333892788392177e+01,1.199999999999999956e-01
-2.480866516598698723e+00,7.073499030752015138e-01,3.307183728057740968e-01,1.000000000000000048e-04,4.123934858108012946e+01,1.900000000000000022e-01
-8.757581904083697744e-01,-1.329793297308423661e-01,3.149158068412460931e-01,1.000000000000000048e-04,4.126052882535496735e+01,1.300000000000000044e-01
2.219752982681667319e+00,4.485911402121893765e-01,2.359741470267375796e-01,1.000000000000000048e-04,4.027861147466922631e+01,1.499999999999999944e-01
8.935916413546385328e-02,-3.365176542628423029e-01,4.654191592035037406e-01,1.000000000000000048e-04,4.209380646587821673e+01,1.499999999999999944e-01
-2.986307116559286712e+00,-1.179397219235585048e-01,5.242729631599423179e-01,1.000000000000000048e-04,4.242921348187772423e+01,1.400000000000000133e-01
1.501404870119468882e+00,4.894176116154858036e-02,1.250025207930809401e-01,1.000000000000000048e-04,3.890102446023336569e+01,1.400000000000000133e-01
2.093264716736920050e+00,-6.521658602923413595e-01,4.328099778337535231e-01,1.000000000000000048e-04,4.186737129035656579e+01,1.199999999999999956e-01
1.177311664922116030e+00,3.366493558685679233e-01,1.311784038963028642e-01,1.000000000000000048e-04,3.909597654168803160e+01,1.199999999999999956e-01
-3.031814481997537669e+00,-9.947196059254355127e-01,1.749172007915560378e-01,1.000000000000000048e-04,3.973365921821100244e+01,1.100000000000000006e-01
-2.410882059951060530e+00,1.495541400744682559e+00,3.878238600881993570e-01,1.000000000000000048e-04,4.144524238724652321e+01,1.100000000000000006e-01
-2.120602908527372321e+00,-7.341561836469435720e-01,4.035456908531611653e-01,1.000000000000000048e-04,4.185831242013619402e+01,1.400000000000000133e-01
1.574510568442216041e+00,6.990013157080494643e-01,5.187481032377838641e-01,1.000000000000000048e-04,4.251765704819089819e+01,1.499999999999999944e-01
-1.760836997973833640e-01,7.818760186089126485e-01,3.925481015008744912e-01,1.000000000000000048e-04,4.173568640904284877e+01,1.199999999999999956e-01
-7.294040036728377530e-01,-1.330126169290822391e+00,2.332192871233460529e-01,1.000000000000000048e-04,4.017950164324225426e+01,2.099999999999999922e-01
2.456408696765931765e+00,-3.281605249870336305e-01,9.264738548907396343e-01,1.000000000000000048e-04,4.381873688473738326e+01,1.300000000000000044e-01
-3.118511508935354115e+00,-2.335386552107565628e-02,2.644658692501007380e-01,1.000000000000000048e-04,4.089188030690986864e+01,1.400000000000000133e-01
-2.319824727851086621e+00,-1.679776471063585408e-01,3.804141949892454466e-01,1.000000000000000048e-04,4.156908562532341733e+01,1.199999999999999956e-01
2.986739813499728058e-03,-1.323149333360204238e+00,3.133506976020730139e-01,1.000000000000000048e-04,4.130577747929312693e+01,1.199999999999999956e-01
-2.009454541719287501e+00,9.927545377966158213e-01,7.833772477799951783e-01,1.000000000000000048e-04,4.341154816901932634e+01,1.100000000000000006e-01
1.197749740295064314e-01,8.317116718411474707e-01,2.607527524979533773e-01,1.000000000000000048e-04,4.061549098873281594e+01,1.300000000000000044e-01
2.172297798260747648e+00,-5.833652800298372298e-02,3.375688787476454067e-01,1.000000000000000048e-04,4.130827363912382566e+01,1.199999999999999956e-01
-1.886585885041442756e+00,6.817244808609355111e-01,6.372268425820974969e-01,1.000000000000000048e-04,4.295958034472527487e+01,1.199999999999999956e-01
-1.666568354036135347e-02,1.430793724355301055e+00,5.606084611776243065e-01,1.000000000000000048e-04,4.265472050618761557e+01,1.300000000000000044e-01
7.395684172395848854e-01,-7.585836674475959773e-01,3.205971056012826281e-01,1.000000000000000048e-04,4.108996463797588916e+01,1.300000000000000044e-01
-2.016304568267403230e+00,2.182257524335189380e-01,3.686155264712178692e-01,1.000000000000000048e-04,4.127580233988035019e+01,1.199999999999999956e-01
-6.331639885740325546e-01,5.345264981059121290e-01,2.674208567770330891e-01,1.000000000000000048e-04,4.053914520827483869e+01,1.199999999999999956e-01
2.422760872762865780e+00,-1.904565972704672649e-01,2.234511068240805365e-01,1.000000000000000048e-04,4.023220822832916355e+01,1.300000000000000044e-01
-1.889583955223113731e+00,1.087953366302375269e+00,1.537835041790704960e-01,1.000000000000000048e-04,3.917838473132101740e+01,1.199999999999999956e-01
3.454245400860056492e-02,4.390809934832278216e-01,3.629306645914298635e-01,1.000000000000000048e-04,4.144487042041662050e+01,1.199999999999999956e-01
1.570968274383862884e+00,-1.672783495632113038e-01,1.329526392118149936e-01,1.000000000000000048e-04,3.895555402360822939e+01,1.199999999999999956e-01
-2.022944090228655512e-01,-2.969683289292508466e-01,5.590262435553752240e-01,1.000000000000000048e-04,4.219139372322695181e+01,1.499999999999999944e-01
1.161390466558200885e-01,-2.808844772490390884e-01,6.826935077134717034e-01,1.000000000000000048e-04,4.291083690794265948e+01,1.199999999999999956e-01
-7.904562415146370036e-01,4.031384731712448488e-01,3.320117200294696591e-01,1.000000000000000048e-04,4.104917051468064670e+01,2.000000000000000111e-01
3.903143898251877353e-01,7.241245585408377927e-01,1.566999834606870312e-01,1.000000000000000048e-04,3.943771254162218298e+01,2.000000000000000111e-01
-2.578103970420742908e+00,-1.025206442569756238e+00,3.230939832836146053e-01,1.000000000000000048e-04,4.106489080434478467e+01,1.400000000000000133e-01
1.375108071592704206e+00,7.727925526179517668e-01,7.507157933821311246e-01,1.000000000000000048e-04,4.306266569033026315e+01,1.199999999999999956e-01
2.615917344429827374e+00,-1.686298258092486790e-01,7.359784470783277133e-01,1.000000000000000048e-04,4.317451966457827695e+01,1.300000000000000044e-01
-1.997941800407478929e-01,-3.978883695997923464e-01,2.338466300521728769e-01,1.000000000000000048e-04,4.046727904676698273e+01,1.799999999999999933e-01
-2.379277023415602432e+00,-3.877221104853745270e-01,7.915428937958923772e-01,1.000000000000000048e-04,4.330905536173314374e+01,1.499999999999999944e-01
-1.857271290534842745e+00,-1.948304508081699638e-01,4.355305014838168898e-01,1.000000000000000048e-04,4.188474754742162531e+01,1.100000000000000006e-01
2.281882417256316131e+00,-1.149228290484655135e+00,2.883664138432215918e-01,1.000000000000000048e-04,4.092374803276933903e+01,1.199999999999999956e-01
2.448565064042893979e+00,-1.058145617072998590e+00,3.958698704338559082e-01,1.000000000000000048e-04,4.168410324608519346e+01,1.499999999999999944e-01
3.126817453315345219e+00,6.193438080308277804e-01,1.862225476427807891e-01,1.000000000000000048e-04,3.995865586859983409e+01,1.900000000000000022e-01
2.748649487655637103e+00,8.783721537247490829e-01,7.920567341275415174e-01,1.000000000000000048e-04,4.356359918645035378e+01,1.799999999999999933e-01
2.799836258482835127e+00,-7.699032458576516857e-01,6.039257304617247080e-01,1.000000000000000048e-04,4.281958388834881646e+01,1.499999999999999944e-01
1.421632438547803190e+00,-1.518382191906390455e+00,3.321986777826495540e-01,1.000000000000000048e-04,4.121690009389800480e+01,1.499999999999999944e-01
-5.833451739236092948e-01,-3.145361577837693101e-01,1.315644872897128170e-01,1.000000000000000048e-04,3.903227292638089096e+01,3.599999999999999867e-01
-7.768743104484574502e-01,8.896824563170393496e-01,7.095408545897898822e-01,1.000000000000000048e-04,4.331838375113968453e+01,3.900000000000000133e-01
5.619506184806546401e-01,-8.369542709229342847e-01,2.389471670543619197e-01,1.000000000000000048e-04,3.973477484214661359e+01,3.900000000000000133e-01
-2.523477679513805860e-01,-2.167678911498689409e-01,3.014391853879558880e-01,1.000000000000000048e-04,4.094502430311909791e+01,3.099999999999999978e-01
1.788357375319512776e+00,-2.801544176346357773e-01,1.006132230751849210e+00,1.000000000000000048e-04,4.395310716044890853e+01,3.300000000000000155e-01
-1.343547601114612355e+00,6.678584715254625159e-01,1.938736329715031736e-01,1.000000000000000048e-04,4.066415158149133902e+01,4.000000000000000222e-01
1.185425955605199810e+00,7.680002907576328752e-01,5.101617513762182199e-01,1.000000000000000048e-04,4.213221339378127794e+01,3.200000000000000067e-01
-5.367197366020386440e-01,9.765827173503693892e-02,6.972863543005094478e-01,1.000000000000000048e-04,4.350957323408738375e+01,3.200000000000000067e-01
1.033817611131539138e+00,-1.263254167522616100e-01,3.498040465107694619e-01,1.000000000000000048e-04,4.120470585929633245e+01,3.599999999999999867e-01
1.920650463021275733e+00,1.099867177251145023e+00,2.340426863228082244e-01,1.000000000000000048e-04,4.024615111310302495e+01,2.399999999999999911e-01
1.563792170163007533e+00,-1.192901811427398595e+00,1.520947695140795197e-01,1.000000000000000048e-04,3.935617579679915679e+01,2.999999999999999889e-01
-2.885555815188824980e-01,-4.473662423379627384e-01,1.035806101015674940e+00,1.000000000000000048e-04,4.422845832021660328e+01,2.399999999999999911e-01
3.909516425242300919e-01,-5.027790942382881489e-02,3.055463453269311458e-01,1.000000000000000048e-04,4.151425912158268972e+01,2.899999999999999800e-01
-1.807155195918434876e+00,4.333618173249376149e-01,3.891592597813362531e-01,1.000000000000000048e-04,4.189235639651245435e+01,2.899999999999999800e-01
7.018208733360564722e-01,1.341655470865388278e+00,1.481679972825273861e-01,1.000000000000000048e-04,3.923745506930141147e+01,2.899999999999999800e-01
5.074908816800123290e-01,1.406196697789261929e+00,3.767793130457453010e-01,1.000000000000000048e-04,4.090025565307352906e+01,3.699999999999999956e-01
-2.565795923754201624e-01,-5.067864360270291080e-02,2.788964366009789586e-01,1.000000000000000048e-04,4.043577824906579110e+01,2.300000000000000100e-01
-5.660295687615515270e-01,3.460270076081757296e-01,2.173417340824079780e-01,1.000000000000000048e-04,4.011234204823308858e+01,2.000000000000000111e-01
-1.666136615625631423e+00,-7.052655208378411089e-02,3.942166520598924251e-01,1.000000000000000048e-04,4.192379421751035551e+01,3.800000000000000044e-01
2.813181678027868671e+00,8.301406407043900870e-01,8.722950438784808913e-01,1.000000000000000048e-04,4.337022296063274496e+01,2.300000000000000100e-01
-2.295080244130609515e-03,5.242217030248164100e-01,6.515948534314042195e-01,1.000000000000000048e-04,4.310858376862400831e+01,3.900000000000000133e-01
3.086247439919779900e+00,1.136043459215540619e+00,2.513131372643742090e-01,1.000000000000000048e-04,4.077875394687360711e+01,2.200000000000000011e-01
4.017004713114369352e-01,-9.861028539681071514e-02,2.421136911205219455e-01,1.000000000000000048e-04,4.083454604399516086e+01,2.399999999999999911e-01
-1.393481105143030252e+00,4.120320808579773786e-01,2.313946738650507484e-01,1.000000000000000048e-04,4.059199962067730638e+01,2.000000000000000111e-01
1.983897810743598278e+00,5.122214685928820899e-01,5.332504428743718439e-01,1.000000000000000048e-04,4.263119122403912797e+01,1.900000000000000022e-01
-2.814108926893602369e+00,9.890389100090168917e-01,8.243639757489737985e-01,1.000000000000000048e-04,4.330516619381324972e+01,2.600000000000000089e-01
-1.340163469387163353e+00,6.587731035476029895e-02,5.886276798546510314e-01,1.000000000000000048e-04,4.265022304177683310e+01,1.900000000000000022e-01
1.644045132081099148e+00,5.241087224685569979e-01,1.343414384898216074e+00,1.000000000000000048e-04,4.482350003247916703e+01,1.000000000000000056e-01
-2.668045975066330122e+00,1.044732648122010055e+00,1.027066181936854505e+00,1.000000000000000048e-04,4.445874710130934915e+01,1.400000000000000133e-01
-2.896925746725921069e+00,2.896831750521000615e-01,3.560237243625727910e-01,1.000000000000000048e-04,4.139598828841000255e+01,1.900000000000000022e-01
-4.326824554446488946e-01,-3.317815558288836897e-01,6.333860181625432517e-01,1.000000000000000048e-04,4.284300097883897962e+01,1.499999999999999944e-01
-2.024542538684377391e+00,-5.445308341976680122e-01,1.736151038496189791e-01,1.000000000000000048e-04,3.939884134337816590e+01,1.900000000000000022e-01
-1.357027321507982887e+00,-1.768045932042763280e-01,2.016156755520872590e-01,1.000000000000000048e-04,4.008914695113458748e+01,1.700000000000000122e-01
2.554092073009773145e+00,6.791842013356808039e-03,7.268643717146803240e-01,1.000000000000000048e-04,4.315426620148649306e+01,1.100000000000000006e-01
2.222416748481616189e+00,-3.348973178004599482e-02,5.771083003686794388e-01,1.000000000000000048e-04,4.212590457802904353e+01,2.000000000000000111e-01
2.562170600169459966e-01,9.314896647928172513e-03,3.699439190915392306e-01,1.000000000000000048e-04,4.159172978317980807e+01,1.700000000000000122e-01
1.942994429841559345e+00,-3.247040114435979508e-01,1.038369643187960545e+00,1.000000000000000048e-04,4.417987382709914357e+01,1.100000000000000006e-01
-1.477415219986934591e+00,-3.870997634933790454e-01,1.242133762863055768e-01,1.000000000000000048e-04,3.880212271124796075e+01,1.700000000000000122e-01
6.156834355504043899e-01,-8.857566556333967833e-01,1.434668370033609364e-01,1.000000000000000048e-04,3.910416748767080719e+01,1.600000000000000033e-01
-3.794137018350469681e-01,1.322627096029951321e-01,6.185613824017728302e-01,1.000000000000000048e-04,4.303573963838771732e+01,2.200000000000000011e-01
1.484430695561567148e-02,-4.341973788739299511e-01,3.995115428421116555e-01,1.000000000000000048e-04,4.154603981311189642e+01,2.800000000000000266e-01
3.474907528693660375e-01,-7.430083019997639759e-01,7.955057520174002583e-01,1.000000000000000048e-04,4.356708490938635947e+01,2.099999999999999922e-01
-3.017564823719269373e+00,-7.115933196211843281e-03,2.777722158007844833e-01,1.000000000000000048e-04,4.067412562814927668e+01,2.899999999999999800e-01
3.057740431702995032e+00,-9.103332931049726851e-01,5.902596144386396126e-01,1.000000000000000048e-04,4.276120020654926179e+01,1.400000000000000133e-01
-3.262436052518613572e-01,1.218432824186836960e-01,1.209560329452155081e-01,1.000000000000000048e-04,3.891438754270025413e+01,1.600000000000000033e-01
3.052880294443283127e+00,2.512234168216413988e-01,6.670358684133770311e-01,1.000000000000000048e-04,4.285449139029891086e+01,2.099999999999999922e-01
4.782836467215871856e-01,-4.099979673953950687e-01,3.566093047651284209e-01,1.000000000000000048e-04,4.112387750171490808e+01,2.600000000000000089e-01
-2.538921879586427011e+00,-7.088087078199047930e-01,1.002787619390580254e+00,1.000000000000000048e-04,4.412841455473416374e+01,1.400000000000000133e-01
1.444814853176633385e+00,-2.247371246686593604e-01,2.447820335383006363e-01,1.000000000000000048e-04,4.069991831807539739e+01,1.600000000000000033e-01
-2.002626034828787205e-01,-1.136350823731516524e+00,7.521110694266188723e-01,1.000000000000000048e-04,4.346378018778102614e+01,2.000000000000000111e-01
1.418770929550459137e-01,7.961424266726369048e-01,2.740227472886713755e-01,1.000000000000000048e-04,4.063533818083367066e+01,2.099999999999999922e-01
1.367755395987222400e+00,-6.867856831751701918e-01,2.873505704111343206e-01,1.000000000000000048e-04,4.081354452613112471e+01,1.700000000000000122e-01
1.420813801088169903e+00,6.813431851158591179e-01,3.847681278785568537e-01,1.000000000000000048e-04,4.178482109045622650e+01,1.499999999999999944e-01
-4.494277108442261692e-01,6.353345162137600255e-01,6.140400022955299075e-01,1.000000000000000048e-04,4.272926537888761800e+01,1.700000000000000122e-01
-1.131317253592131866e+00,-4.930153154088667833e-02,3.479019252548212204e-01,1.000000000000000048e-04,4.139331312640287308e+01,1.400000000000000133e-01
7.485401499139041626e-01,-8.242628680678287800e-01,2.436716820066431310e-01,1.000000000000000048e-04,4.030748249806564587e+01,1.499999999999999944e-01
2.831167330766905188e+00,-6.766535967505005189e-02,1.438557976663341620e-01,1.000000000000000048e-04,3.955699974537765939e+01,3.400000000000000244e-01
2.742956995818756738e+00,-7.449915613210694731e-01,3.714775787601516388e-01,1.000000000000000048e-04,4.161177960330110892e+01,1.700000000000000122e-01
-6.411094401546653110e-01,5.139740149754250531e-01,3.421756556895900747e-01,1.000000000000000048e-04,4.138361338145985258e+01,1.400000000000000133e-01
2.782077312259186641e+00,-7.727079659699918057e-01,2.669821220852974797e-01,1.000000000000000048e-04,4.055609220812205962e+01,1.799999999999999933e-01
-2.510291550455282295e+00,-8.589729413657121171e-02,2.255702293941364012e-01,1.000000000000000048e-04,4.004932735819861733e+01,1.900000000000000022e-01
1.907873415311162724e+00,-1.005638220644836656e+00,4.498624127597636857e-01,1.000000000000000048e-04,4.227100112804527043e+01,1.499999999999999944e-01
-1.027840944647368637e+00,-6.812406797382859480e-01,1.882703285583868791e-01,1.000000000000000048e-04,3.977992874414665891e+01,1.700000000000000122e-01
-1.268649853532268557e+00,3.002180112685157720e-01,4.331865961879162175e-01,1.000000000000000048e-04,4.191489732451092465e+01,1.600000000000000033e-01
1.279772644531404602e+00,4.171022325908160244e-01,6.983461823961714110e-01,1.000000000000000048e-04,4.305934217513211593e+01,1.499999999999999944e-01
-2.938555237938502707e+00,-5.980270682472268451e-01,6.384616449924687132e-01,1.000000000000000048e-04,4.268012844494303692e+01,1.700000000000000122e-01
-1.699718192940288475e+00,-5.033369471269346640e-01,4.430541226457913595e-01,1.000000000000000048e-04,4.195985593519379364e+01,1.600000000000000033e-01
2.080008647675372302e+00,-8.356642478690878839e-01,5.919856155602873926e-01,1.000000000000000048e-04,4.296976210827966014e+01,2.899999999999999800e-01
8.262853982330007341e-01,-8.324918186933261133e-02,1.932928380181107020e-01,1.000000000000000048e-04,3.992908514251188024e+01,1.400000000000000133e-01
1.467267716614145456e+00,-3.893419779253917135e-01,4.229500864972108864e-01,1.000000000000000048e-04,4.178913167067484835e+01,1.499999999999999944e-01
-3.108892744260043806e+00,1.739908850883244984e-01,7.736765388943158683e-01,1.000000000000000048e-04,4.339717592976507632e+01,1.900000000000000022e-01
1.600730144939729982e+00,-1.294440286198744738e+00,2.250759776739181817e-01,1.000000000000000048e-04,4.012649289162499855e+01,2.500000000000000000e-01
-4.806685822427807508e-01,2.012561930138239141e-01,3.518010823493222805e-01,1.000000000000000048e-04,4.121101676071607756e+01,1.499999999999999944e-01
-1.887992528736307962e+00,-8.528221330050511639e-02,1.621495117693179111e-01,1.000000000000000048e-04,3.936521416674161600e+01,2.099999999999999922e-01
2.693651888450594001e+00,1.594012925621715038e-01,3.870550096030860310e-01,1.000000000000000048e-04,4.149926889377185546e+01,1.900000000000000022e-01
8.089678397667889875e-01,1.405358136478360720e-01,4.583070415316918833e-01,1.000000000000000048e-04,4.185486474028760284e+01,2.099999999999999922e-01
9.690717309210494790e-01,-5.604198385123813075e-01,3.289182335541400715e-01,1.000000000000000048e-04,4.156426970303514423e+01,2.099999999999999922e-01
2.251369101274972806e+00,7.116225791540458090e-01,2.470864800940382189e-01,1.000000000000000048e-04,4.038626028898309528e+01,1.499999999999999944e-01
-3.118803653364368156e+00,-1.354464581881561713e+00,1.423045161178546625e-01,1.000000000000000048e-04,3.900794096095589936e+01,1.400000000000000133e-01
-1.599806401335528427e-01,-9.547429925287580499e-01,2.554304196089347556e-01,1.000000000000000048e-04,4.101651716752048316e+01,3.800000000000000044e-01
6.886577223612619925e-01,5.633204989709219568e-01,1.666624362942097370e-01,1.000000000000000048e-04,3.893280406101001034e+01,2.200000000000000011e-01
2.907036894394615878e+00,-8.443451010053304451e-02,6.257516917360415043e-01,1.000000000000000048e-04,4.300943075644804736e+01,1.499999999999999944e-01
-2.627851701993634048e+00,3.973847372314047721e-01,5.874798129353271392e-01,1.000000000000000048e-04,4.262625824792051787e+01,1.700000000000000122e-01
2.732734460674783428e+00,8.503787379638443333e-01,5.714099873192601819e-01,1.000000000000000048e-04,4.301284241734453673e+01,1.700000000000000122e-01
2.059462867774125350e+00,4.651097750030004363e-01,6.697095043494925015e-01,1.000000000000000048e-04,4.331540162329809363e+01,2.600000000000000089e-01
6.526048795554952875e-01,-1.247436917654530797e+00,1.310472609074766481e-01,1.000000000000000048e-04,3.899953305184834562e+01,2.800000000000000266e-01
6.141668687983763419e-01,-6.332617673794750379e-01,5.053313790669355932e-01,1.000000000000000048e-04,4.231144476502012708e+01,1.799999999999999933e-01
-2.344572152148588717e+00,1.453690172216419274e+00,1.961369880010361832e-01,1.000000000000000048e-04,3.975271048043641287e+01,1.499999999999999944e-01
-1.792398003398992135e+00,4.802243799625238729e-01,1.637686318557098897e-01,1.000000000000000048e-04,3.939804489063023141e+01,2.200000000000000011e-01
9.035136999653499146e-01,-5.424543436148816511e-01,1.859718767371902892e-01,1.000000000000000048e-04,3.975596651575857976e+01,2.000000000000000111e-01
-5.257092201928110775e-01,-8.561235361707385527e-01,1.350589917934132966e-01,1.000000000000000048e-04,3.887220855860847024e+01,1.600000000000000033e-01
-1.984116729903950160e+00,-6.868789064425697699e-01,6.227406235705115201e-01,1.000000000000000048e-04,4.319603458129309814e+01,1.600000000000000033e-01
-1.651068846875363150e-01,-3.753873215409342379e-01,2.327793153357158307e-01,1.000000000000000048e-04,4.041360846876101220e+01,2.099999999999999922e-01
-1.480105712563811737e+00,1.137952014834672898e+00,4.824166164105434529e-01,1.000000000000000048e-04,4.207334684448608186e+01,2.899999999999999800e-01
1.441626597909193563e+00,-1.476307393097018084e+00,2.923040844110014191e-01,1.000000000000000048e-04,4.069618147562881916e+01,1.400000000000000133e-01
-3.011262881651518342e+00,-6.964357543960073560e-01,2.750852998104489355e-01,1.000000000000000048e-04,4.059556327196122538e+01,2.700000000000000178e-01
1.388685559519062807e-01,1.101107499874123263e+00,1.417413291257458852e-01,1.000000000000000048e-04,3.906090591805814682e+01,1.300000000000000044e-01
-1.324962342124826886e+00,7.539924690070201052e-01,2.698373870530255125e-01,1.000000000000000048e-04,4.080149716958466399e+01,1.700000000000000122e-01
3.936087433246595602e-01,-2.966164874895540482e-01,3.619885680753336388e-01,1.000000000000000048e-04,4.163561396358574740e+01,2.500000000000000000e-01
4.975902700885161956e-01,1.360604614490481534e-01,1.687085587155330302e-01,1.000000000000000048e-04,3.943370460292043589e+01,1.400000000000000133e-01
-1.781946048461741761e+00,-1.211643551614634440e+00,3.730028946275358859e-01,1.000000000000000048e-04,4.121959442867441226e+01,1.900000000000000022e-01
9.286530108456032551e-01,1.808352249194209449e-01,3.563343263039167041e-01,1.000000000000000048e-04,4.137132326795266124e+01,1.600000000000000033e-01
-2.784226977260900071e+00,-1.416264435682709655e+00,3.388463082709876062e-01,1.000000000000000048e-04,4.153963015491870436e+01,1.600000000000000033e-01
1.063665074449116510e+00,-3.901289038775339613e-01,4.788139703726226326e-01,1.000000000000000048e-04,4.235518354969779153e+01,2.700000000000000178e-01
2.522585051163201975e+00,4.499825745475596328e-01,8.581001672969723604e-01,1.000000000000000048e-04,4.363438020347955870e+01,1.499999999999999944e-01
2.726907633191959057e+00,1.243787232587337144e+00,5.666190831575992348e-01,1.000000000000000048e-04,4.258012117306227395e+01,1.600000000000000033e-01
2.998296694358987935e+00,-5.738664960969395157e-01,1.496701288631987481e-01,1.000000000000000048e-04,3.922005882092945228e+01,1.700000000000000122e-01
-7.190455537451190260e-01,-9.277285886952000293e-01,2.348488554509142734e-01,1.000000000000000048e-04,3.967015144314548536e+01,2.800000000000000266e-01
-1.855842248478017265e+00,-7.326390977436050278e-01,1.000939140922020520e+00,1.000000000000000048e-04,4.394428122380174528e+01,1.499999999999999944e-01
-9.644889639344507160e-01,6.867281656840824589e-01,2.407477901386370078e-01,1.000000000000000048e-04,3.972456659823936320e+01,3.099999999999999978e-01
-1.122016158597432867e+00,-4.045764881093047993e-01,3.294236234987795164e-01,1.000000000000000048e-04,4.147241903497676674e+01,2.200000000000000011e-01
-1.815942388093381377e+00,-1.118971318016647176e+00,4.735161341156817194e-01,1.000000000000000048e-04,4.224666556664691797e+01,2.700000000000000178e-01
-1.048329269429570942e-01,1.614207326818888344e-01,7.363162028476353260e-01,1.000000000000000048e-04,4.278416264514260803e+01,2.899999999999999800e-01
-2.736486525557687344e+00,-1.215105189248357753e-01,5.392668129765783025e-01,1.000000000000000048e-04,4.256858360262508256e+01,3.099999999999999978e-01
1.484361259227448215e+00,6.673087278412594969e-01,1.564850725706679047e-01,1.000000000000000048e-04,3.956323424686225110e+01,2.300000000000000100e-01
-1.045076574131496017e+00,9.881655878522912495e-01,4.255474235394927085e-01,1.000000000000000048e-04,4.195371032272900891e+01,2.200000000000000011e-01
-5.816317904873637978e-01,-7.007072472196799184e-01,2.850803348449639785e-01,1.000000000000000048e-04,4.069511242630684222e+01,2.300000000000000100e-01
4.421682986893054057e-01,-2.724772154695374038e-01,3.779612498819009403e-01,1.000000000000000048e-04,4.155756226402299092e+01,2.200000000000000011e-01
-6.882526483244166826e-01,-6.941473891308757027e-01,2.748902207840091538e-01,1.000000000000000048e-04,4.105191459447746638e+01,2.099999999999999922e-01
-2.455570140705140236e+00,1.563504771753145839e-01,3.870793574931705727e-01,1.000000000000000048e-04,4.142842996624185048e+01,2.300000000000000100e-01
1.158889871894804635e+00,-1.530517570914460945e+00,5.515470966608528869e-01,1.000000000000000048e-04,4.236716958569853375e+01,2.399999999999999911e-01
2.865090893827028751e+00,4.617493481096213159e-01,4.386135815977263430e-01,1.000000000000000048e-04,4.211148406043866999e+01,2.099999999999999922e-01
2.172510001489412979e+00,4.020796791466800801e-01,5.067167841447339782e-01,1.000000000000000048e-04,4.235103648307217838e+01,2.399999999999999911e-01
-2.959026372630449764e+00,-7.841010099796792421e-01,7.528446622985778269e-01,1.000000000000000048e-04,4.284814120843257967e+01,2.399999999999999911e-01
-2.688752460861957072e+00,3.727292061157196912e-01,2.101839506940923474e-01,1.000000000000000048e-04,4.028674645952463607e+01,2.800000000000000266e-01
-2.314748178916071542e+00,-1.842611703940173484e-01,4.593136421635914957e-01,1.000000000000000048e-04,4.184021304663951213e+01,2.000000000000000111e-01
1.941999348554376503e+00,1.302786770825381524e+00,1.439448726491838748e-01,1.000000000000000048e-04,3.922690593378999324e+01,2.200000000000000011e-01
2.660178732069364393e+00,-2.358656359990678464e-01,6.046632010484698228e-01,1.000000000000000048e-04,4.268980984912558085e+01,2.800000000000000266e-01
-2.418895149644114451e+00,-2.663743530697670892e-01,5.702299913076811499e-01,1.000000000000000048e-04,4.218685467570725223e+01,2.399999999999999911e-01
6.545316269444980684e-01,-1.309407797626493952e-01,1.047838518213805692e+00,1.000000000000000048e-04,4.391130768797172834e+01,2.300000000000000100e-01
2.378648816409736355e+00,-7.550937015700102117e-01,1.523542499105525749e-01,1.000000000000000048e-04,3.943231684618415045e+01,2.200000000000000011e-01
1.421828025397847917e+00,-3.068428967793555007e-01,7.800211561704204488e-01,1.000000000000000048e-04,4.305767286735640198e+01,2.200000000000000011e-01
2.703847102761085530e+00,-1.034451632219931305e+00,6.566947015429951406e-01,1.000000000000000048e-04,4.323188609071838329e+01,2.399999999999999911e-01
3.130720114977740387e+00,7.303624390050154069e-01,9.181273003994854243e-01,1.000000000000000048e-04,4.367740957495849585e+01,3.099999999999999978e-01
-1.835803932183836418e+00,-2.803089203820363640e-01,1.426130676011445608e-01,1.000000000000000048e-04,3.938287715908166575e+01,2.600000000000000089e-01
-1.234471276843596144e-02,3.207675877660993713e-01,4.946309836879720923e-01,1.000000000000000048e-04,4.245987855181443393e+01,3.099999999999999978e-01
2.053844492056455806e-01,-6.657159583196373687e-01,2.624859741348690712e-01,1.000000000000000048e-04,4.097958002802509725e+01,3.800000000000000044e-01
-8.952759714067495267e-01,1.835511500586028966e-02,6.496749961924952466e-01,1.000000000000000048e-04,4.345191117169804329e+01,2.500000000000000000e-01
-1.072760904271852667e+00,-3.684692530737276872e-01,3.011663985557553325e-01,1.000000000000000048e-04,4.086292637921965110e+01,2.300000000000000100e-01
1.189374117826528909e+00,-7.398447103664205216e-01,2.563967922393790566e-01,1.000000000000000048e-04,4.046040505616994665e+01,2.800000000000000266e-01
1.755785932110777381e+00,-9.799980732309292453e-01,3.037566887956850703e-01,1.000000000000000048e-04,4.135469485748857466e+01,3.699999999999999956e-01
-8.092820359360208826e-02,7.136463900584870679e-01,8.478410626578680720e-01,1.000000000000000048e-04,4.388839978193716007e+01,2.200000000000000011e-01
4.716978583713520301e-01,-5.195828269313647052e-01,7.672805400667355169e-01,1.000000000000000048e-04,4.355560765170854154e+01,2.600000000000000089e-01
2.234458565345120107e+00,-3.341126628312727220e-01,9.345370229160219200e-01,1.000000000000000048e-04,4.364339432672520047e+01,2.500000000000000000e-01
1.527242004644579154e+00,2.869122282942775382e-01,8.601615093444290316e-01,1.000000000000000048e-04,4.372107549199485277e+01,2.700000000000000178e-01
1.091038195897601426e+00,6.817603322518688280e-01,2.942929557343991753e-01,1.000000000000000048e-04,4.081061727029727138e+01,2.300000000000000100e-01
2.132287394141267889e+00,-4.389399183036157837e-01,7.752183126761629239e-01,1.000000000000000048e-04,4.333283308936504596e+01,2.300000000000000100e-01
-2.219663561334801916e+00,-4.948074805331874604e-01,1.708478555260437570e-01,1.000000000000000048e-04,3.923846701152571370e+01,3.200000000000000067e-01
-2.089327641817631864e+00,9.333560864693293269e-01,1.908026642967814990e-01,1.000000000000000048e-04,3.941624230754541003e+01,2.899999999999999800e-01
3.123482869471828849e+00,-1.078938093611652826e+00,2.851272517290577291e-01,1.000000000000000048e-04,4.084091633061279225e+01,2.600000000000000089e-01
-2.221858266257813241e+00,-4.821457915884186374e-01,3.044643441409933260e-01,1.000000000000000048e-04,4.108730367366426606e+01,2.899999999999999800e-01
-2.121261788997037989e+00,4.776306709089639391e-01,1.277660796292509282e+00,1.000000000000000048e-04,4.438642391861593950e+01,2.700000000000000178e-01
1.130005945023885516e+00,5.147080369802714550e-02,1.585607851622183873e-01,1.000000000000000048e-04,3.930479736311080785e+01,2.300000000000000100e-01
-3.000049513266971335e+00,9.658198240649813471e-01,6.472890717476853517e-01,1.000000000000000048e-04,4.310993855858230006e+01,2.800000000000000266e-01
2.596477675954261599e+00,-4.659069558844568526e-01,8.962981889259982182e-01,1.000000000000000048e-04,4.390823380015599042e+01,2.300000000000000100e-01
3.299597862309764373e-01,-1.535145153432282417e-01,8.365887568841741118e-01,1.000000000000000048e-04,4.349889844600796351e+01,2.200000000000000011e-01
-1.564661003588694310e+00,1.503482227441897301e+00,3.170539164511867458e-01,1.000000000000000048e-04,4.156694253035519893e+01,2.200000000000000011e-01
-2.099663972932974687e-02,1.187521264701289159e+00,1.252265472102398469e-01,1.000000000000000048e-04,3.934016738367090227e+01,2.099999999999999922e-01
2.906639464537108530e-01,6.316240873270961842e-02,2.596429841493861357e-01,1.000000000000000048e-04,4.049227831222744811e+01,2.200000000000000011e-01
-2.545787720302036927e+00,-2.524233391706356411e-01,8.458662493060782328e-01,1.000000000000000048e-04,4.370982359876006029e+01,2.899999999999999800e-01
-4.790850953879171037e-01,5.903616604708741278e-01,5.498665938300839606e-01,1.000000000000000048e-04,4.264370665477127886e+01,2.099999999999999922e-01
-1.493780702763475077e+00,7.934356136380653624e-01,5.125929954535839439e-01,1.000000000000000048e-04,4.237580401408486352e+01,2.300000000000000100e-01
-6.409347463103776121e-01,1.669052614989159355e-01,7.460333657004487584e-01,1.000000000000000048e-04,4.355982200457891196e+01,3.300000000000000155e-01
-2.174089473488559854e+00,-4.046407200721102715e-01,1.310934960758264545e+00,1.000000000000000048e-04,4.488941127200565262e+01,2.899999999999999800e-01
8.310611153535627516e-01,4.275291624580335181e-02,3.024772951955325695e-01,1.000000000000000048e-04,4.113009104262510363e+01,3.300000000000000155e-01
1.665751951430967992e+00,4.424970832527277409e-01,5.709107114054514653e-01,1.000000000000000048e-04,4.260747937607026614e+01,2.999999999999999889e-01
2.008931890347981586e+00,-6.381867128609436390e-01,3.669798993628738959e-01,1.000000000000000048e-04,4.165552039484134639e+01,2.600000000000000089e-01
-9.718843981309031044e-01,-2.277731417202155662e-02,1.024710295178806074e+00,1.000000000000000048e-04,4.443605835325156761e+01,3.300000000000000155e-01
1.106973243517602512e+00,8.489257610550393629e-02,1.433651151796253576e-01,1.000000000000000048e-04,3.921247204397481312e+01,2.500000000000000000e-01
-1.879578211570293256e+00,6.020053171434547323e-01,5.121595894924904080e-01,1.000000000000000048e-04,4.185725686867484541e+01,2.399999999999999911e-01
1.247228717540023624e+00,-8.055426670514422849e-01,7.631887225404585529e-01,1.000000000000000048e-04,4.375486932267371998e+01,3.900000000000000133e-01
-1.975891433429782129e+00,1.302218948785667241e+00,3.673425867249719978e-01,1.000000000000000048e-04,4.154594833226933304e+01,2.700000000000000178e-01
-9.979919950130793360e-01,-4.476403387037890536e-01,3.197108517340823131e-01,1.000000000000000048e-04,4.129513002858344350e+01,2.200000000000000011e-01
-1.036095549922686043e+00,-3.138832782602938298e-01,8.268662797909218654e-01,1.000000000000000048e-04,4.348397559522678790e+01,2.300000000000000100e-01
-2.453527206772607716e+00,7.084180551466676690e-01,2.820792548682840017e-01,1.000000000000000048e-04,4.098799456413409104e+01,2.500000000000000000e-01
1.582494333895600569e+00,-4.632874007565450647e-01,1.558268460153209301e-01,1.000000000000000048e-04,3.941445127272585580e+01,2.099999999999999922e-01
-4.304244327972348572e-01,5.331425750176217448e-01,8.741699612938274022e-01,1.000000000000000048e-04,4.378204895917046002e+01,2.099999999999999922e-01
8.768998244030612454e-01,3.681512568125717699e-01,1.681511523354668469e-01,1.000000000000000048e-04,3.965343071622802285e+01,2.999999999999999889e-01
2.785216093323270137e+00,7.077707593110305062e-01,6.129996626360794121e-01,1.000000000000000048e-04,4.289839032337220459e+01,2.200000000000000011e-01
-1.282010032031089208e+00,-3.180365472517765468e-03,3.238971572894797646e-01,1.000000000000000048e-04,4.109233683688407979e+01,2.099999999999999922e-01
-2.106487898629549882e+00,-1.048202333122910446e+00,1.300046782738519369e+00,1.000000000000000048e-04,4.513957862131420740e+01,2.300000000000000100e-01
-1.286870423870112745e+00,4.136222231679846928e-01,3.750825107285189475e-01,1.000000000000000048e-04,4.197504342908522545e+01,3.200000000000000067e-01
-1.614472946315140378e+00,3.895260346780697880e-01,2.158459751103516400e-01,1.000000000000000048e-04,4.029738609156416373e+01,2.600000000000000089e-01
-1.723030767163355792e+00,-8.936968222044633370e-01,7.153628535847986747e-01,1.000000000000000048e-04,4.335339525255555060e+01,2.000000000000000111e-01
-2.826357082070603877e+00,1.110753009378548928e-01,3.533537650180744727e-01,1.000000000000000048e-04,4.138597872541465250e+01,1.799999999999999933e-01
-3.445526982065305610e-01,8.978803816670750670e-01,2.316111670892728736e-01,1.000000000000000048e-04,4.026856832291409916e+01,2.999999999999999889e-01
-1.098011227058477424e+00,-1.451264881111937743e-01,3.078253693787724732e-01,1.000000000000000048e-04,4.098242136193842811e+01,2.399999999999999911e-01
3.049224584092569579e+00,2.457261112601747399e-01,1.488900169496050196e-01,1.000000000000000048e-04,3.896342957941086382e+01,2.300000000000000100e-01
-1.448589149875325610e-01,8.160996961720590193e-01,8.658057982429865351e-01,1.000000000000000048e-04,4.324161536038283060e+01,2.200000000000000011e-01
-2.499494701787027040e+00,-3.488466802107106357e-01,3.530242158612404424e-01,1.000000000000000048e-04,4.149493370624316668e+01,2.300000000000000100e-01
-8.595736419785668936e-01,-1.102969146185627913e+00,2.128040741305716743e-01,1.000000000000000048e-04,4.010296480282806897e+01,2.300000000000000100e-01
1.020833706704060262e+00,-5.858204367091504050e-01,1.180914254196284929e+00,1.000000000000000048e-04,4.442036955745538052e+01,2.600000000000000089e-01
-2.400712836643782211e+00,7.693852707984905059e-02,4.798944621733394200e-01,1.000000000000000048e-04,4.234061458962239044e+01,2.099999999999999922e-01
6.169456998651190460e-02,-1.146363764168686350e+00,5.494278003510402186e-01,1.000000000000000048e-04,4.176138804821939488e+01,2.899999999999999800e-01
1.139221758997230438e+00,1.329947790455423551e-01,1.256407935615353910e+00,1.000000000000000048e-04,4.464048431733196765e+01,2.000000000000000111e-01
5.119114764792498384e-01,7.462109066724806894e-01,3.520013330693183562e-01,1.000000000000000048e-04,4.094314812590909014e+01,2.500000000000000000e-01
2.003703638422751787e+00,-1.321526405180436736e+00,2.497990052867926636e-01,1.000000000000000048e-04,4.021065879236203244e+01,2.099999999999999922e-01
-1.222795534947384022e+00,4.843542605770037035e-01,3.266483988338908517e-01,1.000000000000000048e-04,4.111783297357973055e+01,2.300000000000000100e-01
2.504845671103912430e+00,7.063626486299630081e-01,2.220877390357978154e-01,1.000000000000000048e-04,4.037827626272941473e+01,2.200000000000000011e-01
1.393203655725107737e+00,-3.065650465546738701e-01,3.375634694742739583e-01,1.000000000000000048e-04,4.134821456851101118e+01,2.399999999999999911e-01
1.129961781532588638e+00,2.529653166980407875e-01,3.486757897709198417e-01,1.000000000000000048e-04,4.122028443704941481e+01,2.500000000000000000e-01
9.865306628573771164e-01,-4.887290561493300434e-01,1.339649680387332342e+00,1.000000000000000048e-04,4.506159942382016226e+01,2.200000000000000011e-01
4.218668758360353266e-01,-6.035113238245466416e-01,2.737931645695548255e-01,1.000000000000000048e-04,4.069036468078208202e+01,3.300000000000000155e-01
-1.135906424840691376e+00,7.048723055848711283e-01,5.217179488187575487e-01,1.000000000000000048e-04,4.249375784114587873e+01,2.000000000000000111e-01
1.210164559261918349e+00,-1.317348949974578742e+00,1.932987331605002801e-01,1.000000000000000048e-04,4.019843013531746578e+01,2.600000000000000089e-01
8.873719399500190619e-01,-3.174980166624910005e-01,2.186438818058675793e-01,1.000000000000000048e-04,4.024727929395995574e+01,2.399999999999999911e-01
-4.772912186892845909e-01,6.270078390223070564e-01,6.925737271019574148e-01,1.000000000000000048e-04,4.292521086544911668e+01,2.399999999999999911e-01
3.508247165335105500e-01,-3.489393706465921952e-01,3.382570055973408429e-01,1.000000000000000048e-04,4.153650641231186569e+01,2.600000000000000089e-01
6.117401521274268283e-01,-9.509800978628445423e-01,6.666045781829641470e-01,1.000000000000000048e-04,4.288532144067604435e+01,2.399999999999999911e-01
-1.335522464936246267e+00,9.042290116344458006e-01,7.463471890944703979e-01,1.000000000000000048e-04,4.358814425748194310e+01,2.000000000000000111e-01
-1.642661562712269374e+00,-3.699738209261602684e-01,2.061977939004298044e-01,1.000000000000000048e-04,3.997237545860956232e+01,3.699999999999999956e-01
-2.274868988264509895e+00,5.964628078610285655e-01,3.031768239731085224e-01,1.000000000000000048e-04,4.112497714014469352e+01,3.099999999999999978e-01
2.414403122295659010e+00,5.512522420585508343e-01,2.165228096635698485e-01,1.000000000000000048e-04,4.012450198157513626e+01,2.399999999999999911e-01
-1.158971793157253405e+00,8.306149287110717871e-01,7.636089865792676790e-01,1.000000000000000048e-04,4.362574210572318378e+01,2.099999999999999922e-01
-8.564925615449130447e-01,-6.510887877529549783e-01,1.254254112540538202e-01,1.000000000000000048e-04,3.921843367000151659e+01,2.800000000000000266e-01
9.993195868089941314e-01,4.842728426520679363e-01,9.854334769899766311e-01,1.000000000000000048e-04,4.362750952865073373e+01,2.800000000000000266e-01
-2.565583945075996741e+00,8.991574013482446226e-01,3.657086554933846045e-01,1.000000000000000048e-04,4.136619870139352173e+01,2.099999999999999922e-01
1.099940788894704369e-01,-1.585793450020691608e-01,5.289547599593833471e-01,1.000000000000000048e-04,4.217865642416940375e+01,2.300000000000000100e-01
-4.167110222651237983e-01,-2.880755547330624555e-01,3.075765727284247575e-01,1.000000000000000048e-04,4.096671790944246538e+01,2.000000000000000111e-01
6.177167639886076422e-01,1.158474245421316162e+00,4.514220614200388226e-01,1.000000000000000048e-04,4.206941007886946693e+01,1.000000000000000056e-01
4.226208377627957979e-01,4.023719666175629150e-01,4.235772667175934370e-01,1.000000000000000048e-04,4.178536212054093113e+01,1.199999999999999956e-01
1.348806936916924215e+00,-9.054503911828587492e-01,2.171372512510703068e-01,1.000000000000000048e-04,4.018885527595614349e+01,8.999999999999999667e-02
1.277715435068939698e+00,-3.717485244238494246e-01,6.044299349962432011e-01,1.000000000000000048e-04,4.278434708880512716e+01,1.400000000000000133e-01
1.688182682877202190e+00,-6.141975932066514599e-01,3.543974157173002126e-01,1.000000000000000048e-04,4.129302270001707598e+01,2.000000000000000111e-01
1.499156652348037078e-01,4.928360816334924621e-01,3.500762427160784007e-01,1.000000000000000048e-04,4.155957586375826907e+01,1.900000000000000022e-01
3.355843821351771616e-01,1.314541451845080644e+00,1.356412337858405870e-01,1.000000000000000048e-04,3.891123386976283172e+01,1.700000000000000122e-01
2.493943193166931138e+00,-7.888961685332886997e-01,1.678061849337217915e-01,1.000000000000000048e-04,3.947929257062459385e+01,3.499999999999999778e-01
-1.587357009664622787e-01,9.770965549264918337e-01,1.159773486791715769e+00,1.000000000000000048e-04,4.424089180799578003e+01,1.700000000000000122e-01
-2.648549904162647017e+00,-1.738738236622789923e-01,3.139973672547911043e-01,1.000000000000000048e-04,4.107238382732321469e+01,1.900000000000000022e-01
-4.526222868328271254e-01,-1.901255804080312917e-01,7.767273598977519899e-01,1.000000000000000048e-04,4.315145251205508004e+01,1.900000000000000022e-01
