1.170408405226004867e+00,-3.842004265685610154e-01,5.776680729563592465e-01,1.000000000000000048e-04,4.257041595519260113e+01,1.700000000000000122e-01
-1.598050568899375357e+00,-4.616240669392164264e-01,2.623254321620118734e-01,1.000000000000000048e-04,4.056773115014702569e+01,1.600000000000000033e-01
-1.319230720180874394e+00,8.295305867889104512e-01,1.914668196666791111e-01,1.000000000000000048e-04,3.987877085513717645e+01,1.600000000000000033e-01
6.112810089744842301e-01,2.946586716416079721e-01,6.712146363676112504e-01,1.000000000000000048e-04,4.321049091539369869e+01,1.600000000000000033e-01
-7.302574679505906552e-01,-8.356112988293056265e-01,1.335049018399621090e+00,1.000000000000000048e-04,4.494266749225830893e+01,1.900000000000000022e-01
1.353343768412480941e+00,7.477279161270171670e-01,6.504071049267843296e-01,1.000000000000000048e-04,4.306558606009791390e+01,1.600000000000000033e-01
2.148351868040232482e+00,2.828903821612125391e-01,8.167645248479806774e-01,1.000000000000000048e-04,4.360092031248824895e+01,1.700000000000000122e-01
-2.212696492907993306e+00,-5.183878880433778757e-01,1.288831002953632510e+00,1.000000000000000048e-04,4.469003378163371565e+01,1.600000000000000033e-01
-7.801114717006623067e-01,-1.101269421195453013e+00,5.134747141981936824e-01,1.000000000000000048e-04,4.257385773233252735e+01,1.600000000000000033e-01
1.233461909324313766e+00,3.185391953445975144e-01,1.261913528954592856e+00,1.000000000000000048e-04,4.468226706969638684e+01,2.200000000000000011e-01
-9.059739998308691256e-02,7.509972741484891579e-01,6.610279078655465490e-01,1.000000000000000048e-04,4.301102841766233809e+01,8.999999999999999667e-02
2.794440866089074049e+00,7.709157431405446737e-01,1.508673027387021914e-01,1.000000000000000048e-04,3.929905051215895639e+01,8.000000000000000167e-02
-9.001328536640240685e-02,-3.189240386185929754e-01,2.032376896512164688e-01,1.000000000000000048e-04,4.010635696224805002e+01,1.100000000000000006e-01
-4.614042703289591429e-01,9.792017140121549446e-01,1.670587342088167837e-01,1.000000000000000048e-04,3.957870639757830133e+01,1.600000000000000033e-01
2.403354743411676431e+00,-5.842570749920423800e-01,9.070301221730623364e-01,1.000000000000000048e-04,4.369619881973737563e+01,1.300000000000000044e-01
-9.990357335008028805e-01,-7.871778810455842823e-02,1.848402070274943743e-01,1.000000000000000048e-04,3.957287651284442376e+01,8.999999999999999667e-02
-2.357345312442264085e+00,6.404132161601951978e-01,1.826330541764653592e-01,1.000000000000000048e-04,3.949207703311125073e+01,2.099999999999999922e-01
-1.395961178154587090e+00,-1.080732017395691358e+00,3.926359833756833950e-01,1.000000000000000048e-04,4.171250256467263284e+01,1.799999999999999933e-01
-1.343212973160482715e+00,-8.899018748113491917e-01,1.344709721655604096e+00,1.000000000000000048e-04,4.514343110031882844e+01,1.600000000000000033e-01
7.348047587281474335e-01,-1.015534700824026526e+00,2.018732151115878448e-01,1.000000000000000048e-04,4.020599850694170385e+01,1.799999999999999933e-01
-2.354660979493102158e+00,4.187094903258714584e-01,2.138387396320178269e-01,1.000000000000000048e-04,4.004790510995630370e+01,1.600000000000000033e-01
3.760185294416436008e-01,-1.335408145754199971e-01,1.354982089155107872e-01,1.000000000000000048e-04,3.938772136971616078e+01,2.000000000000000111e-01
-1.791015646260867733e+00,9.792891433125840983e-01,5.060526725169529616e-01,1.000000000000000048e-04,4.198719964477456301e+01,1.700000000000000122e-01
2.089818055350928461e+00,-6.763728734167973045e-02,1.984400828219541335e-01,1.000000000000000048e-04,3.994925407511312443e+01,1.700000000000000122e-01
8.407339620399394420e-01,-9.359567827057795331e-01,2.239369744249741778e-01,1.000000000000000048e-04,4.047808053840083176e+01,1.700000000000000122e-01
2.024679058859989667e+00,-3.925320987329643518e-01,4.230215529991150358e-01,1.000000000000000048e-04,4.192330706309648036e+01,2.000000000000000111e-01
-1.049785335330263525e+00,1.989438495107265226e-02,4.882636945929876848e-01,1.000000000000000048e-04,4.219411716913167254e+01,1.900000000000000022e-01
1.282568567261485271e+00,-6.321816053998396967e-03,1.892453785211465345e-01,1.000000000000000048e-04,3.991899460041285863e+01,1.700000000000000122e-01
2.917958350511190346e+00,5.489651695158355160e-01,1.709413602364449059e-01,1.000000000000000048e-04,3.941739652991003595e+01,1.000000000000000056e-01
2.708831471559038917e+00,-4.213032127426143969e-01,5.125516719975218294e-01,1.000000000000000048e-04,4.232951854921750368e+01,1.000000000000000056e-01
2.697034903228512803e+00,-5.826798627685790821e-01,3.752006220753472121e-01,1.000000000000000048e-04,4.158049277703968727e+01,1.100000000000000006e-01
-5.074105419738836886e-01,-2.884621266049489652e-01,4.255738876263770454e-01,1.000000000000000048e-04,4.208440549999307478e+01,1.199999999999999956e-01
2.183679978130266264e+00,-1.517619752306598402e+00,1.799222868247820628e-01,1.000000000000000048e-04,3.955886877149558245e+01,1.300000000000000044e-01
9.536711945430971227e-01,-6.566775013229104729e-01,1.875396918279170766e-01,1.000000000000000048e-04,3.978822361580333933e+01,1.199999999999999956e-01
2.698003063502052434e-01,1.993934378435349153e-01,2.583300145358184974e-01,1.000000000000000048e-04,4.030905467336108217e+01,1.499999999999999944e-01
2.270161802882353363e-01,-5.759014102169313087e-01,2.330184002112225539e-01,1.000000000000000048e-04,4.030041138947618862e+01,2.200000000000000011e-01
-2.887798692936177414e+00,-5.462769129546722890e-01,1.364808660917544714e-01,1.000000000000000048e-04,3.905185546096194571e+01,1.199999999999999956e-01
-1.691618491176552608e+00,1.419408855641084877e+00,2.417211198274753503e-01,1.000000000000000048e-04,4.056444218049372807e+01,1.600000000000000033e-01
6.379445641433623138e-01,9.609211796402949979e-01,5.195338528255977195e-01,1.000000000000000048e-04,4.265015238719688284e+01,2.200000000000000011e-01
-9.790200203978280946e-01,9.411269363087360063e-02,1.270915773768559465e-01,1.000000000000000048e-04,3.898897512222495010e+01,2.200000000000000011e-01
-1.828433286774849176e+00,-6.315753960870815753e-01,3.742243788327179743e-01,1.000000000000000048e-04,4.162888645703861101e+01,1.300000000000000044e-01
-1.702436637869901626e+00,4.669628727825605452e-01,6.300962832004752823e-01,1.000000000000000048e-04,4.273844035106673545e+01,1.600000000000000033e-01
1.917065496141168168e+00,-1.004862071774827115e+00,5.606861873654951367e-01,1.000000000000000048e-04,4.269596147355245819e+01,2.099999999999999922e-01
-2.434931229677558928e+00,7.296792390776842829e-01,3.019437787861196654e-01,1.000000000000000048e-04,4.099717239166133709e+01,2.000000000000000111e-01
2.767983319563176892e+00,9.410428303664417626e-01,1.976414960856316405e-01,1.000000000000000048e-04,4.006431020552586375e+01,2.000000000000000111e-01
-2.851115438595064333e-02,-5.796854398507257367e-01,2.906821749618806461e-01,1.000000000000000048e-04,4.076751558182903068e+01,2.500000000000000000e-01
1.054763237953265431e+00,-1.934191513369332149e-02,2.884325184013523113e-01,1.000000000000000048e-04,4.104818620460682865e+01,2.200000000000000011e-01
4.481734560678445334e-01,1.027780748469448113e+00,3.662276941735254088e-01,1.000000000000000048e-04,4.144528151346331413e+01,1.199999999999999956e-01
-2.311433843705638314e+00,9.353663365429270016e-01,6.384058329365054352e-01,1.000000000000000048e-04,4.300886354334333816e+01,1.400000000000000133e-01
-1.496600074730414898e+00,-4.400685961940422608e-01,7.274245421702689729e-01,1.000000000000000048e-04,4.316788799414013766e+01,1.400000000000000133e-01
2.294752396604908817e-01,-6.834996743839543143e-01,3.773751832625296121e-01,1.000000000000000048e-04,4.164091562298406046e+01,1.100000000000000006e-01
-3.284872452103360096e-01,-3.341427828305969516e-01,1.630240801339279955e-01,1.000000000000000048e-04,3.941499491163867930e+01,1.199999999999999956e-01
2.055175333902984569e+00,-1.482681490619231157e+00,2.118215388855428927e-01,1.000000000000000048e-04,4.031119304715622320e+01,2.000000000000000111e-01
-1.540903881731119363e+00,6.030463617177637126e-01,2.122674668271515852e-01,1.000000000000000048e-04,4.015888041296808098e+01,1.199999999999999956e-01
2.012407061431271238e+00,-4.594077894730907996e-01,5.939537090285502696e-01,1.000000000000000048e-04,4.231102145272535608e+01,1.499999999999999944e-01
3.477816540314173643e-01,-1.162402176135053367e+00,6.154584668079190468e-01,1.000000000000000048e-04,4.287883918881193779e+01,1.499999999999999944e-01
-1.888494113685768472e+00,-1.283498584802431619e-01,1.572922522870396911e-01,1.000000000000000048e-04,3.925770937164009666e+01,1.100000000000000006e-01
-2.627996300616146641e+00,-3.081268568728039448e-01,3.914340412195136398e-01,1.000000000000000048e-04,4.148716995285314368e+01,1.199999999999999956e-01
-4.277077472749502007e-02,3.016523449958288250e-01,5.059387539934339095e-01,1.000000000000000048e-04,4.217340588866186124e+01,1.300000000000000044e-01
1.094175993875495578e+00,5.486810414564775584e-01,5.880853188199066661e-01,1.000000000000000048e-04,4.291183598446524172e+01,1.300000000000000044e-01
2.614563697697559697e+00,7.535543956553003575e-02,3.860075171939854055e-01,1.000000000000000048e-04,4.175386956832900864e+01,1.100000000000000006e-01
2.878904134376121249e-01,-2.437606855338247946e-01,1.316406546862538995e+00,1.000000000000000048e-04,4.482336961068871517e+01,1.600000000000000033e-01
6.213142940429716710e-01,-9.270104712472450048e-01,6.636704183143347091e-01,1.000000000000000048e-04,4.301760090102850143e+01,1.199999999999999956e-01
-8.624762520244022568e-01,3.503859613282869212e-01,2.506648158362752010e-01,1.000000000000000048e-04,4.052145343987265846e+01,1.300000000000000044e-01
-7.559401441876980599e-01,-1.247013338002973093e+00,2.897304579535409097e-01,1.000000000000000048e-04,4.106707132111195335e+01,1.199999999999999956e-01
-4.918320771856015128e-01,6.441210331919644538e-01,4.589839360649936584e-01,1.000000000000000048e-04,4.222430750432580737e+01,1.700000000000000122e-01
1.023854258834357545e+00,1.512664408112576186e-01,4.329422438199228562e-01,1.000000000000000048e-04,4.195432204551488553e+01,1.100000000000000006e-01
-2.355439910058116926e+00,4.449009032883388670e-01,1.281594566609155716e+00,1.000000000000000048e-04,4.479896978457082213e+01,1.100000000000000006e-01
-5.247139335690844675e-01,1.417826526020338207e-02,1.978434545816356582e-01,1.000000000000000048e-04,4.017688372382399109e+01,1.199999999999999956e-01
-2.148647999857473234e+00,-4.597260968315319829e-02,1.176829391774461886e+00,1.000000000000000048e-04,4.458368123403840144e+01,1.499999999999999944e-01
8.108776855228825298e-01,-9.185385944328183783e-02,1.584102629067005719e-01,1.000000000000000048e-04,3.938670750142135546e+01,1.199999999999999956e-01
2.930655259291343739e-01,4.630207981856200306e-01,2.213701463204391651e-01,1.000000000000000048e-04,4.010145721183851464e+01,1.400000000000000133e-01
-1.126573756544909877e+00,7.784917038401610867e-01,4.824233812600435822e-01,1.000000000000000048e-04,4.214700405182102827e+01,1.199999999999999956e-01
5.406859089391868878e-03,9.315461812288021726e-01,6.569990949114252743e-01,1.000000000000000048e-04,4.301352383001736968e+01,1.100000000000000006e-01
-7.009363505576398090e-01,-7.225621105787796150e-01,3.668092887865241902e-01,1.000000000000000048e-04,4.150625670188385641e+01,1.100000000000000006e-01
-2.619633198730044299e+00,-9.836817270905575672e-01,6.149781210597273784e-01,1.000000000000000048e-04,4.285702886348973095e+01,1.300000000000000044e-01
2.933580900984500417e-02,-4.501361799131293751e-01,4.700061384935807496e-01,1.000000000000000048e-04,4.230129327646752557e+01,1.400000000000000133e-01
5.048838474130259435e-01,1.458852185173153071e+00,2.494053376205584982e-01,1.000000000000000048e-04,4.054955393481463233e+01,1.199999999999999956e-01
2.487372371488013378e+00,3.259467484338838261e-01,5.389696894825306561e-01,1.000000000000000048e-04,4.233927189158967508e+01,1.100000000000000006e-01
2.163256780520182332e+00,7.554394861714119891e-02,2.064935747342930838e-01,1.000000000000000048e-04,4.008791018991731647e+01,1.199999999999999956e-01
5.912678837856244485e-01,3.133841574436675437e-01,1.762907186452065122e-01,1.000000000000000048e-04,3.977050695363504218e+01,1.199999999999999956e-01
2.621541941479765825e+00,1.078014070083312514e+00,2.905636883475932741e-01,1.000000000000000048e-04,4.101681559525689380e+01,1.300000000000000044e-01
-1.055964351006352331e+00,-8.373930270484504224e-01,3.978583504316142161e-01,1.000000000000000048e-04,4.178620482848076279e+01,1.199999999999999956e-01
2.295123625428342251e+00,-4.123462785085107996e-02,2.545322308647162135e-01,1.000000000000000048e-04,4.051104968048286281e+01,1.100000000000000006e-01
1.765247026294952448e+00,-6.399244125115646220e-01,2.818285415624961487e-01,1.000000000000000048e-04,4.081721362046493340e+01,1.199999999999999956e-01
1.026024395012973045e+00,-7.039506903837428053e-01,3.207503027346476632e-01,1.000000000000000048e-04,4.117907742269547100e+01,1.700000000000000122e-01
1.911412553674433745e+00,5.974699467441690892e-01,6.674675002442109761e-01,1.000000000000000048e-04,4.300830391587228263e+01,1.400000000000000133e-01
-3.113302357487753635e+00,-2.275898661307631521e-01,3.250422965156953836e-01,1.000000000000000048e-04,4.101722307463840878e+01,1.199999999999999956e-01
-1.180671664484317596e+00,1.074674010310377792e+00,1.340571931903178360e+00,1.000000000000000048e-04,4.483681329659472681e+01,1.600000000000000033e-01
1.817935106815284918e-01,4.687495147657561034e-01,4.010262136139597366e-01,1.000000000000000048e-04,4.177012007098741009e+01,1.700000000000000122e-01
-5.934356188717901937e-01,-7.611554635298036775e-01,6.692483247751286335e-01,1.000000000000000048e-04,4.303625758891102038e+01,1.499999999999999944e-01
2.769953771908046924e+00,-8.901589210039186906e-01,2.188439708774878589e-01,1.000000000000000048e-04,4.023240100460059665e+01,1.100000000000000006e-01
-1.445414183715204803e+00,-3.815855513996166959e-01,8.236745997438257305e-01,1.000000000000000048e-04,4.360680105217628011e+01,2.000000000000000111e-01
-5.252804880452059955e-01,-1.098842409286863608e+00,7.217054894717578328e-01,1.000000000000000048e-04,4.338214556838462954e+01,1.300000000000000044e-01
5.992160821478798027e-03,-1.110084841175644765e-01,1.956898904587061061e-01,1.000000000000000048e-04,4.012757286174160498e+01,1.499999999999999944e-01
1.121637986532260101e+00,1.331769611643380369e+00,2.307380996200967260e-01,1.000000000000000048e-04,4.031177401186267417e+01,1.100000000000000006e-01
1.455558677608452811e-01,3.283104693325629153e-01,1.222017015826744935e+00,1.000000000000000048e-04,4.472381352009699640e+01,1.199999999999999956e-01
-1.275219760017767712e+00,-4.146108605151581639e-01,5.572639355634128044e-01,1.000000000000000048e-04,4.261945633735373917e+01,1.100000000000000006e-01
4.221761752480319707e-01,-4.969733424923623577e-01,4.235510753318609822e-01,1.000000000000000048e-04,4.197383269394618566e+01,1.100000000000000006e-01
-1.057397234068468972e+00,8.171784735857419157e-01,9.131217452266622292e-01,1.000000000000000048e-04,4.412040806653900660e+01,2.099999999999999922e-01
-1.975001064828691089e+00,1.483473451179022629e-01,3.917209512590518194e-01,1.000000000000000048e-04,4.163371281925269329e+01,1.199999999999999956e-01
1.298206439049451433e+00,-2.456230764704765424e-01,3.414442085095990009e-01,1.000000000000000048e-04,4.120741436126580481e+01,1.199999999999999956e-01
4.259957639044937849e-01,-5.125738129384393993e-02,2.351047957428431534e-01,1.000000000000000048e-04,4.047935027983896106e+01,1.199999999999999956e-01
1.735669190975670517e+00,8.693500942985270541e-01,7.477543541503635094e-01,1.000000000000000048e-04,4.362500540270848859e+01,1.700000000000000122e-01
-2.288523015265032878e+00,-3.018233046230023309e-01,1.356808787041916542e-01,1.000000000000000048e-04,3.929716797907414616e+01,1.100000000000000006e-01
-1.909291372885092430e+00,1.203728275024827710e+00,3.401958782624734390e-01,1.000000000000000048e-04,4.104538041546748417e+01,2.099999999999999922e-01
-9.429130339857945131e-01,3.681677858928253944e-01,8.072898021301069260e-01,1.000000000000000048e-04,4.353994065011136172e+01,1.300000000000000044e-01
1.692404298138692198e-01,-7.602005796156318107e-01,2.333984333823442281e-01,1.000000000000000048e-04,4.032090365231254481e+01,1.199999999999999956e-01
5.609021460992460462e-01,-8.402829908400238912e-01,5.172838624317972478e-01,1.000000000000000048e-04,4.247175752088232059e+01,1.300000000000000044e-01
-1.082875439712787102e+00,-6.473333919222146182e-01,4.087976557999710714e-01,1.000000000000000048e-04,4.178121367793408325e+01,1.799999999999999933e-01
1.894029693689989635e+00,-7.832857745393908555e-01,4.035680682399107599e-01,1.000000000000000048e-04,4.183652042961671214e+01,1.199999999999999956e-01
-2.786689785757203275e+00,3.752552517175269386e-01,1.036233311603286911e+00,1.000000000000000048e-04,4.431719252336637282e+01,1.199999999999999956e-01
-2.279734146608017209e+00,4.401204799123537015e-02,6.191927149689941956e-01,1.000000000000000048e-04,4.302888606557177553e+01,1.900000000000000022e-01
1.593573673237760779e+00,-1.507799654998593919e-01,9.674066506162302126e-01,1.000000000000000048e-04,4.394931328236276613e+01,1.300000000000000044e-01
-2.564009432373898889e+00,-7.350751961096446685e-02,4.295003677621149762e-01,1.000000000000000048e-04,4.190424673654733567e+01,1.499999999999999944e-01
1.202256732408139683e+00,8.797598618563347017e-01,8.166503994969449565e-01,1.000000000000000048e-04,4.363784835947866014e+01,1.499999999999999944e-01
2.837877119302570250e+00,4.252175863669189759e-01,3.514025448777318150e-01,1.000000000000000048e-04,4.140032167650951322e+01,1.400000000000000133e-01
-1.672702888796278264e+00,3.672280895305182202e-01,3.891664077452645643e-01,1.000000000000000048e-04,4.146212210012988919e+01,1.400000000000000133e-01
3.733991109865617553e-01,-2.466184258893215908e-01,7.450354967309316123e-01,1.000000000000000048e-04,4.333651092001645821e+01,1.199999999999999956e-01
-1.667089246478624887e+00,3.803750062589441594e-01,1.227675159241614189e+00,1.000000000000000048e-04,4.452626316465767076e+01,1.199999999999999956e-01
2.842826602793655510e+00,-4.302767455742089187e-01,4.684185314840614289e-01,1.000000000000000048e-04,4.196120593363984597e+01,1.100000000000000006e-01
3.735950440787538795e-01,3.160164709893582557e-01,6.645437748756686247e-01,1.000000000000000048e-04,4.307584123430225986e+01,1.100000000000000006e-01
-1.673262589949240819e+00,-1.067163627076748167e+00,1.989790472774231045e-01,1.000000000000000048e-04,3.999033106918781044e+01,1.400000000000000133e-01
-1.413549189060336442e+00,-5.704197947538804936e-01,3.095825954995172768e-01,1.000000000000000048e-04,4.112807460580943086e+01,1.499999999999999944e-01
1.249972019895600361e+00,-1.345846130594208212e-02,3.530791913868114307e-01,1.000000000000000048e-04,4.149988192762014449e+01,1.199999999999999956e-01
2.521283169012719760e+00,-1.245156151729421179e+00,6.446789346088328543e-01,1.000000000000000048e-04,4.297737005483870831e+01,2.099999999999999922e-01
2.429316912054010125e+00,4.722248616080682027e-01,3.234232322939958326e-01,1.000000000000000048e-04,4.083920523129695113e+01,1.300000000000000044e-01
-4.371933575930522231e-01,-2.855236175143369692e-01,2.300211157062290734e-01,1.000000000000000048e-04,4.027085578930122978e+01,1.400000000000000133e-01
-1.667212302680489477e+00,9.116260846190096245e-01,1.064987145855083472e+00,1.000000000000000048e-04,4.441851593935915332e+01,1.199999999999999956e-01
-8.387496805182195203e-01,-7.330567332904615041e-01,8.735474671711531691e-01,1.000000000000000048e-04,4.378338473484009796e+01,1.199999999999999956e-01
-1.740296852956322082e+00,-7.287469065979479410e-02,1.321327634897520031e-01,1.000000000000000048e-04,3.903198789367714028e+01,1.100000000000000006e-01
1.722602257796058467e+00,8.421542136514368337e-01,6.086335902541224474e-01,1.000000000000000048e-04,4.290628371150222620e+01,1.300000000000000044e-01
1.616963085202818284e+00,-1.358712037384490756e-02,6.298233092875860084e-01,1.000000000000000048e-04,4.278567326804720494e+01,1.199999999999999956e-01
-2.861840292155515275e+00,1.357181614540747816e-01,2.705251061467055518e-01,1.000000000000000048e-04,4.094172032716711129e+01,1.199999999999999956e-01
-1.308720249155062021e-01,-3.050343953381429163e-01,5.137664692430135016e-01,1.000000000000000048e-04,4.233391488430221017e+01,1.300000000000000044e-01
-8.619663910361357040e-01,-6.623183095807233522e-01,1.431628706634420212e-01,1.000000000000000048e-04,3.933040316186443874e+01,1.300000000000000044e-01
-3.023338790697792877e+00,3.384068075555703992e-01,1.822454067802192768e-01,1.000000000000000048e-04,3.987333106600757304e+01,1.199999999999999956e-01
1.184148011816563262e+00,6.193804641368161334e-01,2.239238474719278393e-01,1.000000000000000048e-04,4.030594628601657092e+01,1.199999999999999956e-01
2.330760155180974458e+00,-6.133177239577791706e-01,6.427357088152669817e-01,1.000000000000000048e-04,4.298740397196151264e+01,1.300000000000000044e-01
2.070149860896314920e+00,-6.194972151305931929e-01,3.877968378706133645e-01,1.000000000000000048e-04,4.162144102962508185e+01,1.199999999999999956e-01
-1.158829100223275121e+00,1.201346229954927125e-01,3.725336623074135822e-01,1.000000000000000048e-04,4.153273556895224772e+01,1.199999999999999956e-01
-1.562890312680266680e+00,4.810023554842857152e-01,2.990849643733224372e-01,1.000000000000000048e-04,4.089032982355839607e+01,1.199999999999999956e-01
-1.893964361209456326e+00,1.940287272540044405e-01,2.359575804648286201e-01,1.000000000000000048e-04,4.015067962426361703e+01,1.499999999999999944e-01
-2.220527859496924439e+00,-4.511526235363381154e-01,7.343598100407289220e-01,1.000000000000000048e-04,4.331314643017688581e+01,1.199999999999999956e-01
1.306297563690944408e+00,4.517579988519515588e-01,2.132698109453414759e-01,1.000000000000000048e-04,4.004472476491351784e+01,2.000000000000000111e-01
6.493800348011435908e-01,-6.958901517486776322e-01,2.158231858517796198e-01,1.000000000000000048e-04,3.978050916558103722e+01,2.000000000000000111e-01
2.827237412212601164e+00,-5.411904851016857698e-02,7.499376484476012461e-01,1.000000000000000048e-04,4.316016630554641154e+01,1.400000000000000133e-01
2.399493116137248805e+00,-8.416117822748505617e-01,3.854989034278342164e-01,1.000000000000000048e-04,4.155935413133880019e+01,1.199999999999999956e-01
-5.817496315395276341e-01,-1.972517279813499336e-01,8.707508840463173971e-01,1.000000000000000048e-04,4.367793191400996022e+01,1.300000000000000044e-01
-4.466664428057027791e-01,-1.425759736101585906e+00,2.738244778305884974e-01,1.000000000000000048e-04,4.067486452688033438e+01,1.799999999999999933e-01
1.638997712802328088e-01,-3.940673610429177298e-01,1.099277028972547310e+00,1.000000000000000048e-04,4.458193666606462102e+01,1.499999999999999944e-01
3.490970795814209993e-01,-1.145170617349872355e+00,1.395100515797358387e-01,1.000000000000000048e-04,3.921171403641517372e+01,1.100000000000000006e-01
1.158242884159737862e+00,1.180158232726892464e+00,2.259346971569675677e-01,1.000000000000000048e-04,4.027950665176082623e+01,1.199999999999999956e-01
1.549328603126861381e+00,9.574499005446015509e-01,5.067115494937746156e-01,1.000000000000000048e-04,4.267423020005347212e+01,1.499999999999999944e-01
-2.490025875215667206e+00,-9.286815541547555064e-02,1.196574464060127241e-01,1.000000000000000048e-04,3.867081263846149142e+01,1.900000000000000022e-01
1.562453504652249414e+00,-1.014190772254098372e+00,4.106536960030295891e-01,1.000000000000000048e-04,4.181520094380433505e+01,1.799999999999999933e-01
-4.609535356255292093e-01,-2.712295094098906567e-01,3.555235781959273922e-01,1.000000000000000048e-04,4.132674969118350106e+01,1.499999999999999944e-01
1.638968873282816041e+00,4.464620836168586848e-02,2.147234800379103081e-01,1.000000000000000048e-04,4.001488761182680776e+01,1.499999999999999944e-01
2.239551259404783501e+00,1.116473564806104157e-01,8.410239063364226553e-01,1.000000000000000048e-04,4.420290949301394079e+01,3.599999999999999867e-01
2.474561264050255893e+00,-5.146087805489705236e-01,4.727850887423250548e-01,1.000000000000000048e-04,4.232671474841075110e+01,3.900000000000000133e-01
-2.722415730810120671e+00,1.078747028690158150e+00,3.171306393495527676e-01,1.000000000000000048e-04,4.107597346871467181e+01,3.900000000000000133e-01
-1.913568723673360727e+00,-1.361299249895522312e+00,1.072602519900971441e+00,1.000000000000000048e-04,4.407924665269275266e+01,3.099999999999999978e-01
2.266586885428117704e+00,2.247826791879221631e-01,6.567672097394945396e-01,1.000000000000000048e-04,4.269150116466527578e+01,3.300000000000000155e-01
2.841173303668520056e+00,-1.905874474890574266e-01,1.281464823717787471e+00,1.000000000000000048e-04,4.504689213610453891e+01,4.000000000000000222e-01
-3.790882932275958517e-01,-9.925942064530191011e-02,1.512902377896214734e-01,1.000000000000000048e-04,3.907980110621723924e+01,3.200000000000000067e-01
-1.047090601923862607e+00,-2.288365033965775730e-01,1.097862004985330930e+00,1.000000000000000048e-04,4.427934263057284880e+01,3.200000000000000067e-01
-1.672556222890819733e-01,-5.032470900956445004e-01,4.165780678808757020e-01,1.000000000000000048e-04,4.170863474830537854e+01,3.599999999999999867e-01
-3.063512552769142694e+00,7.201469907818154326e-01,2.175480899787356481e-01,1.000000000000000048e-04,4.042464367968200634e+01,2.399999999999999911e-01
-2.220813784422035475e-01,4.395185762876119284e-03,4.124084753434309469e-01,1.000000000000000048e-04,4.200922527820378605e+01,2.999999999999999889e-01
-1.942699440203103256e+00,2.609658105217129709e-01,4.740101947965333906e-01,1.000000000000000048e-04,4.211401894663262624e+01,2.399999999999999911e-01
-1.971228095934101532e+00,-1.200853289353935871e-01,5.754266066699904592e-01,1.000000000000000048e-04,4.294749651694644399e+01,2.899999999999999800e-01
1.789169402495738304e+00,-1.359643847672817873e-01,2.963962345661996789e-01,1.000000000000000048e-04,4.064299603075119904e+01,2.899999999999999800e-01
2.785259051794122698e+00,9.615432686599119094e-01,4.884757432403090682e-01,1.000000000000000048e-04,4.215887798134838249e+01,2.899999999999999800e-01
2.954558666284552437e-01,-3.846727845821362735e-01,2.516168979744275447e-01,1.000000000000000048e-04,4.107310145108424848e+01,3.699999999999999956e-01
2.578333750932742419e+00,5.083008551631231775e-01,1.791573811829345608e-01,1.000000000000000048e-04,4.002421791541451057e+01,2.300000000000000100e-01
3.113235243434480104e-01,-8.853094635496639997e-01,8.375655598694686788e-01,1.000000000000000048e-04,4.388894006573298157e+01,2.000000000000000111e-01
4.275084767674925956e-01,-3.199521942381469142e-01,7.684560030630287475e-01,1.000000000000000048e-04,4.376982310638871354e+01,3.800000000000000044e-01
1.228626132731626797e+00,6.700134912403243881e-02,5.536026425230335946e-01,1.000000000000000048e-04,4.244185746414936489e+01,2.300000000000000100e-01
3.074941662450979329e+00,4.046621252834252669e-01,3.170455476623110780e-01,1.000000000000000048e-04,4.099481507094578348e+01,3.900000000000000133e-01
-1.027308061601588829e+00,2.790371900938826144e-02,3.744767731442648628e-01,1.000000000000000048e-04,4.156068603378358972e+01,2.200000000000000011e-01
-6.784820444032688691e-01,2.136519713604201343e-02,8.403008397292806020e-01,1.000000000000000048e-04,4.355351975754687288e+01,2.399999999999999911e-01
2.163586899018214105e+00,-1.041254498437977016e+00,1.307967908661908041e+00,1.000000000000000048e-04,4.454920947350635174e+01,2.000000000000000111e-01
2.842197391097755599e+00,-3.529779697416441930e-01,3.680749347035940922e-01,1.000000000000000048e-04,4.133684007769948465e+01,1.900000000000000022e-01
-2.899857509174547321e+00,2.062292887827377186e-02,3.456989630779254696e-01,1.000000000000000048e-04,4.093869036368207048e+01,2.600000000000000089e-01
2.651437896395933969e-01,-8.605268689485395806e-01,1.643292766415964667e-01,1.000000000000000048e-04,3.952320296801742927e+01,1.900000000000000022e-01
3.106621077517046636e-01,1.088610387736988372e+00,3.703768222596253157e-01,1.000000000000000048e-04,4.163757262691009942e+01,1.000000000000000056e-01
-1.435613476735843053e+00,1.084990583393430352e+00,1.566231629884942134e-01,1.000000000000000048e-04,3.933619491228857612e+01,1.400000000000000133e-01
-1.409120823766691011e+00,-2.821699767999561459e-01,6.638495207682875154e-01,1.000000000000000048e-04,4.288177791166967978e+01,1.900000000000000022e-01
2.654809657351092866e+00,3.498758758866453711e-01,4.850892672577360454e-01,1.000000000000000048e-04,4.224721032248894659e+01,1.499999999999999944e-01
-1.861592903842739455e+00,1.643616455467356019e-01,9.518423709170709124e-01,1.000000000000000048e-04,4.426461305311536165e+01,1.900000000000000022e-01
2.930786063170656597e+00,1.097076721111209796e-01,2.848992124730138631e-01,1.000000000000000048e-04,4.056013149256457950e+01,1.700000000000000122e-01
2.906879204059129584e-01,9.678029009759914203e-02,4.476375659326727874e-01,1.000000000000000048e-04,4.198009571942326801e+01,1.100000000000000006e-01
1.552597040897191860e+00,-3.219708336793050130e-01,1.853781410210790792e-01,1.000000000000000048e-04,3.955832885690411871e+01,2.000000000000000111e-01
2.486582521579996374e+00,9.650636470646363207e-01,1.805703583755360331e-01,1.000000000000000048e-04,3.992206043629535372e+01,1.700000000000000122e-01
-2.038120374914375255e+00,-5.753217394693277420e-02,1.298091145452846540e+00,1.000000000000000048e-04,4.481134317173076198e+01,1.100000000000000006e-01
-9.576233763901438323e-01,-3.252610894173812994e-01,2.360462850599895912e-01,1.000000000000000048e-04,4.052193241813372993e+01,1.700000000000000122e-01
-1.339643532868450837e+00,1.169616073006567003e+00,8.002719059199570051e-01,1.000000000000000048e-04,4.381678057197940745e+01,1.600000000000000033e-01
2.420784072217125882e+00,7.525334430901469140e-01,6.457283648837621737e-01,1.000000000000000048e-04,4.308422137127065810e+01,2.200000000000000011e-01
7.311986845272588909e-01,-5.109219581633239748e-01,1.692555963197450719e-01,1.000000000000000048e-04,3.932936162901517463e+01,2.800000000000000266e-01
-1.061825749699113697e+00,-6.274318068329320930e-01,1.337615810543497652e-01,1.000000000000000048e-04,3.869145932492929774e+01,2.099999999999999922e-01
-2.128303537450348060e+00,-8.291865783024210401e-03,2.337427129574700668e-01,1.000000000000000048e-04,4.062274423530568868e+01,2.899999999999999800e-01
1.688967290657161335e+00,-6.216692040918123663e-01,2.590212194667298462e-01,1.000000000000000048e-04,4.061067871410516261e+01,1.400000000000000133e-01
-9.536112365057771711e-01,-1.145376120725565494e+00,1.871323651290621726e-01,1.000000000000000048e-04,3.964658484815952733e+01,1.600000000000000033e-01
2.715715135425098126e+00,-9.772592181160000280e-02,3.768982155996456473e-01,1.000000000000000048e-04,4.164432730695226326e+01,2.099999999999999922e-01
-2.743024309459025201e+00,1.467396175789392743e-02,3.740957014343269105e-01,1.000000000000000048e-04,4.144187316387659337e+01,2.600000000000000089e-01
5.819893077915332391e-01,3.287518706313552475e-01,2.479275801233999932e-01,1.000000000000000048e-04,4.045222177440732736e+01,1.400000000000000133e-01
-5.137677960043265379e-01,9.855702071911212059e-01,6.351207746265088439e-01,1.000000000000000048e-04,4.317288293949042099e+01,1.600000000000000033e-01
-8.094380269548753226e-01,-4.865370220862954564e-01,3.725475807002593953e-01,1.000000000000000048e-04,4.132295536002573044e+01,2.000000000000000111e-01
-2.725272728845305359e+00,2.319025587746719186e-01,7.381433118532807480e-01,1.000000000000000048e-04,4.315571124478990583e+01,2.099999999999999922e-01
1.412804524771149595e+00,7.783135455104899236e-01,4.401938284402506785e-01,1.000000000000000048e-04,4.191017331592458106e+01,1.700000000000000122e-01
-2.052257208382961551e+00,5.477610022232819453e-01,1.581516721436071471e-01,1.000000000000000048e-04,3.924768187022618804e+01,1.499999999999999944e-01
2.499973187823465004e+00,-1.022624870974208955e+00,1.305699203972283673e-01,1.000000000000000048e-04,3.905166310248026917e+01,1.700000000000000122e-01
3.333975517090794760e-01,3.117403694387503865e-01,3.292219689347071210e-01,1.000000000000000048e-04,4.129764065613149882e+01,1.400000000000000133e-01
2.470887393739604754e+00,1.040666983053506023e+00,2.059359571959749058e-01,1.000000000000000048e-04,4.023798844942481168e+01,1.499999999999999944e-01
5.401676511621609222e-01,6.565443232346486191e-01,4.807301419504008688e-01,1.000000000000000048e-04,4.193916396109701594e+01,3.400000000000000244e-01
-5.409274368633871788e-01,-7.011606235082634697e-02,1.847340107119395114e-01,1.000000000000000048e-04,3.957085552582933019e+01,1.700000000000000122e-01
-2.225650902049390645e+00,-1.808567671902752139e-01,4.480833276880076266e-01,1.000000000000000048e-04,4.197079586548648678e+01,1.400000000000000133e-01
5.983652007813269336e-01,4.890706352559819337e-01,2.482453532708064348e-01,1.000000000000000048e-04,4.085548739017529130e+01,1.799999999999999933e-01
-1.287463417478065253e+00,-9.015151257372236993e-01,1.477434579765610767e-01,1.000000000000000048e-04,3.930353416136793498e+01,1.900000000000000022e-01
-1.933261075093706705e+00,-1.237154221577907443e-01,7.167708754851203068e-01,1.000000000000000048e-04,4.324626213569121802e+01,1.499999999999999944e-01
2.890721763318245152e+00,-5.088352281635453167e-01,5.739374121072113866e-01,1.000000000000000048e-04,4.276037752541932235e+01,1.700000000000000122e-01
-2.027081467191217179e+00,5.806554401063843684e-01,8.269971231699464465e-01,1.000000000000000048e-04,4.365074828389073502e+01,1.600000000000000033e-01
6.846657945065652839e-01,4.564059573221004307e-01,1.444678526727023460e-01,1.000000000000000048e-04,3.910068070937175122e+01,1.499999999999999944e-01
6.860651822147159073e-01,6.304677546285182288e-01,2.320081699655798246e-01,1.000000000000000048e-04,4.040968828210878172e+01,1.700000000000000122e-01
-1.635391954559662908e+00,5.671419684747478485e-01,1.831285563606068756e-01,1.000000000000000048e-04,3.948598284106925149e+01,1.600000000000000033e-01
-2.290939969849908664e+00,6.178013981909393770e-01,1.223186230192470081e-01,1.000000000000000048e-04,3.923605353059251399e+01,2.899999999999999800e-01
-2.721151806450435195e+00,-7.427923069315722771e-03,5.280641186896393169e-01,1.000000000000000048e-04,4.238804184897054483e+01,1.400000000000000133e-01
1.367782075376169360e-01,-2.409479947184915982e-01,8.877398311993305313e-01,1.000000000000000048e-04,4.379506754831542992e+01,1.499999999999999944e-01
-3.182008248976853082e-03,-1.061459201133589492e+00,2.163909114276578727e-01,1.000000000000000048e-04,4.000760986286894649e+01,1.900000000000000022e-01
3.171514297906026236e-01,-1.153071781968760590e+00,8.454595564453841749e-01,1.000000000000000048e-04,4.335749267919666039e+01,2.500000000000000000e-01
1.168897534397196125e+00,-7.217048381726366424e-01,2.497336890861088232e-01,1.000000000000000048e-04,4.049577319662791552e+01,1.499999999999999944e-01
2.667625728968342713e+00,1.061280269510858520e+00,8.999738100306933219e-01,1.000000000000000048e-04,4.370020523829089143e+01,2.099999999999999922e-01
-3.830474539550587920e-01,6.943116062338994254e-03,3.557661677384715837e-01,1.000000000000000048e-04,4.089982819931871205e+01,1.900000000000000022e-01
2.114039228255612635e+00,-7.219729106583048228e-01,4.372407783786567137e-01,1.000000000000000048e-04,4.188852638830334740e+01,2.099999999999999922e-01
7.909413177508217707e-01,-6.745679808070922379e-01,3.206763868083077895e-01,1.000000000000000048e-04,4.072996900539996545e+01,2.099999999999999922e-01
-8.043382844044812963e-01,7.941357046248458396e-01,1.723608120712376568e-01,1.000000000000000048e-04,3.948164188489833748e+01,1.499999999999999944e-01
-2.836371039193037458e+00,6.282606446281895352e-01,1.228210916959810106e+00,1.000000000000000048e-04,4.474705732542788184e+01,1.400000000000000133e-01
-2.501358608942132467e+00,-1.528831188185333367e-01,1.272940447037973932e+00,1.000000000000000048e-04,4.499075342786665033e+01,3.800000000000000044e-01
4.299239758471928852e-02,-1.029795440441654275e-01,1.676789629215604815e-01,1.000000000000000048e-04,3.915101639914668397e+01,2.200000000000000011e-01
-2.852604781589787475e+00,9.654151759720259740e-01,2.614629708325078017e-01,1.000000000000000048e-04,4.053836009220060532e+01,1.499999999999999944e-01
-1.430104065125280099e+00,-1.996753639272739189e-01,3.410639380210136462e-01,1.000000000000000048e-04,4.134361486638743344e+01,1.700000000000000122e-01
2.712758950594382767e+00,6.919801328258183837e-01,2.448180085360989189e-01,1.000000000000000048e-04,4.023972512152916181e+01,1.700000000000000122e-01
5.141652395110050122e-01,-2.600656702552983646e-01,3.427308057146238873e-01,1.000000000000000048e-04,4.159214340235610763e+01,2.600000000000000089e-01
2.615879502811745638e+00,7.382028504201167962e-01,2.468107839111315371e-01,1.000000000000000048e-04,4.011530726490870791e+01,2.800000000000000266e-01
8.860213057216732579e-01,7.482913296814266424e-01,3.211523609796849144e-01,1.000000000000000048e-04,4.137591727269438024e+01,1.799999999999999933e-01
-7.922215729160213549e-01,-4.178369476395633608e-01,1.764017833746651664e-01,1.000000000000000048e-04,3.959856744372504522e+01,1.499999999999999944e-01
-2.290607831329902311e+00,-1.478048442540780272e+00,4.537029731623987150e-01,1.000000000000000048e-04,4.187705709377370766e+01,2.200000000000000011e-01
2.835729755852231193e+00,2.232597224412942172e-01,2.012230545445317098e-01,1.000000000000000048e-04,3.991849301618595547e+01,2.000000000000000111e-01
1.990767834459993502e+00,5.870945215476242041e-02,7.165926287242396775e-01,1.000000000000000048e-04,4.331015850786876342e+01,1.600000000000000033e-01
-1.005405538520991460e+00,7.352653551877987859e-01,4.695662268737847977e-01,1.000000000000000048e-04,4.218147961323832362e+01,1.600000000000000033e-01
-2.149018864622294522e+00,8.366478054386727869e-01,8.350868181986461636e-01,1.000000000000000048e-04,4.352711123466809795e+01,2.099999999999999922e-01
2.338650456081016848e+00,6.288198963189355339e-01,1.739193831393905931e-01,1.000000000000000048e-04,3.981770280439019416e+01,2.899999999999999800e-01
-1.164173786664990162e+00,-3.564403522199897090e-01,3.848867851879662627e-01,1.000000000000000048e-04,4.163356669033041868e+01,1.400000000000000133e-01
2.496698005709938606e+00,-3.659198278266615478e-01,1.405595201032117103e-01,1.000000000000000048e-04,3.901416757596184937e+01,2.700000000000000178e-01
2.959836200051183752e+00,5.696373556417779760e-01,2.925631769104328761e-01,1.000000000000000048e-04,4.099815365444223403e+01,1.300000000000000044e-01
-2.152198681864176955e-01,2.104081569959233011e-01,5.759877906447923301e-01,1.000000000000000048e-04,4.255212938699651914e+01,1.700000000000000122e-01
-3.137834801035460863e+00,-6.831243464384626485e-01,4.502400201908709487e-01,1.000000000000000048e-04,4.207138556182923850e+01,2.500000000000000000e-01
7.880781241399237302e-02,-6.400357493733882519e-01,8.100039303362085441e-01,1.000000000000000048e-04,4.362606650516288198e+01,1.400000000000000133e-01
-1.447167348182134106e+00,-6.684407482262340050e-01,1.604514655468627371e-01,1.000000000000000048e-04,3.933171181518635251e+01,1.900000000000000022e-01
-1.569680932393043626e+00,-9.842195894286656088e-01,1.950825393410795527e-01,1.000000000000000048e-04,3.991013046308621881e+01,1.600000000000000033e-01
-3.367116252836348522e-01,1.022529001899495693e+00,7.596614464742430517e-01,1.000000000000000048e-04,4.344304829228368448e+01,1.600000000000000033e-01
-2.248495363426545879e+00,-6.121316378039978190e-01,3.746017002361627934e-01,1.000000000000000048e-04,4.166583208856016540e+01,2.700000000000000178e-01
2.965623423928623659e+00,-2.004875434044866012e-01,1.004723819814826502e+00,1.000000000000000048e-04,4.387643342628870613e+01,1.499999999999999944e-01
1.521515803807569789e+00,9.235839183707073019e-02,1.284849747944944998e-01,1.000000000000000048e-04,3.895446106690165777e+01,1.600000000000000033e-01
-2.280166774228402637e+00,-3.131797853593638603e-01,2.214509843059588867e-01,1.000000000000000048e-04,4.033555789066957686e+01,1.700000000000000122e-01
1.751935070166636521e+00,7.271536997489342902e-01,4.556685544098411089e-01,1.000000000000000048e-04,4.264904456929104981e+01,2.800000000000000266e-01
-2.949553492612167815e+00,-7.847081230656905992e-01,1.012171965034982080e+00,1.000000000000000048e-04,4.415944491744880906e+01,1.499999999999999944e-01
-2.863152039774539581e+00,5.061551802050012761e-02,5.083499431087874498e-01,1.000000000000000048e-04,4.182363624892239784e+01,3.099999999999999978e-01
3.050012679266645321e+00,1.529864827453666365e-01,1.978647170205527495e-01,1.000000000000000048e-04,4.031234033135348227e+01,2.200000000000000011e-01
-6.819544466054545673e-01,3.072654079791319326e-01,3.807566443826766456e-01,1.000000000000000048e-04,4.135038611369985517e+01,2.700000000000000178e-01
1.519832299972705414e-01,9.207176235437208867e-01,3.997784559052546260e-01,1.000000000000000048e-04,4.197623627518716916e+01,2.899999999999999800e-01
-2.523915330842358973e+00,9.360934970410017542e-03,2.294797804453423407e-01,1.000000000000000048e-04,4.021913837013953952e+01,3.099999999999999978e-01
8.506878204432983814e-01,3.130684077509304775e-01,6.270746897759955640e-01,1.000000000000000048e-04,4.281824934183697451e+01,2.300000000000000100e-01
1.575404169742468774e+00,5.428433028158163864e-02,1.681161479740045372e-01,1.000000000000000048e-04,3.948967682677204749e+01,2.200000000000000011e-01
3.591563234646297786e-01,-5.703727744282365286e-01,7.813304962145817267e-01,1.000000000000000048e-04,4.369615455075886956e+01,2.300000000000000100e-01
1.955557404629474583e+00,-1.391943238410640049e-01,4.892922142463325130e-01,1.000000000000000048e-04,4.218750852548829045e+01,2.200000000000000011e-01
1.097993739374135913e+00,1.109775568687954461e+00,4.205315761081451775e-01,1.000000000000000048e-04,4.130667587711898392e+01,2.099999999999999922e-01
1.010321930197441986e+00,-1.452920871853564666e-01,1.563919903844528392e-01,1.000000000000000048e-04,3.915273150856075546e+01,2.300000000000000100e-01
-1.657668001675671965e+00,3.035505426432276721e-01,3.886516913568121012e-01,1.000000000000000048e-04,4.194198064958577987e+01,2.399999999999999911e-01
3.876209208809053841e-01,3.140052254679404076e-01,1.215669267302602830e+00,1.000000000000000048e-04,4.501172526946167807e+01,2.099999999999999922e-01
1.196868256377820572e+00,-5.497479511604010938e-01,1.358995883565174978e-01,1.000000000000000048e-04,3.893405919761481471e+01,2.399999999999999911e-01
1.008590084089263428e+00,-8.925602976983690873e-01,1.114822746576506596e+00,1.000000000000000048e-04,4.396995548093638462e+01,2.399999999999999911e-01
2.676251800020671645e+00,-1.226443331462929276e+00,2.766877615919223210e-01,1.000000000000000048e-04,4.044830482107507663e+01,2.800000000000000266e-01
-2.629686683332539410e+00,1.465204452657709044e-01,1.814421480982437718e-01,1.000000000000000048e-04,3.992803134117840358e+01,2.000000000000000111e-01
-1.557770331252665619e+00,-2.342553308084658337e-01,6.467934678635380852e-01,1.000000000000000048e-04,4.291676863682219789e+01,2.200000000000000011e-01
7.597866369567047862e-01,8.740847709735941606e-01,3.305370575079340512e-01,1.000000000000000048e-04,4.172602389557581404e+01,2.800000000000000266e-01
4.220390505502202849e-01,7.860771836036377636e-01,4.695686375691656700e-01,1.000000000000000048e-04,4.214106903533321713e+01,2.399999999999999911e-01
-2.076643727122292837e+00,4.785669258601332743e-01,7.437654607538766172e-01,1.000000000000000048e-04,4.331247523849246051e+01,2.300000000000000100e-01
-1.872321992479206942e+00,-1.844290278604534539e-01,2.337914037656290134e-01,1.000000000000000048e-04,4.017014031714697353e+01,2.200000000000000011e-01
1.052347157032210490e+00,-1.243542364728328353e+00,5.467180486138387696e-01,1.000000000000000048e-04,4.241243936702472439e+01,2.200000000000000011e-01
4.156307186596883696e-01,2.972384541464203611e-01,6.194703984998111146e-01,1.000000000000000048e-04,4.293127940092341532e+01,2.399999999999999911e-01
1.873695638194583957e+00,5.458456661681458932e-01,2.907344979123112072e-01,1.000000000000000048e-04,4.116170688005860967e+01,3.099999999999999978e-01
3.532719438063991468e-01,-4.709813633553434631e-01,1.284182098774085734e+00,1.000000000000000048e-04,4.483097531107496536e+01,2.600000000000000089e-01
-2.930840258140037236e+00,-1.855166880925454009e-01,2.223237384120988480e-01,1.000000000000000048e-04,4.081932506382249670e+01,3.099999999999999978e-01
-2.124302887307027543e+00,-2.186524814257488902e-01,3.596821324191443736e-01,1.000000000000000048e-04,4.174334424359757634e+01,3.800000000000000044e-01
-2.506186502689846218e+00,9.351014525220580076e-01,3.816636565161863892e-01,1.000000000000000048e-04,4.154460643737465375e+01,2.500000000000000000e-01
1.619816930626303275e+00,3.966127153146898898e-01,3.555775812949508730e-01,1.000000000000000048e-04,4.131272938298118191e+01,2.300000000000000100e-01
1.441639511854527989e+00,-6.393215592844768702e-01,4.894685303035444246e-01,1.000000000000000048e-04,4.231741385066217020e+01,2.800000000000000266e-01
-8.556041825865690065e-01,-3.068579084052864836e-01,6.685616779167316004e-01,1.000000000000000048e-04,4.305770368794830461e+01,3.699999999999999956e-01
-3.011748613413406606e+00,2.772555600697084177e-01,5.103589996759714253e-01,1.000000000000000048e-04,4.240363372530190844e+01,2.200000000000000011e-01
1.878334283519237147e+00,-2.121988365573459490e-01,1.946403586114384687e-01,1.000000000000000048e-04,3.996171318216629942e+01,2.600000000000000089e-01
1.699976777702885578e+00,-1.109177835342670670e+00,1.531521073444979120e-01,1.000000000000000048e-04,3.983792329992726877e+01,2.500000000000000000e-01
-2.759779853693300922e+00,-4.310149084794747676e-01,4.997037137447835065e-01,1.000000000000000048e-04,4.226648305706237352e+01,2.700000000000000178e-01
1.469331162884196296e+00,3.196840324108352061e-01,4.299112186836533400e-01,1.000000000000000048e-04,4.170487613430121598e+01,2.300000000000000100e-01
3.046591005099063665e+00,-4.280888863203056172e-01,1.343580947293596672e-01,1.000000000000000048e-04,3.881029357071847130e+01,2.300000000000000100e-01
4.695391590242858904e-01,-1.238161462492592957e+00,5.051762507598462904e-01,1.000000000000000048e-04,4.210466362332365264e+01,3.200000000000000067e-01
-3.627225010557255658e-01,1.247706243448381880e+00,6.194105044384843328e-01,1.000000000000000048e-04,4.250032165469087886e+01,2.899999999999999800e-01
-1.502330955078767127e+00,2.660945099528211344e-02,2.115747994803978127e-01,1.000000000000000048e-04,4.035976617906745645e+01,2.600000000000000089e-01
1.311627626389084256e+00,6.922952755286799764e-01,1.023116737879898874e+00,1.000000000000000048e-04,4.437582631834180802e+01,2.899999999999999800e-01
-3.093696984481387968e+00,7.705625943275595802e-01,3.682111177129467894e-01,1.000000000000000048e-04,4.183957777728637950e+01,2.700000000000000178e-01
-8.365727361512931282e-02,1.076335467731621698e+00,1.048438758244375713e+00,1.000000000000000048e-04,4.443605715997419026e+01,2.300000000000000100e-01
1.976486184081927000e+00,-5.739713371945742715e-01,2.221331959694086144e-01,1.000000000000000048e-04,4.053235437553256304e+01,2.800000000000000266e-01
2.420378627930765525e+00,-6.776696216804495299e-01,1.311914149902890792e+00,1.000000000000000048e-04,4.502373375859289695e+01,2.300000000000000100e-01
-7.884845436554761555e-01,-1.104334237288037368e+00,1.861833957525675931e-01,1.000000000000000048e-04,3.973710670835934877e+01,2.200000000000000011e-01
-2.483540344360205765e+00,-3.793530387240278134e-01,6.984584724316895699e-01,1.000000000000000048e-04,4.294627924199388502e+01,2.200000000000000011e-01
2.925469246762766318e-01,1.266115257862466148e+00,8.304311458753173003e-01,1.000000000000000048e-04,4.351397409573058894e+01,2.099999999999999922e-01
3.139813272315151060e+00,2.223900212805496324e-03,3.162782020621952572e-01,1.000000000000000048e-04,4.123421938674322718e+01,2.200000000000000011e-01
3.377723368152532046e-01,9.363762357148601723e-01,1.390687309042353270e-01,1.000000000000000048e-04,3.912414275866871805e+01,2.899999999999999800e-01
2.647364193001854993e+00,-1.092510262416605205e+00,7.992554760279180215e-01,1.000000000000000048e-04,4.353174892789737527e+01,2.099999999999999922e-01
3.295333690161452722e-01,-1.348387063035760836e-01,6.695687189629022651e-01,1.000000000000000048e-04,4.308113622557521438e+01,2.300000000000000100e-01
1.600311299026777156e+00,9.237700906307413362e-01,6.045933958282840859e-01,1.000000000000000048e-04,4.242110563460182249e+01,3.300000000000000155e-01
-1.167923407998521457e+00,-1.289834016438252018e+00,6.890964944654982549e-01,1.000000000000000048e-04,4.281902972195898371e+01,2.899999999999999800e-01
-2.555523686608534017e+00,1.164899444196488165e+00,5.049527356392764510e-01,1.000000000000000048e-04,4.205356982360852669e+01,3.300000000000000155e-01
-2.992489952153841060e+00,9.002317864150000126e-01,3.574936302601172677e-01,1.000000000000000048e-04,4.164942106398096655e+01,2.999999999999999889e-01
-1.366811716535989651e+00,-2.947059640971698702e-01,6.799093822648567542e-01,1.000000000000000048e-04,4.313855122227508332e+01,2.600000000000000089e-01
-3.021379816479835334e+00,-5.494757344004759236e-01,5.132794058711109830e-01,1.000000000000000048e-04,4.208834025700010528e+01,3.300000000000000155e-01
-4.547483850278037920e-01,4.381110131973739996e-01,4.652548325678518282e-01,1.000000000000000048e-04,4.276751856273580898e+01,2.500000000000000000e-01
1.430405233371633500e+00,-7.385756837419147347e-01,2.667293448151326629e-01,1.000000000000000048e-04,4.063244262896436254e+01,2.399999999999999911e-01
2.451925242330978527e+00,5.261079251173379490e-01,1.893319442138081676e-01,1.000000000000000048e-04,4.013294369819414698e+01,3.900000000000000133e-01
-9.075857582189894579e-01,-7.575076304995632670e-01,4.457236846679644149e-01,1.000000000000000048e-04,4.208389444807876600e+01,2.700000000000000178e-01
2.188082432819187240e-01,7.758273701575677528e-01,7.094908531605532698e-01,1.000000000000000048e-04,4.351923752348967156e+01,2.200000000000000011e-01
1.847581967964075922e-01,1.293447487606342428e+00,4.736517571386689163e-01,1.000000000000000048e-04,4.215280468057361674e+01,2.300000000000000100e-01
2.838366423523521753e+00,-5.052566549272907714e-02,6.007289093459029505e-01,1.000000000000000048e-04,4.292888314474912193e+01,2.500000000000000000e-01
-1.835662742943215520e+00,-6.629280292869743629e-01,2.055026938909239043e-01,1.000000000000000048e-04,4.039635718968589373e+01,2.099999999999999922e-01
-1.721634834576306616e+00,4.568672976935861385e-02,3.527249066950512990e-01,1.000000000000000048e-04,4.133182221389964894e+01,2.099999999999999922e-01
-6.794954003548228094e-01,6.476645188493264094e-01,4.856104592628340821e-01,1.000000000000000048e-04,4.249088752006585423e+01,2.999999999999999889e-01
-1.759390111736454321e+00,5.429923587984801792e-01,4.281891275535587571e-01,1.000000000000000048e-04,4.163788469137288217e+01,2.200000000000000011e-01
-7.128999605563626218e-01,-1.588726101780615352e-01,4.260237861977360652e-01,1.000000000000000048e-04,4.205910635508084994e+01,2.099999999999999922e-01
-1.866726161275857443e+00,-1.576154122335615693e-01,4.805511390712948749e-01,1.000000000000000048e-04,4.191460282057845887e+01,2.300000000000000100e-01
-1.598348435336394147e+00,-1.438861499879613426e+00,7.546463297214471844e-01,1.000000000000000048e-04,4.348731121393285548e+01,3.200000000000000067e-01
1.548052430187517814e+00,9.238740693847304897e-01,1.692224488688904849e-01,1.000000000000000048e-04,3.929783637932565199e+01,2.600000000000000089e-01
3.926426360820491901e-01,3.233621703759006483e-01,7.883446529032227534e-01,1.000000000000000048e-04,4.354764541111027398e+01,2.000000000000000111e-01
3.108179086429538884e+00,-7.989786465109705027e-01,2.503468689511274547e-01,1.000000000000000048e-04,4.070069435859073081e+01,1.799999999999999933e-01
1.931286352756218960e+00,1.204203907767431581e-01,3.261186240485018928e-01,1.000000000000000048e-04,4.147127827813304179e+01,2.999999999999999889e-01
-2.302804527888702602e+00,6.643887832399673066e-01,3.044420592470811204e-01,1.000000000000000048e-04,4.107578792992203631e+01,2.399999999999999911e-01
9.897623839747655694e-01,7.492125385336700916e-01,8.804181542148090678e-01,1.000000000000000048e-04,4.389457061089486700e+01,2.300000000000000100e-01
-2.558762344676707823e+00,-4.059485332091676835e-01,1.580947961723233597e-01,1.000000000000000048e-04,3.901892517348260725e+01,2.200000000000000011e-01
1.302957007181473337e+00,-4.448239861945069151e-01,4.250012050907929773e-01,1.000000000000000048e-04,4.205607060272767939e+01,2.300000000000000100e-01
8.502686001558030782e-01,5.196366880648168873e-01,3.895217170257256889e-01,1.000000000000000048e-04,4.162788327059606530e+01,2.300000000000000100e-01
-3.032574650833200103e+00,-3.032162411307053329e-01,1.311475332117533199e-01,1.000000000000000048e-04,3.919093745448477506e+01,2.600000000000000089e-01
2.869583966483729043e+00,-2.060713994328158272e-01,3.291785688578616753e-01,1.000000000000000048e-04,4.132264452182919712e+01,2.099999999999999922e-01
-4.850110230746027540e-01,3.198297926733828511e-02,4.408549687093352709e-01,1.000000000000000048e-04,4.182178059085327249e+01,2.899999999999999800e-01
-9.681633023279028194e-01,2.864839744131830734e-02,6.293685375286282024e-01,1.000000000000000048e-04,4.302254033738739736e+01,2.000000000000000111e-01
-1.217721059148309193e+00,-5.080727754888620940e-01,2.623098423613829944e-01,1.000000000000000048e-04,4.050795571013367891e+01,2.500000000000000000e-01
-9.740313036101673205e-01,-5.447103273705535820e-01,5.261857211793976585e-01,1.000000000000000048e-04,4.244330754239194192e+01,2.099999999999999922e-01
-7.151134399534546660e-01,8.460203803946306778e-01,3.487110499404733055e-01,1.000000000000000048e-04,4.118950026536780484e+01,2.300000000000000100e-01
-1.583539273067720909e+00,8.162158643525319057e-01,4.383532373259846349e-01,1.000000000000000048e-04,4.204580284132044454e+01,2.200000000000000011e-01
-2.105975133596739823e+00,1.213839463568975763e+00,3.178023691543929719e-01,1.000000000000000048e-04,4.126082332625423987e+01,2.399999999999999911e-01
3.056653875861920611e+00,1.000509873265687411e+00,2.663931845335081317e-01,1.000000000000000048e-04,4.100593295859557230e+01,2.500000000000000000e-01
1.164053032598892479e+00,6.988652598465323607e-01,4.448990510089882999e-01,1.000000000000000048e-04,4.182936416005860991e+01,2.200000000000000011e-01
1.782561187786022572e-01,-7.290225553339447773e-01,4.195941079208407309e-01,1.000000000000000048e-04,4.179466382337233199e+01,3.300000000000000155e-01
-2.007581899482691057e-02,-8.066789130589748780e-01,1.905840601951185320e-01,1.000000000000000048e-04,3.969944151008458988e+01,2.000000000000000111e-01
-2.177858024341737142e+00,-7.025631163928219847e-01,3.561167635321562663e-01,1.000000000000000048e-04,4.132368107530934509e+01,2.600000000000000089e-01
2.046960365291446315e+00,-5.603726872877083931e-01,6.665754557870180452e-01,1.000000000000000048e-04,4.299142248147717282e+01,2.399999999999999911e-01
-1.109940872179229210e-01,2.635890269834528787e-02,3.451409378195153810e-01,1.000000000000000048e-04,4.091522247946922874e+01,2.399999999999999911e-01
2.056374535740306264e+00,-1.102140365300319225e+00,2.176810844668033429e-01,1.000000000000000048e-04,4.015239138487089576e+01,2.600000000000000089e-01
1.403660315455703689e+00,1.487339909371161450e-01,5.083710857482388601e-01,1.000000000000000048e-04,4.243544958847376591e+01,2.399999999999999911e-01
1.629488975476687251e+00,1.079655074151219640e+00,1.810213651353778097e-01,1.000000000000000048e-04,4.006290954662272696e+01,2.000000000000000111e-01
-1.523377501437309878e+00,3.977778390420361188e-01,2.499335314586632606e-01,1.000000000000000048e-04,4.096772410151915267e+01,3.699999999999999956e-01
2.027710428444658319e+00,-2.430141764455218123e-01,3.510322130822962627e-01,1.000000000000000048e-04,4.153179450712930532e+01,3.099999999999999978e-01
-1.369100740218041734e+00,1.180817642359117681e-01,3.761800473890819507e-01,1.000000000000000048e-04,4.139384405554756796e+01,2.399999999999999911e-01
2.497805660036700459e-01,-3.043902677020351444e-01,1.913328346266152113e-01,1.000000000000000048e-04,3.955944519581260010e+01,2.099999999999999922e-01
-1.262990700318012749e+00,9.662351748891162551e-02,2.319728507848590748e-01,1.000000000000000048e-04,3.999513176815853654e+01,2.800000000000000266e-01
3.554010025801739303e-01,2.431730101800886334e-01,3.301847436276192926e-01,1.000000000000000048e-04,4.131940104699041427e+01,2.800000000000000266e-01
-1.650233802784141890e+00,-5.328442668891371081e-01,4.689130325272106159e-01,1.000000000000000048e-04,4.223087879788321430e+01,2.099999999999999922e-01
-1.364401954518492222e+00,-3.101401071892211370e-01,3.739173213378605976e-01,1.000000000000000048e-04,4.151204882967996213e+01,2.300000000000000100e-01
2.004609420339908965e-01,8.594220999730324273e-01,5.179878867982106172e-01,1.000000000000000048e-04,4.258274357537508337e+01,2.000000000000000111e-01
6.250705005656831403e-01,-2.709901886521290937e-01,9.800108005324870142e-01,1.000000000000000048e-04,4.399739518440751596e+01,1.000000000000000056e-01
-2.125241144246715841e+00,1.174978315224247005e+00,2.050693061937209904e-01,1.000000000000000048e-04,4.002208328195293774e+01,1.199999999999999956e-01
4.680366839873748575e-01,-1.130401918419894347e-01,3.516712817506930655e-01,1.000000000000000048e-04,4.143317329259236459e+01,8.999999999999999667e-02
1.494599274767139718e+00,5.837904032003349286e-02,2.173497955109167101e-01,1.000000000000000048e-04,3.997148295042274668e+01,1.400000000000000133e-01
-1.042517397838196302e-01,6.830199623720689672e-02,4.298832502189524618e-01,1.000000000000000048e-04,4.203760063336718389e+01,2.000000000000000111e-01
-2.823507083517655669e+00,9.706411079041497025e-01,8.338751485676605402e-01,1.000000000000000048e-04,4.365888865449825573e+01,1.900000000000000022e-01
-4.294207493709278900e-01,-1.149947092002526983e+00,4.268220919061294083e-01,1.000000000000000048e-04,4.185291218889494758e+01,1.700000000000000122e-01
2.842663993400840639e+00,-1.340216791148396425e-01,1.928558015170855899e-01,1.000000000000000048e-04,4.018707502867506065e+01,3.499999999999999778e-01
2.301255832566226012e+00,-3.989282598851835449e-01,3.624256746777159144e-01,1.000000000000000048e-04,4.108567370529782181e+01,1.700000000000000122e-01
8.872619929975185116e-01,3.074913349570722598e-01,5.764880215788765749e-01,1.000000000000000048e-04,4.275587040592259314e+01,1.900000000000000022e-01
2.531523812329504075e+00,3.968358193822729696e-02,4.022765559305616634e-01,1.000000000000000048e-04,4.184228683721850928e+01,1.900000000000000022e-01
