2.694421935208893615e+00,-7.265057913468169204e-01,1.225516953357463912e-01,1.000000000000000048e-04,3.878944974349376196e+01,1.000000000000000021e-02
-2.956181046075817775e+00,-1.063094300445283302e+00,1.997244559293136490e-01,1.000000000000000048e-04,3.995175137395168719e+01,1.000000000000000021e-02
-3.227566469694083118e-01,1.217316536720583375e+00,2.685930518300276848e-01,1.000000000000000048e-04,4.069074150281097957e+01,1.000000000000000021e-02
1.003629041334441752e-02,8.224896462521731344e-01,1.674516483571570902e-01,1.000000000000000048e-04,3.954914185890753942e+01,1.000000000000000021e-02
-3.179150682857998511e-01,1.312645837066130472e+00,2.299117737955531648e-01,1.000000000000000048e-04,4.029659157797573243e+01,1.000000000000000021e-02
1.636750227212032449e+00,1.024983867693347594e+00,6.567774401250181526e-02,1.000000000000000048e-04,3.735168209993290134e+01,1.000000000000000021e-02
-8.926672856295501113e-01,4.798372687310559215e-02,4.210408779937035995e-02,1.000000000000000048e-04,3.636424742984640801e+01,1.000000000000000021e-02
-3.025873727397695223e+00,-1.364904170108420578e+00,2.067253156113013635e-01,1.000000000000000048e-04,4.006156162313870084e+01,1.000000000000000021e-02
4.187233261045775201e-01,1.291702635554701217e+00,1.157915701704617106e-01,1.000000000000000048e-04,3.865831607350015986e+01,1.000000000000000021e-02
-2.918083793569151485e+00,-4.322480473426579817e-01,2.501338492929705559e-02,1.000000000000000048e-04,3.518724728604171759e+01,1.000000000000000021e-02
1.065978337767263362e+00,5.750556324375235562e-01,1.607228690498705426e-01,1.000000000000000048e-04,3.944652777109857311e+01,1.000000000000000021e-02
-2.006080065368382570e+00,8.911199844450385932e-01,3.138999896167837811e-02,1.000000000000000048e-04,3.569220382446827955e+01,1.000000000000000021e-02
-3.063083011564413649e+00,3.976771761144186623e-01,1.769315738295893503e-01,1.000000000000000048e-04,3.966120319135293215e+01,1.000000000000000021e-02
2.410683440797854793e+00,-5.360750518919488172e-03,1.693414375012138873e-01,1.000000000000000048e-04,3.957900775563297913e+01,1.000000000000000021e-02
-2.741780923233990475e+00,1.002515708324567267e-01,2.394719905750415379e-01,1.000000000000000048e-04,4.038676996657004281e+01,1.000000000000000021e-02
-3.049714477992792716e+00,-4.892698218263300536e-01,6.752443989639789201e-02,1.000000000000000048e-04,3.741617349261825609e+01,1.000000000000000021e-02
1.661659526658350039e+00,-5.240016896680299574e-02,1.109997696325815131e-01,1.000000000000000048e-04,3.855486903801039489e+01,1.000000000000000021e-02
-8.345107856332489860e-01,7.868467683252906575e-01,1.824531051340658738e-01,1.000000000000000048e-04,3.973533678724774632e+01,1.000000000000000021e-02
-4.742113105092342629e-01,7.218220643891615218e-02,1.531640168868533269e-01,1.000000000000000048e-04,3.931041067838251024e+01,1.000000000000000021e-02
1.145227678476558708e+00,-9.664270474881851980e-01,3.200328294767929016e-02,1.000000000000000048e-04,3.573857327551069574e+01,1.000000000000000021e-02
-3.006169641972867179e+00,5.780319613197097972e-01,6.620032878880310889e-02,1.000000000000000048e-04,3.738062702770356083e+01,1.000000000000000021e-02
1.791752616225370076e+00,-1.230601583709782787e-01,1.844663920899700660e-01,1.000000000000000048e-04,3.978260004357582602e+01,1.000000000000000021e-02
5.732111271844657630e-01,-8.298794013475820908e-01,2.575329482635282385e-01,1.000000000000000048e-04,4.057824221824844102e+01,1.000000000000000021e-02
8.693243977657116872e-01,-5.328471323361338996e-02,2.698859390426577853e-02,1.000000000000000048e-04,3.535531368868294066e+01,1.000000000000000021e-02
-1.957037817861054130e+00,7.350339649414214804e-01,1.409063470961715581e-01,1.000000000000000048e-04,3.913502409737543530e+01,1.000000000000000021e-02
-9.898716669411333768e-02,1.154547922866086207e+00,1.071802287421759203e-01,1.000000000000000048e-04,3.849008297820574853e+01,1.000000000000000021e-02
-1.083801434855150791e+00,-7.804717465377956076e-01,1.370577104369472554e-01,1.000000000000000048e-04,3.905122661442605647e+01,1.000000000000000021e-02
2.103713629669251794e+00,8.999722179858160587e-01,8.229736928138686736e-02,1.000000000000000048e-04,3.787029616982606228e+01,1.000000000000000021e-02
4.884158936337423818e-01,-1.066397210078640079e-01,1.888719018860443022e-01,1.000000000000000048e-04,3.983591304227009999e+01,1.000000000000000021e-02
-1.736899029666355565e+00,2.418465290649431942e-01,1.859015841056828044e-01,1.000000000000000048e-04,3.981276688723033175e+01,1.000000000000000021e-02
5.789858282877657913e-02,-1.046528401621156901e+00,7.505752490209527394e-02,1.000000000000000048e-04,3.765886467864100950e+01,1.000000000000000021e-02
-2.511670904240592250e+00,-8.810591873147219921e-01,2.303914307390144689e-01,1.000000000000000048e-04,4.031350531165232098e+01,1.000000000000000021e-02
-2.235932927750003074e+00,1.353627795161207459e-01,7.679418915771418774e-02,1.000000000000000048e-04,3.771580936592636135e+01,1.000000000000000021e-02
1.007682123747732028e+00,-1.164612797511771491e+00,7.473793289265162620e-02,1.000000000000000048e-04,3.766175399201888041e+01,1.000000000000000021e-02
-4.714735154850315801e-01,1.458221980730249889e-01,1.591841100785511554e-01,1.000000000000000048e-04,3.940903978658624851e+01,1.000000000000000021e-02
-4.326701329662117068e-01,-1.374829160204704692e-02,1.833499930593180949e-01,1.000000000000000048e-04,3.975703031904141227e+01,1.000000000000000021e-02
-1.023021986184449172e+00,-4.067453860674845600e-01,1.192082660444382380e-01,1.000000000000000048e-04,3.872346418301410154e+01,1.000000000000000021e-02
-2.514609630146977359e+00,-6.962307819945473542e-01,8.310062563942333114e-02,1.000000000000000048e-04,3.789015100100880318e+01,1.000000000000000021e-02
2.083777051594513097e+00,-7.612605777192625878e-01,3.822435173554050714e-02,1.000000000000000048e-04,3.612155266068988624e+01,1.000000000000000021e-02
-1.244705801086261054e-01,-7.819217721377410557e-01,1.181937025726329527e-01,1.000000000000000048e-04,3.870208839925290789e+01,1.000000000000000021e-02
-4.777194548203924640e-01,-3.650941734381882853e-01,1.805598268562267350e-01,1.000000000000000048e-04,3.972746184466462438e+01,1.000000000000000021e-02
-5.385090476980005647e-01,-1.424959216933820105e+00,2.062076312906053754e-01,1.000000000000000048e-04,4.004225979798487600e+01,1.000000000000000021e-02
-8.317706869270522496e-01,1.282762627495570573e-01,2.649990469986593933e-01,1.000000000000000048e-04,4.065262245762625781e+01,1.000000000000000021e-02
-2.359752034287875944e+00,5.228324150257090963e-03,1.725986584971779259e-01,1.000000000000000048e-04,3.960572732570073384e+01,1.000000000000000021e-02
7.202174805283512171e-02,9.700041838199582322e-01,1.554428923180442013e-01,1.000000000000000048e-04,3.936154891121135080e+01,1.000000000000000021e-02
9.488863178446660385e-01,-1.228328609757992407e+00,9.665577519102486193e-02,1.000000000000000048e-04,3.822768880195064156e+01,1.000000000000000021e-02
1.738397521134471546e-02,-1.127314072834681768e+00,2.265882307145150598e-01,1.000000000000000048e-04,4.025833239164383315e+01,1.000000000000000021e-02
1.430510992291010197e+00,1.475154896969272933e-01,1.654894352151665693e-01,1.000000000000000048e-04,3.951345434411511803e+01,1.000000000000000021e-02
-2.619399329929576137e+00,-2.494613459575067971e-02,1.198680317028884001e-01,1.000000000000000048e-04,3.876122815820453127e+01,1.000000000000000021e-02
3.112658951741176239e-01,-1.717180231696822101e-01,2.638913609604032207e-01,1.000000000000000048e-04,4.064560114357178122e+01,1.000000000000000021e-02
-2.951691380530291564e+00,7.428534931175789779e-02,2.709367340951547298e-01,1.000000000000000048e-04,4.071610078106643016e+01,1.000000000000000021e-02
2.298789817212300690e+00,1.033122686902312903e+00,2.099291858421252766e-01,1.000000000000000048e-04,4.007516281008297199e+01,1.000000000000000021e-02
-4.557056042578970789e-01,8.282264057709980420e-01,2.797032160621149011e-02,1.000000000000000048e-04,3.542856638471444342e+01,1.000000000000000021e-02
2.546116960906774196e+00,6.772156766199968203e-01,2.409142521895997202e-01,1.000000000000000048e-04,4.043124855081604352e+01,1.000000000000000021e-02
-8.714657139613279924e-03,-2.422265502613292210e-01,2.757820552545191539e-01,1.000000000000000048e-04,4.076827197686169768e+01,1.000000000000000021e-02
-2.139025279088992093e+00,6.968304396500148989e-01,1.645054829249747996e-01,1.000000000000000048e-04,3.948644621576642066e+01,1.000000000000000021e-02
1.094329325097653793e+00,-1.193435659695821771e+00,1.550244914278788855e-01,1.000000000000000048e-04,3.935417619812920975e+01,1.000000000000000021e-02
-5.740631895131276252e-02,8.217242301602856180e-02,4.664228186953267574e-02,1.000000000000000048e-04,3.659345685878354004e+01,1.000000000000000021e-02
-1.299682564832130405e+00,-2.286426037713784609e-01,2.373846586690646632e-01,1.000000000000000048e-04,4.039606896810855829e+01,1.000000000000000021e-02
2.811107008873299229e+00,1.152953623042307640e+00,3.227900095848967865e-02,1.000000000000000048e-04,3.578459051537812030e+01,1.000000000000000021e-02
-2.665110324659329510e+00,-5.003740251010062590e-01,2.577990485220640338e-01,1.000000000000000048e-04,4.060153941101885522e+01,1.000000000000000021e-02
8.897865377977023371e-01,-3.524866614220487637e-01,1.570791042328085751e-01,1.000000000000000048e-04,3.939645441873270926e+01,1.000000000000000021e-02
3.053384205832201381e-01,-6.218238447453066087e-01,2.631035509457244626e-01,1.000000000000000048e-04,4.065552740529173548e+01,1.000000000000000021e-02
-2.632922552165442909e+00,-9.156138977599408424e-01,5.540619105552258006e-02,1.000000000000000048e-04,3.696160888628696028e+01,1.000000000000000021e-02
2.235223880217320769e-01,-9.116950246455534090e-01,2.616028006500417114e-01,1.000000000000000048e-04,4.063234939285418790e+01,1.000000000000000021e-02
2.242999486668388442e+00,7.646449608262564368e-01,2.767038329503512806e-01,1.000000000000000048e-04,4.076596424420201714e+01,1.000000000000000021e-02
1.880917552178297925e+00,-1.196928418885521372e+00,6.428173650844537512e-02,1.000000000000000048e-04,3.731830172008961455e+01,1.000000000000000021e-02
-3.585590072138411522e-01,-2.360295944695391945e-01,1.363080078305445308e-01,1.000000000000000048e-04,3.905339014324733427e+01,1.000000000000000021e-02
-2.751832297083635304e+00,7.302675642614397944e-02,1.134405137751879344e-01,1.000000000000000048e-04,3.861564730500595033e+01,1.000000000000000021e-02
3.265313237090552434e-01,-2.216874520905269819e-01,1.117883345779633331e-01,1.000000000000000048e-04,3.857493507051695047e+01,1.000000000000000021e-02
1.652252395013314334e+00,1.591316642439029039e-01,2.726483847242957559e-01,1.000000000000000048e-04,4.071565371492013696e+01,1.000000000000000021e-02
-1.738260836158813660e-01,-3.778216266237972576e-01,2.040086879432352340e-01,1.000000000000000048e-04,4.002676638483382732e+01,1.000000000000000021e-02
1.344197250956561618e+00,-8.469710692342408143e-01,2.924013248919776764e-02,1.000000000000000048e-04,3.553910970213110687e+01,1.000000000000000021e-02
1.898354891936750555e+00,-7.786193887503269906e-01,2.706896112921139963e-01,1.000000000000000048e-04,4.070109420766183916e+01,1.000000000000000021e-02
2.672345055699758554e-01,2.593503465643580697e-01,2.428273911257339268e-01,1.000000000000000048e-04,4.045503407461283985e+01,1.000000000000000021e-02
-2.684985830600864265e+00,-8.009062684623230455e-01,9.982221816754477395e-02,1.000000000000000048e-04,3.833637193114159203e+01,1.000000000000000021e-02
3.058665076038089126e+00,3.524241591751884339e-01,2.723493230222795436e-01,1.000000000000000048e-04,4.073294401504156781e+01,1.000000000000000021e-02
-4.884556352960256476e-03,-6.032533904265149349e-01,1.471548047392350345e-01,1.000000000000000048e-04,3.922924338758804907e+01,1.000000000000000021e-02
-2.586300136180829767e+00,-3.154761561931942460e-01,5.425047970789798057e-02,1.000000000000000048e-04,3.689365146154904807e+01,1.000000000000000021e-02
-2.672466886734561342e+00,-4.533378789976592049e-01,2.865454084422602854e-02,1.000000000000000048e-04,3.549227228403659495e+01,1.000000000000000021e-02
-2.972496648016098142e+00,-3.722308588315688116e-01,1.411388184699433612e-01,1.000000000000000048e-04,3.911083532486253489e+01,1.000000000000000021e-02
-3.130834626971322088e+00,2.065141199646953751e-01,2.263730836621347109e-01,1.000000000000000048e-04,4.027012490534728784e+01,1.000000000000000021e-02
-2.627451188977488528e+00,7.385980192453458493e-01,2.368751696443340826e-01,1.000000000000000048e-04,4.036011123718894567e+01,1.000000000000000021e-02
4.402516628485688699e-01,-3.498809171483117098e-01,1.670347829859739619e-01,1.000000000000000048e-04,3.954293812940233721e+01,1.000000000000000021e-02
1.691052968078587959e+00,-4.692125490135321542e-01,6.252895833591254338e-02,1.000000000000000048e-04,3.724810032026896778e+01,1.000000000000000021e-02
-2.804254476180263467e+00,1.291588538651316842e+00,1.943908859760685726e-01,1.000000000000000048e-04,3.989945761655195611e+01,1.000000000000000021e-02
2.084392941280338363e+00,-3.319242566762115043e-01,2.850547114712043140e-02,1.000000000000000048e-04,3.548480486538264955e+01,1.000000000000000021e-02
-1.001909635111139618e+00,-7.004706806903285843e-01,2.215252141890109439e-01,1.000000000000000048e-04,4.020992377904631354e+01,1.000000000000000021e-02
6.676915174751316684e-01,-6.650805734977738304e-01,9.797592697544588169e-02,1.000000000000000048e-04,3.827945472163014529e+01,1.000000000000000021e-02
-2.066605528767111011e+00,8.502414541226528399e-01,6.784932454264303026e-02,1.000000000000000048e-04,3.743301731516582720e+01,1.000000000000000021e-02
7.849501833968548503e-01,7.111564152402523042e-01,1.818626034253316703e-01,1.000000000000000048e-04,3.973642041831482885e+01,1.000000000000000021e-02
1.543841447381988807e+00,1.400738663284421648e+00,2.580175102005868304e-01,1.000000000000000048e-04,4.056931695800169280e+01,1.000000000000000021e-02
-1.503558467822556199e+00,-3.080557999093531674e-01,1.670824410967355345e-01,1.000000000000000048e-04,3.952659479755570260e+01,1.000000000000000021e-02
-1.159546525027667974e+00,4.323490221957952961e-01,1.398528282867794736e-01,1.000000000000000048e-04,3.911095808319005585e+01,1.000000000000000021e-02
-2.576560893340727798e+00,1.844311248487020549e-01,2.273430202017006074e-01,1.000000000000000048e-04,4.028625670200048603e+01,1.000000000000000021e-02
5.875906732472468974e-02,1.255068535255918771e-01,1.936189314209117995e-01,1.000000000000000048e-04,3.988933463654660727e+01,1.000000000000000021e-02
-2.480527436175493428e+00,-6.498422147136692084e-01,6.410897798065007258e-02,1.000000000000000048e-04,3.727465054788921606e+01,1.000000000000000021e-02
2.438378489600633969e+00,3.547798690050907311e-01,1.305570068227197567e-01,1.000000000000000048e-04,3.894136112687143481e+01,1.000000000000000021e-02
2.618703325567891760e+00,4.580666903669503576e-01,9.833870232999752936e-02,1.000000000000000048e-04,3.827802264062050597e+01,1.000000000000000021e-02
1.330912197240654571e+00,8.565470875896483705e-01,2.363421719497373896e-01,1.000000000000000048e-04,4.037510286472890186e+01,1.000000000000000021e-02
-8.283030638719366401e-01,8.281477725175365734e-01,2.094299964545431880e-01,1.000000000000000048e-04,4.006845437601961635e+01,1.000000000000000021e-02
-2.498784032149372614e-01,5.193609221174915191e-01,2.576967042033291300e-01,1.000000000000000048e-04,4.058734675859830077e+01,1.000000000000000021e-02
-8.891278534497040198e-01,-4.027970683600694546e-01,1.936577761778985884e-01,1.000000000000000048e-04,3.988112965524886278e+01,1.000000000000000021e-02
1.635300292216271600e+00,7.268981805293828202e-01,6.763231886902798529e-02,1.000000000000000048e-04,3.741937245464976058e+01,1.000000000000000021e-02
-2.162220757262957260e+00,-4.372349367141414866e-02,1.348952583663711735e-01,1.000000000000000048e-04,3.901875495524938486e+01,1.000000000000000021e-02
3.981838192054798498e-01,3.518497661747055361e-02,1.001905772105720072e-01,1.000000000000000048e-04,3.833785061010340911e+01,1.000000000000000021e-02
3.753819740866597421e-01,-4.540049066204547845e-01,2.218902596850289566e-01,1.000000000000000048e-04,4.021078684065775377e+01,1.000000000000000021e-02
9.031773003438861025e-01,-4.320536948857123249e-02,6.416352327587171445e-02,1.000000000000000048e-04,3.730660356376195352e+01,1.000000000000000021e-02
1.059883449052015258e+00,7.950578625191249138e-01,2.336363363770990187e-01,1.000000000000000048e-04,4.034707746646846260e+01,1.000000000000000021e-02
1.056712967354759058e+00,7.499391837151341278e-01,1.298792529441359367e-01,1.000000000000000048e-04,3.893597061170630980e+01,1.000000000000000021e-02
-1.661488441321340215e+00,-8.294154033129190751e-01,8.093742682429039270e-02,1.000000000000000048e-04,3.781401200788043582e+01,1.000000000000000021e-02
-1.262220966218428941e+00,-6.016997824853690391e-01,6.078922897019922722e-02,1.000000000000000048e-04,3.717813773680426692e+01,1.000000000000000021e-02
1.653057313477251711e+00,-3.404766703132862116e-01,2.249689375897945265e-01,1.000000000000000048e-04,4.024660597662016670e+01,1.000000000000000021e-02
3.033329709651891193e+00,-2.685396241910726900e-01,1.618233295698501273e-01,1.000000000000000048e-04,3.945279186512311753e+01,1.000000000000000021e-02
-2.295494579238394284e+00,6.642250749848410685e-01,1.185699924433605279e-01,1.000000000000000048e-04,3.871309570522988963e+01,1.000000000000000021e-02
-3.691809665502088222e-02,-1.220666953632260965e+00,3.340932019195985703e-02,1.000000000000000048e-04,3.582872063393259054e+01,1.000000000000000021e-02
-2.155930428933330312e+00,2.782594830563605015e-01,1.132899962666975568e-01,1.000000000000000048e-04,3.861252221045621269e+01,1.000000000000000021e-02
-1.810621965143765610e+00,4.908091462794459403e-01,5.550363707039807082e-02,1.000000000000000048e-04,3.697173206999798367e+01,1.000000000000000021e-02
-1.910541171765100854e+00,6.991388946424961226e-01,5.596315732485157568e-02,1.000000000000000048e-04,3.698352827343997262e+01,1.000000000000000021e-02
-2.178261438614487844e+00,1.131286073486103216e+00,1.717666502458772282e-01,1.000000000000000048e-04,3.959343644075533319e+01,1.000000000000000021e-02
-2.305628998395218510e+00,1.904963759159845615e-01,2.194958554956816243e-01,1.000000000000000048e-04,4.018707213725286920e+01,1.000000000000000021e-02
-2.009983691935773642e+00,5.976566250101216227e-01,6.170752588009520423e-02,1.000000000000000048e-04,3.723107677744908273e+01,1.000000000000000021e-02
9.982218189168001743e-01,-8.758743962036894537e-01,2.586425585077571920e-01,1.000000000000000048e-04,4.058537121361978706e+01,1.000000000000000021e-02
1.162398177155876233e+00,-7.385166570876140479e-01,9.460093250264733911e-02,1.000000000000000048e-04,3.818518147341964664e+01,1.000000000000000021e-02
-8.101859814900977952e-01,4.248433309315027273e-01,1.936477912751866093e-01,1.000000000000000048e-04,3.985833058830304054e+01,1.000000000000000021e-02
2.335462512349190334e+00,5.076161622648962535e-01,6.385565460850806119e-02,1.000000000000000048e-04,3.729500613031808598e+01,1.000000000000000021e-02
2.432071905630974307e+00,1.070574918394247899e+00,1.523150545203233452e-01,1.000000000000000048e-04,3.932063557742500137e+01,1.000000000000000021e-02
-4.689226383659113040e-01,-2.011152237905726725e-01,2.569139653117651356e-01,1.000000000000000048e-04,4.058051507496909949e+01,1.000000000000000021e-02
-1.055459256842743887e+00,4.774788071090014796e-01,5.547861325107383834e-02,1.000000000000000048e-04,3.697286936464932694e+01,1.000000000000000021e-02
3.128120310031736295e+00,1.982003450440190662e-01,2.677255689785158488e-01,1.000000000000000048e-04,4.069095822929055117e+01,1.000000000000000021e-02
-1.473483067394758095e+00,1.243159656442483829e+00,6.895992568667130840e-02,1.000000000000000048e-04,3.747015886189985423e+01,1.000000000000000021e-02
-1.265332485145463259e+00,1.122212015891867587e+00,7.896689085965236110e-02,1.000000000000000048e-04,3.776843171846914515e+01,1.000000000000000021e-02
2.742686936540128073e+00,3.311195078888995447e-02,2.301531851076787927e-01,1.000000000000000048e-04,4.029560048937359795e+01,1.000000000000000021e-02
-2.006764528985364393e+00,5.431191671912638519e-01,2.345457048233059449e-01,1.000000000000000048e-04,4.035177001367731009e+01,1.000000000000000021e-02
1.984376163927771941e+00,-1.216006448494533210e-01,1.145361440314816015e-01,1.000000000000000048e-04,3.863331130738172448e+01,1.000000000000000021e-02
-1.787717752532889115e-01,-5.063116222388461818e-01,1.892919841449729468e-01,1.000000000000000048e-04,3.983622101883568689e+01,1.000000000000000021e-02
7.773219356558502824e-01,-3.307206895829142290e-01,1.928398732356981782e-01,1.000000000000000048e-04,3.988524391920950762e+01,1.000000000000000021e-02
-2.791216849806859024e+00,2.434601790933497156e-01,6.797611801904945850e-02,1.000000000000000048e-04,3.743092032291859539e+01,1.000000000000000021e-02
-9.661169267179112730e-01,-3.128432224901407377e-01,9.980989149334695831e-02,1.000000000000000048e-04,3.830840064031642811e+01,1.000000000000000021e-02
8.923807279827169481e-01,-5.503820191774402293e-01,6.910592099184542647e-02,1.000000000000000048e-04,3.748678209888027624e+01,1.000000000000000021e-02
1.734189211951241205e+00,-1.322693938891607468e+00,1.878378528266302361e-01,1.000000000000000048e-04,3.980304752052040840e+01,1.000000000000000021e-02
9.905689586574162320e-01,-3.953880403204967919e-01,2.243553927349650756e-02,1.000000000000000048e-04,3.496472467821644869e+01,1.000000000000000021e-02
-2.499389252780052750e+00,-7.465910238582316172e-01,1.147874423635046881e-01,1.000000000000000048e-04,3.863421381026583390e+01,1.000000000000000021e-02
2.555466876150492617e+00,-4.203999261217274963e-01,9.227766621205146791e-02,1.000000000000000048e-04,3.813974149057449381e+01,1.000000000000000021e-02
-6.204648571185211736e-02,1.176509330326321212e+00,2.477101344887202572e-01,1.000000000000000048e-04,4.048698115276816623e+01,1.000000000000000021e-02
1.189747852635947289e+00,1.076256206851056163e-01,6.233415704194156248e-02,1.000000000000000048e-04,3.723766159499125195e+01,1.000000000000000021e-02
3.216120159962225777e-01,9.498661507524741587e-01,1.644597340664670782e-01,1.000000000000000048e-04,3.948330053378442273e+01,1.000000000000000021e-02
1.093670166079961703e+00,8.793504386123829342e-02,1.270731259336324026e-01,1.000000000000000048e-04,3.889994795621679913e+01,1.000000000000000021e-02
-1.583412318154774345e+00,6.051385436188296829e-01,8.774304534289689705e-02,1.000000000000000048e-04,3.803861001992099489e+01,1.000000000000000021e-02
-2.086735923637025536e+00,-3.354532517749451159e-01,6.418229521371210389e-02,1.000000000000000048e-04,3.730049363176681254e+01,1.000000000000000021e-02
1.348905739089667932e+00,5.539562701541567158e-02,2.869152662250851193e-02,1.000000000000000048e-04,3.550096915136861497e+01,1.000000000000000021e-02
-4.354992821673859815e-01,-3.528873525441560410e-01,1.159680105116909221e-01,1.000000000000000048e-04,3.866776221943136704e+01,1.000000000000000021e-02
-1.472065171926177252e+00,-1.548615127222998655e-01,1.068073013687240724e-01,1.000000000000000048e-04,3.847594116405213782e+01,1.000000000000000021e-02
-4.204721862394098508e-01,-8.373542273697132110e-02,2.615274123711719412e-01,1.000000000000000048e-04,4.061423480964178623e+01,1.000000000000000021e-02
4.960398880788887688e-01,-2.868859048208847184e-01,1.238199459175457484e-01,1.000000000000000048e-04,3.884280989592349442e+01,1.000000000000000021e-02
2.974341049189681563e+00,4.900721499943143655e-01,5.027206087596391981e-02,1.000000000000000048e-04,3.675819272351996148e+01,1.000000000000000021e-02
1.879900400710664776e+00,-2.395700468845645137e-01,1.703330372926896707e-01,1.000000000000000048e-04,3.957181410027148161e+01,1.000000000000000021e-02
-4.295246801154859462e-01,3.435520621980887590e-01,1.397390827111677503e-01,1.000000000000000048e-04,3.913007033291166437e+01,1.000000000000000021e-02
-1.654706056191819208e-01,-7.328580462732769973e-02,1.376300953160518592e-01,1.000000000000000048e-04,3.907430539690356142e+01,1.000000000000000021e-02
