2.694421935208893615e+00,-7.265057913468169204e-01,1.759783274363142525e-01,1.000000000000000048e-04,3.966922782164161276e+01,1.000000000000000021e-02
-2.956181046075817775e+00,-1.063094300445283302e+00,6.995843729801287658e-02,1.000000000000000048e-04,3.749791698952810748e+01,1.000000000000000021e-02
-3.227566469694083118e-01,1.217316536720583375e+00,2.222492736627872389e-01,1.000000000000000048e-04,4.022202537668592726e+01,1.000000000000000021e-02
1.003629041334441752e-02,8.224896462521731344e-01,2.064337941888554351e-01,1.000000000000000048e-04,4.002405712824026551e+01,1.000000000000000021e-02
-3.179150682857998511e-01,1.312645837066130472e+00,1.833773191759620058e-01,1.000000000000000048e-04,3.974458168289270077e+01,1.000000000000000021e-02
1.636750227212032449e+00,1.024983867693347594e+00,1.275703985732199452e-01,1.000000000000000048e-04,3.888160613487975326e+01,1.000000000000000021e-02
-8.926672856295501113e-01,4.798372687310559215e-02,8.128365894405131797e-02,1.000000000000000048e-04,3.780822679196600689e+01,1.000000000000000021e-02
-3.025873727397695223e+00,-1.364904170108420578e+00,2.216910786219024043e-01,1.000000000000000048e-04,4.022880185252017071e+01,1.000000000000000021e-02
4.187233261045775201e-01,1.291702635554701217e+00,1.777664447411335669e-01,1.000000000000000048e-04,3.968737289892136033e+01,1.000000000000000021e-02
-2.918083793569151485e+00,-4.322480473426579817e-01,1.568813915048992147e-01,1.000000000000000048e-04,3.939441318022518601e+01,1.000000000000000021e-02
1.065978337767263362e+00,5.750556324375235562e-01,1.112615640527585548e-01,1.000000000000000048e-04,3.858520839165759497e+01,1.000000000000000021e-02
-2.006080065368382570e+00,8.911199844450385932e-01,6.634427993344726993e-02,1.000000000000000048e-04,3.733383710706814895e+01,1.000000000000000021e-02
-3.063083011564413649e+00,3.976771761144186623e-01,1.994639322412397053e-01,1.000000000000000048e-04,3.995982001452478016e+01,1.000000000000000021e-02
2.410683440797854793e+00,-5.360750518919488172e-03,2.068863594405405681e-01,1.000000000000000048e-04,4.004758709755077462e+01,1.000000000000000021e-02
-2.741780923233990475e+00,1.002515708324567267e-01,2.467737776787428672e-01,1.000000000000000048e-04,4.046679387439434805e+01,1.000000000000000021e-02
-3.049714477992792716e+00,-4.892698218263300536e-01,1.805583035562854377e-01,1.000000000000000048e-04,3.972423214732430807e+01,1.000000000000000021e-02
1.661659526658350039e+00,-5.240016896680299574e-02,6.577435566365252839e-02,1.000000000000000048e-04,3.737411119127605019e+01,1.000000000000000021e-02
-8.345107856332489860e-01,7.868467683252906575e-01,2.365119706134406474e-01,1.000000000000000048e-04,4.038407905700869094e+01,1.000000000000000021e-02
-4.742113105092342629e-01,7.218220643891615218e-02,1.551945270349481820e-01,1.000000000000000048e-04,3.934550561486329912e+01,1.000000000000000021e-02
1.145227678476558708e+00,-9.664270474881851980e-01,2.114089505499883170e-01,1.000000000000000048e-04,4.010313569421398938e+01,1.000000000000000021e-02
-3.006169641972867179e+00,5.780319613197097972e-01,1.700824470695911916e-01,1.000000000000000048e-04,3.958475408259337058e+01,1.000000000000000021e-02
1.791752616225370076e+00,-1.230601583709782787e-01,2.563402019737128779e-01,1.000000000000000048e-04,4.057118520938008999e+01,1.000000000000000021e-02
5.732111271844657630e-01,-8.298794013475820908e-01,8.237026836744099079e-02,1.000000000000000048e-04,3.789654241697255088e+01,1.000000000000000021e-02
8.693243977657116872e-01,-5.328471323361338996e-02,1.530902788650505553e-01,1.000000000000000048e-04,3.931782895289357782e+01,1.000000000000000021e-02
-1.957037817861054130e+00,7.350339649414214804e-01,1.073404528236143740e-01,1.000000000000000048e-04,3.844477603101277907e+01,1.000000000000000021e-02
-9.898716669411333768e-02,1.154547922866086207e+00,1.193688138623625328e-01,1.000000000000000048e-04,3.872902354040112272e+01,1.000000000000000021e-02
-1.083801434855150791e+00,-7.804717465377956076e-01,2.033969247714504380e-01,1.000000000000000048e-04,3.999135989006018832e+01,1.000000000000000021e-02
2.103713629669251794e+00,8.999722179858160587e-01,1.013572711526993242e-01,1.000000000000000048e-04,3.834843646855399868e+01,1.000000000000000021e-02
4.884158936337423818e-01,-1.066397210078640079e-01,7.040592524275557373e-02,1.000000000000000048e-04,3.755758125566116234e+01,1.000000000000000021e-02
-1.736899029666355565e+00,2.418465290649431942e-01,1.902390191855862778e-01,1.000000000000000048e-04,3.982245741246150317e+01,1.000000000000000021e-02
5.789858282877657913e-02,-1.046528401621156901e+00,9.850562479531910220e-02,1.000000000000000048e-04,3.831167767300986782e+01,1.000000000000000021e-02
-2.511670904240592250e+00,-8.810591873147219921e-01,1.701537727867188377e-01,1.000000000000000048e-04,3.957033241288904435e+01,1.000000000000000021e-02
-2.235932927750003074e+00,1.353627795161207459e-01,2.637810007396861334e-01,1.000000000000000048e-04,4.063810353128033626e+01,1.000000000000000021e-02
1.007682123747732028e+00,-1.164612797511771491e+00,1.699348436482539526e-01,1.000000000000000048e-04,3.958780690130858204e+01,1.000000000000000021e-02
-4.714735154850315801e-01,1.458221980730249889e-01,5.774268476533395145e-02,1.000000000000000048e-04,3.704739815803057468e+01,1.000000000000000021e-02
-4.326701329662117068e-01,-1.374829160204704692e-02,7.169755156194757006e-02,1.000000000000000048e-04,3.755230278931141896e+01,1.000000000000000021e-02
-1.023021986184449172e+00,-4.067453860674845600e-01,3.622635263713913645e-02,1.000000000000000048e-04,3.598428212600627774e+01,1.000000000000000021e-02
-2.514609630146977359e+00,-6.962307819945473542e-01,2.435451883515509230e-01,1.000000000000000048e-04,4.045192683509307585e+01,1.000000000000000021e-02
2.083777051594513097e+00,-7.612605777192625878e-01,2.130325987762580198e-01,1.000000000000000048e-04,4.012763709451856897e+01,1.000000000000000021e-02
-1.244705801086261054e-01,-7.819217721377410557e-01,2.345295836623986219e-01,1.000000000000000048e-04,4.037298059058876021e+01,1.000000000000000021e-02
-4.777194548203924640e-01,-3.650941734381882853e-01,7.697679330392825925e-02,1.000000000000000048e-04,3.771115910419344885e+01,1.000000000000000021e-02
-5.385090476980005647e-01,-1.424959216933820105e+00,2.214505800363983923e-01,1.000000000000000048e-04,4.021869619759551284e+01,1.000000000000000021e-02
-8.317706869270522496e-01,1.282762627495570573e-01,1.377045332151778378e-01,1.000000000000000048e-04,3.905675977815442934e+01,1.000000000000000021e-02
-2.359752034287875944e+00,5.228324150257090963e-03,7.225037796678357438e-02,1.000000000000000048e-04,3.756864369930774217e+01,1.000000000000000021e-02
7.202174805283512171e-02,9.700041838199582322e-01,2.577131159758789813e-01,1.000000000000000048e-04,4.059003964486258553e+01,1.000000000000000021e-02
9.488863178446660385e-01,-1.228328609757992407e+00,1.207312068428714191e-01,1.000000000000000048e-04,3.876913935472261841e+01,1.000000000000000021e-02
1.738397521134471546e-02,-1.127314072834681768e+00,4.819873893100390383e-02,1.000000000000000048e-04,3.667555513947337431e+01,1.000000000000000021e-02
1.430510992291010197e+00,1.475154896969272933e-01,1.671024777959759788e-01,1.000000000000000048e-04,3.953644291597746729e+01,1.000000000000000021e-02
-2.619399329929576137e+00,-2.494613459575067971e-02,1.547972261465220267e-01,1.000000000000000048e-04,3.935747874638994404e+01,1.000000000000000021e-02
3.112658951741176239e-01,-1.717180231696822101e-01,2.569699239548632885e-01,1.000000000000000048e-04,4.058283268223214435e+01,1.000000000000000021e-02
-2.951691380530291564e+00,7.428534931175789779e-02,7.202484030527767089e-02,1.000000000000000048e-04,3.755193963135676682e+01,1.000000000000000021e-02
2.298789817212300690e+00,1.033122686902312903e+00,2.520667353531964583e-01,1.000000000000000048e-04,4.054158722562552697e+01,1.000000000000000021e-02
-4.557056042578970789e-01,8.282264057709980420e-01,2.473026109381082360e-01,1.000000000000000048e-04,4.048052482311557299e+01,1.000000000000000021e-02
2.546116960906774196e+00,6.772156766199968203e-01,1.974622052096426383e-01,1.000000000000000048e-04,3.993315153664512707e+01,1.000000000000000021e-02
-8.714657139613279924e-03,-2.422265502613292210e-01,2.622430010332681416e-01,1.000000000000000048e-04,4.062682509072973147e+01,1.000000000000000021e-02
-2.139025279088992093e+00,6.968304396500148989e-01,1.056971205034749062e-01,1.000000000000000048e-04,3.843099470084339941e+01,1.000000000000000021e-02
1.094329325097653793e+00,-1.193435659695821771e+00,1.325941630672811122e-01,1.000000000000000048e-04,3.899344365793113809e+01,1.000000000000000021e-02
-5.740631895131276252e-02,8.217242301602856180e-02,1.788812712763487855e-01,1.000000000000000048e-04,3.969939919951546869e+01,1.000000000000000021e-02
-1.299682564832130405e+00,-2.286426037713784609e-01,2.788913252117104502e-01,1.000000000000000048e-04,4.078125040473342011e+01,1.000000000000000021e-02
2.811107008873299229e+00,1.152953623042307640e+00,2.712443378789044512e-01,1.000000000000000048e-04,4.072538580778684292e+01,1.000000000000000021e-02
-2.665110324659329510e+00,-5.003740251010062590e-01,7.092483283982087272e-02,1.000000000000000048e-04,3.752875180053383275e+01,1.000000000000000021e-02
8.897865377977023371e-01,-3.524866614220487637e-01,8.907129672609181981e-02,1.000000000000000048e-04,3.807294423934837369e+01,1.000000000000000021e-02
3.053384205832201381e-01,-6.218238447453066087e-01,1.736954894397144677e-01,1.000000000000000048e-04,3.964451300277706736e+01,1.000000000000000021e-02
-2.632922552165442909e+00,-9.156138977599408424e-01,2.107928957415527993e-01,1.000000000000000048e-04,4.010917870501606330e+01,1.000000000000000021e-02
2.235223880217320769e-01,-9.116950246455534090e-01,2.699033208684091800e-01,1.000000000000000048e-04,4.071961388846671781e+01,1.000000000000000021e-02
2.242999486668388442e+00,7.646449608262564368e-01,6.748743755648667353e-02,1.000000000000000048e-04,3.742519868613339185e+01,1.000000000000000021e-02
1.880917552178297925e+00,-1.196928418885521372e+00,4.748884392467789262e-02,1.000000000000000048e-04,3.667622105747972938e+01,1.000000000000000021e-02
-3.585590072138411522e-01,-2.360295944695391945e-01,2.755261150108943013e-01,1.000000000000000048e-04,4.074500559722901727e+01,1.000000000000000021e-02
-2.751832297083635304e+00,7.302675642614397944e-02,1.602897837323360442e-01,1.000000000000000048e-04,3.941665754406473354e+01,1.000000000000000021e-02
3.265313237090552434e-01,-2.216874520905269819e-01,7.069523981942427149e-02,1.000000000000000048e-04,3.752942163644915041e+01,1.000000000000000021e-02
1.652252395013314334e+00,1.591316642439029039e-01,2.609625343503656492e-01,1.000000000000000048e-04,4.062475526612416843e+01,1.000000000000000021e-02
-1.738260836158813660e-01,-3.778216266237972576e-01,1.998024966712432793e-01,1.000000000000000048e-04,3.995370798363542519e+01,1.000000000000000021e-02
1.344197250956561618e+00,-8.469710692342408143e-01,2.567564839029372603e-01,1.000000000000000048e-04,4.060072797640838616e+01,1.000000000000000021e-02
1.898354891936750555e+00,-7.786193887503269906e-01,8.053045777805944994e-02,1.000000000000000048e-04,3.787607347507479716e+01,1.000000000000000021e-02
2.672345055699758554e-01,2.593503465643580697e-01,1.994829922061065464e-01,1.000000000000000048e-04,3.995553192397998998e+01,1.000000000000000021e-02
-2.684985830600864265e+00,-8.009062684623230455e-01,1.840383257646220905e-01,1.000000000000000048e-04,3.976812750783435035e+01,1.000000000000000021e-02
3.058665076038089126e+00,3.524241591751884339e-01,2.741198758265137592e-01,1.000000000000000048e-04,4.073527991691948813e+01,1.000000000000000021e-02
-4.884556352960256476e-03,-6.032533904265149349e-01,2.709243446915410303e-01,1.000000000000000048e-04,4.072238361976648235e+01,1.000000000000000021e-02
-2.586300136180829767e+00,-3.154761561931942460e-01,1.414531275863657456e-01,1.000000000000000048e-04,3.911467673944650869e+01,1.000000000000000021e-02
-2.672466886734561342e+00,-4.533378789976592049e-01,2.334398050418098336e-01,1.000000000000000048e-04,4.035304791503678956e+01,1.000000000000000021e-02
-2.972496648016098142e+00,-3.722308588315688116e-01,8.610451312309352900e-02,1.000000000000000048e-04,3.796959719222599716e+01,1.000000000000000021e-02
-3.130834626971322088e+00,2.065141199646953751e-01,7.418802365544552302e-02,1.000000000000000048e-04,3.762410397620043767e+01,1.000000000000000021e-02
-2.627451188977488528e+00,7.385980192453458493e-01,2.755314511025532820e-01,1.000000000000000048e-04,4.074002305418322578e+01,1.000000000000000021e-02
4.402516628485688699e-01,-3.498809171483117098e-01,2.281634593670296418e-01,1.000000000000000048e-04,4.028560344229018853e+01,1.000000000000000021e-02
1.691052968078587959e+00,-4.692125490135321542e-01,2.685967049758095637e-01,1.000000000000000048e-04,4.069173259377493679e+01,1.000000000000000021e-02
-2.804254476180263467e+00,1.291588538651316842e+00,1.710020632335362833e-01,1.000000000000000048e-04,3.957918298533829926e+01,1.000000000000000021e-02
2.084392941280338363e+00,-3.319242566762115043e-01,4.833317737197151409e-02,1.000000000000000048e-04,3.671776953887550832e+01,1.000000000000000021e-02
-1.001909635111139618e+00,-7.004706806903285843e-01,2.329588843025984790e-01,1.000000000000000048e-04,4.032367308648724702e+01,1.000000000000000021e-02
6.676915174751316684e-01,-6.650805734977738304e-01,2.563192241085099354e-01,1.000000000000000048e-04,4.059330503243985078e+01,1.000000000000000021e-02
-2.066605528767111011e+00,8.502414541226528399e-01,2.417158664017808878e-01,1.000000000000000048e-04,4.041555096254182899e+01,1.000000000000000021e-02
7.849501833968548503e-01,7.111564152402523042e-01,1.872658922125649550e-01,1.000000000000000048e-04,3.980032110860879158e+01,1.000000000000000021e-02
1.543841447381988807e+00,1.400738663284421648e+00,2.582461211339559526e-01,1.000000000000000048e-04,4.059861084041127555e+01,1.000000000000000021e-02
-1.503558467822556199e+00,-3.080557999093531674e-01,5.700228092843651062e-02,1.000000000000000048e-04,3.701955244682373092e+01,1.000000000000000021e-02
-1.159546525027667974e+00,4.323490221957952961e-01,2.433917283133386622e-01,1.000000000000000048e-04,4.042959867704981036e+01,1.000000000000000021e-02
-2.576560893340727798e+00,1.844311248487020549e-01,1.146700917721821256e-01,1.000000000000000048e-04,3.862720828291577391e+01,1.000000000000000021e-02
5.875906732472468974e-02,1.255068535255918771e-01,2.663586460357949548e-01,1.000000000000000048e-04,4.067955693510293003e+01,1.000000000000000021e-02
-2.480527436175493428e+00,-6.498422147136692084e-01,1.341307406345511044e-01,1.000000000000000048e-04,3.900442786097986669e+01,1.000000000000000021e-02
2.438378489600633969e+00,3.547798690050907311e-01,2.268994977357070564e-01,1.000000000000000048e-04,4.028064442087436703e+01,1.000000000000000021e-02
2.618703325567891760e+00,4.580666903669503576e-01,5.148925800378978401e-02,1.000000000000000048e-04,3.682129613731836315e+01,1.000000000000000021e-02
1.330912197240654571e+00,8.565470875896483705e-01,2.354145202483752808e-01,1.000000000000000048e-04,4.035856963008428977e+01,1.000000000000000021e-02
-8.283030638719366401e-01,8.281477725175365734e-01,2.580889072406373774e-01,1.000000000000000048e-04,4.056898982708424484e+01,1.000000000000000021e-02
-2.498784032149372614e-01,5.193609221174915191e-01,2.149041002468710104e-02,1.000000000000000048e-04,3.479595757698359648e+01,1.000000000000000021e-02
-8.891278534497040198e-01,-4.027970683600694546e-01,8.742122898751758520e-02,1.000000000000000048e-04,3.799999954396763968e+01,1.000000000000000021e-02
1.635300292216271600e+00,7.268981805293828202e-01,6.686586593098020614e-02,1.000000000000000048e-04,3.740437228533134828e+01,1.000000000000000021e-02
-2.162220757262957260e+00,-4.372349367141414866e-02,2.065422813099695443e-01,1.000000000000000048e-04,4.003065737924089973e+01,1.000000000000000021e-02
3.981838192054798498e-01,3.518497661747055361e-02,4.872025895067988444e-02,1.000000000000000048e-04,3.668907197493852834e+01,1.000000000000000021e-02
3.753819740866597421e-01,-4.540049066204547845e-01,2.332400841268003067e-01,1.000000000000000048e-04,4.034284293012965605e+01,1.000000000000000021e-02
9.031773003438861025e-01,-4.320536948857123249e-02,1.731050725911025268e-01,1.000000000000000048e-04,3.962962388953766180e+01,1.000000000000000021e-02
1.059883449052015258e+00,7.950578625191249138e-01,3.274256291763255611e-02,1.000000000000000048e-04,3.579449779329775794e+01,1.000000000000000021e-02
1.056712967354759058e+00,7.499391837151341278e-01,1.571861316851301815e-01,1.000000000000000048e-04,3.937501320377698732e+01,1.000000000000000021e-02
-1.661488441321340215e+00,-8.294154033129190751e-01,2.484292190697452440e-01,1.000000000000000048e-04,4.049414744244560183e+01,1.000000000000000021e-02
-1.262220966218428941e+00,-6.016997824853690391e-01,2.654940559935536903e-01,1.000000000000000048e-04,4.066921958926668879e+01,1.000000000000000021e-02
1.653057313477251711e+00,-3.404766703132862116e-01,1.113266177792204825e-01,1.000000000000000048e-04,3.859296772640349360e+01,1.000000000000000021e-02
3.033329709651891193e+00,-2.685396241910726900e-01,2.261517340198300197e-01,1.000000000000000048e-04,4.027038208967420019e+01,1.000000000000000021e-02
-2.295494579238394284e+00,6.642250749848410685e-01,1.120616397924001362e-01,1.000000000000000048e-04,3.856267029890197762e+01,1.000000000000000021e-02
-3.691809665502088222e-02,-1.220666953632260965e+00,2.847633703505536573e-02,1.000000000000000048e-04,3.553310964259107863e+01,1.000000000000000021e-02
-2.155930428933330312e+00,2.782594830563605015e-01,2.541057120116718693e-02,1.000000000000000048e-04,3.514629061813378286e+01,1.000000000000000021e-02
-1.810621965143765610e+00,4.908091462794459403e-01,2.683022454264336609e-01,1.000000000000000048e-04,4.067784780472747030e+01,1.000000000000000021e-02
-1.910541171765100854e+00,6.991388946424961226e-01,1.459676814630974651e-01,1.000000000000000048e-04,3.916882055521443817e+01,1.000000000000000021e-02
-2.178261438614487844e+00,1.131286073486103216e+00,1.767788898106963380e-01,1.000000000000000048e-04,3.964840682580421571e+01,1.000000000000000021e-02
-2.305628998395218510e+00,1.904963759159845615e-01,2.359143831078187592e-01,1.000000000000000048e-04,4.038495640745721005e+01,1.000000000000000021e-02
-2.009983691935773642e+00,5.976566250101216227e-01,1.904351246751816440e-01,1.000000000000000048e-04,3.981877360343023753e+01,1.000000000000000021e-02
9.982218189168001743e-01,-8.758743962036894537e-01,9.876282092215427078e-02,1.000000000000000048e-04,3.830725771159691817e+01,1.000000000000000021e-02
1.162398177155876233e+00,-7.385166570876140479e-01,2.070797776266282142e-01,1.000000000000000048e-04,4.006359241618261535e+01,1.000000000000000021e-02
-8.101859814900977952e-01,4.248433309315027273e-01,1.777477093707791056e-01,1.000000000000000048e-04,3.966062491480208507e+01,1.000000000000000021e-02
2.335462512349190334e+00,5.076161622648962535e-01,1.894939550069536516e-01,1.000000000000000048e-04,3.984434896200738763e+01,1.000000000000000021e-02
2.432071905630974307e+00,1.070574918394247899e+00,1.566131345588370749e-01,1.000000000000000048e-04,3.938277150525790660e+01,1.000000000000000021e-02
-4.689226383659113040e-01,-2.011152237905726725e-01,5.889877960957634606e-02,1.000000000000000048e-04,3.708871689730300858e+01,1.000000000000000021e-02
-1.055459256842743887e+00,4.774788071090014796e-01,1.494034103168664362e-01,1.000000000000000048e-04,3.926451684700267464e+01,1.000000000000000021e-02
3.128120310031736295e+00,1.982003450440190662e-01,2.492086535236053280e-01,1.000000000000000048e-04,4.048113432230071851e+01,1.000000000000000021e-02
-1.473483067394758095e+00,1.243159656442483829e+00,2.095880341994251772e-01,1.000000000000000048e-04,4.006690826547038142e+01,1.000000000000000021e-02
-1.265332485145463259e+00,1.122212015891867587e+00,2.194236332489236663e-01,1.000000000000000048e-04,4.017124528881768697e+01,1.000000000000000021e-02
2.742686936540128073e+00,3.311195078888995447e-02,7.214349874214209812e-02,1.000000000000000048e-04,3.758091527442675073e+01,1.000000000000000021e-02
-2.006764528985364393e+00,5.431191671912638519e-01,2.695952847443365830e-01,1.000000000000000048e-04,4.069444218679093694e+01,1.000000000000000021e-02
1.984376163927771941e+00,-1.216006448494533210e-01,2.053141060025962528e-01,1.000000000000000048e-04,4.003587133421726918e+01,1.000000000000000021e-02
-1.787717752532889115e-01,-5.063116222388461818e-01,7.139242593543393411e-02,1.000000000000000048e-04,3.754911673346081358e+01,1.000000000000000021e-02
7.773219356558502824e-01,-3.307206895829142290e-01,1.146723378286762518e-01,1.000000000000000048e-04,3.864161503332386616e+01,1.000000000000000021e-02
-2.791216849806859024e+00,2.434601790933497156e-01,6.426908575676693047e-02,1.000000000000000048e-04,3.730367623212369210e+01,1.000000000000000021e-02
-9.661169267179112730e-01,-3.128432224901407377e-01,4.478717616404437329e-02,1.000000000000000048e-04,3.644295562294588109e+01,1.000000000000000021e-02
8.923807279827169481e-01,-5.503820191774402293e-01,2.588972655005457035e-01,1.000000000000000048e-04,4.061547153491604689e+01,1.000000000000000021e-02
1.734189211951241205e+00,-1.322693938891607468e+00,9.437835354219892281e-02,1.000000000000000048e-04,3.821157032775298745e+01,1.000000000000000021e-02
9.905689586574162320e-01,-3.953880403204967919e-01,2.529077565771071789e-01,1.000000000000000048e-04,4.055567586655713797e+01,1.000000000000000021e-02
-2.499389252780052750e+00,-7.465910238582316172e-01,7.138104137382206282e-02,1.000000000000000048e-04,3.755769136882808823e+01,1.000000000000000021e-02
2.555466876150492617e+00,-4.203999261217274963e-01,2.722924973528568771e-01,1.000000000000000048e-04,4.072568157441964587e+01,1.000000000000000021e-02
-6.204648571185211736e-02,1.176509330326321212e+00,2.231880753941046791e-01,1.000000000000000048e-04,4.023994859325836870e+01,1.000000000000000021e-02
1.189747852635947289e+00,1.076256206851056163e-01,2.118873286628260022e-01,1.000000000000000048e-04,4.011997477008723223e+01,1.000000000000000021e-02
3.216120159962225777e-01,9.498661507524741587e-01,2.647469463804785761e-01,1.000000000000000048e-04,4.066144709812854785e+01,1.000000000000000021e-02
1.093670166079961703e+00,8.793504386123829342e-02,1.335825013810785222e-01,1.000000000000000048e-04,3.901013079775407988e+01,1.000000000000000021e-02
-1.583412318154774345e+00,6.051385436188296829e-01,2.518867804556168544e-02,1.000000000000000048e-04,3.509561546715875124e+01,1.000000000000000021e-02
-2.086735923637025536e+00,-3.354532517749451159e-01,2.765491983883472393e-01,1.000000000000000048e-04,4.076658713501723241e+01,1.000000000000000021e-02
1.348905739089667932e+00,5.539562701541567158e-02,2.701311930694476615e-01,1.000000000000000048e-04,4.071369397389175049e+01,1.000000000000000021e-02
-4.354992821673859815e-01,-3.528873525441560410e-01,1.439381934724319745e-01,1.000000000000000048e-04,3.917522353791019185e+01,1.000000000000000021e-02
-1.472065171926177252e+00,-1.548615127222998655e-01,5.530236468702409702e-02,1.000000000000000048e-04,3.692707621574028565e+01,1.000000000000000021e-02
-4.204721862394098508e-01,-8.373542273697132110e-02,2.496092558744824608e-01,1.000000000000000048e-04,4.051051971465041390e+01,1.000000000000000021e-02
4.960398880788887688e-01,-2.868859048208847184e-01,2.477665311445769181e-01,1.000000000000000048e-04,4.048951281461103235e+01,1.000000000000000021e-02
2.974341049189681563e+00,4.900721499943143655e-01,5.152082369463495404e-02,1.000000000000000048e-04,3.681243739651109337e+01,1.000000000000000021e-02
1.879900400710664776e+00,-2.395700468845645137e-01,1.612903456685848003e-01,1.000000000000000048e-04,3.946936706269256945e+01,1.000000000000000021e-02
-4.295246801154859462e-01,3.435520621980887590e-01,1.360443702264826360e-01,1.000000000000000048e-04,3.903829680455402951e+01,1.000000000000000021e-02
-1.654706056191819208e-01,-7.328580462732769973e-02,8.187463628169733276e-02,1.000000000000000048e-04,3.784933378310000762e+01,1.000000000000000021e-02
