-1.598279621179586663e+00,2.779993629999999993e-01,1.573891421824828996e-01,1.000000000000000048e-04,3.944170031680917532e+01,1.700000000000000122e-01
-8.306753881795865269e-01,5.048130450000000158e-01,4.071033204075962253e-01,1.000000000000000048e-04,4.193836280452681819e+01,1.600000000000000033e-01
-1.512887194179586281e+00,3.571169940000000209e-01,5.125971088060015113e-01,1.000000000000000048e-04,4.214356337835076260e+01,1.600000000000000033e-01
-2.094054222179586588e+00,-9.657747650000000350e-01,2.608431584226895694e-01,1.000000000000000048e-04,4.046833405344955281e+01,1.600000000000000033e-01
-1.256550916179586252e+00,-1.037146153999999987e+00,4.220265940375014235e-01,1.000000000000000048e-04,4.172263819085119962e+01,1.900000000000000022e-01
-2.638489419179586015e+00,-8.917870300000000361e-01,2.244457596956326295e-01,1.000000000000000048e-04,4.040430125068047573e+01,1.600000000000000033e-01
3.095686500000000008e-02,-1.139960520999999893e+00,1.179155558639861656e-01,1.000000000000000048e-04,3.830589677110691582e+01,1.700000000000000122e-01
-4.765590681795863759e-01,-7.328014390000000544e-01,3.869211985893550310e-01,1.000000000000000048e-04,4.154048509918525411e+01,1.600000000000000033e-01
7.532392530000000530e-01,9.936355940000000109e-01,1.005672917628421370e+00,1.000000000000000048e-04,4.433659395424385252e+01,1.600000000000000033e-01
1.355624495999999901e+00,4.654212710000000253e-01,2.568413544958767503e-01,1.000000000000000048e-04,4.062917420673679914e+01,2.200000000000000011e-01
-2.027672372179586624e+00,-3.494576850000000179e-01,2.522726306390536966e-01,1.000000000000000048e-04,4.052857384924150352e+01,8.999999999999999667e-02
-2.243457714179585949e+00,5.735296930000000071e-01,6.674603586749112694e-01,1.000000000000000048e-04,4.295689979125077684e+01,8.000000000000000167e-02
-1.661352162179586145e+00,7.473004210000000480e-01,3.421424488558326704e-01,1.000000000000000048e-04,4.122558171296233809e+01,1.100000000000000006e-01
-1.046494641179585905e+00,9.839422859999999993e-01,1.258536532506792316e+00,1.000000000000000048e-04,4.466340052214633971e+01,1.600000000000000033e-01
-1.357076630179586019e+00,8.591991679999999576e-01,6.134993627662810312e-01,1.000000000000000048e-04,4.290083786705239532e+01,1.300000000000000044e-01
-1.489161381179585852e+00,8.733460579999999807e-01,1.878526436072192052e-01,1.000000000000000048e-04,3.967456970151604168e+01,8.999999999999999667e-02
2.602874990000000111e+00,9.865781270000000269e-01,7.380994283931985311e-01,1.000000000000000048e-04,4.328393754591736098e+01,2.099999999999999922e-01
2.011122450999999867e+00,-1.257182417000000108e+00,4.762449806780064687e-01,1.000000000000000048e-04,4.242013649752266957e+01,1.799999999999999933e-01
2.487812089999999809e+00,-1.095252646999999913e+00,6.921469334160639253e-01,1.000000000000000048e-04,4.320083438754371485e+01,1.600000000000000033e-01
-2.060955814179585843e+00,9.020563839999999889e-01,2.651473609128844888e-01,1.000000000000000048e-04,4.051012438118930703e+01,1.799999999999999933e-01
-1.552222439179586466e+00,1.270289940999999923e+00,9.344016307590723436e-01,1.000000000000000048e-04,4.390573906105716162e+01,1.600000000000000033e-01
-3.584264691795864266e-01,1.112498557000000110e+00,2.300693733434686639e-01,1.000000000000000048e-04,4.008496237673109874e+01,2.000000000000000111e-01
1.187793541000000008e+00,1.533334508000000040e+00,1.308874829398947170e-01,1.000000000000000048e-04,3.909537155441129386e+01,1.700000000000000122e-01
9.029304540000000490e-01,-5.888661819999999603e-01,9.059825379148240820e-01,1.000000000000000048e-04,4.389080853788863834e+01,1.700000000000000122e-01
2.675488564000000125e+00,-1.029758079000000048e+00,1.316815306695052090e+00,1.000000000000000048e-04,4.503988592224070686e+01,1.700000000000000122e-01
9.979371630000000160e-01,-7.076351440000000492e-01,5.195004622119003823e-01,1.000000000000000048e-04,4.245886724192310879e+01,2.000000000000000111e-01
-2.809922836179586270e+00,-1.219770695000000016e+00,3.607164854714490776e-01,1.000000000000000048e-04,4.162224252094047472e+01,1.900000000000000022e-01
1.945616433999999950e+00,5.533621010000000506e-01,1.384105549845937588e-01,1.000000000000000048e-04,3.954891601910666310e+01,1.700000000000000122e-01
1.369802210000000131e-01,9.686457469999999459e-01,3.151201055930570316e-01,1.000000000000000048e-04,4.099144338500484963e+01,1.000000000000000056e-01
2.377785852000000144e+00,-1.071983155000000076e+00,1.327731609311936456e+00,1.000000000000000048e-04,4.502743709498063396e+01,1.000000000000000056e-01
1.194530383000000029e+00,-8.514353350000000153e-01,1.306083237856789037e+00,1.000000000000000048e-04,4.470993742997912079e+01,1.100000000000000006e-01
2.328991532999999947e+00,-1.085498080000000032e+00,2.580194748921533776e-01,1.000000000000000048e-04,4.086346076472087674e+01,1.199999999999999956e-01
3.099662444999999877e+00,-8.173274409999999879e-01,8.789991408496575787e-01,1.000000000000000048e-04,4.381172935566324611e+01,1.300000000000000044e-01
1.008677688999999988e+00,-7.224949280000000362e-01,6.418852727259614088e-01,1.000000000000000048e-04,4.275343555665317297e+01,1.199999999999999956e-01
1.116317643999999998e+00,-8.188746820000000204e-01,1.187385979991826268e-01,1.000000000000000048e-04,3.874142853163184697e+01,1.499999999999999944e-01
1.368634144999999913e+00,-9.746537960000000167e-01,1.327631017340099806e+00,1.000000000000000048e-04,4.495124714129971011e+01,2.200000000000000011e-01
2.840707745000000006e+00,-9.874777999999999611e-01,2.158617859670504124e-01,1.000000000000000048e-04,4.003206710405945756e+01,1.199999999999999956e-01
1.164831654000000105e+00,-8.361433499999999519e-01,7.258654929515353516e-01,1.000000000000000048e-04,4.322036422763493846e+01,1.600000000000000033e-01
9.274529849999999520e-01,-5.648102149999999488e-01,4.094151319194390126e-01,1.000000000000000048e-04,4.172152378917117233e+01,2.200000000000000011e-01
1.803806121999999901e+00,-1.051757271000000049e+00,4.828705938360697836e-01,1.000000000000000048e-04,4.229200938359380046e+01,2.200000000000000011e-01
1.910407339000000038e+00,-1.096340147000000043e+00,3.440906990555732126e-01,1.000000000000000048e-04,4.124977561514484137e+01,1.300000000000000044e-01
-2.994395329179586174e+00,-6.874333790000000111e-01,5.838873686610801528e-01,1.000000000000000048e-04,4.274015215011220192e+01,1.600000000000000033e-01
2.004169926999999962e+00,-1.114377941999999955e+00,1.223674375015801896e-01,1.000000000000000048e-04,3.897813407577221056e+01,2.099999999999999922e-01
2.993884073999999895e+00,-9.067153500000000310e-01,2.014563332539183182e-01,1.000000000000000048e-04,4.019201991688662901e+01,2.000000000000000111e-01
2.896584697999999847e+00,-6.981149509999999836e-01,2.216136203696115192e-01,1.000000000000000048e-04,4.025784194303852104e+01,2.000000000000000111e-01
2.644964143999999795e+00,-1.038456438999999953e+00,5.181268885275607250e-01,1.000000000000000048e-04,4.235858708056406385e+01,2.500000000000000000e-01
1.395029569000000080e+00,-9.673563530000000021e-01,3.123829787743928055e-01,1.000000000000000048e-04,4.132418867844202737e+01,2.200000000000000011e-01
1.133893306999999906e+00,-8.234022290000000410e-01,7.898432981061480618e-01,1.000000000000000048e-04,4.366813289232944584e+01,1.199999999999999956e-01
9.542908199999999841e-01,-6.210129070000000029e-01,3.455173342623600874e-01,1.000000000000000048e-04,4.121707542318801387e+01,1.400000000000000133e-01
1.112357503999999997e+00,-7.717409769999999947e-01,1.380355841811615747e-01,1.000000000000000048e-04,3.928116831570325473e+01,1.400000000000000133e-01
1.392129267000000059e+00,-9.489503049999999940e-01,2.051860221479104851e-01,1.000000000000000048e-04,3.996777560798723528e+01,1.100000000000000006e-01
3.104633763999999907e+00,-8.563587980000000321e-01,6.025693010230308566e-01,1.000000000000000048e-04,4.287369901270966466e+01,1.199999999999999956e-01
-1.581672989179586430e+00,-6.726275419999999672e-01,3.688667640870391118e-01,1.000000000000000048e-04,4.145428775011554023e+01,2.000000000000000111e-01
8.758714749999999549e-01,-5.394949780000000139e-01,2.680728615293885841e-01,1.000000000000000048e-04,4.063584011519206740e+01,1.199999999999999956e-01
1.027821937999999991e+00,-6.897361509999999640e-01,4.365554791702224158e-01,1.000000000000000048e-04,4.190728864986802904e+01,1.499999999999999944e-01
8.011105990000000343e-01,-4.568120419999999737e-01,2.559381859318159425e-01,1.000000000000000048e-04,4.040807892703793414e+01,1.499999999999999944e-01
8.044453879999999835e-01,-4.591503659999999765e-01,7.308544777937608927e-01,1.000000000000000048e-04,4.317144833721441444e+01,1.100000000000000006e-01
8.290542589999999601e-01,-4.498624509999999965e-01,4.395762829245515313e-01,1.000000000000000048e-04,4.178774781245168413e+01,1.199999999999999956e-01
2.306908324000000121e+00,-1.093655438999999951e+00,1.586012657440463158e-01,1.000000000000000048e-04,3.926864785976660244e+01,1.300000000000000044e-01
-3.090495873179586184e+00,-7.974218849999999970e-01,1.744375072821406913e-01,1.000000000000000048e-04,3.976454435717474212e+01,1.300000000000000044e-01
2.850739061000000074e+00,-9.724982730000000242e-01,3.605998157749459310e-01,1.000000000000000048e-04,4.146881337533388034e+01,1.100000000000000006e-01
1.925211972000000049e+00,-1.067349442999999898e+00,4.328482067702281721e-01,1.000000000000000048e-04,4.209729689625606852e+01,1.600000000000000033e-01
3.010706126000000094e+00,-9.149326070000000088e-01,5.080490057815580940e-01,1.000000000000000048e-04,4.236279768823085590e+01,1.199999999999999956e-01
1.754869720000000077e+00,-1.052947148999999971e+00,2.352198866615959894e-01,1.000000000000000048e-04,4.048179801670683275e+01,1.300000000000000044e-01
3.028086770999999899e+00,-8.725603690000000023e-01,4.269232519765189249e-01,1.000000000000000048e-04,4.181160991111756431e+01,1.199999999999999956e-01
2.780301081000000174e+00,-1.010780400000000023e+00,5.908584902397182592e-01,1.000000000000000048e-04,4.269293938777854436e+01,1.700000000000000122e-01
3.096540631999999960e+00,-8.261897350000000362e-01,2.601442343373783217e-01,1.000000000000000048e-04,4.058898937357542991e+01,1.100000000000000006e-01
-3.043596368179586342e+00,-7.656326449999999451e-01,3.388103911122510858e-01,1.000000000000000048e-04,4.145709436722464147e+01,1.100000000000000006e-01
2.593403560000000052e+00,-1.068240442000000012e+00,1.096100766459322085e+00,1.000000000000000048e-04,4.438855752099677687e+01,1.199999999999999956e-01
1.277663320999999907e+00,-8.910532270000000032e-01,3.495402972722150281e-01,1.000000000000000048e-04,4.145668656928624785e+01,1.499999999999999944e-01
8.729576639999999665e-01,-5.017517409999999733e-01,2.000543310129254682e-01,1.000000000000000048e-04,3.975200656378577690e+01,1.199999999999999956e-01
2.323316692000000128e+00,-1.072994334000000105e+00,6.183896788874161388e-01,1.000000000000000048e-04,4.299392882466472798e+01,1.400000000000000133e-01
-3.012222731179586166e+00,-7.219820959999999621e-01,3.370222789956109910e-01,1.000000000000000048e-04,4.135254145372731216e+01,1.199999999999999956e-01
2.306010604999999991e+00,-1.110345181000000014e+00,1.888442895659470100e-01,1.000000000000000048e-04,3.983147796081531311e+01,1.100000000000000006e-01
2.437557496999999795e+00,-1.097151527000000071e+00,1.275590300070592598e-01,1.000000000000000048e-04,3.889421761343487560e+01,1.100000000000000006e-01
1.098420291999999909e+00,-7.444727049999999569e-01,4.021606103413584155e-01,1.000000000000000048e-04,4.170209377291705266e+01,1.300000000000000044e-01
8.241628739999999897e-01,-4.611620249999999754e-01,7.881235500660450644e-01,1.000000000000000048e-04,4.341508775843969659e+01,1.400000000000000133e-01
1.017317494999999905e+00,-7.027905669999999771e-01,1.963811470526632963e-01,1.000000000000000048e-04,3.992462083999281930e+01,1.199999999999999956e-01
2.728679550999999925e+00,-1.007430967999999982e+00,6.103951170581560781e-01,1.000000000000000048e-04,4.279309583538278616e+01,1.100000000000000006e-01
2.848837458999999850e+00,-9.622339979999999793e-01,6.724794721692894939e-01,1.000000000000000048e-04,4.298168145939410323e+01,1.199999999999999956e-01
-3.065525731179586266e+00,-7.207210450000000046e-01,2.959834666230869438e-01,1.000000000000000048e-04,4.091078867406639574e+01,1.199999999999999956e-01
1.103969978000000074e+00,-7.587182380000000448e-01,4.116281235271836980e-01,1.000000000000000048e-04,4.187625435799787965e+01,1.300000000000000044e-01
1.112034854000000017e+00,-7.675460100000000008e-01,7.021150067551231722e-01,1.000000000000000048e-04,4.295415604970159507e+01,1.199999999999999956e-01
2.373162053000000160e+00,-1.072487750000000073e+00,3.708791647862761387e-01,1.000000000000000048e-04,4.155430538487015468e+01,1.100000000000000006e-01
2.221583438000000132e+00,-1.096064289000000080e+00,3.249454031105813989e-01,1.000000000000000048e-04,4.092455942891324128e+01,1.199999999999999956e-01
2.775251189000000007e+00,-1.013244017000000108e+00,3.245425536823134394e-01,1.000000000000000048e-04,4.128495335645222752e+01,1.700000000000000122e-01
1.527128894000000070e+00,-9.963611940000000056e-01,3.922276219377893725e-01,1.000000000000000048e-04,4.155844038644335114e+01,1.400000000000000133e-01
-1.936135624179586401e+00,1.327891944000000102e+00,3.922479912007033054e-01,1.000000000000000048e-04,4.180612811682529184e+01,1.199999999999999956e-01
2.120951332999999828e+00,-1.112975437000000012e+00,6.130740419591882429e-01,1.000000000000000048e-04,4.298503163688587847e+01,1.600000000000000033e-01
2.950704906999999988e+00,-9.277153000000000205e-01,4.096411403196156265e-01,1.000000000000000048e-04,4.178825574399713361e+01,1.700000000000000122e-01
2.461302839000000020e+00,-1.064109841000000056e+00,7.572712936981591536e-01,1.000000000000000048e-04,4.340840079929280648e+01,1.499999999999999944e-01
1.687800213000000049e+00,-1.037844004000000098e+00,2.490417091065590949e-01,1.000000000000000048e-04,4.058103257297912592e+01,1.100000000000000006e-01
-3.069023128179586113e+00,-7.343218900000000327e-01,4.332577656682949918e-01,1.000000000000000048e-04,4.196551878885492215e+01,2.000000000000000111e-01
7.655655390000000171e-01,-3.825025819999999799e-01,2.888773675897131632e-01,1.000000000000000048e-04,4.087331057937895196e+01,1.300000000000000044e-01
-3.051736326179586012e+00,-7.690870560000000467e-01,7.383048889080894295e-01,1.000000000000000048e-04,4.328037243752727647e+01,1.499999999999999944e-01
-3.116938176179586240e+00,-7.920766919999999711e-01,6.323206871860549416e-01,1.000000000000000048e-04,4.289117473855142038e+01,1.100000000000000006e-01
1.020863690000000101e+00,-6.877910739999999468e-01,5.872405707632479821e-01,1.000000000000000048e-04,4.242276006182387960e+01,1.199999999999999956e-01
1.792785233999999894e+00,-1.066474936999999956e+00,2.086489491307188526e-01,1.000000000000000048e-04,4.004782640728465992e+01,1.100000000000000006e-01
1.805689748000000039e+00,-1.066896787999999985e+00,4.098078999732281957e-01,1.000000000000000048e-04,4.163095021751691860e+01,1.100000000000000006e-01
1.773248071000000037e+00,-1.046601056999999946e+00,3.102646299876701264e-01,1.000000000000000048e-04,4.134494111119352766e+01,2.099999999999999922e-01
1.076689889999999927e+00,-7.549444410000000216e-01,7.421202212653235097e-01,1.000000000000000048e-04,4.338435474990968288e+01,1.199999999999999956e-01
2.336456505000000128e+00,-1.089906792000000069e+00,1.049399282638530551e+00,1.000000000000000048e-04,4.422260037008108924e+01,1.199999999999999956e-01
2.522083900000000156e+00,-1.078852812999999911e+00,2.920598053566338947e-01,1.000000000000000048e-04,4.090849428244036545e+01,1.199999999999999956e-01
3.676074389999999803e-01,1.100614297999999991e+00,3.382355970992245719e-01,1.000000000000000048e-04,4.141095670060634149e+01,1.700000000000000122e-01
2.099931574000000190e+00,-1.082223048999999993e+00,5.628537382032108294e-01,1.000000000000000048e-04,4.237703986616399732e+01,1.100000000000000006e-01
8.155488279999999479e-01,-4.642700679999999802e-01,3.387122061206033763e-01,1.000000000000000048e-04,4.111486492843566509e+01,2.099999999999999922e-01
9.861636230000000447e-01,-6.881834650000000497e-01,3.306141320446607246e-01,1.000000000000000048e-04,4.152633389809062692e+01,1.300000000000000044e-01
1.864254864999999928e+00,-1.086684659999999969e+00,5.010206907843528512e-01,1.000000000000000048e-04,4.239128700062632049e+01,1.199999999999999956e-01
2.873066016000000111e+00,-9.753574739999999466e-01,1.725568268611716860e-01,1.000000000000000048e-04,3.996393312025043087e+01,1.300000000000000044e-01
2.270287562000000037e+00,-1.085086717999999895e+00,8.453520864319779005e-01,1.000000000000000048e-04,4.357599120491761369e+01,1.799999999999999933e-01
8.268071609999999572e-01,-4.587794940000000099e-01,3.547948658794204402e-01,1.000000000000000048e-04,4.150105203803674669e+01,1.199999999999999956e-01
-3.050869045179586347e+00,-7.648855789999999821e-01,1.337015172253335216e-01,1.000000000000000048e-04,3.900256260108283612e+01,1.199999999999999956e-01
1.101963728999999947e+00,-7.466317359999999903e-01,7.490148620044270178e-01,1.000000000000000048e-04,4.335703883441339457e+01,1.900000000000000022e-01
1.745116724000000064e+00,-1.056563783000000090e+00,5.058754606012796362e-01,1.000000000000000048e-04,4.227186708954204164e+01,1.300000000000000044e-01
7.889769570000000343e-01,-3.846565690000000037e-01,4.365885829043014699e-01,1.000000000000000048e-04,4.218007745019498600e+01,1.499999999999999944e-01
1.385818830999999918e+00,-9.278259679999999454e-01,6.392320544744227728e-01,1.000000000000000048e-04,4.313006965669023174e+01,1.499999999999999944e-01
1.138484923000000038e+00,-8.197145099999999518e-01,2.043758230364274286e-01,1.000000000000000048e-04,4.000488305009228185e+01,1.400000000000000133e-01
1.783410439000000069e+00,-1.080958507999999929e+00,6.563284160437892201e-01,1.000000000000000048e-04,4.309752717903454311e+01,1.400000000000000133e-01
2.617653461000000181e+00,-1.025884226000000066e+00,3.820237436690985255e-01,1.000000000000000048e-04,4.155127956824072299e+01,1.199999999999999956e-01
8.270197009999999960e-01,-4.157453939999999903e-01,3.037422065616670608e-01,1.000000000000000048e-04,4.102259722182212442e+01,1.199999999999999956e-01
3.128792493000000174e+00,-8.522697870000000009e-01,2.250454262271037731e-01,1.000000000000000048e-04,4.002349406020272227e+01,1.100000000000000006e-01
1.366158207000000013e+00,-9.614226009999999878e-01,1.309630768935681200e-01,1.000000000000000048e-04,3.900798583963791089e+01,1.100000000000000006e-01
2.846286316000000038e+00,-9.688357899999999745e-01,8.578816995581746152e-01,1.000000000000000048e-04,4.381958448398458472e+01,1.400000000000000133e-01
9.208216280000000031e-01,-6.185352929999999860e-01,1.265554261800338587e+00,1.000000000000000048e-04,4.493804054512541057e+01,1.499999999999999944e-01
7.622987450000000553e-01,-3.411912120000000215e-01,7.039114997527764483e-01,1.000000000000000048e-04,4.324079711796067471e+01,1.199999999999999956e-01
9.277931750000000255e-01,-5.813990460000000304e-01,5.412818112549016014e-01,1.000000000000000048e-04,4.238629282631676887e+01,2.099999999999999922e-01
1.010173165000000095e+00,-6.808591280000000356e-01,5.444466841602917384e-01,1.000000000000000048e-04,4.247593274507692485e+01,1.300000000000000044e-01
1.661181446000000062e+00,-1.029160687999999935e+00,8.720820781793656717e-01,1.000000000000000048e-04,4.385017435193389446e+01,1.400000000000000133e-01
2.089878704000000198e+00,-1.077863170999999953e+00,3.369917259081129934e-01,1.000000000000000048e-04,4.132928248313216102e+01,1.199999999999999956e-01
9.321550429999999610e-01,-6.212176799999999943e-01,1.278900828902868270e+00,1.000000000000000048e-04,4.487153520260763173e+01,1.199999999999999956e-01
2.944595597000000176e+00,-9.127602249999999806e-01,1.481244069207705572e-01,1.000000000000000048e-04,3.917534186509068661e+01,1.100000000000000006e-01
1.288081913999999939e+00,-9.113959929999999598e-01,6.801238394197244297e-01,1.000000000000000048e-04,4.295288942166324375e+01,1.300000000000000044e-01
1.398731861999999992e+00,-9.625033109999999725e-01,8.839580305173782016e-01,1.000000000000000048e-04,4.361964840583748781e+01,1.199999999999999956e-01
1.714165549000000066e+00,-1.043104095999999981e+00,7.871298720820956163e-01,1.000000000000000048e-04,4.332485961009572861e+01,1.199999999999999956e-01
1.014018395999999989e+00,-6.788913789999999615e-01,8.441402804017492656e-01,1.000000000000000048e-04,4.373355467874772273e+01,1.300000000000000044e-01
8.887761809999999985e-01,-5.541821719999999729e-01,3.972796428769993504e-01,1.000000000000000048e-04,4.180477525918959003e+01,1.300000000000000044e-01
1.026278256999999972e+00,-6.961882160000000264e-01,4.839189892737114640e-01,1.000000000000000048e-04,4.222663014917542057e+01,1.199999999999999956e-01
1.824970581999999952e+00,-1.080428363000000003e+00,8.890542004068611170e-01,1.000000000000000048e-04,4.379790379838043179e+01,1.199999999999999956e-01
1.839979185000000017e+00,-1.082878103999999952e+00,5.666926893467778559e-01,1.000000000000000048e-04,4.263452166094872808e+01,1.300000000000000044e-01
-3.070118813179586237e+00,-7.641942569999999879e-01,1.877094585826066808e-01,1.000000000000000048e-04,3.999323669154102134e+01,1.199999999999999956e-01
2.250776613000000204e+00,-1.110438553999999911e+00,4.103732278201104311e-01,1.000000000000000048e-04,4.176576469699990213e+01,1.199999999999999956e-01
2.613802471000000072e+00,-1.066258922999999914e+00,2.382085283048316349e-01,1.000000000000000048e-04,4.034415164813348298e+01,1.199999999999999956e-01
8.050150120000000298e-01,-4.193234060000000096e-01,2.013804220085420038e-01,1.000000000000000048e-04,4.007121397380055328e+01,1.499999999999999944e-01
2.809576177999999924e+00,-9.952447749999999704e-01,5.974227368714875031e-01,1.000000000000000048e-04,4.271747066317156083e+01,1.199999999999999956e-01
8.523447290000000232e-01,-4.773689010000000121e-01,5.138306883576166939e-01,1.000000000000000048e-04,4.242183035411814274e+01,2.000000000000000111e-01
2.975142320999999868e+00,-8.986192680000000266e-01,4.904869077007054656e-01,1.000000000000000048e-04,4.208331671953403941e+01,2.000000000000000111e-01
2.960578484000000010e+00,-9.174235720000000205e-01,8.499923789032106658e-01,1.000000000000000048e-04,4.354794110611661040e+01,1.400000000000000133e-01
1.589239559999999996e+00,-1.046132274999999945e+00,2.300008959301407252e-01,1.000000000000000048e-04,4.033393838071953041e+01,1.199999999999999956e-01
1.095136271999999966e+00,-7.909478989999999543e-01,1.473710744242269222e-01,1.000000000000000048e-04,3.906312690403889576e+01,1.300000000000000044e-01
3.045277111999999953e+00,-8.831592660000000539e-01,8.503781512105585971e-01,1.000000000000000048e-04,4.367042226255053095e+01,1.799999999999999933e-01
3.011317304999999944e+00,-8.969173430000000335e-01,1.415189564544692136e-01,1.000000000000000048e-04,3.906918241509899303e+01,1.499999999999999944e-01
1.946036051000000100e+00,-1.101857058000000000e+00,3.771376516766371534e-01,1.000000000000000048e-04,4.127572904966828560e+01,1.100000000000000006e-01
9.659444579999999503e-01,-6.400164339999999674e-01,3.513562677312644933e-01,1.000000000000000048e-04,4.130680841679828319e+01,1.199999999999999956e-01
1.142944595999999979e+00,-8.229314749999999679e-01,3.666519349451804466e-01,1.000000000000000048e-04,4.153669158920735072e+01,1.499999999999999944e-01
1.336859599999999926e+00,-9.462661719999999610e-01,1.327722153858165388e+00,1.000000000000000048e-04,4.502939749797061353e+01,1.900000000000000022e-01
2.386695267999999981e+00,-1.099692616000000012e+00,9.842134519530203463e-01,1.000000000000000048e-04,4.376040587163783613e+01,1.799999999999999933e-01
1.122946417999999946e+00,-7.871106610000000448e-01,2.246250776125360282e-01,1.000000000000000048e-04,3.996807407887390440e+01,1.499999999999999944e-01
1.038511049000000019e+00,-6.836743480000000428e-01,1.373656530245093155e-01,1.000000000000000048e-04,3.912296176882077248e+01,1.499999999999999944e-01
-1.865548755179585960e+00,5.988235499999999822e-01,4.645284233175990263e-01,1.000000000000000048e-04,4.207987966328717988e+01,3.599999999999999867e-01
-1.208774007179585830e+00,1.086301519000000049e+00,5.180713498392608418e-01,1.000000000000000048e-04,4.208010606880495885e+01,3.900000000000000133e-01
-1.451351928179586359e+00,1.047303024999999943e+00,7.199503132665157068e-01,1.000000000000000048e-04,4.325459820644794462e+01,3.900000000000000133e-01
-1.863787002179586594e+00,5.986409590000000280e-01,1.537499597288578546e-01,1.000000000000000048e-04,3.967162563463148928e+01,3.099999999999999978e-01
-2.367107747179586053e+00,3.570653329999999848e-01,5.567328823870365540e-01,1.000000000000000048e-04,4.261456051384359967e+01,3.300000000000000155e-01
3.110012692999999828e+00,-8.816387980000000013e-01,4.286489664891797169e-01,1.000000000000000048e-04,4.156386243137804115e+01,4.000000000000000222e-01
1.208427087000000011e+00,6.391205479999999550e-01,3.361103285624202908e-01,1.000000000000000048e-04,4.138788660351249860e+01,3.200000000000000067e-01
2.195568135999999893e+00,9.530612539999999688e-01,3.988883259497764122e-01,1.000000000000000048e-04,4.193108940195535439e+01,3.200000000000000067e-01
-1.746303855179585973e+00,7.561700099999999480e-01,1.901701367485759686e-01,1.000000000000000048e-04,4.019235588345913612e+01,3.599999999999999867e-01
-2.613733020179586308e+00,3.020363409999999860e-01,7.433568364606042422e-01,1.000000000000000048e-04,4.323972682896768305e+01,2.399999999999999911e-01
3.080075141000000016e+00,6.813462000000000129e-01,2.733718977435874997e-01,1.000000000000000048e-04,4.058764873690390829e+01,2.999999999999999889e-01
3.084152930000000126e+00,6.750201959999999612e-01,6.059014964837987627e-01,1.000000000000000048e-04,4.259599640140876886e+01,2.399999999999999911e-01
-2.831540824179586302e+00,-5.193198470000000011e-01,1.031175756191484272e+00,1.000000000000000048e-04,4.386777281910543991e+01,2.899999999999999800e-01
2.921667255000000019e+00,-9.403574120000000036e-01,8.961457753288994965e-01,1.000000000000000048e-04,4.390506348796802882e+01,2.899999999999999800e-01
2.610543199999999953e+00,9.294079060000000059e-01,1.316568491563343990e+00,1.000000000000000048e-04,4.463649025458057906e+01,2.899999999999999800e-01
2.614058957000000127e+00,9.310355519999999885e-01,2.440080477283221860e-01,1.000000000000000048e-04,4.066074291475464264e+01,3.699999999999999956e-01
-2.614313936179586406e+00,3.105085300000000048e-01,7.040541432819953371e-01,1.000000000000000048e-04,4.309968751219503957e+01,2.300000000000000100e-01
-2.614275993179586255e+00,3.084493819999999942e-01,5.777542036591210017e-01,1.000000000000000048e-04,4.238232240324959577e+01,2.000000000000000111e-01
3.080236718000000096e+00,6.852664600000000217e-01,4.692577414262995017e-01,1.000000000000000048e-04,4.180077410580940267e+01,3.800000000000000044e-01
3.085135451000000195e+00,6.840520260000000352e-01,1.055206036119816559e+00,1.000000000000000048e-04,4.440328651456083975e+01,2.300000000000000100e-01
-2.829361723179586452e+00,-5.190188390000000096e-01,8.124762303113959305e-01,1.000000000000000048e-04,4.357463035708040877e+01,3.900000000000000133e-01
-2.833706243179586082e+00,-5.260186759999999628e-01,1.899229911513840019e-01,1.000000000000000048e-04,3.971766925164474316e+01,2.200000000000000011e-01
1.286414458000000094e+00,-9.076167339999999806e-01,1.704778736247591908e-01,1.000000000000000048e-04,3.945796150401796609e+01,2.399999999999999911e-01
2.295144749999999956e+00,-1.095028292000000070e+00,5.674071720785609507e-01,1.000000000000000048e-04,4.260656907777071467e+01,2.000000000000000111e-01
2.312115046000000174e+00,-1.091482969000000081e+00,1.181562233167344100e+00,1.000000000000000048e-04,4.469792013192664371e+01,1.900000000000000022e-01
2.535381049000000164e+00,-1.063602453999999975e+00,1.578875649981874574e-01,1.000000000000000048e-04,3.898447891105926288e+01,2.600000000000000089e-01
2.549902755000000187e+00,-1.059649137999999935e+00,5.618094878137354087e-01,1.000000000000000048e-04,4.277654718942363843e+01,1.900000000000000022e-01
-2.980466121795863899e-01,1.081935794000000062e+00,2.183507875937786835e-01,1.000000000000000048e-04,4.025863675823261900e+01,1.000000000000000056e-01
-4.562223411795862660e-01,1.078420874000000085e+00,5.864540105683315740e-01,1.000000000000000048e-04,4.273773531813294824e+01,1.400000000000000133e-01
-4.727696341795866175e-01,1.076427226000000070e+00,1.161625130364504876e+00,1.000000000000000048e-04,4.434420211753133856e+01,1.900000000000000022e-01
-4.909850281795860028e-01,1.086050390999999893e+00,3.571473142843955006e-01,1.000000000000000048e-04,4.142797119856564336e+01,1.499999999999999944e-01
-1.809890014179586615e+00,8.554848849999999727e-01,3.885414721385562764e-01,1.000000000000000048e-04,4.151182048134405278e+01,1.900000000000000022e-01
-1.804843805179586091e+00,8.509932909999999850e-01,1.637162444199482536e-01,1.000000000000000048e-04,3.931826084496548646e+01,1.700000000000000122e-01
-1.798315402179586187e+00,8.389159160000000393e-01,3.871467050443373470e-01,1.000000000000000048e-04,4.150366246449129193e+01,1.100000000000000006e-01
-1.820018681179586650e+00,8.404092629999999620e-01,6.683936280102558136e-01,1.000000000000000048e-04,4.281489311675994003e+01,2.000000000000000111e-01
-2.435936564179586039e+00,3.767214549999999829e-01,2.950458020779833657e-01,1.000000000000000048e-04,4.099600832720336285e+01,1.700000000000000122e-01
-2.738532057179586143e+00,-4.670391260000000266e-01,5.968006584365646017e-01,1.000000000000000048e-04,4.259794765273183259e+01,1.100000000000000006e-01
-2.750126147179586145e+00,-4.750163370000000107e-01,5.213838078817842892e-01,1.000000000000000048e-04,4.232663353337954248e+01,1.700000000000000122e-01
6.777063359999999648e-01,-9.284162910000000046e-01,1.205211565503069515e+00,1.000000000000000048e-04,4.460460373689949165e+01,1.600000000000000033e-01
6.755664329999999662e-01,-9.242990760000000527e-01,3.636074090082481725e-01,1.000000000000000048e-04,4.179039702132246958e+01,2.200000000000000011e-01
1.666277256000000095e+00,1.035703752000000089e+00,3.082323902256738357e-01,1.000000000000000048e-04,4.106542799453958992e+01,2.800000000000000266e-01
1.679531192000000006e+00,1.034147155999999956e+00,7.477037813250815290e-01,1.000000000000000048e-04,4.309007190654665465e+01,2.099999999999999922e-01
1.669961188000000041e+00,1.045784459000000055e+00,2.163230158972317962e-01,1.000000000000000048e-04,4.068836578898581280e+01,2.899999999999999800e-01
1.666612017000000057e+00,1.035903760999999923e+00,7.292321163660517858e-01,1.000000000000000048e-04,4.318195530648078062e+01,1.400000000000000133e-01
1.676630470000000095e+00,1.049302589999999924e+00,2.205244421748235872e-01,1.000000000000000048e-04,4.008946577866464622e+01,1.600000000000000033e-01
1.678871634000000057e+00,1.037439988999999896e+00,9.970879005478163748e-01,1.000000000000000048e-04,4.389614080198555257e+01,2.099999999999999922e-01
-2.159653925179585876e+00,7.341517600000000421e-01,5.357303159332067466e-01,1.000000000000000048e-04,4.194873664589349005e+01,2.600000000000000089e-01
-2.155609593179586447e+00,7.327229189999999726e-01,1.687136369740092068e-01,1.000000000000000048e-04,3.940203447391832015e+01,1.400000000000000133e-01
2.989279821999999864e+00,-1.014333855000000062e+00,8.283924595467357932e-01,1.000000000000000048e-04,4.350928990473941838e+01,1.600000000000000033e-01
6.962963009999999509e-01,-9.242906640000000396e-01,5.045284709740491813e-01,1.000000000000000048e-04,4.238758572486244702e+01,2.000000000000000111e-01
6.831622830000000368e-01,-9.295060950000000322e-01,6.479590238649084455e-01,1.000000000000000048e-04,4.324953093619571121e+01,2.099999999999999922e-01
6.813526220000000189e-01,-9.196739680000000083e-01,5.994308672013519690e-01,1.000000000000000048e-04,4.299865153758282332e+01,1.700000000000000122e-01
1.667475545999999920e+00,1.039138789999999979e+00,3.100375831824433437e-01,1.000000000000000048e-04,4.094778871946032694e+01,1.499999999999999944e-01
1.669072946000000002e+00,1.039627206000000026e+00,2.699403082151385913e-01,1.000000000000000048e-04,4.063471462952553281e+01,1.700000000000000122e-01
2.992464221000000091e+00,-1.009427984000000000e+00,1.670752033680538151e-01,1.000000000000000048e-04,3.949473366728198442e+01,1.400000000000000133e-01
3.013377762000000182e+00,-1.015725085999999999e+00,4.634651861812510987e-01,1.000000000000000048e-04,4.221095234117484551e+01,1.499999999999999944e-01
6.857830799999999893e-01,-9.290922369999999875e-01,2.283266546116788920e-01,1.000000000000000048e-04,3.990152713263477580e+01,3.400000000000000244e-01
6.874880420000000214e-01,-9.251381180000000093e-01,3.511882077997203755e-01,1.000000000000000048e-04,4.125429024365334385e+01,1.700000000000000122e-01
1.659686511000000086e+00,1.040101345999999927e+00,3.984151023333284414e-01,1.000000000000000048e-04,4.188257552318813737e+01,1.400000000000000133e-01
1.692629780999999944e+00,1.043637506000000048e+00,3.790411952779968452e-01,1.000000000000000048e-04,4.155731129438177618e+01,1.799999999999999933e-01
1.682450028999999958e+00,1.049226146999999942e+00,3.418090742215089683e-01,1.000000000000000048e-04,4.123820299327844907e+01,1.900000000000000022e-01
1.675255906999999933e+00,1.048468626000000015e+00,3.069842331538961133e-01,1.000000000000000048e-04,4.115985690477720027e+01,1.499999999999999944e-01
1.692145135000000078e+00,1.039981480000000014e+00,2.860537554530251381e-01,1.000000000000000048e-04,4.084244335810878113e+01,1.700000000000000122e-01
-2.139768073179586061e+00,7.360294179999999908e-01,1.678672029033951851e-01,1.000000000000000048e-04,3.946793851087691252e+01,1.600000000000000033e-01
-2.138731675179585956e+00,7.369836659999999817e-01,1.255578803252757059e+00,1.000000000000000048e-04,4.491537898314936683e+01,1.499999999999999944e-01
6.888283630000000546e-01,-9.193630990000000169e-01,4.320479198385123176e-01,1.000000000000000048e-04,4.175679940340005913e+01,1.700000000000000122e-01
6.776433490000000059e-01,-9.225326109999999469e-01,3.682443511974229367e-01,1.000000000000000048e-04,4.163211296047012411e+01,1.600000000000000033e-01
6.820513620000000499e-01,-9.162569579999999547e-01,1.424100836190975716e-01,1.000000000000000048e-04,3.969936810843519481e+01,2.899999999999999800e-01
6.832637360000000104e-01,-9.208365670000000502e-01,1.625073580879945467e-01,1.000000000000000048e-04,3.952278320947397106e+01,1.400000000000000133e-01
1.683256381999999940e+00,1.050427892999999946e+00,3.012889285411362028e-01,1.000000000000000048e-04,4.108109432298381591e+01,1.499999999999999944e-01
2.987248335999999949e+00,-1.011507587000000097e+00,1.281874777292055789e-01,1.000000000000000048e-04,3.896691436810124287e+01,1.900000000000000022e-01
2.994879214000000012e+00,-1.020537374999999969e+00,1.247758226039770157e-01,1.000000000000000048e-04,3.899810440908856179e+01,2.500000000000000000e-01
2.997056848999999801e+00,-1.020797841000000039e+00,1.262922292442936190e+00,1.000000000000000048e-04,4.480216465070281373e+01,1.499999999999999944e-01
6.981827720000000070e-01,-9.201470600000000166e-01,8.256984465635914816e-01,1.000000000000000048e-04,4.337324929734344892e+01,2.099999999999999922e-01
1.675679171999999939e+00,1.042232051000000048e+00,4.623186339788363242e-01,1.000000000000000048e-04,4.187405427236406297e+01,1.900000000000000022e-01
1.682732345000000018e+00,1.051774148000000020e+00,1.376673361237878979e-01,1.000000000000000048e-04,3.919789250012645709e+01,2.099999999999999922e-01
1.655763980999999996e+00,1.041789395999999979e+00,9.180950154812523856e-01,1.000000000000000048e-04,4.393954517171841445e+01,2.099999999999999922e-01
1.658505131999999938e+00,1.042043577999999915e+00,6.416039475002042192e-01,1.000000000000000048e-04,4.296600856248750233e+01,1.499999999999999944e-01
1.679931540999999973e+00,1.044700675999999939e+00,5.172640068678990843e-01,1.000000000000000048e-04,4.251380968690525464e+01,1.400000000000000133e-01
1.681131209999999987e+00,1.046558263000000100e+00,9.219345426307001823e-01,1.000000000000000048e-04,4.345283708168398107e+01,3.800000000000000044e-01
-2.147380102179586636e+00,7.248191320000000326e-01,2.274054445300870420e-01,1.000000000000000048e-04,4.017713378248877376e+01,2.200000000000000011e-01
-2.137481690179586558e+00,7.386978770000000027e-01,3.861608647048959675e-01,1.000000000000000048e-04,4.151611968253833851e+01,1.499999999999999944e-01
3.007533192999999994e+00,-1.006434849999999992e+00,1.578821672622563455e-01,1.000000000000000048e-04,3.960006005221985959e+01,1.700000000000000122e-01
6.766177190000000063e-01,-9.309161569999999664e-01,3.095448223168324464e-01,1.000000000000000048e-04,4.094446936495727840e+01,1.700000000000000122e-01
6.879719020000000240e-01,-9.170357009999999809e-01,3.541972580493613076e-01,1.000000000000000048e-04,4.111841706540248254e+01,2.600000000000000089e-01
6.868192690000000100e-01,-9.190749710000000183e-01,2.321278216995301680e-01,1.000000000000000048e-04,4.095802832126287285e+01,2.800000000000000266e-01
1.680927606000000019e+00,1.043199457999999913e+00,6.751177075675218742e-01,1.000000000000000048e-04,4.304790098998715564e+01,1.799999999999999933e-01
1.680733408999999901e+00,1.046110547000000057e+00,3.626370786004153857e-01,1.000000000000000048e-04,4.111535348322279049e+01,1.499999999999999944e-01
3.003205794999999956e+00,-1.007960921000000010e+00,5.370994754219096112e-01,1.000000000000000048e-04,4.251108165961527874e+01,2.200000000000000011e-01
3.013387552999999830e+00,-1.018013843000000085e+00,3.412275413872101204e-01,1.000000000000000048e-04,4.139348431971702524e+01,2.000000000000000111e-01
2.991633154000000072e+00,-1.018575491000000000e+00,2.933606059109898911e-01,1.000000000000000048e-04,4.095501306089825988e+01,1.600000000000000033e-01
6.810583510000000063e-01,-9.216344210000000370e-01,4.986997103843180401e-01,1.000000000000000048e-04,4.226968062079159694e+01,1.600000000000000033e-01
1.670069762000000013e+00,1.048284639000000018e+00,3.502067830567692219e-01,1.000000000000000048e-04,4.132365354372770838e+01,2.099999999999999922e-01
1.699713636000000028e+00,1.040243690999999915e+00,2.503670440803427155e-01,1.000000000000000048e-04,4.009535402721245845e+01,2.899999999999999800e-01
1.686195045999999920e+00,1.048540513999999924e+00,4.307463858654549949e-01,1.000000000000000048e-04,4.216345743281762282e+01,1.400000000000000133e-01
1.667162669999999958e+00,1.044746053999999980e+00,1.049620395880203727e+00,1.000000000000000048e-04,4.429289890682767350e+01,2.700000000000000178e-01
1.689467040999999892e+00,1.036330184999999959e+00,4.377566720498913266e-01,1.000000000000000048e-04,4.174910328222858880e+01,1.300000000000000044e-01
1.683799076999999977e+00,1.043385784000000038e+00,3.189132457077987759e-01,1.000000000000000048e-04,4.135767443772704155e+01,1.700000000000000122e-01
-2.151455832179586025e+00,7.398983139999999459e-01,4.701064962688743520e-01,1.000000000000000048e-04,4.210277132466016070e+01,2.500000000000000000e-01
-2.141944958179585967e+00,7.302793560000000461e-01,8.808080114774663461e-01,1.000000000000000048e-04,4.406325010066050396e+01,1.400000000000000133e-01
3.012489310999999947e+00,-1.019874449000000016e+00,1.448545197251469574e-01,1.000000000000000048e-04,3.922283143686145479e+01,1.900000000000000022e-01
6.824463880000000149e-01,-9.193269539999999740e-01,1.594722980001188617e-01,1.000000000000000048e-04,3.949563744400096965e+01,1.600000000000000033e-01
6.933168330000000212e-01,-9.307474239999999899e-01,5.315112859761785824e-01,1.000000000000000048e-04,4.238450677670034139e+01,1.600000000000000033e-01
7.005346909999999871e-01,-9.247541049999999929e-01,4.105449870827320158e-01,1.000000000000000048e-04,4.150166234797456610e+01,2.700000000000000178e-01
1.674988617999999985e+00,1.042237757999999959e+00,1.032461674786978811e+00,1.000000000000000048e-04,4.427933112170375551e+01,1.499999999999999944e-01
1.672026148000000045e+00,1.039374368000000048e+00,5.619222706455937466e-01,1.000000000000000048e-04,4.253611414498040233e+01,1.600000000000000033e-01
2.993618983999999816e+00,-1.008517228000000099e+00,4.079098503177875923e-01,1.000000000000000048e-04,4.153143615439852709e+01,1.700000000000000122e-01
2.992837709999999873e+00,-1.014889098000000045e+00,8.504848362717738475e-01,1.000000000000000048e-04,4.325836593687703413e+01,2.800000000000000266e-01
2.980621672999999916e+00,-1.012535224000000067e+00,1.997915926265771969e-01,1.000000000000000048e-04,3.966430097383639009e+01,1.499999999999999944e-01
3.118379398000000080e+00,-1.044341935000000055e+00,3.627581474941710127e-01,1.000000000000000048e-04,4.166181977764767908e+01,3.099999999999999978e-01
3.132904315000000217e+00,-1.046896950999999909e+00,2.322493900769670994e-01,1.000000000000000048e-04,4.044713555336799260e+01,2.200000000000000011e-01
1.248659997999999938e+00,-1.117162079000000086e+00,7.922244268511238197e-01,1.000000000000000048e-04,4.334609520816533745e+01,2.700000000000000178e-01
2.302446713000000145e+00,-1.091359299000000060e+00,4.912218448931144898e-01,1.000000000000000048e-04,4.218804023193829522e+01,2.899999999999999800e-01
3.133486173000000097e+00,-1.061461677999999909e+00,6.109153306071621881e-01,1.000000000000000048e-04,4.338402398238186919e+01,3.099999999999999978e-01
1.251013366000000016e+00,-1.102704651999999896e+00,8.245706068744516060e-01,1.000000000000000048e-04,4.371428403437388255e+01,2.300000000000000100e-01
1.232341668999999973e+00,-1.105349812000000043e+00,5.596434656241542349e-01,1.000000000000000048e-04,4.243628749290956392e+01,2.200000000000000011e-01
2.330538756999999794e+00,-1.086213730999999960e+00,1.724449008921391524e-01,1.000000000000000048e-04,3.949072902987785483e+01,2.300000000000000100e-01
3.104372880000000112e+00,-1.050765708999999992e+00,8.813797814965276256e-01,1.000000000000000048e-04,4.377957185582768318e+01,2.200000000000000011e-01
3.122794933000000217e+00,-1.050942575000000101e+00,3.368284819875391189e-01,1.000000000000000048e-04,4.140668945386956779e+01,2.099999999999999922e-01
3.135928428000000157e+00,-1.044986675000000087e+00,5.174413787680380850e-01,1.000000000000000048e-04,4.249636677913667171e+01,2.300000000000000100e-01
3.135701593999999925e+00,-1.049448040999999998e+00,6.760914941567748304e-01,1.000000000000000048e-04,4.289534535721942632e+01,2.399999999999999911e-01
2.902190216000000156e+00,-1.054666754000000095e+00,1.265511465703758720e+00,1.000000000000000048e-04,4.470203757151685409e+01,2.099999999999999922e-01
1.219278212000000083e+00,-1.102494101000000004e+00,6.924946921599852701e-01,1.000000000000000048e-04,4.287423355846963346e+01,2.399999999999999911e-01
2.314258420999999899e+00,-1.073777474999999981e+00,1.547919782076379036e-01,1.000000000000000048e-04,3.915307440468995992e+01,2.399999999999999911e-01
3.138600745000000192e+00,-1.056209613999999908e+00,3.081238975843512140e-01,1.000000000000000048e-04,4.134374287453006502e+01,2.800000000000000266e-01
2.873014373000000177e+00,-1.047336534999999902e+00,8.157154616135244840e-01,1.000000000000000048e-04,4.343926785009760039e+01,2.000000000000000111e-01
2.890150627000000139e+00,-1.045368942999999939e+00,4.121157436661866402e-01,1.000000000000000048e-04,4.162831779820845668e+01,2.200000000000000011e-01
-3.136513490179586139e+00,-1.038988312000000080e+00,7.696824177430805491e-01,1.000000000000000048e-04,4.332417553688653555e+01,2.800000000000000266e-01
3.120369102000000172e+00,-1.042910143999999928e+00,3.997982394125754180e-01,1.000000000000000048e-04,4.127488673010711295e+01,2.399999999999999911e-01
3.132773262000000170e+00,-1.048570620000000009e+00,3.145258448356627046e-01,1.000000000000000048e-04,4.113600615698165086e+01,2.300000000000000100e-01
3.132934141999999866e+00,-1.046888051000000042e+00,9.120344423270541068e-01,1.000000000000000048e-04,4.399680971862969869e+01,2.200000000000000011e-01
3.134455274000000014e+00,-1.046257098000000108e+00,3.684147890962365945e-01,1.000000000000000048e-04,4.139519635736836989e+01,2.200000000000000011e-01
2.910504301000000016e+00,-1.063930792999999930e+00,4.607148729830099487e-01,1.000000000000000048e-04,4.204139381815248555e+01,2.399999999999999911e-01
2.301930878999999930e+00,-1.084305269999999988e+00,4.258803094940788458e-01,1.000000000000000048e-04,4.170843215304483209e+01,3.099999999999999978e-01
2.314913878000000036e+00,-1.104421796000000011e+00,5.690656434393615015e-01,1.000000000000000048e-04,4.268220072358637651e+01,2.600000000000000089e-01
1.232494258000000009e+00,-1.089556776000000005e+00,3.998448863314174595e-01,1.000000000000000048e-04,4.169443855781969432e+01,3.099999999999999978e-01
-3.138875270179586341e+00,-1.027091259999999950e+00,1.977359857323424119e-01,1.000000000000000048e-04,3.972411412040843715e+01,3.800000000000000044e-01
1.277748142000000087e+00,-1.105660628999999950e+00,3.260068625574414902e-01,1.000000000000000048e-04,4.135084656650924018e+01,2.500000000000000000e-01
2.339694710999999927e+00,-1.083680948999999893e+00,2.813688707798946975e-01,1.000000000000000048e-04,4.083878831132761889e+01,2.300000000000000100e-01
3.085408954000000037e+00,-1.045989441999999991e+00,8.864611663515373774e-01,1.000000000000000048e-04,4.368084645572464098e+01,2.800000000000000266e-01
3.122183823999999941e+00,-1.053540683000000033e+00,4.568105385103178318e-01,1.000000000000000048e-04,4.221943121236650853e+01,3.699999999999999956e-01
1.263417701000000060e+00,-1.099941301000000093e+00,6.240499251685993620e-01,1.000000000000000048e-04,4.229559744453473513e+01,2.200000000000000011e-01
1.238769020999999970e+00,-1.122513239999999968e+00,3.750170426399759283e-01,1.000000000000000048e-04,4.183404228531760793e+01,2.600000000000000089e-01
1.225778744000000087e+00,-1.107856694000000086e+00,5.316280965765489697e-01,1.000000000000000048e-04,4.249095616440504841e+01,2.500000000000000000e-01
2.356185176999999964e+00,-1.090954028000000076e+00,5.564083285244445509e-01,1.000000000000000048e-04,4.236575928727788920e+01,2.700000000000000178e-01
1.231078855000000027e+00,-1.109460918999999990e+00,1.109319952682129351e+00,1.000000000000000048e-04,4.426248101366665111e+01,2.300000000000000100e-01
2.350025410999999842e+00,-1.078254897999999962e+00,1.887362027618788574e-01,1.000000000000000048e-04,3.970489171529718675e+01,2.300000000000000100e-01
2.889344674999999807e+00,-1.054064458000000037e+00,6.742177052241202784e-01,1.000000000000000048e-04,4.271531182569808038e+01,3.200000000000000067e-01
1.260972444000000081e+00,-1.102168519999999985e+00,4.950959605907998551e-01,1.000000000000000048e-04,4.312912202142584306e+01,2.899999999999999800e-01
3.138597202000000141e+00,-1.049455424000000026e+00,3.398933950848497254e-01,1.000000000000000048e-04,4.179181466142538426e+01,2.600000000000000089e-01
1.280173519000000093e+00,-1.106045986000000036e+00,8.282075763318585970e-01,1.000000000000000048e-04,4.381643393235848549e+01,2.899999999999999800e-01
3.140421104000000074e+00,-1.048273016000000002e+00,1.539449809875272912e-01,1.000000000000000048e-04,3.926846797562656377e+01,2.700000000000000178e-01
2.887571490000000018e+00,-1.060290981000000077e+00,1.180686548250057921e+00,1.000000000000000048e-04,4.441414190107747828e+01,2.300000000000000100e-01
3.117377486000000086e+00,-1.048849812999999909e+00,2.200687974672188574e-01,1.000000000000000048e-04,4.040525060409773062e+01,2.800000000000000266e-01
3.139331405000000075e+00,-1.045946368000000071e+00,6.327598627299779732e-01,1.000000000000000048e-04,4.311888387953855784e+01,2.300000000000000100e-01
2.901812189000000153e+00,-1.070407117000000019e+00,1.489767868293023767e-01,1.000000000000000048e-04,3.872350421072962234e+01,2.200000000000000011e-01
2.874698792999999863e+00,-1.069280417999999955e+00,2.208002793144265841e-01,1.000000000000000048e-04,4.012425814909171606e+01,2.200000000000000011e-01
3.126790450000000110e+00,-1.053686536000000062e+00,3.144722924655924956e-01,1.000000000000000048e-04,4.114296815574679300e+01,2.099999999999999922e-01
1.253234667999999941e+00,-1.096167120000000050e+00,7.322151888386709828e-01,1.000000000000000048e-04,4.319306417635053919e+01,2.200000000000000011e-01
1.242189800000000011e+00,-1.095888138000000067e+00,3.148718042208458190e-01,1.000000000000000048e-04,4.127348252027380937e+01,2.899999999999999800e-01
2.358704259000000025e+00,-1.096119858000000002e+00,7.508489746620630179e-01,1.000000000000000048e-04,4.315902538706378522e+01,2.099999999999999922e-01
3.090657074000000115e+00,-1.046905049999999893e+00,2.482760879423011602e-01,1.000000000000000048e-04,4.052242187115794536e+01,2.300000000000000100e-01
2.350320292999999783e+00,-1.077642637000000070e+00,3.449453532342092732e-01,1.000000000000000048e-04,4.130066627545919289e+01,3.300000000000000155e-01
3.120911620999999858e+00,-1.047605429999999949e+00,2.338365957432890774e-01,1.000000000000000048e-04,4.046724536741743350e+01,2.899999999999999800e-01
2.310418793000000193e+00,-1.091478047999999923e+00,1.468147334064098253e-01,1.000000000000000048e-04,3.959118616749642428e+01,3.300000000000000155e-01
2.888242410000000149e+00,-1.055260810999999910e+00,2.883086351693477933e-01,1.000000000000000048e-04,4.061157954360140820e+01,2.999999999999999889e-01
2.313880778000000138e+00,-1.089056457000000089e+00,7.283270538967088203e-01,1.000000000000000048e-04,4.309661167300581752e+01,2.600000000000000089e-01
3.096505394999999883e+00,-1.050897790999999915e+00,1.806644355943569646e-01,1.000000000000000048e-04,3.942107570458004062e+01,3.300000000000000155e-01
1.264206060000000020e+00,-1.108314516000000083e+00,1.624704718779574897e-01,1.000000000000000048e-04,3.981746607610907063e+01,2.500000000000000000e-01
2.317080779999999951e+00,-1.080569537999999996e+00,9.408335670019072339e-01,1.000000000000000048e-04,4.395160753383458285e+01,2.399999999999999911e-01
2.308161032000000112e+00,-1.080284865999999955e+00,1.110151357999910271e+00,1.000000000000000048e-04,4.455546553399717169e+01,3.900000000000000133e-01
1.213089824000000094e+00,-1.095999417000000031e+00,4.917668739993661386e-01,1.000000000000000048e-04,4.186092405029981478e+01,2.700000000000000178e-01
3.095344697999999894e+00,-1.044259242999999948e+00,1.928138410456239349e-01,1.000000000000000048e-04,3.991464582208986656e+01,2.200000000000000011e-01
3.093500166000000107e+00,-1.047656949999999920e+00,6.161965305567069784e-01,1.000000000000000048e-04,4.278076588400007552e+01,2.300000000000000100e-01
2.871266652000000086e+00,-1.064917746999999970e+00,7.534247045328079651e-01,1.000000000000000048e-04,4.332672090224952655e+01,2.500000000000000000e-01
2.872879009000000039e+00,-1.076645507999999918e+00,1.204463634786534509e-01,1.000000000000000048e-04,3.858717114913306290e+01,2.099999999999999922e-01
1.241294699000000001e+00,-1.109043570000000090e+00,2.668616332372193423e-01,1.000000000000000048e-04,4.058789730143603691e+01,2.099999999999999922e-01
1.238788393000000099e+00,-1.083197141000000085e+00,1.636350988753823010e-01,1.000000000000000048e-04,3.946653304502932258e+01,2.999999999999999889e-01
-3.140928712179586135e+00,-1.049943351000000025e+00,1.682085524207459493e-01,1.000000000000000048e-04,3.955705224361128813e+01,2.200000000000000011e-01
2.897074545000000168e+00,-1.050668165000000043e+00,6.623228965615135522e-01,1.000000000000000048e-04,4.270098148095890878e+01,2.099999999999999922e-01
3.133488720999999977e+00,-1.053899826000000095e+00,1.936104762388166645e-01,1.000000000000000048e-04,3.975772548328029643e+01,2.300000000000000100e-01
2.854965548000000020e+00,-1.051119023000000041e+00,2.177958578033274417e-01,1.000000000000000048e-04,3.985622642769880741e+01,3.200000000000000067e-01
2.846666281000000076e+00,-1.061494909000000098e+00,7.289576088326394920e-01,1.000000000000000048e-04,4.325049701934921131e+01,2.600000000000000089e-01
1.477625364000000108e+00,-9.892628350000000070e-01,7.233141588660647603e-01,1.000000000000000048e-04,4.335374943672002246e+01,2.000000000000000111e-01
-2.998301261179586064e+00,-5.567642400000000213e-01,5.304803359460734669e-01,1.000000000000000048e-04,4.242274162642004143e+01,1.799999999999999933e-01
2.915910107000000195e+00,-9.248875840000000403e-01,2.654749845535613328e-01,1.000000000000000048e-04,4.068917653753979380e+01,2.999999999999999889e-01
2.904218159000000021e+00,-9.279150130000000107e-01,5.330328853470136519e-01,1.000000000000000048e-04,4.243272685465306182e+01,2.399999999999999911e-01
2.945746643000000109e+00,-9.241091030000000428e-01,1.574731080732241217e-01,1.000000000000000048e-04,3.928019385032369826e+01,2.300000000000000100e-01
2.195221751000000054e+00,9.567984520000000215e-01,2.187577386404151447e-01,1.000000000000000048e-04,4.005549686180984281e+01,2.200000000000000011e-01
-2.382074272179586227e+00,-9.504311730000000180e-01,8.233846331578540401e-01,1.000000000000000048e-04,4.300164452784192548e+01,2.300000000000000100e-01
2.197803225999999999e+00,9.560313849999999558e-01,7.031978720800007299e-01,1.000000000000000048e-04,4.372133681992552567e+01,2.300000000000000100e-01
-2.380846050179586282e+00,-9.512843520000000552e-01,1.319589929888240309e+00,1.000000000000000048e-04,4.437819357588693947e+01,2.600000000000000089e-01
-2.382960995179586039e+00,-9.501026420000000527e-01,4.746763365517130406e-01,1.000000000000000048e-04,4.228853867591810456e+01,2.099999999999999922e-01
2.192165822000000208e+00,9.554729659999999791e-01,2.324813988680141108e-01,1.000000000000000048e-04,4.036042588657559094e+01,2.899999999999999800e-01
-2.383512939179586176e+00,-9.505219620000000535e-01,2.102007664963316813e-01,1.000000000000000048e-04,4.024998375750688240e+01,2.000000000000000111e-01
2.197044292000000176e+00,9.582492320000000063e-01,3.115934517565290829e-01,1.000000000000000048e-04,4.116029029022694630e+01,2.500000000000000000e-01
2.198013217999999824e+00,9.570721989999999568e-01,2.500749735211080793e-01,1.000000000000000048e-04,4.058700804160668696e+01,2.099999999999999922e-01
2.198391541999999976e+00,9.561199929999999458e-01,8.205815668575398014e-01,1.000000000000000048e-04,4.378081012525618121e+01,2.300000000000000100e-01
2.199218732999999926e+00,9.570277640000000030e-01,9.267053764817134720e-01,1.000000000000000048e-04,4.428278155802519933e+01,2.200000000000000011e-01
2.196667974999999995e+00,9.569524729999999701e-01,6.151181129279468252e-01,1.000000000000000048e-04,4.314315783764659074e+01,2.399999999999999911e-01
2.196400267000000017e+00,9.571105250000000453e-01,4.370133199072636643e-01,1.000000000000000048e-04,4.174221680307389448e+01,2.500000000000000000e-01
2.195980999000000100e+00,9.563170869999999546e-01,7.674077796324305645e-01,1.000000000000000048e-04,4.298047148391401606e+01,2.200000000000000011e-01
2.198886345000000020e+00,9.574225640000000315e-01,7.234468811198284666e-01,1.000000000000000048e-04,4.406565812453364828e+01,3.300000000000000155e-01
-2.382942164179586264e+00,-9.487821469999999646e-01,3.620293514617802799e-01,1.000000000000000048e-04,4.138423116043115613e+01,2.000000000000000111e-01
2.197058621000000045e+00,9.568337070000000333e-01,2.370363895967269041e-01,1.000000000000000048e-04,4.018431816079635865e+01,2.600000000000000089e-01
2.196754174000000059e+00,9.569828230000000380e-01,4.778465877668067741e-01,1.000000000000000048e-04,4.254889384318497747e+01,2.399999999999999911e-01
-2.381905888179586039e+00,-9.494029419999999719e-01,8.420262673879741477e-01,1.000000000000000048e-04,4.354340165788237016e+01,2.399999999999999911e-01
-2.382353656179586388e+00,-9.501919130000000546e-01,3.109833437311551041e-01,1.000000000000000048e-04,4.113420049782310883e+01,2.600000000000000089e-01
-2.385313647179586383e+00,-9.492824659999999914e-01,8.455896172341557104e-01,1.000000000000000048e-04,4.353533061510770352e+01,2.399999999999999911e-01
-2.383308463179586223e+00,-9.502672559999999491e-01,6.728239526862476172e-01,1.000000000000000048e-04,4.308612563641307247e+01,2.000000000000000111e-01
2.194446376000000143e+00,9.548028840000000184e-01,2.653049199488535237e-01,1.000000000000000048e-04,4.085408454028747371e+01,3.699999999999999956e-01
-2.377678389179586294e+00,-9.493284189999999789e-01,1.765528709663930496e-01,1.000000000000000048e-04,3.974871604156002292e+01,3.099999999999999978e-01
2.195048706000000127e+00,9.553664520000000326e-01,3.908968761124986813e-01,1.000000000000000048e-04,4.132421714564650728e+01,2.399999999999999911e-01
2.194988459000000169e+00,9.569281090000000267e-01,1.580086096244561755e-01,1.000000000000000048e-04,3.961899537076147482e+01,2.099999999999999922e-01
2.198773670000000013e+00,9.585742720000000050e-01,3.108978447288308633e-01,1.000000000000000048e-04,4.100680572005915536e+01,2.800000000000000266e-01
2.196007632000000154e+00,9.574002940000000406e-01,2.566501794388313940e-01,1.000000000000000048e-04,4.082320364530761481e+01,2.800000000000000266e-01
2.193610842000000005e+00,9.569156829999999614e-01,7.390194060310428803e-01,1.000000000000000048e-04,4.329360682823231343e+01,2.099999999999999922e-01
2.194846306000000080e+00,9.574700699999999509e-01,4.277970297786113374e-01,1.000000000000000048e-04,4.210683930215510173e+01,2.300000000000000100e-01
-2.901318991795864832e-01,1.086903570000000041e+00,2.045389932704559932e-01,1.000000000000000048e-04,3.987009718768852906e+01,2.000000000000000111e-01
-2.914486071795865385e-01,1.085909494999999891e+00,5.519783681591459157e-01,1.000000000000000048e-04,4.254732033357850440e+01,1.000000000000000056e-01
-2.954610881795858290e-01,1.084462065999999947e+00,8.167922423427242951e-01,1.000000000000000048e-04,4.355933757662692329e+01,1.199999999999999956e-01
-3.403197011795864313e-01,1.090760651000000081e+00,3.962819828702270897e-01,1.000000000000000048e-04,4.166909426500941294e+01,8.999999999999999667e-02
-3.429455761795860980e-01,1.087892671000000089e+00,1.780160404106148064e-01,1.000000000000000048e-04,3.960947222307799365e+01,1.400000000000000133e-01
6.896152909999999636e-01,-9.249195220000000495e-01,5.981485189748199094e-01,1.000000000000000048e-04,4.241246379704652014e+01,2.000000000000000111e-01
1.024453132999999960e+00,1.182715689999999986e+00,4.902702486809618065e-01,1.000000000000000048e-04,4.206522977527293250e+01,1.900000000000000022e-01
1.006083177000000051e+00,1.165244638999999971e+00,3.180265437063365397e-01,1.000000000000000048e-04,4.126834859753504503e+01,1.700000000000000122e-01
9.905969959999999519e-01,1.153001898999999941e+00,1.877704692761730243e-01,1.000000000000000048e-04,3.949361198710585086e+01,3.499999999999999778e-01
2.950804928999999799e+00,-1.010655210999999998e+00,1.557623184330305666e-01,1.000000000000000048e-04,3.945882621172141569e+01,1.700000000000000122e-01
2.951637304000000128e+00,-1.010683065999999908e+00,5.115737855640818399e-01,1.000000000000000048e-04,4.274142568981432788e+01,1.900000000000000022e-01
-2.349248843179586377e+00,-9.322901449999999590e-01,2.122229380261284604e-01,1.000000000000000048e-04,3.981781402042005880e+01,1.900000000000000022e-01
