2.694421935208893615e+00,-7.265057913468169204e-01,2.435929174659705598e-01,1.000000000000000048e-04,4.046263849951124314e+01,1.000000000000000021e-02
-2.956181046075817775e+00,-1.063094300445283302e+00,1.270944192027514408e-01,1.000000000000000048e-04,3.888258418574088182e+01,1.000000000000000021e-02
-3.227566469694083118e-01,1.217316536720583375e+00,2.023610692513779785e-01,1.000000000000000048e-04,3.999663680587550374e+01,1.000000000000000021e-02
1.003629041334441752e-02,8.224896462521731344e-01,6.388242461217519264e-02,1.000000000000000048e-04,3.730075211818648739e+01,1.000000000000000021e-02
-3.179150682857998511e-01,1.312645837066130472e+00,2.292998711635581000e-01,1.000000000000000048e-04,4.030415844855152585e+01,1.000000000000000021e-02
1.636750227212032449e+00,1.024983867693347594e+00,1.998932599919349684e-01,1.000000000000000048e-04,3.995920589601139739e+01,1.000000000000000021e-02
-8.926672856295501113e-01,4.798372687310559215e-02,2.312456256520638576e-01,1.000000000000000048e-04,4.032162096442839783e+01,1.000000000000000021e-02
-3.025873727397695223e+00,-1.364904170108420578e+00,2.404966212304451290e-01,1.000000000000000048e-04,4.041036834914760334e+01,1.000000000000000021e-02
4.187233261045775201e-01,1.291702635554701217e+00,1.733080019675212746e-01,1.000000000000000048e-04,3.963015892949854901e+01,1.000000000000000021e-02
-2.918083793569151485e+00,-4.322480473426579817e-01,1.181324673968477956e-01,1.000000000000000048e-04,3.872595938244761982e+01,1.000000000000000021e-02
1.065978337767263362e+00,5.750556324375235562e-01,2.571999302138601173e-01,1.000000000000000048e-04,4.057971682656445012e+01,1.000000000000000021e-02
-2.006080065368382570e+00,8.911199844450385932e-01,5.964229230362771972e-02,1.000000000000000048e-04,3.712181136095205858e+01,1.000000000000000021e-02
-3.063083011564413649e+00,3.976771761144186623e-01,1.790261193153572794e-01,1.000000000000000048e-04,3.969623765643370206e+01,1.000000000000000021e-02
2.410683440797854793e+00,-5.360750518919488172e-03,1.186108924199065218e-01,1.000000000000000048e-04,3.871758757750240676e+01,1.000000000000000021e-02
-2.741780923233990475e+00,1.002515708324567267e-01,2.261197104532357560e-01,1.000000000000000048e-04,4.026282283487004321e+01,1.000000000000000021e-02
-3.049714477992792716e+00,-4.892698218263300536e-01,2.303482788522084324e-01,1.000000000000000048e-04,4.032333295846899546e+01,1.000000000000000021e-02
1.661659526658350039e+00,-5.240016896680299574e-02,8.517571131570234044e-02,1.000000000000000048e-04,3.794460748765405356e+01,1.000000000000000021e-02
-8.345107856332489860e-01,7.868467683252906575e-01,2.618195435535897175e-02,1.000000000000000048e-04,3.526523167892784016e+01,1.000000000000000021e-02
-4.742113105092342629e-01,7.218220643891615218e-02,3.462512410108065097e-02,1.000000000000000048e-04,3.589768596642220899e+01,1.000000000000000021e-02
1.145227678476558708e+00,-9.664270474881851980e-01,2.629955535834131997e-01,1.000000000000000048e-04,4.062657863241314260e+01,1.000000000000000021e-02
-3.006169641972867179e+00,5.780319613197097972e-01,1.477222845501782178e-01,1.000000000000000048e-04,3.923223195973947952e+01,1.000000000000000021e-02
1.791752616225370076e+00,-1.230601583709782787e-01,2.031357318777420318e-01,1.000000000000000048e-04,3.999510678570249667e+01,1.000000000000000021e-02
5.732111271844657630e-01,-8.298794013475820908e-01,2.352294921483417678e-01,1.000000000000000048e-04,4.035660563150167945e+01,1.000000000000000021e-02
8.693243977657116872e-01,-5.328471323361338996e-02,3.275506001520689381e-02,1.000000000000000048e-04,3.581341029296926592e+01,1.000000000000000021e-02
-1.957037817861054130e+00,7.350339649414214804e-01,2.563233580654169508e-01,1.000000000000000048e-04,4.057560257362589340e+01,1.000000000000000021e-02
-9.898716669411333768e-02,1.154547922866086207e+00,2.734073128847978040e-01,1.000000000000000048e-04,4.072568662342006007e+01,1.000000000000000021e-02
-1.083801434855150791e+00,-7.804717465377956076e-01,1.444551226102044339e-01,1.000000000000000048e-04,3.918454195439663579e+01,1.000000000000000021e-02
2.103713629669251794e+00,8.999722179858160587e-01,1.946844256982207533e-01,1.000000000000000048e-04,3.989695032583932743e+01,1.000000000000000021e-02
4.884158936337423818e-01,-1.066397210078640079e-01,1.509475786096927674e-01,1.000000000000000048e-04,3.931420005703351706e+01,1.000000000000000021e-02
-1.736899029666355565e+00,2.418465290649431942e-01,7.654145194549144549e-02,1.000000000000000048e-04,3.768527628114219397e+01,1.000000000000000021e-02
5.789858282877657913e-02,-1.046528401621156901e+00,2.542750483164055719e-01,1.000000000000000048e-04,4.055506469989089879e+01,1.000000000000000021e-02
-2.511670904240592250e+00,-8.810591873147219921e-01,9.842322180484619487e-02,1.000000000000000048e-04,3.827940138164844797e+01,1.000000000000000021e-02
-2.235932927750003074e+00,1.353627795161207459e-01,6.582955374508703272e-02,1.000000000000000048e-04,3.734909469070710486e+01,1.000000000000000021e-02
1.007682123747732028e+00,-1.164612797511771491e+00,1.937662905156174453e-01,1.000000000000000048e-04,3.989250211128042878e+01,1.000000000000000021e-02
-4.714735154850315801e-01,1.458221980730249889e-01,2.170293883060565587e-01,1.000000000000000048e-04,4.016391419016821374e+01,1.000000000000000021e-02
-4.326701329662117068e-01,-1.374829160204704692e-02,3.551555550471041656e-02,1.000000000000000048e-04,3.596662920637431426e+01,1.000000000000000021e-02
-1.023021986184449172e+00,-4.067453860674845600e-01,2.204903765331065468e-01,1.000000000000000048e-04,4.020287611461287725e+01,1.000000000000000021e-02
-2.514609630146977359e+00,-6.962307819945473542e-01,6.716944532117952171e-02,1.000000000000000048e-04,3.743019344684734762e+01,1.000000000000000021e-02
2.083777051594513097e+00,-7.612605777192625878e-01,1.629043546042736601e-01,1.000000000000000048e-04,3.947804345051155650e+01,1.000000000000000021e-02
-1.244705801086261054e-01,-7.819217721377410557e-01,4.731692040266266552e-02,1.000000000000000048e-04,3.661902663011196779e+01,1.000000000000000021e-02
-4.777194548203924640e-01,-3.650941734381882853e-01,2.777837887233556291e-01,1.000000000000000048e-04,4.076663832776463892e+01,1.000000000000000021e-02
-5.385090476980005647e-01,-1.424959216933820105e+00,1.841622274546363958e-01,1.000000000000000048e-04,3.975834507530763773e+01,1.000000000000000021e-02
-8.317706869270522496e-01,1.282762627495570573e-01,4.257469663888513445e-02,1.000000000000000048e-04,3.636185351391689125e+01,1.000000000000000021e-02
-2.359752034287875944e+00,5.228324150257090963e-03,2.084511207632704366e-01,1.000000000000000048e-04,4.006739666215210605e+01,1.000000000000000021e-02
7.202174805283512171e-02,9.700041838199582322e-01,6.956891202480375291e-02,1.000000000000000048e-04,3.748067905254825405e+01,1.000000000000000021e-02
9.488863178446660385e-01,-1.228328609757992407e+00,2.021359733871017639e-01,1.000000000000000048e-04,3.999583378631685093e+01,1.000000000000000021e-02
1.738397521134471546e-02,-1.127314072834681768e+00,5.959865172193890004e-02,1.000000000000000048e-04,3.714026599371300108e+01,1.000000000000000021e-02
1.430510992291010197e+00,1.475154896969272933e-01,1.881692207099823211e-01,1.000000000000000048e-04,3.984596320410255288e+01,1.000000000000000021e-02
-2.619399329929576137e+00,-2.494613459575067971e-02,2.596846013534088726e-01,1.000000000000000048e-04,4.060572994547897707e+01,1.000000000000000021e-02
3.112658951741176239e-01,-1.717180231696822101e-01,5.775394026273494852e-02,1.000000000000000048e-04,3.708395134558277562e+01,1.000000000000000021e-02
-2.951691380530291564e+00,7.428534931175789779e-02,1.901922793508301623e-01,1.000000000000000048e-04,3.984972541063474694e+01,1.000000000000000021e-02
2.298789817212300690e+00,1.033122686902312903e+00,2.008125367486843782e-01,1.000000000000000048e-04,3.997364847543355637e+01,1.000000000000000021e-02
-4.557056042578970789e-01,8.282264057709980420e-01,9.299367286558446466e-02,1.000000000000000048e-04,3.813764528620628624e+01,1.000000000000000021e-02
2.546116960906774196e+00,6.772156766199968203e-01,2.375459297945530235e-01,1.000000000000000048e-04,4.040355903513360403e+01,1.000000000000000021e-02
-8.714657139613279924e-03,-2.422265502613292210e-01,2.495999859532536114e-01,1.000000000000000048e-04,4.050697453890222022e+01,1.000000000000000021e-02
-2.139025279088992093e+00,6.968304396500148989e-01,2.118146584132429844e-02,1.000000000000000048e-04,3.478877051850134450e+01,1.000000000000000021e-02
1.094329325097653793e+00,-1.193435659695821771e+00,1.966822762760684906e-01,1.000000000000000048e-04,3.992777604041025796e+01,1.000000000000000021e-02
-5.740631895131276252e-02,8.217242301602856180e-02,1.575742889082984988e-01,1.000000000000000048e-04,3.938735933969721259e+01,1.000000000000000021e-02
-1.299682564832130405e+00,-2.286426037713784609e-01,2.761159123664300719e-01,1.000000000000000048e-04,4.075096925425692262e+01,1.000000000000000021e-02
2.811107008873299229e+00,1.152953623042307640e+00,2.539293090331917746e-01,1.000000000000000048e-04,4.055276023015143494e+01,1.000000000000000021e-02
-2.665110324659329510e+00,-5.003740251010062590e-01,7.872735159202237654e-02,1.000000000000000048e-04,3.776047983411406506e+01,1.000000000000000021e-02
8.897865377977023371e-01,-3.524866614220487637e-01,3.003766124548090666e-02,1.000000000000000048e-04,3.560873923265263841e+01,1.000000000000000021e-02
3.053384205832201381e-01,-6.218238447453066087e-01,2.185493091110950470e-01,1.000000000000000048e-04,4.017854727447694074e+01,1.000000000000000021e-02
-2.632922552165442909e+00,-9.156138977599408424e-01,1.652093218660375396e-01,1.000000000000000048e-04,3.951493833706162206e+01,1.000000000000000021e-02
2.235223880217320769e-01,-9.116950246455534090e-01,8.755301028891970816e-02,1.000000000000000048e-04,3.800561916420716813e+01,1.000000000000000021e-02
2.242999486668388442e+00,7.646449608262564368e-01,8.945396885394818476e-02,1.000000000000000048e-04,3.807042665068017584e+01,1.000000000000000021e-02
1.880917552178297925e+00,-1.196928418885521372e+00,2.711961499891715199e-01,1.000000000000000048e-04,4.072318271288277458e+01,1.000000000000000021e-02
-3.585590072138411522e-01,-2.360295944695391945e-01,1.393828572964566082e-01,1.000000000000000048e-04,3.910723466511905855e+01,1.000000000000000021e-02
-2.751832297083635304e+00,7.302675642614397944e-02,6.366839908279131599e-02,1.000000000000000048e-04,3.726160860809560660e+01,1.000000000000000021e-02
3.265313237090552434e-01,-2.216874520905269819e-01,2.759926992954928604e-01,1.000000000000000048e-04,4.073448685514940593e+01,1.000000000000000021e-02
1.652252395013314334e+00,1.591316642439029039e-01,1.993907429951220500e-01,1.000000000000000048e-04,3.996187413905253294e+01,1.000000000000000021e-02
-1.738260836158813660e-01,-3.778216266237972576e-01,2.290879591886285649e-01,1.000000000000000048e-04,4.031006896325052935e+01,1.000000000000000021e-02
1.344197250956561618e+00,-8.469710692342408143e-01,1.187172156700828651e-01,1.000000000000000048e-04,3.871675606593070995e+01,1.000000000000000021e-02
1.898354891936750555e+00,-7.786193887503269906e-01,2.425117653075963275e-01,1.000000000000000048e-04,4.042465872803014548e+01,1.000000000000000021e-02
2.672345055699758554e-01,2.593503465643580697e-01,2.752137842463910911e-01,1.000000000000000048e-04,4.075870921643362976e+01,1.000000000000000021e-02
-2.684985830600864265e+00,-8.009062684623230455e-01,2.357279995240424419e-02,1.000000000000000048e-04,3.507436963925339057e+01,1.000000000000000021e-02
3.058665076038089126e+00,3.524241591751884339e-01,3.971162946393547166e-02,1.000000000000000048e-04,3.621951068909870486e+01,1.000000000000000021e-02
-4.884556352960256476e-03,-6.032533904265149349e-01,1.479689566329143169e-01,1.000000000000000048e-04,3.923444341612978548e+01,1.000000000000000021e-02
-2.586300136180829767e+00,-3.154761561931942460e-01,2.417834896594530658e-01,1.000000000000000048e-04,4.043873850862981811e+01,1.000000000000000021e-02
-2.672466886734561342e+00,-4.533378789976592049e-01,2.569392693502170477e-01,1.000000000000000048e-04,4.057671621837238263e+01,1.000000000000000021e-02
-2.972496648016098142e+00,-3.722308588315688116e-01,8.755660030360146173e-02,1.000000000000000048e-04,3.800802637288131791e+01,1.000000000000000021e-02
-3.130834626971322088e+00,2.065141199646953751e-01,6.162532899518069485e-02,1.000000000000000048e-04,3.719456937790812390e+01,1.000000000000000021e-02
-2.627451188977488528e+00,7.385980192453458493e-01,1.967567845371587243e-01,1.000000000000000048e-04,3.992486836349515045e+01,1.000000000000000021e-02
4.402516628485688699e-01,-3.498809171483117098e-01,1.165196281312805837e-01,1.000000000000000048e-04,3.866306234100729711e+01,1.000000000000000021e-02
1.691052968078587959e+00,-4.692125490135321542e-01,2.368499807222554931e-01,1.000000000000000048e-04,4.037445044836393748e+01,1.000000000000000021e-02
-2.804254476180263467e+00,1.291588538651316842e+00,2.690405795445127701e-01,1.000000000000000048e-04,4.068145529125928306e+01,1.000000000000000021e-02
2.084392941280338363e+00,-3.319242566762115043e-01,5.270530294255260095e-02,1.000000000000000048e-04,3.687746059484526739e+01,1.000000000000000021e-02
-1.001909635111139618e+00,-7.004706806903285843e-01,5.106058942825519864e-02,1.000000000000000048e-04,3.675994059094062294e+01,1.000000000000000021e-02
6.676915174751316684e-01,-6.650805734977738304e-01,1.446879477954161608e-01,1.000000000000000048e-04,3.919013484422550420e+01,1.000000000000000021e-02
-2.066605528767111011e+00,8.502414541226528399e-01,2.956166009110683390e-02,1.000000000000000048e-04,3.555101920526367110e+01,1.000000000000000021e-02
7.849501833968548503e-01,7.111564152402523042e-01,1.273613384745291288e-01,1.000000000000000048e-04,3.888828439217490995e+01,1.000000000000000021e-02
1.543841447381988807e+00,1.400738663284421648e+00,9.571507898406372838e-02,1.000000000000000048e-04,3.820641461136745676e+01,1.000000000000000021e-02
-1.503558467822556199e+00,-3.080557999093531674e-01,1.195274288614494029e-01,1.000000000000000048e-04,3.872321585105154895e+01,1.000000000000000021e-02
-1.159546525027667974e+00,4.323490221957952961e-01,3.686988865703111351e-02,1.000000000000000048e-04,3.602412845347285497e+01,1.000000000000000021e-02
-2.576560893340727798e+00,1.844311248487020549e-01,9.641337893965640227e-02,1.000000000000000048e-04,3.824717002547549072e+01,1.000000000000000021e-02
5.875906732472468974e-02,1.255068535255918771e-01,1.044337285376704116e-01,1.000000000000000048e-04,3.841326415552597950e+01,1.000000000000000021e-02
-2.480527436175493428e+00,-6.498422147136692084e-01,1.093978016512038298e-01,1.000000000000000048e-04,3.852668173371806404e+01,1.000000000000000021e-02
2.438378489600633969e+00,3.547798690050907311e-01,1.864249535401638624e-01,1.000000000000000048e-04,3.979487027473676619e+01,1.000000000000000021e-02
2.618703325567891760e+00,4.580666903669503576e-01,1.606286336006479409e-01,1.000000000000000048e-04,3.942551116786702181e+01,1.000000000000000021e-02
1.330912197240654571e+00,8.565470875896483705e-01,2.461228992839858964e-01,1.000000000000000048e-04,4.046203539300591245e+01,1.000000000000000021e-02
-8.283030638719366401e-01,8.281477725175365734e-01,8.153109342009479121e-02,1.000000000000000048e-04,3.784115602206639295e+01,1.000000000000000021e-02
-2.498784032149372614e-01,5.193609221174915191e-01,1.113105105076062085e-01,1.000000000000000048e-04,3.856149745139305196e+01,1.000000000000000021e-02
-8.891278534497040198e-01,-4.027970683600694546e-01,1.653949724723340342e-01,1.000000000000000048e-04,3.949956604849441533e+01,1.000000000000000021e-02
1.635300292216271600e+00,7.268981805293828202e-01,7.997839185717170452e-02,1.000000000000000048e-04,3.780542683823806271e+01,1.000000000000000021e-02
-2.162220757262957260e+00,-4.372349367141414866e-02,1.402027231492426473e-01,1.000000000000000048e-04,3.911149362355501324e+01,1.000000000000000021e-02
3.981838192054798498e-01,3.518497661747055361e-02,2.623137992820747666e-01,1.000000000000000048e-04,4.062486994953267327e+01,1.000000000000000021e-02
3.753819740866597421e-01,-4.540049066204547845e-01,2.665691744891196535e-02,1.000000000000000048e-04,3.534086100817091136e+01,1.000000000000000021e-02
9.031773003438861025e-01,-4.320536948857123249e-02,4.640527988230869205e-02,1.000000000000000048e-04,3.657627506866286637e+01,1.000000000000000021e-02
1.059883449052015258e+00,7.950578625191249138e-01,4.811961264419228890e-02,1.000000000000000048e-04,3.666221008576720664e+01,1.000000000000000021e-02
1.056712967354759058e+00,7.499391837151341278e-01,7.504388040247333969e-02,1.000000000000000048e-04,3.764457814145148973e+01,1.000000000000000021e-02
-1.661488441321340215e+00,-8.294154033129190751e-01,1.440514059912589850e-01,1.000000000000000048e-04,3.917837381384342166e+01,1.000000000000000021e-02
-1.262220966218428941e+00,-6.016997824853690391e-01,1.382948608035032834e-01,1.000000000000000048e-04,3.908074726296498369e+01,1.000000000000000021e-02
1.653057313477251711e+00,-3.404766703132862116e-01,5.163554930538305499e-02,1.000000000000000048e-04,3.681653101409884243e+01,1.000000000000000021e-02
3.033329709651891193e+00,-2.685396241910726900e-01,2.286940488058741838e-01,1.000000000000000048e-04,4.029956785577422096e+01,1.000000000000000021e-02
-2.295494579238394284e+00,6.642250749848410685e-01,2.783666502078705474e-01,1.000000000000000048e-04,4.078852217783563106e+01,1.000000000000000021e-02
-3.691809665502088222e-02,-1.220666953632260965e+00,2.739898414366865875e-01,1.000000000000000048e-04,4.074678567349496205e+01,1.000000000000000021e-02
-2.155930428933330312e+00,2.782594830563605015e-01,1.479974056744042255e-01,1.000000000000000048e-04,3.923752329920170467e+01,1.000000000000000021e-02
-1.810621965143765610e+00,4.908091462794459403e-01,1.515626180436291381e-01,1.000000000000000048e-04,3.928889130525196549e+01,1.000000000000000021e-02
-1.910541171765100854e+00,6.991388946424961226e-01,1.793873814410149592e-01,1.000000000000000048e-04,3.968047396587591180e+01,1.000000000000000021e-02
-2.178261438614487844e+00,1.131286073486103216e+00,7.181031337715371166e-02,1.000000000000000048e-04,3.756064317398092811e+01,1.000000000000000021e-02
-2.305628998395218510e+00,1.904963759159845615e-01,1.173548634671786051e-01,1.000000000000000048e-04,3.871506959324504038e+01,1.000000000000000021e-02
-2.009983691935773642e+00,5.976566250101216227e-01,2.562202227219130268e-01,1.000000000000000048e-04,4.057687492680607022e+01,1.000000000000000021e-02
9.982218189168001743e-01,-8.758743962036894537e-01,4.992889881355111470e-02,1.000000000000000048e-04,3.673368125781875193e+01,1.000000000000000021e-02
1.162398177155876233e+00,-7.385166570876140479e-01,2.147708443034794801e-01,1.000000000000000048e-04,4.014546378139982608e+01,1.000000000000000021e-02
-8.101859814900977952e-01,4.248433309315027273e-01,2.540090457252557332e-01,1.000000000000000048e-04,4.056193889392749696e+01,1.000000000000000021e-02
2.335462512349190334e+00,5.076161622648962535e-01,2.070353240824962526e-01,1.000000000000000048e-04,4.005092094861819163e+01,1.000000000000000021e-02
2.432071905630974307e+00,1.070574918394247899e+00,8.809755769346083731e-02,1.000000000000000048e-04,3.802282024877202105e+01,1.000000000000000021e-02
-4.689226383659113040e-01,-2.011152237905726725e-01,5.572894461837130109e-02,1.000000000000000048e-04,3.696267973407250906e+01,1.000000000000000021e-02
-1.055459256842743887e+00,4.774788071090014796e-01,1.813579278839618780e-01,1.000000000000000048e-04,3.974012885687107399e+01,1.000000000000000021e-02
3.128120310031736295e+00,1.982003450440190662e-01,2.749106626768516026e-01,1.000000000000000048e-04,4.074880734021923701e+01,1.000000000000000021e-02
-1.473483067394758095e+00,1.243159656442483829e+00,2.548182151698719089e-01,1.000000000000000048e-04,4.055741809452169377e+01,1.000000000000000021e-02
-1.265332485145463259e+00,1.122212015891867587e+00,1.136197052438059352e-01,1.000000000000000048e-04,3.861633860318172395e+01,1.000000000000000021e-02
2.742686936540128073e+00,3.311195078888995447e-02,2.579506820578503223e-01,1.000000000000000048e-04,4.058220487718481451e+01,1.000000000000000021e-02
-2.006764528985364393e+00,5.431191671912638519e-01,1.692146461571826244e-01,1.000000000000000048e-04,3.955755227828537812e+01,1.000000000000000021e-02
1.984376163927771941e+00,-1.216006448494533210e-01,4.624265207841093961e-02,1.000000000000000048e-04,3.655285517448336208e+01,1.000000000000000021e-02
-1.787717752532889115e-01,-5.063116222388461818e-01,2.545083574285826877e-01,1.000000000000000048e-04,4.055292685181927226e+01,1.000000000000000021e-02
7.773219356558502824e-01,-3.307206895829142290e-01,1.491188020396936320e-01,1.000000000000000048e-04,3.926812468054841077e+01,1.000000000000000021e-02
-2.791216849806859024e+00,2.434601790933497156e-01,1.913890207828368162e-01,1.000000000000000048e-04,3.986979008092425403e+01,1.000000000000000021e-02
-9.661169267179112730e-01,-3.128432224901407377e-01,1.459324701998956364e-01,1.000000000000000048e-04,3.921256436339913876e+01,1.000000000000000021e-02
8.923807279827169481e-01,-5.503820191774402293e-01,7.477789205902385383e-02,1.000000000000000048e-04,3.764705205955023359e+01,1.000000000000000021e-02
1.734189211951241205e+00,-1.322693938891607468e+00,2.135976059193878118e-01,1.000000000000000048e-04,4.012346780011448999e+01,1.000000000000000021e-02
9.905689586574162320e-01,-3.953880403204967919e-01,1.353628765343573015e-01,1.000000000000000048e-04,3.904911946629032116e+01,1.000000000000000021e-02
-2.499389252780052750e+00,-7.465910238582316172e-01,2.750906396021333133e-01,1.000000000000000048e-04,4.073471369899083783e+01,1.000000000000000021e-02
2.555466876150492617e+00,-4.203999261217274963e-01,2.589882027018215460e-01,1.000000000000000048e-04,4.062583690589638508e+01,1.000000000000000021e-02
-6.204648571185211736e-02,1.176509330326321212e+00,1.585197160239599778e-01,1.000000000000000048e-04,3.939712199499278711e+01,1.000000000000000021e-02
1.189747852635947289e+00,1.076256206851056163e-01,1.123703572670307071e-01,1.000000000000000048e-04,3.859806474081422323e+01,1.000000000000000021e-02
3.216120159962225777e-01,9.498661507524741587e-01,8.617725700988110304e-02,1.000000000000000048e-04,3.798077307501086608e+01,1.000000000000000021e-02
1.093670166079961703e+00,8.793504386123829342e-02,2.226326626474686154e-01,1.000000000000000048e-04,4.023387478626907665e+01,1.000000000000000021e-02
-1.583412318154774345e+00,6.051385436188296829e-01,2.135677286849630985e-01,1.000000000000000048e-04,4.011787549880626358e+01,1.000000000000000021e-02
-2.086735923637025536e+00,-3.354532517749451159e-01,9.275639588255502055e-02,1.000000000000000048e-04,3.813994048287572980e+01,1.000000000000000021e-02
1.348905739089667932e+00,5.539562701541567158e-02,2.093346125062949259e-01,1.000000000000000048e-04,4.007677183450469727e+01,1.000000000000000021e-02
-4.354992821673859815e-01,-3.528873525441560410e-01,1.332532393215977162e-01,1.000000000000000048e-04,3.896278354265798072e+01,1.000000000000000021e-02
-1.472065171926177252e+00,-1.548615127222998655e-01,1.953469483420748887e-01,1.000000000000000048e-04,3.990552730159259909e+01,1.000000000000000021e-02
-4.204721862394098508e-01,-8.373542273697132110e-02,2.444310467691197530e-01,1.000000000000000048e-04,4.044933194174177515e+01,1.000000000000000021e-02
4.960398880788887688e-01,-2.868859048208847184e-01,2.055150741489293331e-01,1.000000000000000048e-04,4.003262598657463656e+01,1.000000000000000021e-02
2.974341049189681563e+00,4.900721499943143655e-01,4.167226358124653807e-02,1.000000000000000048e-04,3.634452958260312982e+01,1.000000000000000021e-02
1.879900400710664776e+00,-2.395700468845645137e-01,2.703397339417217271e-01,1.000000000000000048e-04,4.071748132609194926e+01,1.000000000000000021e-02
-4.295246801154859462e-01,3.435520621980887590e-01,1.404920315505568951e-01,1.000000000000000048e-04,3.911377540612510018e+01,1.000000000000000021e-02
-1.654706056191819208e-01,-7.328580462732769973e-02,6.354190736212017576e-02,1.000000000000000048e-04,3.728083589731966185e+01,1.000000000000000021e-02
