2.694421935208893615e+00,-7.265057913468169204e-01,2.603819084166920650e-01,1.000000000000000048e-04,4.061259931746503327e+01,1.000000000000000021e-02
-2.956181046075817775e+00,-1.063094300445283302e+00,5.509859802712235854e-02,1.000000000000000048e-04,3.695664010206335348e+01,1.000000000000000021e-02
-3.227566469694083118e-01,1.217316536720583375e+00,9.720813551050433432e-02,1.000000000000000048e-04,3.824646135542243996e+01,1.000000000000000021e-02
1.003629041334441752e-02,8.224896462521731344e-01,2.587182691815499425e-01,1.000000000000000048e-04,4.060029077294009880e+01,1.000000000000000021e-02
-3.179150682857998511e-01,1.312645837066130472e+00,1.153854802524607592e-01,1.000000000000000048e-04,3.866632062021561467e+01,1.000000000000000021e-02
1.636750227212032449e+00,1.024983867693347594e+00,7.211554581000645392e-02,1.000000000000000048e-04,3.756035285826609282e+01,1.000000000000000021e-02
-8.926672856295501113e-01,4.798372687310559215e-02,2.724743588951241691e-01,1.000000000000000048e-04,4.072538693670473009e+01,1.000000000000000021e-02
-3.025873727397695223e+00,-1.364904170108420578e+00,2.591545813089579653e-02,1.000000000000000048e-04,3.528489932933093343e+01,1.000000000000000021e-02
4.187233261045775201e-01,1.291702635554701217e+00,1.613278274208140850e-01,1.000000000000000048e-04,3.944534286211914775e+01,1.000000000000000021e-02
-2.918083793569151485e+00,-4.322480473426579817e-01,1.913939344134172327e-01,1.000000000000000048e-04,3.985124406402339758e+01,1.000000000000000021e-02
1.065978337767263362e+00,5.750556324375235562e-01,1.115876375428639378e-01,1.000000000000000048e-04,3.857921697947709561e+01,1.000000000000000021e-02
-2.006080065368382570e+00,8.911199844450385932e-01,3.169661554516944868e-02,1.000000000000000048e-04,3.570239008040029915e+01,1.000000000000000021e-02
-3.063083011564413649e+00,3.976771761144186623e-01,1.608270301157646021e-01,1.000000000000000048e-04,3.945757332170289544e+01,1.000000000000000021e-02
2.410683440797854793e+00,-5.360750518919488172e-03,8.128762937602695970e-02,1.000000000000000048e-04,3.784968192149820965e+01,1.000000000000000021e-02
-2.741780923233990475e+00,1.002515708324567267e-01,5.630246057427745754e-02,1.000000000000000048e-04,3.701679387824160017e+01,1.000000000000000021e-02
-3.049714477992792716e+00,-4.892698218263300536e-01,2.593539547157279745e-01,1.000000000000000048e-04,4.060351192723494762e+01,1.000000000000000021e-02
1.661659526658350039e+00,-5.240016896680299574e-02,2.607806294092043231e-01,1.000000000000000048e-04,4.061917623230326768e+01,1.000000000000000021e-02
-8.345107856332489860e-01,7.868467683252906575e-01,1.794051065353392538e-01,1.000000000000000048e-04,3.971140215037779342e+01,1.000000000000000021e-02
-4.742113105092342629e-01,7.218220643891615218e-02,9.776676319283450489e-02,1.000000000000000048e-04,3.827950479572553633e+01,1.000000000000000021e-02
1.145227678476558708e+00,-9.664270474881851980e-01,9.870827392545966639e-02,1.000000000000000048e-04,3.830189938999390620e+01,1.000000000000000021e-02
-3.006169641972867179e+00,5.780319613197097972e-01,1.072932241085053917e-01,1.000000000000000048e-04,3.847313636374638435e+01,1.000000000000000021e-02
1.791752616225370076e+00,-1.230601583709782787e-01,2.439631207789141332e-01,1.000000000000000048e-04,4.046504954084657868e+01,1.000000000000000021e-02
5.732111271844657630e-01,-8.298794013475820908e-01,1.301012176626170636e-01,1.000000000000000048e-04,3.895492857286697586e+01,1.000000000000000021e-02
8.693243977657116872e-01,-5.328471323361338996e-02,2.369124238094129087e-01,1.000000000000000048e-04,4.037818118705576609e+01,1.000000000000000021e-02
-1.957037817861054130e+00,7.350339649414214804e-01,2.776419885220788863e-01,1.000000000000000048e-04,4.076954302019618126e+01,1.000000000000000021e-02
-9.898716669411333768e-02,1.154547922866086207e+00,2.028149095536602164e-01,1.000000000000000048e-04,4.000175543032673886e+01,1.000000000000000021e-02
-1.083801434855150791e+00,-7.804717465377956076e-01,2.015597252127294681e-01,1.000000000000000048e-04,3.998928191375632935e+01,1.000000000000000021e-02
2.103713629669251794e+00,8.999722179858160587e-01,1.818736208014297695e-01,1.000000000000000048e-04,3.973756224294716333e+01,1.000000000000000021e-02
4.884158936337423818e-01,-1.066397210078640079e-01,2.461428646548349253e-01,1.000000000000000048e-04,4.048960699864108648e+01,1.000000000000000021e-02
-1.736899029666355565e+00,2.418465290649431942e-01,1.668862130483459438e-01,1.000000000000000048e-04,3.950799467354772787e+01,1.000000000000000021e-02
5.789858282877657913e-02,-1.046528401621156901e+00,2.060188871250225873e-01,1.000000000000000048e-04,4.003438749210997116e+01,1.000000000000000021e-02
-2.511670904240592250e+00,-8.810591873147219921e-01,1.555093981327351216e-01,1.000000000000000048e-04,3.935434863857440746e+01,1.000000000000000021e-02
-2.235932927750003074e+00,1.353627795161207459e-01,1.775544751694428935e-01,1.000000000000000048e-04,3.966978977293684494e+01,1.000000000000000021e-02
1.007682123747732028e+00,-1.164612797511771491e+00,2.469120098721335754e-01,1.000000000000000048e-04,4.051410104410234680e+01,1.000000000000000021e-02
-4.714735154850315801e-01,1.458221980730249889e-01,1.182896930878587494e-01,1.000000000000000048e-04,3.870761457456852384e+01,1.000000000000000021e-02
-4.326701329662117068e-01,-1.374829160204704692e-02,2.555045592030389390e-01,1.000000000000000048e-04,4.055238622391613035e+01,1.000000000000000021e-02
-1.023021986184449172e+00,-4.067453860674845600e-01,1.836228425790706886e-01,1.000000000000000048e-04,3.974395838987859264e+01,1.000000000000000021e-02
-2.514609630146977359e+00,-6.962307819945473542e-01,3.748426474150967636e-02,1.000000000000000048e-04,3.607118917232575939e+01,1.000000000000000021e-02
2.083777051594513097e+00,-7.612605777192625878e-01,1.053005118078438329e-01,1.000000000000000048e-04,3.843884758148939085e+01,1.000000000000000021e-02
-1.244705801086261054e-01,-7.819217721377410557e-01,6.018124388394663349e-02,1.000000000000000048e-04,3.716584119213516857e+01,1.000000000000000021e-02
-4.777194548203924640e-01,-3.650941734381882853e-01,1.374283809004792634e-01,1.000000000000000048e-04,3.906082877753573968e+01,1.000000000000000021e-02
-5.385090476980005647e-01,-1.424959216933820105e+00,2.320349472959020165e-01,1.000000000000000048e-04,4.033732344979172524e+01,1.000000000000000021e-02
-8.317706869270522496e-01,1.282762627495570573e-01,7.793048241529620945e-02,1.000000000000000048e-04,3.774978296955595169e+01,1.000000000000000021e-02
-2.359752034287875944e+00,5.228324150257090963e-03,1.831349058265490104e-01,1.000000000000000048e-04,3.976997387545065266e+01,1.000000000000000021e-02
7.202174805283512171e-02,9.700041838199582322e-01,5.069408496546023990e-02,1.000000000000000048e-04,3.675547512983917642e+01,1.000000000000000021e-02
9.488863178446660385e-01,-1.228328609757992407e+00,3.452083990361987098e-02,1.000000000000000048e-04,3.592052648814051707e+01,1.000000000000000021e-02
1.738397521134471546e-02,-1.127314072834681768e+00,3.541599199329392711e-02,1.000000000000000048e-04,3.597522816820859504e+01,1.000000000000000021e-02
1.430510992291010197e+00,1.475154896969272933e-01,1.179467799986073651e-01,1.000000000000000048e-04,3.871367733057313387e+01,1.000000000000000021e-02
-2.619399329929576137e+00,-2.494613459575067971e-02,2.289546244732256763e-01,1.000000000000000048e-04,4.027778791800488278e+01,1.000000000000000021e-02
3.112658951741176239e-01,-1.717180231696822101e-01,9.247518569553059287e-02,1.000000000000000048e-04,3.813905647970582180e+01,1.000000000000000021e-02
-2.951691380530291564e+00,7.428534931175789779e-02,2.781734300784084457e-01,1.000000000000000048e-04,4.076908855862734526e+01,1.000000000000000021e-02
2.298789817212300690e+00,1.033122686902312903e+00,1.664598716081890917e-01,1.000000000000000048e-04,3.951957061560551665e+01,1.000000000000000021e-02
-4.557056042578970789e-01,8.282264057709980420e-01,7.271104975772857415e-02,1.000000000000000048e-04,3.756736064354148397e+01,1.000000000000000021e-02
2.546116960906774196e+00,6.772156766199968203e-01,1.723402236329474313e-01,1.000000000000000048e-04,3.961151415432360068e+01,1.000000000000000021e-02
-8.714657139613279924e-03,-2.422265502613292210e-01,2.412412410852187161e-01,1.000000000000000048e-04,4.043348541272519014e+01,1.000000000000000021e-02
-2.139025279088992093e+00,6.968304396500148989e-01,6.292813395470386872e-02,1.000000000000000048e-04,3.724863882093607259e+01,1.000000000000000021e-02
1.094329325097653793e+00,-1.193435659695821771e+00,6.997806807188045042e-02,1.000000000000000048e-04,3.750202977384928715e+01,1.000000000000000021e-02
-5.740631895131276252e-02,8.217242301602856180e-02,2.039543484950532282e-01,1.000000000000000048e-04,4.000897536034072743e+01,1.000000000000000021e-02
-1.299682564832130405e+00,-2.286426037713784609e-01,3.847207276014574795e-02,1.000000000000000048e-04,3.613793390714360498e+01,1.000000000000000021e-02
2.811107008873299229e+00,1.152953623042307640e+00,1.058130370418048916e-01,1.000000000000000048e-04,3.845327835892436497e+01,1.000000000000000021e-02
-2.665110324659329510e+00,-5.003740251010062590e-01,9.706296151901150360e-02,1.000000000000000048e-04,3.825640155638677697e+01,1.000000000000000021e-02
8.897865377977023371e-01,-3.524866614220487637e-01,2.538941653954762678e-01,1.000000000000000048e-04,4.056187416212676311e+01,1.000000000000000021e-02
3.053384205832201381e-01,-6.218238447453066087e-01,1.262218173654290343e-01,1.000000000000000048e-04,3.887374166900737293e+01,1.000000000000000021e-02
-2.632922552165442909e+00,-9.156138977599408424e-01,1.045453429642626553e-01,1.000000000000000048e-04,3.843543463757391976e+01,1.000000000000000021e-02
2.235223880217320769e-01,-9.116950246455534090e-01,2.294098052300599377e-01,1.000000000000000048e-04,4.030081156465080028e+01,1.000000000000000021e-02
2.242999486668388442e+00,7.646449608262564368e-01,2.642103276150176150e-02,1.000000000000000048e-04,3.530376593124303497e+01,1.000000000000000021e-02
1.880917552178297925e+00,-1.196928418885521372e+00,7.776984154469701593e-02,1.000000000000000048e-04,3.775412502738043230e+01,1.000000000000000021e-02
-3.585590072138411522e-01,-2.360295944695391945e-01,1.381972149930743576e-01,1.000000000000000048e-04,3.908465566022885440e+01,1.000000000000000021e-02
-2.751832297083635304e+00,7.302675642614397944e-02,7.644184438728141018e-02,1.000000000000000048e-04,3.770166748252459143e+01,1.000000000000000021e-02
3.265313237090552434e-01,-2.216874520905269819e-01,2.681204753080794756e-01,1.000000000000000048e-04,4.069469954898758601e+01,1.000000000000000021e-02
1.652252395013314334e+00,1.591316642439029039e-01,2.292156886416873984e-01,1.000000000000000048e-04,4.030128594036891343e+01,1.000000000000000021e-02
-1.738260836158813660e-01,-3.778216266237972576e-01,1.866391027922200685e-01,1.000000000000000048e-04,3.979333010995132014e+01,1.000000000000000021e-02
1.344197250956561618e+00,-8.469710692342408143e-01,7.460932316461188485e-02,1.000000000000000048e-04,3.763743756397845175e+01,1.000000000000000021e-02
1.898354891936750555e+00,-7.786193887503269906e-01,2.577646257926451412e-01,1.000000000000000048e-04,4.059231934945321996e+01,1.000000000000000021e-02
2.672345055699758554e-01,2.593503465643580697e-01,2.591278697125789510e-01,1.000000000000000048e-04,4.060491383866852999e+01,1.000000000000000021e-02
-2.684985830600864265e+00,-8.009062684623230455e-01,2.511347134716086504e-01,1.000000000000000048e-04,4.052288234478145057e+01,1.000000000000000021e-02
3.058665076038089126e+00,3.524241591751884339e-01,2.116373876163208934e-01,1.000000000000000048e-04,4.009249093500338290e+01,1.000000000000000021e-02
-4.884556352960256476e-03,-6.032533904265149349e-01,3.891576871013646688e-02,1.000000000000000048e-04,3.617878792296682633e+01,1.000000000000000021e-02
-2.586300136180829767e+00,-3.154761561931942460e-01,2.742504162336503182e-01,1.000000000000000048e-04,4.074105191202955467e+01,1.000000000000000021e-02
-2.672466886734561342e+00,-4.533378789976592049e-01,1.872250740310643646e-01,1.000000000000000048e-04,3.981062205681406141e+01,1.000000000000000021e-02
-2.972496648016098142e+00,-3.722308588315688116e-01,4.874881077775272686e-02,1.000000000000000048e-04,3.668599143778947536e+01,1.000000000000000021e-02
-3.130834626971322088e+00,2.065141199646953751e-01,4.879203237162554885e-02,1.000000000000000048e-04,3.667113942531084092e+01,1.000000000000000021e-02
-2.627451188977488528e+00,7.385980192453458493e-01,1.005411822948500955e-01,1.000000000000000048e-04,3.831899256995016856e+01,1.000000000000000021e-02
4.402516628485688699e-01,-3.498809171483117098e-01,7.421748593128407734e-02,1.000000000000000048e-04,3.764214185448051353e+01,1.000000000000000021e-02
1.691052968078587959e+00,-4.692125490135321542e-01,6.753056027373327552e-02,1.000000000000000048e-04,3.742437758557225180e+01,1.000000000000000021e-02
-2.804254476180263467e+00,1.291588538651316842e+00,2.682796660373962805e-01,1.000000000000000048e-04,4.067020827619290202e+01,1.000000000000000021e-02
2.084392941280338363e+00,-3.319242566762115043e-01,1.565601463551904438e-01,1.000000000000000048e-04,3.937006577132949303e+01,1.000000000000000021e-02
-1.001909635111139618e+00,-7.004706806903285843e-01,2.521265307478397499e-01,1.000000000000000048e-04,4.054134942036083089e+01,1.000000000000000021e-02
6.676915174751316684e-01,-6.650805734977738304e-01,5.909443124016600102e-02,1.000000000000000048e-04,3.711571123249148485e+01,1.000000000000000021e-02
-2.066605528767111011e+00,8.502414541226528399e-01,3.927526577215978421e-02,1.000000000000000048e-04,3.617360078304002258e+01,1.000000000000000021e-02
7.849501833968548503e-01,7.111564152402523042e-01,9.213455772947320987e-02,1.000000000000000048e-04,3.812641397976343427e+01,1.000000000000000021e-02
1.543841447381988807e+00,1.400738663284421648e+00,2.045562076529032769e-01,1.000000000000000048e-04,4.002012389248312019e+01,1.000000000000000021e-02
-1.503558467822556199e+00,-3.080557999093531674e-01,1.258261307684722663e-01,1.000000000000000048e-04,3.884816434546714703e+01,1.000000000000000021e-02
-1.159546525027667974e+00,4.323490221957952961e-01,2.753837780802743662e-01,1.000000000000000048e-04,4.072052267941354131e+01,1.000000000000000021e-02
-2.576560893340727798e+00,1.844311248487020549e-01,1.327842722737748726e-01,1.000000000000000048e-04,3.899393501775633553e+01,1.000000000000000021e-02
5.875906732472468974e-02,1.255068535255918771e-01,1.654585713987406503e-01,1.000000000000000048e-04,3.951792916070249362e+01,1.000000000000000021e-02
-2.480527436175493428e+00,-6.498422147136692084e-01,5.435025365637335959e-02,1.000000000000000048e-04,3.693552326913604844e+01,1.000000000000000021e-02
2.438378489600633969e+00,3.547798690050907311e-01,8.752081446817272514e-02,1.000000000000000048e-04,3.801024099933431444e+01,1.000000000000000021e-02
2.618703325567891760e+00,4.580666903669503576e-01,2.493012110897299127e-01,1.000000000000000048e-04,4.050206072323167916e+01,1.000000000000000021e-02
1.330912197240654571e+00,8.565470875896483705e-01,8.645576943777721901e-02,1.000000000000000048e-04,3.801478485149757347e+01,1.000000000000000021e-02
-8.283030638719366401e-01,8.281477725175365734e-01,5.136116756533959382e-02,1.000000000000000048e-04,3.679651952683268235e+01,1.000000000000000021e-02
-2.498784032149372614e-01,5.193609221174915191e-01,2.204448957845364099e-01,1.000000000000000048e-04,4.020178716355441395e+01,1.000000000000000021e-02
-8.891278534497040198e-01,-4.027970683600694546e-01,1.526032660366321014e-01,1.000000000000000048e-04,3.930725120743534262e+01,1.000000000000000021e-02
1.635300292216271600e+00,7.268981805293828202e-01,2.271785443315958997e-01,1.000000000000000048e-04,4.028400380593655683e+01,1.000000000000000021e-02
-2.162220757262957260e+00,-4.372349367141414866e-02,2.137314811476767051e-01,1.000000000000000048e-04,4.013292638703423876e+01,1.000000000000000021e-02
3.981838192054798498e-01,3.518497661747055361e-02,1.989530284835046015e-01,1.000000000000000048e-04,3.996000575397695798e+01,1.000000000000000021e-02
3.753819740866597421e-01,-4.540049066204547845e-01,5.599996718976507637e-02,1.000000000000000048e-04,3.698704280193616256e+01,1.000000000000000021e-02
9.031773003438861025e-01,-4.320536948857123249e-02,2.573190743596105445e-01,1.000000000000000048e-04,4.058948086248317111e+01,1.000000000000000021e-02
1.059883449052015258e+00,7.950578625191249138e-01,2.180587224610657238e-01,1.000000000000000048e-04,4.017654934612133388e+01,1.000000000000000021e-02
1.056712967354759058e+00,7.499391837151341278e-01,1.988023509996665883e-01,1.000000000000000048e-04,3.993922285003058903e+01,1.000000000000000021e-02
-1.661488441321340215e+00,-8.294154033129190751e-01,1.359867579314932851e-01,1.000000000000000048e-04,3.903334307276540471e+01,1.000000000000000021e-02
-1.262220966218428941e+00,-6.016997824853690391e-01,2.630215126303310225e-01,1.000000000000000048e-04,4.065332794500137226e+01,1.000000000000000021e-02
1.653057313477251711e+00,-3.404766703132862116e-01,1.599121163499999110e-01,1.000000000000000048e-04,3.943818909529421290e+01,1.000000000000000021e-02
3.033329709651891193e+00,-2.685396241910726900e-01,1.188409093666331628e-01,1.000000000000000048e-04,3.871999723618562683e+01,1.000000000000000021e-02
-2.295494579238394284e+00,6.642250749848410685e-01,2.738372578059111717e-01,1.000000000000000048e-04,4.073073481792752659e+01,1.000000000000000021e-02
-3.691809665502088222e-02,-1.220666953632260965e+00,5.806453913894671359e-02,1.000000000000000048e-04,3.707161572731599364e+01,1.000000000000000021e-02
-2.155930428933330312e+00,2.782594830563605015e-01,8.856661900424045442e-02,1.000000000000000048e-04,3.803033352888849805e+01,1.000000000000000021e-02
-1.810621965143765610e+00,4.908091462794459403e-01,1.361053891838437391e-01,1.000000000000000048e-04,3.904727064306824502e+01,1.000000000000000021e-02
-1.910541171765100854e+00,6.991388946424961226e-01,2.252716983527289774e-01,1.000000000000000048e-04,4.026438803011970435e+01,1.000000000000000021e-02
-2.178261438614487844e+00,1.131286073486103216e+00,2.030352583414738454e-01,1.000000000000000048e-04,4.001115381180348862e+01,1.000000000000000021e-02
-2.305628998395218510e+00,1.904963759159845615e-01,2.344496229527299747e-01,1.000000000000000048e-04,4.034463685853572912e+01,1.000000000000000021e-02
-2.009983691935773642e+00,5.976566250101216227e-01,1.958556663951775967e-01,1.000000000000000048e-04,3.990452756147801949e+01,1.000000000000000021e-02
9.982218189168001743e-01,-8.758743962036894537e-01,2.635360564253292903e-01,1.000000000000000048e-04,4.065220979915184785e+01,1.000000000000000021e-02
1.162398177155876233e+00,-7.385166570876140479e-01,6.952446273666801346e-02,1.000000000000000048e-04,3.750580494797226550e+01,1.000000000000000021e-02
-8.101859814900977952e-01,4.248433309315027273e-01,6.625177618226874010e-02,1.000000000000000048e-04,3.736886378235864470e+01,1.000000000000000021e-02
2.335462512349190334e+00,5.076161622648962535e-01,9.687132361607453390e-02,1.000000000000000048e-04,3.826411907637154997e+01,1.000000000000000021e-02
2.432071905630974307e+00,1.070574918394247899e+00,2.698510812003358517e-01,1.000000000000000048e-04,4.069243119981733514e+01,1.000000000000000021e-02
-4.689226383659113040e-01,-2.011152237905726725e-01,2.404964935186482133e-01,1.000000000000000048e-04,4.043523604457865872e+01,1.000000000000000021e-02
-1.055459256842743887e+00,4.774788071090014796e-01,1.682579800374353063e-01,1.000000000000000048e-04,3.953224108118224933e+01,1.000000000000000021e-02
3.128120310031736295e+00,1.982003450440190662e-01,5.892550472403956796e-02,1.000000000000000048e-04,3.711495611979803755e+01,1.000000000000000021e-02
-1.473483067394758095e+00,1.243159656442483829e+00,1.405150630173637172e-01,1.000000000000000048e-04,3.910508939703528597e+01,1.000000000000000021e-02
-1.265332485145463259e+00,1.122212015891867587e+00,2.269150402968183045e-01,1.000000000000000048e-04,4.027531367717352850e+01,1.000000000000000021e-02
2.742686936540128073e+00,3.311195078888995447e-02,9.778631497525180905e-02,1.000000000000000048e-04,3.827684750096515387e+01,1.000000000000000021e-02
-2.006764528985364393e+00,5.431191671912638519e-01,2.364367832737084285e-01,1.000000000000000048e-04,4.037044496853395259e+01,1.000000000000000021e-02
1.984376163927771941e+00,-1.216006448494533210e-01,2.654893978714332192e-01,1.000000000000000048e-04,4.066368949348652961e+01,1.000000000000000021e-02
-1.787717752532889115e-01,-5.063116222388461818e-01,1.460729302698404730e-01,1.000000000000000048e-04,3.921173591149270266e+01,1.000000000000000021e-02
7.773219356558502824e-01,-3.307206895829142290e-01,1.356388824114571623e-01,1.000000000000000048e-04,3.904634105879959094e+01,1.000000000000000021e-02
-2.791216849806859024e+00,2.434601790933497156e-01,5.040006098070670681e-02,1.000000000000000048e-04,3.675235628566709778e+01,1.000000000000000021e-02
-9.661169267179112730e-01,-3.128432224901407377e-01,5.259834711027711052e-02,1.000000000000000048e-04,3.684018220923559994e+01,1.000000000000000021e-02
8.923807279827169481e-01,-5.503820191774402293e-01,1.443115724962915625e-01,1.000000000000000048e-04,3.917164157799714275e+01,1.000000000000000021e-02
1.734189211951241205e+00,-1.322693938891607468e+00,1.734577543757755969e-01,1.000000000000000048e-04,3.961989209527595790e+01,1.000000000000000021e-02
9.905689586574162320e-01,-3.953880403204967919e-01,7.595805046975656616e-02,1.000000000000000048e-04,3.769004036734051510e+01,1.000000000000000021e-02
-2.499389252780052750e+00,-7.465910238582316172e-01,2.092103121173876090e-01,1.000000000000000048e-04,4.006919750343696762e+01,1.000000000000000021e-02
2.555466876150492617e+00,-4.203999261217274963e-01,1.871162451782748537e-01,1.000000000000000048e-04,3.981880068793342531e+01,1.000000000000000021e-02
-6.204648571185211736e-02,1.176509330326321212e+00,1.960039270401479072e-01,1.000000000000000048e-04,3.993196383558324669e+01,1.000000000000000021e-02
1.189747852635947289e+00,1.076256206851056163e-01,2.619679493032913697e-01,1.000000000000000048e-04,4.063685025045385402e+01,1.000000000000000021e-02
3.216120159962225777e-01,9.498661507524741587e-01,1.205278626437784606e-01,1.000000000000000048e-04,3.874110031553288991e+01,1.000000000000000021e-02
1.093670166079961703e+00,8.793504386123829342e-02,3.599133243898999801e-02,1.000000000000000048e-04,3.600972031265330031e+01,1.000000000000000021e-02
-1.583412318154774345e+00,6.051385436188296829e-01,1.988698429358994879e-01,1.000000000000000048e-04,3.994502467874279006e+01,1.000000000000000021e-02
-2.086735923637025536e+00,-3.354532517749451159e-01,2.458880650393941991e-01,1.000000000000000048e-04,4.046454190087155212e+01,1.000000000000000021e-02
1.348905739089667932e+00,5.539562701541567158e-02,1.891293820984247809e-01,1.000000000000000048e-04,3.981942960289411104e+01,1.000000000000000021e-02
-4.354992821673859815e-01,-3.528873525441560410e-01,1.608572005317718823e-01,1.000000000000000048e-04,3.944688467467395299e+01,1.000000000000000021e-02
-1.472065171926177252e+00,-1.548615127222998655e-01,2.674099566895891122e-01,1.000000000000000048e-04,4.066823189521117854e+01,1.000000000000000021e-02
-4.204721862394098508e-01,-8.373542273697132110e-02,2.136448451167809459e-01,1.000000000000000048e-04,4.011130132787314295e+01,1.000000000000000021e-02
4.960398880788887688e-01,-2.868859048208847184e-01,2.681609305025958179e-01,1.000000000000000048e-04,4.069244195951910115e+01,1.000000000000000021e-02
2.974341049189681563e+00,4.900721499943143655e-01,1.790571039733097614e-01,1.000000000000000048e-04,3.970382621029433068e+01,1.000000000000000021e-02
1.879900400710664776e+00,-2.395700468845645137e-01,2.472779260819191194e-01,1.000000000000000048e-04,4.047321629635765561e+01,1.000000000000000021e-02
-4.295246801154859462e-01,3.435520621980887590e-01,2.022883492164269104e-01,1.000000000000000048e-04,3.999906556956803882e+01,1.000000000000000021e-02
-1.654706056191819208e-01,-7.328580462732769973e-02,9.250862706108198275e-02,1.000000000000000048e-04,3.814948202299427749e+01,1.000000000000000021e-02
