2.694421935208893615e+00,-7.265057913468169204e-01,2.067944157731624877e-01,1.000000000000000048e-04,4.007299193939660142e+01,1.000000000000000021e-02
-2.956181046075817775e+00,-1.063094300445283302e+00,2.328360533317395120e-01,1.000000000000000048e-04,4.036188851352622464e+01,1.000000000000000021e-02
-3.227566469694083118e-01,1.217316536720583375e+00,2.342391164789070501e-01,1.000000000000000048e-04,4.032000966708582013e+01,1.000000000000000021e-02
1.003629041334441752e-02,8.224896462521731344e-01,1.375566180555101159e-01,1.000000000000000048e-04,3.904458767035969657e+01,1.000000000000000021e-02
-3.179150682857998511e-01,1.312645837066130472e+00,1.524974770767546506e-01,1.000000000000000048e-04,3.928646343852152256e+01,1.000000000000000021e-02
1.636750227212032449e+00,1.024983867693347594e+00,1.231954542317379442e-01,1.000000000000000048e-04,3.878283890137169720e+01,1.000000000000000021e-02
-8.926672856295501113e-01,4.798372687310559215e-02,1.450807043395490048e-01,1.000000000000000048e-04,3.917214687800004214e+01,1.000000000000000021e-02
-3.025873727397695223e+00,-1.364904170108420578e+00,6.946766092094502909e-02,1.000000000000000048e-04,3.750208903848854192e+01,1.000000000000000021e-02
4.187233261045775201e-01,1.291702635554701217e+00,5.630439453261337768e-02,1.000000000000000048e-04,3.697560482357621936e+01,1.000000000000000021e-02
-2.918083793569151485e+00,-4.322480473426579817e-01,1.525831438099118920e-01,1.000000000000000048e-04,3.933773503406658989e+01,1.000000000000000021e-02
1.065978337767263362e+00,5.750556324375235562e-01,1.512374067729964633e-01,1.000000000000000048e-04,3.931260032258548165e+01,1.000000000000000021e-02
-2.006080065368382570e+00,8.911199844450385932e-01,2.560022074685430749e-01,1.000000000000000048e-04,4.055244766354131514e+01,1.000000000000000021e-02
-3.063083011564413649e+00,3.976771761144186623e-01,4.411074629239042366e-02,1.000000000000000048e-04,3.645240031073794285e+01,1.000000000000000021e-02
2.410683440797854793e+00,-5.360750518919488172e-03,4.532358919150603072e-02,1.000000000000000048e-04,3.656064822269303249e+01,1.000000000000000021e-02
-2.741780923233990475e+00,1.002515708324567267e-01,1.561872736452032395e-01,1.000000000000000048e-04,3.936814543142369160e+01,1.000000000000000021e-02
-3.049714477992792716e+00,-4.892698218263300536e-01,5.102978297507587691e-02,1.000000000000000048e-04,3.680451895858548994e+01,1.000000000000000021e-02
1.661659526658350039e+00,-5.240016896680299574e-02,2.675023731686032580e-01,1.000000000000000048e-04,4.068198006987885407e+01,1.000000000000000021e-02
-8.345107856332489860e-01,7.868467683252906575e-01,6.766106646619696185e-02,1.000000000000000048e-04,3.737552126452684575e+01,1.000000000000000021e-02
-4.742113105092342629e-01,7.218220643891615218e-02,2.683927959554570641e-01,1.000000000000000048e-04,4.067563628336574766e+01,1.000000000000000021e-02
1.145227678476558708e+00,-9.664270474881851980e-01,2.454316759496781852e-01,1.000000000000000048e-04,4.048321010806698439e+01,1.000000000000000021e-02
-3.006169641972867179e+00,5.780319613197097972e-01,2.383793405700695978e-01,1.000000000000000048e-04,4.039009239722652467e+01,1.000000000000000021e-02
1.791752616225370076e+00,-1.230601583709782787e-01,1.452182471131340247e-01,1.000000000000000048e-04,3.922720740858544275e+01,1.000000000000000021e-02
5.732111271844657630e-01,-8.298794013475820908e-01,7.244275398479893546e-02,1.000000000000000048e-04,3.760759767881314275e+01,1.000000000000000021e-02
8.693243977657116872e-01,-5.328471323361338996e-02,1.286069596484231692e-01,1.000000000000000048e-04,3.893186635748738667e+01,1.000000000000000021e-02
-1.957037817861054130e+00,7.350339649414214804e-01,1.802088956313012691e-01,1.000000000000000048e-04,3.970944588848296064e+01,1.000000000000000021e-02
-9.898716669411333768e-02,1.154547922866086207e+00,1.837711173898162187e-01,1.000000000000000048e-04,3.974752062698278365e+01,1.000000000000000021e-02
-1.083801434855150791e+00,-7.804717465377956076e-01,1.648191945315917728e-01,1.000000000000000048e-04,3.949398411620576610e+01,1.000000000000000021e-02
2.103713629669251794e+00,8.999722179858160587e-01,1.437634621291061787e-01,1.000000000000000048e-04,3.916383756756184908e+01,1.000000000000000021e-02
4.884158936337423818e-01,-1.066397210078640079e-01,2.554294566727268734e-01,1.000000000000000048e-04,4.058540194057410133e+01,1.000000000000000021e-02
-1.736899029666355565e+00,2.418465290649431942e-01,7.873298819875462762e-02,1.000000000000000048e-04,3.773602523523634034e+01,1.000000000000000021e-02
5.789858282877657913e-02,-1.046528401621156901e+00,3.696802758218886709e-02,1.000000000000000048e-04,3.609573948614052341e+01,1.000000000000000021e-02
-2.511670904240592250e+00,-8.810591873147219921e-01,1.717591022075912743e-01,1.000000000000000048e-04,3.960149613567531901e+01,1.000000000000000021e-02
-2.235932927750003074e+00,1.353627795161207459e-01,2.688647015716560951e-02,1.000000000000000048e-04,3.527123019157752992e+01,1.000000000000000021e-02
1.007682123747732028e+00,-1.164612797511771491e+00,1.074330319575040882e-01,1.000000000000000048e-04,3.851098973627298960e+01,1.000000000000000021e-02
-4.714735154850315801e-01,1.458221980730249889e-01,2.775207444272793644e-01,1.000000000000000048e-04,4.076515655388488568e+01,1.000000000000000021e-02
-4.326701329662117068e-01,-1.374829160204704692e-02,3.833110039526022028e-02,1.000000000000000048e-04,3.609764364556034622e+01,1.000000000000000021e-02
-1.023021986184449172e+00,-4.067453860674845600e-01,7.614831176869207852e-02,1.000000000000000048e-04,3.766819989456079298e+01,1.000000000000000021e-02
-2.514609630146977359e+00,-6.962307819945473542e-01,2.504726765584264214e-02,1.000000000000000048e-04,3.522554717660864299e+01,1.000000000000000021e-02
2.083777051594513097e+00,-7.612605777192625878e-01,2.071623955827808228e-01,1.000000000000000048e-04,4.006211790015760243e+01,1.000000000000000021e-02
-1.244705801086261054e-01,-7.819217721377410557e-01,1.816141088626304079e-01,1.000000000000000048e-04,3.972770381272514584e+01,1.000000000000000021e-02
-4.777194548203924640e-01,-3.650941734381882853e-01,1.318113676438807946e-01,1.000000000000000048e-04,3.896280997091557197e+01,1.000000000000000021e-02
-5.385090476980005647e-01,-1.424959216933820105e+00,5.066634199610953182e-02,1.000000000000000048e-04,3.680288169589060487e+01,1.000000000000000021e-02
-8.317706869270522496e-01,1.282762627495570573e-01,1.201236365656939142e-01,1.000000000000000048e-04,3.873855503498837294e+01,1.000000000000000021e-02
-2.359752034287875944e+00,5.228324150257090963e-03,2.208182419170157118e-02,1.000000000000000048e-04,3.482496117811130887e+01,1.000000000000000021e-02
7.202174805283512171e-02,9.700041838199582322e-01,1.847732729508790861e-01,1.000000000000000048e-04,3.976377699093006157e+01,1.000000000000000021e-02
9.488863178446660385e-01,-1.228328609757992407e+00,1.605418207802002950e-01,1.000000000000000048e-04,3.945183144236676043e+01,1.000000000000000021e-02
1.738397521134471546e-02,-1.127314072834681768e+00,5.446334853894896355e-02,1.000000000000000048e-04,3.695406593290833541e+01,1.000000000000000021e-02
1.430510992291010197e+00,1.475154896969272933e-01,2.472983376704340763e-01,1.000000000000000048e-04,4.050205154207770164e+01,1.000000000000000021e-02
-2.619399329929576137e+00,-2.494613459575067971e-02,1.386852791836330479e-01,1.000000000000000048e-04,3.907303876959333166e+01,1.000000000000000021e-02
3.112658951741176239e-01,-1.717180231696822101e-01,2.475066757125869987e-01,1.000000000000000048e-04,4.048189377910200193e+01,1.000000000000000021e-02
-2.951691380530291564e+00,7.428534931175789779e-02,2.274814912062328442e-01,1.000000000000000048e-04,4.028427799769351481e+01,1.000000000000000021e-02
2.298789817212300690e+00,1.033122686902312903e+00,2.466345769722804171e-01,1.000000000000000048e-04,4.046189842692018601e+01,1.000000000000000021e-02
-4.557056042578970789e-01,8.282264057709980420e-01,2.593710403766946726e-01,1.000000000000000048e-04,4.059757770078854122e+01,1.000000000000000021e-02
2.546116960906774196e+00,6.772156766199968203e-01,5.892419160968209724e-02,1.000000000000000048e-04,3.711185399414752339e+01,1.000000000000000021e-02
-8.714657139613279924e-03,-2.422265502613292210e-01,1.725520606146615510e-01,1.000000000000000048e-04,3.961038914705439140e+01,1.000000000000000021e-02
-2.139025279088992093e+00,6.968304396500148989e-01,2.074883594807406251e-01,1.000000000000000048e-04,4.003509647225239121e+01,1.000000000000000021e-02
1.094329325097653793e+00,-1.193435659695821771e+00,5.839108116752189659e-02,1.000000000000000048e-04,3.713287168439181585e+01,1.000000000000000021e-02
-5.740631895131276252e-02,8.217242301602856180e-02,1.657394646203504962e-01,1.000000000000000048e-04,3.952763462445104636e+01,1.000000000000000021e-02
-1.299682564832130405e+00,-2.286426037713784609e-01,3.615387161500982494e-02,1.000000000000000048e-04,3.596132595393582676e+01,1.000000000000000021e-02
2.811107008873299229e+00,1.152953623042307640e+00,2.078924871920913020e-01,1.000000000000000048e-04,4.006729368470934816e+01,1.000000000000000021e-02
-2.665110324659329510e+00,-5.003740251010062590e-01,4.801210019253843164e-02,1.000000000000000048e-04,3.665757879119067297e+01,1.000000000000000021e-02
8.897865377977023371e-01,-3.524866614220487637e-01,1.336393049211581641e-01,1.000000000000000048e-04,3.901032531837068973e+01,1.000000000000000021e-02
3.053384205832201381e-01,-6.218238447453066087e-01,1.170914378938463507e-01,1.000000000000000048e-04,3.869733016580190110e+01,1.000000000000000021e-02
-2.632922552165442909e+00,-9.156138977599408424e-01,9.732553877940053333e-02,1.000000000000000048e-04,3.824975338843532313e+01,1.000000000000000021e-02
2.235223880217320769e-01,-9.116950246455534090e-01,2.130931846622179382e-01,1.000000000000000048e-04,4.012781982179668461e+01,1.000000000000000021e-02
2.242999486668388442e+00,7.646449608262564368e-01,8.245783591072997076e-02,1.000000000000000048e-04,3.787352857968051012e+01,1.000000000000000021e-02
1.880917552178297925e+00,-1.196928418885521372e+00,2.728084302947959561e-01,1.000000000000000048e-04,4.074721739460884606e+01,1.000000000000000021e-02
-3.585590072138411522e-01,-2.360295944695391945e-01,1.202741363990960100e-01,1.000000000000000048e-04,3.874912249099647710e+01,1.000000000000000021e-02
-2.751832297083635304e+00,7.302675642614397944e-02,1.287451925206799519e-01,1.000000000000000048e-04,3.891235838954721515e+01,1.000000000000000021e-02
3.265313237090552434e-01,-2.216874520905269819e-01,3.524481589905725798e-02,1.000000000000000048e-04,3.599285658766660845e+01,1.000000000000000021e-02
1.652252395013314334e+00,1.591316642439029039e-01,6.108926614114684739e-02,1.000000000000000048e-04,3.722436508216888740e+01,1.000000000000000021e-02
-1.738260836158813660e-01,-3.778216266237972576e-01,1.366222083820864963e-01,1.000000000000000048e-04,3.907042516947833377e+01,1.000000000000000021e-02
1.344197250956561618e+00,-8.469710692342408143e-01,7.271598488837005547e-02,1.000000000000000048e-04,3.763258198423446999e+01,1.000000000000000021e-02
1.898354891936750555e+00,-7.786193887503269906e-01,1.274563447148751028e-01,1.000000000000000048e-04,3.891071347095999045e+01,1.000000000000000021e-02
2.672345055699758554e-01,2.593503465643580697e-01,1.459863206420377590e-01,1.000000000000000048e-04,3.922016407501366331e+01,1.000000000000000021e-02
-2.684985830600864265e+00,-8.009062684623230455e-01,1.983916021782310413e-01,1.000000000000000048e-04,3.995299298025079082e+01,1.000000000000000021e-02
3.058665076038089126e+00,3.524241591751884339e-01,2.443120513093708368e-01,1.000000000000000048e-04,4.045699934243020834e+01,1.000000000000000021e-02
-4.884556352960256476e-03,-6.032533904265149349e-01,2.023618275769809571e-01,1.000000000000000048e-04,3.998871075654972884e+01,1.000000000000000021e-02
-2.586300136180829767e+00,-3.154761561931942460e-01,1.011370338808559310e-01,1.000000000000000048e-04,3.831286167113805163e+01,1.000000000000000021e-02
-2.672466886734561342e+00,-4.533378789976592049e-01,6.432817853091510329e-02,1.000000000000000048e-04,3.731174197192276409e+01,1.000000000000000021e-02
-2.972496648016098142e+00,-3.722308588315688116e-01,2.564664066760060646e-01,1.000000000000000048e-04,4.057923022061329021e+01,1.000000000000000021e-02
-3.130834626971322088e+00,2.065141199646953751e-01,2.299649054150578742e-01,1.000000000000000048e-04,4.030276201018484272e+01,1.000000000000000021e-02
-2.627451188977488528e+00,7.385980192453458493e-01,2.315099868153900342e-01,1.000000000000000048e-04,4.031084202264415239e+01,1.000000000000000021e-02
4.402516628485688699e-01,-3.498809171483117098e-01,2.767442310226184699e-01,1.000000000000000048e-04,4.076657386771400837e+01,1.000000000000000021e-02
1.691052968078587959e+00,-4.692125490135321542e-01,9.844731270470696849e-02,1.000000000000000048e-04,3.831815794726573898e+01,1.000000000000000021e-02
-2.804254476180263467e+00,1.291588538651316842e+00,2.748471869695046088e-02,1.000000000000000048e-04,3.531310365673980556e+01,1.000000000000000021e-02
2.084392941280338363e+00,-3.319242566762115043e-01,1.673788219150715850e-01,1.000000000000000048e-04,3.957601605856651616e+01,1.000000000000000021e-02
-1.001909635111139618e+00,-7.004706806903285843e-01,2.511906242610535411e-01,1.000000000000000048e-04,4.050721542401773689e+01,1.000000000000000021e-02
6.676915174751316684e-01,-6.650805734977738304e-01,4.309438482193561626e-02,1.000000000000000048e-04,3.645027547408747637e+01,1.000000000000000021e-02
-2.066605528767111011e+00,8.502414541226528399e-01,1.171461486325087176e-01,1.000000000000000048e-04,3.866695379764352225e+01,1.000000000000000021e-02
7.849501833968548503e-01,7.111564152402523042e-01,1.673633499665561075e-01,1.000000000000000048e-04,3.953761548425710259e+01,1.000000000000000021e-02
1.543841447381988807e+00,1.400738663284421648e+00,1.934599125894589378e-01,1.000000000000000048e-04,3.987655853595227740e+01,1.000000000000000021e-02
-1.503558467822556199e+00,-3.080557999093531674e-01,2.531363815872524903e-01,1.000000000000000048e-04,4.053584807808207557e+01,1.000000000000000021e-02
-1.159546525027667974e+00,4.323490221957952961e-01,2.619216552404048937e-01,1.000000000000000048e-04,4.060955269582668592e+01,1.000000000000000021e-02
-2.576560893340727798e+00,1.844311248487020549e-01,6.087935748279416082e-02,1.000000000000000048e-04,3.713917614657685817e+01,1.000000000000000021e-02
5.875906732472468974e-02,1.255068535255918771e-01,3.310690863391663186e-02,1.000000000000000048e-04,3.579378302870304651e+01,1.000000000000000021e-02
-2.480527436175493428e+00,-6.498422147136692084e-01,1.705879078363812251e-01,1.000000000000000048e-04,3.959192662406990593e+01,1.000000000000000021e-02
2.438378489600633969e+00,3.547798690050907311e-01,2.349118457928538461e-01,1.000000000000000048e-04,4.035930448030317308e+01,1.000000000000000021e-02
2.618703325567891760e+00,4.580666903669503576e-01,5.299057516282767999e-02,1.000000000000000048e-04,3.686917067413289573e+01,1.000000000000000021e-02
1.330912197240654571e+00,8.565470875896483705e-01,7.781893878629331240e-02,1.000000000000000048e-04,3.775459940247029778e+01,1.000000000000000021e-02
-8.283030638719366401e-01,8.281477725175365734e-01,2.103629339183159530e-01,1.000000000000000048e-04,4.007507091475166305e+01,1.000000000000000021e-02
-2.498784032149372614e-01,5.193609221174915191e-01,1.852864340768756168e-01,1.000000000000000048e-04,3.975302657725483613e+01,1.000000000000000021e-02
-8.891278534497040198e-01,-4.027970683600694546e-01,2.623381140807310441e-01,1.000000000000000048e-04,4.061487316213794685e+01,1.000000000000000021e-02
1.635300292216271600e+00,7.268981805293828202e-01,6.392339252969203578e-02,1.000000000000000048e-04,3.729632409160386430e+01,1.000000000000000021e-02
-2.162220757262957260e+00,-4.372349367141414866e-02,1.565713172159834965e-01,1.000000000000000048e-04,3.936131252415033543e+01,1.000000000000000021e-02
3.981838192054798498e-01,3.518497661747055361e-02,1.680415817271039280e-01,1.000000000000000048e-04,3.954968692124510454e+01,1.000000000000000021e-02
3.753819740866597421e-01,-4.540049066204547845e-01,2.496247341108648321e-01,1.000000000000000048e-04,4.051241016821133911e+01,1.000000000000000021e-02
9.031773003438861025e-01,-4.320536948857123249e-02,7.223245169653069730e-02,1.000000000000000048e-04,3.758686176755388431e+01,1.000000000000000021e-02
1.059883449052015258e+00,7.950578625191249138e-01,2.630729752649592079e-01,1.000000000000000048e-04,4.064767851481345673e+01,1.000000000000000021e-02
1.056712967354759058e+00,7.499391837151341278e-01,2.451613383866109164e-01,1.000000000000000048e-04,4.046309728673605122e+01,1.000000000000000021e-02
-1.661488441321340215e+00,-8.294154033129190751e-01,1.939638845131399503e-01,1.000000000000000048e-04,3.989756919172009475e+01,1.000000000000000021e-02
-1.262220966218428941e+00,-6.016997824853690391e-01,6.016670030052262419e-02,1.000000000000000048e-04,3.715597248237629913e+01,1.000000000000000021e-02
1.653057313477251711e+00,-3.404766703132862116e-01,2.458514384948280451e-01,1.000000000000000048e-04,4.048062995326923641e+01,1.000000000000000021e-02
3.033329709651891193e+00,-2.685396241910726900e-01,2.127123146763207906e-01,1.000000000000000048e-04,4.012294841329409678e+01,1.000000000000000021e-02
-2.295494579238394284e+00,6.642250749848410685e-01,1.231823598383174900e-01,1.000000000000000048e-04,3.878940251447597376e+01,1.000000000000000021e-02
-3.691809665502088222e-02,-1.220666953632260965e+00,7.984795682061984756e-02,1.000000000000000048e-04,3.783926613974898601e+01,1.000000000000000021e-02
-2.155930428933330312e+00,2.782594830563605015e-01,7.624971877655273289e-02,1.000000000000000048e-04,3.764999436176218239e+01,1.000000000000000021e-02
-1.810621965143765610e+00,4.908091462794459403e-01,2.194895853170186761e-01,1.000000000000000048e-04,4.016708879863424642e+01,1.000000000000000021e-02
-1.910541171765100854e+00,6.991388946424961226e-01,3.960594105315062841e-02,1.000000000000000048e-04,3.612454655749223065e+01,1.000000000000000021e-02
-2.178261438614487844e+00,1.131286073486103216e+00,2.502865957774054184e-01,1.000000000000000048e-04,4.049420437537233397e+01,1.000000000000000021e-02
-2.305628998395218510e+00,1.904963759159845615e-01,2.372218040554807672e-02,1.000000000000000048e-04,3.498978383486443988e+01,1.000000000000000021e-02
-2.009983691935773642e+00,5.976566250101216227e-01,2.224253952833363801e-01,1.000000000000000048e-04,4.018864397122779764e+01,1.000000000000000021e-02
9.982218189168001743e-01,-8.758743962036894537e-01,9.462498512300832054e-02,1.000000000000000048e-04,3.822235670732531077e+01,1.000000000000000021e-02
1.162398177155876233e+00,-7.385166570876140479e-01,2.721059250103889937e-01,1.000000000000000048e-04,4.073913800240361383e+01,1.000000000000000021e-02
-8.101859814900977952e-01,4.248433309315027273e-01,1.878423814780481038e-01,1.000000000000000048e-04,3.981834118559739721e+01,1.000000000000000021e-02
2.335462512349190334e+00,5.076161622648962535e-01,6.096645135616141076e-02,1.000000000000000048e-04,3.720903311217683296e+01,1.000000000000000021e-02
2.432071905630974307e+00,1.070574918394247899e+00,2.088566069297803640e-01,1.000000000000000048e-04,4.006238462851862892e+01,1.000000000000000021e-02
-4.689226383659113040e-01,-2.011152237905726725e-01,2.159636111496090471e-01,1.000000000000000048e-04,4.014640802761152827e+01,1.000000000000000021e-02
-1.055459256842743887e+00,4.774788071090014796e-01,2.086614080526971726e-01,1.000000000000000048e-04,4.005367437125113383e+01,1.000000000000000021e-02
3.128120310031736295e+00,1.982003450440190662e-01,1.535310112253329695e-01,1.000000000000000048e-04,3.931207433136204088e+01,1.000000000000000021e-02
-1.473483067394758095e+00,1.243159656442483829e+00,7.545008724200719108e-02,1.000000000000000048e-04,3.763763875436148965e+01,1.000000000000000021e-02
-1.265332485145463259e+00,1.122212015891867587e+00,1.243367609300074506e-01,1.000000000000000048e-04,3.879910221247864399e+01,1.000000000000000021e-02
2.742686936540128073e+00,3.311195078888995447e-02,2.498805922817310954e-01,1.000000000000000048e-04,4.051454389747620866e+01,1.000000000000000021e-02
-2.006764528985364393e+00,5.431191671912638519e-01,2.293223672965851723e-01,1.000000000000000048e-04,4.028762903290748909e+01,1.000000000000000021e-02
1.984376163927771941e+00,-1.216006448494533210e-01,2.733558332941128377e-01,1.000000000000000048e-04,4.075276735249813953e+01,1.000000000000000021e-02
-1.787717752532889115e-01,-5.063116222388461818e-01,4.224795993429775187e-02,1.000000000000000048e-04,3.638120171012893422e+01,1.000000000000000021e-02
7.773219356558502824e-01,-3.307206895829142290e-01,1.810184402961645400e-01,1.000000000000000048e-04,3.974193002867060898e+01,1.000000000000000021e-02
-2.791216849806859024e+00,2.434601790933497156e-01,7.501804398320510714e-02,1.000000000000000048e-04,3.765645751123845031e+01,1.000000000000000021e-02
-9.661169267179112730e-01,-3.128432224901407377e-01,5.132788489243167440e-02,1.000000000000000048e-04,3.676066863526948225e+01,1.000000000000000021e-02
8.923807279827169481e-01,-5.503820191774402293e-01,2.601100347028864057e-01,1.000000000000000048e-04,4.063389648237779284e+01,1.000000000000000021e-02
1.734189211951241205e+00,-1.322693938891607468e+00,3.224384163152604899e-02,1.000000000000000048e-04,3.583926275212357382e+01,1.000000000000000021e-02
9.905689586574162320e-01,-3.953880403204967919e-01,2.527061121332698779e-01,1.000000000000000048e-04,4.055165380644618978e+01,1.000000000000000021e-02
-2.499389252780052750e+00,-7.465910238582316172e-01,1.985759461727729658e-01,1.000000000000000048e-04,3.996988891480854988e+01,1.000000000000000021e-02
2.555466876150492617e+00,-4.203999261217274963e-01,2.401855488199295952e-01,1.000000000000000048e-04,4.042557727146229496e+01,1.000000000000000021e-02
-6.204648571185211736e-02,1.176509330326321212e+00,2.350687495288399376e-01,1.000000000000000048e-04,4.035394855398422465e+01,1.000000000000000021e-02
1.189747852635947289e+00,1.076256206851056163e-01,1.870928793311461558e-01,1.000000000000000048e-04,3.982605784361776102e+01,1.000000000000000021e-02
3.216120159962225777e-01,9.498661507524741587e-01,2.597413364748188958e-01,1.000000000000000048e-04,4.059415895433664900e+01,1.000000000000000021e-02
1.093670166079961703e+00,8.793504386123829342e-02,2.318955088357583794e-01,1.000000000000000048e-04,4.031706484786111133e+01,1.000000000000000021e-02
-1.583412318154774345e+00,6.051385436188296829e-01,9.375355766589166251e-02,1.000000000000000048e-04,3.814005680584583757e+01,1.000000000000000021e-02
-2.086735923637025536e+00,-3.354532517749451159e-01,5.078223018920868803e-02,1.000000000000000048e-04,3.674799531582462464e+01,1.000000000000000021e-02
1.348905739089667932e+00,5.539562701541567158e-02,1.556454605073740449e-01,1.000000000000000048e-04,3.938390690507761605e+01,1.000000000000000021e-02
-4.354992821673859815e-01,-3.528873525441560410e-01,9.122617483552675210e-02,1.000000000000000048e-04,3.810978262928666993e+01,1.000000000000000021e-02
-1.472065171926177252e+00,-1.548615127222998655e-01,1.816544808071562933e-01,1.000000000000000048e-04,3.973211752628444060e+01,1.000000000000000021e-02
-4.204721862394098508e-01,-8.373542273697132110e-02,2.776927447504622393e-01,1.000000000000000048e-04,4.074860141863624818e+01,1.000000000000000021e-02
4.960398880788887688e-01,-2.868859048208847184e-01,1.410369500133159537e-01,1.000000000000000048e-04,3.914194275674135781e+01,1.000000000000000021e-02
2.974341049189681563e+00,4.900721499943143655e-01,4.169656349632222536e-02,1.000000000000000048e-04,3.633952656239195278e+01,1.000000000000000021e-02
1.879900400710664776e+00,-2.395700468845645137e-01,3.562648184378502947e-02,1.000000000000000048e-04,3.608134611489332855e+01,1.000000000000000021e-02
-4.295246801154859462e-01,3.435520621980887590e-01,2.903791065282779194e-02,1.000000000000000048e-04,3.546034712220751572e+01,1.000000000000000021e-02
-1.654706056191819208e-01,-7.328580462732769973e-02,2.517560308205279984e-01,1.000000000000000048e-04,4.052207351993107665e+01,1.000000000000000021e-02
