[1] 11602
The total number of SN that passed the z cut:  198
Traceback (most recent call last):
  File "/afs/crc.nd.edu/user/b/brose3/Private/dark-flow/BulkFlowSearch/SimultaneousBulkAndCosmo.py", line 235, in <module>
    plt.savefig(home+'Results/'+date+'DataUsed.pdf')
  File "/afs/crc.nd.edu/x86_64_linux/python/2.7.4/lib/python2.7/site-packages/matplotlib/pyplot.py", line 472, in savefig
    return fig.savefig(*args, **kwargs)
  File "/afs/crc.nd.edu/x86_64_linux/python/2.7.4/lib/python2.7/site-packages/matplotlib/figure.py", line 1370, in savefig
    self.canvas.print_figure(*args, **kwargs)
  File "/afs/crc.nd.edu/x86_64_linux/python/2.7.4/lib/python2.7/site-packages/matplotlib/backend_bases.py", line 2096, in print_figure
    **kwargs)
  File "/afs/crc.nd.edu/x86_64_linux/python/2.7.4/lib/python2.7/site-packages/matplotlib/backend_bases.py", line 1848, in print_pdf
    return pdf.print_pdf(*args, **kwargs)
  File "/afs/crc.nd.edu/x86_64_linux/python/2.7.4/lib/python2.7/site-packages/matplotlib/backends/backend_pdf.py", line 2294, in print_pdf
    file = PdfFile(filename)
  File "/afs/crc.nd.edu/x86_64_linux/python/2.7.4/lib/python2.7/site-packages/matplotlib/backends/backend_pdf.py", line 400, in __init__
    fh = open(filename, 'wb')
IOError: [Errno 2] No such file or directory: '/afs/crc.nd.edu/user/b/brose3/Private/dark-flow/BulkFlowSearch/DataSets/Results/2014-05-12-135432DataUsed.pdf'
