4.516990069999999857e-01,-1.339862316000000053e+00,2.850000000000000103e-02,1.000000000000000048e-04,3.535000000000000142e+01,2.200000000000000011e-01,-6.983879849038912655e-04,1.513899801489193564e-03,7.258259061708449113e-06,6.742963027654752528e-01
-1.598279621179586663e+00,2.779993629999999993e-01,5.000000000000000278e-02,1.000000000000000048e-04,3.667999999999999972e+01,1.700000000000000122e-01,1.013349581072333890e-03,1.061157139220947343e-03,1.397314012590144196e-05,1.635682885550114856e-04
-1.710562538179586589e+00,-1.402302595000000096e+00,1.720000000000000001e-02,1.000000000000000048e-04,3.464999999999999858e+01,2.000000000000000111e-01,-4.930668752153141883e-04,-2.546317311876378220e-03,3.260364957793954040e-06,1.293056884803900131e+00
-2.771840681795865180e-01,-1.115655276000000029e+00,4.220000000000000140e-02,1.000000000000000048e-04,3.634000000000000341e+01,1.700000000000000122e-01,-4.400941674302940535e-04,8.526695148902696531e-05,1.043407458444748825e-05,2.645220743232555224e-02
-1.608432286179586335e+00,-6.514894359999999773e-01,4.529999999999999999e-02,1.000000000000000048e-04,3.664000000000000057e+01,1.600000000000000033e-01,2.994751487855131541e-04,-2.957982551236471025e-03,1.213829782089004320e-05,8.741778150451129381e-01
-1.490451089179586575e+00,-3.201959389999999850e-01,3.649999999999999772e-02,1.000000000000000048e-04,3.590999999999999659e+01,1.700000000000000122e-01,6.283994529596655153e-04,1.802496915322970850e-03,7.108207658569053267e-06,1.939314265061101161e-01
-1.995144670179586299e+00,-1.040863893000000040e+00,1.959999999999999937e-02,1.000000000000000048e-04,3.459000000000000341e+01,1.799999999999999933e-01,-1.718189445074464437e-04,4.386519732468840971e-04,2.473473638795438471e-06,1.506685721564043623e-01
-2.211919791795864398e-01,-6.717550429999999961e-01,1.349999999999999985e-02,1.000000000000000048e-04,3.382999999999999829e+01,2.200000000000000011e-01,-1.895015111028948570e-04,-7.248464847353641716e-05,1.865876571283220109e-06,7.338613041376626858e-03
-8.294029241795861651e-01,6.699244909999999553e-01,2.730000000000000135e-02,1.000000000000000048e-04,3.509000000000000341e+01,1.799999999999999933e-01,9.479984865194997353e-04,3.340270340691509077e-03,3.827499481248022587e-06,1.495222834725900674e+00
-1.123871723179585835e+00,1.275958498999999913e+00,2.649999999999999925e-02,1.000000000000000048e-04,3.547999999999999687e+01,1.900000000000000022e-01,8.561133944984812257e-04,-2.216944764347861252e-03,6.165486745882827897e-06,1.531701686644343363e+00
-5.094723721795864080e-01,-7.371415260000000469e-01,4.989999999999999991e-02,1.000000000000000048e-04,3.657000000000000028e+01,1.600000000000000033e-01,-6.601080552563785093e-05,3.392086226939206028e-03,1.115293862434077227e-05,1.072222800531102083e+00
6.571342580000000266e-01,4.949370419999999937e-01,3.059999999999999873e-02,1.000000000000000048e-04,3.554999999999999716e+01,1.700000000000000122e-01,-1.056786551303094852e-04,1.057376756491423819e-03,5.185970644014578081e-06,2.608379382293312121e-01
-1.010588552179585875e+00,4.063959939999999826e-01,1.629999999999999852e-02,1.000000000000000048e-04,3.403999999999999915e+01,1.400000000000000133e-01,9.735432173437930277e-04,1.387027084208458660e-03,9.083970966439788298e-07,1.882094392298163388e-01
-5.300352171795861267e-01,-4.198024320000000031e-01,1.540000000000000049e-02,1.000000000000000048e-04,3.393999999999999773e+01,1.499999999999999944e-01,2.039395546354791594e-04,1.148645547590421145e-03,9.533933946128750491e-07,9.360977516394161091e-01
-3.959305511795863097e-01,-4.514385590000000170e-01,1.439999999999999961e-02,1.000000000000000048e-04,3.379999999999999716e+01,1.600000000000000033e-01,8.889518659864920633e-05,1.025995634475140861e-03,9.563542300356588719e-07,9.182342920965363975e-01
-1.302326638179586382e+00,4.891699640000000127e-01,3.049999999999999933e-02,1.000000000000000048e-04,3.560000000000000142e+01,8.999999999999999667e-02,1.064611572559484663e-03,2.640009783778651808e-04,1.523907770215454850e-06,4.206142497883729736e-01
-8.169037861795862554e-01,4.857709299999999897e-01,2.450000000000000094e-02,1.000000000000000048e-04,3.506000000000000227e+01,1.000000000000000056e-01,9.128734025292795746e-04,8.050286557923502784e-04,1.161453299028792255e-06,1.001373831257601314e-02
-1.156602994179586119e+00,7.039336720000000103e-01,2.400000000000000050e-02,1.000000000000000048e-04,3.496999999999999886e+01,1.100000000000000006e-01,1.051251658707720539e-03,1.260780973166841790e-03,1.294301393955850119e-06,3.391986891362868545e-02
2.500120207999999788e+00,-3.403989430000000094e-01,2.599999999999999881e-02,1.000000000000000048e-04,3.536999999999999744e+01,1.100000000000000006e-01,-7.689209676651738781e-04,-1.305205568706391261e-03,1.867525271108729800e-06,1.540012217040532816e-01
2.397122115999999803e+00,-8.283729720000000407e-01,1.389999999999999916e-02,1.000000000000000048e-04,3.388000000000000256e+01,1.700000000000000122e-01,-9.154601053567296273e-04,1.607783495294334841e-05,1.165284816861460105e-06,7.446788301709723612e-01
-4.391142381795862804e-01,9.199097720000000145e-01,1.039999999999999952e-02,1.000000000000000048e-04,3.327000000000000313e+01,2.200000000000000011e-01,7.826150217924717585e-04,-1.138103372418930448e-04,1.123116943011797517e-06,7.154895394641453965e-01
-1.356814123179586495e+00,1.335301293999999972e+00,8.699999999999999400e-03,1.000000000000000048e-04,3.114000000000000057e+01,2.600000000000000089e-01,8.302569307411063930e-04,4.675333889360366868e-03,2.291457216147679631e-07,6.452058852994925076e+01
2.612804049999999823e+00,3.003891830000000041e-01,4.889999999999999902e-02,1.000000000000000048e-04,3.672999999999999687e+01,1.700000000000000122e-01,-2.966479927289877535e-04,-1.241587898912044352e-03,1.471808595999025537e-05,6.066763223998965227e-02
-1.192441121179586005e+00,1.100105410000000061e+00,2.429999999999999868e-02,1.000000000000000048e-04,3.510999999999999943e+01,1.799999999999999933e-01,9.562361354856490237e-04,4.702273648704569098e-05,3.946219565658940115e-06,2.094837834449174152e-01
-3.012917491179586182e+00,1.485957493999999990e+00,1.519999999999999997e-02,1.000000000000000048e-04,3.410000000000000142e+01,2.200000000000000011e-01,6.454655270185226954e-04,-1.483540724401821720e-04,2.382310534682040174e-06,2.645119296208304216e-01
-7.329138461795858817e-01,1.044356909000000000e+00,3.570000000000000256e-02,1.000000000000000048e-04,3.596000000000000085e+01,1.700000000000000122e-01,8.814472435505695154e-04,1.612608654306679767e-04,7.475179018157193151e-06,6.938541778994419817e-02
1.024371087000000013e+00,-9.607604419999999923e-01,4.880000000000000310e-02,1.000000000000000048e-04,3.638000000000000256e+01,1.600000000000000033e-01,-9.314744042652832023e-04,6.170967895167356332e-03,9.353297470091087611e-06,5.393251607582918439e+00
2.960998206000000188e+00,-8.548671270000000044e-01,2.199999999999999872e-02,1.000000000000000048e-04,3.485000000000000142e+01,1.900000000000000022e-01,-6.421885645475504433e-04,4.431306789973721294e-04,3.479973922434259166e-06,3.384846802486851103e-01
-3.017579355179586198e+00,-3.780387199999999948e-01,1.439999999999999961e-02,1.000000000000000048e-04,3.379999999999999716e+01,2.399999999999999911e-01,-2.129943942164298320e-04,1.025995634475140861e-03,2.151797017580231932e-06,7.134019977978250937e-01
-2.268575282179586594e+00,6.921453520000000470e-01,6.499999999999999702e-03,1.000000000000000048e-04,3.260999999999999943e+01,3.699999999999999956e-01,8.859984725173874510e-04,-1.285495712742501517e-03,1.750728361045186764e-06,2.693385851019410637e+00
2.478186394000000181e+00,5.281495040000000474e-01,1.170000000000000033e-02,1.000000000000000048e-04,3.385999999999999943e+01,2.399999999999999911e-01,-1.942888331536930975e-04,-2.088740283749945803e-03,2.300593078788324383e-06,1.560009169703523213e+00
1.941716173999999961e+00,9.578325640000000529e-01,6.599999999999999964e-03,1.000000000000000048e-04,3.240999999999999659e+01,3.800000000000000044e-01,4.302610233410901887e-05,-4.990474234356501171e-04,1.533995257085955737e-06,1.915545083878916199e-01
2.041827891000000061e+00,-8.953703119999999460e-01,3.599999999999999728e-02,1.000000000000000048e-04,3.582000000000000028e+01,1.700000000000000122e-01,-1.012592316023231765e-03,2.701464994708580036e-03,6.543708338257787796e-06,2.108012917805719422e+00
2.521229080999999983e+00,-8.544186950000000058e-01,1.629999999999999852e-02,1.000000000000000048e-04,3.402000000000000313e+01,2.000000000000000111e-01,-8.630722341164433469e-04,1.523644712068339402e-03,1.819810502367438561e-06,3.130225797573428004e+00
2.745955969000000163e+00,3.136627880000000257e-01,1.669999999999999957e-02,1.000000000000000048e-04,3.422999999999999687e+01,2.099999999999999922e-01,-1.922254443171424827e-04,4.262964712824501845e-04,2.435303563241604405e-06,1.570930892770328879e-01
1.738295793999999894e+00,1.134430556000000090e+00,2.750000000000000014e-02,1.000000000000000048e-04,3.564999999999999858e+01,1.799999999999999933e-01,2.154533594513520912e-04,-3.535068856433287721e-03,6.465469711432926271e-06,2.175621806250287449e+00
-8.687814521795864664e-01,6.221710379999999541e-01,7.000000000000000146e-03,1.000000000000000048e-04,3.209000000000000341e+01,3.499999999999999778e-01,9.599584585622812595e-04,8.757442215114874529e-04,9.667818845738941871e-07,7.335716396023581054e-03
-1.857013858179586308e+00,3.937075449999999921e-01,8.600000000000000006e-03,1.000000000000000048e-04,3.271999999999999886e+01,2.999999999999999889e-01,9.989994699994093810e-04,4.269192715522507342e-04,1.263596196949053438e-06,2.590034334113588410e-01
-2.894431473179586156e+00,2.701405689999999971e-01,2.179999999999999993e-02,1.000000000000000048e-04,3.496999999999999886e+01,2.300000000000000100e-01,3.016890383116408109e-04,-9.885110982852385320e-04,5.708181770211589234e-06,2.916193736438953965e-01
2.213600608000000136e+00,-5.295933369999999973e-01,1.640000000000000138e-02,1.000000000000000048e-04,3.417999999999999972e+01,2.500000000000000000e-01,-9.706017002816392895e-04,4.932407062763211059e-04,3.298245690559235682e-06,6.496891960992972059e-01
9.327636729999999599e-01,4.069681829999999834e-01,2.319999999999999840e-02,1.000000000000000048e-04,3.509000000000000341e+01,2.300000000000000100e-01,-3.434967947958489191e-04,-8.563268510614063800e-04,6.351534395482384019e-06,4.140647759010695345e-02
1.743234563999999986e+00,7.359057650000000450e-01,3.649999999999999772e-02,1.000000000000000048e-04,3.613000000000000256e+01,2.200000000000000011e-01,-2.142510715907897665e-04,-1.920499540365105950e-03,1.465153740105627165e-05,1.987015940719515372e-01
-2.812965047179586175e+00,5.929882829999999494e-01,1.930000000000000118e-02,1.000000000000000048e-04,3.495000000000000284e+01,2.399999999999999911e-01,5.300354660013976158e-04,-3.334633317113033790e-03,6.161183425292545587e-06,2.424155194254747236e+00
-2.977583888179586413e+00,-1.437144969999999966e-01,1.760000000000000106e-02,1.000000000000000048e-04,3.434000000000000341e+01,2.700000000000000178e-01,-3.100906840047943405e-05,4.942350206695866888e-04,4.443686512752346207e-06,6.208389190176406142e-02
2.276564226000000080e+00,-5.051809499999999620e-01,1.280000000000000061e-02,1.000000000000000048e-04,3.425999999999999801e+01,2.800000000000000266e-01,-9.394389945764428096e-04,-3.763084381936954159e-03,4.520984898263946115e-06,1.763547866887125837e+00
2.667465888000000174e+00,-6.260506340000000502e-01,1.349999999999999985e-02,1.000000000000000048e-04,3.347999999999999687e+01,2.600000000000000089e-01,-7.594827386442654527e-04,1.951010939346353723e-03,1.883085435130201901e-06,3.901456535836429929e+00
1.041358068000000081e+00,8.506585119999999778e-01,3.150000000000000022e-02,1.000000000000000048e-04,3.572999999999999687e+01,2.300000000000000100e-01,1.561926647685760947e-05,-5.805353278941494111e-04,1.120267134664686418e-05,3.172460294446081963e-02
2.499030525999999863e+00,-9.629979760000000333e-01,9.599999999999999159e-03,1.000000000000000048e-04,3.292000000000000171e+01,3.099999999999999978e-01,-8.653524940648151063e-04,6.441522239202246425e-04,1.618109021182358382e-06,1.408189722565238222e+00
1.334501084000000004e+00,-7.340646360000000481e-01,2.350000000000000006e-02,1.000000000000000048e-04,3.517000000000000171e+01,2.300000000000000100e-01,-1.047637530103079405e-03,-1.454171836627771164e-03,6.836654986227183652e-06,2.417412356107742633e-02
2.196979751999999841e+00,-5.334639439999999677e-01,1.669999999999999957e-02,1.000000000000000048e-04,3.400000000000000000e+01,2.500000000000000000e-01,-9.777492407163006043e-04,2.064734673329571280e-03,2.786806471844597742e-06,3.321618655887804472e+00
1.445572062999999963e+00,-8.838676049999999451e-01,7.700000000000000247e-03,1.000000000000000048e-04,3.271000000000000085e+01,3.499999999999999778e-01,-1.041198661331336171e-03,-4.427913306668251892e-04,1.710181883649729943e-06,2.093878650081453241e-01
7.246286520000000397e-01,-7.843460709999999780e-01,1.700000000000000122e-02,1.000000000000000048e-04,3.438000000000000256e+01,3.099999999999999978e-01,-8.217906193690408412e-04,-4.361046589074213387e-04,6.095574540623182573e-06,2.440355033079360039e-02
2.179180484000000195e+00,1.312341798999999920e+00,2.790000000000000119e-02,1.000000000000000048e-04,3.509000000000000341e+01,2.200000000000000011e-01,4.288815438343306389e-04,3.954341301426023136e-03,5.704082543581116311e-06,2.178942258888741268e+00
7.669035910000000511e-01,2.329377750000000136e-01,1.720000000000000001e-02,1.000000000000000048e-04,3.425999999999999801e+01,2.500000000000000000e-01,-3.829095232879668482e-04,7.094741266358006726e-04,3.541237365855092878e-06,3.369731863011190542e-01
2.984436029999999906e+00,4.410184999999999800e-01,1.050000000000000065e-02,1.000000000000000048e-04,3.328999999999999915e+01,2.999999999999999889e-01,7.915569105956642018e-05,-1.099904741092005978e-04,2.126607864669425639e-06,1.682316349545326384e-02
1.808380389999999949e+00,-5.931087419999999666e-01,2.999999999999999889e-02,1.000000000000000048e-04,3.596999999999999886e+01,2.200000000000000011e-01,-1.079468235552893691e-03,-5.903088277247170446e-03,1.292620558016199370e-05,1.800010851006681012e+00
2.378694356000000010e+00,6.891218140000000547e-01,9.599999999999999159e-03,1.000000000000000048e-04,3.314999999999999858e+01,3.099999999999999978e-01,-1.004374321361655023e-04,-3.577843624780197018e-04,2.002428085398843046e-06,3.307356855374109922e-02
-1.027171309179585990e+00,8.938185499999999895e-01,9.400000000000000369e-03,1.000000000000000048e-04,3.263000000000000256e+01,3.099999999999999978e-01,9.969218555218063976e-04,1.564236793557549632e-03,1.237775402197642810e-06,2.600199021139605327e-01
2.177629786999999872e+00,1.088514723000000073e+00,1.660000000000000017e-02,1.000000000000000048e-04,3.434000000000000341e+01,2.500000000000000000e-01,2.176861167425887973e-04,-5.223091146716596356e-04,3.824759823960630916e-06,1.431705434378834907e-01
2.446904437000000154e+00,4.505237189999999892e-01,1.329999999999999932e-02,1.000000000000000048e-04,3.395000000000000284e+01,2.700000000000000178e-01,-2.780891710299088497e-04,-1.049323956105241429e-03,3.145008149225186440e-06,1.891260898184737582e-01
-2.745075452179586151e+00,5.290477460000000409e-01,1.499999999999999944e-02,1.000000000000000048e-04,3.415999999999999659e+01,1.600000000000000033e-01,5.515480340280227078e-04,-7.824450739652988318e-04,1.333461478087595322e-06,1.334524949851445097e+00
3.470126559999999749e-01,6.971221490000000243e-01,9.499999999999999764e-03,1.000000000000000048e-04,3.317999999999999972e+01,2.399999999999999911e-01,2.455058139588056588e-04,-5.950450859287803596e-04,1.233938524342903861e-06,5.725778078596495124e-01
-1.741234469179586242e+00,8.281857209999999858e-01,3.930000000000000160e-02,1.000000000000000048e-04,3.632999999999999829e+01,1.000000000000000056e-01,1.047226107740244303e-03,-2.738593211971007690e-03,3.617619328980565271e-06,3.961839712288855786e+00
6.278667869999999818e-01,1.201237362999999947e+00,3.090000000000000038e-02,1.000000000000000048e-04,3.592999999999999972e+01,1.799999999999999933e-01,4.403368009464749358e-04,-4.313557175609772365e-03,8.303251330432345133e-06,2.721766093904450123e+00
1.901542252999999905e+00,5.984822429999999693e-01,4.059999999999999720e-02,1.000000000000000048e-04,3.636999999999999744e+01,1.700000000000000122e-01,-3.399860633364740529e-04,-2.170780234190705649e-03,1.080276080594956729e-05,3.102732122132929038e-01
9.102462569999999475e-01,3.833152009999999943e-01,1.519999999999999997e-02,1.000000000000000048e-04,3.402000000000000313e+01,2.200000000000000011e-01,-3.511490294886363407e-04,4.076605496936558382e-04,2.211593132953146481e-06,2.603516753960755659e-01
4.621894529999999723e-01,4.355896570000000190e-01,2.239999999999999977e-02,1.000000000000000048e-04,3.495000000000000284e+01,2.399999999999999911e-01,-1.428858946422054259e-05,-1.655407837839462104e-04,6.085699204498742420e-06,3.759177954378764216e-03
1.731299603999999936e+00,-9.087058740000000245e-01,1.600000000000000033e-02,1.000000000000000048e-04,3.417000000000000171e+01,2.200000000000000011e-01,-1.046183859000310344e-03,1.602219784315739304e-04,2.534535820825796098e-06,5.742333695309645991e-01
2.307708166999999921e+00,-3.555306579999999994e-01,3.620000000000000301e-02,1.000000000000000048e-04,3.599000000000000199e+01,1.700000000000000122e-01,-8.814531510413407085e-04,1.820051549221712861e-04,7.674348825064908903e-06,1.473667140108421425e-01
2.284880370000000216e+00,-4.942566800000000038e-01,1.490000000000000005e-02,1.000000000000000048e-04,3.403000000000000114e+01,2.200000000000000011e-01,-9.332953059875950721e-04,3.504892562000705425e-05,2.234852486005642718e-06,4.195760376845515949e-01
-2.729734007179586364e+00,-4.808223520000000084e-01,1.290000000000000001e-02,1.000000000000000048e-04,3.367999999999999972e+01,2.300000000000000100e-01,-5.500372900730751170e-05,2.277887148562918185e-04,1.778294040974451228e-06,4.497094657221309411e-02
-2.728058296179586062e+00,8.181749999999999856e-01,1.450000000000000074e-02,1.000000000000000048e-04,3.392000000000000171e+01,2.200000000000000011e-01,6.594878694842785721e-04,3.663314476269885489e-04,2.020490383542307678e-06,4.253456902155548086e-02
1.539636916000000078e+00,-6.652033799999999830e-02,1.209999999999999964e-02,1.000000000000000048e-04,3.331000000000000227e+01,2.999999999999999889e-01,-9.102582559220534584e-04,1.408788747762512727e-03,2.152608848591330489e-06,2.498354036228048525e+00
2.937620158000000092e+00,7.383732379999999873e-01,1.729999999999999941e-02,1.000000000000000048e-04,3.425000000000000000e+01,2.200000000000000011e-01,2.445579028609160314e-04,8.874915588696907776e-04,2.715695494456773593e-06,1.522128260965044111e-01
2.624384770999999894e+00,8.339422930000000012e-01,3.119999999999999857e-02,1.000000000000000048e-04,3.563000000000000256e+01,1.799999999999999933e-01,1.403847688452408802e-04,5.616802325860703604e-04,6.252853677207169312e-06,2.838541839153931046e-02
-2.594453966179586235e+00,1.052220571999999965e+00,2.210000000000000159e-02,1.000000000000000048e-04,3.490999999999999659e+01,1.900000000000000022e-01,7.507557533393661260e-04,-6.079910921319431338e-05,3.679210104022748428e-06,1.790116020318020529e-01
-2.462277587179586114e+00,1.356652656000000068e+00,1.600000000000000033e-02,1.000000000000000048e-04,3.382000000000000028e+01,2.099999999999999922e-01,7.333981628499572749e-04,2.523351398799666967e-03,1.667726851300555484e-06,1.921137495860482991e+00
2.730654787000000194e+00,8.741146779999999783e-01,2.489999999999999852e-02,1.000000000000000048e-04,3.479999999999999716e+01,1.900000000000000022e-01,2.232951986162169341e-04,3.895752260775209308e-03,3.283139057378057138e-06,4.107940796200160172e+00
1.629450376000000089e+00,2.068732899999999875e-01,9.700000000000000289e-03,1.000000000000000048e-04,3.342000000000000171e+01,2.899999999999999800e-01,-7.243530696905940702e-04,-1.575388833745527961e-03,2.249347102421906453e-06,3.219875984994673979e-01
1.142160569999999958e-01,6.858846720000000285e-01,3.030000000000000054e-02,1.000000000000000048e-04,3.563000000000000256e+01,1.799999999999999933e-01,3.943261066976942101e-04,-3.652418166210091854e-04,6.275137382955011582e-06,9.194116318502028318e-02
-4.383495451795864639e-01,9.198101690000000108e-01,1.039999999999999952e-02,1.000000000000000048e-04,3.335000000000000142e+01,2.600000000000000089e-01,7.822614425788792765e-04,-5.082611789523072687e-04,1.689232258670414697e-06,9.859204547719158107e-01
1.001193188000000012e+00,8.013430529999999719e-01,2.829999999999999877e-02,1.000000000000000048e-04,3.552000000000000313e+01,1.799999999999999933e-01,-1.707453998443458375e-05,-9.013859959443593084e-04,5.704337640448842673e-06,1.370898429287979448e-01
-8.746654461795859703e-01,7.515327899999999506e-01,1.039999999999999952e-02,1.000000000000000048e-04,3.282000000000000028e+01,2.600000000000000089e-01,9.676846806933303829e-04,1.855858425149348179e-03,1.033913454267329800e-06,7.629774011404411027e-01
1.319662558000000097e+00,1.070340469999999933e-01,1.519999999999999997e-02,1.000000000000000048e-04,3.425999999999999801e+01,2.399999999999999911e-01,-7.510084272084159443e-04,-1.323461991057262033e-03,3.289794155371937577e-06,9.961203263375469075e-02
1.726021762000000015e+00,-6.377623550000000030e-01,1.050000000000000065e-02,1.000000000000000048e-04,3.342000000000000171e+01,2.600000000000000089e-01,-1.086615320838179568e-03,-7.678902526044861787e-04,1.802744728521255982e-06,5.635055674460385383e-02
-2.754219137179586330e+00,-9.277945709999999568e-01,6.599999999999999964e-03,1.000000000000000048e-04,3.254999999999999716e+01,3.699999999999999956e-01,-3.639791242089293350e-04,-9.731545649387385311e-04,1.655848373286542480e-06,2.241115331422557644e-01
1.691977534999999921e+00,1.434503057999999998e+00,3.450000000000000289e-02,1.000000000000000048e-04,3.597999999999999687e+01,2.099999999999999922e-01,5.201815584041999266e-04,-1.411192802141192359e-03,1.167906160115576392e-05,3.193926916356858436e-01
8.272144390000000236e-01,-4.428667319999999852e-01,1.310000000000000053e-02,1.000000000000000048e-04,3.382999999999999829e+01,2.300000000000000100e-01,-8.067169219355573755e-04,-4.778625876388220561e-04,2.042607362812578569e-06,5.294467020663134321e-02
-2.185785446179585811e+00,4.040310730000000183e-01,3.599999999999999728e-02,1.000000000000000048e-04,3.567999999999999972e+01,1.799999999999999933e-01,8.654802366603884037e-04,4.788645321632811758e-03,6.431743789662863526e-06,2.393009545666845206e+00
2.680919170000000129e+00,5.929394510000000063e-01,2.479999999999999913e-02,1.000000000000000048e-04,3.525999999999999801e+01,1.799999999999999933e-01,-2.159246902426283074e-05,-1.181793701159894461e-03,4.532321098164841805e-06,2.969928365388910252e-01
2.468528393999999793e+00,-3.885411739999999892e-01,2.920000000000000026e-02,1.000000000000000048e-04,3.599000000000000199e+01,1.700000000000000122e-01,-8.065937965814603877e-04,-7.065375842146837115e-03,7.890287925360012512e-06,4.964629055929438373e+00
1.824819092000000031e+00,-9.187566499999999525e-01,1.629999999999999852e-02,1.000000000000000048e-04,3.445000000000000284e+01,2.099999999999999922e-01,-1.037529500352151563e-03,-1.719398769651103720e-03,2.993441257121764430e-06,1.553214713360831778e-01
2.252174823999999909e+00,-3.842870769999999769e-01,1.870000000000000134e-02,1.000000000000000048e-04,3.504999999999999716e+01,2.000000000000000111e-01,-9.175208707807384336e-04,-5.020878332209988137e-03,4.709913024196327226e-06,3.574915793511953765e+00
2.889947965000000174e+00,3.184077100000000105e-01,1.949999999999999997e-02,1.000000000000000048e-04,3.475999999999999801e+01,2.000000000000000111e-01,-7.925527316129074606e-05,-1.229728848398892183e-03,3.580400291736329502e-06,3.696763879655782792e-01
-2.666621499179586241e+00,1.790417820000000104e-01,2.560000000000000123e-02,1.000000000000000048e-04,3.567999999999999972e+01,1.900000000000000022e-01,4.361068981535931263e-04,-5.928521759638316624e-03,7.466481807125948052e-06,5.425379582780886167e+00
2.353249148999999818e+00,9.653535600000000549e-01,3.370000000000000079e-02,1.000000000000000048e-04,3.584000000000000341e+01,1.799999999999999933e-01,1.457212485339974149e-04,1.692000599584631004e-05,7.543575750793421258e-06,2.199190493663000841e-03
1.765869402999999949e+00,9.288119630000000182e-01,6.700000000000000226e-03,1.000000000000000048e-04,3.282999999999999829e+01,3.599999999999999867e-01,-5.142029995865411579e-06,-1.916349554592300386e-03,2.030878777805486718e-06,1.798588001407478210e+00
1.931340567999999980e+00,-5.991437729999999906e-01,2.400000000000000050e-02,1.000000000000000048e-04,3.517999999999999972e+01,2.000000000000000111e-01,-1.061575347922937354e-03,-1.057635561414804748e-03,5.207841862037679364e-06,2.980489450497721793e-06
2.835991935000000019e+00,-7.109363199999999550e-01,3.359999999999999792e-02,1.000000000000000048e-04,3.600999999999999801e+01,1.900000000000000022e-01,-6.787292647393906603e-04,-2.845248350144324867e-03,9.869729179118214243e-06,4.755758605164878139e-01
-2.852520529179586095e+00,8.667541789999999580e-01,3.409999999999999837e-02,1.000000000000000048e-04,3.584000000000000341e+01,1.799999999999999933e-01,6.021490121874848106e-04,4.300835763062504924e-04,7.531650078301183521e-06,3.930946594332103763e-03
-2.458251249179586040e+00,-2.796002539999999925e-01,7.700000000000000247e-03,1.000000000000000048e-04,3.257999999999999829e+01,3.300000000000000155e-01,2.905705779791119226e-04,3.005650852427876885e-05,1.348235019447073034e-06,5.033809343696689365e-02
1.596378985000000084e+00,5.944120290000000084e-01,2.610000000000000167e-02,1.000000000000000048e-04,3.535999999999999943e+01,1.900000000000000022e-01,-3.628401806374801958e-04,-1.076182302817807468e-03,5.517363952862124106e-06,9.222827923337632849e-02
-2.484014184179586415e+00,8.016642189999999557e-01,2.110000000000000070e-02,1.000000000000000048e-04,3.465999999999999659e+01,1.900000000000000022e-01,7.894903216794784155e-04,1.338456329159631863e-03,2.924371873173211294e-06,1.030524469658821718e-01
-2.431723812179586108e+00,1.223750555999999934e+00,3.209999999999999659e-02,1.000000000000000048e-04,3.589999999999999858e+01,1.700000000000000122e-01,7.790191162461592269e-04,-2.586049079504548764e-03,7.165203638024126343e-06,1.580371547566447044e+00
-2.378598255179586118e+00,1.197731727999999940e+00,2.210000000000000159e-02,1.000000000000000048e-04,3.492000000000000171e+01,1.900000000000000022e-01,7.990135450705088040e-04,-1.634366899522232686e-04,3.713754877003363596e-06,2.494269238476918560e-01
1.739429998000000088e+00,2.494783479999999887e-01,8.699999999999999400e-03,1.000000000000000048e-04,3.307999999999999829e+01,3.099999999999999978e-01,-6.872309590960734398e-04,-9.485735315938326195e-04,1.882786792368003360e-06,3.627598221774483433e-02
-2.377494960179586059e+00,9.562939099999999693e-01,3.339999999999999913e-02,1.000000000000000048e-04,3.588000000000000256e+01,1.799999999999999933e-01,8.411578494915033285e-04,-9.226651560293452903e-04,7.842502925233285795e-06,3.966937117479055752e-01
-9.021677017958662503e-02,6.959221140000000361e-01,7.000000000000000146e-03,1.000000000000000048e-04,3.235999999999999943e+01,3.499999999999999778e-01,5.361925639746417324e-04,6.424988040132362244e-05,1.240972468797580127e-06,1.794801272216744181e-01
2.021336933000000169e+00,8.510789659999999923e-01,1.060000000000000005e-02,1.000000000000000048e-04,3.378000000000000114e+01,2.800000000000000266e-01,-5.583534979726557853e-05,-2.701174690232566178e-03,2.918783504248277420e-06,2.397512599296718339e+00
2.573899695999999793e+00,-5.247218830000000001e-01,3.409999999999999837e-02,1.000000000000000048e-04,3.593999999999999773e+01,1.700000000000000122e-01,-7.885653854720560451e-04,-1.166351514935048961e-03,7.382191172341198398e-06,1.933333292009099813e-02
2.346925623000000183e+00,-7.496726200000000118e-01,4.209999999999999853e-02,1.000000000000000048e-04,3.639999999999999858e+01,1.700000000000000122e-01,-9.369751537586690389e-04,-1.208211432980887956e-03,1.104945748788703438e-05,6.658165728676148677e-03
2.543651012999999850e+00,-2.555195920000000176e-01,2.050000000000000086e-02,1.000000000000000048e-04,3.461999999999999744e+01,1.900000000000000022e-01,-7.033072020640461800e-04,1.088593391110004305e-03,2.824015693397970011e-06,1.137000670118097023e+00
2.457771880000000131e+00,-4.383329890000000062e-01,4.019999999999999962e-02,1.000000000000000048e-04,3.636999999999999744e+01,1.700000000000000122e-01,-8.299727581058361382e-04,-2.587453488531177292e-03,1.081986793120423339e-05,2.854691515141829505e-01
-2.749033603179586116e+00,5.277091179999999770e-01,2.599999999999999881e-02,1.000000000000000048e-04,3.538000000000000256e+01,1.799999999999999933e-01,5.481180076134052398e-04,-1.432042926968080110e-03,5.047861558955836108e-06,7.767719619580254475e-01
-3.021446786179586397e+00,6.716344440000000526e-01,2.589999999999999941e-02,1.000000000000000048e-04,3.542000000000000171e+01,1.799999999999999933e-01,4.199689268646031358e-04,-2.047461795178118216e-03,5.243110704586486151e-06,1.161183639085574093e+00
2.390319493999999878e+00,1.427533710000000067e+00,2.390000000000000110e-02,1.000000000000000048e-04,3.503000000000000114e+01,1.799999999999999933e-01,5.450337764889553798e-04,5.173403922718033954e-04,3.667752095706542613e-06,2.090990637825715078e-04
2.491619029000000207e+00,8.136863199999999630e-01,2.290000000000000022e-02,1.000000000000000048e-04,3.520000000000000284e+01,1.900000000000000022e-01,6.180934914761293856e-05,-2.419559073182031561e-03,4.810585623884989542e-06,1.279925092022832445e+00
2.336721559999999975e+00,1.049041915000000103e+00,3.150000000000000022e-02,1.000000000000000048e-04,3.564999999999999858e+01,1.700000000000000122e-01,2.178258633454461005e-04,5.864689806953649054e-04,5.676270724771388959e-06,2.394137886630474249e-02
1.201678150000000000e+00,3.331923239999999842e-01,2.149999999999999828e-02,1.000000000000000048e-04,3.492999999999999972e+01,1.900000000000000022e-01,-5.299834336114719619e-04,-8.797707430324708255e-04,3.757569245899350319e-06,3.256125272089234468e-02
-3.811893421795859993e-01,1.284308205000000092e+00,2.549999999999999836e-02,1.000000000000000048e-04,3.571999999999999886e+01,2.000000000000000111e-01,7.319264297369376974e-04,-6.621137868586868258e-03,8.593945102370020755e-06,6.291354428174497748e+00
5.879284790000000038e-01,8.245620540000000442e-01,3.250000000000000111e-02,1.000000000000000048e-04,3.581000000000000227e+01,1.700000000000000122e-01,1.912957663104425008e-04,-7.582818262279467092e-04,6.572711941994986512e-06,1.371880606070368380e-01
-1.085925731795862603e-01,9.806715139999999664e-01,3.080000000000000099e-02,1.000000000000000048e-04,3.563000000000000256e+01,1.799999999999999933e-01,6.337158369539154339e-04,1.497196979816095563e-04,6.262745696829909268e-06,3.740408342920166496e-02
1.189812670000000017e+00,8.219376269999999485e-01,3.269999999999999990e-02,1.000000000000000048e-04,3.609000000000000341e+01,1.700000000000000122e-01,-5.808147388411963666e-05,-5.155279468149087663e-03,8.551928563810278259e-06,3.038078159666349531e+00
2.896526737999999934e+00,1.048685354999999930e+00,4.229999999999999732e-02,1.000000000000000048e-04,3.639000000000000057e+01,1.700000000000000122e-01,4.142316489539778343e-04,-7.994881135028331087e-04,1.093658315724909315e-05,1.346961514942436877e-01
8.784667550000000436e-01,-5.840451829999999678e-01,1.529999999999999936e-02,1.000000000000000048e-04,3.471000000000000085e+01,2.099999999999999922e-01,-8.724798900230906068e-04,-5.038074562905059395e-03,3.829951158687466160e-06,4.530652809862273145e+00
-2.025603206179586557e+00,1.419180792999999996e+00,2.330000000000000127e-02,1.000000000000000048e-04,3.488000000000000256e+01,1.799999999999999933e-01,7.506915851559995551e-04,1.470120018588927380e-03,3.195571869878545402e-06,1.619670255926455860e-01
1.097118803000000087e+00,1.428367445999999985e+00,4.909999999999999781e-02,1.000000000000000048e-04,3.672999999999999687e+01,1.799999999999999933e-01,5.337094876536261885e-04,-1.031870483962693541e-03,1.648754388479160105e-05,1.486601439640163058e-01
-1.923054671795858539e-01,8.268694330000000425e-01,4.250000000000000305e-02,1.000000000000000048e-04,3.592999999999999972e+01,2.000000000000000111e-01,6.417633316336818347e-04,7.683424083512191416e-03,9.791485002485936654e-06,5.064092538767838825e+00
1.974446608000000047e+00,-1.250497374000000050e+00,1.919999999999999832e-02,1.000000000000000048e-04,3.474000000000000199e+01,2.000000000000000111e-01,-8.749739109990132321e-04,-1.344196512949036304e-03,3.518029331297858943e-06,6.258329008858078135e-02
1.714471547999999901e+00,-4.841846819999999774e-01,3.080000000000000099e-02,1.000000000000000048e-04,3.578000000000000114e+01,1.700000000000000122e-01,-1.074676666140518501e-03,-2.054231860255439912e-03,6.432864564716608143e-06,1.491603575148161553e-01
1.635209042000000057e+00,-1.499680316999999929e+00,2.120000000000000009e-02,1.000000000000000048e-04,3.485000000000000142e+01,1.900000000000000022e-01,-7.057416068633272409e-04,-3.738809255688924083e-04,3.491051248660152165e-06,3.154680465704259168e-02
-3.085878636179586021e+00,-8.156760069999999807e-01,2.769999999999999893e-02,1.000000000000000048e-04,3.571000000000000085e+01,1.799999999999999933e-01,-4.922596864821168023e-04,-4.203653838938503640e-03,6.835783755909604428e-06,2.015050072784896340e+00
1.583648911999999909e+00,-4.051170720000000225e-01,3.350000000000000200e-02,1.000000000000000048e-04,3.596999999999999886e+01,1.700000000000000122e-01,-1.056821440426062480e-03,-2.280318478979470598e-03,7.611905274857206860e-06,1.966583856861042479e-01
3.116144028999999982e+00,-6.233618589999999626e-01,2.079999999999999905e-02,1.000000000000000048e-04,3.479999999999999716e+01,2.000000000000000111e-01,-4.607738623425334688e-04,-2.892827713715240279e-04,3.697492373666886333e-06,7.953821485035620850e-03
2.580853791000000008e+00,2.126606490000000071e-01,1.729999999999999941e-02,1.000000000000000048e-04,3.422999999999999687e+01,2.200000000000000011e-01,-3.847117168927725590e-04,1.036011911019096843e-03,2.666369179849175629e-06,7.570053097528074426e-01
2.791070910999999821e+00,-3.375241600000000036e-02,1.299999999999999940e-02,1.000000000000000048e-04,3.324000000000000199e+01,2.999999999999999889e-01,-3.976077499726085010e-04,2.656993310243382922e-03,2.010375079262321203e-06,4.641217319753280890e+00
2.126664376999999995e+00,-4.630033630000000011e-01,3.599999999999999728e-02,1.000000000000000048e-04,3.614999999999999858e+01,1.799999999999999933e-01,-9.895420853144795952e-04,-2.798794306471896753e-03,1.001586503660388103e-05,3.268208574896063201e-01
1.264160699999999915e+00,6.289837299999999631e-01,2.330000000000000127e-02,1.000000000000000048e-04,3.520000000000000284e+01,1.900000000000000022e-01,-2.729857687628705850e-04,-2.006588051021274133e-03,4.801790348578593441e-06,6.258867328393846741e-01
2.608192676999999904e+00,3.485897410000000085e-01,1.430000000000000021e-02,1.000000000000000048e-04,3.407999999999999829e+01,2.200000000000000011e-01,-2.624151257036120709e-04,-9.208737728945148859e-04,2.346790975949858620e-06,1.847492147804037921e-01
2.816578843999999915e+00,-6.539336449999999523e-01,3.209999999999999659e-02,1.000000000000000048e-04,3.564999999999999858e+01,1.799999999999999933e-01,-6.748084978870986768e-04,1.204524908982707032e-03,6.348656563400857461e-06,5.563214861137331102e-01
2.816545334000000178e+00,5.529564630000000092e-01,3.080000000000000099e-02,1.000000000000000048e-04,3.559000000000000341e+01,1.700000000000000122e-01,3.608028285186676596e-05,7.112515181990630708e-04,5.380337842102767777e-06,8.472631466987942672e-02
2.293480610000000031e+00,1.430186356999999964e+00,3.289999999999999869e-02,1.000000000000000048e-04,3.593999999999999773e+01,1.700000000000000122e-01,5.395414065885079146e-04,-2.407722164618819605e-03,7.417346939393074351e-06,1.171087536978084431e+00
1.900048696999999898e+00,-6.695785770000000081e-01,2.299999999999999961e-02,1.000000000000000048e-04,3.507000000000000028e+01,1.900000000000000022e-01,-1.068259052157261371e-03,-8.397929631265288464e-04,4.257485053011711280e-06,1.225999696700638512e-02
2.402973735999999860e+00,-4.293495210000000117e-01,1.499999999999999944e-02,1.000000000000000048e-04,3.438000000000000256e+01,2.200000000000000011e-01,-8.573033364767577123e-04,-2.470702486322862157e-03,3.094557051110436725e-06,8.411726698624164555e-01
3.123677135999999965e+00,5.597831170000000522e-01,3.209999999999999659e-02,1.000000000000000048e-04,3.586999999999999744e+01,1.700000000000000122e-01,2.602999562839069560e-04,-2.107622645601492373e-03,6.965508931375417656e-06,8.049745544454485202e-01
-2.603733431795864917e-01,9.574212720000000454e-01,6.300000000000000044e-03,1.000000000000000048e-04,3.207999999999999829e+01,3.800000000000000044e-01,7.021283590443289872e-04,1.996078451866889480e-04,1.132306320538266777e-06,2.230199216124682249e-01
-1.216980031795857897e-01,3.678993019999999836e-01,3.200000000000000067e-02,1.000000000000000048e-04,3.582999999999999829e+01,1.900000000000000022e-01,4.063039363910405017e-04,-1.583323219682686300e-03,8.382493280433141284e-06,4.722480636431212186e-01
2.921580513999999962e+00,4.108407450000000072e-01,2.089999999999999844e-02,1.000000000000000048e-04,3.470000000000000284e+01,1.900000000000000022e-01,1.023662646268418750e-05,7.667168014882097538e-04,3.037769326031884292e-06,1.883823930614813569e-01
-2.362072097179586105e+00,1.187667234999999932e+00,2.189999999999999933e-02,1.000000000000000048e-04,3.485000000000000142e+01,1.900000000000000022e-01,8.059189004674554603e-04,3.410056594772559180e-04,3.481356189493993036e-06,6.208624164924286121e-02
-2.337569846179586186e+00,3.756736769999999837e-01,3.200000000000000067e-02,1.000000000000000048e-04,3.559000000000000341e+01,1.700000000000000122e-01,7.684660823677921500e-04,1.946568920288216376e-03,5.354857305131493175e-06,2.591901553354419296e-01
-1.563533060179586265e+00,8.298117619999999528e-01,7.400000000000000328e-03,1.000000000000000048e-04,3.238000000000000256e+01,3.300000000000000155e-01,1.065165138069529630e-03,4.051804977642792238e-04,1.121242795295754975e-06,3.884793973850740323e-01
-7.514201781795861734e-01,8.148208550000000105e-01,1.510000000000000057e-02,1.000000000000000048e-04,3.453000000000000114e+01,2.099999999999999922e-01,9.187494817387478058e-04,-3.620778327312779155e-03,3.241021334912641646e-06,6.358277406929691011e+00
-2.172991007179586376e+00,1.278564443000000050e+00,1.919999999999999832e-02,1.000000000000000048e-04,3.449000000000000199e+01,2.000000000000000111e-01,8.115857138823024232e-04,8.965798193236729219e-04,2.786139736666052957e-06,2.592834043716406387e-03
1.004972830999999900e+00,3.284388160000000223e-01,2.659999999999999865e-02,1.000000000000000048e-04,3.532000000000000028e+01,1.799999999999999933e-01,-4.475054757615701739e-04,-6.480861209889887675e-05,4.760092617893158305e-06,3.076765542475259560e-02
-1.050913719179586536e+00,7.925907810000000220e-01,3.769999999999999740e-02,1.000000000000000048e-04,3.579999999999999716e+01,2.899999999999999800e-01,1.019300306534172505e-03,4.762964791438450973e-03,1.856238991577552927e-05,7.550225934874223999e-01
1.174967896000000067e+00,-7.032179160000000540e-01,2.469999999999999973e-02,1.000000000000000048e-04,3.490999999999999659e+01,1.799999999999999933e-01,-1.007121789381508004e-03,2.595816072264334196e-03,3.268243144178879930e-06,3.971908044235345603e+00
2.063754460999999818e+00,1.158898511999999936e+00,2.419999999999999929e-02,1.000000000000000048e-04,3.518999999999999773e+01,1.799999999999999933e-01,2.681225700209074613e-04,-9.701001335269410220e-04,4.255104472453009580e-06,3.603191116709472674e-01
1.355273345999999934e+00,1.034050206000000083e+00,3.660000000000000059e-02,1.000000000000000048e-04,3.596999999999999886e+01,1.700000000000000122e-01,1.276325675287323701e-04,9.277224755530610878e-04,7.519173469807968788e-06,8.513487067332245473e-02
1.878516419999999965e+00,-5.891517790000000421e-01,2.290000000000000022e-02,1.000000000000000048e-04,3.514000000000000057e+01,1.799999999999999933e-01,-1.070141357588998707e-03,-1.724057283921665018e-03,4.080715204933260314e-06,1.047870329677913770e-01
3.042909537999999969e+00,4.914006550000000195e-01,3.119999999999999857e-02,1.000000000000000048e-04,3.588000000000000256e+01,1.700000000000000122e-01,1.571607869451827305e-04,-3.196668097288357657e-03,7.056584224455772195e-06,1.593996163999118032e+00
-2.192876876179585821e+00,7.571444160000000423e-01,1.499999999999999944e-02,1.000000000000000048e-04,3.410999999999999943e+01,2.099999999999999922e-01,9.238071844912289481e-04,-4.224114208748463994e-04,2.192690966618303809e-06,8.265207277379460482e-01
-1.274335216179586006e+00,7.393028099999999769e-01,6.700000000000000226e-03,1.000000000000000048e-04,3.166000000000000014e+01,3.599999999999999867e-01,1.068701759416276634e-03,1.676667927325015128e-03,6.877890192899197719e-07,5.374073312528873103e-01
3.513372269999999742e-01,1.023017258000000096e+00,3.409999999999999837e-02,1.000000000000000048e-04,3.577000000000000313e+01,1.799999999999999933e-01,4.342586425992793725e-04,1.502953563996989317e-03,7.051629557702097909e-06,1.619638164023798066e-01
-2.045215730179585911e+00,1.346705497999999945e+00,2.510000000000000078e-02,1.000000000000000048e-04,3.495000000000000284e+01,1.799999999999999933e-01,7.931723279285630762e-04,2.592311013781323226e-03,3.387358018253110732e-06,9.555824903921118496e-01
2.622131355000000053e+00,-2.378520580000000051e-01,1.890000000000000013e-02,1.000000000000000048e-04,3.436999999999999744e+01,2.099999999999999922e-01,-6.415591722572321206e-04,1.579415236763193064e-03,2.749603188699149493e-06,1.793977889535880443e+00
1.499565373000000035e+00,-5.833961840000000398e-01,2.980000000000000010e-02,1.000000000000000048e-04,3.546999999999999886e+01,1.199999999999999956e-01,-1.076686055209088262e-03,1.307954451081227987e-03,2.404728419295031207e-06,2.364720397785123218e+00
9.453780529999999960e-01,-3.014802610000000271e-01,1.469999999999999953e-02,1.000000000000000048e-04,3.384000000000000341e+01,1.799999999999999933e-01,-8.212775791153315670e-04,1.080938362378436324e-03,1.254711047452136846e-06,2.883871545899538091e+00
1.003030738000000088e+00,-6.679498139999999751e-01,1.469999999999999953e-02,1.000000000000000048e-04,3.406000000000000227e+01,1.799999999999999933e-01,-9.425522210992273980e-04,-3.750293041702157382e-04,1.539580059016463596e-06,2.092013723829152516e-01
-2.858957567179586157e+00,-2.878047879999999781e-01,3.209999999999999659e-02,1.000000000000000048e-04,3.538000000000000256e+01,1.300000000000000044e-01,-2.489883585159526858e-05,4.832319133525997401e-03,2.570022577567208425e-06,9.179906280970255850e+00
-2.653655062179586022e+00,5.464710109999999510e-01,2.759999999999999953e-02,1.000000000000000048e-04,3.547999999999999687e+01,1.300000000000000044e-01,6.231425480412452296e-04,-1.085947581712654042e-03,2.873765228187828694e-06,1.016432742303083225e+00
-1.077960778179586576e+00,1.305029642999999906e+00,4.700000000000000011e-02,1.000000000000000048e-04,3.649000000000000199e+01,1.100000000000000006e-01,8.344582813943197909e-04,2.060598627598331234e-03,4.941964066955225480e-06,3.042151112837935267e-01
2.996279555000000094e+00,-9.792432829999999644e-01,1.830000000000000029e-02,1.000000000000000048e-04,3.436999999999999744e+01,1.600000000000000033e-01,-6.509162222608455518e-04,9.692360114550435668e-04,1.599934741130661661e-06,1.640625203600237780e+00
-7.405109531795863731e-01,5.344760480000000369e-01,1.329999999999999932e-02,1.000000000000000048e-04,3.399000000000000199e+01,1.900000000000000022e-01,8.867989118144113583e-04,-1.316870843689810222e-03,1.616458487111594448e-06,3.004197404414249650e+00
-1.986221938179586033e+00,3.858849830000000147e-01,8.999999999999999320e-03,1.000000000000000048e-04,3.235999999999999943e+01,2.600000000000000089e-01,9.517373998982345609e-04,2.078558916935646650e-03,6.792713941697876432e-07,1.869248053365131890e+00
-1.660796187179585992e+00,1.337702168000000080e+00,2.419999999999999929e-02,1.000000000000000048e-04,3.504999999999999716e+01,1.300000000000000044e-01,8.266769060926332539e-04,6.072767099518650014e-04,1.946904994353666808e-06,2.472459940583177085e-02
-1.008319883179586540e+00,9.035811799999999838e-01,1.499999999999999944e-02,1.000000000000000048e-04,3.395000000000000284e+01,1.799999999999999933e-01,9.902825076633166475e-04,6.744052090754681927e-04,1.388432616672541261e-06,7.186410529758484322e-02
-2.859227719179586291e+00,-3.383984709999999785e-01,1.490000000000000005e-02,1.000000000000000048e-04,3.403000000000000114e+01,1.799999999999999933e-01,-5.873953329398945493e-05,3.504892562000705425e-05,1.496058275755843187e-06,5.879633947426500529e-03
-3.008470453179586279e+00,-9.028608339999999455e-01,2.840000000000000163e-02,1.000000000000000048e-04,3.554999999999999716e+01,1.300000000000000044e-01,-4.848217869072516794e-04,-1.206314270581265724e-03,3.059155471659647885e-06,1.701618008043536134e-01
2.720373041999999852e+00,-1.026937239000000002e+00,4.499999999999999833e-02,1.000000000000000048e-04,3.654999999999999716e+01,1.100000000000000006e-01,-7.750851385656366225e-04,-1.297648563480247041e-03,5.273089942941170183e-06,5.178605637554820756e-02
1.131806215999999976e+00,-1.312634394000000038e+00,3.289999999999999869e-02,1.000000000000000048e-04,3.596999999999999886e+01,1.199999999999999956e-01,-8.165033044083225494e-04,-2.901305074846538545e-03,3.801808638866983495e-06,1.143244922321402068e+00
1.262497049000000038e+00,-7.576738640000000302e-01,1.389999999999999916e-02,1.000000000000000048e-04,3.403000000000000114e+01,1.900000000000000022e-01,-1.029172149954196052e-03,-9.795909850837114519e-04,1.673535021929789794e-06,1.468921700293708858e-03
-2.150308364179585929e+00,9.473204419999999848e-01,2.040000000000000147e-02,1.000000000000000048e-04,3.465999999999999659e+01,1.499999999999999944e-01,9.238420743641341222e-04,6.248317159667227116e-04,1.827738745280327387e-06,4.891683489219663533e-02
-2.672281993179586035e+00,8.065802300000000091e-01,2.299999999999999961e-02,1.000000000000000048e-04,3.513000000000000256e+01,1.400000000000000133e-01,6.884431394901282782e-04,-1.510319127984494081e-03,2.445062746486547438e-06,1.977272573400087774e+00
-2.768228307179586345e+00,1.501965110000000048e-01,2.680000000000000090e-02,1.000000000000000048e-04,3.525999999999999801e+01,1.300000000000000044e-01,3.360953666465330263e-04,8.691804365514865793e-04,2.345408075199828401e-06,1.211642846976030558e-01
2.456608391000000058e+00,-6.815239560000000418e-01,8.000000000000000167e-03,1.000000000000000048e-04,3.278999999999999915e+01,2.899999999999999800e-01,-8.840047381925435254e-04,-4.480145839662608154e-04,1.263392943227149429e-06,1.504578726684255019e-01
-1.538735822179586599e+00,7.895792169999999999e-01,1.789999999999999925e-02,1.000000000000000048e-04,3.435000000000000142e+01,1.600000000000000033e-01,1.073812055977242533e-03,7.208706337757941895e-04,1.573066265889944848e-06,7.918779405971702878e-02
-6.811844061795859773e-01,-7.989239399999999991e-01,1.060000000000000005e-02,1.000000000000000048e-04,3.331000000000000227e+01,2.300000000000000100e-01,-3.506269715278666194e-05,-1.070707164156914359e-04,1.272822691798463819e-06,4.073744812673306057e-03
-9.881069141795864041e-01,9.266642769999999807e-01,9.599999999999999159e-03,1.000000000000000048e-04,3.284000000000000341e+01,2.500000000000000000e-01,9.801616158716809201e-04,9.688631738395958592e-04,9.771145544750311068e-07,1.306446534520927202e-04
9.533575850000000074e-01,-5.868324440000000086e-01,4.839999999999999858e-02,1.000000000000000048e-04,3.668999999999999773e+01,1.199999999999999956e-01,-9.101765238844881532e-04,-8.428167171347089592e-04,7.073430120315496800e-06,6.414629802217116121e-04
-1.550854682179585886e+00,1.341867675000000037e+00,6.300000000000000044e-03,1.000000000000000048e-04,3.103000000000000114e+01,3.599999999999999867e-01,8.265917935381019831e-04,2.284909777796606534e-03,4.393089574152948636e-07,4.840992443505649945e+00
1.284766933000000000e+00,-9.049604909999999780e-01,4.370000000000000273e-02,1.000000000000000048e-04,3.639000000000000057e+01,1.300000000000000044e-01,-1.010062347636760680e-03,6.607137175589361533e-04,6.359722861626525803e-06,4.389330668595957663e-01
